date,minute,label,high,low,average,volume,notional,numberOfTrades,marketHigh,marketLow,marketAverage,marketVolume,marketNotional,marketNumberOfTrades,open,close,marketOpen,marketClose,changeOverTime,marketChangeOverTime,tickerName,tickerDate
2019-12-03,09:30,09:30 AM,258.21,256.47,257.452,21337,5493257.465,172,258.31,256.33,257.648,1482415,381940963.9016,5100,258.165,257.21,258.31,257.16,0.0,0.0,aapl,20191203
2019-12-03,09:31,09:31 AM,257.34,256.67,256.991,11970,3076183.3,70,257.39,256.52,257.03,311639,80100537.9579,1479,257.105,257.155,257.17,257.087,-0.0017906250485527893,-0.002398621374899288,aapl,20191203
2019-12-03,09:32,09:32 AM,257.585,257.12,257.435,5037,1296702.06,55,257.63,257.05,257.36,234174,60267023.0698,1255,257.12,257.41,257.12,257.37,-6.60317263023628e-05,-0.001117804135875345,aapl,20191203
2019-12-03,09:33,09:33 AM,257.5,256.76,257.268,4130,1062516.45,29,257.505,256.7,257.173,230806,59357124.1992,1264,257.38,257.5,257.3,257.48,-0.0007146963317434936,-0.001843600571322202,aapl,20191203
2019-12-03,09:34,09:34 AM,258.0,257.5,257.78,4842,1248169.75,49,258.09,257.39,257.801,306009,78889439.5266,1438,257.5,257.98,257.437,258.05,0.001274023895716384,0.0005938334471836115,aapl,20191203
2019-12-03,09:35,09:35 AM,257.93,257.71,257.795,1033,266302.26,13,258.07,257.67,257.825,135113,34835461.228,810,257.77,257.89,258.021,257.85,0.0013322871836304155,0.0006869837918398903,aapl,20191203
2019-12-03,09:36,09:36 AM,258.46,257.93,258.334,3241,837260.33,26,258.498,257.84,258.216,214593,55411325.361,951,257.93,258.37,257.845,258.369,0.0034258813293351967,0.0022045581568651165,aapl,20191203
2019-12-03,09:37,09:37 AM,258.24,258.0,258.122,402,103765.18,5,258.42,257.77,258.073,153025,39491605.8656,797,258.12,258.0,258.345,257.77,0.002602426860152634,0.0016495373532880305,aapl,20191203
2019-12-03,09:38,09:38 AM,257.74,257.555,257.629,1127,290348.035,13,257.79,257.53,257.621,169062,43553972.231,791,257.59,257.64,257.75,257.65,0.0006875067973836712,-0.00010479413773847906,aapl,20191203
2019-12-03,09:39,09:39 AM,257.65,257.26,257.488,414,106600.2,6,257.66,257.12,257.417,133597,34390169.1007,668,257.63,257.26,257.61,257.25,0.00013983189099327784,-0.0008965720673168484,aapl,20191203
2019-12-03,09:40,09:40 AM,257.19,257.1,257.132,468,120338.05,7,257.235,257.01,257.13,134729,34642871.9353,674,257.15,257.1,257.225,257.05,-0.001242950142162396,-0.0020104949388313866,aapl,20191203
2019-12-03,09:41,09:41 AM,257.38,257.02,257.067,3183,818244.265,29,257.45,256.87,257.094,167084,42956364.0408,823,257.06,257.38,257.06,257.37,-0.0014954243897891293,-0.0021502204558158044,aapl,20191203
2019-12-03,09:42,09:42 AM,257.41,257.22,257.306,2486,639663.66,26,257.46,257.21,257.324,116510,29980779.9094,626,257.38,257.3,257.37,257.407,-0.0005670960023616636,-0.001257529652859763,aapl,20191203
2019-12-03,09:43,09:43 AM,257.61,257.44,257.476,2600,669438.0,12,257.68,257.35,257.488,142926,36801661.7758,711,257.44,257.61,257.39,257.63,9.322126066218522e-05,-0.0006210022977085985,aapl,20191203
2019-12-03,09:44,09:44 AM,258.15,257.73,257.94,2427,626021.385,19,258.17,257.63,257.963,173906,44861246.3422,810,257.8,257.98,257.66,257.89,0.0018954989667976925,0.0012225982736136034,aapl,20191203
2019-12-03,09:45,09:45 AM,257.72,257.54,257.571,1300,334842.5,10,257.91,257.42,257.625,105770,27248960.6336,534,257.57,257.54,257.89,257.57,0.0004622220841167604,-8.926908029569239e-05,aapl,20191203
2019-12-03,09:46,09:46 AM,257.93,257.63,257.807,1605,413780.76,16,257.97,257.58,257.837,79083,20390526.7346,411,257.63,257.89,257.591,257.96,0.0013788978139615082,0.0007335589641680296,aapl,20191203
2019-12-03,09:47,09:47 AM,257.94,257.31,257.627,1430,368407.425,17,257.96,257.25,257.595,112339,28937990.4706,675,257.94,257.33,257.96,257.39,0.0006797383589951189,-0.0002057070111159305,aapl,20191203
2019-12-03,09:48,09:48 AM,257.42,256.63,256.985,2310,593634.49,24,257.43,256.57,256.922,191278,49143603.1715,1030,257.42,256.63,257.42,256.71,-0.0018139303637182253,-0.002817797925852322,aapl,20191203
2019-12-03,09:49,09:49 AM,256.9,256.685,256.748,5947,1526881.36,23,256.96,256.66,256.796,132178,33942817.7038,582,256.725,256.76,256.71,256.791,-0.0027344903127573595,-0.0033068372352978957,aapl,20191203
2019-12-03,09:50,09:50 AM,256.74,256.5,256.529,1284,329382.81,16,256.83,256.45,256.625,177839,45637943.2438,922,256.74,256.5,256.8,256.46,-0.0035851343162997444,-0.003970533440973827,aapl,20191203
2019-12-03,09:51,09:51 AM,257.2,256.43,256.808,1258,323064.41,16,257.24,256.29,256.784,162729,41786186.5184,960,256.43,256.85,256.46,256.88,-0.0025014371611018966,-0.003353412407626035,aapl,20191203
2019-12-03,09:52,09:52 AM,257.14,256.81,256.907,2121,544900.375,16,257.24,256.74,256.976,96948,24913284.0753,534,256.86,257.08,256.83,257.06,-0.0021168994608704375,-0.002608209650375805,aapl,20191203
2019-12-03,09:53,09:53 AM,256.915,256.87,256.907,450,115608.0,4,257.08,256.74,256.902,96112,24691388.5192,474,256.91,256.915,257.05,257.01,-0.0021168994608704375,-0.0028954232130660347,aapl,20191203
2019-12-03,09:54,09:54 AM,257.13,256.88,257.015,1226,315100.85,9,257.144,256.85,256.998,87717,22543062.298,479,256.88,257.02,256.98,257.0,-0.0016974037878906042,-0.0025228218344409198,aapl,20191203
2019-12-03,09:55,09:55 AM,256.96,256.795,256.862,806,207031.07,10,257.07,256.67,256.892,139764,35904267.8061,652,256.96,256.935,257.01,256.86,-0.0022916893246118695,-0.0029342358566727808,aapl,20191203
2019-12-03,09:56,09:56 AM,256.975,256.71,256.846,202,51882.92,3,257.4,256.65,256.972,149600,38443083.227,708,256.71,256.975,256.822,257.39,-0.0023538368317200663,-0.0026237347078185915,aapl,20191203
2019-12-03,09:57,09:57 AM,257.29,257.08,257.102,2716,698289.565,10,257.4,257.03,257.218,103824,26705418.4338,545,257.29,257.27,257.39,257.3,-0.0013594767179902379,-0.001668943675091624,aapl,20191203
2019-12-03,09:58,09:58 AM,257.51,257.195,257.382,2000,514763.44,23,257.53,257.18,257.379,94669,24365789.7993,434,257.3,257.51,257.32,257.524,-0.00027189534359800343,-0.0010440601130224394,aapl,20191203
2019-12-03,09:59,09:59 AM,257.73,257.51,257.604,1678,432259.3,22,257.873,257.46,257.663,86242,22221393.6439,408,257.51,257.73,257.522,257.76,0.0005904013175270995,5.821896541011906e-05,aapl,20191203
2019-12-03,10:00,10 AM,257.925,257.71,257.77,1558,401605.335,24,257.99,257.68,257.819,104127,26845905.4593,509,257.75,257.92,257.76,257.978,0.0012351817037738438,0.0006636962056759309,aapl,20191203
2019-12-03,10:01,10:01 AM,257.97,257.575,257.777,1331,343101.9,18,257.99,257.548,257.72,80056,20632050.0731,454,257.97,257.575,257.98,257.55,0.0012623712381336662,0.00027945103396883627,aapl,20191203
2019-12-03,10:02,10:02 AM,257.855,257.535,257.711,1903,490424.765,22,257.87,257.51,257.716,86058,22178537.2502,409,257.535,257.855,257.57,257.84,0.0010060127713127673,0.00026392597652604956,aapl,20191203
2019-12-03,10:03,10:03 AM,257.855,257.67,257.75,1400,360850.0,14,257.91,257.42,257.763,85319,21992073.1475,535,257.84,257.765,257.88,257.83,0.001157497319888763,0.0004463454014778001,aapl,20191203
2019-12-03,10:04,10:04 AM,257.74,257.48,257.638,2311,595401.93,16,257.77,257.46,257.578,67970,17507593.0841,407,257.74,257.59,257.77,257.58,0.0007224647701318251,-0.00027168850524766355,aapl,20191203
2019-12-03,10:05,10:05 AM,257.62,257.5,257.528,2021,520464.98,22,257.66,257.47,257.522,92832,23906325.4457,505,257.62,257.53,257.61,257.53,0.0002952006587636601,-0.0004890393094455738,aapl,20191203
2019-12-03,10:06,10:06 AM,257.73,257.56,257.664,2141,551659.66,11,257.73,257.51,257.633,72747,18742000.6417,413,257.59,257.56,257.52,257.53,0.0008234544691825625,-5.821896541033969e-05,aapl,20191203
2019-12-03,10:07,10:07 AM,257.515,257.32,257.36,1334,343318.26,20,257.57,257.31,257.391,78495,20203912.468,430,257.515,257.39,257.54,257.41,-0.0003573481658716364,-0.0009974849406942999,aapl,20191203
2019-12-03,10:08,10:08 AM,257.5,257.19,257.341,1536,395275.98,16,257.52,257.13,257.275,92535,23806961.6638,486,257.5,257.19,257.41,257.225,-0.00043114833056255147,-0.0014477116065331275,aapl,20191203
2019-12-03,10:09,10:09 AM,257.225,256.96,257.057,826,212329.17,6,257.24,256.94,257.088,78661,20222811.3106,340,257.225,256.96,257.22,256.962,-0.0015342665817316696,-0.002173508041979764,aapl,20191203
2019-12-03,10:10,10:10 AM,257.015,256.94,256.976,1995,512666.29,22,257.048,256.91,256.978,71377,18342296.3595,500,256.97,256.95,256.96,256.95,-0.0018488883364666,-0.0026004471216544115,aapl,20191203
2019-12-03,10:11,10:11 AM,257.29,256.975,257.195,1175,302203.97,13,257.31,256.96,257.229,80680,20753231.7672,405,256.975,257.275,256.96,257.27,-0.000998244332924215,-0.0016262497671242918,aapl,20191203
2019-12-03,10:12,10:12 AM,257.385,257.18,257.293,2602,669477.94,27,257.395,257.16,257.289,97666,25128376.7955,542,257.32,257.325,257.28,257.32,-0.0006175908518869219,-0.0013933739054835948,aapl,20191203
2019-12-03,10:13,10:13 AM,257.325,257.25,257.305,1126,289725.04,12,257.37,257.22,257.293,72808,18732970.0222,414,257.325,257.26,257.34,257.26,-0.0005709802215558293,-0.0013778488480408082,aapl,20191203
2019-12-03,10:14,10:14 AM,257.52,257.49,257.503,450,115876.29,5,257.6,257.27,257.486,103826,26733747.5772,431,257.5,257.49,257.27,257.547,0.0001980951789070884,-0.0006287648264299919,aapl,20191203
2019-12-03,10:15,10:15 AM,257.625,257.45,257.538,1551,399441.565,19,257.74,257.4,257.574,111764,28787526.3124,583,257.585,257.62,257.55,257.71,0.0003340428507062005,-0.00028721356269022956,aapl,20191203
2019-12-03,10:16,10:16 AM,257.85,257.69,257.79,824,212419.305,12,257.88,257.672,257.779,107959,27829529.6162,487,257.69,257.77,257.69,257.78,0.0013128660876591453,0.0005084456312487261,aapl,20191203
2019-12-03,10:17,10:17 AM,258.35,257.81,258.14,2997,773644.955,25,258.36,257.78,258.12,160757,41494650.9439,831,257.825,258.35,257.78,258.35,0.0026723428056491627,0.0018319567782400016,aapl,20191203
2019-12-03,10:18,10:18 AM,258.35,258.21,258.258,1301,335994.265,13,258.38,258.16,258.237,150995,38992437.188,459,258.35,258.28,258.34,258.269,0.0031306806705715365,0.0022860647084394156,aapl,20191203
2019-12-03,10:19,10:19 AM,258.42,258.25,258.311,1693,437320.45,18,258.43,258.21,258.314,123353,31863808.8021,640,258.28,258.32,258.28,258.31,0.003336544287867177,0.002584922064211625,aapl,20191203
2019-12-03,10:20,10:20 AM,258.27,258.105,258.193,801,206812.73,12,258.324,258.07,258.17,68373,17651890.1297,384,258.27,258.13,258.31,258.18,0.0028782064229448032,0.0020260199962739527,aapl,20191203
2019-12-03,10:21,10:21 AM,258.21,258.05,258.177,612,158004.32,6,258.223,258.02,258.127,49936,12889810.0335,253,258.2,258.11,258.202,258.15,0.0028160589158368267,0.001859125628764768,aapl,20191203
2019-12-03,10:22,10:22 AM,258.15,258.105,258.126,545,140678.685,8,258.2,258.04,258.122,42458,10959359.272,248,258.12,258.12,258.16,258.16,0.0026179637369295175,0.001839719306961395,aapl,20191203
2019-12-03,10:23,10:23 AM,258.285,258.185,258.231,653,168625.0,7,258.3,258.12,258.213,66322,17125197.0956,359,258.185,258.24,258.165,258.24,0.003025806752326633,0.002192914363783137,aapl,20191203
2019-12-03,10:24,10:24 AM,258.41,258.255,258.326,433,111855.19,10,258.45,258.24,258.355,76749,19828470.4228,278,258.27,258.36,258.26,258.36,0.0033948075757812084,0.0027440539029994163,aapl,20191203
2019-12-03,10:25,10:25 AM,258.21,258.17,258.183,863,222811.88,7,258.39,258.14,258.233,52496,13556195.2049,303,258.21,258.17,258.39,258.145,0.002839364231002263,0.0022705396509966292,aapl,20191203
2019-12-03,10:26,10:26 AM,258.175,257.93,258.001,864,222913.175,13,258.184,257.9,257.999,102134,26350506.792,482,258.175,257.93,258.145,257.998,0.0021324363376473213,0.0013623237905980216,aapl,20191203
2019-12-03,10:27,10:27 AM,258.05,257.96,258.004,207,53406.91,5,258.15,257.95,258.035,50514,13034373.5708,252,257.99,257.96,257.99,258.14,0.00214408899523026,0.0015020493075824396,aapl,20191203
2019-12-03,10:28,10:28 AM,258.17,258.04,258.096,500,129047.825,8,258.2,258.03,258.13,37095,9575324.4499,226,258.145,258.04,258.142,258.12,0.0025014371611018966,0.0018707694218467476,aapl,20191203
2019-12-03,10:29,10:29 AM,258.075,257.95,258.048,531,137023.45,7,258.12,257.92,258.037,45785,11814205.8689,262,258.045,257.95,258.12,257.93,0.002314994639777526,0.0015098118363036123,aapl,20191203
2019-12-03,10:30,10:30 AM,258.085,257.83,257.98,2706,698094.58,21,258.08,257.81,257.952,70367,18151278.9866,428,258.08,258.025,257.94,257.98,0.002050867734568075,0.0011799043656460504,aapl,20191203
2019-12-03,10:31,10:31 AM,258.02,257.81,257.886,602,155247.16,8,258.11,257.8,257.993,85478,22052701.741,561,258.02,257.825,257.98,257.837,0.0016857511303078863,0.0013390362044338416,aapl,20191203
2019-12-03,10:32,10:32 AM,257.81,257.705,257.724,906,233497.86,11,257.86,257.62,257.733,71657,18468382.4193,458,257.81,257.81,257.8,257.85,0.0010565076208380257,0.00032990747065756197,aapl,20191203
2019-12-03,10:33,10:33 AM,257.98,257.805,257.912,903,232894.71,10,258.02,257.8,257.923,95758,24698200.2899,472,257.805,257.95,257.85,257.96,0.001786740829358403,0.0010673476991863986,aapl,20191203
2019-12-03,10:34,10:34 AM,257.89,257.83,257.843,3320,856037.44,7,257.97,257.81,257.876,42838,11046884.4543,201,257.89,257.845,257.962,257.86,0.0015187297049547859,0.0008849282742344275,aapl,20191203
2019-12-03,10:35,10:35 AM,257.82,257.67,257.757,2229,574540.33,11,257.88,257.57,257.722,66331,17094960.2764,362,257.79,257.705,257.87,257.618,0.0011846868542485854,0.000287213562690009,aapl,20191203
2019-12-03,10:36,10:36 AM,257.63,257.505,257.57,1679,432459.49,11,257.64,257.432,257.534,67168,17298016.3663,305,257.63,257.505,257.61,257.442,0.00045833786492237386,-0.0004424641371174344,aapl,20191203
2019-12-03,10:37,10:37 AM,257.57,257.51,257.548,721,185691.89,9,257.57,257.42,257.511,43042,11083785.3885,229,257.55,257.51,257.46,257.494,0.00037288504264874087,-0.0005317332174129061,aapl,20191203
2019-12-03,10:38,10:38 AM,257.56,257.395,257.478,1116,287345.06,5,257.56,257.33,257.419,55935,14398719.7667,263,257.485,257.41,257.497,257.39,0.00010098969905073745,-0.0008888095385954551,aapl,20191203
2019-12-03,10:39,10:39 AM,257.605,257.41,257.493,934,240498.585,13,257.626,257.38,257.519,60577,15599752.0389,315,257.41,257.605,257.4,257.555,0.000159252986964548,-0.0005006831025275534,aapl,20191203
2019-12-03,10:40,10:40 AM,257.495,257.325,257.34,732,188373.19,6,257.55,257.31,257.379,39676,10211776.891,223,257.495,257.325,257.55,257.33,-0.00043503254975693796,-0.0010440601130224394,aapl,20191203
2019-12-03,10:41,10:41 AM,257.45,257.34,257.361,243,62538.715,6,257.454,257.3,257.361,35737,9197311.0488,217,257.34,257.45,257.32,257.43,-0.0003534639466774707,-0.0011139228715147586,aapl,20191203
2019-12-03,10:42,10:42 AM,257.485,257.38,257.43,599,154200.57,6,257.492,257.32,257.426,39392,10140510.6419,208,257.43,257.415,257.44,257.41,-8.5452822273633e-05,-0.0008616406880706887,aapl,20191203
2019-12-03,10:43,10:43 AM,257.545,257.44,257.486,612,157581.76,7,257.559,257.39,257.483,40500,10428073.3262,206,257.48,257.44,257.42,257.5,0.0001320634526047256,-0.0006404086195119715,aapl,20191203
2019-12-03,10:44,10:44 AM,257.68,257.46,257.613,520,133958.855,8,257.73,257.46,257.59,48068,12381817.4792,250,257.5,257.65,257.52,257.59,0.0006253592902754741,-0.00022511333291952415,aapl,20191203
2019-12-03,10:45,10:45 AM,257.66,257.525,257.587,600,154552.49,10,257.71,257.5,257.587,60227,15513670.1366,350,257.6,257.525,257.6,257.52,0.0005243695912247367,-0.00023675712600150386,aapl,20191203
2019-12-03,10:46,10:46 AM,257.485,257.425,257.465,709,182542.44,9,257.553,257.41,257.469,45061,11601825.8753,252,257.465,257.43,257.48,257.428,5.0494849525258335e-05,-0.0006947463205615043,aapl,20191203
2019-12-03,10:47,10:47 AM,257.43,257.175,257.263,1521,391297.495,14,257.44,257.13,257.254,119565,30758626.2971,577,257.43,257.245,257.41,257.245,-0.0007341174277147638,-0.001529218158107206,aapl,20191203
2019-12-03,10:48,10:48 AM,257.265,257.025,257.156,2072,532827.945,13,257.295,256.97,257.092,104692,26915526.055,525,257.265,257.035,257.26,257.09,-0.0011497288815002108,-0.002157982984537198,aapl,20191203
2019-12-03,10:49,10:49 AM,257.07,256.94,256.988,1023,262898.31,12,257.081,256.93,256.975,61680,15850244.2315,334,257.07,256.94,257.062,256.945,-0.0018022777061355074,-0.0026120909147363913,aapl,20191203
2019-12-03,10:50,10:50 AM,257.01,256.86,256.909,1945,499688.85,17,257.08,256.81,256.906,90486,23246403.2233,424,256.89,257.01,256.94,257.08,-0.0021091310224818855,-0.002879898155623248,aapl,20191203
2019-12-03,10:51,10:51 AM,257.04,256.95,256.999,2862,735531.355,22,257.09,256.938,257.009,52537,13502490.6359,323,256.97,257.025,257.065,257.03,-0.0017595512949985805,-0.0024801279264733667,aapl,20191203
2019-12-03,10:52,10:52 AM,257.105,257.0,257.054,1308,336226.61,16,257.13,256.989,257.069,59317,15248548.0358,261,257.0,257.06,257.02,257.0,-0.0015459192393146085,-0.0022472520648326695,aapl,20191203
2019-12-03,10:53,10:53 AM,257.055,256.92,256.986,1756,451266.9,20,257.08,256.9,256.971,65947,16946491.3735,352,257.03,257.01,257.01,257.05,-0.0018100461445240597,-0.002627615972179178,aapl,20191203
2019-12-03,10:54,10:54 AM,257.245,257.005,257.132,1027,264074.69,14,257.26,256.998,257.146,47773,12284614.044,324,257.005,257.13,257.021,257.11,-0.001242950142162396,-0.0019483947090604603,aapl,20191203
2019-12-03,10:55,10:55 AM,257.265,256.96,257.194,4204,1081243.34,21,257.275,256.9,257.098,90749,23331343.733,518,257.085,257.265,257.11,257.26,-0.0010021285521183807,-0.002134695398373018,aapl,20191203
2019-12-03,10:56,10:56 AM,257.31,257.115,257.229,1590,408993.815,17,257.32,257.06,257.202,60351,15522428.0308,278,257.25,257.31,257.255,257.32,-0.0008661808803194894,-0.0017310439048625502,aapl,20191203
2019-12-03,10:57,10:57 AM,257.345,257.1,257.267,2066,531513.415,21,257.346,257.06,257.181,45626,11734143.5856,298,257.31,257.1,257.31,257.19,-0.0007185805509376593,-0.0018125504564368493,aapl,20191203
2019-12-03,10:58,10:58 AM,257.21,257.17,257.185,246,63267.45,5,257.25,257.06,257.165,38765,9969001.4138,172,257.18,257.17,257.17,257.2,-0.0010370865248667553,-0.0018746506862075546,aapl,20191203
2019-12-03,10:59,10:59 AM,257.13,257.085,257.108,399,102585.915,3,257.2,256.98,257.107,52536,13507357.2922,283,257.13,257.085,257.18,256.99,-0.0013361714028245813,-0.002099764019126858,aapl,20191203
2019-12-03,11:00,11 AM,256.88,256.765,256.82,1474,378552.915,11,257.11,256.72,256.849,121936,31319205.4806,595,256.86,256.815,257.01,256.77,-0.002454826530770804,-0.003101130224181965,aapl,20191203
2019-12-03,11:01,11:01 AM,256.89,256.76,256.797,1717,440919.92,9,256.91,256.67,256.824,100730,25869872.8803,394,256.77,256.76,256.77,256.69,-0.0025441635722386028,-0.0031981618331988304,aapl,20191203
2019-12-03,11:02,11:02 AM,256.79,256.655,256.703,1034,265431.14,10,256.84,256.48,256.697,88636,22752597.9444,405,256.69,256.72,256.71,256.71,-0.0029092801764990122,-0.00369108240700499,aapl,20191203
2019-12-03,11:03,11:03 AM,256.81,256.675,256.728,585,150185.875,7,256.83,256.66,256.742,54550,14005289.9642,255,256.7,256.785,256.702,256.82,-0.0028121746966424405,-0.0035164255107744125,aapl,20191203
2019-12-03,11:04,11:04 AM,256.825,256.695,256.755,350,89864.25,4,256.86,256.68,256.769,38571,9903853.0864,200,256.825,256.715,256.78,256.79,-0.002707300778397537,-0.003411631373036154,aapl,20191203
2019-12-03,11:05,11:05 AM,256.88,256.81,256.858,524,134593.89,7,256.93,256.77,256.856,43486,11169662.3193,189,256.84,256.81,256.79,256.81,-0.002307226201388974,-0.0030739613736571986,aapl,20191203
2019-12-03,11:06,11:06 AM,256.89,256.81,256.857,300,77057.0,3,256.91,256.78,256.851,29735,7637479.6553,108,256.81,256.87,256.81,256.87,-0.0023111104205831394,-0.0030933676954605716,aapl,20191203
2019-12-03,11:07,11:07 AM,257.135,256.915,257.081,1147,294871.55,12,257.15,256.87,257.049,52589,13517969.9268,260,256.915,257.135,256.87,257.105,-0.0014410453210694843,-0.0023248773520463824,aapl,20191203
2019-12-03,11:08,11:08 AM,257.135,257.055,257.071,1010,259642.05,9,257.17,257.01,257.089,45892,11798335.28,197,257.085,257.135,257.1,257.14,-0.0014798875130120248,-0.0021696267776191774,aapl,20191203
2019-12-03,11:09,11:09 AM,257.33,257.145,257.268,1100,282995.0,9,257.35,257.08,257.256,60688,15612361.7467,286,257.145,257.27,257.16,257.27,-0.0007146963317434936,-0.0015214556293860334,aapl,20191203
2019-12-03,11:10,11:10 AM,257.275,257.235,257.252,396,101871.875,6,257.31,257.17,257.251,39960,10279746.4946,188,257.27,257.245,257.28,257.245,-0.0007768438388514699,-0.0015408619511894062,aapl,20191203
2019-12-03,11:11,11:11 AM,257.255,257.08,257.159,711,182839.925,6,257.265,257.067,257.147,45168,11614841.408,239,257.255,257.175,257.26,257.21,-0.0011380762239174929,-0.001944513444699874,aapl,20191203
2019-12-03,11:12,11:12 AM,257.53,257.185,257.332,3469,892684.48,37,257.58,257.16,257.387,70535,18154826.8308,335,257.185,257.53,257.185,257.55,-0.0004661063033109261,-0.0010130099981370865,aapl,20191203
2019-12-03,11:13,11:13 AM,257.64,257.53,257.574,762,196271.73,9,257.64,257.48,257.573,80370,20701170.8046,256,257.57,257.64,257.55,257.636,0.00047387474169947836,-0.0002910948270510366,aapl,20191203
2019-12-03,11:14,11:14 AM,257.7,257.59,257.636,1500,386454.5,15,257.724,257.58,257.65,40743,10497430.2391,244,257.67,257.61,257.64,257.61,0.0007146963317434936,7.762528721172708e-06,aapl,20191203
2019-12-03,11:15,11:15 AM,257.63,257.44,257.54,1548,398671.88,16,257.638,257.43,257.532,39428,10153967.756,186,257.62,257.44,257.58,257.5,0.0003418112890947527,-0.0004502266658388277,aapl,20191203
2019-12-03,11:16,11:16 AM,257.76,257.545,257.626,943,242941.08,14,257.76,257.55,257.668,39621,10209046.9682,238,257.545,257.66,257.55,257.677,0.0006758541398007324,7.762528721349209e-05,aapl,20191203
2019-12-03,11:17,11:17 AM,257.66,257.57,257.611,536,138079.38,9,257.7,257.57,257.634,19454,5012006.2064,140,257.66,257.64,257.68,257.65,0.0006175908518869219,-5.433770104953271e-05,aapl,20191203
2019-12-03,11:18,11:18 AM,257.665,257.53,257.619,1100,283381.25,12,257.68,257.51,257.585,41607,10717337.59,211,257.655,257.6,257.655,257.6,0.0006486646054411308,-0.00024451965472289716,aapl,20191203
2019-12-03,11:19,11:19 AM,257.53,257.45,257.49,200,51498.05,3,257.597,257.43,257.5,52465,13509759.2898,348,257.5,257.53,257.57,257.479,0.00014760032938183006,-0.0005744271253804591,aapl,20191203
2019-12-03,11:20,11:20 AM,257.55,257.44,257.5,400,103000.0,4,257.57,257.35,257.458,53656,13814166.8264,244,257.55,257.46,257.52,257.44,0.00018644252132437043,-0.0007374402285288367,aapl,20191203
2019-12-03,11:21,11:21 AM,257.48,257.415,257.438,709,182523.505,6,257.49,257.402,257.444,24579,6327717.74,140,257.48,257.44,257.48,257.42,-5.4379068719644845e-05,-0.0007917779295783694,aapl,20191203
2019-12-03,11:22,11:22 AM,257.44,257.42,257.431,404,104002.26,5,257.51,257.37,257.454,44350,11418073.6359,237,257.435,257.44,257.428,257.38,-8.156860307946727e-05,-0.0007529652859716233,aapl,20191203
2019-12-03,11:23,11:23 AM,257.445,257.335,257.388,259,66663.465,5,257.45,257.33,257.394,23782,6121357.5541,153,257.37,257.445,257.362,257.45,-0.00024859002843256753,-0.0009858411476123203,aapl,20191203
2019-12-03,11:24,11:24 AM,257.41,257.34,257.365,420,108093.425,9,257.44,257.32,257.382,40164,10337487.286,194,257.38,257.34,257.435,257.33,-0.0003379270699003662,-0.0010324163199404595,aapl,20191203
2019-12-03,11:25,11:25 AM,257.38,257.25,257.306,1024,263481.82,12,257.399,257.235,257.341,47884,12322514.5867,213,257.26,257.38,257.34,257.35,-0.0005670960023616636,-0.0011915481587282508,aapl,20191203
2019-12-03,11:26,11:26 AM,257.38,257.24,257.312,1904,489921.49,17,257.39,257.15,257.283,43600,11217533.9211,229,257.36,257.245,257.36,257.183,-0.0005437906871960069,-0.0014166614916475543,aapl,20191203
2019-12-03,11:27,11:27 AM,257.16,257.015,257.095,830,213389.14,14,257.18,257.01,257.089,46461,11944618.8735,255,257.16,257.07,257.17,257.178,-0.0013866662523498395,-0.0021696267776191774,aapl,20191203
2019-12-03,11:28,11:28 AM,257.205,257.09,257.135,1003,257906.88,12,257.209,257.08,257.142,23299,5991164.4662,136,257.205,257.11,257.2,257.11,-0.0012312974845796782,-0.001963919766503247,aapl,20191203
2019-12-03,11:29,11:29 AM,257.105,256.94,257.03,1171,300982.09,16,257.105,256.91,257.001,72686,18680383.3568,336,257.105,256.94,257.105,256.94,-0.0016391404999767936,-0.00251117804135894,aapl,20191203
2019-12-03,11:30,11:30 AM,256.96,256.91,256.936,1344,345322.375,12,256.98,256.9,256.933,41330,10619034.7592,201,256.925,256.91,256.93,256.937,-0.002004257104236982,-0.0027751040178849895,aapl,20191203
2019-12-03,11:31,11:31 AM,256.935,256.85,256.92,1017,261288.015,11,256.95,256.81,256.87,68354,17558118.1964,280,256.935,256.85,256.94,256.88,-0.0020664046113449586,-0.003019623672607666,aapl,20191203
2019-12-03,11:32,11:32 AM,256.84,256.75,256.796,128,32869.83,8,256.9,256.74,256.829,48808,12535294.2027,253,256.835,256.84,256.862,256.8,-0.002548047791432989,-0.0031787555113954574,aapl,20191203
2019-12-03,11:33,11:33 AM,256.87,256.84,256.845,204,52396.48,3,256.9,256.77,256.85,55594,14279338.8269,304,256.84,256.85,256.805,256.85,-0.002357721050914232,-0.0030972489598211582,aapl,20191203
2019-12-03,11:34,11:34 AM,256.95,256.85,256.936,833,214027.61,6,256.98,256.81,256.928,51674,13276499.9272,246,256.85,256.935,256.84,256.894,-0.002004257104236982,-0.0027945103396883626,aapl,20191203
2019-12-03,11:35,11:35 AM,256.965,256.83,256.883,444,114056.01,5,256.99,256.79,256.903,35784,9193020.5641,236,256.965,256.93,256.92,256.979,-0.002210120721532623,-0.0028915419487052277,aapl,20191203
2019-12-03,11:36,11:36 AM,257.035,256.96,257.017,519,133392.06,4,257.055,256.96,257.017,37836,9724483.5704,222,257.0,257.02,256.99,257.015,-0.001689635349502052,-0.002449077811588014,aapl,20191203
2019-12-03,11:37,11:37 AM,257.175,257.105,257.135,1129,290305.12,13,257.2,257.04,257.126,51042,13124205.8015,210,257.105,257.14,257.04,257.148,-0.0012312974845796782,-0.002026019996274173,aapl,20191203
2019-12-03,11:38,11:38 AM,257.255,257.23,257.247,898,231007.84,5,257.26,257.11,257.185,32285,8303227.7339,170,257.23,257.25,257.143,257.25,-0.0007962649348227401,-0.0017970253989940627,aapl,20191203
2019-12-03,11:39,11:39 AM,257.27,257.21,257.217,210,54015.61,4,257.35,257.2,257.284,42780,11006600.5987,211,257.27,257.22,257.27,257.27,-0.0009127915106505821,-0.0014127802272869679,aapl,20191203
2019-12-03,11:40,11:40 AM,257.27,257.27,257.27,3,771.81,1,257.297,257.2,257.244,26928,6927074.1779,151,257.27,257.27,257.27,257.265,-0.0007069278933549414,-0.0015680308017139522,aapl,20191203
2019-12-03,11:41,11:41 AM,257.27,257.27,257.27,100,25727.0,1,257.28,257.09,257.197,23581,6064954.3817,134,257.27,257.27,257.26,257.186,-0.0007069278933549414,-0.0017504502266659232,aapl,20191203
2019-12-03,11:42,11:42 AM,257.24,257.2,257.216,1200,308659.5,7,257.271,257.15,257.21,21581,5550848.8605,136,257.22,257.21,257.19,257.15,-0.0009166757298447477,-0.0016999937899771975,aapl,20191203
2019-12-03,11:43,11:43 AM,257.48,257.315,257.346,1109,285397.14,8,257.57,257.17,257.41,75945,19549019.141,407,257.315,257.46,257.17,257.39,-0.00041172723459128127,-0.0009237409178413942,aapl,20191203
2019-12-03,11:44,11:44 AM,257.48,257.37,257.432,915,235550.7,12,257.56,257.35,257.471,59021,15196222.4015,237,257.48,257.37,257.46,257.361,-7.768438388508076e-05,-0.0006869837918401109,aapl,20191203
2019-12-03,11:45,11:45 AM,257.59,257.49,257.587,412,106125.88,5,257.64,257.37,257.544,28665,7382494.124,185,257.49,257.59,257.37,257.5,0.0005243695912247367,-0.0004036514935106883,aapl,20191203
2019-12-03,11:46,11:46 AM,257.6,257.4,257.504,634,163257.8,10,257.61,257.38,257.485,45313,11667400.9891,239,257.495,257.47,257.48,257.488,0.0002019793981014749,-0.0006326460907905782,aapl,20191203
2019-12-03,11:47,11:47 AM,257.72,257.52,257.667,1119,288329.16,12,257.78,257.47,257.671,57311,14767380.3356,365,257.52,257.7,257.47,257.69,0.0008351071267652804,8.926908029547177e-05,aapl,20191203
2019-12-03,11:48,11:48 AM,257.89,257.78,257.812,411,105960.79,5,257.94,257.71,257.81,72330,18647397.9409,276,257.78,257.81,257.71,257.79,0.0013983189099327784,0.0006287648264297713,aapl,20191203
2019-12-03,11:49,11:49 AM,257.79,257.735,257.762,200,51552.5,3,257.814,257.709,257.759,34139,8799625.3738,158,257.79,257.735,257.777,257.769,0.0012041079502198555,0.00043082034403523406,aapl,20191203
2019-12-03,11:50,11:50 AM,257.83,257.715,257.773,905,233284.83,11,257.84,257.7,257.769,36803,9486669.3542,145,257.81,257.77,257.79,257.719,0.0012468343613567824,0.0004696329876419801,aapl,20191203
2019-12-03,11:51,11:51 AM,257.75,257.57,257.642,720,185501.905,12,257.78,257.56,257.663,46521,11986757.3692,164,257.73,257.605,257.71,257.611,0.0007380016469089296,5.821896541011906e-05,aapl,20191203
2019-12-03,11:52,11:52 AM,257.605,257.48,257.521,708,182324.53,11,257.603,257.39,257.517,48919,12597481.4136,322,257.605,257.54,257.603,257.5,0.00026801112440383773,-0.0005084456312489467,aapl,20191203
2019-12-03,11:53,11:53 AM,257.5,257.425,257.457,424,109161.72,6,257.53,257.4,257.457,19829,5105111.378,110,257.5,257.44,257.49,257.43,1.942109597127019e-05,-0.0007413214928896437,aapl,20191203
2019-12-03,11:54,11:54 AM,257.29,257.28,257.282,176,45281.68,3,257.458,257.25,257.356,41120,10582459.6966,210,257.29,257.28,257.41,257.36,-0.0006603172630238488,-0.0011333291933181317,aapl,20191203
2019-12-03,11:55,11:55 AM,257.39,257.315,257.362,302,77723.22,4,257.47,257.3,257.368,29854,7683466.5102,164,257.36,257.39,257.35,257.465,-0.00034957972748308417,-0.0010867540209899922,aapl,20191203
2019-12-03,11:56,11:56 AM,257.555,257.51,257.533,35,9013.645,5,257.57,257.45,257.502,22079,5685395.671,106,257.51,257.555,257.47,257.51,0.0003146217547349303,-0.0005666645966590658,aapl,20191203
2019-12-03,11:57,11:57 AM,257.53,257.51,257.518,300,77255.5,3,257.569,257.43,257.487,30528,7860552.6685,153,257.51,257.515,257.521,257.457,0.000256358466820899,-0.0006248835620691849,aapl,20191203
2019-12-03,11:58,11:58 AM,257.51,257.47,257.502,409,105318.23,6,257.54,257.44,257.496,14395,3706653.2476,92,257.47,257.5,257.465,257.457,0.00019421095971292268,-0.0005899521828232458,aapl,20191203
2019-12-03,11:59,11:59 AM,257.56,257.48,257.539,131,33737.64,4,257.59,257.44,257.535,17626,4539307.2836,104,257.48,257.54,257.46,257.58,0.0003379270699003662,-0.0004385828727566274,aapl,20191203
2019-12-03,12:00,12 PM,257.495,257.49,257.494,400,102997.5,4,257.59,257.43,257.479,31825,8194271.6531,180,257.495,257.49,257.572,257.43,0.00016313720615893454,-0.0006559336769547582,aapl,20191203
2019-12-03,12:01,12:01 PM,257.48,257.38,257.478,420,108140.55,7,257.5,257.27,257.412,48877,12581525.8878,247,257.48,257.38,257.448,257.329,0.00010098969905073745,-0.0009159783891202214,aapl,20191203
2019-12-03,12:02,12:02 PM,257.39,257.25,257.301,611,157211.06,8,257.461,257.22,257.327,34744,8940588.952,197,257.39,257.26,257.32,257.27,-0.0005865170983329338,-0.0012458858597777834,aapl,20191203
2019-12-03,12:03,12:03 PM,257.345,257.19,257.323,2179,560707.12,20,257.35,257.16,257.253,40299,10367029.8517,236,257.28,257.28,257.27,257.27,-0.0005010642760593008,-0.001533099422468013,aapl,20191203
2019-12-03,12:04,12:04 PM,257.4,257.32,257.37,400,102948.0,4,257.44,257.26,257.358,24408,6281583.6643,139,257.32,257.4,257.29,257.35,-0.000318505973929096,-0.0011255666645967383,aapl,20191203
2019-12-03,12:05,12:05 PM,257.4,257.315,257.351,500,128675.5,5,257.43,257.26,257.36,27728,7136070.5526,138,257.35,257.4,257.35,257.425,-0.00039230613862001107,-0.001117804135875345,aapl,20191203
2019-12-03,12:06,12:06 PM,257.495,257.425,257.446,149,38359.525,7,257.564,257.425,257.488,25719,6622333.4959,137,257.425,257.495,257.425,257.564,-2.330531516543591e-05,-0.0006210022977085985,aapl,20191203
2019-12-03,12:07,12:07 PM,257.635,257.52,257.62,330,85014.56,16,257.65,257.52,257.583,26272,6767218.5163,123,257.535,257.615,257.56,257.61,0.0006525488246352965,-0.0002522821834440699,aapl,20191203
2019-12-03,12:08,12:08 PM,257.63,257.59,257.602,438,112829.535,13,257.63,257.565,257.601,23908,6158728.2501,113,257.605,257.6,257.6,257.565,0.0005826328791385473,-0.00018241942495197114,aapl,20191203
2019-12-03,12:09,12:09 PM,257.61,257.57,257.594,522,134464.025,11,257.61,257.54,257.593,15633,4026955.0228,102,257.57,257.59,257.55,257.6,0.0005515591255845591,-0.00021346953983732386,aapl,20191203
2019-12-03,12:10,12:10 PM,257.63,257.575,257.616,925,238295.125,17,257.64,257.56,257.603,19364,4988234.0081,120,257.6,257.61,257.6,257.6,0.000637011947858192,-0.00017465689623057782,aapl,20191203
2019-12-03,12:11,12:11 PM,257.61,257.455,257.477,1281,329828.57,28,257.61,257.43,257.498,26953,6940351.3301,176,257.61,257.455,257.61,257.455,9.710547985635094e-05,-0.0005821896541018525,aapl,20191203
2019-12-03,12:12,12:12 PM,257.455,257.4,257.438,907,233496.425,15,257.47,257.37,257.426,25849,6654196.31,156,257.45,257.4,257.45,257.42,-5.4379068719644845e-05,-0.0008616406880706887,aapl,20191203
2019-12-03,12:13,12:13 PM,257.43,257.41,257.426,157,40415.87,4,257.435,257.39,257.416,16588,4270019.7882,124,257.42,257.41,257.416,257.401,-0.00010098969905073745,-0.0009004533316774348,aapl,20191203
2019-12-03,12:14,12:14 PM,257.52,257.39,257.474,154,39651.03,10,257.53,257.36,257.472,19812,5101042.4437,126,257.39,257.51,257.4,257.51,8.5452822273633e-05,-0.0006831025274795246,aapl,20191203
2019-12-03,12:15,12:15 PM,257.73,257.49,257.623,1640,422501.45,22,257.75,257.49,257.636,54395,14014091.4582,242,257.49,257.68,257.52,257.68,0.0006642014822180145,-4.6575172328139376e-05,aapl,20191203
2019-12-03,12:16,12:16 PM,257.805,257.695,257.761,523,134808.825,21,257.85,257.67,257.774,76086,19612955.8376,344,257.745,257.73,257.67,257.716,0.00120022373102569,0.0004890393094453532,aapl,20191203
2019-12-03,12:17,12:17 PM,257.73,257.68,257.693,115,29634.75,6,257.74,257.65,257.695,33124,8535906.185,102,257.69,257.68,257.71,257.671,0.000936096825816018,0.0001824194249517505,aapl,20191203
2019-12-03,12:18,12:18 PM,257.735,257.695,257.728,136,35050.965,9,257.74,257.69,257.715,27647,7125060.1074,138,257.695,257.73,257.7,257.74,0.00107204449761513,0.0002600447121652426,aapl,20191203
2019-12-03,12:19,12:19 PM,258.055,257.79,257.939,691,178235.77,26,258.05,257.749,257.944,111253,28697052.3804,459,257.79,258.025,257.749,258.001,0.0018916147476035268,0.0011488542507606977,aapl,20191203
2019-12-03,12:20,12:20 PM,258.085,258.01,258.038,437,112762.475,15,258.1,258.0,258.046,37845,9765756.4686,195,258.035,258.085,258.03,258.1,0.0022761524478349857,0.0015447432155497722,aapl,20191203
2019-12-03,12:21,12:21 PM,258.14,258.055,258.107,154,39748.45,17,258.139,258.042,258.106,43669,11271224.118,143,258.095,258.105,258.09,258.086,0.0025441635722388235,0.0017776190771904689,aapl,20191203
2019-12-03,12:22,12:22 PM,258.25,258.105,258.211,201,51900.485,17,258.28,258.07,258.19,74970,19356533.9035,317,258.105,258.245,258.09,258.202,0.0029481223684415525,0.0021036452834874444,aapl,20191203
2019-12-03,12:23,12:23 PM,258.215,258.1,258.182,607,156716.205,22,258.24,258.09,258.177,46179,11922378.295,235,258.215,258.135,258.21,258.125,0.002835480011808097,0.002053188846798719,aapl,20191203
2019-12-03,12:24,12:24 PM,258.28,258.145,258.218,130,33568.33,10,258.29,258.11,258.205,42053,10858284.2061,191,258.145,258.22,258.15,258.17,0.002975311902801375,0.0021618642488975635,aapl,20191203
2019-12-03,12:25,12:25 PM,258.19,258.05,258.106,448,115631.7,8,258.2,258.02,258.086,33493,8644080.9114,154,258.18,258.07,258.171,258.08,0.002540279353044437,0.001699993789976977,aapl,20191203
2019-12-03,12:26,12:26 PM,258.06,258.02,258.052,37,9547.94,3,258.08,257.97,258.019,24711,6375911.4391,131,258.06,258.02,258.08,257.98,0.0023305315165546305,0.0014399490778115136,aapl,20191203
2019-12-03,12:27,12:27 PM,258.03,258.03,258.03,5,1290.15,1,258.07,257.924,258.002,24715,6376509.3906,120,258.03,258.03,257.997,258.02,0.0022450786942807767,0.0013739675836800013,aapl,20191203
2019-12-03,12:28,12:28 PM,258.07,258.01,258.016,204,52635.28,3,258.09,258.0,258.025,126974,32762469.1624,146,258.01,258.07,258.01,258.07,0.0021906996255613527,0.001463236663975473,aapl,20191203
2019-12-03,12:29,12:29 PM,,,,0,0.0,0,258.1,257.96,258.041,23994,6191449.9745,167,,,258.08,257.985,,0.0015253368937463991,aapl,20191203
2019-12-03,12:30,12:30 PM,258.06,257.94,258.002,227,58566.53,7,258.09,257.93,258.005,33836,8729841.348,145,257.94,258.06,257.99,258.03,0.002136320556841708,0.001385611376761981,aapl,20191203
2019-12-03,12:31,12:31 PM,258.01,257.93,258.008,204,52633.72,3,258.035,257.85,257.95,27597,7118634.2311,174,258.01,257.93,258.035,257.92,0.0021596258720071437,0.001172141836924657,aapl,20191203
2019-12-03,12:32,12:32 PM,257.94,257.87,257.936,106,27341.22,2,257.963,257.8,257.866,27806,7170237.979,145,257.94,257.87,257.963,257.81,0.0018799620900205882,0.0008461156306276814,aapl,20191203
2019-12-03,12:33,12:33 PM,257.8,257.79,257.792,133,34286.4,3,257.84,257.748,257.795,21009,5416007.4722,143,257.79,257.8,257.81,257.831,0.0013206345260474768,0.0005705458610196522,aapl,20191203
2019-12-03,12:34,12:34 PM,,,,0,0.0,0,257.86,257.76,257.829,22682,5848070.6126,105,,,257.828,257.841,,0.000702508849282677,aapl,20191203
2019-12-03,12:35,12:35 PM,,,,0,0.0,0,257.854,257.81,257.832,10779,2779175.132,79,,,257.846,257.833,,0.0007141526423646567,aapl,20191203
2019-12-03,12:36,12:36 PM,,,,0,0.0,0,257.92,257.767,257.839,17371,4478924.6785,116,,,257.83,257.92,,0.000741321492889423,aapl,20191203
2019-12-03,12:37,12:37 PM,258.0,257.92,257.959,220,56751.0,3,258.03,257.902,257.975,53219,13729186.2749,155,257.92,258.0,257.902,257.975,0.0019692991314886076,0.001269173445941743,aapl,20191203
2019-12-03,12:38,12:38 PM,257.995,257.98,257.99,113,29152.865,4,258.0,257.92,257.968,11997,3094845.724,76,257.99,257.98,257.96,257.93,0.002089709926510615,0.0012420045954169765,aapl,20191203
2019-12-03,12:39,12:39 PM,257.92,257.8,257.862,563,145176.24,9,257.92,257.76,257.841,26527,6839745.6132,150,257.92,257.85,257.92,257.84,0.001592529869645701,0.0007490840216108163,aapl,20191203
2019-12-03,12:40,12:40 PM,,,,0,0.0,0,257.9,257.79,257.855,17263,4451357.315,85,,,257.86,257.79,,0.000803421722660349,aapl,20191203
2019-12-03,12:41,12:41 PM,257.835,257.76,257.824,1100,283606.5,4,257.84,257.75,257.79,15243,3929489.7458,97,257.76,257.83,257.79,257.84,0.001444929540263871,0.0005511395392162791,aapl,20191203
2019-12-03,12:42,12:42 PM,,,,0,0.0,0,257.89,257.78,257.846,12734,3283415.7696,71,,,257.811,257.89,,0.0007684903434141894,aapl,20191203
2019-12-03,12:43,12:43 PM,257.785,257.765,257.769,1400,360877.0,3,257.88,257.72,257.806,18987,4894970.3114,129,257.765,257.785,257.87,257.84,0.0012312974845796782,0.0006132397689869846,aapl,20191203
2019-12-03,12:44,12:44 PM,257.77,257.765,257.767,200,51553.5,2,257.84,257.71,257.774,15891,4096279.7031,102,257.77,257.765,257.82,257.71,0.001223529046191126,0.0004890393094453532,aapl,20191203
2019-12-03,12:45,12:45 PM,257.74,257.64,257.687,546,140696.865,10,257.75,257.64,257.7,21113,5440813.5234,153,257.68,257.74,257.72,257.711,0.0009127915106505821,0.00020182574675512354,aapl,20191203
2019-12-03,12:46,12:46 PM,257.73,257.73,257.73,100,25773.0,1,257.79,257.71,257.757,29454,7591989.4436,150,257.73,257.73,257.71,257.77,0.0010798129360036822,0.0004230578153138407,aapl,20191203
2019-12-03,12:47,12:47 PM,,,,0,0.0,0,257.81,257.7,257.753,17252,4446757.8094,106,,,257.746,257.808,,0.00040753275787105405,aapl,20191203
2019-12-03,12:48,12:48 PM,257.92,257.8,257.828,258,66519.74,4,257.96,257.77,257.88,24994,6445444.7375,154,257.805,257.92,257.8,257.95,0.0014604664170407547,0.0009004533316772142,aapl,20191203
2019-12-03,12:49,12:49 PM,258.005,258.005,258.005,8,2064.04,1,258.01,257.94,257.983,30255,7805262.2808,147,258.005,258.005,257.97,257.97,0.0021479732144244258,0.0013002235608270956,aapl,20191203
2019-12-03,12:50,12:50 PM,257.96,257.96,257.96,106,27343.76,3,258.01,257.95,257.977,15950,4114738.1054,94,257.96,257.96,257.964,257.964,0.0019731833506827735,0.0012769359746629156,aapl,20191203
2019-12-03,12:51,12:51 PM,257.96,257.93,257.941,1600,412706.0,6,257.97,257.92,257.952,21138,5452580.754,71,257.96,257.935,257.965,257.933,0.0018993831859918583,0.0011799043656460504,aapl,20191203
2019-12-03,12:52,12:52 PM,257.96,257.87,257.937,1215,313393.25,7,257.963,257.81,257.922,22262,5741863.2788,92,257.95,257.87,257.93,257.82,0.0018838463092149746,0.0010634664348258122,aapl,20191203
2019-12-03,12:53,12:53 PM,257.86,257.81,257.819,516,133034.43,6,257.87,257.776,257.828,10646,2744833.0692,64,257.84,257.81,257.813,257.776,0.0014255084442926008,0.00069862758492187,aapl,20191203
2019-12-03,12:54,12:54 PM,257.815,257.775,257.804,1329,342621.12,5,257.82,257.76,257.781,23464,6048587.291,149,257.78,257.79,257.77,257.767,0.0013672451563785694,0.0005162081599701195,aapl,20191203
2019-12-03,12:55,12:55 PM,257.8,257.765,257.772,1989,512709.7,5,257.82,257.75,257.788,84566,21800145.0306,242,257.8,257.795,257.76,257.77,0.001242950142162396,0.0005433770104948858,aapl,20191203
2019-12-03,12:56,12:56 PM,257.82,257.735,257.788,1015,261654.37,10,257.85,257.73,257.773,24852,6406175.653,138,257.735,257.77,257.77,257.82,0.001305097649270593,0.0004851580450847668,aapl,20191203
2019-12-03,12:57,12:57 PM,257.85,257.79,257.821,215,55431.495,4,257.876,257.76,257.813,13890,3581018.9214,84,257.82,257.79,257.828,257.782,0.001433276882681153,0.0006404086195117509,aapl,20191203
2019-12-03,12:58,12:58 PM,257.93,257.8,257.888,590,152153.895,9,257.94,257.8,257.882,36500,9412689.5838,217,257.8,257.92,257.8,257.93,0.0016935195686962176,0.0009082158603986075,aapl,20191203
2019-12-03,12:59,12:59 PM,257.97,257.91,257.947,300,77384.0,3,257.97,257.86,257.936,15870,4093440.5937,112,257.91,257.97,257.905,257.97,0.001922688501157515,0.0011178041358751243,aapl,20191203
2019-12-03,13:00,1 PM,258.13,258.045,258.073,300,77422.0,3,258.172,257.97,258.055,76391,19713081.3039,236,258.045,258.13,257.98,258.09,0.002412100119633877,0.0015796745947959318,aapl,20191203
2019-12-03,13:01,1:01 PM,258.09,258.05,258.077,305,78713.375,4,258.1,258.041,258.084,20408,5266989.4495,120,258.09,258.05,258.09,258.079,0.0024276369964109814,0.0016922312612555836,aapl,20191203
2019-12-03,13:02,1:02 PM,258.085,258.08,258.081,25,6452.025,2,258.09,258.04,258.068,17384,4486249.5541,71,258.08,258.085,258.083,258.085,0.002443173873188086,0.0016301310314846575,aapl,20191203
2019-12-03,13:03,1:03 PM,258.1,258.08,258.081,106,27356.545,5,258.1,258.01,258.075,29724,7671019.8926,160,258.085,258.1,258.088,258.07,0.002443173873188086,0.001657299882009424,aapl,20191203
2019-12-03,13:04,1:04 PM,258.02,258.02,258.02,6,1548.12,1,258.08,257.96,258.004,12796,3301423.718,67,258.02,258.02,258.051,257.973,0.0022062365023382364,0.0013817301124013945,aapl,20191203
2019-12-03,13:05,1:05 PM,258.04,257.94,258.025,1155,298018.555,10,258.07,257.91,257.998,28239,7285595.2745,144,257.97,258.04,257.97,258.048,0.0022256575983095068,0.0013584425262372147,aapl,20191203
2019-12-03,13:06,1:06 PM,,,,0,0.0,0,258.07,257.97,258.024,16162,4170176.1968,96,,,258.05,258.056,,0.0014593553996148866,aapl,20191203
2019-12-03,13:07,1:07 PM,258.16,258.08,258.12,200,51624.0,2,258.17,258.05,258.113,37029,9557667.8964,141,258.08,258.16,258.07,258.15,0.0025946584217640817,0.0018047879277152353,aapl,20191203
2019-12-03,13:08,1:08 PM,258.16,258.14,258.15,201,51888.14,4,258.19,258.136,258.166,48061,12407735.2004,238,258.16,258.14,258.147,258.15,0.002711184997591703,0.002010494938831166,aapl,20191203
2019-12-03,13:09,1:09 PM,258.145,258.07,258.093,163,42069.135,3,258.15,258.052,258.111,32023,8265499.4137,87,258.145,258.07,258.145,258.084,0.0024897845035191787,0.001797025398993842,aapl,20191203
2019-12-03,13:10,1:10 PM,258.06,258.02,258.035,912,235327.98,5,258.07,258.0,258.034,31116,8028997.2775,161,258.06,258.02,258.07,258.05,0.002264499790252268,0.0014981680432216327,aapl,20191203
2019-12-03,13:11,1:11 PM,258.12,258.095,258.101,400,103240.5,4,258.15,258.047,258.112,29863,7707992.3846,181,258.12,258.095,258.05,258.095,0.0025208582570731665,0.001800906663354649,aapl,20191203
2019-12-03,13:12,1:12 PM,258.14,258.14,258.14,100,25814.0,1,258.15,258.071,258.13,19693,5083349.1193,128,258.14,258.14,258.09,258.133,0.0026723428056491627,0.0018707694218467476,aapl,20191203
2019-12-03,13:13,1:13 PM,258.12,258.09,258.109,206,53170.54,3,258.15,258.039,258.101,22944,5921877.4609,129,258.12,258.09,258.137,258.1,0.002551932010627155,0.0017582127553870959,aapl,20191203
2019-12-03,13:14,1:14 PM,258.1,258.07,258.097,897,231512.7,8,258.11,258.07,258.097,23059,5951459.9584,139,258.1,258.1,258.094,258.098,0.002505321380296062,0.0017426876979443093,aapl,20191203
2019-12-03,13:15,1:15 PM,258.1,258.085,258.095,656,169310.6,8,258.11,258.058,258.093,25642,6618021.8768,130,258.1,258.085,258.1,258.1,0.0024975529419077307,0.0017271626405017432,aapl,20191203
2019-12-03,13:16,1:16 PM,258.065,258.03,258.051,306,78963.71,4,258.1,257.97,258.036,35193,9081050.7891,177,258.065,258.03,258.1,258.007,0.002326647297360244,0.001505930571943026,aapl,20191203
2019-12-03,13:17,1:17 PM,258.025,257.99,258.007,234,60373.76,6,258.04,257.97,258.003,13744,3545994.8804,88,258.0,258.01,258.0,257.98,0.0021557416528129782,0.0013778488480405875,aapl,20191203
2019-12-03,13:18,1:18 PM,257.935,257.935,257.935,10,2579.35,5,258.0,257.93,257.97,14207,3664984.2843,93,257.935,257.935,258.0,257.94,0.0018760778708264223,0.0012497671241383699,aapl,20191203
2019-12-03,13:19,1:19 PM,257.97,257.95,257.951,106,27342.81,3,257.99,257.95,257.971,11463,2957117.0975,69,257.96,257.95,257.96,257.95,0.0019382253779346194,0.001253648388498956,aapl,20191203
2019-12-03,13:20,1:20 PM,257.985,257.91,257.932,221,57002.875,7,258.04,257.91,257.988,31171,8041740.7971,197,257.91,257.985,257.96,257.999,0.0018644252132437044,0.0013196298826304686,aapl,20191203
2019-12-03,13:21,1:21 PM,258.07,258.045,258.048,114,29417.48,5,258.08,257.99,258.038,22015,5680707.2886,90,258.045,258.07,257.99,258.08,0.002314994639777526,0.0015136931006644193,aapl,20191203
2019-12-03,13:22,1:22 PM,258.12,258.07,258.073,116,29936.47,5,258.14,258.06,258.105,46530,12009611.646,159,258.1,258.12,258.1,258.13,0.002412100119633877,0.0017737378128298827,aapl,20191203
2019-12-03,13:23,1:23 PM,258.15,258.15,258.15,100,25815.0,1,258.17,258.071,258.135,26938,6953645.1529,135,258.15,258.15,258.136,258.15,0.002711184997591703,0.0018901757436501207,aapl,20191203
2019-12-03,13:24,1:24 PM,258.17,258.17,258.17,101,26075.17,2,258.2,258.12,258.163,33942,8762556.5099,145,258.17,258.17,258.16,258.15,0.0027888693814770043,0.001998851145749186,aapl,20191203
2019-12-03,13:25,1:25 PM,258.19,258.14,258.165,1113,287337.28,9,258.2,258.12,258.164,29859,7708534.715,132,258.16,258.19,258.143,258.195,0.0027694482855057344,0.0020027324101097727,aapl,20191203
2019-12-03,13:26,1:26 PM,258.395,258.19,258.258,942,243279.07,11,258.4,258.19,258.281,70837,18295848.398,308,258.19,258.395,258.192,258.39,0.0031306806705715365,0.0024568403403091867,aapl,20191203
2019-12-03,13:27,1:27 PM,258.405,258.405,258.405,6,1550.43,1,258.59,258.35,258.478,69284,17908362.2679,325,258.405,258.405,258.397,258.49,0.0037016608921273658,0.0032214494193627896,aapl,20191203
2019-12-03,13:28,1:28 PM,258.515,258.465,258.482,1110,286915.355,9,258.526,258.43,258.481,35781,9248719.8923,180,258.515,258.485,258.505,258.526,0.004000745770085412,0.003233093212444769,aapl,20191203
2019-12-03,13:29,1:29 PM,258.58,258.58,258.58,1,258.58,1,258.66,258.517,258.591,57970,14990507.6546,315,258.58,258.58,258.517,258.57,0.004381399251122485,0.003660032292119417,aapl,20191203
2019-12-03,13:30,1:30 PM,258.6,258.47,258.514,15405,3982409.87,30,258.6,258.46,258.513,79890,20652574.9292,177,258.57,258.49,258.57,258.5,0.0041250407843015854,0.003357293671986401,aapl,20191203
2019-12-03,13:31,1:31 PM,258.525,258.44,258.487,2730,705669.57,24,258.525,258.43,258.465,53271,13768705.9019,211,258.52,258.44,258.525,258.452,0.0040201668660566825,0.0031709929826738434,aapl,20191203
2019-12-03,13:32,1:32 PM,258.515,258.5,258.506,162,41877.93,2,258.58,258.45,258.5,25462,6581936.7046,132,258.5,258.515,258.46,258.52,0.0040939670307473764,0.003306837235297675,aapl,20191203
2019-12-03,13:33,1:33 PM,258.51,258.51,258.51,1,258.51,1,258.74,258.49,258.633,70260,18171555.511,268,258.51,258.51,258.52,258.71,0.004109503907524481,0.0038230453952677944,aapl,20191203
2019-12-03,13:34,1:34 PM,258.73,258.66,258.685,400,103474.1,5,258.75,258.63,258.717,69034,17860267.8395,306,258.73,258.66,258.73,258.74,0.0047892422665196,0.00414907160156477,aapl,20191203
2019-12-03,13:35,1:35 PM,258.72,258.71,258.713,307,79424.97,4,258.82,258.67,258.751,38546,9973828.6191,146,258.71,258.71,258.72,258.82,0.00489800040395889,0.004281034589827795,aapl,20191203
2019-12-03,13:36,1:36 PM,258.82,258.8,258.818,113,29246.42,3,258.91,258.76,258.827,58457,15130266.7056,264,258.81,258.82,258.83,258.87,0.005305843419355785,0.0045760106812394175,aapl,20191203
2019-12-03,13:37,1:37 PM,258.91,258.875,258.892,200,51778.5,2,258.94,258.86,258.891,35297,9138071.7809,184,258.91,258.875,258.87,258.88,0.005593275639730892,0.0048244116003229014,aapl,20191203
2019-12-03,13:38,1:38 PM,259.08,258.945,259.071,141,36529.06,5,259.13,258.89,259.018,84643,21924030.0627,397,258.945,259.04,258.89,259.052,0.006288550875503116,0.005317332174128841,aapl,20191203
2019-12-03,13:39,1:39 PM,259.18,259.06,259.087,307,79539.71,7,259.2,259.03,259.14,59630,15452524.041,255,259.06,259.18,259.06,259.186,0.006350698382611092,0.005790846426131628,aapl,20191203
2019-12-03,13:40,1:40 PM,259.29,259.195,259.22,1852,480076.26,8,259.29,259.17,259.222,52504,13610201.016,262,259.225,259.285,259.19,259.25,0.006867299535447497,0.00610911010370721,aapl,20191203
2019-12-03,13:41,1:41 PM,259.28,259.07,259.203,909,235615.92,11,259.319,259.03,259.215,101150,26219557.1747,428,259.28,259.07,259.24,259.11,0.006801267809144914,0.006081941253182444,aapl,20191203
2019-12-03,13:42,1:42 PM,259.1,259.1,259.1,1,259.1,1,259.23,258.98,259.12,124887,32360682.6895,465,259.1,259.1,259.1,259.17,0.006401193232136572,0.005713221138918136,aapl,20191203
2019-12-03,13:43,1:43 PM,259.155,259.005,259.083,404,104669.595,7,259.256,259.0,259.126,49437,12810424.112,253,259.14,259.005,259.15,259.0,0.0063351615058342085,0.0057365087250820955,aapl,20191203
2019-12-03,13:44,1:44 PM,259.165,259.01,259.079,615,159333.76,10,259.185,259.01,259.095,41797,10829408.988,214,259.01,259.165,259.02,259.09,0.006319624629057104,0.005616189529901271,aapl,20191203
2019-12-03,13:45,1:45 PM,259.19,259.075,259.164,726,188153.385,12,259.2,259.06,259.158,24656,6389808.2751,150,259.075,259.14,259.11,259.14,0.006649783260568918,0.005860709184623948,aapl,20191203
2019-12-03,13:46,1:46 PM,259.16,258.94,259.012,723,187265.59,12,259.17,258.91,259.049,43485,11264732.2119,260,259.16,258.94,259.13,258.97,0.006059381943041818,0.005437651369309886,aapl,20191203
2019-12-03,13:47,1:47 PM,259.005,258.95,258.997,186,48173.4,5,259.09,258.93,259.006,34976,9059010.9655,212,258.995,259.0,258.98,259.048,0.006001118655128008,0.005270757001800701,aapl,20191203
2019-12-03,13:48,1:48 PM,259.0,258.97,258.985,211,54645.92,5,259.04,258.94,258.981,25688,6652691.3226,101,258.97,259.0,259.04,258.999,0.005954508024796915,0.005173725392783836,aapl,20191203
2019-12-03,13:49,1:49 PM,258.98,258.91,258.976,179,46356.67,6,259.0,258.9,258.958,20915,5416104.2572,113,258.96,258.91,259.0,258.9,0.005919550052048541,0.005084456312488364,aapl,20191203
2019-12-03,13:50,1:50 PM,258.89,258.78,258.82,374,96798.63,10,258.934,258.7,258.782,46807,12112801.8363,266,258.89,258.78,258.91,258.75,0.005313611857744337,0.00440135378500884,aapl,20191203
2019-12-03,13:51,1:51 PM,258.71,258.625,258.665,11,2845.315,3,258.764,258.56,258.655,52248,13514202.7352,219,258.64,258.71,258.75,258.755,0.004711557882634519,0.00390843321120268,aapl,20191203
2019-12-03,13:52,1:52 PM,258.7,258.68,258.68,101,26126.7,2,258.764,258.626,258.697,19457,5033466.3988,97,258.7,258.68,258.757,258.695,0.00476982117054833,0.004071446314351278,aapl,20191203
2019-12-03,13:53,1:53 PM,258.81,258.7,258.774,140,36228.41,6,258.84,258.688,258.786,22388,5793708.012,107,258.7,258.81,258.688,258.77,0.005134937774808519,0.004416878842451627,aapl,20191203
2019-12-03,13:54,1:54 PM,258.83,258.805,258.808,9,2329.27,2,258.88,258.75,258.809,19594,5071105.3959,125,258.805,258.83,258.775,258.84,0.005267001227413244,0.004506147922747319,aapl,20191203
2019-12-03,13:55,1:55 PM,258.82,258.74,258.778,376,97300.44,5,258.83,258.673,258.755,33490,8665709.7505,150,258.82,258.74,258.815,258.745,0.0051504746515856235,0.004296559647270582,aapl,20191203
2019-12-03,13:56,1:56 PM,258.74,258.71,258.712,108,27940.92,3,258.79,258.68,258.738,13167,3406797.8846,74,258.74,258.71,258.75,258.693,0.004894116184764504,0.004230578153139069,aapl,20191203
2019-12-03,13:57,1:57 PM,258.7,258.645,258.696,215,55619.74,6,258.71,258.62,258.668,20602,5329070.59,83,258.7,258.645,258.696,258.66,0.004831968677656527,0.003958889647891626,aapl,20191203
2019-12-03,13:58,1:58 PM,,,,0,0.0,0,258.677,258.598,258.635,13101,3388380.6289,88,,,258.664,258.64,,0.003830807923989188,aapl,20191203
2019-12-03,13:59,1:59 PM,258.67,258.55,258.661,108,27935.42,3,258.72,258.54,258.62,49287,12746595.2007,247,258.67,258.55,258.66,258.556,0.004696021005857415,0.003772588958579069,aapl,20191203
2019-12-03,14:00,2 PM,258.71,258.61,258.657,439,113550.64,9,258.7,258.53,258.63,25198,6516970.2364,126,258.61,258.64,258.553,258.648,0.00468048412908031,0.003811401602185815,aapl,20191203
2019-12-03,14:01,2:01 PM,258.78,258.63,258.721,646,167133.7,13,258.79,258.62,258.73,24689,6387778.1854,173,258.64,258.735,258.64,258.735,0.004929074157512878,0.004199528038253716,aapl,20191203
2019-12-03,14:02,2:02 PM,258.775,258.73,258.767,204,52788.48,4,258.79,258.65,258.746,18571,4805170.3993,123,258.76,258.775,258.73,258.78,0.005107748240448696,0.004261628268024422,aapl,20191203
2019-12-03,14:03,2:03 PM,258.77,258.74,258.769,701,181396.74,4,258.84,258.73,258.766,34491,8925095.8537,201,258.76,258.74,258.78,258.746,0.005115516678837248,0.0043392535552381345,aapl,20191203
2019-12-03,14:04,2:04 PM,258.73,258.67,258.703,510,131938.7,6,258.76,258.66,258.713,25482,6592532.0664,160,258.73,258.69,258.75,258.69,0.004859158212016128,0.004133546544122204,aapl,20191203
2019-12-03,14:05,2:05 PM,258.89,258.695,258.778,564,145950.85,11,258.94,258.69,258.791,32504,8411749.4716,171,258.695,258.89,258.695,258.92,0.0051504746515856235,0.004436285164254999,aapl,20191203
2019-12-03,14:06,2:06 PM,258.95,258.78,258.872,805,208392.12,10,258.95,258.77,258.869,46443,12022651.7934,229,258.91,258.78,258.93,258.825,0.005515591255845812,0.004739023784388016,aapl,20191203
2019-12-03,14:07,2:07 PM,258.84,258.64,258.764,808,209081.08,8,258.85,258.61,258.695,30725,7948414.5856,185,258.83,258.64,258.83,258.67,0.005096095582865978,0.004063683785629884,aapl,20191203
2019-12-03,14:08,2:08 PM,258.77,258.66,258.73,630,162999.76,9,258.83,258.6,258.722,25008,6470129.53,175,258.735,258.66,258.674,258.63,0.0049640321302612525,0.0041684779233681435,aapl,20191203
2019-12-03,14:09,2:09 PM,258.66,258.55,258.633,237,61295.93,6,258.666,258.54,258.607,24246,6270181.0622,138,258.62,258.55,258.632,258.626,0.0045872628684181255,0.003722132521890343,aapl,20191203
2019-12-03,14:10,2:10 PM,258.63,258.56,258.614,410,106031.6,5,258.663,258.53,258.59,24201,6258139.4945,119,258.63,258.62,258.64,258.615,0.00451346270372721,0.00365615102775861,aapl,20191203
2019-12-03,14:11,2:11 PM,258.63,258.57,258.622,222,57414.09,6,258.66,258.56,258.612,23898,6180317.1128,151,258.62,258.63,258.62,258.62,0.004544536457281419,0.003741538843693716,aapl,20191203
2019-12-03,14:12,2:12 PM,258.62,258.58,258.605,250,64651.25,3,258.67,258.57,258.615,11325,2928814.9367,71,258.62,258.58,258.64,258.62,0.004478504730979056,0.003753182636775696,aapl,20191203
2019-12-03,14:13,2:13 PM,258.655,258.62,258.635,450,116385.935,8,258.68,258.59,258.633,10148,2624606.5759,75,258.62,258.65,258.63,258.64,0.004595031306806678,0.0038230453952677944,aapl,20191203
2019-12-03,14:14,2:14 PM,258.605,258.5,258.573,207,53524.71,5,258.64,258.48,258.563,44908,11611569.3263,189,258.605,258.5,258.64,258.549,0.004354209716762663,0.0035513568900203516,aapl,20191203
2019-12-03,14:15,2:15 PM,258.56,258.47,258.514,760,196470.59,11,258.56,258.46,258.508,45351,11723595.1666,183,258.53,258.54,258.535,258.51,0.0041250407843015854,0.003337887350183028,aapl,20191203
2019-12-03,14:16,2:16 PM,258.45,258.26,258.356,205,52962.89,5,258.49,258.22,258.358,48908,12635753.0128,269,258.45,258.26,258.47,258.276,0.0035113341516088293,0.0027556976960813957,aapl,20191203
2019-12-03,14:17,2:17 PM,258.26,258.07,258.17,513,132441.3,9,258.29,258.05,258.176,45546,11758869.6556,286,258.26,258.07,258.274,258.07,0.0027888693814770043,0.002049307582437912,aapl,20191203
2019-12-03,14:18,2:18 PM,258.09,258.05,258.062,20,5161.235,8,258.14,258.01,258.067,46425,11980748.7785,221,258.06,258.05,258.08,258.05,0.002369373708497171,0.001626249767124071,aapl,20191203
2019-12-03,14:19,2:19 PM,258.07,258.05,258.06,96,24773.8,7,258.1,258.04,258.07,23429,6046329.27,100,258.07,258.05,258.046,258.09,0.0023616052701086188,0.001637893560206051,aapl,20191203
2019-12-03,14:20,2:20 PM,258.08,257.97,258.046,415,107089.115,12,258.09,257.86,257.981,54265,13999320.2278,307,258.065,257.985,258.09,258.0,0.002307226201388974,0.0012924610321057022,aapl,20191203
2019-12-03,14:21,2:21 PM,258.07,257.97,258.01,314,81015.2,7,258.086,257.96,258.01,48192,12434004.6487,149,257.97,258.0,258.007,258.06,0.002167394310395696,0.001405017698565354,aapl,20191203
2019-12-03,14:22,2:22 PM,258.16,258.055,258.117,219,56527.67,6,258.2,258.05,258.108,47184,12178554.9895,196,258.055,258.08,258.069,258.2,0.002583005764181364,0.0017853816059118623,aapl,20191203
2019-12-03,14:23,2:23 PM,258.215,258.185,258.193,404,104309.845,6,258.29,258.14,258.205,43735,11292619.9814,174,258.185,258.19,258.185,258.192,0.0028782064229448032,0.0021618642488975635,aapl,20191203
2019-12-03,14:24,2:24 PM,258.2,258.135,258.179,209,53959.415,5,258.23,258.12,258.158,21594,5574669.5274,97,258.2,258.17,258.19,258.16,0.0028238273542251584,0.001979444823945813,aapl,20191203
2019-12-03,14:25,2:25 PM,258.16,258.16,258.16,100,25816.0,2,258.17,257.98,258.1,26853,6930751.9072,154,258.16,258.16,258.17,258.01,0.002750027189534464,0.0017543314910265096,aapl,20191203
2019-12-03,14:26,2:26 PM,,,,0,0.0,0,258.1,258.0,258.053,15566,4016845.735,93,,,258.02,258.1,,0.0015719120660745384,aapl,20191203
2019-12-03,14:27,2:27 PM,258.205,258.11,258.156,265,68411.29,8,258.3,258.06,258.18,31520,8137830.4367,144,258.115,258.205,258.123,258.295,0.0027344903127573595,0.0020648326398806987,aapl,20191203
2019-12-03,14:28,2:28 PM,258.28,258.22,258.243,301,77731.23,4,258.31,258.19,258.245,31688,8183258.2014,137,258.28,258.22,258.285,258.228,0.003072417382657726,0.0023171148233247685,aapl,20191203
2019-12-03,14:29,2:29 PM,258.22,258.165,258.182,711,183567.07,8,258.24,258.16,258.191,18518,4781180.6155,99,258.22,258.185,258.239,258.2,0.002835480011808097,0.002107526547848031,aapl,20191203
2019-12-03,14:30,2:30 PM,258.19,258.19,258.19,3,774.57,2,258.23,258.12,258.181,14258,3681146.71,74,258.19,258.19,258.19,258.12,0.0028665537653620853,0.002068713904241285,aapl,20191203
2019-12-03,14:31,2:31 PM,258.225,258.14,258.162,137,35368.24,6,258.23,258.14,258.189,19288,4979946.854,94,258.14,258.21,258.141,258.17,0.0027577956279227953,0.002099764019126858,aapl,20191203
2019-12-03,14:32,2:32 PM,258.15,258.135,258.14,434,112032.605,4,258.23,258.1,258.158,13058,3371028.8701,91,258.135,258.15,258.19,258.142,0.0026723428056491627,0.001979444823945813,aapl,20191203
2019-12-03,14:33,2:33 PM,258.35,258.16,258.262,754,194729.815,8,258.39,258.15,258.295,42003,10849181.9237,172,258.175,258.35,258.175,258.36,0.003146217547348641,0.002511178041358719,aapl,20191203
2019-12-03,14:34,2:34 PM,258.38,258.31,258.378,218,56326.35,5,258.44,258.3,258.382,40794,10540420.5548,201,258.31,258.38,258.373,258.42,0.0035967869738824623,0.0028488480407376747,aapl,20191203
2019-12-03,14:35,2:35 PM,258.355,258.32,258.325,7,1808.275,2,258.41,258.32,258.363,13231,3418407.976,75,258.355,258.32,258.41,258.32,0.003390923356586822,0.0027751040178847688,aapl,20191203
2019-12-03,14:36,2:36 PM,258.31,258.31,258.31,1,258.31,1,258.335,258.287,258.312,12020,3104907.2552,62,258.31,258.31,258.305,258.335,0.003332660068673011,0.0025771595354902315,aapl,20191203
2019-12-03,14:37,2:37 PM,258.31,258.3,258.308,17,4391.24,3,258.33,258.27,258.296,13747,3550788.7051,82,258.3,258.31,258.31,258.315,0.003324891630284459,0.002515059305719306,aapl,20191203
2019-12-03,14:38,2:38 PM,258.27,258.21,258.24,200,51648.0,2,258.315,258.191,258.24,12615,3257699.8198,75,258.27,258.21,258.315,258.23,0.003060764725075008,0.0022977085015213955,aapl,20191203
2019-12-03,14:39,2:39 PM,258.28,258.21,258.249,416,107431.68,6,258.29,258.21,258.25,32027,8270965.2747,79,258.21,258.28,258.24,258.29,0.0030957226978233824,0.0023365211451281415,aapl,20191203
2019-12-03,14:40,2:40 PM,258.33,258.28,258.301,905,233762.085,7,258.333,258.26,258.3,31848,8226347.89,155,258.28,258.295,258.28,258.319,0.0032977020959246367,0.002530584363162092,aapl,20191203
2019-12-03,14:41,2:41 PM,258.34,258.32,258.32,408,105394.7,5,258.37,258.291,258.331,28160,7274612.704,87,258.32,258.33,258.309,258.34,0.0033715022606155515,0.0026509035583431374,aapl,20191203
2019-12-03,14:42,2:42 PM,258.42,258.395,258.413,383,98972.09,7,258.43,258.32,258.375,21723,5612680.4043,119,258.395,258.4,258.33,258.355,0.0037327346456815748,0.002821679190212908,aapl,20191203
2019-12-03,14:43,2:43 PM,258.39,258.35,258.367,693,179048.59,5,258.42,258.33,258.372,20483,5292232.0675,103,258.39,258.35,258.37,258.34,0.003554060562745756,0.0028100353971309286,aapl,20191203
2019-12-03,14:44,2:44 PM,258.325,258.29,258.312,511,131997.52,7,258.35,258.21,258.286,26472,6837353.7548,150,258.315,258.32,258.33,258.32,0.0033404285070615636,0.0024762466621125597,aapl,20191203
2019-12-03,14:45,2:45 PM,258.33,258.31,258.32,201,51922.33,3,258.367,258.21,258.306,28654,7401512.8817,139,258.33,258.33,258.325,258.313,0.0033715022606155515,0.0025538719493260515,aapl,20191203
2019-12-03,14:46,2:46 PM,258.3,258.26,258.277,400,103311.0,4,258.312,258.226,258.277,12956,3346236.9732,89,258.3,258.28,258.3,258.291,0.0032044808352624512,0.0024413152828664,aapl,20191203
2019-12-03,14:47,2:47 PM,258.3,258.295,258.3,101,26088.295,2,258.32,258.28,258.3,15836,4090438.9086,103,258.3,258.295,258.29,258.292,0.003293817876730471,0.002530584363162092,aapl,20191203
2019-12-03,14:48,2:48 PM,258.3,258.27,258.285,201,51915.28,3,258.31,258.27,258.292,15779,4075589.9735,90,258.3,258.27,258.3,258.27,0.0032355545888166602,0.002499534248276519,aapl,20191203
2019-12-03,14:49,2:49 PM,258.31,258.25,258.272,609,157287.46,9,258.31,258.24,258.271,24702,6379806.1134,130,258.31,258.28,258.285,258.26,0.0031850597392911813,0.0024180276967024406,aapl,20191203
2019-12-03,14:50,2:50 PM,258.295,258.22,258.233,205,52937.775,4,258.3,258.17,258.245,23074,5958754.3455,138,258.295,258.245,258.28,258.245,0.0030335751907151856,0.0023171148233247685,aapl,20191203
2019-12-03,14:51,2:51 PM,258.27,258.245,258.253,301,77734.1,6,258.28,258.2,258.248,13383,3456135.286,89,258.26,258.27,258.25,258.225,0.003111259574600266,0.002328758616406748,aapl,20191203
2019-12-03,14:52,2:52 PM,258.2,258.2,258.2,1,258.2,1,258.29,258.19,258.226,33860,8743531.7462,187,258.2,258.2,258.21,258.29,0.0029053959573046256,0.0022433708004718626,aapl,20191203
2019-12-03,14:53,2:53 PM,258.28,258.23,258.257,144,37188.955,11,258.29,258.19,258.246,18751,4842372.8082,108,258.28,258.26,258.286,258.25,0.0031267964513773706,0.0023209960876853547,aapl,20191203
2019-12-03,14:54,2:54 PM,258.3,258.24,258.265,807,208420.24,8,258.3,258.2,258.252,14767,3813602.0929,97,258.3,258.24,258.26,258.26,0.003157870204931359,0.0023442836738495347,aapl,20191203
2019-12-03,14:55,2:55 PM,258.325,258.24,258.257,191,49327.105,4,258.418,258.205,258.3,21421,5533039.761,116,258.24,258.325,258.26,258.41,0.0031267964513773706,0.002530584363162092,aapl,20191203
2019-12-03,14:56,2:56 PM,258.43,258.425,258.427,5,1292.135,2,258.47,258.35,258.418,42065,10870349.8271,172,258.43,258.425,258.417,258.37,0.0037871137144012195,0.0029885735577220925,aapl,20191203
2019-12-03,14:57,2:57 PM,258.455,258.38,258.401,221,57106.73,6,258.52,258.35,258.438,30443,7867629.2475,184,258.38,258.455,258.363,258.46,0.003686124015350482,0.0030661988449355846,aapl,20191203
2019-12-03,14:58,2:58 PM,258.5,258.485,258.486,161,41616.19,6,258.555,258.41,258.49,26819,6932457.0573,124,258.485,258.5,258.45,258.46,0.004016282646862296,0.003268024591690929,aapl,20191203
2019-12-03,14:59,2:59 PM,258.5,258.4,258.402,103,26615.41,3,258.55,258.4,258.466,22005,5687534.4823,128,258.41,258.5,258.43,258.44,0.003690008234544648,0.0031748742470346504,aapl,20191203
2019-12-03,15:00,3 PM,258.59,258.47,258.511,336,86859.74,7,258.6,258.47,258.547,23473,6068877.0683,114,258.47,258.53,258.48,258.53,0.004113388126718868,0.0034892566602496462,aapl,20191203
2019-12-03,15:01,3:01 PM,258.59,258.51,258.562,510,131866.565,10,258.6,258.49,258.563,24818,6417018.5974,147,258.54,258.51,258.54,258.49,0.0043114833056259565,0.0035513568900203516,aapl,20191203
2019-12-03,15:02,3:02 PM,258.465,258.445,258.45,118,30497.15,4,258.5,258.4,258.451,15409,3982472.615,66,258.45,258.465,258.5,258.48,0.003876450755869018,0.0031166552816245313,aapl,20191203
2019-12-03,15:03,3:03 PM,258.48,258.33,258.414,302,78040.92,5,258.486,258.33,258.405,34369,8881130.8277,145,258.48,258.33,258.48,258.35,0.00373661886487574,0.0029381171210331463,aapl,20191203
2019-12-03,15:04,3:04 PM,258.36,258.33,258.337,433,111860.08,12,258.39,258.26,258.336,49824,12871341.6154,163,258.33,258.33,258.345,258.269,0.0034375339869179146,0.0026703098801465104,aapl,20191203
2019-12-03,15:05,3:05 PM,258.4,258.3,258.326,135,34874.0,2,258.41,258.3,258.374,23162,5984451.0179,85,258.3,258.4,258.3,258.344,0.0033948075757812084,0.002817797925852322,aapl,20191203
2019-12-03,15:06,3:06 PM,258.46,258.4,258.417,323,83468.69,11,258.47,258.349,258.406,25679,6635621.0211,143,258.4,258.41,258.349,258.41,0.003748271522458458,0.0029419983853939532,aapl,20191203
2019-12-03,15:07,3:07 PM,258.42,258.32,258.404,203,52456.08,4,258.43,258.3,258.369,14843,3834973.187,87,258.38,258.39,258.4,258.43,0.0036977766729332,0.0027983916040489488,aapl,20191203
2019-12-03,15:08,3:08 PM,258.51,258.415,258.473,208,53762.31,5,258.52,258.375,258.447,38936,10062908.6068,234,258.415,258.51,258.42,258.515,0.003965787797337038,0.0031011302241817445,aapl,20191203
2019-12-03,15:09,3:09 PM,258.51,258.44,258.491,112,28950.95,4,258.52,258.395,258.474,19705,5093239.385,129,258.49,258.44,258.516,258.4,0.004035703742833566,0.003205924361920003,aapl,20191203
2019-12-03,15:10,3:10 PM,258.5,258.32,258.434,674,174184.33,18,258.52,258.3,258.408,32330,8354328.7345,199,258.4,258.49,258.4,258.49,0.003814303248761042,0.002949760914115347,aapl,20191203
2019-12-03,15:11,3:11 PM,258.61,258.47,258.499,218,56352.795,8,258.62,258.46,258.566,35840,9267014.3694,159,258.49,258.61,258.49,258.58,0.004066777496387775,0.0035630006831023314,aapl,20191203
2019-12-03,15:12,3:12 PM,258.585,258.52,258.549,332,85838.37,10,258.61,258.502,258.557,33626,8694224.7826,241,258.585,258.52,258.58,258.525,0.004260988456100477,0.0035280693038563923,aapl,20191203
2019-12-03,15:13,3:13 PM,258.65,258.52,258.572,208,53783.05,6,258.65,258.528,258.582,50963,13178129.2628,203,258.52,258.65,258.531,258.65,0.004350325497568496,0.0036251009128732575,aapl,20191203
2019-12-03,15:14,3:14 PM,258.615,258.55,258.613,55,14223.69,5,258.66,258.55,258.601,23930,6188330.3668,145,258.58,258.55,258.66,258.597,0.004509578484533044,0.003698844935726163,aapl,20191203
2019-12-03,15:15,3:15 PM,258.65,258.62,258.635,225,58192.89,5,258.659,258.58,258.631,21258,5497979.4846,130,258.62,258.62,258.59,258.6,0.004595031306806678,0.003815282866546401,aapl,20191203
2019-12-03,15:16,3:16 PM,258.59,258.56,258.566,184,47576.18,6,258.59,258.53,258.556,22930,5928683.084,111,258.59,258.56,258.58,258.57,0.004327020182402839,0.0035241880394955853,aapl,20191203
2019-12-03,15:17,3:17 PM,258.585,258.52,258.579,228,58955.91,16,258.59,258.51,258.571,15813,4088778.175,117,258.58,258.585,258.57,258.583,0.004377515031928319,0.0035824070049059248,aapl,20191203
2019-12-03,15:18,3:18 PM,258.59,258.585,258.586,26,6723.245,11,258.6,258.57,258.587,14434,3732443.6661,102,258.59,258.585,258.587,258.585,0.004404704566288141,0.00364450723467663,aapl,20191203
2019-12-03,15:19,3:19 PM,258.72,258.585,258.675,582,150548.83,24,258.724,258.585,258.68,30092,7784210.4535,151,258.585,258.675,258.585,258.69,0.00475040007457706,0.004005464820219766,aapl,20191203
2019-12-03,15:20,3:20 PM,258.845,258.67,258.739,606,156795.81,31,258.85,258.66,258.768,40730,10539606.2869,192,258.67,258.835,258.66,258.84,0.004998990103009407,0.004347016083959307,aapl,20191203
2019-12-03,15:21,3:21 PM,259.085,258.855,258.993,687,177928.53,24,259.14,258.84,259.005,74547,19308024.6371,359,258.855,259.06,258.84,259.06,0.005985581778350904,0.005266875737440115,aapl,20191203
2019-12-03,15:22,3:22 PM,259.17,259.08,259.135,1021,264576.35,37,259.178,259.07,259.123,39472,10228120.1631,202,259.08,259.16,259.08,259.157,0.006537140903935462,0.005724864932000116,aapl,20191203
2019-12-03,15:23,3:23 PM,259.17,258.99,259.103,508,131624.595,18,259.18,258.95,259.062,38438,9957831.2708,204,259.16,258.99,259.15,258.95,0.006412845889719289,0.005488107805998833,aapl,20191203
2019-12-03,15:24,3:24 PM,259.1,258.965,259.066,173,44818.425,4,259.11,258.91,259.041,36481,9450060.4591,167,258.965,259.095,258.98,259.04,0.006269129779531625,0.005406601254424533,aapl,20191203
2019-12-03,15:25,3:25 PM,259.11,259.085,259.091,125,32386.33,5,259.14,259.039,259.104,31405,8137168.4837,182,259.09,259.09,259.039,259.135,0.006366235259388196,0.00565112090914721,aapl,20191203
2019-12-03,15:26,3:26 PM,259.13,259.02,259.111,222,57522.61,6,259.17,259.0,259.075,36417,9434740.5877,213,259.13,259.03,259.134,259.031,0.006443919643273278,0.005538564242687558,aapl,20191203
2019-12-03,15:27,3:27 PM,259.08,259.03,259.058,218,56474.575,14,259.08,259.01,259.046,24106,6244566.0634,104,259.03,259.07,259.021,259.06,0.006238056025977637,0.005426007576227907,aapl,20191203
2019-12-03,15:28,3:28 PM,259.19,259.12,259.153,303,78523.51,4,259.191,259.07,259.157,37056,9603339.4447,182,259.12,259.19,259.07,259.16,0.006607056849432212,0.00585682792026314,aapl,20191203
2019-12-03,15:29,3:29 PM,259.14,259.015,259.045,253,65538.43,7,259.16,259.01,259.05,35313,9147847.4661,196,259.14,259.03,259.16,259.06,0.006187561176452378,0.005441532633670693,aapl,20191203
2019-12-03,15:30,3:30 PM,258.995,258.86,258.911,923,238975.025,13,259.111,258.82,258.925,67464,17468142.0294,427,258.995,258.86,259.05,258.89,0.0056670758044218075,0.004956374588585926,aapl,20191203
2019-12-03,15:31,3:31 PM,258.88,258.85,258.865,407,105358.05,5,258.939,258.84,258.882,29603,7663672.8755,181,258.86,258.87,258.9,258.87,0.005488401721485989,0.004789480221076742,aapl,20191203
2019-12-03,15:32,3:32 PM,259.0,258.89,258.981,593,153575.655,14,259.01,258.89,258.955,31669,8200851.6645,174,258.9,258.945,258.89,258.945,0.005938971148019811,0.005072812519406164,aapl,20191203
2019-12-03,15:33,3:33 PM,259.03,258.95,258.995,220,56978.94,10,259.031,258.95,258.999,23517,6090884.1408,142,258.95,259.02,258.95,259.01,0.005993350216739456,0.005243588151276156,aapl,20191203
2019-12-03,15:34,3:34 PM,259.0,258.74,258.763,717,185533.18,13,259.01,258.74,258.843,44945,11633708.1837,241,259.0,258.74,259.01,258.753,0.005092211363671592,0.0046381109110103435,aapl,20191203
2019-12-03,15:35,3:35 PM,258.79,258.58,258.725,810,209567.57,10,258.805,258.55,258.691,38432,9942018.7534,218,258.79,258.58,258.77,258.57,0.004944611034289982,0.004048158728187098,aapl,20191203
2019-12-03,15:36,3:36 PM,258.63,258.585,258.597,50,12929.835,7,258.65,258.557,258.61,37295,9644871.5838,180,258.585,258.63,258.557,258.63,0.004447430977424847,0.003733776314972323,aapl,20191203
2019-12-03,15:37,3:37 PM,258.64,258.57,258.619,35,9051.675,6,258.65,258.375,258.553,48196,12461238.9305,268,258.64,258.595,258.65,258.39,0.004532883799698701,0.0035125442464136055,aapl,20191203
2019-12-03,15:38,3:38 PM,258.49,258.45,258.488,429,110891.15,5,258.5,258.37,258.461,52570,13587300.9992,233,258.45,258.49,258.39,258.495,0.004024051085250848,0.0031554679252312774,aapl,20191203
2019-12-03,15:39,3:39 PM,258.59,258.44,258.494,959,247896.08,15,258.59,258.434,258.505,26743,6913213.3742,122,258.46,258.59,258.5,258.59,0.004047356400416505,0.003326243557101048,aapl,20191203
2019-12-03,15:40,3:40 PM,258.63,258.56,258.593,578,149466.82,8,258.65,258.534,258.593,32109,8303157.6558,138,258.61,258.58,258.588,258.555,0.0044318941006479635,0.00366779482084081,aapl,20191203
2019-12-03,15:41,3:41 PM,258.56,258.47,258.525,804,207853.98,11,258.57,258.46,258.513,31262,8081638.9295,188,258.56,258.52,258.564,258.52,0.004167767195438292,0.003357293671986401,aapl,20191203
2019-12-03,15:42,3:42 PM,258.635,258.54,258.58,1042,269440.79,12,258.639,258.51,258.59,31021,8021733.3695,197,258.57,258.62,258.513,258.62,0.004381399251122485,0.00365615102775861,aapl,20191203
2019-12-03,15:43,3:43 PM,258.68,258.645,258.668,59,15261.405,4,258.721,258.62,258.674,34198,8846127.5965,205,258.645,258.67,258.63,258.63,0.0047232105402172375,0.003982177234055586,aapl,20191203
2019-12-03,15:44,3:44 PM,258.67,258.63,258.644,344,88973.54,12,258.68,258.62,258.655,22274,5761281.753,160,258.66,258.66,258.636,258.661,0.004629989279555052,0.00390843321120268,aapl,20191203
2019-12-03,15:45,3:45 PM,258.72,258.65,258.708,303,78388.5,6,258.75,258.62,258.685,33958,8784439.0974,187,258.65,258.7,258.67,258.666,0.00487857930798762,0.004024871142023138,aapl,20191203
2019-12-03,15:46,3:46 PM,258.755,258.63,258.696,676,174878.525,12,258.85,258.6,258.721,71805,18577440.0318,431,258.73,258.755,258.68,258.842,0.004831968677656527,0.0041645966590075564,aapl,20191203
2019-12-03,15:47,3:47 PM,258.82,258.725,258.784,7,1811.485,3,258.85,258.69,258.765,45414,11751553.3386,272,258.82,258.725,258.836,258.7,0.005173779966751059,0.004335372290877328,aapl,20191203
2019-12-03,15:48,3:48 PM,258.79,258.7,258.711,119,30786.63,5,258.795,258.677,258.741,34490,8923988.6479,232,258.79,258.7,258.714,258.698,0.004890231965570337,0.004242221946221049,aapl,20191203
2019-12-03,15:49,3:49 PM,258.82,258.65,258.801,852,220498.48,12,258.841,258.63,258.74,49062,12694306.6748,292,258.67,258.77,258.71,258.82,0.0052398116930534215,0.004238340681860462,aapl,20191203
2019-12-03,15:50,3:50 PM,259.095,258.85,258.974,2595,672037.035,31,259.11,258.83,258.977,132793,34390393.3823,813,258.85,259.09,258.83,259.087,0.005911781613659989,0.00515820033534105,aapl,20191203
2019-12-03,15:51,3:51 PM,259.045,258.895,258.96,1070,277087.6,12,259.09,258.87,258.98,77414,20048701.7673,444,259.045,258.96,259.09,258.96,0.005857402544940344,0.00516984412842325,aapl,20191203
2019-12-03,15:52,3:52 PM,259.035,259.005,259.011,1020,264191.2,8,259.05,258.98,259.011,49203,12744127.0982,269,259.01,259.035,258.98,259.05,0.006055497723847653,0.005290163323604295,aapl,20191203
2019-12-03,15:53,3:53 PM,259.06,258.99,259.03,469,121485.15,7,259.106,258.98,259.044,60143,15579699.5724,330,259.05,259.03,259.05,259.07,0.006129297888538347,0.005418245047506513,aapl,20191203
2019-12-03,15:54,3:54 PM,259.23,259.07,259.121,690,178793.75,9,259.25,259.05,259.13,108289,28060932.8177,646,259.07,259.23,259.06,259.24,0.006482761835215818,0.005752033782524882,aapl,20191203
2019-12-03,15:55,3:55 PM,259.315,259.22,259.271,1127,292198.16,14,259.34,259.202,259.264,101747,26379382.2822,564,259.22,259.285,259.24,259.285,0.007065394714354586,0.006272123206855809,aapl,20191203
2019-12-03,15:56,3:56 PM,259.41,259.28,259.336,1284,332987.3,16,259.44,259.27,259.353,124805,32368532.7696,763,259.29,259.31,259.281,259.31,0.007317868961981319,0.006617555734956157,aapl,20191203
2019-12-03,15:57,3:57 PM,259.5,259.36,259.481,2252,584352.285,12,259.5,259.284,259.44,93890,24358812.1152,509,259.36,259.495,259.284,259.49,0.007881080745148596,0.0069552257343351125,aapl,20191203
2019-12-03,15:58,3:58 PM,259.51,259.425,259.459,2387,619329.76,15,259.53,259.41,259.458,145678,37797292.2332,737,259.45,259.51,259.49,259.47,0.007795627922874963,0.007025088492827431,aapl,20191203
2019-12-03,15:59,3:59 PM,259.5,259.31,259.418,3047,790445.49,41,259.53,259.31,259.43,291909,75730095.7931,1401,259.5,259.4,259.483,259.52,0.007636374935910415,0.006916413090728366,aapl,20191203
