date,minute,label,high,low,average,volume,notional,numberOfTrades,marketHigh,marketLow,marketAverage,marketVolume,marketNotional,marketNumberOfTrades,open,close,marketOpen,marketClose,changeOverTime,marketChangeOverTime,tickerName,tickerDate
2020-01-28,09:30,09:30 AM,312.87,312.38,312.636,8775,2743383.96,57,312.93,312.33,312.56,731479,228631229.338,1060,312.45,312.83,312.6,312.839,0.0,0.0,aapl,20200128
2020-01-28,09:31,09:31 AM,312.9,312.3,312.823,7762,2428134.3,18,312.92,312.19,312.535,171805,53695100.9788,925,312.9,312.38,312.87,312.37,0.000598139689606939,-7.998464294848113e-05,aapl,20200128
2020-01-28,09:32,09:32 AM,313.2,312.42,312.807,2993,936232.13,30,313.24,312.3,312.825,177505,55528061.8588,1047,312.42,313.17,312.385,313.207,0.0005469619621540458,0.0008478372152546274,aapl,20200128
2020-01-28,09:33,09:33 AM,313.89,313.28,313.693,2260,708945.405,27,314.0,313.21,313.659,255217,80051244.5868,1206,313.28,313.89,313.22,313.98,0.0033809286198645053,0.003516124904018395,aapl,20200128
2020-01-28,09:34,09:34 AM,314.015,313.32,313.812,5841,1832975.475,26,314.03,313.3,313.738,245418,76997076.5059,1249,314.0,313.32,313.985,313.345,0.0037615629677963756,0.00376887637573585,aapl,20200128
2020-01-28,09:35,09:35 AM,313.81,313.29,313.441,2755,863529.72,20,313.85,313.26,313.488,135788,42567886.8933,691,313.5,313.41,313.366,313.47,0.002574879412479529,0.0029690299462503114,aapl,20200128
2020-01-28,09:36,09:36 AM,313.81,313.34,313.625,2453,769323.145,21,313.85,313.32,313.568,141732,44442583.5741,687,313.59,313.37,313.48,313.51,0.0031634232781892545,0.0032249808036856325,aapl,20200128
2020-01-28,09:37,09:37 AM,313.455,313.3,313.391,1113,348804.11,12,313.48,313.25,313.372,111897,35065420.2333,556,313.43,313.35,313.43,313.391,0.00241494901418901,0.002597901202969068,aapl,20200128
2020-01-28,09:38,09:38 AM,313.38,312.9,313.208,1705,534019.615,25,313.39,312.881,313.146,145576,45586574.4633,737,313.38,312.93,313.39,312.95,0.0018296037564452037,0.0018748400307141437,aapl,20200128
2020-01-28,09:39,09:39 AM,313.2,312.95,313.144,1977,619086.15,23,313.25,312.91,313.126,101180,31682110.5691,557,312.95,313.17,312.959,313.207,0.0016248928466330854,0.0018108523163551768,aapl,20200128
2020-01-28,09:40,09:40 AM,313.28,312.99,313.188,1113,348578.07,13,313.28,312.9,313.104,114027,35702329.6772,472,313.265,313.15,313.24,313.2,0.0017656315971288144,0.001740465830560477,aapl,20200128
2020-01-28,09:41,09:41 AM,313.27,312.94,313.202,1663,520855.28,14,313.3,312.95,313.147,112535,35240024.0839,498,313.23,312.94,313.2,313.055,0.0018104121086502324,0.0018780394164320102,aapl,20200128
2020-01-28,09:42,09:42 AM,313.14,312.84,312.941,2740,857458.895,21,313.179,312.81,312.971,105125,32901138.3805,623,313.0,313.07,313.05,313.16,0.0009755754295728897,0.00131494753007423,aapl,20200128
2020-01-28,09:43,09:43 AM,313.57,313.2,313.305,2399,751619.655,26,313.57,313.17,313.36,124731,39085697.9037,684,313.25,313.42,313.198,313.36,0.0021398687291290276,0.0025595085743537606,aapl,20200128
2020-01-28,09:44,09:44 AM,313.43,313.33,313.359,913,286096.52,13,313.54,313.25,313.36,80578,25249945.942,458,313.33,313.43,313.367,313.52,0.0023125935592828604,0.0025595085743537606,aapl,20200128
2020-01-28,09:45,09:45 AM,313.355,312.83,313.121,671,210104.5,10,313.53,312.81,313.069,100105,31339807.8403,530,313.355,312.83,313.49,312.81,0.0015513248634193015,0.0016284873304326034,aapl,20200128
2020-01-28,09:46,09:46 AM,312.94,312.715,312.793,917,286831.38,13,312.974,312.67,312.807,118756,37147727.7078,703,312.715,312.94,312.81,312.87,0.0005021814506326279,0.0007902482723317574,aapl,20200128
2020-01-28,09:47,09:47 AM,313.205,312.8,312.933,1676,524476.22,23,313.22,312.78,313.072,83634,26183429.5083,414,312.82,313.16,312.84,313.173,0.0009499865658464432,0.001638085487586385,aapl,20200128
2020-01-28,09:48,09:48 AM,313.23,312.925,313.098,3102,971231.46,17,313.27,312.91,313.13,74537,23339785.0721,367,313.15,313.19,313.17,313.24,0.0014777568802056993,0.0018236498592270065,aapl,20200128
2020-01-28,09:49,09:49 AM,313.36,313.1,313.202,2563,802736.62,15,313.37,313.03,313.218,80594,25243494.5007,404,313.36,313.24,313.27,313.233,0.0018104121086502324,0.0021051958024059874,aapl,20200128
2020-01-28,09:50,09:50 AM,313.31,313.04,313.227,1706,534364.77,15,313.36,313.03,313.214,79211,24809985.1597,425,313.22,313.04,313.23,313.08,0.0018903773077954915,0.0020923982595341577,aapl,20200128
2020-01-28,09:51,09:51 AM,313.34,313.095,313.226,1515,474537.65,14,313.38,313.061,313.272,81118,25412029.7864,395,313.095,313.34,313.095,313.358,0.0018871786998297538,0.0022779626311747797,aapl,20200128
2020-01-28,09:52,09:52 AM,313.35,313.195,313.255,2653,831066.23,14,313.45,313.12,313.298,86342,27050759.9752,475,313.345,313.195,313.35,313.13,0.0019799383308383273,0.002361146659841309,aapl,20200128
2020-01-28,09:53,09:53 AM,313.24,313.01,313.088,2704,846590.61,20,313.32,313.01,313.126,90903,28464106.4822,417,313.24,313.12,313.135,313.19,0.0014457708005475957,0.0018108523163551768,aapl,20200128
2020-01-28,09:54,09:54 AM,313.31,313.18,313.238,2401,752085.2,8,313.4,313.14,313.27,81458,25518373.1253,440,313.19,313.235,313.19,313.39,0.0019255619954195147,0.0022715638597388646,aapl,20200128
2020-01-28,09:55,09:55 AM,313.62,313.43,313.495,1346,421963.895,21,313.64,313.35,313.507,99843,31301495.4456,549,313.46,313.45,313.384,313.385,0.0027476042426335433,0.0030298182748912297,aapl,20200128
2020-01-28,09:56,09:56 AM,313.6,313.18,313.329,1708,535166.47,20,313.61,313.12,313.376,75080,23528256.9999,396,313.4,313.18,313.39,313.14,0.002216635320308549,0.0026106987458407154,aapl,20200128
2020-01-28,09:57,09:57 AM,313.28,313.14,313.221,1000,313220.5,9,313.33,313.04,313.192,83334,26099586.1446,412,313.245,313.28,313.12,313.05,0.0018711856600007021,0.002022011773739458,aapl,20200128
2020-01-28,09:58,09:58 AM,313.03,312.665,312.888,3269,1022830.665,21,313.058,312.6,312.833,140221,43865749.9937,608,313.02,312.665,313.04,312.69,0.0008060492073847948,0.0008734323009982869,aapl,20200128
2020-01-28,09:59,09:59 AM,313.03,312.82,312.944,3533,1105631.99,17,313.03,312.66,312.898,108923,34081808.2145,421,312.87,312.95,312.66,312.97,0.0009851712534704664,0.0010813923726645197,aapl,20200128
2020-01-28,10:00,10 AM,313.4,313.0,313.108,3102,971260.64,27,313.4,312.96,313.161,118684,37167188.8693,555,313.0,313.07,313.0,313.11,0.0015097429598638031,0.0019228308164832323,aapl,20200128
2020-01-28,10:01,10:01 AM,313.37,313.03,313.205,1240,388374.8,11,313.38,312.923,313.193,71460,22380809.8109,314,313.28,313.03,313.1,312.97,0.001820007932547627,0.0020252111594573244,aapl,20200128
2020-01-28,10:02,10:02 AM,312.995,312.8,312.922,409,127985.195,7,313.03,312.76,312.909,52926,16561000.8486,236,312.89,312.8,312.94,312.82,0.0009148018782226019,0.0011165856155617786,aapl,20200128
2020-01-28,10:03,10:03 AM,313.05,312.66,312.862,902,282201.73,11,313.077,312.619,312.844,65734,20564520.2072,293,313.05,312.66,312.84,312.636,0.0007228854002737979,0.0009086255438955458,aapl,20200128
2020-01-28,10:04,10:04 AM,312.67,312.49,312.573,2350,734546.675,25,312.68,312.42,312.562,95924,29982153.428,461,312.575,312.645,312.65,312.65,-0.0002015123018463805,6.398771435914864e-06,aapl,20200128
2020-01-28,10:05,10:05 AM,312.81,312.645,312.736,4778,1494253.7,11,312.83,312.64,312.74,80929,25309739.3195,378,312.67,312.74,312.65,312.77,0.0003198607965812187,0.0005758894292296098,aapl,20200128
2020-01-28,10:06,10:06 AM,312.8,312.68,312.741,605,189208.15,9,312.81,312.61,312.754,51003,15951394.9916,242,312.69,312.8,312.78,312.775,0.0003358538364102705,0.0006206808292808319,aapl,20200128
2020-01-28,10:07,10:07 AM,312.89,312.58,312.7,1097,343031.65,15,312.905,312.58,312.724,75904,23737026.8493,344,312.72,312.89,312.78,312.87,0.00020471090981193633,0.0005246992577424727,aapl,20200128
2020-01-28,10:08,10:08 AM,312.925,312.76,312.85,943,295017.375,11,312.94,312.75,312.855,47501,14860921.7987,212,312.84,312.9,312.86,312.9,0.0006845021046840371,0.0009438187867929867,aapl,20200128
2020-01-28,10:09,10:09 AM,312.88,312.82,312.855,400,125142.0,4,312.913,312.7,312.832,53969,16883236.5471,309,312.84,312.88,312.88,312.85,0.000700495144513089,0.0008702329152802385,aapl,20200128
2020-01-28,10:10,10:10 AM,312.9,312.715,312.773,3535,1105652.1,16,312.905,312.68,312.782,75181,23515261.3406,368,312.76,312.83,312.854,312.86,0.00043820929131642054,0.0007102636293830944,aapl,20200128
2020-01-28,10:11,10:11 AM,312.88,312.71,312.772,1320,412859.595,11,312.9,312.7,312.809,39677,12411326.9345,252,312.83,312.83,312.88,312.82,0.0004350106833505011,0.0007966470437676723,aapl,20200128
2020-01-28,10:12,10:12 AM,313.01,312.76,312.884,1418,443669.105,15,313.11,312.76,312.933,109042,34122897.9139,595,312.85,312.915,312.82,312.89,0.0007932547755216624,0.0011933708727923933,aapl,20200128
2020-01-28,10:13,10:13 AM,313.1,312.905,312.98,721,225658.91,10,313.116,312.87,312.992,62276,19491877.3398,331,312.94,313.1,312.92,312.971,0.0011003211402397487,0.0013821346301510634,aapl,20200128
2020-01-28,10:14,10:14 AM,313.16,313.095,313.131,500,156565.5,5,313.23,313.0,313.14,64282,20129273.0126,341,313.12,313.095,313.0,313.15,0.0015833109430774053,0.001855643716406399,aapl,20200128
2020-01-28,10:15,10:15 AM,313.32,313.17,313.221,1098,343916.695,14,313.32,313.14,313.239,113732,35625254.6447,454,313.17,313.25,313.14,313.233,0.0018711856600007021,0.002172382902482639,aapl,20200128
2020-01-28,10:16,10:16 AM,313.21,313.0,313.028,543,169974.215,8,313.3,312.9,313.121,62114,19449222.3985,323,313.21,313.0,313.236,312.946,0.0012538543225987919,0.0017948553877654807,aapl,20200128
2020-01-28,10:17,10:17 AM,313.075,312.98,313.045,1380,432002.405,7,313.1,312.88,313.014,56170,17581976.2726,273,313.05,313.04,312.945,313.012,0.0013082306580176045,0.0014525211159457632,aapl,20200128
2020-01-28,10:18,10:18 AM,313.16,313.085,313.13,2316,725208.04,16,313.18,313.02,313.124,43075,13487824.248,240,313.11,313.115,313.06,313.07,0.0015801123351116676,0.001804453544919444,aapl,20200128
2020-01-28,10:19,10:19 AM,313.04,312.93,313.028,705,220684.74,8,313.094,312.9,312.98,80709,25260310.9385,249,313.02,312.93,313.08,312.992,0.0012538543225987919,0.001343742001535756,aapl,20200128
2020-01-28,10:20,10:20 AM,313.075,312.835,313.032,2161,676462.485,19,313.09,312.81,312.967,68365,21395970.8263,357,313.02,312.835,313.0,312.9,0.0012666487544619241,0.0013021499872024004,aapl,20200128
2020-01-28,10:21,10:21 AM,312.935,312.865,312.905,301,94184.365,4,312.99,312.81,312.909,39427,12337076.2635,190,312.89,312.865,312.91,312.857,0.0008604255428036073,0.0011165856155617786,aapl,20200128
2020-01-28,10:22,10:22 AM,312.81,312.585,312.683,981,306741.555,17,312.85,312.51,312.703,74766,23379523.0227,324,312.81,312.595,312.83,312.6,0.00015033457439312368,0.0004575121576656394,aapl,20200128
2020-01-28,10:23,10:23 AM,312.87,312.68,312.779,537,167962.27,7,312.87,312.61,312.766,43277,13535585.5953,205,312.68,312.87,312.62,312.84,0.00045740093911121,0.0006590734578961392,aapl,20200128
2020-01-28,10:24,10:24 AM,313.165,312.96,313.102,1208,378227.0,13,313.3,312.87,313.099,96661,30264440.8903,385,312.96,313.15,312.87,313.296,0.0014905513120688318,0.0017244689019707809,aapl,20200128
2020-01-28,10:25,10:25 AM,313.59,313.205,313.379,2000,626758.5,13,313.64,313.16,313.391,150309,47105541.6122,663,313.205,313.58,313.285,313.58,0.0023765657185992493,0.002658689531609986,aapl,20200128
2020-01-28,10:26,10:26 AM,313.57,313.38,313.465,504,157986.28,7,313.6,313.38,313.487,66854,20957859.0363,298,313.57,313.46,313.6,313.47,0.00265164600365905,0.0029658305605324447,aapl,20200128
2020-01-28,10:27,10:27 AM,313.54,313.39,313.502,401,125714.52,5,313.56,313.38,313.475,54553,17101002.9861,197,313.39,313.52,313.48,313.506,0.002769994498394252,0.0029274379319171374,aapl,20200128
2020-01-28,10:28,10:28 AM,313.7,313.43,313.543,275,86224.37,7,313.7,313.42,313.584,48014,15056413.9501,256,313.47,313.67,313.52,313.66,0.002901137424992586,0.00327617097517277,aapl,20200128
2020-01-28,10:29,10:29 AM,313.68,313.57,313.633,802,251533.84,11,313.7,313.5,313.601,64717,20295342.9438,307,313.67,313.57,313.64,313.57,0.003189012141915701,0.003330560532377773,aapl,20200128
2020-01-28,10:30,10:30 AM,313.65,313.63,313.64,200,62728.0,2,313.875,313.58,313.753,98399,30872993.7678,475,313.63,313.65,313.592,313.82,0.0032114023976764104,0.0038168671615049386,aapl,20200128
2020-01-28,10:31,10:31 AM,314.15,313.9,314.034,801,251541.49,9,314.17,313.8,314.01,191628,60173132.0082,713,313.9,313.99,313.815,314.07,0.004471653936206859,0.004639109291016089,aapl,20200128
2020-01-28,10:32,10:32 AM,314.12,313.99,314.05,839,263488.295,11,314.16,313.95,314.061,64338,20206045.2168,286,314.075,313.99,314.07,313.97,0.004522831663659934,0.004802277962631099,aapl,20200128
2020-01-28,10:33,10:33 AM,314.18,314.1,314.137,2206,692985.27,10,314.2,313.94,314.114,88961,27943899.9302,392,314.1,314.115,313.99,314.132,0.004801110556685654,0.004971845405682024,aapl,20200128
2020-01-28,10:34,10:34 AM,314.365,314.175,314.25,701,220289.365,8,314.41,314.14,314.291,108049,33958813.6767,376,314.28,314.365,314.15,314.41,0.005162553256822553,0.005538136677757853,aapl,20200128
2020-01-28,10:35,10:35 AM,314.385,314.33,314.335,172,54065.66,3,314.451,314.27,314.385,70839,22270737.5849,353,314.385,314.33,314.411,314.38,0.005434434933916616,0.005838878935244396,aapl,20200128
2020-01-28,10:36,10:36 AM,314.44,314.35,314.397,303,95262.21,6,314.45,314.305,314.399,57816,18177274.1573,264,314.44,314.42,314.4,314.376,0.005632748627797077,0.005883670335295619,aapl,20200128
2020-01-28,10:37,10:37 AM,314.4,314.24,314.308,256,80462.845,5,314.43,314.23,314.332,58012,18235043.2722,247,314.4,314.24,314.38,314.245,0.0053480725188397,0.0056693114921934715,aapl,20200128
2020-01-28,10:38,10:38 AM,314.44,314.24,314.382,300,94314.5,4,314.54,314.23,314.42,91154,28660628.549,415,314.24,314.42,314.245,314.54,0.005584769508309922,0.005950857435372452,aapl,20200128
2020-01-28,10:39,10:39 AM,314.59,314.39,314.458,2603,818534.22,8,314.637,314.37,314.51,112732,35455363.3091,397,314.54,314.5,314.503,314.51,0.0058278637137118006,0.006238802149987166,aapl,20200128
2020-01-28,10:40,10:40 AM,314.695,314.55,314.656,2601,818421.09,7,314.72,314.505,314.607,81729,25712507.6575,317,314.695,314.55,314.52,314.54,0.006461188090942763,0.006549142564627673,aapl,20200128
2020-01-28,10:41,10:41 AM,314.695,314.45,314.518,2653,834416.36,9,314.723,314.4,314.573,82829,26055739.1883,391,314.475,314.68,314.56,314.719,0.006019780191660423,0.006440363450217484,aapl,20200128
2020-01-28,10:42,10:42 AM,314.81,314.59,314.762,656,206484.17,11,314.91,314.588,314.799,101747,32029856.8789,407,314.59,314.81,314.7,314.886,0.006800240535318953,0.0071634246224724085,aapl,20200128
2020-01-28,10:43,10:43 AM,314.85,314.82,314.835,200,62967.0,2,314.993,314.79,314.912,95386,30038200.253,389,314.85,314.82,314.89,314.97,0.007033738916823256,0.00752495520859987,aapl,20200128
2020-01-28,10:44,10:44 AM,315.025,314.77,314.915,2115,666045.13,14,315.04,314.73,314.931,121595,38294078.9912,510,315.025,314.855,314.96,314.94,0.007289627554088449,0.007585743537240789,aapl,20200128
2020-01-28,10:45,10:45 AM,315.015,314.83,314.958,2974,936685.84,15,315.025,314.82,314.938,71760,22599955.7506,367,314.965,314.83,314.925,314.83,0.00742716769661844,0.0076081392372664,aapl,20200128
2020-01-28,10:46,10:46 AM,314.81,314.63,314.767,1304,410456.495,12,314.84,314.535,314.725,88122,27734166.5432,431,314.81,314.63,314.84,314.665,0.006816233575148004,0.006926670079344831,aapl,20200128
2020-01-28,10:47,10:47 AM,314.785,314.785,314.785,50,15739.25,1,314.81,314.65,314.73,81108,25527097.6277,323,314.785,314.785,314.666,314.8,0.006873808518532737,0.006942667007934528,aapl,20200128
2020-01-28,10:48,10:48 AM,314.795,314.66,314.692,879,276614.16,11,314.8,314.61,314.708,57288,18029000.4941,250,314.795,314.69,314.8,314.675,0.006576337977712046,0.006872280522139828,aapl,20200128
2020-01-28,10:49,10:49 AM,314.83,314.7,314.798,401,126233.83,6,314.92,314.67,314.835,66583,20962668.7287,360,314.7,314.83,314.685,314.92,0.0069153904220882354,0.0072786025083183305,aapl,20200128
2020-01-28,10:50,10:50 AM,315.335,315.0,315.211,1639,516630.225,15,315.41,314.91,315.179,192638,60715386.4435,948,315.0,315.29,314.91,315.31,0.008236415511969153,0.008379191195290412,aapl,20200128
2020-01-28,10:51,10:51 AM,315.5,315.4,315.451,1705,537843.84,18,315.515,315.32,315.429,148085,46710288.7821,693,315.4,315.5,315.32,315.5,0.00900408142376437,0.00917903762477595,aapl,20200128
2020-01-28,10:52,10:52 AM,315.65,315.38,315.503,1394,439810.715,22,315.67,315.37,315.486,133205,42024322.4345,662,315.6,315.39,315.49,315.413,0.009170409037986545,0.009361402610698706,aapl,20200128
2020-01-28,10:53,10:53 AM,315.47,315.33,315.395,610,192390.8,7,315.49,315.3,315.393,99416,31355141.7464,430,315.4,315.47,315.42,315.403,0.008824959377678698,0.009063859738930029,aapl,20200128
2020-01-28,10:54,10:54 AM,315.38,315.24,315.308,2218,699352.565,12,315.45,315.22,315.348,67112,21163636.221,322,315.38,315.305,315.4,315.443,0.008546680484652978,0.008919887381622763,aapl,20200128
2020-01-28,10:55,10:55 AM,315.53,315.35,315.411,730,230250.1,8,315.55,315.27,315.412,74052,23356889.2671,375,315.53,315.35,315.45,315.322,0.008876137105131774,0.009124648067570948,aapl,20200128
2020-01-28,10:56,10:56 AM,315.41,315.25,315.306,2917,919746.635,20,315.43,315.228,315.325,61141,19279302.8455,342,315.41,315.315,315.34,315.315,0.00854028326872132,0.008846301510110016,aapl,20200128
2020-01-28,10:57,10:57 AM,315.45,315.24,315.268,2806,884641.01,18,315.45,315.23,315.308,64469,20327618.6626,331,315.405,315.45,315.325,315.42,0.008418736166020381,0.008791911952905011,aapl,20200128
2020-01-28,10:58,10:58 AM,315.68,315.395,315.538,1076,339519.23,12,315.728,315.38,315.547,128610,40582487.624,523,315.395,315.64,315.41,315.636,0.00928236031679009,0.009556565139493291,aapl,20200128
2020-01-28,10:59,10:59 AM,315.81,315.69,315.744,3102,979437.62,16,315.84,315.63,315.742,96645,30514854.9341,458,315.705,315.81,315.67,315.815,0.00994127355774768,0.01018044535449199,aapl,20200128
2020-01-28,11:00,11 AM,315.825,315.675,315.716,1603,506093.235,12,315.89,315.65,315.753,99529,31426624.9939,412,315.825,315.715,315.816,315.7,0.009851712534704845,0.010215638597389248,aapl,20200128
2020-01-28,11:01,11:01 AM,315.62,315.355,315.531,1516,478344.68,19,315.74,315.28,315.52,115503,36443488.666,669,315.62,315.59,315.71,315.53,0.00925997006102938,0.009470181725108714,aapl,20200128
2020-01-28,11:02,11:02 AM,315.49,315.28,315.341,2200,693751.5,20,315.56,315.26,315.375,81970,25851260.6597,414,315.49,315.36,315.52,315.42,0.008652234547524866,0.00900627079600716,aapl,20200128
2020-01-28,11:03,11:03 AM,315.505,315.345,315.434,1126,355178.32,11,315.52,315.32,315.432,70344,22188717.6935,450,315.46,315.505,315.43,315.365,0.008949705088345557,0.009188635781929914,aapl,20200128
2020-01-28,11:04,11:04 AM,315.365,315.15,315.257,1502,473516.065,15,315.397,315.13,315.255,101145,31886430.5202,485,315.35,315.15,315.34,315.262,0.00838355147839654,0.008622344509854087,aapl,20200128
2020-01-28,11:05,11:05 AM,315.45,315.24,315.324,1075,338973.53,12,315.48,315.22,315.36,66787,21061971.2352,340,315.305,315.425,315.27,315.41,0.008597858212106053,0.00895828001023807,aapl,20200128
2020-01-28,11:06,11:06 AM,315.69,315.355,315.653,3974,1254406.28,11,315.72,315.35,315.585,70056,22108626.9037,351,315.355,315.69,315.39,315.692,0.009650200232858647,0.009678141796774946,aapl,20200128
2020-01-28,11:07,11:07 AM,315.715,315.34,315.491,1614,509202.635,11,315.73,315.3,315.452,72097,22743168.5572,353,315.715,315.34,315.7,315.36,0.009132025742396785,0.009252623496288699,aapl,20200128
2020-01-28,11:08,11:08 AM,315.36,315.27,315.288,503,158589.84,3,315.39,315.2,315.294,42625,13439427.6426,234,315.36,315.27,315.375,315.229,0.00848270832533677,0.00874712055285379,aapl,20200128
2020-01-28,11:09,11:09 AM,315.3,315.19,315.228,507,159820.44,7,315.357,315.14,315.214,52313,16489779.7823,245,315.22,315.3,315.23,315.296,0.008290791847387966,0.008491169695418467,aapl,20200128
2020-01-28,11:10,11:10 AM,315.335,315.215,315.299,500,157649.5,4,315.41,315.19,315.305,50392,15888826.3546,254,315.215,315.305,315.28,315.33,0.008517893012960612,0.00878231379575123,aapl,20200128
2020-01-28,11:11,11:11 AM,315.26,315.12,315.207,700,220645.235,9,315.38,315.11,315.209,42959,13541044.1003,212,315.26,315.12,315.357,315.184,0.008223621080105839,0.008475172766828772,aapl,20200128
2020-01-28,11:12,11:12 AM,315.115,315.05,315.052,490,154375.565,4,315.2,315.02,315.098,65050,20497120.2546,272,315.115,315.05,315.181,315.12,0.007727836845404869,0.008120040952137225,aapl,20200128
2020-01-28,11:13,11:13 AM,315.165,315.02,315.073,304,95782.205,6,315.23,315.01,315.129,56426,17781484.8458,226,315.04,315.165,315.119,315.215,0.007795007612686814,0.00821922190939345,aapl,20200128
2020-01-28,11:14,11:14 AM,315.32,315.165,315.256,354,111600.765,6,315.32,315.14,315.221,52071,16413852.459,257,315.22,315.2,315.215,315.205,0.00838035287043062,0.00851356539544408,aapl,20200128
2020-01-28,11:15,11:15 AM,315.17,315.035,315.075,402,126660.325,6,315.22,315.0,315.112,58121,18314627.7585,284,315.17,315.155,315.193,315.173,0.007801404828618471,0.008164832352188447,aapl,20200128
2020-01-28,11:16,11:16 AM,315.54,315.135,315.366,927,292344.05,10,315.58,315.12,315.369,97656,30797645.7991,370,315.135,315.54,315.2,315.512,0.008732199746670125,0.008987074481699596,aapl,20200128
2020-01-28,11:17,11:17 AM,315.615,315.47,315.505,1113,351157.315,11,315.64,315.45,315.538,64285,20284392.9309,245,315.59,315.615,315.52,315.62,0.009176806253918202,0.009527770668031765,aapl,20200128
2020-01-28,11:18,11:18 AM,315.63,315.515,315.535,2743,865512.375,15,315.63,315.5,315.548,66140,20870345.9324,270,315.53,315.63,315.622,315.63,0.009272764492892695,0.009559764525211158,aapl,20200128
2020-01-28,11:19,11:19 AM,315.905,315.63,315.791,620,195790.14,11,315.96,315.59,315.81,112125,35410254.3831,587,315.63,315.85,315.65,315.86,0.010091608132140804,0.010398003583312004,aapl,20200128
2020-01-28,11:20,11:20 AM,315.93,315.78,315.835,795,251089.0,8,315.99,315.72,315.865,76150,24053091.6219,313,315.81,315.93,315.86,315.99,0.010232346882636533,0.010573969797798845,aapl,20200128
2020-01-28,11:21,11:21 AM,315.97,315.78,315.866,504,159196.47,8,315.986,315.74,315.867,35449,11197165.8743,180,315.97,315.86,315.986,315.9,0.010331503729576764,0.01058036856923476,aapl,20200128
2020-01-28,11:22,11:22 AM,315.765,315.635,315.642,109,34404.965,3,315.913,315.45,315.729,69227,21856986.906,429,315.765,315.635,315.913,315.83,0.009615015545234622,0.010138853340158634,aapl,20200128
2020-01-28,11:23,11:23 AM,315.79,315.65,315.727,255,80510.5,8,315.92,315.62,315.748,61135,19303236.382,255,315.79,315.68,315.85,315.741,0.009886897222328685,0.010199641668799553,aapl,20200128
2020-01-28,11:24,11:24 AM,316.08,315.89,315.945,406,128273.78,6,316.1,315.7,315.981,102654,32436771.5016,486,315.89,316.08,315.77,316.09,0.010584193758876037,0.010945098541080087,aapl,20200128
2020-01-28,11:25,11:25 AM,316.045,315.875,315.952,612,193362.69,11,316.1,315.852,315.986,64077,20247439.5968,256,316.02,316.045,316.089,316.06,0.010606584014636747,0.010961095469669785,aapl,20200128
2020-01-28,11:26,11:26 AM,316.15,316.04,316.081,414,130857.51,9,316.22,316.0,316.116,65819,20806419.3997,298,316.15,316.07,316.06,316.03,0.01101920444222672,0.01137701561300225,aapl,20200128
2020-01-28,11:27,11:27 AM,316.025,316.0,316.012,206,65098.59,4,316.1,315.97,316.042,38272,12095578.1437,168,316.0,316.015,316.0,316.052,0.01079850049258555,0.01114026106987449,aapl,20200128
2020-01-28,11:28,11:28 AM,315.96,315.82,315.89,200,63178.0,2,316.084,315.76,315.893,75358,23805088.8152,322,315.96,315.82,316.07,315.897,0.010408270320756285,0.010663552597901107,aapl,20200128
2020-01-28,11:29,11:29 AM,315.915,315.91,315.91,101,31906.915,2,316.0,315.88,315.936,40564,12815644.9195,182,315.915,315.91,315.88,315.966,0.010472242480072674,0.01080112618377264,aapl,20200128
2020-01-28,11:30,11:30 AM,315.955,315.895,315.948,208,65717.16,5,316.0,315.85,315.944,31040,9806898.9485,141,315.895,315.955,315.965,315.97,0.010593789582773433,0.010826721269516299,aapl,20200128
2020-01-28,11:31,11:31 AM,316.02,316.0,316.0,202,63832.04,3,316.09,315.93,316.01,46812,14793044.0205,217,316.02,316.0,315.95,316.085,0.010760117196995789,0.0110378807269004,aapl,20200128
2020-01-28,11:32,11:32 AM,316.16,316.135,316.155,402,127094.285,5,316.24,316.1,316.179,64189,20295239.7922,344,316.16,316.15,316.1,316.146,0.01125590143169676,0.011578576913232568,aapl,20200128
2020-01-28,11:33,11:33 AM,316.155,316.06,316.098,316,99886.91,8,316.17,316.05,316.105,30710,9707587.9151,194,316.155,316.06,316.15,316.06,0.011073580777645533,0.011341822370104991,aapl,20200128
2020-01-28,11:34,11:34 AM,316.05,315.98,316.016,604,190873.63,8,316.13,315.93,316.012,43557,13764526.9412,208,316.0,315.98,316.08,316.13,0.010811294924448864,0.011044279498336314,aapl,20200128
2020-01-28,11:35,11:35 AM,316.015,315.925,315.995,209,66042.88,5,316.1,315.82,315.936,34735,10974032.1367,171,315.98,315.925,316.1,315.87,0.010744124157166737,0.01080112618377264,aapl,20200128
2020-01-28,11:36,11:36 AM,315.875,315.79,315.825,304,96010.88,5,315.93,315.78,315.863,34810,10995203.6981,179,315.815,315.875,315.88,315.875,0.010200360802978429,0.010567571026362929,aapl,20200128
2020-01-28,11:37,11:37 AM,316.01,315.98,315.995,200,63199.0,2,316.06,315.88,315.973,43176,13642443.0567,207,315.98,316.01,315.88,316.006,0.010744124157166737,0.010919503455336611,aapl,20200128
2020-01-28,11:38,11:38 AM,315.92,315.82,315.891,602,190166.21,7,315.99,315.81,315.881,30291,9568356.7181,166,315.92,315.9,315.99,315.88,0.010411468928722205,0.0106251599692858,aapl,20200128
2020-01-28,11:39,11:39 AM,315.94,315.88,315.883,107,33799.48,3,315.98,315.856,315.921,22284,7039993.5862,137,315.94,315.88,315.89,315.93,0.010385880064995577,0.01075313539800355,aapl,20200128
2020-01-28,11:40,11:40 AM,316.07,315.955,316.033,910,287590.0,5,316.07,315.92,316.008,32821,10371703.4135,195,315.955,316.05,315.97,316.061,0.010865671259867676,0.011031481955464485,aapl,20200128
2020-01-28,11:41,11:41 AM,316.09,315.985,316.078,708,223783.42,9,316.13,315.96,316.075,34989,11059161.8594,153,316.075,315.985,316.08,316.0,0.011009608618329144,0.011245840798566631,aapl,20200128
2020-01-28,11:42,11:42 AM,315.92,315.865,315.9,300,94770.0,3,316.007,315.85,315.921,27774,8774405.8205,159,315.865,315.92,316.007,315.943,0.01044025640041439,0.01075313539800355,aapl,20200128
2020-01-28,11:43,11:43 AM,315.975,315.855,315.913,302,95405.84,4,315.98,315.85,315.922,19909,6289695.2337,110,315.975,315.855,315.95,315.94,0.01048183830397007,0.010756334783721599,aapl,20200128
2020-01-28,11:44,11:44 AM,315.95,315.88,315.889,117,36959.03,7,315.974,315.83,315.941,25605,8089669.9256,106,315.95,315.88,315.93,315.834,0.010405071712790547,0.010817123112362336,aapl,20200128
2020-01-28,11:45,11:45 AM,315.86,315.76,315.839,105,33163.055,5,315.94,315.75,315.826,34086,10765235.4469,180,315.815,315.84,315.83,315.819,0.010245141314499847,0.01044919375479914,aapl,20200128
2020-01-28,11:46,11:46 AM,315.74,315.73,315.738,332,104825.14,3,315.825,315.7,315.745,59191,18689260.9144,195,315.74,315.73,315.825,315.714,0.00992208190995271,0.010190043511645772,aapl,20200128
2020-01-28,11:47,11:47 AM,315.66,315.65,315.653,300,94696.0,3,315.78,315.61,315.702,49139,15513267.2361,216,315.66,315.65,315.7,315.75,0.009650200232858647,0.010052469925774238,aapl,20200128
2020-01-28,11:48,11:48 AM,315.945,315.8,315.865,510,161091.34,5,315.96,315.77,315.865,42836,13530404.0158,185,315.8,315.945,315.79,315.96,0.010328305121611026,0.010573969797798845,aapl,20200128
2020-01-28,11:49,11:49 AM,316.12,315.985,316.028,680,214899.14,10,316.17,315.98,316.065,58995,18646237.5731,273,315.985,316.105,315.98,316.156,0.010849678220038626,0.011213846941387239,aapl,20200128
2020-01-28,11:50,11:50 AM,316.46,316.225,316.425,1690,534757.775,12,316.53,316.13,316.395,132788,42013415.0817,578,316.225,316.43,316.13,316.456,0.012119525582466468,0.0122696442283081,aapl,20200128
2020-01-28,11:51,11:51 AM,316.64,316.46,316.557,3483,1102568.065,18,316.65,316.45,316.566,100854,31926944.2544,388,316.46,316.52,316.466,316.531,0.012541741833953837,0.012816739186076183,aapl,20200128
2020-01-28,11:52,11:52 AM,316.515,316.45,316.476,208,65826.915,7,316.57,316.44,316.497,50729,16055552.5457,204,316.515,316.45,316.52,316.44,0.012282654588722906,0.012595981571538302,aapl,20200128
2020-01-28,11:53,11:53 AM,316.44,316.395,316.425,300,94927.5,3,316.48,316.38,316.434,37575,11890014.8821,170,316.395,316.44,316.455,316.42,0.012119525582466468,0.012394420271307985,aapl,20200128
2020-01-28,11:54,11:54 AM,316.73,316.43,316.462,208,65824.22,7,316.75,316.42,316.574,80984,25637447.317,382,316.45,316.72,316.448,316.7,0.01223787407720149,0.012842334271819843,aapl,20200128
2020-01-28,11:55,11:55 AM,316.76,316.54,316.697,712,225488.54,8,316.77,316.53,316.653,51715,16375707.3011,242,316.74,316.54,316.68,316.62,0.012989546949167654,0.013095085743537297,aapl,20200128
2020-01-28,11:56,11:56 AM,316.605,316.515,316.57,592,187409.7,5,316.67,316.45,316.553,35018,11085049.2752,193,316.58,316.515,316.64,316.45,0.012583323737509335,0.01277514717174301,aapl,20200128
2020-01-28,11:57,11:57 AM,316.505,316.435,316.46,766,242408.5,7,316.594,316.38,316.467,41826,13236538.153,199,316.47,316.505,316.47,316.58,0.012231476861269831,0.012499999999999943,aapl,20200128
2020-01-28,11:58,11:58 AM,316.58,316.53,316.553,310,98131.6,4,316.68,316.52,316.582,34656,10971486.0994,158,316.53,316.58,316.593,316.595,0.012528947402090523,0.01286792935756332,aapl,20200128
2020-01-28,11:59,11:59 AM,316.6,316.52,316.595,201,63635.52,3,316.71,316.51,316.596,35547,11254031.1004,178,316.6,316.52,316.62,316.532,0.012663288936654776,0.012912720757614543,aapl,20200128
2020-01-28,12:00,12 PM,316.565,316.485,316.542,201,63624.985,3,316.58,316.45,316.504,32901,10413285.6451,162,316.565,316.52,316.56,316.465,0.0124937627144665,0.012618377271563914,aapl,20200128
2020-01-28,12:01,12:01 PM,316.42,316.365,316.392,200,63278.5,2,316.471,316.35,316.408,40942,12954393.4233,192,316.42,316.365,316.47,316.427,0.012013971519594581,0.012311236242641455,aapl,20200128
2020-01-28,12:02,12:02 PM,316.39,316.35,316.373,302,95544.77,4,316.48,316.33,316.401,31433,9945427.7518,130,316.38,316.39,316.421,316.462,0.011953197968244112,0.012288840542615843,aapl,20200128
2020-01-28,12:03,12:03 PM,316.47,316.46,316.47,105,33229.32,3,316.5,316.38,316.453,36659,11600867.4304,188,316.465,316.46,316.47,316.42,0.012263462940928118,0.012455208599948722,aapl,20200128
2020-01-28,12:04,12:04 PM,316.435,316.405,316.411,835,264203.225,4,316.48,316.366,316.425,34542,10929941.5977,172,316.435,316.405,316.44,316.445,0.012074745070945051,0.012365625799846458,aapl,20200128
2020-01-28,12:05,12:05 PM,316.69,316.51,316.581,302,95607.38,4,316.75,316.46,316.608,59209,18746067.0218,233,316.51,316.69,316.46,316.71,0.01261850842513336,0.01295111338622985,aapl,20200128
2020-01-28,12:06,12:06 PM,316.6,316.51,316.582,102,32291.39,3,316.73,316.47,316.59,37958,12017115.7275,162,316.6,316.51,316.721,316.47,0.012621707033099097,0.012893524443306797,aapl,20200128
2020-01-28,12:07,12:07 PM,316.62,316.6,316.615,109,34511.04,4,316.68,316.46,316.574,23545,7453724.8491,146,316.615,316.62,316.47,316.61,0.012727261095970985,0.012842334271819843,aapl,20200128
2020-01-28,12:08,12:08 PM,316.64,316.64,316.64,100,31664.0,1,316.666,316.572,316.622,16829,5328429.8048,71,316.64,316.64,316.607,316.64,0.012807226295116244,0.012995904786281072,aapl,20200128
2020-01-28,12:09,12:09 PM,316.6,316.59,316.595,201,63635.61,3,316.729,316.54,316.639,40839,12931239.344,174,316.6,316.59,316.654,316.61,0.012663288936654776,0.013050294343486075,aapl,20200128
2020-01-28,12:10,12:10 PM,316.76,316.68,316.734,231,73165.56,5,316.87,316.615,316.77,59082,18715391.0525,232,316.71,316.73,316.62,316.74,0.013107895443902673,0.013469413872536407,aapl,20200128
2020-01-28,12:11,12:11 PM,316.785,316.71,316.733,900,285060.0,9,316.823,316.69,316.743,36230,11475595.7134,166,316.745,316.785,316.745,316.765,0.013104696835936935,0.013383030458152012,aapl,20200128
2020-01-28,12:12,12:12 PM,316.86,316.825,316.843,621,196759.275,6,316.94,316.78,316.858,63407,20091036.7791,223,316.85,316.825,316.78,316.91,0.013456543712176439,0.013750959815715388,aapl,20200128
2020-01-28,12:13,12:13 PM,316.9,316.83,316.861,1000,316861.0,3,316.92,316.82,316.862,45740,14493267.8215,212,316.9,316.83,316.895,316.82,0.01351411865556099,0.013763757358587219,aapl,20200128
2020-01-28,12:14,12:14 PM,316.81,316.775,316.793,202,63992.11,4,316.85,316.76,316.809,22853,7240028.657,125,316.81,316.775,316.825,316.775,0.013296613313885739,0.013594189915536292,aapl,20200128
2020-01-28,12:15,12:15 PM,316.755,316.51,316.589,14101,4464222.955,21,316.758,316.5,316.581,71357,22590302.7685,299,316.755,316.51,316.75,316.524,0.012644097288859806,0.012864729971845453,aapl,20200128
2020-01-28,12:16,12:16 PM,316.65,316.565,316.62,3100,981521.0,7,316.75,316.51,316.647,43390,13739295.4302,188,316.565,316.65,316.51,316.7,0.012743254135800037,0.013075889429229553,aapl,20200128
2020-01-28,12:17,12:17 PM,316.69,316.63,316.63,401,126968.69,2,316.75,316.61,316.675,28878,9144946.3431,124,316.69,316.63,316.692,316.63,0.01277524021545814,0.013165472229331997,aapl,20200128
2020-01-28,12:18,12:18 PM,316.6,316.6,316.6,1,316.6,1,316.712,316.54,316.62,27392,8672865.4457,150,316.6,316.6,316.63,316.71,0.012679281976483828,0.012989506014845158,aapl,20200128
2020-01-28,12:19,12:19 PM,316.79,316.66,316.762,1643,520440.39,11,316.81,316.64,316.75,53140,16832070.8927,207,316.71,316.66,316.71,316.66,0.013197456466945508,0.013405426158177622,aapl,20200128
2020-01-28,12:20,12:20 PM,316.68,316.54,316.617,5801,1836697.57,12,316.73,316.53,316.63,50733,16063609.1738,253,316.68,316.62,316.66,316.69,0.012733658311902641,0.013021499872024549,aapl,20200128
2020-01-28,12:21,12:21 PM,316.685,316.535,316.562,1104,349484.7,5,316.725,316.52,316.599,42553,13472254.0073,206,316.685,316.535,316.699,316.552,0.012557734873782889,0.012922318914768324,aapl,20200128
2020-01-28,12:22,12:22 PM,316.635,316.575,316.625,900,284962.5,4,316.66,316.48,316.594,44479,14081774.1603,286,316.575,316.61,316.55,316.62,0.012759247175629087,0.012906321986178627,aapl,20200128
2020-01-28,12:23,12:23 PM,316.675,316.545,316.63,900,284967.0,5,316.68,316.54,316.601,25378,8034705.9488,155,316.545,316.675,316.62,316.65,0.01277524021545814,0.012928717686204239,aapl,20200128
2020-01-28,12:24,12:24 PM,316.76,316.705,316.721,701,222021.21,4,316.78,316.648,316.732,41181,13043343.5638,155,316.76,316.705,316.653,316.69,0.013066313540347175,0.013347837215254753,aapl,20200128
2020-01-28,12:25,12:25 PM,316.75,316.72,316.727,301,95334.75,4,316.79,316.7,316.741,23707,7508990.6135,118,316.72,316.75,316.71,316.79,0.013085505188141965,0.013376631686716097,aapl,20200128
2020-01-28,12:26,12:26 PM,316.875,316.725,316.812,600,190086.97,7,316.9,316.7,316.823,49778,15770829.4327,226,316.81,316.875,316.82,316.85,0.01335738686523621,0.013638981315587334,aapl,20200128
2020-01-28,12:27,12:27 PM,316.925,316.765,316.837,1000,316836.5,9,316.94,316.73,316.858,52782,16724424.7717,235,316.84,316.765,316.85,316.788,0.013437352064381469,0.013750959815715388,aapl,20200128
2020-01-28,12:28,12:28 PM,316.79,316.74,316.745,202,63982.55,4,316.82,316.71,316.757,21766,6894544.6453,126,316.79,316.76,316.8,316.75,0.013143080131526695,0.013427821858203234,aapl,20200128
2020-01-28,12:29,12:29 PM,316.785,316.775,316.781,501,158707.275,6,316.837,316.77,316.801,23155,7335524.0949,90,316.785,316.775,316.774,316.807,0.013258230018295979,0.013568594829792634,aapl,20200128
2020-01-28,12:30,12:30 PM,316.79,316.76,316.783,137,43399.24,3,316.8,316.71,316.76,21749,6889213.0892,107,316.79,316.76,316.8,316.745,0.013264627234227635,0.013437420015357015,aapl,20200128
2020-01-28,12:31,12:31 PM,316.775,316.715,316.752,601,190368.22,6,316.779,316.7,316.74,20684,6551442.2086,102,316.715,316.775,316.74,316.76,0.013165470387287406,0.013373432300998231,aapl,20200128
2020-01-28,12:32,12:32 PM,317.075,316.86,316.912,13409,4249469.37,34,317.077,316.78,316.971,106197,33661412.3197,495,316.86,316.95,316.78,317.06,0.013677247661817427,0.01411249040184285,aapl,20200128
2020-01-28,12:33,12:33 PM,317.11,317.05,317.076,500,158538.0,5,317.16,316.99,317.077,60626,19223086.0455,244,317.07,317.05,317.05,317.085,0.014201819368210947,0.014451625287944702,aapl,20200128
2020-01-28,12:34,12:34 PM,317.16,317.075,317.095,1600,507352.5,4,317.17,317.01,317.11,63136,20021087.8644,287,317.12,317.09,317.087,317.031,0.014262592919561416,0.014557205016636841,aapl,20200128
2020-01-28,12:35,12:35 PM,317.04,317.04,317.04,100,31704.0,1,317.15,316.91,317.026,51754,16407378.0709,209,317.04,317.04,317.06,316.925,0.014086669481441664,0.01428845661632969,aapl,20200128
2020-01-28,12:36,12:36 PM,316.985,316.945,316.965,201,63709.97,3,317.0,316.9,316.954,26400,8367594.0673,144,316.985,316.945,316.912,316.947,0.013846773884005523,0.014058100844637846,aapl,20200128
2020-01-28,12:37,12:37 PM,316.93,316.86,316.881,103,32638.72,3,316.96,316.86,316.92,31418,9956986.479,135,316.86,316.93,316.93,316.95,0.013578090814877196,0.01394932173022784,aapl,20200128
2020-01-28,12:38,12:38 PM,316.96,316.945,316.952,200,63390.5,2,317.055,316.82,316.947,22996,7288508.0067,132,316.96,316.945,316.96,316.86,0.013805191980450025,0.014035705144612236,aapl,20200128
2020-01-28,12:39,12:39 PM,316.89,316.81,316.864,400,126745.5,4,316.9,316.78,316.861,32139,10183581.7113,155,316.89,316.81,316.864,316.81,0.013523714479458384,0.01376055797286917,aapl,20200128
2020-01-28,12:40,12:40 PM,316.795,316.76,316.777,1400,443487.5,11,316.9,316.76,316.809,32515,10301051.3362,186,316.795,316.76,316.87,316.78,0.013245435586432664,0.013594189915536292,aapl,20200128
2020-01-28,12:41,12:41 PM,316.76,316.71,316.743,432,136832.935,7,316.831,316.69,316.743,34199,10832288.7061,199,316.76,316.75,316.785,316.831,0.01313668291559504,0.013383030458152012,aapl,20200128
2020-01-28,12:42,12:42 PM,316.81,316.755,316.776,402,127344.04,5,316.87,316.71,316.791,31388,9943450.6365,144,316.81,316.755,316.84,316.739,0.013242236978466927,0.013536600972613241,aapl,20200128
2020-01-28,12:43,12:43 PM,316.76,316.735,316.743,325,102941.5,4,316.81,316.71,316.765,25206,7984380.3387,129,316.76,316.74,316.75,316.743,0.01313668291559504,0.013453416943946712,aapl,20200128
2020-01-28,12:44,12:44 PM,316.78,316.735,316.777,201,63672.235,3,316.83,316.72,316.77,24379,7722539.2735,118,316.775,316.735,316.75,316.731,0.013245435586432664,0.013469413872536407,aapl,20200128
2020-01-28,12:45,12:45 PM,316.705,316.59,316.688,1400,443364.0,4,316.74,316.56,316.662,65029,20592224.9375,290,316.705,316.59,316.74,316.67,0.012960759477475287,0.013123880214998641,aapl,20200128
2020-01-28,12:46,12:46 PM,316.685,316.66,316.673,200,63334.5,2,316.72,316.62,316.675,39378,12470028.2598,197,316.685,316.66,316.675,316.68,0.012912780357988131,0.013165472229331997,aapl,20200128
2020-01-28,12:47,12:47 PM,316.675,316.555,316.587,504,159559.6,4,316.69,316.53,316.596,19514,6178053.8327,131,316.675,316.555,316.666,316.55,0.012637700072928148,0.012912720757614543,aapl,20200128
2020-01-28,12:48,12:48 PM,316.555,316.22,316.349,2375,751330.25,14,316.57,316.22,316.369,95703,30277495.7137,411,316.555,316.335,316.54,316.304,0.01187643137706459,0.012186460199641752,aapl,20200128
2020-01-28,12:49,12:49 PM,316.22,316.11,316.143,6950,2197193.75,13,316.32,316.1,316.177,62373,19720892.8944,241,316.145,316.125,316.309,316.12,0.011217518136107,0.011572178141796835,aapl,20200128
2020-01-28,12:50,12:50 PM,316.23,316.11,316.162,4500,1422728.0,10,316.25,316.11,316.177,65630,20750694.1442,282,316.14,316.11,316.131,316.12,0.011278291687457469,0.011572178141796835,aapl,20200128
2020-01-28,12:51,12:51 PM,316.2,316.02,316.101,2250,711226.96,9,316.23,316.01,316.112,63251,19994407.9907,284,316.13,316.2,316.12,316.2,0.011083176601542928,0.011364218070130602,aapl,20200128
2020-01-28,12:52,12:52 PM,316.325,316.27,316.3,2000,632600.5,8,316.395,316.183,316.288,58889,18625902.4282,277,316.27,316.315,316.22,316.345,0.01171969958673981,0.011927309956488382,aapl,20200128
2020-01-28,12:53,12:53 PM,316.475,316.475,316.475,2,632.95,1,316.6,316.384,316.473,57591,18225981.7632,232,316.475,316.475,316.392,316.6,0.01227945598075717,0.012519196314307687,aapl,20200128
2020-01-28,12:54,12:54 PM,316.58,316.45,316.566,302,95602.92,5,316.69,316.41,316.58,74281,23515874.6424,257,316.56,316.45,316.605,316.458,0.012570529305646021,0.012861530586127405,aapl,20200128
2020-01-28,12:55,12:55 PM,316.655,316.525,316.595,600,189957.0,6,316.7,316.41,316.557,50288,15918996.5943,181,316.54,316.655,316.45,316.64,0.012663288936654776,0.012787944714614839,aapl,20200128
2020-01-28,12:56,12:56 PM,316.62,316.6,316.61,402,127277.22,5,316.656,316.52,316.603,33492,10603658.7456,149,316.615,316.6,316.615,316.656,0.012711268056141933,0.012935116457640153,aapl,20200128
2020-01-28,12:57,12:57 PM,316.625,316.57,316.597,300,94979.0,3,316.744,316.56,316.664,40616,12861630.3885,150,316.625,316.57,316.66,316.638,0.012669686152586252,0.013130278986434556,aapl,20200128
2020-01-28,12:58,12:58 PM,316.65,316.65,316.65,1,316.65,1,316.68,316.51,316.567,21549,6821698.3742,120,316.65,316.65,316.656,316.55,0.012839212374774348,0.012819938571794231,aapl,20200128
2020-01-28,12:59,12:59 PM,316.71,316.5,316.603,1300,411583.5,12,316.74,316.47,316.596,38024,12038255.4147,226,316.555,316.71,316.54,316.695,0.012688877800381224,0.012912720757614543,aapl,20200128
2020-01-28,13:00,1 PM,316.75,316.59,316.669,2207,698888.305,21,316.75,316.556,316.674,30862,9773191.504,164,316.73,316.615,316.71,316.61,0.012899985926124817,0.013162272843613949,aapl,20200128
2020-01-28,13:01,1:01 PM,,,,0,0.0,0,316.65,316.52,316.593,28042,8877899.4819,132,,,316.61,316.57,,0.01290312260046076,aapl,20200128
2020-01-28,13:02,1:02 PM,316.545,316.49,316.505,330,104446.725,5,316.565,316.45,316.514,43182,13667693.3002,155,316.5,316.49,316.56,316.46,0.01237541421973148,0.012650371128743306,aapl,20200128
2020-01-28,13:03,1:03 PM,316.48,316.36,316.42,202,63916.81,4,316.488,316.32,316.39,44155,13970195.4993,179,316.44,316.36,316.47,316.33,0.012103532542637418,0.012253647299718402,aapl,20200128
2020-01-28,13:04,1:04 PM,316.31,316.24,316.281,172,54400.28,2,316.4,316.22,316.298,42038,13296557.4311,172,316.31,316.24,316.33,316.28,0.011658926035389339,0.011959303813667775,aapl,20200128
2020-01-28,13:05,1:05 PM,316.38,316.245,316.318,1071,338776.68,11,316.373,316.24,316.31,39488,12490432.0094,166,316.245,316.365,316.25,316.26,0.01177727453012436,0.011997696442283082,aapl,20200128
2020-01-28,13:06,1:06 PM,316.3,316.165,316.223,405,128070.245,6,316.33,316.11,316.2,72419,22898887.9981,277,316.255,316.165,316.27,316.26,0.011473406773372193,0.011645764013309402,aapl,20200128
2020-01-28,13:07,1:07 PM,316.36,316.265,316.335,282,89206.55,5,316.41,316.22,316.323,55020,17404082.9999,171,316.265,316.36,316.23,316.38,0.011831650865543173,0.012039288456616256,aapl,20200128
2020-01-28,13:08,1:08 PM,316.38,316.36,316.375,102,32270.24,3,316.42,316.27,316.357,34166,10808647.6407,149,316.375,316.38,316.34,316.345,0.011959595184175768,0.012148067571026445,aapl,20200128
2020-01-28,13:09,1:09 PM,316.47,316.45,316.462,400,126585.0,3,316.478,316.3,316.384,34052,10773495.4878,162,316.47,316.46,316.356,316.36,0.01223787407720149,0.01223445098541084,aapl,20200128
2020-01-28,13:10,1:10 PM,316.355,316.3,316.342,333,105342.05,4,316.4,316.263,316.322,39318,12437162.2991,146,316.355,316.34,316.37,316.31,0.011854041121303881,0.01203608907089839,aapl,20200128
2020-01-28,13:11,1:11 PM,316.265,316.265,316.265,100,31626.5,1,316.442,316.25,316.349,24585,7777451.8446,108,316.265,316.265,316.295,316.43,0.011607748307936264,0.012122472485282785,aapl,20200128
2020-01-28,13:12,1:12 PM,,,,0,0.0,0,316.55,316.41,316.465,36124,11431972.1021,150,,,316.42,316.55,,0.012493601228564029,aapl,20200128
2020-01-28,13:13,1:13 PM,316.57,316.51,316.564,801,253567.51,6,316.58,316.46,316.549,36329,11499904.2853,172,316.565,316.55,316.547,316.55,0.012564132089714547,0.01276234962887118,aapl,20200128
2020-01-28,13:14,1:14 PM,316.605,316.58,316.605,151,47807.33,2,316.644,316.51,316.585,31453,9957561.72,114,316.58,316.605,316.55,316.605,0.01269527501631288,0.012877527514717102,aapl,20200128
2020-01-28,13:15,1:15 PM,316.605,316.465,316.542,642,203219.805,6,316.596,316.45,316.533,26502,8388768.0151,115,316.605,316.5,316.59,316.46,0.0124937627144665,0.012711159457384224,aapl,20200128
2020-01-28,13:16,1:16 PM,316.495,316.46,316.478,200,63295.5,2,316.568,316.392,316.467,28020,8867399.5268,134,316.495,316.46,316.476,316.45,0.012289051804654564,0.012499999999999943,aapl,20200128
2020-01-28,13:17,1:17 PM,316.47,316.38,316.447,401,126895.38,5,316.47,316.35,316.415,17787,5628078.1802,84,316.38,316.47,316.45,316.41,0.012189894957714333,0.012333631942667065,aapl,20200128
2020-01-28,13:18,1:18 PM,316.415,316.32,316.414,101,31957.82,2,316.46,316.3,316.379,24925,7885744.2119,128,316.415,316.32,316.435,316.439,0.012084340894842446,0.012218454056821143,aapl,20200128
2020-01-28,13:19,1:19 PM,316.49,316.44,316.45,201,63606.49,3,316.51,316.41,316.477,36965,11698564.3573,154,316.46,316.44,316.444,316.44,0.012199490781611729,0.012531993857179336,aapl,20200128
2020-01-28,13:20,1:20 PM,316.49,316.28,316.385,601,190147.42,7,316.49,316.24,316.378,32309,10221873.2099,151,316.46,316.28,316.432,316.28,0.011991581263833873,0.012215254671103095,aapl,20200128
2020-01-28,13:21,1:21 PM,316.4,316.265,316.333,600,189800.0,5,316.46,316.265,316.377,37953,12007446.1966,108,316.265,316.4,316.29,316.409,0.011825253649611697,0.012212055285385229,aapl,20200128
2020-01-28,13:22,1:22 PM,316.555,316.44,316.517,800,253213.5,8,316.555,316.4,316.484,30994,9809099.5899,143,316.44,316.555,316.4,316.54,0.012413797515321241,0.012554389557204946,aapl,20200128
2020-01-28,13:23,1:23 PM,316.58,316.54,316.557,300,94967.0,3,316.61,316.52,316.571,23791,7531532.4496,106,316.58,316.54,316.56,316.526,0.012541741833953837,0.01283273611466606,aapl,20200128
2020-01-28,13:24,1:24 PM,316.545,316.47,316.544,101,31970.97,2,316.56,316.45,316.484,25198,7974774.9088,109,316.47,316.545,316.53,316.48,0.012500159930398158,0.012554389557204946,aapl,20200128
2020-01-28,13:25,1:25 PM,316.69,316.51,316.667,116,36733.4,5,316.7,316.5,316.61,40050,12680240.6856,134,316.51,316.66,316.5,316.673,0.01289358871019316,0.012957512157665765,aapl,20200128
2020-01-28,13:26,1:26 PM,316.61,316.61,316.61,100,31661.0,1,316.68,316.56,316.628,31441,9955091.2845,162,316.61,316.61,316.65,316.57,0.012711268056141933,0.013015101100588634,aapl,20200128
2020-01-28,13:27,1:27 PM,316.595,316.59,316.593,300,94978.0,3,316.6,316.51,316.565,15465,4895680.4777,76,316.595,316.59,316.58,316.52,0.01265689172072312,0.012813539800358317,aapl,20200128
2020-01-28,13:28,1:28 PM,316.53,316.43,316.523,1033,326968.19,7,316.557,316.42,316.502,31035,9822637.4161,127,316.515,316.43,316.52,316.53,0.012432989163116212,0.012611978500128,aapl,20200128
2020-01-28,13:29,1:29 PM,316.505,316.505,316.505,100,31650.5,1,316.58,316.495,316.53,22921,7255189.6686,87,316.505,316.505,316.538,316.57,0.01237541421973148,0.012701561300230261,aapl,20200128
2020-01-28,13:30,1:30 PM,316.635,316.56,316.598,4,1266.39,2,316.667,316.5,316.578,20123,6370506.6159,100,316.635,316.56,316.59,316.5,0.012672884760552172,0.01285513181469149,aapl,20200128
2020-01-28,13:31,1:31 PM,316.53,316.465,316.509,315,99700.24,8,316.548,316.45,316.495,19722,6241918.5736,112,316.5,316.53,316.5,316.541,0.012388208651594795,0.012589582800102387,aapl,20200128
2020-01-28,13:32,1:32 PM,316.775,316.555,316.672,1596,505408.96,9,316.79,316.543,316.685,31151,9865053.9721,159,316.555,316.775,316.543,316.775,0.012909581750022393,0.01319746608651139,aapl,20200128
2020-01-28,13:33,1:33 PM,316.83,316.76,316.788,526,166630.54,7,316.85,316.73,316.786,38558,12214652.0284,182,316.83,316.775,316.778,316.81,0.013280620274056687,0.013520604044023544,aapl,20200128
2020-01-28,13:34,1:34 PM,316.83,316.66,316.79,1908,604435.885,14,316.85,316.57,316.747,56920,18029254.8436,252,316.815,316.66,316.82,316.65,0.013287017489988345,0.013395828001023841,aapl,20200128
2020-01-28,13:35,1:35 PM,316.54,316.47,316.475,201,63611.54,3,316.634,316.39,316.489,30065,9515232.595,172,316.48,316.54,316.634,316.46,0.01227945598075717,0.012570386485794643,aapl,20200128
2020-01-28,13:36,1:36 PM,316.44,316.4,316.42,102,32274.84,3,316.54,316.29,316.385,39916,12628834.3862,184,316.44,316.4,316.48,316.4,0.012103532542637418,0.012237650371128707,aapl,20200128
2020-01-28,13:37,1:37 PM,316.215,316.14,316.176,401,126786.655,4,316.383,316.13,316.243,56864,17982865.4825,246,316.215,316.14,316.38,316.16,0.011323072198978887,0.011783337599180934,aapl,20200128
2020-01-28,13:38,1:38 PM,316.23,316.15,316.184,549,173585.14,6,316.26,316.134,316.184,27016,8542036.7637,147,316.23,316.16,316.16,316.16,0.011348661062705516,0.011594573841822445,aapl,20200128
2020-01-28,13:39,1:39 PM,316.22,316.16,316.161,202,63864.44,2,316.3,316.13,316.203,61173,19343073.822,270,316.16,316.22,316.16,316.27,0.01127509307949173,0.011655362170463182,aapl,20200128
2020-01-28,13:40,1:40 PM,316.3,316.275,316.288,2,632.575,2,316.325,316.23,316.281,25846,8174611.0657,107,316.275,316.3,316.26,316.26,0.011681316291150049,0.01190491425646277,aapl,20200128
2020-01-28,13:41,1:41 PM,316.3,316.3,316.3,1100,347930.0,3,316.4,316.231,316.327,23876,7552612.4543,104,316.3,316.3,316.25,316.326,0.01171969958673981,0.012052085999488085,aapl,20200128
2020-01-28,13:42,1:42 PM,316.27,316.27,316.27,1,316.27,1,316.33,316.23,316.281,27233,8613274.7939,139,316.27,316.27,316.31,316.32,0.011623741347765316,0.01190491425646277,aapl,20200128
2020-01-28,13:43,1:43 PM,,,,0,0.0,0,316.41,316.31,316.372,28254,8938768.6613,115,,,316.339,316.405,,0.012196058356795533,aapl,20200128
2020-01-28,13:44,1:44 PM,,,,0,0.0,0,316.45,316.27,316.357,35585,11257557.7086,140,,,316.409,316.38,,0.012148067571026445,aapl,20200128
2020-01-28,13:45,1:45 PM,316.44,316.44,316.44,100,31644.0,1,316.535,316.38,316.475,43392,13732479.3309,183,316.44,316.44,316.4,316.5,0.012167504701953625,0.012525595085743602,aapl,20200128
2020-01-28,13:46,1:46 PM,316.53,316.52,316.525,200,63305.0,2,316.53,316.42,316.477,26011,8231875.5483,145,316.52,316.53,316.49,316.473,0.012439386379047688,0.012531993857179336,aapl,20200128
2020-01-28,13:47,1:47 PM,316.54,316.5,316.538,105,33236.5,2,316.54,316.43,316.488,33765,10686213.889,150,316.5,316.54,316.48,316.53,0.012480968282603368,0.012567187100076777,aapl,20200128
2020-01-28,13:48,1:48 PM,316.59,316.485,316.54,900,284886.0,4,316.63,316.47,316.545,23628,7479314.4206,134,316.485,316.585,316.52,316.63,0.012487365498535024,0.012749552085999531,aapl,20200128
2020-01-28,13:49,1:49 PM,316.68,316.61,316.641,5026,1591436.415,19,316.68,316.58,316.638,39443,12489172.055,170,316.635,316.68,316.632,316.64,0.012810424903082164,0.013047094957768027,aapl,20200128
2020-01-28,13:50,1:50 PM,316.635,316.585,316.615,500,158307.5,4,316.65,316.575,316.614,17426,5517317.8938,97,316.635,316.585,316.636,316.615,0.012727261095970985,0.012970309700537412,aapl,20200128
2020-01-28,13:51,1:51 PM,316.565,316.545,316.557,300,94967.0,3,316.7,316.53,316.625,23907,7569557.585,116,316.565,316.545,316.62,316.686,0.012541741833953837,0.013005502943434853,aapl,20200128
2020-01-28,13:52,1:52 PM,316.72,316.67,316.698,501,158665.67,6,316.74,316.65,316.699,21358,6764062.395,128,316.72,316.67,316.698,316.74,0.01299274555713339,0.013242257486562612,aapl,20200128
2020-01-28,13:53,1:53 PM,316.775,316.7,316.774,101,31994.2,2,316.82,316.7,316.763,18962,6006453.2448,94,316.7,316.775,316.74,316.756,0.01323583976253527,0.013447018172510797,aapl,20200128
2020-01-28,13:54,1:54 PM,316.755,316.725,316.742,301,95339.255,3,316.82,316.71,316.763,19925,6311496.1301,100,316.725,316.75,316.755,316.77,0.013133484307629301,0.013447018172510797,aapl,20200128
2020-01-28,13:55,1:55 PM,316.85,316.81,316.83,202,63999.64,3,316.87,316.75,316.813,25919,8211470.5314,123,316.81,316.82,316.75,316.811,0.013414961808620758,0.013606987458407941,aapl,20200128
2020-01-28,13:56,1:56 PM,316.93,316.82,316.875,203,64325.73,3,316.94,316.805,316.875,24984,7916802.6845,111,316.82,316.91,316.81,316.918,0.013558899167082408,0.013805349372920392,aapl,20200128
2020-01-28,13:57,1:57 PM,316.89,316.865,316.877,200,63375.5,2,316.94,316.85,316.896,31884,10103923.1297,144,316.89,316.865,316.9,316.86,0.013565296383014064,0.013872536472997226,aapl,20200128
2020-01-28,13:58,1:58 PM,316.85,316.81,316.837,3,950.51,2,316.87,316.8,316.839,17674,5599806.4934,94,316.85,316.81,316.87,316.84,0.013437352064381469,0.01369017148707447,aapl,20200128
2020-01-28,13:59,1:59 PM,316.885,316.78,316.811,1003,317761.35,8,316.92,316.752,316.83,33783,10703465.508,177,316.82,316.88,316.84,316.84,0.01335418825727029,0.013661377015612944,aapl,20200128
2020-01-28,14:00,2 PM,316.94,316.86,316.925,851,269702.86,6,316.96,316.84,316.928,53358,16910673.1965,163,316.86,316.925,316.84,316.935,0.013718829565373108,0.013974916815971317,aapl,20200128
2020-01-28,14:01,2:01 PM,316.98,316.94,316.956,500,158478.0,2,316.99,316.89,316.959,41201,13059010.9676,198,316.94,316.98,316.935,316.89,0.013817986412313339,0.014074097773227543,aapl,20200128
2020-01-28,14:02,2:02 PM,316.89,316.87,316.883,301,95381.87,4,316.92,316.81,316.871,51179,16217164.0925,203,316.87,316.87,316.88,316.906,0.013584488030808854,0.013792551830048563,aapl,20200128
2020-01-28,14:03,2:03 PM,316.915,316.865,316.883,512,162243.945,8,316.98,316.858,316.926,45208,14327596.4433,220,316.88,316.915,316.9,316.971,0.013584488030808854,0.013968518044535402,aapl,20200128
2020-01-28,14:04,2:04 PM,317.065,316.97,317.015,2009,636883.12,24,317.098,316.96,317.02,67788,21490160.5613,325,316.97,317.03,316.97,317.06,0.014006704282296223,0.014269260302021946,aapl,20200128
2020-01-28,14:05,2:05 PM,317.035,317.01,317.025,154,48821.84,3,317.06,317.0,317.031,29277,9281714.8863,142,317.02,317.035,317.045,317.03,0.014038690361954327,0.014304453544919387,aapl,20200128
2020-01-28,14:06,2:06 PM,317.135,317.07,317.097,300,95129.0,3,317.14,317.03,317.083,30846,9780746.8139,152,317.085,317.135,317.03,317.11,0.014268990135492892,0.014470821602252446,aapl,20200128
2020-01-28,14:07,2:07 PM,317.05,316.98,317.02,408,129344.24,7,317.102,316.97,317.04,41242,13075349.5237,216,317.045,316.98,317.081,317.0,0.014022697322125275,0.014333248016380914,aapl,20200128
2020-01-28,14:08,2:08 PM,,,,0,0.0,0,317.08,317.0,317.037,16809,5329070.3123,94,,,317.01,317.06,,0.014323649859226949,aapl,20200128
2020-01-28,14:09,2:09 PM,317.105,317.08,317.08,306,97026.63,3,317.2,317.06,317.12,42304,13415452.3,184,317.08,317.105,317.068,317.136,0.014214613800074079,0.014589198873816234,aapl,20200128
2020-01-28,14:10,2:10 PM,317.18,317.15,317.162,360,114178.2,4,317.3,317.115,317.219,56471,17913671.9804,289,317.15,317.18,317.138,317.25,0.014476899653270746,0.014905938059892475,aapl,20200128
2020-01-28,14:11,2:11 PM,317.26,317.2,317.221,115,36480.375,4,317.29,317.179,317.236,38502,12214218.3657,181,317.26,317.22,317.25,317.211,0.014665617523253814,0.014960327617097478,aapl,20200128
2020-01-28,14:12,2:12 PM,317.38,317.27,317.278,176,55841.01,3,317.46,317.204,317.352,56996,18087810.8611,253,317.27,317.38,317.21,317.43,0.014847938177305222,0.015331456360378722,aapl,20200128
2020-01-28,14:13,2:13 PM,317.46,317.39,317.437,612,194271.15,9,317.48,317.34,317.411,48294,15329074.6048,208,317.43,317.46,317.435,317.46,0.015356516843869508,0.015520220117737392,aapl,20200128
2020-01-28,14:14,2:14 PM,317.48,317.435,317.459,2583,819997.105,12,317.49,317.39,317.454,69661,22114145.3727,353,317.455,317.435,317.47,317.42,0.015426886219117373,0.015657793703608924,aapl,20200128
2020-01-28,14:15,2:15 PM,317.355,317.305,317.33,300,95199.0,3,317.47,317.26,317.365,50484,16021877.2555,245,317.355,317.305,317.44,317.265,0.015014265791527398,0.015373048374712078,aapl,20200128
2020-01-28,14:16,2:16 PM,317.3,317.29,317.297,600,190378.0,4,317.38,317.21,317.277,41141,13053082.2532,247,317.29,317.3,317.27,317.38,0.014908711728655693,0.015091502431533095,aapl,20200128
2020-01-28,14:17,2:17 PM,317.385,317.375,317.38,201,63793.385,3,317.47,317.33,317.397,27309,8667810.384,135,317.385,317.375,317.38,317.435,0.015174196189818098,0.015475428717686169,aapl,20200128
2020-01-28,14:18,2:18 PM,317.57,317.505,317.528,1713,543925.905,15,317.6,317.415,317.531,71050,22560616.3564,259,317.53,317.555,317.435,317.525,0.01564759016875854,0.015904146403890464,aapl,20200128
2020-01-28,14:19,2:19 PM,317.57,317.49,317.534,702,222909.03,7,317.58,317.45,317.521,62304,19782853.187,282,317.53,317.49,317.537,317.505,0.015666781816553333,0.015872152546711073,aapl,20200128
2020-01-28,14:20,2:20 PM,317.525,317.52,317.52,502,159395.05,6,317.55,317.45,317.517,25243,8015095.7272,121,317.525,317.52,317.507,317.54,0.015622001305031913,0.015859355003839243,aapl,20200128
2020-01-28,14:21,2:21 PM,317.59,317.51,317.529,805,255610.95,9,317.67,317.5,317.576,39023,12392774.5061,199,317.57,317.51,317.555,317.5,0.01565078877672428,0.016048118761197914,aapl,20200128
2020-01-28,14:22,2:22 PM,317.53,317.46,317.514,1628,516913.635,10,317.54,317.43,317.479,49803,15811423.2896,205,317.525,317.52,317.51,317.46,0.015602809657237125,0.015737778346557405,aapl,20200128
2020-01-28,14:23,2:23 PM,317.635,317.46,317.546,2834,899926.34,18,317.668,317.45,317.561,63410,20136542.4401,271,317.505,317.47,317.45,317.51,0.015705165112143094,0.016000127975428644,aapl,20200128
2020-01-28,14:24,2:24 PM,317.475,317.43,317.457,119,37777.35,4,317.52,317.43,317.472,36564,11608053.9783,179,317.43,317.475,317.499,317.48,0.015420489003185715,0.015715382646531793,aapl,20200128
2020-01-28,14:25,2:25 PM,317.455,317.39,317.429,400,126971.5,4,317.51,317.338,317.412,39316,12479359.797,182,317.455,317.39,317.485,317.37,0.01533092798014288,0.015523419503455258,aapl,20200128
2020-01-28,14:26,2:26 PM,317.385,317.35,317.369,504,159954.04,7,317.42,317.32,317.361,30812,9778516.4738,155,317.385,317.365,317.39,317.33,0.015139011502194257,0.015360250831840247,aapl,20200128
2020-01-28,14:27,2:27 PM,317.335,317.305,317.322,1073,340486.765,8,317.37,317.212,317.287,45502,14437199.4359,204,317.335,317.305,317.351,317.258,0.014988676927800952,0.015123496288712488,aapl,20200128
2020-01-28,14:28,2:28 PM,317.29,317.255,317.269,1727,547922.955,10,317.306,317.21,317.255,41700,13229517.7305,222,317.26,317.255,317.25,317.27,0.014819150705612856,0.015021115945738397,aapl,20200128
2020-01-28,14:29,2:29 PM,317.225,317.225,317.225,1,317.225,1,317.33,317.06,317.207,53276,16899515.3985,224,317.225,317.225,317.29,317.12,0.014678411955117128,0.014867545431277168,aapl,20200128
2020-01-28,14:30,2:30 PM,317.17,317.1,317.108,202,64055.84,3,317.21,317.02,317.106,44204,14017355.9384,221,317.115,317.17,317.117,317.17,0.014304174823116914,0.014544407473765012,aapl,20200128
2020-01-28,14:31,2:31 PM,317.18,317.18,317.18,100,31718.0,1,317.3,317.16,317.241,49350,15655854.6702,223,317.18,317.18,317.16,317.267,0.014534474596655479,0.014976324545687173,aapl,20200128
2020-01-28,14:32,2:32 PM,317.35,317.22,317.266,510,161805.5,4,317.4,317.18,317.299,50845,16133061.3633,246,317.22,317.35,317.265,317.32,0.014809554881715462,0.015161888917327795,aapl,20200128
2020-01-28,14:33,2:33 PM,317.33,317.305,317.317,200,63463.5,2,317.37,317.213,317.295,26666,8460993.8109,143,317.305,317.33,317.33,317.37,0.0149726838879719,0.015149091374456148,aapl,20200128
2020-01-28,14:34,2:34 PM,317.37,317.35,317.367,301,95527.35,4,317.387,317.34,317.363,26486,8405687.514,146,317.37,317.35,317.377,317.36,0.0151326142862626,0.015366649603276163,aapl,20200128
2020-01-28,14:35,2:35 PM,317.41,317.35,317.377,955,303095.35,10,317.5,317.313,317.396,59220,18796178.3048,327,317.35,317.39,317.35,317.41,0.015164600365920704,0.015472229331968302,aapl,20200128
2020-01-28,14:36,2:36 PM,317.52,317.45,317.47,429,136194.74,7,317.57,317.393,317.484,57975,18406134.183,235,317.52,317.47,317.416,317.485,0.015462070906741395,0.0157537752751471,aapl,20200128
2020-01-28,14:37,2:37 PM,317.485,317.46,317.468,300,95240.5,2,317.533,317.44,317.484,27318,8673026.4489,118,317.46,317.485,317.48,317.45,0.015455673690809737,0.0157537752751471,aapl,20200128
2020-01-28,14:38,2:38 PM,,,,0,0.0,0,317.52,317.42,317.462,30871,9800385.5581,144,,,317.473,317.471,,0.015683388789352402,aapl,20200128
2020-01-28,14:39,2:39 PM,317.43,317.425,317.428,554,175855.22,4,317.49,317.37,317.419,40957,13000540.6967,209,317.425,317.43,317.49,317.39,0.015327729372177142,0.015545815203480869,aapl,20200128
2020-01-28,14:40,2:40 PM,317.455,317.455,317.455,100,31745.5,2,317.51,317.38,317.455,34195,10855373.2193,167,317.455,317.455,317.38,317.5,0.015414091787254058,0.01566099308932679,aapl,20200128
2020-01-28,14:41,2:41 PM,317.535,317.47,317.502,205,65087.9,4,317.56,317.41,317.489,41065,13037688.0712,188,317.535,317.48,317.526,317.41,0.015564426361647364,0.0157697722037368,aapl,20200128
2020-01-28,14:42,2:42 PM,317.395,317.395,317.395,100,31739.5,1,317.46,317.373,317.417,22362,7098083.6965,105,317.395,317.395,317.44,317.413,0.015222175309305254,0.015539416432044954,aapl,20200128
2020-01-28,14:43,2:43 PM,317.375,317.3,317.304,408,129459.965,4,317.41,317.28,317.338,22391,7105511.1336,125,317.375,317.3,317.407,317.28,0.014931101984416219,0.01528666496032768,aapl,20200128
2020-01-28,14:44,2:44 PM,317.43,317.295,317.314,412,130733.36,5,317.43,317.28,317.344,23820,7559144.6344,135,317.33,317.43,317.3,317.43,0.014963088064074506,0.015305861274635244,aapl,20200128
2020-01-28,14:45,2:45 PM,317.44,317.43,317.437,600,190462.0,2,317.48,317.37,317.433,30188,9582672.7777,120,317.44,317.43,317.42,317.438,0.015356516843869508,0.01559060660353209,aapl,20200128
2020-01-28,14:46,2:46 PM,317.46,317.46,317.46,200,63492.0,2,317.55,317.39,317.468,44852,14239087.9692,187,317.46,317.46,317.43,317.46,0.01543008482708311,0.015702585103660148,aapl,20200128
2020-01-28,14:47,2:47 PM,317.61,317.52,317.531,570,180992.43,3,317.646,317.44,317.575,77791,24704470.6057,307,317.52,317.61,317.44,317.61,0.015657185992655937,0.016044919375479864,aapl,20200128
2020-01-28,14:48,2:48 PM,317.805,317.62,317.765,1834,582780.295,15,317.83,317.61,317.735,94727,30098126.5056,494,317.62,317.72,317.63,317.774,0.01640566025665618,0.016556821090350688,aapl,20200128
2020-01-28,14:49,2:49 PM,317.75,317.66,317.661,808,256669.79,4,317.82,317.66,317.732,44794,14232469.3113,198,317.75,317.66,317.76,317.72,0.01607300502821165,0.01654722293319691,aapl,20200128
2020-01-28,14:50,2:50 PM,317.81,317.78,317.8,107,34004.62,4,317.834,317.7,317.777,45349,14410858.7686,226,317.81,317.78,317.72,317.708,0.016517611535459727,0.016691195290504175,aapl,20200128
2020-01-28,14:51,2:51 PM,317.68,317.545,317.62,2782,883618.86,11,317.73,317.54,317.631,65311,20744792.6055,306,317.68,317.545,317.704,317.54,0.015941862101613313,0.01622408497568457,aapl,20200128
2020-01-28,14:52,2:52 PM,,,,0,0.0,0,317.64,317.53,317.606,45145,14338347.578,193,,,317.56,317.61,,0.01614410033273609,aapl,20200128
2020-01-28,14:53,2:53 PM,317.63,317.56,317.576,502,159423.22,6,317.63,317.53,317.585,38730,12300069.2377,201,317.61,317.56,317.615,317.602,0.015801123351117587,0.016076913232659258,aapl,20200128
2020-01-28,14:54,2:54 PM,317.66,317.645,317.653,500,158826.365,5,317.7,317.58,317.649,35521,11283209.7104,173,317.66,317.645,317.603,317.679,0.0160474161644852,0.016281673918607624,aapl,20200128
2020-01-28,14:55,2:55 PM,317.77,317.695,317.737,301,95638.77,4,317.83,317.686,317.777,54782,17408492.3359,218,317.695,317.77,317.69,317.8,0.01631609923361353,0.016691195290504175,aapl,20200128
2020-01-28,14:56,2:56 PM,,,,0,0.0,0,317.982,317.796,317.929,60433,19213385.0689,247,,,317.82,317.93,,0.017177501919631338,aapl,20200128
2020-01-28,14:57,2:57 PM,318.17,317.995,318.065,1750,556614.5,6,318.18,317.94,318.055,120787,38416953.7539,528,317.995,318.09,317.95,318.126,0.0173652426464002,0.017580624520092156,aapl,20200128
2020-01-28,14:58,2:58 PM,318.2,318.1,318.193,109,34683.0,4,318.28,318.043,318.173,94082,29934338.0731,368,318.12,318.2,318.13,318.115,0.017774664466024256,0.017958152034809317,aapl,20200128
2020-01-28,14:59,2:59 PM,318.29,318.19,318.259,2801,891442.705,6,318.37,318.14,318.253,92890,29562497.4649,428,318.205,318.29,318.14,318.32,0.01798577259176803,0.018214102892244635,aapl,20200128
2020-01-28,15:00,3 PM,318.375,318.245,318.266,5401,1718954.865,6,318.4,318.11,318.254,111288,35417840.7934,497,318.375,318.245,318.32,318.27,0.01800816284752874,0.018217302277962685,aapl,20200128
2020-01-28,15:01,3:01 PM,318.26,318.2,318.224,500,159112.0,4,318.3,318.12,318.231,53237,16941672.1476,218,318.26,318.2,318.283,318.19,0.017873821312964486,0.018143716406449937,aapl,20200128
2020-01-28,15:02,3:02 PM,318.275,318.17,318.241,1319,419760.51,17,318.29,318.12,318.218,33657,10710266.4159,177,318.18,318.24,318.183,318.2,0.0179281976483833,0.018102124392116763,aapl,20200128
2020-01-28,15:03,3:03 PM,318.23,318.11,318.195,1265,402517.315,9,318.26,318.1,318.176,56152,17866202.5807,312,318.205,318.11,318.207,318.14,0.017781061681955913,0.017967750191963096,aapl,20200128
2020-01-28,15:04,3:04 PM,318.265,318.08,318.186,3100,986375.5,18,318.265,318.06,318.17,71021,22596717.0912,403,318.08,318.145,318.14,318.17,0.017752274210263548,0.017948553877655534,aapl,20200128
2020-01-28,15:05,3:05 PM,318.18,318.07,318.126,985,313354.535,10,318.2,318.03,318.115,53136,16903373.0419,289,318.18,318.145,318.188,318.149,0.017560357732314742,0.017772587663168693,aapl,20200128
2020-01-28,15:06,3:06 PM,318.2,318.11,318.191,1006,320100.61,4,318.23,318.06,318.176,56265,17902164.0441,250,318.2,318.11,318.139,318.06,0.017768267250092597,0.017967750191963096,aapl,20200128
2020-01-28,15:07,3:07 PM,318.065,318.065,318.065,107,34032.955,1,318.2,318.05,318.135,57487,18288654.8954,246,318.065,318.065,318.05,318.07,0.0173652426464002,0.01783657537752748,aapl,20200128
2020-01-28,15:08,3:08 PM,318.085,317.96,318.015,1103,350770.75,9,318.11,317.93,318.015,84492,26869691.2686,359,318.085,318.02,318.09,318.011,0.017205312248109502,0.017452649091374405,aapl,20200128
2020-01-28,15:09,3:09 PM,317.995,317.92,317.955,902,286795.34,10,318.008,317.9,317.946,82489,26227065.0725,346,317.995,317.94,317.995,317.95,0.017013395770160696,0.017231891476836524,aapl,20200128
2020-01-28,15:10,3:10 PM,318.0,317.945,317.973,1396,443889.74,8,318.0,317.91,317.968,67953,21606910.8423,282,317.975,318.0,317.94,317.98,0.01707097071354543,0.017302277962631223,aapl,20200128
2020-01-28,15:11,3:11 PM,318.05,317.93,318.022,2379,756573.775,21,318.055,317.91,317.987,89346,28410894.5638,358,317.955,318.045,317.98,318.03,0.01722770250387021,0.017363066291272142,aapl,20200128
2020-01-28,15:12,3:12 PM,318.125,318.01,318.067,201,63931.53,3,318.178,318.0,318.125,60877,19366485.3821,246,318.01,318.125,318.02,318.135,0.017371639862331856,0.017804581520348087,aapl,20200128
2020-01-28,15:13,3:13 PM,318.155,318.12,318.129,11,3499.415,3,318.17,318.03,318.124,52020,16548821.2993,216,318.155,318.12,318.15,318.125,0.01756995355621232,0.017801382134630218,aapl,20200128
2020-01-28,15:14,3:14 PM,318.13,318.01,318.087,462,146956.365,10,318.15,317.99,318.07,49413,15716787.038,271,318.11,318.01,318.12,318.0,0.017435612021648065,0.017628615305861246,aapl,20200128
2020-01-28,15:15,3:15 PM,318.005,317.915,317.942,403,128130.515,5,318.05,317.91,317.984,53088,16881133.1621,241,317.93,318.005,318.015,317.99,0.0169718138666052,0.01735346813411818,aapl,20200128
2020-01-28,15:16,3:16 PM,317.975,317.72,317.888,707,224746.66,12,318.0,317.715,317.856,67565,21475945.6088,331,317.975,317.72,317.96,317.74,0.016799089036451186,0.016943946762221627,aapl,20200128
2020-01-28,15:17,3:17 PM,317.795,317.66,317.728,1011,321222.875,11,317.8,317.64,317.727,62127,19739403.7226,288,317.715,317.77,317.72,317.77,0.01628731176192116,0.01653122600460703,aapl,20200128
2020-01-28,15:18,3:18 PM,317.85,317.78,317.831,369,117279.72,6,317.88,317.73,317.799,54558,17338458.6013,284,317.82,317.78,317.79,317.765,0.016616768382399956,0.016761581776298873,aapl,20200128
2020-01-28,15:19,3:19 PM,317.765,317.755,317.76,200,63552.0,2,317.871,317.67,317.781,58336,18538073.4777,330,317.755,317.765,317.81,317.67,0.01638966721682713,0.016703992833376004,aapl,20200128
2020-01-28,15:20,3:20 PM,317.78,317.66,317.753,306,97232.58,6,317.837,317.64,317.724,57379,18230671.3761,304,317.7,317.775,317.66,317.83,0.01636727696106642,0.016521627847453247,aapl,20200128
2020-01-28,15:21,3:21 PM,317.87,317.77,317.797,280,88983.24,6,317.94,317.753,317.85,43393,13792450.2753,252,317.82,317.87,317.83,317.93,0.01650801571156233,0.016924750447914066,aapl,20200128
2020-01-28,15:22,3:22 PM,318.005,317.95,317.975,687,218448.875,16,318.01,317.89,317.972,76144,24211669.8759,394,317.96,317.98,317.93,317.98,0.017077367929477085,0.01731507550550287,aapl,20200128
2020-01-28,15:23,3:23 PM,318.17,318.0,318.06,1320,419839.14,15,318.18,317.97,318.062,98929,31465545.6013,483,318.0,318.17,317.99,318.17,0.017349249606571148,0.017603020220117768,aapl,20200128
2020-01-28,15:24,3:24 PM,318.07,318.05,318.07,500,159034.98,4,318.175,318.01,318.071,43354,13789670.9625,238,318.07,318.05,318.17,318.088,0.017381235686229252,0.017631814691579293,aapl,20200128
2020-01-28,15:25,3:25 PM,318.045,317.92,318.005,228,72505.15,10,318.09,317.91,317.993,49095,15611872.3066,258,318.045,318.03,318.09,318.01,0.017173326168451398,0.017382262605579707,aapl,20200128
2020-01-28,15:26,3:26 PM,317.98,317.93,317.947,150,47692.0,2,318.02,317.79,317.909,58674,18653021.2543,342,317.98,317.93,317.995,317.925,0.01698780690643425,0.017113514205272556,aapl,20200128
2020-01-28,15:27,3:27 PM,317.95,317.95,317.95,8,2543.6,1,318.0,317.9,317.956,32659,10384121.1883,167,317.95,317.95,317.93,317.976,0.016997402730331644,0.017263885334015915,aapl,20200128
2020-01-28,15:28,3:28 PM,317.97,317.92,317.924,1000,317923.725,4,317.99,317.9,317.938,34807,11066467.9061,161,317.92,317.92,317.974,317.933,0.016914238923220467,0.017206296391092866,aapl,20200128
2020-01-28,15:29,3:29 PM,318.0,317.9,317.951,237,75354.5,9,318.03,317.87,317.953,57401,18250817.1218,290,317.9,318.0,317.935,318.0,0.017000601338297564,0.017254287176861952,aapl,20200128
2020-01-28,15:30,3:30 PM,318.005,317.88,317.897,205,65168.96,4,318.02,317.844,317.94,54587,17355392.2263,242,318.005,317.88,318.0,317.97,0.01682787650814355,0.01721269516252878,aapl,20200128
2020-01-28,15:31,3:31 PM,317.98,317.91,317.945,311,98880.75,6,318.0,317.9,317.959,52951,16836236.5842,303,317.98,317.95,317.978,317.965,0.016981409690502592,0.017273483491169698,aapl,20200128
2020-01-28,15:32,3:32 PM,318.035,318.0,318.024,334,106220.0,10,318.06,317.91,318.0,70867,22535746.8719,366,318.0,318.035,317.98,317.92,0.017234099719801867,0.017404658305605315,aapl,20200128
2020-01-28,15:33,3:33 PM,317.89,317.8,317.837,210,66745.86,5,317.93,317.73,317.813,70020,22253280.261,392,317.89,317.8,317.9,317.83,0.016635960030194744,0.016806373176350097,aapl,20200128
2020-01-28,15:34,3:34 PM,317.83,317.72,317.795,2109,670228.935,18,317.83,317.69,317.783,79481,25257746.8858,311,317.8,317.72,317.83,317.69,0.016501618495630675,0.016710391604811917,aapl,20200128
2020-01-28,15:35,3:35 PM,317.66,317.235,317.448,2651,841554.78,20,317.73,317.19,317.514,214457,68093075.6264,804,317.66,317.235,317.7,317.26,0.015391701531493348,0.01584975684668546,aapl,20200128
2020-01-28,15:36,3:36 PM,317.38,317.245,317.292,1200,380750.6,11,317.431,317.13,317.279,107205,34013897.0674,404,317.285,317.28,317.259,317.286,0.014892718688826459,0.015097901202969012,aapl,20200128
2020-01-28,15:37,3:37 PM,317.36,317.3,317.333,352,111701.16,5,317.44,317.27,317.352,90259,28643883.0457,403,317.33,317.36,317.325,317.4,0.015023861615424974,0.015331456360378722,aapl,20200128
2020-01-28,15:38,3:38 PM,317.39,317.245,317.312,317,100587.89,6,317.42,317.23,317.323,81355,25815782.5976,406,317.31,317.39,317.4,317.363,0.014956690848142848,0.01523867417455841,aapl,20200128
2020-01-28,15:39,3:39 PM,317.38,317.3,317.322,311,98687.22,6,317.391,317.27,317.345,75254,23881479.9206,403,317.38,317.335,317.365,317.31,0.014988676927800952,0.015309060660353292,aapl,20200128
2020-01-28,15:40,3:40 PM,317.49,317.34,317.481,208,66036.04,5,317.54,317.314,317.453,108841,34551910.4287,548,317.34,317.48,317.32,317.523,0.015497255594365237,0.015654594317890878,aapl,20200128
2020-01-28,15:41,3:41 PM,317.66,317.54,317.599,814,258525.57,11,317.68,317.52,317.601,121052,38446306.2123,560,317.54,317.595,317.52,317.617,0.015874691334331188,0.016128103404146395,aapl,20200128
2020-01-28,15:42,3:42 PM,317.53,317.42,317.482,3857,1224529.155,32,317.6,317.42,317.502,101494,32224523.956,560,317.53,317.515,317.6,317.49,0.015500454202331156,0.015811364218070154,aapl,20200128
2020-01-28,15:43,3:43 PM,317.645,317.48,317.586,1393,442397.33,19,317.645,317.45,317.558,75181,23874343.0921,400,317.48,317.6,317.49,317.58,0.015833109430775687,0.01599052981827486,aapl,20200128
2020-01-28,15:44,3:44 PM,317.63,317.56,317.579,229,72725.645,7,317.683,317.56,317.602,69870,22190863.7484,399,317.57,317.58,317.58,317.655,0.01581071917501498,0.01613130278986426,aapl,20200128
2020-01-28,15:45,3:45 PM,317.59,317.59,317.59,1,317.59,1,317.66,317.56,317.588,70242,22308006.8357,369,317.59,317.59,317.64,317.6,0.01584590386263882,0.01608651138981322,aapl,20200128
2020-01-28,15:46,3:46 PM,317.56,317.505,317.523,901,286088.19,9,317.61,317.5,317.538,96119,30521423.434,483,317.56,317.51,317.6,317.558,0.01563159712892949,0.015926542103916076,aapl,20200128
2020-01-28,15:47,3:47 PM,317.765,317.59,317.656,1171,371975.065,15,317.8,317.57,317.685,103503,32881385.6918,545,317.64,317.755,317.57,317.755,0.016057011988382597,0.016396851804453546,aapl,20200128
2020-01-28,15:48,3:48 PM,317.71,317.61,317.646,492,156282.03,7,317.755,317.6,317.658,93843,29809987.5072,423,317.71,317.69,317.755,317.69,0.016025025908724493,0.01631046839006915,aapl,20200128
2020-01-28,15:49,3:49 PM,317.73,317.64,317.666,501,159150.765,13,317.759,317.629,317.706,96467,30648111.3713,553,317.69,317.705,317.69,317.71,0.0160889980680407,0.016464038904530378,aapl,20200128
2020-01-28,15:50,3:50 PM,317.65,317.485,317.549,1202,381694.485,14,317.73,317.46,317.567,177625,56407932.3203,979,317.65,317.535,317.67,317.54,0.015714760936040486,0.016019324289736386,aapl,20200128
2020-01-28,15:51,3:51 PM,317.5,317.15,317.261,2426,769676.12,22,317.54,317.13,317.312,158784,50384064.1541,773,317.5,317.19,317.53,317.2,0.01479356184188641,0.015203480931661151,aapl,20200128
2020-01-28,15:52,3:52 PM,317.21,317.05,317.141,626,198530.025,12,317.28,316.91,317.123,253004,80233306.2354,1084,317.175,317.13,317.18,317.11,0.014409728885988802,0.014598797030970017,aapl,20200128
2020-01-28,15:53,3:53 PM,317.3,317.135,317.2,1558,494197.08,17,317.31,317.11,317.198,132053,41887008.5647,740,317.14,317.3,317.13,317.283,0.014598446755971687,0.014838750959815641,aapl,20200128
2020-01-28,15:54,3:54 PM,317.44,317.19,317.269,1129,358197.16,20,317.5,317.14,317.302,174127,55250895.6557,1043,317.23,317.44,317.3,317.473,0.014819150705612856,0.015171487074481758,aapl,20200128
2020-01-28,15:55,3:55 PM,317.705,317.4,317.577,2143,680566.545,27,317.71,317.36,317.564,225573,71633890.8934,1254,317.4,317.63,317.44,317.67,0.015804321959083323,0.016009726132582607,aapl,20200128
2020-01-28,15:56,3:56 PM,317.74,317.62,317.669,1531,486350.97,19,317.79,317.61,317.698,152729,48521751.3627,973,317.74,317.7,317.675,317.72,0.016098593891938094,0.01643844381878672,aapl,20200128
2020-01-28,15:57,3:57 PM,317.76,317.67,317.709,2070,657658.525,28,317.79,317.65,317.724,184616,58656999.6838,1200,317.72,317.72,317.73,317.74,0.01622653821057069,0.016521627847453247,aapl,20200128
2020-01-28,15:58,3:58 PM,317.9,317.66,317.719,11083,3521283.49,82,317.93,317.64,317.781,242254,76983708.948,1496,317.7,317.77,317.75,317.85,0.016258524290228796,0.016703992833376004,aapl,20200128
2020-01-28,15:59,3:59 PM,317.82,317.57,317.724,2636,837521.34,38,317.88,317.57,317.728,421110,133798379.5229,1953,317.705,317.57,317.8,317.76,0.016274517330057848,0.016534425390325076,aapl,20200128
