date,minute,label,high,low,average,volume,notional,numberOfTrades,marketHigh,marketLow,marketAverage,marketVolume,marketNotional,marketNumberOfTrades,open,close,marketOpen,marketClose,changeOverTime,marketChangeOverTime,tickerName,tickerDate
2019-12-11,09:30,09:30 AM,269.69,268.55,268.934,1324,356068.71,13,269.7,268.5,268.986,510657,137359483.1254,974,268.7,269.58,268.81,269.52,0.0,0.0,aapl,20191211
2019-12-11,09:31,09:31 AM,269.25,269.23,269.243,300,80773.0,3,269.49,269.14,269.305,90860,24469050.2838,449,269.25,269.25,269.49,269.26,0.0011489807908258867,0.0011859353274892256,aapl,20191211
2019-12-11,09:32,09:32 AM,269.24,269.2,269.218,1700,457670.05,16,269.26,269.17,269.215,59309,15966875.0234,285,269.23,269.2,269.25,269.234,0.0010560211799177188,0.0008513454231818199,aapl,20191211
2019-12-11,09:33,09:33 AM,269.265,269.255,269.264,165,44428.64,5,269.477,269.18,269.37,75248,20269587.1058,299,269.255,269.26,269.25,269.396,0.0012270668639888748,0.001427583591711147,aapl,20191211
2019-12-11,09:34,09:34 AM,269.505,269.25,269.473,2604,701706.98,16,269.51,269.228,269.437,77417,20859002.8361,316,269.37,269.25,269.37,269.24,0.0020042092111818783,0.0016766671871399324,aapl,20191211
2019-12-11,09:35,09:35 AM,269.31,269.11,269.191,1300,349948.5,13,269.32,269.04,269.194,94528,25446416.2361,394,269.31,269.22,269.26,269.15,0.0009556248001366437,0.0007732744455102751,aapl,20191211
2019-12-11,09:36,09:36 AM,269.21,269.13,269.18,1502,404307.77,16,269.22,269.12,269.175,23344,6283626.6379,141,269.155,269.13,269.2,269.13,0.0009147225713371343,0.0007026387990453829,aapl,20191211
2019-12-11,09:37,09:37 AM,269.14,268.77,268.88,2994,805027.07,33,269.14,268.74,268.89,75780,20376481.9066,312,269.13,268.77,269.13,268.77,-0.00020079275956193886,-0.00035689589792778674,aapl,20191211
2019-12-11,09:38,09:38 AM,268.995,268.725,268.769,4271,1147912.685,16,269.01,268.687,268.835,77342,20792218.404,360,268.73,268.885,268.75,268.833,-0.0006135334319945431,-0.0005613675061155989,aapl,20191211
2019-12-11,09:39,09:39 AM,269.06,268.935,268.991,700,188294.0,7,269.08,268.87,268.984,56703,15252202.714,272,268.935,269.06,268.87,269.05,0.00021194791287066538,-7.435331206864111e-06,aapl,20191211
2019-12-11,09:40,09:40 AM,268.975,268.82,268.902,700,188231.5,7,269.04,268.81,268.908,56592,15218048.4065,317,268.83,268.96,269.03,268.975,-0.00011898830196270871,-0.00028997791706622105,aapl,20191211
2019-12-11,09:41,09:41 AM,269.16,269.11,269.121,206,55438.96,3,269.25,268.96,269.109,87537,23556966.1775,381,269.11,269.16,268.975,269.205,0.0006953378895935619,0.0004572728692199239,aapl,20191211
2019-12-11,09:42,09:42 AM,269.49,269.265,269.344,1002,269882.96,7,269.5,269.2,269.385,88365,23804248.1721,377,269.265,269.48,269.202,269.478,0.0015245376188952238,0.0014833485757623109,aapl,20191211
2019-12-11,09:43,09:43 AM,269.42,269.42,269.42,100,26942.0,1,269.84,269.4,269.651,109542,29538068.8183,516,269.42,269.42,269.49,269.84,0.001807134836056393,0.0024722476262705882,aapl,20191211
2019-12-11,09:44,09:44 AM,270.01,269.88,269.956,613,165482.81,10,270.03,269.83,269.969,192174,51880967.6138,696,269.88,269.97,269.83,269.965,0.0038001888939293333,0.003654465288156276,aapl,20191211
2019-12-11,09:45,09:45 AM,270.18,269.915,269.98,2665,719497.47,22,270.19,269.91,270.018,125612,33917465.9079,649,270.015,270.03,269.97,270.0,0.003889430120401259,0.003836630902723496,aapl,20191211
2019-12-11,09:46,09:46 AM,270.035,269.955,269.972,761,205449.06,9,270.05,269.92,269.975,59647,16103205.1583,276,269.98,269.97,270.01,269.94,0.003859683044910476,0.0036767712817768685,aapl,20191211
2019-12-11,09:47,09:47 AM,270.065,269.9,270.014,908,245172.275,10,270.08,269.88,269.964,75537,20392301.7442,351,269.92,270.01,269.93,270.01,0.004015855191236452,0.0036358769601392217,aapl,20191211
2019-12-11,09:48,09:48 AM,270.14,270.015,270.078,202,54555.72,3,270.18,269.98,270.09,68740,18565964.9748,440,270.015,270.14,270.01,270.135,0.004253831795161447,0.004104302826169336,aapl,20191211
2019-12-11,09:49,09:49 AM,270.32,270.23,270.248,546,147555.58,5,270.37,270.144,270.26,136737,36954490.7445,581,270.23,270.24,270.144,270.29,0.004885957149337624,0.004736305978749827,aapl,20191211
2019-12-11,09:50,09:50 AM,270.255,270.16,270.176,718,193986.27,10,270.31,270.12,270.199,62256,16821526.5975,317,270.255,270.16,270.3,270.162,0.004618233469921846,0.004509528376941634,aapl,20191211
2019-12-11,09:51,09:51 AM,270.14,270.14,270.14,100,27014.0,1,270.2,270.04,270.122,66806,18045763.6047,273,270.14,270.14,270.144,270.19,0.004484371630213957,0.004223268125478739,aapl,20191211
2019-12-11,09:52,09:52 AM,270.33,269.945,270.078,1130,305188.49,14,270.38,269.934,270.116,108128,29207149.5098,599,270.085,270.33,270.194,270.35,0.004253831795161447,0.004200962131858147,aapl,20191211
2019-12-11,09:53,09:53 AM,270.46,270.41,270.438,414,111961.49,5,270.5,270.35,270.433,153618,41543355.785,567,270.41,270.46,270.36,270.47,0.0055924501922403344,0.005379462128140508,aapl,20191211
2019-12-11,09:54,09:54 AM,270.49,270.32,270.417,300,81125.0,3,270.5,270.31,270.385,80928,21881715.8447,334,270.49,270.32,270.46,270.42,0.005514364119077347,0.005201014179176615,aapl,20191211
2019-12-11,09:55,09:55 AM,270.67,270.49,270.551,700,189386.0,7,270.69,270.383,270.585,111553,30184620.9213,443,270.5,270.67,270.43,270.66,0.006012627633545635,0.005944547299859434,aapl,20191211
2019-12-11,09:56,09:56 AM,270.69,270.56,270.679,187,50616.9,4,270.74,270.54,270.652,88130,23852565.0757,425,270.69,270.59,270.68,270.62,0.006488580841395835,0.006193630895288219,aapl,20191211
2019-12-11,09:57,09:57 AM,270.66,270.56,270.61,200,54122.0,2,270.68,270.48,270.579,53704,14531193.5436,311,270.66,270.56,270.63,270.57,0.0062320123152892065,0.005922241306239052,aapl,20191211
2019-12-11,09:58,09:58 AM,270.62,270.445,270.58,13,3517.535,2,270.643,270.36,270.526,62039,16783166.8285,310,270.62,270.445,270.57,270.46,0.006120460782199194,0.005725205029258104,aapl,20191211
2019-12-11,09:59,09:59 AM,270.64,270.55,270.583,1011,273559.82,9,270.67,270.45,270.574,72979,19746213.2485,346,270.56,270.64,270.46,270.64,0.0061316159355083435,0.005903652978221998,aapl,20191211
2019-12-11,10:00,10 AM,270.78,270.655,270.673,1156,312898.405,10,270.81,270.628,270.724,104033,28164287.5583,390,270.68,270.655,270.64,270.69,0.006466270534777959,0.006461302818734059,aapl,20191211
2019-12-11,10:01,10:01 AM,270.83,270.73,270.756,1344,363896.48,9,270.9,270.687,270.803,111639,30232167.8905,602,270.75,270.75,270.687,270.779,0.006774896442993246,0.006754998401403818,aapl,20191211
2019-12-11,10:02,10:02 AM,270.825,270.765,270.794,3726,1008978.09,45,270.87,270.75,270.798,47790,12941463.5736,310,270.785,270.825,270.785,270.81,0.006916195051573831,0.006736410073386764,aapl,20191211
2019-12-11,10:03,10:03 AM,270.895,270.69,270.821,1771,479624.83,22,270.92,270.67,270.806,88965,24092242.3625,412,270.825,270.69,270.811,270.712,0.007016591431354906,0.006766151398214008,aapl,20191211
2019-12-11,10:04,10:04 AM,270.835,270.67,270.718,1303,352745.115,11,270.86,270.66,270.727,61721,16709560.7064,315,270.7,270.72,270.71,270.715,0.006633597834412874,0.0064724558155442495,aapl,20191211
2019-12-11,10:05,10:05 AM,270.845,270.71,270.813,826,223691.84,10,270.86,270.68,270.769,41992,11370146.9176,196,270.775,270.71,270.72,270.694,0.006986844355864123,0.006628597770887762,aapl,20191211
2019-12-11,10:06,10:06 AM,270.66,270.535,270.6,804,217562.195,9,270.69,270.52,270.607,55686,15069006.831,260,270.65,270.535,270.676,270.53,0.00619482847092594,0.006026335943134727,aapl,20191211
2019-12-11,10:07,10:07 AM,270.6,270.455,270.549,814,220226.61,11,270.64,270.44,270.526,82950,22440128.6136,396,270.505,270.6,270.52,270.578,0.006005190864672939,0.005725205029258104,aapl,20191211
2019-12-11,10:08,10:08 AM,270.6,270.525,270.556,1100,297611.5,10,270.6,270.48,270.544,45272,12248086.8974,275,270.53,270.6,270.56,270.6,0.006031219555727268,0.005792123010119459,aapl,20191211
2019-12-11,10:09,10:09 AM,270.715,270.54,270.682,749,202740.55,10,270.72,270.53,270.646,62474,16908344.9947,246,270.655,270.54,270.605,270.56,0.006499735994704985,0.006171324901667838,aapl,20191211
2019-12-11,10:10,10:10 AM,270.77,270.66,270.728,300,81218.5,3,270.799,270.55,270.712,54625,14787641.8998,279,270.66,270.77,270.56,270.78,0.00667078167877614,0.006416690831493085,aapl,20191211
2019-12-11,10:11,10:11 AM,271.015,270.82,270.961,1244,337076.1,10,271.07,270.79,270.971,226499,61374605.46,877,270.82,271.0,270.79,271.04,0.00753716525244107,0.007379566222777445,aapl,20191211
2019-12-11,10:12,10:12 AM,271.04,270.985,270.994,132,35771.19,5,271.07,270.83,270.999,111408,30191462.9972,575,271.04,270.985,271.04,270.85,0.007659871938840021,0.00748366085967312,aapl,20191211
2019-12-11,10:13,10:13 AM,270.76,270.61,270.664,316,85529.91,6,270.88,270.56,270.687,100064,27085985.0146,318,270.74,270.61,270.845,270.59,0.006432805074850934,0.006323749191407812,aapl,20191211
2019-12-11,10:14,10:14 AM,270.61,270.455,270.573,661,178848.585,9,270.678,270.45,270.526,110918,30006244.3491,341,270.61,270.5,270.582,270.5,0.0060944320911448645,0.005725205029258104,aapl,20191211
2019-12-11,10:15,10:15 AM,270.635,270.535,270.578,1142,308999.71,14,270.65,270.49,270.576,49273,13332101.3011,240,270.555,270.63,270.5,270.6,0.006113024013326498,0.005911088309428862,aapl,20191211
2019-12-11,10:16,10:16 AM,270.595,270.595,270.595,36,9741.42,1,270.69,270.57,270.627,36201,9796960.3244,191,270.595,270.595,270.61,270.67,0.006176236548744306,0.006100689255202946,aapl,20191211
2019-12-11,10:17,10:17 AM,270.51,270.48,270.497,7,1893.48,2,270.69,270.44,270.557,50030,13535981.9045,213,270.51,270.48,270.679,270.444,0.005811834873983907,0.00584045266296397,aapl,20191211
2019-12-11,10:18,10:18 AM,270.51,270.44,270.473,203,54906.0,4,270.54,270.43,270.475,43795,11845465.3265,148,270.44,270.51,270.438,270.495,0.005722593647511981,0.0055356040834840204,aapl,20191211
2019-12-11,10:19,10:19 AM,270.505,270.43,270.476,302,81683.86,4,270.51,270.388,270.458,35574,9621271.7591,186,270.46,270.465,270.49,270.49,0.005733748800820919,0.005472403768225993,aapl,20191211
2019-12-11,10:20,10:20 AM,270.55,270.46,270.51,410,110908.9,4,270.59,270.46,270.508,35955,9726112.503,226,270.49,270.46,270.49,270.492,0.005860173871656112,0.005658287048396539,aapl,20191211
2019-12-11,10:21,10:21 AM,270.55,270.55,270.55,48,12986.4,1,270.56,270.46,270.516,21086,5704101.0568,109,270.55,270.55,270.51,270.46,0.006008909249109393,0.0056880283732239955,aapl,20191211
2019-12-11,10:22,10:22 AM,270.4,270.325,270.364,126,34065.825,3,270.46,270.24,270.332,49997,13515785.3312,269,270.4,270.355,270.46,270.25,0.005317289743951861,0.005003977902195667,aapl,20191211
2019-12-11,10:23,10:23 AM,270.36,270.245,270.329,1337,361429.55,8,270.37,270.23,270.29,43071,11641647.4556,203,270.26,270.34,270.25,270.325,0.005187146288680426,0.004847835946852366,aapl,20191211
2019-12-11,10:24,10:24 AM,,,,0,0.0,0,270.46,270.29,270.369,44253,11964658.1917,169,,,270.312,270.42,,0.0051415315295221245,aapl,20191211
2019-12-11,10:25,10:25 AM,270.41,270.295,270.323,1600,432517.5,6,270.41,270.28,270.346,22126,5981675.5491,139,270.41,270.31,270.4,270.305,0.005164835982062339,0.005056025220643505,aapl,20191211
2019-12-11,10:26,10:26 AM,270.345,270.345,270.345,100,27034.5,1,270.405,270.3,270.352,30187,8161110.5674,184,270.345,270.345,270.314,270.405,0.00524664043966178,0.0050783312142638854,aapl,20191211
2019-12-11,10:27,10:27 AM,270.47,270.44,270.446,210,56793.7,5,270.48,270.394,270.451,41697,11277001.1572,220,270.45,270.44,270.41,270.406,0.0056221972677311174,0.005446380109002074,aapl,20191211
2019-12-11,10:28,10:28 AM,270.42,270.36,270.392,269,72735.48,3,270.44,270.32,270.374,23377,6320535.7124,121,270.405,270.36,270.406,270.32,0.005421404508169178,0.00516011985753918,aapl,20191211
2019-12-11,10:29,10:29 AM,270.39,270.39,270.39,76,20549.64,1,270.424,270.26,270.339,26309,7112356.3154,145,270.39,270.39,270.33,270.424,0.005413967739296483,0.005030001561419585,aapl,20191211
2019-12-11,10:30,10:30 AM,270.34,270.31,270.31,101,27301.34,2,270.45,270.28,270.365,20251,5475159.6617,133,270.34,270.31,270.41,270.43,0.0051164969843901335,0.005126660867108396,aapl,20191211
2019-12-11,10:31,10:31 AM,270.34,270.28,270.289,1210,327049.9,7,270.44,270.23,270.314,31701,8569217.8626,197,270.34,270.28,270.43,270.286,0.005038410911227146,0.004937059921334312,aapl,20191211
2019-12-11,10:32,10:32 AM,270.34,270.26,270.292,600,162175.0,6,270.389,270.22,270.291,23253,6285071.7516,177,270.34,270.27,270.29,270.386,0.005049566064536084,0.004851553612455693,aapl,20191211
2019-12-11,10:33,10:33 AM,270.27,270.27,270.27,100,27027.0,1,270.38,270.24,270.301,17812,4814604.0024,111,270.27,270.27,270.38,270.243,0.004967761606936853,0.0048887302684898016,aapl,20191211
2019-12-11,10:34,10:34 AM,,,,0,0.0,0,270.27,270.13,270.195,38266,10339292.8059,132,,,270.25,270.16,,0.004494657714527906,aapl,20191211
2019-12-11,10:35,10:35 AM,270.26,270.165,270.192,594,160493.89,8,270.28,270.15,270.22,41054,11093622.5462,245,270.165,270.22,270.169,270.265,0.0046777276209032,0.00458759935461339,aapl,20191211
2019-12-11,10:36,10:36 AM,270.175,270.175,270.175,4,1080.7,1,270.27,270.17,270.216,19553,5283535.8132,128,270.175,270.175,270.26,270.21,0.004614515085485603,0.004572728692199662,aapl,20191211
2019-12-11,10:37,10:37 AM,270.2,270.18,270.181,104,28098.8,3,270.22,270.13,270.175,24445,6604425.615,170,270.18,270.2,270.21,270.21,0.00463682539210348,0.004420304402459687,aapl,20191211
2019-12-11,10:38,10:38 AM,270.245,270.2,270.234,10,2702.34,3,270.3,270.13,270.213,30744,8307429.7157,185,270.2,270.245,270.19,270.3,0.004833899767228964,0.004561575695389472,aapl,20191211
2019-12-11,10:39,10:39 AM,270.18,270.115,270.169,206,55654.885,5,270.301,270.05,270.176,49552,13387750.7213,248,270.18,270.155,270.301,270.14,0.004592204778867516,0.004424022068063013,aapl,20191211
2019-12-11,10:40,10:40 AM,270.25,270.155,270.187,303,81866.705,3,270.25,270.13,270.202,23765,6421357.3776,148,270.155,270.235,270.15,270.215,0.004659135698721567,0.004520681373751824,aapl,20191211
2019-12-11,10:41,10:41 AM,270.225,270.17,270.217,996,269136.545,9,270.23,270.11,270.192,28165,7609972.3537,183,270.21,270.17,270.2,270.119,0.004770687231811368,0.004483504717717715,aapl,20191211
2019-12-11,10:42,10:42 AM,270.16,270.05,270.082,66,17825.41,5,270.248,270.048,270.104,47629,12864808.5657,264,270.05,270.16,270.11,270.2,0.004268705332906838,0.004156350144617174,aapl,20191211
2019-12-11,10:43,10:43 AM,270.37,270.18,270.266,749,202429.34,10,270.38,270.158,270.298,70842,19148486.1554,378,270.18,270.34,270.18,270.345,0.004952888069191673,0.004877577271679611,aapl,20191211
2019-12-11,10:44,10:44 AM,270.305,270.03,270.128,302,81578.635,6,270.32,270.03,270.14,42842,11573348.9972,219,270.305,270.03,270.32,270.06,0.004439751016977994,0.0042901861063400935,aapl,20191211
2019-12-11,10:45,10:45 AM,270.07,269.975,270.035,1004,271114.98,12,270.118,269.96,270.024,73449,19832980.2865,369,270.055,269.995,270.07,270.0,0.00409394126439944,0.0038589368963440882,aapl,20191211
2019-12-11,10:46,10:46 AM,269.995,269.975,269.988,300,80996.5,2,270.01,269.95,269.986,34127,9213819.3597,175,269.995,269.975,270.01,269.956,0.003919177195891831,0.0037176656034143044,aapl,20191211
2019-12-11,10:47,10:47 AM,270.015,269.95,269.983,500,134991.5,5,270.02,269.92,269.968,40923,11047891.9691,234,269.965,269.95,269.954,269.93,0.0039005852737101967,0.00365074762255295,aapl,20191211
2019-12-11,10:48,10:48 AM,269.9,269.89,269.899,110,29688.9,2,269.95,269.87,269.898,43143,11644202.3386,206,269.9,269.89,269.93,269.89,0.003588240981058456,0.003390511030313974,aapl,20191211
2019-12-11,10:49,10:49 AM,269.96,269.88,269.921,400,107968.5,4,270.0,269.82,269.924,45322,12233490.2363,208,269.91,269.88,269.9,269.82,0.0036700454386576864,0.0034871703360025734,aapl,20191211
2019-12-11,10:50,10:50 AM,269.84,269.785,269.813,802,216390.12,9,269.85,269.74,269.802,52420,14143028.6475,295,269.815,269.835,269.82,269.819,0.00326845991953402,0.003033615132386187,aapl,20191211
2019-12-11,10:51,10:51 AM,269.845,269.82,269.845,101,27254.32,2,269.85,269.79,269.815,31272,8437649.3049,183,269.845,269.82,269.82,269.79,0.003387448221496729,0.003081944785230487,aapl,20191211
2019-12-11,10:52,10:52 AM,269.8,269.705,269.755,801,216073.725,8,269.81,269.65,269.73,49431,13333014.4956,252,269.8,269.725,269.8,269.69,0.0030527936222269013,0.002765943208940347,aapl,20191211
2019-12-11,10:53,10:53 AM,269.66,269.485,269.547,800,215637.5,8,269.69,269.475,269.571,70270,18942771.7731,366,269.66,269.51,269.681,269.48,0.0022793696594703514,0.002174834377997503,aapl,20191211
2019-12-11,10:54,10:54 AM,269.545,269.42,269.503,1411,380268.29,17,269.55,269.42,269.485,104944,28280838.9421,477,269.5,269.43,269.472,269.46,0.00211576074427168,0.0018551151361038258,aapl,20191211
2019-12-11,10:55,10:55 AM,269.485,269.47,269.485,205,55244.35,3,269.53,269.44,269.484,28347,7639072.6199,168,269.47,269.485,269.466,269.51,0.002048829824417841,0.001851397470500288,aapl,20191211
2019-12-11,10:56,10:56 AM,269.6,269.52,269.54,400,107816.0,4,269.606,269.46,269.545,49480,13337074.8369,212,269.52,269.6,269.5,269.592,0.0022533409684160222,0.0020781750723086923,aapl,20191211
2019-12-11,10:57,10:57 AM,269.65,269.6,269.629,425,114592.5,4,269.67,269.6,269.629,55739,15028843.088,261,269.6,269.625,269.6,269.63,0.002584277183249396,0.002390458982995506,aapl,20191211
2019-12-11,10:58,10:58 AM,269.635,269.6,269.623,314,84661.68,3,269.67,269.572,269.622,45566,12285593.9366,166,269.635,269.6,269.635,269.578,0.002561966876631309,0.002364435323771587,aapl,20191211
2019-12-11,10:59,10:59 AM,269.47,269.345,269.415,301,81093.89,4,269.59,269.34,269.449,69655,18768496.4504,320,269.47,269.43,269.57,269.46,0.0017885429138747592,0.0017212791743809058,aapl,20191211
2019-12-11,11:00,11 AM,269.58,269.48,269.481,503,135548.74,6,269.651,269.46,269.567,44362,11958521.4778,251,269.48,269.58,269.46,269.501,0.0020339562866724496,0.002159963715583775,aapl,20191211
2019-12-11,11:01,11:01 AM,269.37,269.28,269.321,201,54133.52,4,269.51,269.26,269.363,67151,18088013.2252,288,269.37,269.32,269.51,269.325,0.0014390147768597516,0.0014015599324872282,aapl,20191211
2019-12-11,11:02,11:02 AM,269.17,269.13,269.147,300,80744.0,3,269.353,269.085,269.195,61265,16492252.899,313,269.17,269.14,269.35,269.2,0.0007920158849381835,0.0007769921111136014,aapl,20191211
2019-12-11,11:03,11:03 AM,269.33,269.19,269.262,600,161557.5,6,269.4,269.164,269.299,57056,15365149.6827,244,269.19,269.33,269.189,269.33,0.001219630095116179,0.0011636293338686333,aapl,20191211
2019-12-11,11:04,11:04 AM,269.42,269.35,269.357,214,57642.39,4,269.47,269.33,269.406,47661,12840177.4324,206,269.35,269.42,269.33,269.43,0.0015728766165676402,0.001561419553434067,aapl,20191211
2019-12-11,11:05,11:05 AM,269.53,269.35,269.47,608,163837.63,8,269.6,269.34,269.443,51121,13774213.1767,218,269.35,269.53,269.411,269.6,0.00199305405787294,0.0016989731807603133,aapl,20191211
2019-12-11,11:06,11:06 AM,269.605,269.555,269.58,103,27766.735,4,269.62,269.45,269.558,36428,9819460.1387,145,269.605,269.555,269.61,269.45,0.002402076345869091,0.0021265047251529923,aapl,20191211
2019-12-11,11:07,11:07 AM,269.47,269.39,269.457,721,194278.54,11,269.53,269.36,269.442,30895,8324395.6546,141,269.39,269.47,269.44,269.51,0.0019447150602005237,0.001695255515156987,aapl,20191211
2019-12-11,11:08,11:08 AM,,,,0,0.0,0,269.607,269.52,269.567,22725,6125912.883,96,,,269.527,269.568,,0.002159963715583775,aapl,20191211
2019-12-11,11:09,11:09 AM,269.555,269.55,269.552,9,2425.97,3,269.575,269.48,269.534,26345,7100861.8116,108,269.55,269.55,269.56,269.519,0.002297961581651985,0.0020372807506710455,aapl,20191211
2019-12-11,11:10,11:10 AM,269.67,269.62,269.637,309,83317.76,4,269.73,269.519,269.621,53173,14336577.7663,227,269.62,269.67,269.53,269.7,0.0026140242587399678,0.002360717658168049,aapl,20191211
2019-12-11,11:11,11:11 AM,269.78,269.67,269.75,218,58805.565,9,269.81,269.66,269.751,57572,15530128.6731,204,269.72,269.78,269.72,269.78,0.0030342017000452677,0.002844014186611892,aapl,20191211
2019-12-11,11:12,11:12 AM,269.835,269.74,269.793,9,2428.135,2,269.89,269.73,269.802,34303,9255016.0825,136,269.74,269.835,269.78,269.85,0.003194092230807486,0.003033615132386187,aapl,20191211
2019-12-11,11:13,11:13 AM,269.87,269.82,269.831,525,141661.375,6,269.87,269.81,269.834,17241,4652209.741,95,269.835,269.825,269.85,269.84,0.00333539083938807,0.003152580431695379,aapl,20191211
2019-12-11,11:14,11:14 AM,269.82,269.79,269.819,103,27791.37,2,269.87,269.745,269.806,30217,8152723.9923,169,269.82,269.79,269.82,269.749,0.003290770226152107,0.003048485794799704,aapl,20191211
2019-12-11,11:15,11:15 AM,269.895,269.85,269.877,202,54515.2,3,269.97,269.75,269.893,42522,11476377.2269,207,269.85,269.895,269.76,269.965,0.0035064365234592264,0.003371922702296708,aapl,20191211
2019-12-11,11:16,11:16 AM,269.985,269.89,269.916,1004,270995.72,8,270.03,269.88,269.945,41188,11118507.2111,206,269.9,269.985,269.96,270.0,0.0036514535164760527,0.0035652413136743294,aapl,20191211
2019-12-11,11:17,11:17 AM,270.09,270.0,270.05,428,115581.25,6,270.12,269.97,270.046,46019,12427266.9705,208,270.02,270.01,270.03,270.01,0.004149717030944341,0.003940725539619171,aapl,20191211
2019-12-11,11:18,11:18 AM,270.015,269.98,270.01,122,32941.28,4,270.02,269.956,269.99,21498,5804240.1221,82,269.98,270.015,270.0,269.965,0.0040009816534910606,0.0037325362658280326,aapl,20191211
2019-12-11,11:19,11:19 AM,270.005,269.96,269.98,790,213284.45,7,270.015,269.936,269.974,23338,6300656.6806,111,269.975,270.005,269.972,269.976,0.003889430120401259,0.003673053616173331,aapl,20191211
2019-12-11,11:20,11:20 AM,270.065,270.05,270.057,210,56712.0,3,270.1,269.98,270.064,28180,7610414.2544,115,270.065,270.05,269.98,270.06,0.00417574572199867,0.004007643520480737,aapl,20191211
2019-12-11,11:21,11:21 AM,270.08,270.045,270.055,630,170134.5,4,270.09,270.04,270.066,28871,7797078.4861,141,270.045,270.06,270.05,270.05,0.004168308953125975,0.004015078851687389,aapl,20191211
2019-12-11,11:22,11:22 AM,270.18,270.04,270.116,400,108046.5,4,270.19,270.04,270.13,37233,10057743.1887,176,270.04,270.18,270.04,270.17,0.004395130403742031,0.004253009450305985,aapl,20191211
2019-12-11,11:23,11:23 AM,270.27,270.185,270.196,610,164819.7,6,270.3,270.17,270.242,35671,9639792.4454,160,270.185,270.19,270.18,270.247,0.004692601158648592,0.004669387997888473,aapl,20191211
2019-12-11,11:24,11:24 AM,270.245,270.155,270.192,600,162115.5,5,270.29,270.15,270.224,27800,7512221.0557,141,270.245,270.155,270.24,270.17,0.0046777276209032,0.004602470017026907,aapl,20191211
2019-12-11,11:25,11:25 AM,270.16,270.155,270.157,300,81047.0,2,270.2,270.148,270.168,26804,7241593.2744,92,270.155,270.16,270.155,270.17,0.004547584165631554,0.0043942807432357685,aapl,20191211
2019-12-11,11:26,11:26 AM,270.12,270.12,270.12,32,8643.84,1,270.17,270.119,270.14,19995,5401446.4834,94,270.12,270.12,270.16,270.12,0.004410003941487423,0.0042901861063400935,aapl,20191211
2019-12-11,11:27,11:27 AM,270.155,270.025,270.069,1303,351900.15,8,270.16,270.02,270.069,34283,9258765.8204,137,270.155,270.025,270.14,270.05,0.004220366335234633,0.004026231848497791,aapl,20191211
2019-12-11,11:28,11:28 AM,270.17,270.075,270.124,240,64829.8,3,270.19,270.06,270.147,35359,9552133.4726,142,270.075,270.17,270.06,270.147,0.004424877479232814,0.004316209765564012,aapl,20191211
2019-12-11,11:29,11:29 AM,,,,0,0.0,0,270.2,270.08,270.141,20842,5630287.436,125,,,270.141,270.15,,0.004293903771943631,aapl,20191211
2019-12-11,11:30,11:30 AM,270.245,270.19,270.203,1560,421516.1,5,270.26,270.14,270.2,36531,9870682.043,144,270.21,270.19,270.16,270.161,0.0047186298497027095,0.00451324604254496,aapl,20191211
2019-12-11,11:31,11:31 AM,270.17,270.17,270.17,200,54034.0,2,270.21,270.09,270.148,14116,3813404.552,84,270.17,270.17,270.17,270.21,0.00459592316330397,0.00431992743116755,aapl,20191211
2019-12-11,11:32,11:32 AM,270.24,270.17,270.213,329,88899.96,4,270.31,270.131,270.219,58196,15725664.2595,323,270.17,270.24,270.218,270.31,0.004755813694066188,0.004583881689009852,aapl,20191211
2019-12-11,11:33,11:33 AM,270.385,270.315,270.337,976,263849.225,11,270.41,270.31,270.353,50855,13748795.5819,191,270.315,270.35,270.32,270.333,0.005216893364170997,0.005082048879867423,aapl,20191211
2019-12-11,11:34,11:34 AM,270.37,270.37,270.37,100,27037.0,1,270.4,270.25,270.325,35822,9683596.5642,125,270.37,270.37,270.33,270.259,0.005339600050569948,0.004977954242971748,aapl,20191211
2019-12-11,11:35,11:35 AM,270.26,270.24,270.253,300,81076.0,3,270.299,270.16,270.21,31731,8574028.735,167,270.26,270.26,270.26,270.29,0.004904549071519257,0.00455042269857907,aapl,20191211
2019-12-11,11:36,11:36 AM,,,,0,0.0,0,270.35,270.19,270.265,32302,8730118.4419,101,,,270.29,270.253,,0.004754894306766882,aapl,20191211
2019-12-11,11:37,11:37 AM,270.23,270.23,270.23,100,27023.0,1,270.33,270.21,270.275,38285,10347482.2454,160,270.23,270.23,270.252,270.31,0.004819026229483785,0.004792070962800991,aapl,20191211
2019-12-11,11:38,11:38 AM,270.31,270.31,270.31,200,54062.0,2,270.343,270.285,270.313,19100,5162976.5946,75,270.31,270.31,270.31,270.285,0.0051164969843901335,0.004933342255730775,aapl,20191211
2019-12-11,11:39,11:39 AM,,,,0,0.0,0,270.31,270.23,270.277,13161,3557114.6704,89,,,270.28,270.253,,0.004799506294007855,aapl,20191211
2019-12-11,11:40,11:40 AM,270.27,270.27,270.27,1,270.27,1,270.31,270.231,270.287,20425,5520607.2007,93,270.27,270.27,270.25,270.288,0.004967761606936853,0.0048366829500419645,aapl,20191211
2019-12-11,11:41,11:41 AM,,,,0,0.0,0,270.293,270.21,270.245,16943,4578755.467,79,,,270.29,270.22,,0.004680540994698663,aapl,20191211
2019-12-11,11:42,11:42 AM,270.21,270.21,270.21,50,13510.5,1,270.21,270.11,270.156,19856,5364215.2174,102,270.21,270.21,270.21,270.11,0.004744658540757039,0.0043496687559947955,aapl,20191211
2019-12-11,11:43,11:43 AM,270.19,270.14,270.158,400,108063.0,4,270.22,270.114,270.166,28162,7608409.7478,143,270.14,270.19,270.114,270.22,0.004551302550068007,0.004386845412028904,aapl,20191211
2019-12-11,11:44,11:44 AM,,,,0,0.0,0,270.23,270.15,270.188,13194,3564867.1089,63,,,270.23,270.18,,0.004468634055303987,aapl,20191211
2019-12-11,11:45,11:45 AM,,,,0,0.0,0,270.186,270.15,270.167,7285,1968169.1138,38,,,270.16,270.16,,0.004390563077632231,aapl,20191211
2019-12-11,11:46,11:46 AM,270.165,270.16,270.164,125,33770.5,2,270.18,270.11,270.152,30725,8300419.6092,153,270.16,270.165,270.17,270.17,0.004573612856685883,0.004334798093581067,aapl,20191211
2019-12-11,11:47,11:47 AM,270.195,270.13,270.168,427,115361.82,5,270.24,270.12,270.178,40625,10975985.0384,210,270.195,270.13,270.177,270.14,0.004588486394431274,0.004431457399269877,aapl,20191211
2019-12-11,11:48,11:48 AM,,,,0,0.0,0,270.14,270.112,270.127,6840,1847668.9104,47,,,270.13,270.112,,0.0042418564534957934,aapl,20191211
2019-12-11,11:49,11:49 AM,270.055,270.04,270.048,200,54009.5,2,270.137,270.02,270.079,27492,7425003.9705,156,270.04,270.055,270.13,270.07,0.004142280262071645,0.004063408504531901,aapl,20191211
2019-12-11,11:50,11:50 AM,270.11,270.07,270.109,103,27821.21,2,270.13,270.05,270.09,26737,7221394.4896,118,270.07,270.11,270.1,270.11,0.004369101712687702,0.004104302826169336,aapl,20191211
2019-12-11,11:51,11:51 AM,270.16,270.15,270.155,200,54031.0,2,270.17,270.12,270.149,22866,6177224.614,121,270.16,270.15,270.12,270.17,0.004540147396758858,0.004323645096770876,aapl,20191211
2019-12-11,11:52,11:52 AM,270.19,270.19,270.19,100,27019.0,1,270.218,270.133,270.179,10227,2763121.9338,59,270.19,270.19,270.14,270.196,0.004670290852030505,0.004435175064873204,aapl,20191211
2019-12-11,11:53,11:53 AM,270.22,270.185,270.193,1000,270192.83,6,270.25,270.16,270.202,14910,4028704.5347,94,270.195,270.19,270.194,270.197,0.004681446005339442,0.004520681373751824,aapl,20191211
2019-12-11,11:54,11:54 AM,270.195,270.1,270.148,1084,292840.88,9,270.21,270.1,270.146,21680,5856775.5268,134,270.195,270.13,270.193,270.15,0.0045141187057047396,0.004312492099960686,aapl,20191211
2019-12-11,11:55,11:55 AM,270.165,270.15,270.163,900,243147.0,7,270.18,270.11,270.137,8830,2385309.37,40,270.15,270.165,270.149,270.12,0.004569894472249641,0.004279033109529903,aapl,20191211
2019-12-11,11:56,11:56 AM,270.12,270.11,270.12,204,55104.44,3,270.16,270.08,270.115,21250,5739944.6696,103,270.12,270.11,270.137,270.12,0.004410003941487423,0.0041972444662548205,aapl,20191211
2019-12-11,11:57,11:57 AM,,,,0,0.0,0,270.16,270.07,270.112,10140,2738939.8794,74,,,270.11,270.14,,0.00418609146944463,aapl,20191211
2019-12-11,11:58,11:58 AM,,,,0,0.0,0,270.163,270.03,270.11,15662,4230458.8916,89,,,270.14,270.09,,0.004178656138237766,aapl,20191211
2019-12-11,11:59,11:59 AM,270.06,270.03,270.05,300,81015.0,4,270.099,270.02,270.044,31456,8494519.2038,150,270.06,270.03,270.06,270.06,0.004149717030944341,0.003933290208412307,aapl,20191211
2019-12-11,12:00,12 PM,270.15,270.12,270.121,103,27822.45,2,270.18,270.06,270.125,12087,3264998.9087,74,270.12,270.15,270.06,270.17,0.004413722325923665,0.004234421122288929,aapl,20191211
2019-12-11,12:01,12:01 PM,,,,0,0.0,0,270.202,270.145,270.18,17165,4637645.446,81,,,270.18,270.18,,0.004438892730476741,aapl,20191211
2019-12-11,12:02,12:02 PM,,,,0,0.0,0,270.179,270.14,270.155,7533,2035075.069,50,,,270.17,270.16,,0.004345951090391258,aapl,20191211
2019-12-11,12:03,12:03 PM,,,,0,0.0,0,270.2,270.145,270.168,13210,3568916.0087,67,,,270.158,270.195,,0.0043942807432357685,aapl,20191211
2019-12-11,12:04,12:04 PM,270.18,270.18,270.18,2,540.36,1,270.21,270.18,270.19,6672,1802705.97,42,270.18,270.18,270.19,270.21,0.0046331070076672375,0.004476069386510851,aapl,20191211
2019-12-11,12:05,12:05 PM,270.19,270.19,270.19,245,66196.55,2,270.24,270.16,270.204,10868,2936580.503,53,270.19,270.19,270.206,270.22,0.004670290852030505,0.004528116704958688,aapl,20191211
2019-12-11,12:06,12:06 PM,,,,0,0.0,0,270.24,270.19,270.217,10411,2813229.3172,53,,,270.204,270.21,,0.004576446357802988,aapl,20191211
2019-12-11,12:07,12:07 PM,270.2,270.12,270.143,380,102654.46,6,270.211,270.11,270.158,16749,4524876.8548,73,270.2,270.12,270.21,270.134,0.004495526783522895,0.00435710408720166,aapl,20191211
2019-12-11,12:08,12:08 PM,270.07,270.07,270.07,15,4051.05,1,270.14,270.08,270.103,14032,3790085.71,73,270.07,270.07,270.121,270.088,0.004224084719670875,0.0041526324790138475,aapl,20191211
2019-12-11,12:09,12:09 PM,,,,0,0.0,0,270.1,270.05,270.074,14568,3934432.8151,66,,,270.08,270.09,,0.0040448201765148455,aapl,20191211
2019-12-11,12:10,12:10 PM,,,,0,0.0,0,270.12,270.06,270.098,11293,3050211.1422,60,,,270.1,270.06,,0.004134044150996792,aapl,20191211
2019-12-11,12:11,12:11 PM,270.06,270.06,270.06,300,81018.0,3,270.08,270.02,270.04,23539,6356481.4973,113,270.06,270.06,270.06,270.08,0.004186900875307608,0.00391841954599879,aapl,20191211
2019-12-11,12:12,12:12 PM,270.05,270.02,270.04,300,81012.0,3,270.1,270.0,270.041,31140,8409063.3484,173,270.05,270.02,270.079,270.01,0.004112533186581073,0.003922137211602116,aapl,20191211
2019-12-11,12:13,12:13 PM,270.01,269.91,269.963,520,140381.0,7,270.03,269.89,269.962,58752,15860836.0341,228,270.01,269.95,270.02,269.95,0.0038262175849836625,0.0036284416289323576,aapl,20191211
2019-12-11,12:14,12:14 PM,269.95,269.93,269.945,275,74235.0,4,269.98,269.919,269.959,13721,3704104.569,53,269.95,269.93,269.964,269.93,0.003759286665129612,0.003617288632122167,aapl,20191211
2019-12-11,12:15,12:15 PM,270.03,270.03,270.03,5,1350.15,1,270.1,269.94,270.012,12255,3308991.6873,68,270.03,270.03,269.94,270.1,0.004075349342217595,0.003814324909103115,aapl,20191211
2019-12-11,12:16,12:16 PM,270.07,270.06,270.061,132,35648.03,3,270.08,269.99,270.05,16448,4441781.9877,100,270.06,270.07,270.08,270.06,0.00419061925974385,0.0039555962020328995,aapl,20191211
2019-12-11,12:17,12:17 PM,270.06,270.06,270.06,14,3780.84,1,270.08,270.025,270.062,9697,2618794.5946,56,270.06,270.06,270.06,270.061,0.004186900875307608,0.0040002081892738725,aapl,20191211
2019-12-11,12:18,12:18 PM,270.04,270.04,270.04,4,1080.16,1,270.07,270.0,270.035,10687,2885865.7248,77,270.04,270.04,270.05,270.055,0.004112533186581073,0.0038998312179817354,aapl,20191211
2019-12-11,12:19,12:19 PM,270.04,270.03,270.031,84,22682.61,2,270.11,270.016,270.066,22020,5946849.3227,106,270.03,270.04,270.052,270.05,0.004079067726654048,0.004015078851687389,aapl,20191211
2019-12-11,12:20,12:20 PM,269.98,269.98,269.98,100,26998.0,1,270.04,269.931,269.968,17614,4755224.9112,108,269.98,269.98,270.04,269.95,0.003889430120401259,0.00365074762255295,aapl,20191211
2019-12-11,12:21,12:21 PM,,,,0,0.0,0,269.965,269.925,269.945,8677,2342317.5608,44,,,269.95,269.93,,0.0035652413136743294,aapl,20191211
2019-12-11,12:22,12:22 PM,269.92,269.91,269.915,400,107966.0,4,269.93,269.87,269.906,18817,5078825.3093,89,269.91,269.92,269.924,269.88,0.0036477351320398105,0.003420252355141219,aapl,20191211
2019-12-11,12:23,12:23 PM,,,,0,0.0,0,269.95,269.86,269.896,9317,2514618.2503,63,,,269.89,269.919,,0.00338307569910711,aapl,20191211
2019-12-11,12:24,12:24 PM,269.94,269.94,269.94,4,1079.76,1,269.97,269.85,269.906,12430,3354936.058,59,269.94,269.94,269.95,269.866,0.003740694742947979,0.003420252355141219,aapl,20191211
2019-12-11,12:25,12:25 PM,,,,0,0.0,0,269.86,269.78,269.827,15198,4100825.8971,89,,,269.85,269.79,,0.0031265567724714604,aapl,20191211
2019-12-11,12:26,12:26 PM,269.81,269.795,269.798,124,33454.94,3,269.81,269.789,269.8,11410,3078420.7818,60,269.795,269.81,269.79,269.79,0.003212684152989119,0.003026179801179323,aapl,20191211
2019-12-11,12:27,12:27 PM,269.8,269.8,269.8,100,26980.0,1,269.81,269.7,269.771,25258,6813874.7496,135,269.8,269.8,269.81,269.71,0.003220120921861815,0.0029183674986803217,aapl,20191211
2019-12-11,12:28,12:28 PM,269.74,269.72,269.739,105,28322.6,2,269.76,269.676,269.738,20222,5454647.3829,112,269.72,269.74,269.717,269.69,0.002993299471245547,0.0027956845337675923,aapl,20191211
2019-12-11,12:29,12:29 PM,269.68,269.66,269.671,500,134835.5,5,269.71,269.62,269.665,23498,6336580.3389,131,269.665,269.675,269.699,269.64,0.002740449329575161,0.0025242949447184257,aapl,20191211
2019-12-11,12:30,12:30 PM,269.67,269.65,269.658,170,45841.9,2,269.67,269.61,269.642,11423,3080122.2942,61,269.65,269.67,269.635,269.66,0.002692110331902956,0.0024387886358398056,aapl,20191211
2019-12-11,12:31,12:31 PM,269.685,269.68,269.683,200,53936.5,2,269.7,269.62,269.66,24827,6694859.9624,90,269.685,269.68,269.65,269.697,0.0027850699428111237,0.0025057066167013713,aapl,20191211
2019-12-11,12:32,12:32 PM,269.765,269.76,269.762,1200,323714.0,6,269.83,269.7,269.755,23922,6453083.726,120,269.765,269.76,269.7,269.79,0.0030788223132812305,0.00285888484902562,aapl,20191211
2019-12-11,12:33,12:33 PM,269.805,269.805,269.805,100,26980.5,1,269.84,269.78,269.807,25088,6768912.69,138,269.805,269.805,269.81,269.79,0.0032387128440434488,0.003052203460403242,aapl,20191211
2019-12-11,12:34,12:34 PM,,,,0,0.0,0,269.89,269.79,269.849,12718,3431935.9936,77,,,269.8,269.867,,0.0032083454157465427,aapl,20191211
2019-12-11,12:35,12:35 PM,,,,0,0.0,0,269.87,269.82,269.844,7307,1971752.5774,33,,,269.87,269.85,,0.0031897570877294883,aapl,20191211
2019-12-11,12:36,12:36 PM,269.815,269.815,269.815,2,539.63,1,269.84,269.65,269.724,28357,7648567.8697,143,269.815,269.815,269.84,269.72,0.0032758966884067157,0.002743637215319755,aapl,20191211
2019-12-11,12:37,12:37 PM,,,,0,0.0,0,269.8,269.72,269.767,12282,3313276.8784,54,,,269.72,269.8,,0.0029034968362665935,aapl,20191211
2019-12-11,12:38,12:38 PM,,,,0,0.0,0,269.81,269.78,269.795,8898,2400640.2228,41,,,269.81,269.8,,0.0030075914731622685,aapl,20191211
2019-12-11,12:39,12:39 PM,,,,0,0.0,0,269.83,269.79,269.804,10978,2961911.7867,47,,,269.8,269.821,,0.00304105046359284,aapl,20191211
2019-12-11,12:40,12:40 PM,269.81,269.77,269.779,464,125177.28,3,269.815,269.71,269.777,28581,7710508.2961,125,269.81,269.77,269.81,269.755,0.003142034848698827,0.002940673492300703,aapl,20191211
2019-12-11,12:41,12:41 PM,,,,0,0.0,0,269.76,269.72,269.744,4521,1219511.643,37,,,269.755,269.74,,0.0028179905273881846,aapl,20191211
2019-12-11,12:42,12:42 PM,269.76,269.75,269.755,200,53951.0,2,269.8,269.69,269.741,16749,4517898.6529,86,269.75,269.76,269.74,269.784,0.0030527936222269013,0.0028068375305777826,aapl,20191211
2019-12-11,12:43,12:43 PM,269.865,269.865,269.865,100,26986.5,1,269.9,269.775,269.837,35966,9704961.98,164,269.865,269.865,269.78,269.79,0.003461815910223263,0.0031637334285055693,aapl,20191211
2019-12-11,12:44,12:44 PM,269.79,269.755,269.779,400,107911.5,4,269.83,269.71,269.777,19096,5151668.4715,95,269.78,269.79,269.8,269.815,0.003142034848698827,0.002940673492300703,aapl,20191211
2019-12-11,12:45,12:45 PM,269.82,269.765,269.765,101,27246.32,2,269.93,269.76,269.85,50587,13650912.0028,232,269.765,269.82,269.818,269.81,0.0030899774665901682,0.0032120630813500806,aapl,20191211
2019-12-11,12:46,12:46 PM,269.875,269.875,269.875,70,18891.25,2,269.9,269.8,269.858,20236,5460846.734,66,269.875,269.875,269.81,269.878,0.0034989997545865304,0.0032418044061773258,aapl,20191211
2019-12-11,12:47,12:47 PM,269.9,269.875,269.885,163,43991.2,5,269.93,269.872,269.898,12376,3340253.6611,44,269.875,269.9,269.872,269.91,0.0035361835989497978,0.003390511030313974,aapl,20191211
2019-12-11,12:48,12:48 PM,269.895,269.89,269.893,600,161936.0,6,269.93,269.88,269.903,14908,4023719.6081,62,269.89,269.89,269.92,269.905,0.003565930674440369,0.0034090993583310285,aapl,20191211
2019-12-11,12:49,12:49 PM,269.95,269.93,269.931,53,14306.33,2,269.96,269.9,269.939,21701,5857943.2886,96,269.93,269.95,269.92,269.91,0.0037072292830209537,0.0035429353200539487,aapl,20191211
2019-12-11,12:50,12:50 PM,269.96,269.92,269.926,2600,701807.0,6,270.0,269.91,269.954,47118,12719696.9222,159,269.92,269.96,269.92,269.97,0.00368863736083932,0.0035987003041051124,aapl,20191211
2019-12-11,12:51,12:51 PM,269.96,269.83,269.927,1200,323912.5,6,269.98,269.82,269.889,26773,7225734.9712,143,269.96,269.83,269.98,269.87,0.0036923557452757734,0.003357052039883191,aapl,20191211
2019-12-11,12:52,12:52 PM,269.865,269.865,269.865,300,80959.5,1,269.931,269.84,269.885,12984,3504186.3059,64,269.865,269.865,269.88,269.929,0.003461815910223263,0.003342181377469463,aapl,20191211
2019-12-11,12:53,12:53 PM,269.88,269.88,269.88,13,3508.44,1,269.92,269.85,269.884,7223,1949375.635,53,269.88,269.88,269.92,269.92,0.003517591676768164,0.0033384637118661366,aapl,20191211
2019-12-11,12:54,12:54 PM,269.855,269.855,269.855,3,809.565,1,269.93,269.85,269.875,12717,3432000.265,56,269.855,269.855,269.93,269.865,0.003424632065859996,0.0033050047214353536,aapl,20191211
2019-12-11,12:55,12:55 PM,269.855,269.845,269.846,106,28603.63,3,269.9,269.83,269.866,13380,3610809.5316,60,269.855,269.855,269.855,269.9,0.003391166605932971,0.003271545731004571,aapl,20191211
2019-12-11,12:56,12:56 PM,,,,0,0.0,0,269.93,269.883,269.902,4977,1343304.979,26,,,269.9,269.892,,0.0034053816927274907,aapl,20191211
2019-12-11,12:57,12:57 PM,,,,0,0.0,0,269.95,269.86,269.917,12389,3343997.328,75,,,269.9,269.905,,0.003461146676778655,aapl,20191211
2019-12-11,12:58,12:58 PM,,,,0,0.0,0,269.99,269.91,269.962,13846,3737898.655,45,,,269.91,269.95,,0.0036284416289323576,aapl,20191211
2019-12-11,12:59,12:59 PM,270.0,269.97,269.995,710,191696.8,3,270.0,269.96,269.983,15199,4103479.0904,68,269.97,269.98,269.97,269.97,0.00394520588694616,0.0037065126066041136,aapl,20191211
2019-12-11,13:00,1 PM,269.97,269.97,269.97,100,26997.0,1,269.99,269.947,269.97,25775,6958485.2998,123,269.97,269.97,269.98,269.978,0.0038522462760379917,0.003658182953759814,aapl,20191211
2019-12-11,13:01,1:01 PM,,,,0,0.0,0,270.098,269.96,270.027,32374,8741856.8488,136,,,269.98,270.037,,0.003870089893154279,aapl,20191211
2019-12-11,13:02,1:02 PM,270.01,270.01,270.01,1,270.01,1,270.07,270.01,270.039,12621,3408167.9482,70,270.01,270.01,270.03,270.055,0.0040009816534910606,0.003914701880395252,aapl,20191211
2019-12-11,13:03,1:03 PM,270.1,270.08,270.096,2100,567202.0,13,270.113,270.045,270.094,21068,5690330.5526,95,270.08,270.1,270.045,270.102,0.004320762715015497,0.004119173488583064,aapl,20191211
2019-12-11,13:04,1:04 PM,270.02,270.02,270.02,100,27002.0,1,270.12,269.981,270.05,18559,5011853.8149,86,270.02,270.02,270.11,270.022,0.004038165497854328,0.0039555962020328995,aapl,20191211
2019-12-11,13:05,1:05 PM,,,,0,0.0,0,270.02,269.94,269.987,22302,6021259.9375,60,,,270.02,269.97,,0.003721383269017842,aapl,20191211
2019-12-11,13:06,1:06 PM,269.97,269.97,269.97,200,53994.0,2,270.001,269.96,269.98,17665,4769202.6442,69,269.97,269.97,269.97,269.975,0.0038522462760379917,0.0036953596097939233,aapl,20191211
2019-12-11,13:07,1:07 PM,,,,0,0.0,0,270.0,269.9,269.942,27085,7311379.6278,82,,,269.992,269.94,,0.003554088316864139,aapl,20191211
2019-12-11,13:08,1:08 PM,,,,0,0.0,0,269.977,269.9,269.946,12433,3356241.8176,53,,,269.92,269.947,,0.0035689589792778672,aapl,20191211
2019-12-11,13:09,1:09 PM,269.91,269.91,269.91,100,26991.0,1,269.971,269.87,269.921,17085,4611595.1005,63,269.91,269.91,269.94,269.87,0.003629143209858177,0.003476017339192383,aapl,20191211
2019-12-11,13:10,1:10 PM,,,,0,0.0,0,269.98,269.89,269.949,8456,2282687.3051,26,,,269.898,269.975,,0.003580111976088058,aapl,20191211
2019-12-11,13:11,1:11 PM,,,,0,0.0,0,270.033,269.97,270.001,15287,4127505.988,63,,,269.97,270.02,,0.003773430587465468,aapl,20191211
2019-12-11,13:12,1:12 PM,,,,0,0.0,0,270.065,270.01,270.035,14205,3835842.5452,42,,,270.01,270.06,,0.0038998312179817354,aapl,20191211
2019-12-11,13:13,1:13 PM,270.045,270.045,270.045,100,27004.5,1,270.119,270.04,270.067,9231,2492991.217,48,270.045,270.045,270.045,270.089,0.004131125108762707,0.004018796517290927,aapl,20191211
2019-12-11,13:14,1:14 PM,270.12,270.085,270.101,224,60502.54,3,270.15,270.085,270.12,11948,3227389.8198,75,270.085,270.12,270.096,270.12,0.00433935463719713,0.004215832794271875,aapl,20191211
2019-12-11,13:15,1:15 PM,,,,0,0.0,0,270.18,270.11,270.143,25629,6923489.749,97,,,270.129,270.17,,0.004301339103150284,aapl,20191211
2019-12-11,13:16,1:16 PM,270.18,270.17,270.171,114,30799.52,2,270.211,270.16,270.186,14584,3940388.57,76,270.17,270.18,270.16,270.18,0.004599641547740212,0.004461198724097123,aapl,20191211
2019-12-11,13:17,1:17 PM,,,,0,0.0,0,270.2,270.09,270.139,24300,6564387.852,115,,,270.2,270.09,,0.004286468440736767,aapl,20191211
2019-12-11,13:18,1:18 PM,,,,0,0.0,0,270.129,270.06,270.084,15768,4258691.4062,73,,,270.09,270.08,,0.004081996832548955,aapl,20191211
2019-12-11,13:19,1:19 PM,,,,0,0.0,0,270.15,270.07,270.107,10994,2969555.19,56,,,270.089,270.089,,0.004167503141427576,aapl,20191211
2019-12-11,13:20,1:20 PM,270.085,270.085,270.085,100,27008.5,1,270.16,270.07,270.108,12352,3336369.2789,56,270.085,270.085,270.085,270.16,0.004279860486215776,0.004171220807030902,aapl,20191211
2019-12-11,13:21,1:21 PM,,,,0,0.0,0,270.16,270.09,270.115,10020,2706552.325,53,,,270.15,270.09,,0.0041972444662548205,aapl,20191211
2019-12-11,13:22,1:22 PM,270.06,270.02,270.04,200,54008.0,2,270.1,270.01,270.043,24193,6533156.0886,100,270.06,270.02,270.1,270.06,0.004112533186581073,0.00392957254280898,aapl,20191211
2019-12-11,13:23,1:23 PM,,,,0,0.0,0,270.083,269.98,270.014,21302,5751833.9124,67,,,270.06,270.01,,0.003821760240309979,aapl,20191211
2019-12-11,13:24,1:24 PM,269.93,269.93,269.93,80,21594.4,1,270.02,269.91,269.979,18074,4879596.0384,87,269.93,269.93,270.0,270.006,0.0037035108985847115,0.0036916419441903854,aapl,20191211
2019-12-11,13:25,1:25 PM,270.025,270.025,270.025,13,3510.325,1,270.07,269.995,270.03,8479,2289584.3361,61,270.025,270.025,270.01,270.06,0.004056757420035961,0.0038812428899644693,aapl,20191211
2019-12-11,13:26,1:26 PM,,,,0,0.0,0,270.15,270.07,270.117,19384,5235945.065,97,,,270.1,270.115,,0.004204679797461685,aapl,20191211
2019-12-11,13:27,1:27 PM,,,,0,0.0,0,270.214,270.09,270.176,22354,6039515.5032,116,,,270.09,270.15,,0.004424022068063013,aapl,20191211
2019-12-11,13:28,1:28 PM,,,,0,0.0,0,270.16,270.09,270.13,7981,2155906.0097,40,,,270.132,270.135,,0.004253009450305985,aapl,20191211
2019-12-11,13:29,1:29 PM,270.15,270.15,270.15,1,270.15,1,270.19,270.13,270.156,6403,1729810.865,33,270.15,270.15,270.13,270.15,0.004521555474577224,0.0043496687559947955,aapl,20191211
2019-12-11,13:30,1:30 PM,270.19,270.15,270.17,3,810.51,3,270.23,270.11,270.192,27471,7422456.6025,91,270.17,270.15,270.16,270.11,0.00459592316330397,0.004483504717717715,aapl,20191211
2019-12-11,13:31,1:31 PM,,,,0,0.0,0,270.19,270.14,270.166,7491,2023810.5445,32,,,270.14,270.16,,0.004386845412028904,aapl,20191211
2019-12-11,13:32,1:32 PM,,,,0,0.0,0,270.18,270.14,270.158,7337,1982149.9091,46,,,270.16,270.15,,0.00435710408720166,aapl,20191211
2019-12-11,13:33,1:33 PM,,,,0,0.0,0,270.19,270.14,270.147,8299,2241948.2117,34,,,270.174,270.18,,0.004316209765564012,aapl,20191211
2019-12-11,13:34,1:34 PM,,,,0,0.0,0,270.18,270.115,270.15,7414,2002893.019,34,,,270.17,270.12,,0.004327362762374202,aapl,20191211
2019-12-11,13:35,1:35 PM,,,,0,0.0,0,270.17,270.135,270.157,12469,3368589.8543,53,,,270.135,270.148,,0.004353386421598122,aapl,20191211
2019-12-11,13:36,1:36 PM,,,,0,0.0,0,270.16,270.126,270.14,4600,1242643.41,34,,,270.149,270.126,,0.0042901861063400935,aapl,20191211
2019-12-11,13:37,1:37 PM,270.045,270.045,270.045,200,54009.0,1,270.14,270.04,270.091,10069,2719551.131,69,270.045,270.045,270.14,270.04,0.004131125108762707,0.004108020491772874,aapl,20191211
2019-12-11,13:38,1:38 PM,270.04,269.94,270.011,1110,299711.9,9,270.051,269.92,269.997,20864,5633209.9115,91,270.04,269.94,270.051,269.938,0.004004700037927514,0.003758559925051951,aapl,20191211
2019-12-11,13:39,1:39 PM,,,,0,0.0,0,269.975,269.85,269.936,20056,5413837.5086,93,,,269.94,269.87,,0.0035317823232435467,aapl,20191211
2019-12-11,13:40,1:40 PM,,,,0,0.0,0,269.96,269.86,269.912,15599,4210361.095,90,,,269.865,269.9,,0.0034425583487616,aapl,20191211
2019-12-11,13:41,1:41 PM,,,,0,0.0,0,269.95,269.89,269.918,12598,3400429.4211,51,,,269.9,269.93,,0.0034648643423821923,aapl,20191211
2019-12-11,13:42,1:42 PM,,,,0,0.0,0,270.02,269.93,269.976,9505,2566118.377,48,,,269.93,270.02,,0.003680488947380195,aapl,20191211
2019-12-11,13:43,1:43 PM,,,,0,0.0,0,270.08,270.0,270.045,15129,4085517.1348,69,,,270.03,270.05,,0.003937007874015844,aapl,20191211
2019-12-11,13:44,1:44 PM,,,,0,0.0,0,270.14,270.04,270.102,14186,3831667.9255,51,,,270.04,270.14,,0.00414891481341031,aapl,20191211
2019-12-11,13:45,1:45 PM,,,,0,0.0,0,270.13,270.1,270.114,5815,1570714.3139,31,,,270.13,270.12,,0.004193526800651283,aapl,20191211
2019-12-11,13:46,1:46 PM,270.12,270.085,270.103,201,54290.605,3,270.12,270.08,270.1,3500,945350.54,28,270.105,270.12,270.12,270.11,0.004346791406069826,0.004141479482203656,aapl,20191211
2019-12-11,13:47,1:47 PM,,,,0,0.0,0,270.119,270.05,270.078,16884,4559995.2302,80,,,270.115,270.052,,0.004059690838928363,aapl,20191211
2019-12-11,13:48,1:48 PM,270.06,270.06,270.06,300,81018.0,3,270.08,270.05,270.063,13868,3745240.1175,68,270.06,270.06,270.05,270.05,0.004186900875307608,0.004003925854877199,aapl,20191211
2019-12-11,13:49,1:49 PM,270.04,270.04,270.04,60,16202.4,1,270.08,269.97,270.026,13475,3638599.7227,80,270.04,270.04,270.06,270.07,0.004112533186581073,0.0038663722275509523,aapl,20191211
2019-12-11,13:50,1:50 PM,,,,0,0.0,0,270.09,270.07,270.081,4834,1305573.005,25,,,270.08,270.085,,0.004070843835738765,aapl,20191211
2019-12-11,13:51,1:51 PM,270.095,270.095,270.095,100,27009.5,1,270.12,270.07,270.093,15301,4132691.6497,63,270.095,270.095,270.09,270.07,0.004317044330579255,0.004115455822979738,aapl,20191211
2019-12-11,13:52,1:52 PM,270.03,270.03,270.03,100,27003.0,1,270.08,270.01,270.037,10841,2927473.4976,62,270.03,270.03,270.08,270.01,0.004075349342217595,0.003907266549188388,aapl,20191211
2019-12-11,13:53,1:53 PM,,,,0,0.0,0,270.03,269.97,270.004,11347,3063740.5871,78,,,270.01,270.02,,0.00378458358427587,aapl,20191211
2019-12-11,13:54,1:54 PM,269.97,269.97,269.97,100,26997.0,1,270.04,269.932,269.987,8665,2339438.2127,59,269.97,269.97,270.028,269.932,0.0038522462760379917,0.003721383269017842,aapl,20191211
2019-12-11,13:55,1:55 PM,269.98,269.89,269.935,200,53987.0,2,269.99,269.88,269.94,18460,4983095.4371,85,269.98,269.89,269.936,269.88,0.003722102820766345,0.003546652985657275,aapl,20191211
2019-12-11,13:56,1:56 PM,269.895,269.87,269.878,300,80963.5,3,269.9,269.85,269.872,9587,2587262.7132,53,269.895,269.87,269.89,269.87,0.0035101549078954686,0.0032938517246251632,aapl,20191211
2019-12-11,13:57,1:57 PM,269.86,269.85,269.851,110,29683.6,2,269.93,269.8,269.857,18177,4905188.6082,118,269.86,269.85,269.85,269.93,0.0034097585281146047,0.003238086740573999,aapl,20191211
2019-12-11,13:58,1:58 PM,269.89,269.88,269.885,200,53977.0,2,269.94,269.85,269.901,15720,4242852.4748,70,269.88,269.89,269.94,269.85,0.0035361835989497978,0.0034016640271241644,aapl,20191211
2019-12-11,13:59,1:59 PM,269.9,269.845,269.873,200,53974.5,2,269.97,269.83,269.874,19744,5328387.1695,99,269.845,269.9,269.835,269.91,0.003491562985713835,0.0033012870558320273,aapl,20191211
2019-12-11,14:00,2 PM,270.03,269.78,269.932,402,108512.69,6,270.06,269.78,269.916,44339,11967805.3535,226,269.91,269.965,269.92,269.96,0.003710947667457407,0.003457429011175328,aapl,20191211
2019-12-11,14:01,2:01 PM,270.135,269.985,270.083,402,108573.5,5,270.15,269.95,270.067,33462,9036971.894,154,269.985,270.135,269.96,270.12,0.0042724237173432916,0.004018796517290927,aapl,20191211
2019-12-11,14:02,2:02 PM,270.135,270.075,270.103,300,81031.0,3,270.14,270.06,270.095,17887,4831183.9,78,270.135,270.1,270.13,270.099,0.004346791406069826,0.004122891154186602,aapl,20191211
2019-12-11,14:03,2:03 PM,270.22,270.075,270.161,245,66189.435,4,270.25,270.06,270.201,35928,9707794.7283,153,270.075,270.22,270.08,270.25,0.004562457703376945,0.004516963708148498,aapl,20191211
2019-12-11,14:04,2:04 PM,270.3,270.25,270.274,334,90271.36,4,270.33,270.23,270.279,56678,15318869.0254,242,270.25,270.3,270.235,270.31,0.004982635144682245,0.004806941625214719,aapl,20191211
2019-12-11,14:05,2:05 PM,270.4,270.34,270.36,236,63805.04,5,270.42,270.3,270.362,45209,12222777.8351,165,270.34,270.39,270.31,270.403,0.005302416206206681,0.005115507870298206,aapl,20191211
2019-12-11,14:06,2:06 PM,270.53,270.435,270.473,456,123335.755,8,270.55,270.4,270.498,99091,26803885.5363,298,270.44,270.525,270.42,270.548,0.005722593647511981,0.005621110392362429,aapl,20191211
2019-12-11,14:07,2:07 PM,270.52,270.485,270.494,1500,405740.5,7,270.588,270.46,270.521,55711,15070969.4465,218,270.51,270.5,270.55,270.5,0.005800679720674969,0.00570661670124105,aapl,20191211
2019-12-11,14:08,2:08 PM,270.51,270.4,270.467,600,162280.0,6,270.516,270.38,270.452,71132,19237771.2228,276,270.51,270.46,270.5,270.435,0.005700283340893894,0.005450097774605401,aapl,20191211
2019-12-11,14:09,2:09 PM,270.505,270.49,270.498,200,54099.5,2,270.52,270.44,270.491,38494,10412296.8205,148,270.49,270.505,270.44,270.505,0.005815553258420149,0.005595086733138511,aapl,20191211
2019-12-11,14:10,2:10 PM,270.505,270.415,270.463,210,56797.175,4,270.51,270.39,270.432,26027,7038540.2343,116,270.505,270.42,270.505,270.4,0.005685409803148714,0.005375744462537182,aapl,20191211
2019-12-11,14:11,2:11 PM,270.425,270.405,270.415,200,54083.0,2,270.43,270.33,270.376,24005,6490378.4348,115,270.405,270.425,270.4,270.375,0.0055069273502048625,0.005167555188745832,aapl,20191211
2019-12-11,14:12,2:12 PM,270.385,270.37,270.379,400,108151.5,4,270.4,270.36,270.383,13490,3647466.188,73,270.375,270.385,270.375,270.388,0.0053730655104969735,0.005193578847969751,aapl,20191211
2019-12-11,14:13,2:13 PM,270.39,270.35,270.37,200,54074.0,2,270.4,270.31,270.35,20939,5660865.686,146,270.39,270.35,270.39,270.354,0.005339600050569948,0.005070895883057233,aapl,20191211
2019-12-11,14:14,2:14 PM,270.29,270.245,270.266,210,56755.9,3,270.33,270.23,270.276,28502,7703402.2914,161,270.285,270.245,270.33,270.23,0.004952888069191673,0.0047957886284045285,aapl,20191211
2019-12-11,14:15,2:15 PM,270.23,270.18,270.206,561,151585.64,8,270.25,270.14,270.212,45790,12373002.7787,287,270.2,270.21,270.25,270.25,0.004729785003011859,0.004557858029785934,aapl,20191211
2019-12-11,14:16,2:16 PM,270.375,270.355,270.363,300,81109.0,3,270.38,270.25,270.342,28947,7825590.522,130,270.355,270.375,270.25,270.37,0.005313571359515619,0.005041154558229777,aapl,20191211
2019-12-11,14:17,2:17 PM,270.54,270.375,270.45,501,135495.375,6,270.555,270.36,270.452,40215,10876236.5749,211,270.375,270.54,270.371,270.542,0.005637070805476298,0.005450097774605401,aapl,20191211
2019-12-11,14:18,2:18 PM,270.63,270.56,270.56,1103,298427.89,3,270.65,270.55,270.603,76583,20723573.6177,258,270.63,270.56,270.57,270.556,0.006046093093472659,0.006011465280720999,aapl,20191211
2019-12-11,14:19,2:19 PM,270.55,270.48,270.547,104,28136.92,2,270.58,270.48,270.528,35975,9732255.1908,140,270.55,270.48,270.55,270.51,0.0059977540958004545,0.005732640360464968,aapl,20191211
2019-12-11,14:20,2:20 PM,270.51,270.51,270.51,100,27051.0,1,270.54,270.4,270.473,18416,4981036.4793,100,270.51,270.51,270.51,270.411,0.005860173871656112,0.005528168752277156,aapl,20191211
2019-12-11,14:21,2:21 PM,270.32,270.32,270.32,50,13516.0,1,270.42,270.27,270.34,29136,7876615.9977,197,270.32,270.32,270.415,270.335,0.005153680828753401,0.0050337192270229125,aapl,20191211
2019-12-11,14:22,2:22 PM,270.37,270.34,270.356,630,170324.1,6,270.4,270.32,270.35,23872,6453788.8674,73,270.34,270.34,270.335,270.34,0.00528754266846129,0.005070895883057233,aapl,20191211
2019-12-11,14:23,2:23 PM,270.46,270.405,270.429,400,108171.5,4,270.56,270.35,270.452,33260,8995243.2041,201,270.405,270.46,270.35,270.47,0.005558984732313309,0.005450097774605401,aapl,20191211
2019-12-11,14:24,2:24 PM,,,,0,0.0,0,270.58,270.44,270.526,29745,8046805.489,161,,,270.49,270.466,,0.005725205029258104,aapl,20191211
2019-12-11,14:25,2:25 PM,270.45,270.44,270.445,183,49491.35,2,270.47,270.33,270.397,19077,5158358.0253,113,270.45,270.44,270.455,270.353,0.005618478883294664,0.005245626166417589,aapl,20191211
2019-12-11,14:26,2:26 PM,270.31,270.24,270.277,700,189194.0,7,270.35,270.21,270.272,25496,6890863.3969,145,270.24,270.27,270.343,270.28,0.004993790297991183,0.0047809179659908,aapl,20191211
2019-12-11,14:27,2:27 PM,270.27,270.27,270.27,25,6756.75,1,270.29,270.21,270.253,13475,3641656.2604,89,270.27,270.27,270.29,270.21,0.004967761606936853,0.004710282319525908,aapl,20191211
2019-12-11,14:28,2:28 PM,,,,0,0.0,0,270.28,270.202,270.256,13859,3745484.564,76,,,270.22,270.27,,0.004721435316336098,aapl,20191211
2019-12-11,14:29,2:29 PM,270.29,270.24,270.289,102,27569.51,3,270.3,270.24,270.276,14705,3974409.085,66,270.29,270.27,270.27,270.272,0.005038410911227146,0.0047957886284045285,aapl,20191211
2019-12-11,14:30,2:30 PM,,,,0,0.0,0,270.316,270.26,270.293,10385,2806992.265,78,,,270.271,270.306,,0.004858988943662557,aapl,20191211
2019-12-11,14:31,2:31 PM,270.35,270.315,270.318,109,29464.62,5,270.36,270.288,270.33,19316,5221690.8439,79,270.35,270.315,270.306,270.348,0.005146244059880705,0.004996542570988803,aapl,20191211
2019-12-11,14:32,2:32 PM,270.34,270.34,270.34,100,27034.0,1,270.37,270.3,270.344,12568,3397680.7666,76,270.34,270.34,270.349,270.37,0.0052280485174799355,0.005048589889436641,aapl,20191211
2019-12-11,14:33,2:33 PM,270.355,270.305,270.35,210,56773.55,3,270.38,270.21,270.321,13170,3560126.896,83,270.355,270.305,270.36,270.22,0.005265232361843414,0.004963083580558232,aapl,20191211
2019-12-11,14:34,2:34 PM,270.29,270.29,270.29,200,54058.0,2,270.29,270.18,270.223,22080,5966513.6208,117,270.29,270.29,270.224,270.28,0.005042129295663599,0.0045987523514235806,aapl,20191211
2019-12-11,14:35,2:35 PM,270.29,270.29,270.29,100,27029.0,1,270.34,270.25,270.299,16967,4586162.1592,71,270.29,270.29,270.27,270.25,0.005042129295663599,0.0048812949372829375,aapl,20191211
2019-12-11,14:36,2:36 PM,270.22,270.22,270.22,100,27022.0,1,270.259,270.2,270.227,11740,3172465.599,53,270.22,270.22,270.24,270.21,0.004781842385120518,0.004613623013837097,aapl,20191211
2019-12-11,14:37,2:37 PM,,,,0,0.0,0,270.38,270.204,270.278,15000,4054172.135,79,,,270.221,270.374,,0.004803223959611393,aapl,20191211
2019-12-11,14:38,2:38 PM,270.46,270.405,270.426,500,135213.0,5,270.51,270.373,270.464,56686,15331547.711,247,270.405,270.46,270.38,270.477,0.005547829579004371,0.005494709761846374,aapl,20191211
2019-12-11,14:39,2:39 PM,,,,0,0.0,0,270.49,270.37,270.426,22004,5950463.3858,128,,,270.49,270.4,,0.00535343846891659,aapl,20191211
2019-12-11,14:40,2:40 PM,270.19,270.14,270.18,500,135090.0,5,270.4,270.103,270.245,27961,7556311.736,175,270.14,270.19,270.39,270.34,0.0046331070076672375,0.004680540994698663,aapl,20191211
2019-12-11,14:41,2:41 PM,270.49,270.36,270.465,600,162279.0,6,270.54,270.33,270.433,36563,9887859.5778,221,270.36,270.485,270.34,270.486,0.005692846572021198,0.005379462128140508,aapl,20191211
2019-12-11,14:42,2:42 PM,270.445,270.415,270.43,400,108172.0,4,270.47,270.35,270.418,16321,4413494.24,106,270.415,270.445,270.46,270.47,0.005562703116749763,0.005323697144089344,aapl,20191211
2019-12-11,14:43,2:43 PM,270.55,270.5,270.517,300,81155.0,5,270.615,270.445,270.531,55060,14895421.1453,287,270.55,270.5,270.47,270.47,0.005886202562710442,0.00574379335727516,aapl,20191211
2019-12-11,14:44,2:44 PM,270.525,270.51,270.52,273,73851.945,4,270.59,270.48,270.538,14884,4026692.495,77,270.52,270.51,270.48,270.51,0.005897357716019379,0.005769817016499078,aapl,20191211
2019-12-11,14:45,2:45 PM,270.49,270.44,270.44,101,27314.49,2,270.521,270.38,270.451,23874,6456749.026,150,270.49,270.44,270.514,270.45,0.00559988696111303,0.005446380109002074,aapl,20191211
2019-12-11,14:46,2:46 PM,270.53,270.415,270.503,132,35706.47,6,270.54,270.4,270.449,35682,9650175.44,204,270.435,270.53,270.44,270.54,0.0058341451806017824,0.0054389447777952096,aapl,20191211
2019-12-11,14:47,2:47 PM,270.515,270.44,270.487,17,4598.28,3,270.53,270.4,270.474,22601,6112984.984,127,270.515,270.44,270.53,270.47,0.00577465102962064,0.005531886417880483,aapl,20191211
2019-12-11,14:48,2:48 PM,270.37,270.36,270.363,8,2162.9,3,270.47,270.3,270.387,19777,5347438.2688,126,270.37,270.36,270.47,270.335,0.005313571359515619,0.005208449510383479,aapl,20191211
2019-12-11,14:49,2:49 PM,,,,0,0.0,0,270.387,270.27,270.325,34802,9407864.0537,166,,,270.341,270.37,,0.004977954242971748,aapl,20191211
2019-12-11,14:50,2:50 PM,270.41,270.36,270.387,203,54888.48,5,270.409,270.32,270.365,12676,3427151.7743,68,270.41,270.36,270.38,270.32,0.005402812585987545,0.005126660867108396,aapl,20191211
2019-12-11,14:51,2:51 PM,270.28,270.28,270.28,50,13514.0,1,270.327,270.22,270.266,30191,8159590.7101,118,270.28,270.28,270.327,270.22,0.005004945451300121,0.00475861197237042,aapl,20191211
2019-12-11,14:52,2:52 PM,270.315,270.3,270.315,101,27301.8,2,270.32,270.24,270.282,14061,3800441.7396,66,270.315,270.3,270.27,270.31,0.005135088906571768,0.004818094622024909,aapl,20191211
2019-12-11,14:53,2:53 PM,270.49,270.425,270.468,300,81140.5,2,270.56,270.31,270.455,54867,14839044.4805,234,270.425,270.49,270.31,270.48,0.005704001725330347,0.005461250771415591,aapl,20191211
2019-12-11,14:54,2:54 PM,270.43,270.43,270.43,100,27043.0,1,270.48,270.36,270.403,41550,11235255.2016,198,270.43,270.43,270.48,270.39,0.005562703116749763,0.005267932160038181,aapl,20191211
2019-12-11,14:55,2:55 PM,270.46,270.46,270.46,100,27046.0,1,270.52,270.39,270.45,21962,5939615.72,149,270.46,270.46,270.4,270.48,0.005674254649839564,0.005442662443398537,aapl,20191211
2019-12-11,14:56,2:56 PM,,,,0,0.0,0,270.53,270.42,270.487,21609,5844961.8336,133,,,270.467,270.53,,0.005580216070724994,aapl,20191211
2019-12-11,14:57,2:57 PM,270.6,270.6,270.6,8,2164.8,1,270.65,270.52,270.597,49619,13426740.4832,257,270.6,270.6,270.525,270.606,0.00619482847092594,0.005989159287100407,aapl,20191211
2019-12-11,14:58,2:58 PM,270.655,270.625,270.641,400,108256.5,3,270.66,270.54,270.614,42771,11574441.907,260,270.625,270.63,270.62,270.64,0.006347282232815462,0.006052359602358435,aapl,20191211
2019-12-11,14:59,2:59 PM,,,,0,0.0,0,270.67,270.62,270.648,27813,7527524.0288,151,,,270.635,270.66,,0.006178760232874702,aapl,20191211
2019-12-11,15:00,3 PM,270.7,270.66,270.687,305,82559.5,4,270.74,270.58,270.663,61336,16601360.2567,301,270.66,270.7,270.66,270.61,0.006518327916886618,0.006234525216925866,aapl,20191211
2019-12-11,15:01,3:01 PM,270.61,270.55,270.607,105,28413.75,2,270.69,270.53,270.605,39990,10821478.2699,156,270.61,270.55,270.617,270.53,0.006220857161980269,0.006018900611927863,aapl,20191211
2019-12-11,15:02,3:02 PM,270.43,270.43,270.43,2,540.86,1,270.541,270.42,270.476,32628,8825105.7503,154,270.43,270.43,270.52,270.432,0.005562703116749763,0.0055393217490873475,aapl,20191211
2019-12-11,15:03,3:03 PM,270.52,270.49,270.503,300,81151.0,3,270.54,270.44,270.493,15510,4195339.9518,97,270.49,270.52,270.44,270.476,0.0058341451806017824,0.005602522064345375,aapl,20191211
2019-12-11,15:04,3:04 PM,,,,0,0.0,0,270.48,270.4,270.447,30912,8360043.21,94,,,270.48,270.43,,0.0054315094465883455,aapl,20191211
2019-12-11,15:05,3:05 PM,,,,0,0.0,0,270.51,270.43,270.471,19829,5363179.7658,104,,,270.45,270.43,,0.005520733421070292,aapl,20191211
2019-12-11,15:06,3:06 PM,,,,0,0.0,0,270.49,270.39,270.443,24809,6709424.5893,138,,,270.44,270.41,,0.005416638784174617,aapl,20191211
2019-12-11,15:07,3:07 PM,,,,0,0.0,0,270.48,270.41,270.436,13043,3527302.3936,86,,,270.414,270.45,,0.005390615124950699,aapl,20191211
2019-12-11,15:08,3:08 PM,270.44,270.44,270.44,100,27044.0,1,270.46,270.36,270.414,16715,4519967.6016,77,270.44,270.44,270.455,270.412,0.00559988696111303,0.005308826481675616,aapl,20191211
2019-12-11,15:09,3:09 PM,,,,0,0.0,0,270.46,270.42,270.443,8130,2198705.301,44,,,270.42,270.46,,0.005416638784174617,aapl,20191211
2019-12-11,15:10,3:10 PM,270.485,270.4,270.452,300,81135.5,3,270.485,270.38,270.434,15666,4236622.6332,110,270.485,270.4,270.459,270.4,0.005644507574348993,0.005383179793744046,aapl,20191211
2019-12-11,15:11,3:11 PM,270.335,270.335,270.335,130,35143.55,1,270.395,270.32,270.357,30429,8226686.5513,118,270.335,270.335,270.39,270.331,0.0052094565952983014,0.0050969195422811515,aapl,20191211
2019-12-11,15:12,3:12 PM,,,,0,0.0,0,270.37,270.31,270.339,17377,4697685.4308,102,,,270.34,270.366,,0.005030001561419585,aapl,20191211
2019-12-11,15:13,3:13 PM,270.36,270.15,270.249,304,82155.81,5,270.38,270.14,270.221,71795,19400547.6604,336,270.36,270.15,270.38,270.19,0.004889675533774077,0.0045913170202167165,aapl,20191211
2019-12-11,15:14,3:14 PM,270.245,270.22,270.231,1400,378323.5,7,270.28,270.19,270.232,42866,11583772.9748,225,270.225,270.23,270.2,270.23,0.004822744613920027,0.004632211341854363,aapl,20191211
2019-12-11,15:15,3:15 PM,270.27,270.18,270.19,201,54308.27,3,270.28,270.16,270.231,27496,7430284.0827,183,270.27,270.18,270.25,270.24,0.004670290852030505,0.004628493676250825,aapl,20191211
2019-12-11,15:16,3:16 PM,270.32,270.32,270.32,100,27032.0,1,270.322,270.22,270.284,23053,6230857.8138,150,270.32,270.32,270.24,270.242,0.005153680828753401,0.004825529953231773,aapl,20191211
2019-12-11,15:17,3:17 PM,270.31,270.305,270.305,103,27841.43,2,270.33,270.23,270.298,20739,5605709.9861,115,270.305,270.31,270.236,270.32,0.0050979050622085,0.004877577271679611,aapl,20191211
2019-12-11,15:18,3:18 PM,270.345,270.335,270.345,404,109219.34,3,270.38,270.31,270.349,32035,8660631.8881,159,270.335,270.345,270.33,270.353,0.00524664043966178,0.005067178217453695,aapl,20191211
2019-12-11,15:19,3:19 PM,270.425,270.41,270.418,301,81395.92,4,270.45,270.36,270.423,28077,7592660.3696,143,270.41,270.425,270.36,270.43,0.0055180825035138,0.0053422854721063995,aapl,20191211
2019-12-11,15:20,3:20 PM,270.495,270.425,270.446,397,107367.07,9,270.5,270.4,270.463,29151,7884260.3492,167,270.425,270.495,270.425,270.5,0.0056221972677311174,0.0054909920962430475,aapl,20191211
2019-12-11,15:21,3:21 PM,270.65,270.515,270.63,2469,668186.315,13,270.658,270.5,270.584,44965,12166793.7863,260,270.515,270.53,270.5,270.53,0.006306380004015741,0.005940829634256108,aapl,20191211
2019-12-11,15:22,3:22 PM,270.605,270.46,270.476,2506,677812.59,6,270.62,270.46,270.51,41640,11264044.175,218,270.51,270.605,270.53,270.56,0.005733748800820919,0.005665722379603403,aapl,20191211
2019-12-11,15:23,3:23 PM,270.515,270.5,270.509,350,94678.0,4,270.59,270.49,270.526,17324,4686602.491,112,270.515,270.51,270.57,270.508,0.0058564554872198695,0.005725205029258104,aapl,20191211
2019-12-11,15:24,3:24 PM,270.54,270.52,270.523,6,1623.14,2,270.57,270.5,270.547,12140,3284442.2989,85,270.52,270.54,270.512,270.55,0.005908512869328529,0.005803276006929861,aapl,20191211
2019-12-11,15:25,3:25 PM,270.65,270.505,270.555,845,228619.09,10,270.66,270.508,270.599,29793,8061967.3146,156,270.525,270.65,270.57,270.63,0.006027501171291026,0.005996594618307271,aapl,20191211
2019-12-11,15:26,3:26 PM,270.62,270.62,270.62,100,27062.0,1,270.66,270.55,270.608,12795,3462434.358,75,270.62,270.62,270.63,270.57,0.006269196159652474,0.0060300536087380535,aapl,20191211
2019-12-11,15:27,3:27 PM,270.52,270.52,270.52,150,40578.0,2,270.68,270.5,270.588,26942,7290178.9353,137,270.52,270.52,270.55,270.68,0.005897357716019379,0.005955700296669836,aapl,20191211
2019-12-11,15:28,3:28 PM,270.71,270.65,270.683,300,81205.0,4,270.72,270.65,270.689,42138,11406289.6674,206,270.69,270.65,270.68,270.65,0.006503454379141227,0.0063311845226146765,aapl,20191211
2019-12-11,15:29,3:29 PM,,,,0,0.0,0,270.69,270.6,270.644,27903,7551777.8044,154,,,270.66,270.6,,0.006163889570460974,aapl,20191211
2019-12-11,15:30,3:30 PM,270.59,270.59,270.59,25,6764.75,1,270.68,270.5,270.591,38518,10422619.455,206,270.59,270.59,270.62,270.64,0.006157644626562461,0.005966853293480026,aapl,20191211
2019-12-11,15:31,3:31 PM,270.81,270.78,270.795,204,55242.16,3,270.91,270.61,270.756,72967,19756226.2852,338,270.81,270.79,270.622,270.743,0.006919913436010284,0.006580268118043251,aapl,20191211
2019-12-11,15:32,3:32 PM,270.84,270.76,270.825,904,244825.36,6,270.84,270.62,270.75,56101,15189334.5102,234,270.76,270.84,270.74,270.814,0.007031464969100086,0.00655796212442287,aapl,20191211
2019-12-11,15:33,3:33 PM,270.84,270.71,270.761,1702,460835.62,12,270.86,270.71,270.772,64662,17508666.9589,352,270.82,270.71,270.82,270.71,0.006793488365175091,0.006639750767697953,aapl,20191211
2019-12-11,15:34,3:34 PM,270.745,270.67,270.694,2000,541388.5,9,270.77,270.667,270.709,33854,9164579.0738,188,270.67,270.745,270.7,270.715,0.006544356607940947,0.006405537834682895,aapl,20191211
2019-12-11,15:35,3:35 PM,270.74,270.74,270.74,200,54148.0,2,270.77,270.688,270.74,23734,6425753.445,140,270.74,270.74,270.7,270.76,0.006715402292012103,0.00652078546838876,aapl,20191211
2019-12-11,15:36,3:36 PM,270.75,270.75,270.75,200,54150.0,2,270.766,270.71,270.746,12655,3426286.7706,94,270.75,270.75,270.76,270.76,0.006752586136375371,0.006543091462009142,aapl,20191211
2019-12-11,15:37,3:37 PM,270.78,270.63,270.667,1121,303417.55,14,270.79,270.58,270.663,47899,12964470.4977,307,270.78,270.63,270.755,270.599,0.006443960228159872,0.006234525216925866,aapl,20191211
2019-12-11,15:38,3:38 PM,270.685,270.64,270.674,1701,460416.14,12,270.71,270.59,270.664,29806,8067409.5755,161,270.685,270.64,270.59,270.659,0.006469988919214202,0.006238242882529193,aapl,20191211
2019-12-11,15:39,3:39 PM,270.7,270.66,270.696,1100,297766.0,8,270.72,270.65,270.68,18138,4909594.0106,128,270.66,270.7,270.67,270.706,0.006551793376813643,0.006297725532183894,aapl,20191211
2019-12-11,15:40,3:40 PM,270.72,270.61,270.665,687,185946.77,7,270.72,270.6,270.646,28921,7827365.5365,170,270.72,270.61,270.702,270.613,0.006436523459287388,0.006171324901667838,aapl,20191211
2019-12-11,15:41,3:41 PM,270.725,270.61,270.672,300,81201.5,3,270.75,270.61,270.675,38824,10508686.7675,234,270.61,270.725,270.62,270.74,0.006462552150341717,0.006279137204166839,aapl,20191211
2019-12-11,15:42,3:42 PM,270.79,270.74,270.767,1803,488192.25,17,270.79,270.74,270.763,28701,7771178.04,187,270.75,270.74,270.75,270.76,0.006815798671792967,0.006606291777267169,aapl,20191211
2019-12-11,15:43,3:43 PM,270.74,270.7,270.703,407,110176.03,6,270.75,270.68,270.709,26755,7242835.1046,132,270.74,270.71,270.75,270.695,0.006577822067867761,0.006405537834682895,aapl,20191211
2019-12-11,15:44,3:44 PM,270.69,270.675,270.68,700,189476.0,6,270.7,270.67,270.683,26568,7191504.226,129,270.69,270.685,270.69,270.7,0.006492299225832289,0.006308878528994084,aapl,20191211
2019-12-11,15:45,3:45 PM,270.705,270.64,270.683,1295,350534.05,11,270.73,270.61,270.672,39742,10757054.571,229,270.705,270.64,270.705,270.615,0.006503454379141227,0.006267984207356649,aapl,20191211
2019-12-11,15:46,3:46 PM,270.62,270.56,270.587,1200,324705.0,13,270.63,270.52,270.578,49566,13411463.778,290,270.62,270.575,270.62,270.58,0.006146489473253523,0.0059185236406355144,aapl,20191211
2019-12-11,15:47,3:47 PM,270.6,270.525,270.552,301,81436.06,4,270.6,270.501,270.554,27414,7416964.7257,161,270.6,270.53,270.58,270.53,0.006016346017982088,0.0058292996661535685,aapl,20191211
2019-12-11,15:48,3:48 PM,270.48,270.36,270.416,1446,391022.36,11,270.54,270.35,270.433,59581,16112677.747,304,270.48,270.455,270.52,270.43,0.005510645734641105,0.005379462128140508,aapl,20191211
2019-12-11,15:49,3:49 PM,270.5,270.485,270.488,203,54909.0,3,270.55,270.42,270.501,38738,10478653.8294,237,270.49,270.485,270.43,270.52,0.005778369414056882,0.0056322633891726205,aapl,20191211
2019-12-11,15:50,3:50 PM,270.71,270.53,270.64,1469,397570.84,15,270.75,270.51,270.658,105491,28551988.3507,670,270.53,270.71,270.51,270.73,0.0063435638483790085,0.006215936888908811,aapl,20191211
2019-12-11,15:51,3:51 PM,270.75,270.675,270.707,622,168380.065,6,270.78,270.66,270.73,40523,10970798.8458,221,270.73,270.685,270.71,270.68,0.0065926956056131525,0.0064836088123546515,aapl,20191211
2019-12-11,15:52,3:52 PM,270.71,270.695,270.706,802,217106.42,9,270.72,270.67,270.697,34217,9262456.5446,220,270.705,270.71,270.7,270.68,0.00658897722117691,0.006360925847441922,aapl,20191211
2019-12-11,15:53,3:53 PM,270.66,270.64,270.649,679,183770.54,8,270.69,270.603,270.64,37205,10069164.9991,166,270.64,270.65,270.68,270.652,0.006377029308306034,0.006149018908047246,aapl,20191211
2019-12-11,15:54,3:54 PM,270.88,270.68,270.82,1611,436290.61,15,270.89,270.65,270.811,124793,33795347.1597,633,270.7,270.855,270.66,270.828,0.007012873046918453,0.006784739726231063,aapl,20191211
2019-12-11,15:55,3:55 PM,270.88,270.76,270.835,1103,298731.535,9,270.9,270.75,270.833,120811,32719582.3343,561,270.815,270.84,270.84,270.82,0.007068648813463353,0.006866528369506357,aapl,20191211
2019-12-11,15:56,3:56 PM,270.89,270.825,270.858,1369,370804.56,15,270.98,270.81,270.881,109471,29653625.3058,550,270.825,270.89,270.825,270.926,0.007154171655499037,0.007044976318470039,aapl,20191211
2019-12-11,15:57,3:57 PM,271.0,270.94,270.967,1314,356050.135,20,271.01,270.93,270.982,235961,63941092.5868,963,270.965,271.0,270.932,270.97,0.007559475559058945,0.007420460544415091,aapl,20191211
2019-12-11,15:58,3:58 PM,271.02,270.9,270.96,1801,487998.47,19,271.06,270.89,270.961,131222,35555992.4957,747,270.945,271.02,270.96,270.95,0.007533446868004616,0.007342389566743336,aapl,20191211
2019-12-11,15:59,3:59 PM,271.1,270.94,271.029,5559,1506650.915,36,271.1,270.59,270.974,275569,74671913.6401,1415,270.97,271.1,270.96,270.74,0.007790015394111456,0.007390719219587635,aapl,20191211
