date,minute,label,high,low,average,volume,notional,numberOfTrades,marketHigh,marketLow,marketAverage,marketVolume,marketNotional,marketNumberOfTrades,open,close,marketOpen,marketClose,changeOverTime,marketChangeOverTime,tickerName,tickerDate
2020-02-13,09:30,09:30 AM,324.64,323.59,324.242,4321,1401049.515,46,324.7,323.35,324.258,744586,241438002.3797,1374,324.38,323.59,324.19,323.415,0.0,0.0,aapl,20200213
2020-02-13,09:31,09:31 AM,324.935,323.505,324.214,6801,2204977.495,57,324.98,323.39,324.196,204933,66438421.1519,965,323.505,324.925,323.39,324.97,-8.635525317515931e-05,-0.0001912057682461342,aapl,20200213
2020-02-13,09:32,09:32 AM,325.16,324.5,324.928,2463,800296.84,32,325.2,324.45,324.9,184329,59888537.1269,894,324.94,325.0,324.97,324.995,0.0021157037027898255,0.001979904890550105,aapl,20200213
2020-02-13,09:33,09:33 AM,325.06,324.4,324.778,2202,715160.575,21,325.2,324.34,324.837,163875,53232623.7532,772,324.955,324.4,325.0,324.37,0.0016530862750661584,0.0017856151582998964,aapl,20200213
2020-02-13,09:34,09:34 AM,325.245,324.44,324.713,2464,800092.09,26,325.275,324.332,324.803,162730,52855157.4937,796,324.565,325.245,324.332,325.181,0.001452618723052546,0.0016807603821648687,aapl,20200213
2020-02-13,09:35,09:35 AM,325.48,325.17,325.349,2050,666966.365,31,325.5,325.04,325.317,153636,49980363.8479,867,325.215,325.24,325.17,325.248,0.0034141166166010905,0.0032659178802065822,aapl,20200213
2020-02-13,09:36,09:36 AM,325.2,324.965,325.099,1221,396945.87,18,325.312,324.82,325.071,104790,34064164.7285,596,325.19,324.985,325.24,324.98,0.002643087570394862,0.0025072627352294933,aapl,20200213
2020-02-13,09:37,09:37 AM,325.25,324.8,324.977,1997,648979.965,25,325.28,324.77,324.999,85651,27836472.5772,371,324.9,325.25,324.94,325.22,0.002266825395846179,0.0022852173269434905,aapl,20200213
2020-02-13,09:38,09:38 AM,325.49,325.15,325.354,1416,460701.48,14,325.49,325.136,325.329,111419,36247851.3139,522,325.19,325.28,325.16,325.28,0.0034295371975252014,0.0033029254482542496,aapl,20200213
2020-02-13,09:39,09:39 AM,325.24,324.86,325.074,1100,357581.5,10,325.29,324.81,325.032,105412,34262287.6661,412,325.24,324.95,325.27,324.98,0.0025659846657743093,0.002386988139074444,aapl,20200213
2020-02-13,09:40,09:40 AM,325.41,325.22,325.289,276,89779.72,2,325.43,324.995,325.275,103208,33571019.7184,364,325.41,325.22,325.0,325.3,0.003229069645511589,0.0031363913920396595,aapl,20200213
2020-02-13,09:41,09:41 AM,325.5,325.24,325.361,300,97608.3,4,325.55,325.1,325.344,126185,41053547.8476,519,325.5,325.41,325.39,325.342,0.003451126010818991,0.0033491849083137895,aapl,20200213
2020-02-13,09:42,09:42 AM,325.06,325.015,325.045,300,97513.5,3,325.36,324.91,325.083,82353,26771586.3081,450,325.06,325.015,325.338,325.2,0.002476545296414398,0.0025442703032771607,aapl,20200213
2020-02-13,09:43,09:43 AM,325.275,325.16,325.212,300,97563.5,3,325.3,325.11,325.224,50097,16292730.9246,299,325.16,325.2,325.181,325.22,0.002991592699280076,0.0029791092278371183,aapl,20200213
2020-02-13,09:44,09:44 AM,325.17,325.17,325.17,21,6828.57,2,325.27,325.04,325.166,36595,11899468.4866,238,325.17,325.17,325.19,325.21,0.002862059819517512,0.002800239315606756,aapl,20200213
2020-02-13,09:45,09:45 AM,325.72,325.235,325.563,748,243521.52,8,325.79,325.16,325.531,157711,51339787.281,672,325.24,325.72,325.23,325.62,0.004074117480153618,0.003925886177056618,aapl,20200213
2020-02-13,09:46,09:46 AM,325.65,325.385,325.433,1333,433802.735,8,325.69,325.34,325.538,74827,24359006.0973,435,325.65,325.53,325.64,325.545,0.003673182376126393,0.003947473925084438,aapl,20200213
2020-02-13,09:47,09:47 AM,325.5,325.5,325.5,100,32550.0,1,325.59,325.39,325.495,84156,27392358.8456,407,325.5,325.5,325.55,325.512,0.003879818160509685,0.0038148634729136158,aapl,20200213
2020-02-13,09:48,09:48 AM,325.46,324.915,325.12,1425,463295.625,11,325.51,324.84,325.102,146769,47714927.3415,735,325.46,324.98,325.5,324.92,0.0027078540102762317,0.0026028656193524727,aapl,20200213
2020-02-13,09:49,09:49 AM,325.045,324.69,324.962,1700,552436.0,15,325.08,324.65,324.906,130651,42449357.6114,687,324.815,325.045,324.9,325.02,0.0022205636530738472,0.001998408674574026,aapl,20200213
2020-02-13,09:50,09:50 AM,325.15,325.02,325.061,303,98493.45,3,325.26,325.02,325.126,95119,30925634.7562,442,325.02,325.15,325.02,325.12,0.0025258911553714815,0.002676880755447807,aapl,20200213
2020-02-13,09:51,09:51 AM,325.095,325.02,325.058,200,65011.5,2,325.25,324.83,325.075,73253,23812734.3674,425,325.095,325.02,325.11,325.25,0.0025166388068170505,0.0025195985912452655,aapl,20200213
2020-02-13,09:52,09:52 AM,325.595,325.32,325.472,300,97641.5,3,325.66,325.25,325.448,92188,30002377.8347,364,325.32,325.595,325.25,325.58,0.0037934629073345257,0.0036699171647268467,aapl,20200213
2020-02-13,09:53,09:53 AM,,,,0,0.0,0,325.65,325.508,325.58,58626,19087460.3832,266,,,325.62,325.59,,0.004077000413251185,aapl,20200213
2020-02-13,09:54,09:54 AM,325.585,325.5,325.504,301,97976.585,4,325.72,325.27,325.533,63133,20551899.2079,348,325.51,325.585,325.589,325.67,0.0038921546252490436,0.0039320541050645915,aapl,20200213
2020-02-13,09:55,09:55 AM,325.9,325.75,325.81,300,97743.0,3,325.96,325.68,325.82,85854,27972933.5074,484,325.9,325.75,325.68,325.76,0.004835894177805416,0.004817151774204528,aapl,20200213
2020-02-13,09:56,09:56 AM,325.75,325.585,325.668,200,65133.5,2,325.75,325.2,325.497,116974,38074635.9209,474,325.75,325.585,325.74,325.34,0.00439794967956029,0.0038210314009215897,aapl,20200213
2020-02-13,09:57,09:57 AM,325.47,325.43,325.45,200,65090.0,3,325.67,325.34,325.521,56074,18253239.1305,273,325.43,325.47,325.34,325.484,0.0037256123512684042,0.003895046537016924,aapl,20200213
2020-02-13,09:58,09:58 AM,325.05,324.895,324.931,500,162465.5,5,325.54,324.75,325.034,130383,42378977.2674,670,325.05,324.895,325.532,324.96,0.002124956051344257,0.0023931560670824173,aapl,20200213
2020-02-13,09:59,09:59 AM,324.8,324.55,324.63,995,323007.025,9,324.988,324.479,324.687,95117,30883277.8768,469,324.7,324.55,324.962,324.628,0.0011966370797119952,0.0013230205577041444,aapl,20200213
2020-02-13,10:00,10 AM,324.91,324.7,324.756,3811,1237645.805,18,324.96,324.575,324.773,91680,29775163.9136,567,324.7,324.7,324.635,324.575,0.0015852357189998615,0.0015882414620457884,aapl,20200213
2020-02-13,10:01,10:01 AM,324.61,324.3,324.408,791,256606.725,7,324.74,324.3,324.452,80850,26231935.9709,435,324.61,324.46,324.61,324.31,0.000511963286680926,0.0005982890167706481,aapl,20200213
2020-02-13,10:02,10:02 AM,324.65,324.27,324.432,5394,1749987.3,15,324.65,324.17,324.453,130554,42358688.0867,504,324.45,324.48,324.319,324.44,0.0005859820751167267,0.0006013729807745474,aapl,20200213
2020-02-13,10:03,10:03 AM,324.5,324.315,324.433,775,251435.25,7,324.51,324.24,324.411,59815,19404678.8801,320,324.5,324.42,324.448,324.38,0.0005890661913014787,0.00047184649260780003,aapl,20200213
2020-02-13,10:04,10:04 AM,324.65,324.5,324.594,3800,1233459.0,12,324.81,324.34,324.594,103333,33541249.0084,435,324.635,324.5,324.365,324.477,0.0010856088970582942,0.0010362119053346803,aapl,20200213
2020-02-13,10:05,10:05 AM,324.68,324.38,324.526,1020,331016.8,10,324.73,324.37,324.54,46581,15117402.0233,278,324.38,324.68,324.47,324.68,0.0008758889964902505,0.0008696778491202658,aapl,20200213
2020-02-13,10:06,10:06 AM,324.865,324.67,324.776,700,227343.0,5,324.92,324.67,324.785,52904,17182412.2001,278,324.685,324.835,324.73,324.806,0.0016469180426964792,0.0016252490300934556,aapl,20200213
2020-02-13,10:07,10:07 AM,324.91,324.74,324.832,501,162740.74,6,324.96,324.7,324.85,46739,15183170.5275,229,324.76,324.79,324.8,324.833,0.0018196285490466224,0.001825706690351638,aapl,20200213
2020-02-13,10:08,10:08 AM,325.1,324.95,325.012,600,195007.5,6,325.181,324.84,325.033,74420,24188949.1821,359,324.97,324.95,324.86,324.93,0.002374769462315128,0.002390072103078518,aapl,20200213
2020-02-13,10:09,10:09 AM,324.92,324.68,324.801,700,227361.0,7,324.98,324.55,324.749,70230,22807148.7827,405,324.92,324.68,324.98,324.77,0.0017240209473170318,0.001514226325950454,aapl,20200213
2020-02-13,10:10,10:10 AM,324.92,324.92,324.92,100,32492.0,1,325.06,324.739,324.944,84667,27512044.5033,437,324.92,324.92,324.74,324.975,0.0020910307733112837,0.0021155993067250014,aapl,20200213
2020-02-13,10:11,10:11 AM,324.99,324.87,324.934,500,162467.0,5,325.11,324.81,324.968,52605,17094961.3224,336,324.92,324.99,324.994,325.01,0.0021342083998988634,0.002189614442820336,aapl,20200213
2020-02-13,10:12,10:12 AM,325.09,324.96,325.029,611,198592.89,8,325.15,324.879,325.036,48077,15626757.3245,251,325.02,325.09,324.96,325.095,0.002427199437457139,0.0023993239950903912,aapl,20200213
2020-02-13,10:13,10:13 AM,325.08,325.03,325.063,300,97519.0,3,325.19,324.93,325.075,52265,16990063.3867,265,325.03,325.08,325.09,325.18,0.002532059387741161,0.0025195985912452655,aapl,20200213
2020-02-13,10:14,10:14 AM,325.215,325.11,325.181,938,305020.1,10,325.27,325.1,325.188,50082,16286046.7203,288,325.215,325.145,325.2,325.121,0.0028959850975504853,0.0028680865236941164,aapl,20200213
2020-02-13,10:15,10:15 AM,325.22,325.1,325.191,602,195764.81,11,325.27,325.1,325.181,40489,13166263.7447,191,325.1,325.16,325.1,325.15,0.0029268262593987065,0.002846498775666296,aapl,20200213
2020-02-13,10:16,10:16 AM,325.14,324.83,324.928,2667,866583.76,28,325.185,324.82,324.974,73379,23846292.5189,341,325.14,324.97,325.16,324.985,0.0021157037027898255,0.0022081182268440815,aapl,20200213
2020-02-13,10:17,10:17 AM,325.06,324.96,325.007,600,195004.0,6,325.12,324.9,325.008,48373,15721598.5334,306,324.96,325.03,325.011,325.03,0.0023593488813910177,0.0023129730029791094,aapl,20200213
2020-02-13,10:18,10:18 AM,325.0,324.92,324.95,800,259960.0,8,325.04,324.88,324.957,41348,13436312.1722,249,324.98,324.92,325.03,324.94,0.002183554258855947,0.0021556908387765678,aapl,20200213
2020-02-13,10:19,10:19 AM,325.01,324.93,324.971,300,97491.2,4,325.09,324.88,324.978,55512,18040204.5636,311,324.96,324.93,324.936,324.92,0.0022483206987373165,0.0022204540828600293,aapl,20200213
2020-02-13,10:20,10:20 AM,324.7,324.49,324.604,552,179181.2,6,324.935,324.43,324.629,87663,28457972.181,361,324.7,324.49,324.935,324.532,0.0011164500589065153,0.0011441506454737825,aapl,20200213
2020-02-13,10:21,10:21 AM,324.54,324.36,324.465,1016,329656.645,21,324.588,324.34,324.479,46916,15223262.1672,260,324.54,324.4,324.551,324.38,0.0006877579092158213,0.0006815560448778555,aapl,20200213
2020-02-13,10:22,10:22 AM,324.4,324.32,324.36,200,64872.0,2,324.55,324.25,324.35,92703,30068181.8557,370,324.4,324.32,324.38,324.42,0.0003639257098093245,0.000283724688365565,aapl,20200213
2020-02-13,10:23,10:23 AM,324.56,324.52,324.547,300,97364.0,3,324.59,324.42,324.521,51788,16806287.7342,269,324.52,324.56,324.42,324.531,0.0009406554363716199,0.0008110825330447781,aapl,20200213
2020-02-13,10:24,10:24 AM,324.44,324.4,324.416,500,162208.0,4,324.64,324.37,324.473,39286,12747233.9217,187,324.4,324.44,324.52,324.39,0.0005366362161594678,0.0006630522608541095,aapl,20200213
2020-02-13,10:25,10:25 AM,324.2,324.13,324.189,213,69052.18,4,324.43,324.11,324.243,77972,25281902.7948,331,324.13,324.2,324.4,324.201,-0.00016345815779571205,-4.625946005954011e-05,aapl,20200213
2020-02-13,10:26,10:26 AM,324.04,323.87,323.967,200,64793.45,3,324.25,323.85,324.034,111460,36116862.8005,573,324.04,323.87,324.193,324.015,-0.0008481319508269567,-0.0006908079368897284,aapl,20200213
2020-02-13,10:27,10:27 AM,324.155,324.045,324.098,1102,357155.8,11,324.19,324.01,324.087,63612,20615820.7704,334,324.07,324.1,324.01,324.051,-0.00044411273061480453,-0.0005273578446792131,aapl,20200213
2020-02-13,10:28,10:28 AM,324.06,323.9,324.041,801,259556.9,8,324.09,323.67,323.905,71095,23028045.7025,345,324.06,323.9,324.06,323.68,-0.0006199073531498752,-0.0010886392934021942,aapl,20200213
2020-02-13,10:29,10:29 AM,323.95,323.73,323.866,1001,324190.25,11,324.0,323.58,323.772,99580,32241194.5781,494,323.73,323.93,323.66,323.99,-0.0011596276854942702,-0.001498806505930432,aapl,20200213
2020-02-13,10:30,10:30 AM,324.125,324.0,324.054,500,162027.0,5,324.13,323.87,324.029,54766,17745789.237,328,324.0,324.07,323.99,324.06,-0.0005798138427472228,-0.0007062277569095751,aapl,20200213
2020-02-13,10:31,10:31 AM,324.11,323.94,324.025,201,65128.95,3,324.12,323.9,323.952,50483,16354052.7812,195,324.11,323.95,324.09,323.93,-0.0006692532121071341,-0.0009436929852154247,aapl,20200213
2020-02-13,10:32,10:32 AM,,,,0,0.0,0,323.955,323.73,323.808,60088,19457008.5014,312,,,323.93,323.8,,-0.0013877838017874306,aapl,20200213
2020-02-13,10:33,10:33 AM,323.99,323.7,323.805,157,50837.43,3,324.0,323.639,323.803,44127,14288433.4175,255,323.7,323.99,323.79,323.97,-0.0013477587727685242,-0.0014032036218072773,aapl,20200213
2020-02-13,10:34,10:34 AM,324.185,324.05,324.119,368,119275.69,7,324.24,323.94,324.116,82382,26701296.4527,349,324.05,324.175,323.985,324.14,-0.000379346290733435,-0.00043792288856403207,aapl,20200213
2020-02-13,10:35,10:35 AM,324.15,324.13,324.14,300,97242.0,4,324.29,323.99,324.159,48073,15583296.409,267,324.13,324.15,324.136,324.215,-0.0003145798508522409,-0.00030531243639321016,aapl,20200213
2020-02-13,10:36,10:36 AM,324.09,324.01,324.064,400,129625.5,4,324.21,323.82,324.001,39067,12657736.8437,236,324.09,324.01,324.21,324.02,-0.0005489726808988264,-0.0007925787490208569,aapl,20200213
2020-02-13,10:37,10:37 AM,,,,0,0.0,0,324.137,323.77,323.934,52547,17021758.2162,276,,,324.044,323.938,,-0.0009992043372868378,aapl,20200213
2020-02-13,10:38,10:38 AM,323.85,323.74,323.798,500,161899.0,6,324.02,323.7,323.788,53944,17466447.6265,239,323.85,323.75,323.95,323.84,-0.001369347586062314,-0.0014494630818668174,aapl,20200213
2020-02-13,10:39,10:39 AM,323.88,323.665,323.857,305,98776.34,5,323.9,323.6,323.744,66035,21378448.4349,328,323.875,323.67,323.84,323.71,-0.001187384731157564,-0.0015851574980415386,aapl,20200213
2020-02-13,10:40,10:40 AM,323.93,323.64,323.737,300,97121.0,3,323.97,323.54,323.774,72592,23503425.7124,362,323.64,323.93,323.71,323.935,-0.0015574786733365679,-0.0014926385779224583,aapl,20200213
2020-02-13,10:41,10:41 AM,323.97,323.92,323.94,165,53450.05,3,324.1,323.85,323.981,49988,16195177.6919,242,323.92,323.97,323.95,324.09,-0.0009314030878171887,-0.0008542580291002437,aapl,20200213
2020-02-13,10:42,10:42 AM,324.12,324.09,324.107,300,97232.0,4,324.18,323.95,324.075,37993,12312602.5437,237,324.12,324.09,324.12,324.04,-0.00041635568495133543,-0.0005643654127268803,aapl,20200213
2020-02-13,10:43,10:43 AM,324.29,324.175,324.245,1102,357318.55,8,324.342,324.03,324.247,85613,27759797.443,254,324.175,324.24,324.046,324.28,9.252348554431266e-06,-3.392360404359263e-05,aapl,20200213
2020-02-13,10:44,10:44 AM,324.5,324.32,324.405,600,194643.0,4,324.524,324.2,324.393,69534,22556349.6914,316,324.32,324.5,324.25,324.49,0.0005027109381263194,0.0004163351405362116,aapl,20200213
2020-02-13,10:45,10:45 AM,324.535,324.47,324.493,2620,850170.9,15,324.57,324.43,324.508,55234,17923878.852,308,324.525,324.47,324.5,324.43,0.0007741131623909806,0.0007709910009930364,aapl,20200213
2020-02-13,10:46,10:46 AM,324.65,324.535,324.567,1700,551764.5,12,324.72,324.47,324.608,54467,17680400.9165,275,324.535,324.65,324.49,324.65,0.0010023377600680622,0.0010793874013903212,aapl,20200213
2020-02-13,10:47,10:47 AM,324.81,324.71,324.764,900,292288.0,9,324.824,324.65,324.762,68325,22189363.9938,322,324.71,324.75,324.66,324.75,0.0016099086484785787,0.0015543178580020205,aapl,20200213
2020-02-13,10:48,10:48 AM,324.93,324.735,324.827,1200,389792.5,12,324.94,324.67,324.852,62096,20172015.6861,254,324.735,324.92,324.745,324.92,0.0018042079681225118,0.0018318746183594364,aapl,20200213
2020-02-13,10:49,10:49 AM,324.94,324.67,324.784,542,176032.96,6,324.97,324.65,324.816,67615,21962410.9549,301,324.94,324.725,324.92,324.69,0.001671590972175021,0.001720851914216435,aapl,20200213
2020-02-13,10:50,10:50 AM,324.915,324.625,324.737,6291,2042919.045,28,324.93,324.61,324.772,68457,22232942.719,328,324.635,324.915,324.7,324.93,0.0015266375114883466,0.0015851574980417138,aapl,20200213
2020-02-13,10:51,10:51 AM,325.185,325.0,325.061,1300,422579.5,13,325.2,324.93,325.053,112191,36467974.4766,420,325.03,325.185,324.93,325.2,0.0025258911553714815,0.002451751383157905,aapl,20200213
2020-02-13,10:52,10:52 AM,325.215,325.065,325.14,855,277994.825,8,325.23,325.04,325.154,55012,17887360.9775,286,325.215,325.13,325.19,325.14,0.0027695363339726737,0.002763231747559089,aapl,20200213
2020-02-13,10:53,10:53 AM,325.3,325.18,325.246,1300,422819.5,12,325.31,325.15,325.253,65841,21414969.2229,330,325.2,325.3,325.17,325.231,0.003096452649564098,0.003068544183952299,aapl,20200213
2020-02-13,10:54,10:54 AM,325.26,325.08,325.183,500,162591.5,5,325.346,325.05,325.218,67065,21810769.6038,383,325.23,325.185,325.25,325.24,0.0029021533299201647,0.002960605443813372,aapl,20200213
2020-02-13,10:55,10:55 AM,325.13,325.03,325.087,1400,455122.0,13,325.26,324.97,325.114,42258,13738670.3848,254,325.03,325.13,325.25,325.145,0.0026060781761769614,0.00263987318740014,aapl,20200213
2020-02-13,10:56,10:56 AM,325.23,325.07,325.177,900,292659.0,9,325.25,325.03,325.149,31048,10095226.2036,184,325.07,325.23,325.125,325.25,0.002883648632811302,0.002747811927539242,aapl,20200213
2020-02-13,10:57,10:57 AM,325.32,325.225,325.271,1296,421551.41,14,325.35,325.21,325.269,52086,16941961.4492,328,325.27,325.24,325.25,325.245,0.003173555554184826,0.003117887608015914,aapl,20200213
2020-02-13,10:58,10:58 AM,325.475,325.345,325.379,450,146420.75,5,325.48,325.21,325.354,62855,20450111.8828,393,325.345,325.475,325.23,325.4,0.0035066401021459294,0.003380024548353483,aapl,20200213
2020-02-13,10:59,10:59 AM,325.48,325.37,325.414,1700,553203.5,13,325.49,325.31,325.422,42201,13733123.4619,223,325.4,325.37,325.42,325.33,0.003614584168614703,0.0035897341006237136,aapl,20200213
2020-02-13,11:00,11 AM,325.42,325.33,325.36,1334,434030.72,10,325.49,325.31,325.4,70524,22948528.7096,320,325.33,325.41,325.34,325.36,0.003448041894634239,0.003521886892536178,aapl,20200213
2020-02-13,11:01,11:01 AM,325.42,325.31,325.335,1201,390726.92,9,325.55,325.26,325.435,79012,25713236.192,409,325.33,325.42,325.36,325.483,0.003370938990013511,0.00362982563267528,aapl,20200213
2020-02-13,11:02,11:02 AM,325.56,325.41,325.489,852,277316.62,10,325.6,325.4,325.501,86542,28169545.8017,317,325.49,325.54,325.5,325.585,0.003845892882476537,0.003833367256937362,aapl,20200213
2020-02-13,11:03,11:03 AM,325.565,325.47,325.511,700,227858.0,7,325.59,325.4,325.517,39225,12768399.3572,214,325.52,325.485,325.587,325.57,0.003913743438542833,0.0038827106810009763,aapl,20200213
2020-02-13,11:04,11:04 AM,325.54,325.5,325.518,111,36132.54,3,325.585,325.42,325.523,22722,7396533.9114,136,325.54,325.5,325.56,325.514,0.003935332251836448,0.0039012144650248976,aapl,20200213
2020-02-13,11:05,11:05 AM,325.5,325.19,325.325,226,73523.48,4,325.52,325.15,325.358,34268,11149367.5043,188,325.5,325.19,325.52,325.16,0.00334009782816529,0.0033923604043694304,aapl,20200213
2020-02-13,11:06,11:06 AM,325.2,325.19,325.19,57,18535.85,2,325.267,325.1,325.184,53160,17286802.2361,219,325.2,325.19,325.18,325.21,0.0029237421432139546,0.0028557506676783443,aapl,20200213
2020-02-13,11:07,11:07 AM,325.29,325.16,325.225,200,65045.0,2,325.34,325.115,325.243,30394,9885431.8086,179,325.16,325.29,325.214,325.22,0.0030316862096829034,0.0030377045439126055,aapl,20200213
2020-02-13,11:08,11:08 AM,325.255,325.01,325.163,517,168109.57,6,325.26,325.0,325.098,35581,11567324.3462,178,325.245,325.05,325.216,325.05,0.0028404710062237223,0.0025905297633367005,aapl,20200213
2020-02-13,11:09,11:09 AM,325.16,325.0,325.118,249,80954.5,3,325.17,324.99,325.08,30662,9967599.9077,180,325.16,325.0,325.054,324.99,0.0027016857779065522,0.0025350184112651122,aapl,20200213
2020-02-13,11:10,11:10 AM,325.19,325.19,325.19,100,32519.0,1,325.19,324.98,325.091,50065,16275697.703,174,325.19,325.19,324.99,325.18,0.0029237421432139546,0.0025689420153088803,aapl,20200213
2020-02-13,11:11,11:11 AM,,,,0,0.0,0,325.47,325.2,325.325,60029,19528951.1519,298,,,325.2,325.24,,0.003290589592238302,aapl,20200213
2020-02-13,11:12,11:12 AM,325.34,325.26,325.31,500,162655.0,5,325.39,325.21,325.287,31065,10105052.4495,116,325.26,325.33,325.25,325.37,0.0032938360853929584,0.003173398960087327,aapl,20200213
2020-02-13,11:13,11:13 AM,325.45,325.28,325.382,600,195229.0,6,325.47,325.28,325.384,27343,8896962.5788,169,325.45,325.37,325.37,325.35,0.0035158924507003603,0.0034725434684727387,aapl,20200213
2020-02-13,11:14,11:14 AM,325.36,325.345,325.348,204,66370.94,3,325.375,325.23,325.305,15152,4929013.8384,113,325.345,325.36,325.345,325.31,0.0034110325004163386,0.0032289103121589152,aapl,20200213
2020-02-13,11:15,11:15 AM,325.215,325.18,325.197,200,65039.5,2,325.32,325.07,325.159,27430,8919115.3918,142,325.215,325.18,325.32,325.088,0.0029453309565077444,0.0027786515675789357,aapl,20200213
2020-02-13,11:16,11:16 AM,,,,0,0.0,0,325.22,325.02,325.13,17094,5557768.3044,105,,,325.06,325.15,,0.0026892166114637545,aapl,20200213
2020-02-13,11:17,11:17 AM,325.15,325.13,325.13,101,32838.15,2,325.17,325.08,325.135,26751,8697697.4154,146,325.15,325.13,325.162,325.13,0.0027386951721244525,0.0027046364314836013,aapl,20200213
2020-02-13,11:18,11:18 AM,325.28,325.145,325.242,425,138227.75,5,325.31,325.1,325.239,32740,10648336.0447,173,325.145,325.265,325.14,325.31,0.0030841161848249145,0.003025368687896658,aapl,20200213
2020-02-13,11:19,11:19 AM,,,,0,0.0,0,325.44,325.223,325.36,14776,4807514.106,108,,,325.305,325.4,,0.0033985283323774043,aapl,20200213
2020-02-13,11:20,11:20 AM,325.48,325.455,325.457,110,35800.3,2,325.64,325.41,325.543,80976,26361196.6077,260,325.455,325.48,325.41,325.5,0.003747201164562194,0.003962893745104284,aapl,20200213
2020-02-13,11:21,11:21 AM,325.72,325.61,325.639,405,131883.6,5,325.73,325.52,325.628,72946,23753250.3144,284,325.72,325.64,325.53,325.56,0.004308510310200379,0.004225030685441854,aapl,20200213
2020-02-13,11:22,11:22 AM,,,,0,0.0,0,325.599,325.508,325.563,22187,7223259.4162,129,,,325.56,325.573,,0.004024573025183671,aapl,20200213
2020-02-13,11:23,11:23 AM,325.67,325.61,325.627,195,63497.25,2,325.68,325.58,325.627,24558,7996748.9447,103,325.61,325.67,325.58,325.664,0.004271500915982478,0.004221946721437954,aapl,20200213
2020-02-13,11:24,11:24 AM,325.67,325.61,325.641,210,68384.56,5,325.7,325.59,325.65,42231,13752513.0561,179,325.61,325.64,325.663,325.63,0.004314678542570058,0.004292877893529215,aapl,20200213
2020-02-13,11:25,11:25 AM,325.56,325.52,325.54,200,65108.0,2,325.63,325.431,325.535,45694,14874988.1464,159,325.56,325.52,325.61,325.5,0.004003182807902745,0.0039382220330725646,aapl,20200213
2020-02-13,11:26,11:26 AM,325.42,325.38,325.407,150,48811.0,3,325.56,325.335,325.443,36515,11883552.1214,148,325.42,325.38,325.503,325.37,0.003592995355320913,0.003654497344707,aapl,20200213
2020-02-13,11:27,11:27 AM,325.43,325.43,325.43,100,32543.0,1,325.52,325.36,325.457,30085,9791377.376,152,325.43,325.43,325.383,325.52,0.003663930027571962,0.003697672840762641,aapl,20200213
2020-02-13,11:28,11:28 AM,325.37,325.36,325.365,200,65073.0,2,325.52,325.32,325.402,20004,6509343.6995,110,325.36,325.37,325.503,325.33,0.0034634624755583497,0.003528054820544152,aapl,20200213
2020-02-13,11:29,11:29 AM,325.33,325.33,325.33,1,325.33,1,325.47,325.3,325.385,30023,9769020.1772,179,325.33,325.33,325.35,325.3,0.0033555184090894004,0.0034756274324766376,aapl,20200213
2020-02-13,11:30,11:30 AM,325.505,325.32,325.385,600,195231.0,6,325.53,325.27,325.415,34428,11203393.7602,159,325.32,325.505,325.29,325.52,0.0035251447992547917,0.0035681463525958934,aapl,20200213
2020-02-13,11:31,11:31 AM,,,,0,0.0,0,325.623,325.459,325.541,32671,10635753.8361,167,,,325.524,325.48,,0.003956725817096311,aapl,20200213
2020-02-13,11:32,11:32 AM,325.515,325.495,325.496,310,100903.65,4,325.55,325.43,325.472,29178,9496615.423,101,325.495,325.515,325.495,325.47,0.0038674816957703266,0.0037439323008221807,aapl,20200213
2020-02-13,11:33,11:33 AM,325.49,325.455,325.481,168,54680.79,4,325.51,325.395,325.456,22496,7321461.3355,137,325.48,325.49,325.461,325.46,0.0038212199529979946,0.0036945888767587415,aapl,20200213
2020-02-13,11:34,11:34 AM,325.45,325.45,325.45,200,65090.0,2,325.49,325.39,325.443,9824,3197152.8175,49,325.45,325.45,325.49,325.43,0.0037256123512684042,0.003654497344707,aapl,20200213
2020-02-13,11:35,11:35 AM,325.575,325.55,325.562,250,81390.5,3,325.59,325.395,325.51,34375,11189401.2292,163,325.575,325.55,325.43,325.53,0.004071033363968866,0.003861122932973156,aapl,20200213
2020-02-13,11:36,11:36 AM,325.4,325.23,325.315,200,65063.0,2,325.54,325.07,325.251,60303,19613620.1956,363,325.4,325.23,325.525,325.22,0.003309256666317069,0.0030623762559443255,aapl,20200213
2020-02-13,11:37,11:37 AM,325.0,324.84,324.886,503,163417.79,7,325.23,324.77,324.955,133039,43231709.3219,622,325.0,324.87,325.23,324.951,0.001986170823027262,0.002149522910768594,aapl,20200213
2020-02-13,11:38,11:38 AM,325.09,325.06,325.084,250,81271.0,3,325.12,324.94,325.027,35351,11490047.1368,169,325.09,325.06,324.95,325.04,0.0025968258276225305,0.002371568319054597,aapl,20200213
2020-02-13,11:39,11:39 AM,325.13,325.09,325.097,302,98179.26,4,325.16,325.04,325.106,25964,8441067.601,116,325.1,325.13,325.04,325.106,0.0026369193380251827,0.00261520147536842,aapl,20200213
2020-02-13,11:40,11:40 AM,325.06,325.06,325.06,100,32506.0,1,325.186,325.01,325.09,22354,7267060.5036,123,325.06,325.06,325.107,325.055,0.0025228070391867296,0.0025658580513048057,aapl,20200213
2020-02-13,11:41,11:41 AM,325.095,325.09,325.092,200,65018.5,2,325.11,325.01,325.068,15887,5164358.6329,93,325.09,325.095,325.06,325.04,0.0026214987571010723,0.0024980108432174452,aapl,20200213
2020-02-13,11:42,11:42 AM,325.1,324.92,325.01,200,65002.0,2,325.15,324.91,325.055,31550,10255474.1088,160,324.92,325.1,325.05,325.133,0.0023686012299454487,0.002457919311165879,aapl,20200213
2020-02-13,11:43,11:43 AM,325.09,325.035,325.047,500,162523.5,5,325.135,324.91,325.029,22852,7427569.3751,126,325.09,325.04,325.135,324.96,0.0024827135287840774,0.0023777362470625706,aapl,20200213
2020-02-13,11:44,11:44 AM,325.12,325.055,325.085,298,96875.26,3,325.149,325.01,325.096,9983,3245430.963,60,325.055,325.12,325.01,325.11,0.0025999099438072824,0.002584361835328727,aapl,20200213
2020-02-13,11:45,11:45 AM,325.185,325.09,325.129,327,106317.225,4,325.207,325.04,325.12,15153,4926542.7724,100,325.175,325.1,325.08,325.07,0.0027356110559397006,0.002658376971424061,aapl,20200213
2020-02-13,11:46,11:46 AM,325.18,325.09,325.135,200,65027.0,3,325.184,325.08,325.137,8079,2626785.822,45,325.09,325.18,325.1,325.177,0.0027541157530485633,0.002710804359491575,aapl,20200213
2020-02-13,11:47,11:47 AM,325.17,325.13,325.15,200,65030.0,2,325.196,325.02,325.108,20691,6726820.0693,115,325.17,325.13,325.175,325.09,0.002800377495820895,0.002621369403376394,aapl,20200213
2020-02-13,11:48,11:48 AM,324.93,324.765,324.848,300,97454.5,3,325.11,324.75,324.952,58913,19143900.6704,276,324.93,324.765,325.07,324.77,0.0018689744080038814,0.002140271018756721,aapl,20200213
2020-02-13,11:49,11:49 AM,324.96,324.945,324.952,200,64990.5,2,325.01,324.77,324.9,23199,7537346.2835,146,324.945,324.96,324.796,324.9,0.0021897224912256264,0.001979904890550105,aapl,20200213
2020-02-13,11:50,11:50 AM,325.1,324.88,324.969,600,194981.5,6,325.1,324.86,324.988,23919,7773398.1993,132,324.88,325.1,324.9,325.05,0.002242152466367637,0.0022512937228997224,aapl,20200213
2020-02-13,11:51,11:51 AM,325.08,325.05,325.071,781,253880.28,7,325.093,325.035,325.068,18694,6076814.177,119,325.08,325.08,325.051,325.06,0.002556732317219878,0.0024980108432174452,aapl,20200213
2020-02-13,11:52,11:52 AM,325.035,325.02,325.027,200,65005.5,2,325.07,324.98,325.023,13293,4320530.718,75,325.02,325.035,325.05,325.03,0.0024210312050874597,0.002359232463038825,aapl,20200213
2020-02-13,11:53,11:53 AM,325.02,324.96,324.998,460,149499.2,4,325.068,324.933,325.003,13455,4372913.9927,84,325.02,324.96,325.02,324.95,0.0023315918357275484,0.0022975531829592627,aapl,20200213
2020-02-13,11:54,11:54 AM,324.98,324.94,324.958,500,162479.0,4,325.005,324.919,324.954,15579,5062466.7959,112,324.96,324.95,324.95,324.96,0.002208227188334664,0.002146438946764695,aapl,20200213
2020-02-13,11:55,11:55 AM,325.035,324.91,324.946,1700,552409.0,11,325.1,324.91,325.022,40871,13283973.2272,114,324.91,325.03,324.938,325.08,0.0021712177941167637,0.0023561484990347503,aapl,20200213
2020-02-13,11:56,11:56 AM,325.18,325.13,325.149,1400,455209.0,4,325.24,325.1,325.169,50935,16562472.8801,180,325.13,325.15,325.1,325.11,0.002797293379636143,0.0028094912076186292,aapl,20200213
2020-02-13,11:57,11:57 AM,325.015,325.01,325.012,200,65002.5,2,325.09,324.98,325.022,15813,5139570.5797,89,325.01,325.015,325.09,325.06,0.002374769462315128,0.0023561484990347503,aapl,20200213
2020-02-13,11:58,11:58 AM,325.13,325.11,325.12,200,65024.0,2,325.16,325.039,325.091,20833,6772622.948,143,325.11,325.13,325.039,325.07,0.0027078540102762317,0.0025689420153088803,aapl,20200213
2020-02-13,11:59,11:59 AM,325.01,324.99,324.997,300,97499.0,3,325.07,324.95,325.004,28665,9316229.704,124,325.01,324.99,325.06,324.99,0.0023285077195427965,0.0023006371469633372,aapl,20200213
2020-02-13,12:00,12 PM,325.07,325.01,325.04,200,65008.0,2,325.12,324.969,325.071,17867,5808038.1501,96,325.01,325.07,324.98,325.11,0.0024611247154902875,0.0025072627352294933,aapl,20200213
2020-02-13,12:01,12:01 PM,325.06,325.06,325.06,100,32506.0,1,325.1,325.01,325.057,5782,1879479.901,46,325.06,325.06,325.1,325.04,0.0025228070391867296,0.0024640872391738524,aapl,20200213
2020-02-13,12:02,12:02 PM,325.28,324.955,325.082,300,97524.5,3,325.32,324.92,325.139,84969,27626756.3943,431,324.955,325.28,325.025,325.258,0.002590657595252851,0.0027169722874995487,aapl,20200213
2020-02-13,12:03,12:03 PM,325.465,325.29,325.376,400,130150.5,4,325.55,325.27,325.432,58695,19101219.8062,304,325.29,325.45,325.27,325.45,0.003497387753591323,0.003620573740663407,aapl,20200213
2020-02-13,12:04,12:04 PM,325.37,325.31,325.323,700,227726.0,4,325.47,325.3,325.372,37447,12184205.5618,244,325.37,325.31,325.45,325.3,0.0033339295957956106,0.0034355359004250713,aapl,20200213
2020-02-13,12:05,12:05 PM,325.38,325.365,325.372,300,97611.5,3,325.43,325.277,325.368,13992,4552549.3492,102,325.37,325.365,325.277,325.34,0.0034850512888521396,0.003423200044409124,aapl,20200213
2020-02-13,12:06,12:06 PM,325.47,325.47,325.47,100,32547.0,1,325.5,325.34,325.42,28805,9373721.083,144,325.47,325.47,325.36,325.486,0.003787294674965022,0.00358356617261574,aapl,20200213
2020-02-13,12:07,12:07 PM,,,,0,0.0,0,325.56,325.43,325.492,26299,8560124.8574,123,,,325.47,325.535,,0.003805611580901743,aapl,20200213
2020-02-13,12:08,12:08 PM,325.59,325.57,325.58,200,65116.0,2,325.62,325.52,325.584,28602,9312355.1652,137,325.59,325.57,325.53,325.58,0.004126547455295629,0.004089336269267133,aapl,20200213
2020-02-13,12:09,12:09 PM,,,,0,0.0,0,325.6,325.47,325.537,31321,10196139.7858,179,,,325.58,325.545,,0.003944389961080363,aapl,20200213
2020-02-13,12:10,12:10 PM,325.63,325.63,325.63,100,32563.0,1,325.65,325.57,325.613,29034,9453855.463,112,325.63,325.63,325.58,325.58,0.00428075326453691,0.004178771225382314,aapl,20200213
2020-02-13,12:11,12:11 PM,325.58,325.42,325.517,165,53710.3,2,325.64,325.4,325.531,24392,7940343.4132,137,325.58,325.42,325.63,325.536,0.003932248135651696,0.003925886177056618,aapl,20200213
2020-02-13,12:12,12:12 PM,325.645,325.645,325.645,100,32564.5,1,325.8,325.54,325.704,45746,14899679.5215,199,325.645,325.645,325.54,325.726,0.004327015007309242,0.004459411949743804,aapl,20200213
2020-02-13,12:13,12:13 PM,325.7,325.7,325.7,100,32570.0,1,325.85,325.69,325.783,41623,13560055.3014,210,325.7,325.7,325.71,325.8,0.004496641397474633,0.004703045106057627,aapl,20200213
2020-02-13,12:14,12:14 PM,325.84,325.8,325.815,204,66466.36,3,325.89,325.75,325.842,45881,14949950.2267,208,325.8,325.83,325.815,325.829,0.004851314758729526,0.004884998982291889,aapl,20200213
2020-02-13,12:15,12:15 PM,325.905,325.73,325.801,853,277908.36,10,325.91,325.73,325.819,44206,14403157.515,205,325.82,325.905,325.826,325.861,0.004808137132141946,0.004814067810200629,aapl,20200213
2020-02-13,12:16,12:16 PM,325.95,325.945,325.945,105,34224.25,2,325.95,325.87,325.929,38121,12424755.8288,188,325.945,325.95,325.87,325.95,0.005252249862756751,0.005153303850637432,aapl,20200213
2020-02-13,12:17,12:17 PM,326.03,325.9,325.945,2700,880052.0,14,326.14,325.87,326.013,121126,39488645.0537,500,325.9,326.03,325.95,326.13,0.005252249862756751,0.005412356826971102,aapl,20200213
2020-02-13,12:18,12:18 PM,,,,0,0.0,0,326.21,326.1,326.162,45464,14828614.6693,220,,,326.12,326.21,,0.005871867463562955,aapl,20200213
2020-02-13,12:19,12:19 PM,326.105,326.08,326.08,900,293472.05,6,326.22,326.04,326.108,42190,13758488.5709,270,326.08,326.08,326.215,326.07,0.0056686055477080865,0.00570533340734854,aapl,20200213
2020-02-13,12:20,12:20 PM,326.06,325.92,325.999,490,159739.73,8,326.09,325.77,325.918,69314,22590702.2404,325,326.06,326.0,326.07,325.99,0.00541879213673739,0.005119380246593839,aapl,20200213
2020-02-13,12:21,12:21 PM,325.935,325.865,325.9,310,101029.1,4,325.988,325.83,325.91,25225,8221077.6051,162,325.935,325.9,325.976,325.97,0.005113464634439581,0.005094708534562119,aapl,20200213
2020-02-13,12:22,12:22 PM,325.945,325.945,325.945,100,32594.5,1,325.979,325.75,325.88,19471,6345207.2004,130,325.945,325.945,325.979,325.796,0.005252249862756751,0.005002189614442864,aapl,20200213
2020-02-13,12:23,12:23 PM,325.85,325.84,325.843,100,32584.29,2,325.88,325.79,325.83,25864,8427266.4456,158,325.85,325.84,325.79,325.82,0.0049376700119046855,0.004847991414244222,aapl,20200213
2020-02-13,12:24,12:24 PM,,,,0,0.0,0,325.83,325.66,325.721,36391,11853296.2024,191,,,325.83,325.765,,0.004511839337811318,aapl,20200213
2020-02-13,12:25,12:25 PM,325.785,325.72,325.756,400,130302.5,4,325.82,325.72,325.761,17626,5741863.7254,103,325.72,325.785,325.76,325.77,0.004669351903824776,0.004635197897970267,aapl,20200213
2020-02-13,12:26,12:26 PM,325.775,325.68,325.723,507,165141.61,6,325.79,325.64,325.714,28525,9290999.7158,163,325.73,325.68,325.77,325.64,0.004567576069725681,0.004490251589783498,aapl,20200213
2020-02-13,12:27,12:27 PM,325.51,325.5,325.505,204,66403.04,3,325.65,325.43,325.523,59394,19334097.8038,308,325.51,325.51,325.638,325.54,0.0038952387414337955,0.0039012144650248976,aapl,20200213
2020-02-13,12:28,12:28 PM,325.63,325.57,325.593,733,238659.81,8,325.64,325.53,325.595,17323,5640275.8162,109,325.59,325.57,325.54,325.55,0.004166640965698457,0.004123259873310901,aapl,20200213
2020-02-13,12:29,12:29 PM,325.585,325.56,325.573,944,307341.14,6,325.611,325.556,325.58,20665,6728107.2034,101,325.575,325.585,325.556,325.594,0.004104958642001839,0.004077000413251185,aapl,20200213
2020-02-13,12:30,12:30 PM,325.79,325.63,325.727,525,171006.75,6,325.8,325.59,325.717,29084,9473143.1496,151,325.63,325.79,325.59,325.72,0.004579912534464865,0.00449950348179537,aapl,20200213
2020-02-13,12:31,12:31 PM,325.72,325.72,325.72,100,32572.0,1,325.766,325.6,325.687,23326,7596977.7233,143,325.72,325.72,325.74,325.642,0.004558323721171251,0.004406984561676291,aapl,20200213
2020-02-13,12:32,12:32 PM,325.765,325.65,325.731,400,130292.5,4,325.78,325.636,325.74,17741,5778959.75,77,325.65,325.75,325.636,325.7,0.004592248999204223,0.004570434653886806,aapl,20200213
2020-02-13,12:33,12:33 PM,325.58,325.58,325.58,100,32558.0,1,325.716,325.51,325.591,19124,6226605.3026,106,325.58,325.58,325.716,325.584,0.004126547455295629,0.004110924017294953,aapl,20200213
2020-02-13,12:34,12:34 PM,325.63,325.59,325.611,404,131546.94,5,325.642,325.507,325.569,21022,6844110.2352,82,325.605,325.59,325.6,325.58,0.00422215505702522,0.004043076809207593,aapl,20200213
2020-02-13,12:35,12:35 PM,325.59,325.465,325.527,200,65105.5,2,325.6,325.42,325.471,26966,8776665.9855,110,325.59,325.465,325.6,325.44,0.003963089297499917,0.0037408483368182818,aapl,20200213
2020-02-13,12:36,12:36 PM,,,,0,0.0,0,325.45,325.239,325.347,30003,9761384.8796,160,,,325.434,325.291,,0.0033584368003256627,aapl,20200213
2020-02-13,12:37,12:37 PM,325.22,325.195,325.205,300,97561.5,3,325.304,325.152,325.233,43822,14252366.6297,188,325.2,325.22,325.3,325.27,0.002970003885986286,0.0030068649038729124,aapl,20200213
2020-02-13,12:38,12:38 PM,,,,0,0.0,0,325.32,325.19,325.244,21630,7035019.1462,100,,,325.285,325.25,,0.00304078850791668,aapl,20200213
2020-02-13,12:39,12:39 PM,325.23,325.23,325.23,100,32523.0,1,325.31,325.15,325.239,20046,6519745.2844,100,325.23,325.23,325.245,325.274,0.0030471067906070143,0.003025368687896658,aapl,20200213
2020-02-13,12:40,12:40 PM,325.4,325.29,325.347,300,97604.0,3,325.41,325.27,325.329,21770,7082411.983,132,325.29,325.35,325.27,325.325,0.0034079483842314115,0.0033029254482542496,aapl,20200213
2020-02-13,12:41,12:41 PM,,,,0,0.0,0,325.34,325.24,325.299,16445,5349540.0034,77,,,325.33,325.33,,0.003210406528134994,aapl,20200213
2020-02-13,12:42,12:42 PM,325.33,325.25,325.29,200,65058.0,3,325.355,325.19,325.283,22352,7270721.9254,92,325.33,325.25,325.34,325.22,0.003232153761696516,0.0031610631040715547,aapl,20200213
2020-02-13,12:43,12:43 PM,325.16,325.16,325.16,100,32516.0,1,325.214,325.084,325.136,29521,9598328.7213,130,325.16,325.16,325.2,325.11,0.0028312186576692914,0.002707720395487676,aapl,20200213
2020-02-13,12:44,12:44 PM,325.155,325.155,325.155,100,32515.5,1,325.21,325.04,325.075,26990,8773765.3705,123,325.155,325.155,325.08,325.21,0.0028157980767450053,0.0025195985912452655,aapl,20200213
2020-02-13,12:45,12:45 PM,325.33,325.26,325.296,502,163298.62,6,325.36,325.146,325.278,35450,11531093.2191,177,325.26,325.33,325.24,325.33,0.0032506584588053787,0.003145643284051708,aapl,20200213
2020-02-13,12:46,12:46 PM,325.38,325.3,325.344,500,162672.0,5,325.42,325.26,325.341,23296,7579136.1721,122,325.34,325.3,325.34,325.36,0.00339869603567698,0.0033399330163019166,aapl,20200213
2020-02-13,12:47,12:47 PM,325.45,325.36,325.405,204,66382.64,3,325.49,325.36,325.447,37598,12236169.3548,213,325.36,325.41,325.364,325.483,0.003586827122951234,0.0036668332007229474,aapl,20200213
2020-02-13,12:48,12:48 PM,325.41,325.41,325.41,100,32541.0,1,325.47,325.34,325.404,17903,5825712.304,88,325.41,325.41,325.46,325.34,0.0036022477038755198,0.0035342227485521253,aapl,20200213
2020-02-13,12:49,12:49 PM,325.37,325.31,325.327,400,130131.0,4,325.39,325.26,325.329,14214,4624232.9482,87,325.31,325.32,325.32,325.29,0.003346266060534969,0.0033029254482542496,aapl,20200213
2020-02-13,12:50,12:50 PM,325.33,325.3,325.325,200,65064.91,4,325.36,325.27,325.317,16430,5344953.1173,68,325.32,325.3,325.28,325.32,0.00334009782816529,0.0032659178802065822,aapl,20200213
2020-02-13,12:51,12:51 PM,325.43,325.35,325.388,500,162694.0,5,325.435,325.3,325.382,11196,3642979.552,76,325.35,325.43,325.3,325.4,0.003534397147809223,0.003466375540464765,aapl,20200213
2020-02-13,12:52,12:52 PM,325.5,325.48,325.495,201,65424.48,3,325.55,325.4,325.486,22461,7310733.4591,102,325.5,325.48,325.415,325.46,0.0038643975795855743,0.0037871077968778216,aapl,20200213
2020-02-13,12:53,12:53 PM,325.44,325.39,325.407,300,97622.0,3,325.472,325.38,325.433,9744,3171016.0875,50,325.39,325.44,325.45,325.472,0.003592995355320913,0.0036236577046673065,aapl,20200213
2020-02-13,12:54,12:54 PM,325.46,325.32,325.413,300,97624.0,5,325.508,325.3,325.412,18078,5882795.701,94,325.46,325.32,325.48,325.3,0.003611500052429951,0.003558894460583845,aapl,20200213
2020-02-13,12:55,12:55 PM,325.19,325.12,325.159,636,206800.84,6,325.33,325.05,325.19,46966,15272853.5639,211,325.18,325.12,325.3,325.05,0.002828134541484364,0.0028742544517020904,aapl,20200213
2020-02-13,12:56,12:56 PM,325.12,325.03,325.092,500,162546.0,5,325.17,325.01,325.078,31549,10255883.7328,145,325.09,325.1,325.045,325.04,0.0026214987571010723,0.0025288504832571383,aapl,20200213
2020-02-13,12:57,12:57 PM,,,,0,0.0,0,325.073,324.95,325.005,38080,12376209.4421,179,,,325.04,324.95,,0.0023037211109672366,aapl,20200213
2020-02-13,12:58,12:58 PM,324.8,324.4,324.574,503,163260.6,8,324.94,324.39,324.649,101764,33037576.9265,474,324.8,324.4,324.94,324.43,0.001023926573361852,0.0012058299255531693,aapl,20200213
2020-02-13,12:59,12:59 PM,324.755,324.42,324.517,1421,461138.92,8,324.76,324.399,324.604,49423,16042895.4904,229,324.42,324.755,324.43,324.62,0.0008481319508267814,0.0010670515453743738,aapl,20200213
2020-02-13,13:00,1 PM,324.755,324.755,324.755,100,32475.5,1,324.849,324.54,324.708,55411,17992416.0681,268,324.755,324.755,324.65,324.679,0.0015821516028151096,0.0013877838017876058,aapl,20200213
2020-02-13,13:01,1:01 PM,324.745,324.745,324.745,300,97423.5,1,324.866,324.68,324.773,21552,6999508.7257,114,324.745,324.745,324.69,324.85,0.0015513104409668886,0.0015882414620457884,aapl,20200213
2020-02-13,13:02,1:02 PM,324.85,324.85,324.85,50,16242.5,1,324.884,324.71,324.812,22291,7240373.1969,149,324.85,324.85,324.874,324.84,0.0018751426403735606,0.0017085160582006628,aapl,20200213
2020-02-13,13:03,1:03 PM,324.98,324.94,324.96,200,64992.0,2,325.06,324.8,324.925,38382,12471287.294,212,324.94,324.98,324.86,324.861,0.002214395420704168,0.0020570039906495138,aapl,20200213
2020-02-13,13:04,1:04 PM,324.875,324.765,324.808,1126,365733.35,8,324.92,324.707,324.802,24930,8097318.3697,124,324.875,324.765,324.86,324.76,0.0017456097606108217,0.0016776764181609693,aapl,20200213
2020-02-13,13:05,1:05 PM,324.86,324.73,324.791,700,227354.0,7,324.88,324.63,324.748,15400,5001116.6689,101,324.73,324.78,324.73,324.7,0.0016931797854688108,0.0015111423619463796,aapl,20200213
2020-02-13,13:06,1:06 PM,324.81,324.71,324.752,705,228950.175,6,324.83,324.66,324.738,41028,13323356.5862,203,324.71,324.75,324.721,324.75,0.0015728992542606783,0.001480302721906686,aapl,20200213
2020-02-13,13:07,1:07 PM,324.815,324.76,324.788,200,64957.5,2,324.85,324.75,324.798,24318,7898449.4102,101,324.815,324.76,324.8,324.84,0.0016839274369143795,0.001665340562145022,aapl,20200213
2020-02-13,13:08,1:08 PM,324.89,324.755,324.818,525,170529.75,6,324.89,324.72,324.8,18134,5889915.3156,116,324.77,324.755,324.822,324.72,0.0017764509224590427,0.0016715084901529956,aapl,20200213
2020-02-13,13:09,1:09 PM,324.77,324.655,324.744,1300,422167.0,10,324.77,324.58,324.689,24075,7816893.1134,164,324.655,324.74,324.73,324.75,0.0015482263247821365,0.0013291884857121183,aapl,20200213
2020-02-13,13:10,1:10 PM,324.915,324.69,324.84,300,97452.0,3,324.96,324.68,324.868,34589,11236879.7667,186,324.69,324.915,324.74,324.867,0.0018443014785251642,0.001881218042423051,aapl,20200213
2020-02-13,13:11,1:11 PM,324.94,324.92,324.93,200,64986.0,2,324.99,324.88,324.934,20247,6578940.816,83,324.94,324.92,324.88,324.885,0.002121871935159505,0.002084759666685308,aapl,20200213
2020-02-13,13:12,1:12 PM,,,,0,0.0,0,324.88,324.77,324.821,10877,3533079.986,79,,,324.88,324.83,,0.001736271734236457,aapl,20200213
2020-02-13,13:13,1:13 PM,324.705,324.6,324.684,2341,760084.53,13,324.82,324.57,324.689,31071,10088402.7294,155,324.7,324.6,324.82,324.58,0.0013631793536926346,0.0013291884857121183,aapl,20200213
2020-02-13,13:14,1:14 PM,324.675,324.55,324.612,900,292151.0,6,324.7,324.5,324.598,24752,8034451.198,120,324.55,324.675,324.582,324.69,0.0011411229883852324,0.0010485477613506277,aapl,20200213
2020-02-13,13:15,1:15 PM,324.68,324.44,324.547,819,265804.34,11,324.69,324.42,324.517,24622,7990251.701,153,324.68,324.46,324.67,324.442,0.0009406554363716199,0.0007987466770288306,aapl,20200213
2020-02-13,13:16,1:16 PM,324.825,324.44,324.629,1100,357091.64,12,324.826,324.4,324.638,55955,18165123.4743,259,324.44,324.825,324.4,324.82,0.0011935529635272433,0.0011719063215094015,aapl,20200213
2020-02-13,13:17,1:17 PM,324.99,324.91,324.963,301,97813.945,4,325.03,324.82,324.927,35336,11481606.5249,163,324.99,324.91,324.82,324.966,0.0022236477692587748,0.0020631719186574877,aapl,20200213
2020-02-13,13:18,1:18 PM,325.09,325.05,325.07,300,97521.0,3,325.13,324.93,325.056,53215,17297860.5374,197,325.05,325.07,324.95,325.13,0.0025536482010349508,0.002461003275169778,aapl,20200213
2020-02-13,13:19,1:19 PM,325.15,325.145,325.147,200,65029.5,2,325.24,325.11,325.153,21796,7087028.745,112,325.145,325.15,325.126,325.22,0.0027911251472664635,0.0027601477835551896,aapl,20200213
2020-02-13,13:20,1:20 PM,325.23,325.23,325.23,11,3577.53,1,325.39,325.17,325.275,42391,13788735.9148,232,325.23,325.23,325.21,325.18,0.0030471067906070143,0.0031363913920396595,aapl,20200213
2020-02-13,13:21,1:21 PM,325.095,325.08,325.087,603,196027.77,5,325.16,325.0,325.075,43006,13980169.0276,174,325.095,325.085,325.12,325.123,0.0026060781761769614,0.0025195985912452655,aapl,20200213
2020-02-13,13:22,1:22 PM,325.19,325.09,325.14,200,65028.0,2,325.2,325.054,325.113,15568,5061353.8883,91,325.09,325.19,325.12,325.055,0.0027695363339726737,0.002636789223396241,aapl,20200213
2020-02-13,13:23,1:23 PM,325.07,324.93,324.974,340,110491.35,5,325.07,324.92,324.978,18585,6039718.3676,113,325.07,324.95,325.05,324.96,0.0022575730472917475,0.0022204540828600293,aapl,20200213
2020-02-13,13:24,1:24 PM,324.95,324.84,324.918,403,130941.79,4,324.96,324.79,324.895,39015,12675774.5918,174,324.95,324.84,324.96,324.86,0.0020848625409416043,0.0019644850705302585,aapl,20200213
2020-02-13,13:25,1:25 PM,325.075,324.925,324.998,600,194998.5,6,325.087,324.834,324.982,30044,9763767.2596,124,324.925,325.075,324.834,325.06,0.0023315918357275484,0.0022327899388759767,aapl,20200213
2020-02-13,13:26,1:26 PM,325.09,325.09,325.09,100,32509.0,1,325.128,324.96,325.045,20776,6753125.73,115,325.09,325.09,325.03,325.004,0.002615330524731393,0.0024270796711261854,aapl,20200213
2020-02-13,13:27,1:27 PM,,,,0,0.0,0,325.14,325.016,325.089,20383,6626290.7237,50,,,325.02,325.14,,0.0025627740873009064,aapl,20200213
2020-02-13,13:28,1:28 PM,325.19,325.16,325.177,500,162588.5,5,325.28,325.116,325.208,34618,11258048.0825,159,325.18,325.17,325.13,325.224,0.002883648632811302,0.0029297658037736787,aapl,20200213
2020-02-13,13:29,1:29 PM,325.255,325.22,325.238,200,65047.5,2,325.27,325.19,325.238,36607,11905992.8213,113,325.22,325.255,325.21,325.25,0.003071779720085556,0.003022284723892759,aapl,20200213
2020-02-13,13:30,1:30 PM,325.09,325.05,325.076,350,113776.5,5,325.23,325.03,325.109,18021,5858793.827,102,325.09,325.09,325.23,325.03,0.0025721528981439887,0.0026244533673802934,aapl,20200213
2020-02-13,13:31,1:31 PM,325.14,325.05,325.104,403,131016.89,5,325.18,325.03,325.104,12613,4100541.9399,75,325.05,325.13,325.035,325.16,0.0026585081513189725,0.0026090335473604466,aapl,20200213
2020-02-13,13:32,1:32 PM,325.195,325.18,325.188,200,65037.5,3,325.21,325.15,325.187,15177,4935368.81,88,325.18,325.195,325.19,325.2,0.002917573910844275,0.0028650025596902175,aapl,20200213
2020-02-13,13:33,1:33 PM,325.27,325.215,325.238,300,97571.5,3,325.37,325.19,325.289,26140,8503048.055,127,325.215,325.27,325.19,325.35,0.003071779720085556,0.0031795668880953004,aapl,20200213
2020-02-13,13:34,1:34 PM,325.46,325.415,325.442,500,162721.0,5,325.476,325.33,325.405,20949,6816905.4858,120,325.46,325.415,325.35,325.38,0.0037009394217898625,0.0035373067125560246,aapl,20200213
2020-02-13,13:35,1:35 PM,325.38,325.38,325.38,100,32538.0,1,325.396,325.33,325.373,12317,4007617.3424,52,325.38,325.38,325.35,325.34,0.0035097242183306813,0.0034386198644289706,aapl,20200213
2020-02-13,13:36,1:36 PM,325.41,325.33,325.338,46,14965.55,3,325.41,325.3,325.363,14911,4851484.373,69,325.41,325.38,325.36,325.38,0.0033801913385681174,0.003407780224389277,aapl,20200213
2020-02-13,13:37,1:37 PM,325.45,325.41,325.43,200,65086.0,2,325.487,325.383,325.449,10524,3425025.2468,72,325.45,325.41,325.383,325.44,0.003663930027571962,0.003673001128730921,aapl,20200213
2020-02-13,13:38,1:38 PM,,,,0,0.0,0,325.46,325.39,325.421,16303,5305344.2862,79,,,325.425,325.44,,0.003586650136619639,aapl,20200213
2020-02-13,13:39,1:39 PM,325.49,325.49,325.49,100,32549.0,1,325.53,325.414,325.484,27361,8905557.1326,131,325.49,325.49,325.46,325.497,0.003848976998661464,0.003780939868869848,aapl,20200213
2020-02-13,13:40,1:40 PM,325.51,325.51,325.51,100,32551.0,1,325.57,325.42,325.491,26731,8700707.2807,141,325.51,325.51,325.49,325.52,0.003910659322357906,0.0038025276168976684,aapl,20200213
2020-02-13,13:41,1:41 PM,325.57,325.54,325.566,700,227896.0,4,325.6,325.52,325.565,26665,8681184.3513,120,325.54,325.57,325.527,325.58,0.004083369828708049,0.004030740953191645,aapl,20200213
2020-02-13,13:42,1:42 PM,325.605,325.445,325.513,700,227859.0,7,325.64,325.44,325.515,60230,19605774.8596,186,325.52,325.605,325.56,325.62,0.003919911670912338,0.0038765427529930028,aapl,20200213
2020-02-13,13:43,1:43 PM,325.63,325.615,325.621,300,97686.4,4,325.665,325.536,325.607,28247,9197418.13,107,325.62,325.615,325.623,325.615,0.00425299621887344,0.004160267441358567,aapl,20200213
2020-02-13,13:44,1:44 PM,,,,0,0.0,0,325.68,325.59,325.638,19501,6350272.4202,95,,,325.63,325.62,,0.004255870325481547,aapl,20200213
2020-02-13,13:45,1:45 PM,325.76,325.65,325.712,421,137124.92,6,325.78,325.62,325.696,33158,10799429.772,168,325.72,325.65,325.63,325.67,0.004533650791692533,0.004434740237712085,aapl,20200213
2020-02-13,13:46,1:46 PM,325.82,325.65,325.74,400,130296.0,4,325.93,325.59,325.737,63617,20722422.2002,384,325.8,325.65,325.68,325.7,0.004620006044867692,0.0045611827618749325,aapl,20200213
2020-02-13,13:47,1:47 PM,325.84,325.745,325.805,425,138467.165,6,325.86,325.71,325.775,31968,10414380.5343,172,325.775,325.83,325.72,325.84,0.004820473596881305,0.004678373394025733,aapl,20200213
2020-02-13,13:48,1:48 PM,325.83,325.83,325.83,100,32583.0,1,325.86,325.75,325.813,18421,6001798.7199,107,325.83,325.83,325.83,325.75,0.004897576501501858,0.004795564026176708,aapl,20200213
2020-02-13,13:49,1:49 PM,325.8,325.765,325.787,300,97736.0,3,325.82,325.65,325.716,26399,8598583.1823,144,325.795,325.765,325.769,325.67,0.004764959505554367,0.004496419517791471,aapl,20200213
2020-02-13,13:50,1:50 PM,325.66,325.66,325.66,100,32566.0,1,325.68,325.523,325.603,26339,8576071.2806,140,325.66,325.66,325.68,325.55,0.004373276750081748,0.00414793158534262,aapl,20200213
2020-02-13,13:51,1:51 PM,325.52,325.52,325.52,100,32552.0,1,325.75,325.45,325.586,35352,11510108.89,172,325.52,325.52,325.52,325.72,0.003941500484206127,0.004095504197275107,aapl,20200213
2020-02-13,13:52,1:52 PM,325.69,325.65,325.665,277,90209.13,3,325.74,325.59,325.653,25394,8269632.3032,156,325.69,325.66,325.73,325.66,0.0043886973310058594,0.004302129785541262,aapl,20200213
2020-02-13,13:53,1:53 PM,325.61,325.58,325.597,300,97679.0,3,325.66,325.51,325.589,17923,5835534.7798,105,325.58,325.61,325.65,325.58,0.00417897743043764,0.004104756089286979,aapl,20200213
2020-02-13,13:54,1:54 PM,325.6,325.53,325.555,400,130222.0,4,325.64,325.51,325.575,13110,4268295.5334,96,325.55,325.54,325.61,325.51,0.004049444550675076,0.004061580593231339,aapl,20200213
2020-02-13,13:55,1:55 PM,325.655,325.58,325.625,260,84662.6,4,325.69,325.531,325.631,19081,6213365.8343,105,325.58,325.635,325.55,325.61,0.004265332683612799,0.004234282577453727,aapl,20200213
2020-02-13,13:56,1:56 PM,325.635,325.63,325.633,300,97690.0,3,325.72,325.585,325.648,19391,6314641.3557,106,325.63,325.635,325.585,325.66,0.004290005613091341,0.004286709965521416,aapl,20200213
2020-02-13,13:57,1:57 PM,325.79,325.65,325.703,300,97711.0,3,325.85,325.614,325.748,26960,8782181.4903,150,325.65,325.79,325.659,325.85,0.0045058937460290644,0.004595106365918525,aapl,20200213
2020-02-13,13:58,1:58 PM,326.0,326.0,326.0,100,32600.0,1,326.04,325.81,325.938,63228,20608389.1229,279,326.0,326.0,325.84,326.04,0.005421876252922142,0.005181059526673226,aapl,20200213
2020-02-13,13:59,1:59 PM,325.925,325.78,325.828,300,97748.5,3,326.08,325.7,325.877,38135,12427304.2703,196,325.925,325.78,326.04,325.75,0.004891408269132178,0.004992937722430991,aapl,20200213
2020-02-13,14:00,2 PM,325.74,325.66,325.719,358,116607.52,5,325.76,325.61,325.706,20201,6579591.473,115,325.7,325.74,325.76,325.695,0.004555239604986323,0.004465579877751778,aapl,20200213
2020-02-13,14:01,2:01 PM,325.72,325.705,325.712,200,65142.5,2,325.77,325.65,325.712,24658,8031397.7078,123,325.705,325.72,325.729,325.759,0.004533650791692533,0.004484083661775524,aapl,20200213
2020-02-13,14:02,2:02 PM,,,,0,0.0,0,325.83,325.71,325.777,18315,5966614.213,115,,,325.74,325.816,,0.0046845413220337065,aapl,20200213
2020-02-13,14:03,2:03 PM,325.95,325.9,325.937,900,293343.0,6,325.985,325.81,325.912,20919,6817756.8662,125,325.9,325.95,325.82,325.98,0.005227576933278209,0.005100876462569918,aapl,20200213
2020-02-13,14:04,2:04 PM,326.14,325.955,326.061,161,52495.815,10,326.21,325.93,326.08,72903,23772226.2968,323,326.06,325.955,325.99,325.971,0.005610007340196396,0.0056189824152372584,aapl,20200213
2020-02-13,14:05,2:05 PM,326.04,325.96,326.0,709,231134.28,11,326.09,325.9,325.986,21571,7031846.872,131,325.975,326.04,325.975,326.03,0.005421876252922142,0.005329089798863895,aapl,20200213
2020-02-13,14:06,2:06 PM,325.975,325.79,325.844,315,102641.045,7,326.035,325.693,325.86,31758,10348676.5807,147,325.975,325.79,326.025,325.693,0.004940754128089437,0.004940510334363477,aapl,20200213
2020-02-13,14:07,2:07 PM,325.73,325.64,325.695,400,130278.0,4,325.813,325.59,325.712,25235,8219346.3146,154,325.69,325.64,325.705,325.61,0.004481220816550523,0.004484083661775524,aapl,20200213
2020-02-13,14:08,2:08 PM,325.65,325.59,325.623,300,97687.0,3,325.667,325.55,325.616,26194,8529182.1636,175,325.63,325.59,325.64,325.6,0.00425916445124312,0.004188023117394186,aapl,20200213
2020-02-13,14:09,2:09 PM,325.58,325.515,325.543,233,75851.495,4,325.62,325.451,325.542,23980,7806489.4972,91,325.58,325.515,325.59,325.5,0.004012435156457176,0.00395980978110021,aapl,20200213
2020-02-13,14:10,2:10 PM,325.58,325.52,325.561,317,103202.84,4,325.64,325.5,325.558,14183,4617394.2368,100,325.54,325.58,325.51,325.6,0.004067949247783939,0.004009153205163825,aapl,20200213
2020-02-13,14:11,2:11 PM,325.585,325.56,325.569,263,85624.735,4,325.66,325.54,325.592,18036,5872370.4356,112,325.57,325.56,325.59,325.62,0.004092622177262656,0.004114007981298852,aapl,20200213
2020-02-13,14:12,2:12 PM,,,,0,0.0,0,325.72,325.515,325.602,36668,11939171.49,239,,,325.62,325.52,,0.004144847621338546,aapl,20200213
2020-02-13,14:13,2:13 PM,325.45,325.45,325.45,100,32545.0,1,325.56,325.44,325.483,32626,10619223.8981,202,325.45,325.45,325.51,325.52,0.0037256123512684042,0.0037778559048659488,aapl,20200213
2020-02-13,14:14,2:14 PM,325.62,325.61,325.613,300,97684.0,3,325.71,325.54,325.612,17179,5593683.3459,102,325.61,325.62,325.54,325.632,0.004228323289394899,0.0041756872613784145,aapl,20200213
2020-02-13,14:15,2:15 PM,325.71,325.67,325.684,601,195736.175,8,325.73,325.59,325.673,21673,7058307.705,170,325.71,325.67,325.62,325.673,0.0044472955385175495,0.004363809065620649,aapl,20200213
2020-02-13,14:16,2:16 PM,325.61,325.32,325.44,842,274020.33,11,325.66,325.32,325.421,82226,26758101.9202,532,325.61,325.42,325.66,325.34,0.003694771189420183,0.003586650136619639,aapl,20200213
2020-02-13,14:17,2:17 PM,325.38,325.34,325.36,200,65072.0,2,325.42,325.29,325.368,28274,9199471.6737,153,325.34,325.38,325.32,325.36,0.003448041894634239,0.003423200044409124,aapl,20200213
2020-02-13,14:18,2:18 PM,325.33,325.31,325.315,368,119716.08,3,325.36,325.15,325.24,33132,10775843.9185,244,325.33,325.31,325.335,325.25,0.003309256666317069,0.0030284526519007327,aapl,20200213
2020-02-13,14:19,2:19 PM,325.37,325.28,325.317,300,97595.0,3,325.43,325.26,325.381,45863,14922969.7522,170,325.28,325.37,325.26,325.43,0.0033154248986867483,0.0034632915764606902,aapl,20200213
2020-02-13,14:20,2:20 PM,325.43,325.43,325.43,100,32543.0,1,325.45,325.38,325.421,45368,14763685.1381,237,325.43,325.43,325.43,325.41,0.003663930027571962,0.003586650136619639,aapl,20200213
2020-02-13,14:21,2:21 PM,325.43,325.37,325.412,451,146760.87,5,325.46,325.36,325.407,11216,3649768.719,63,325.37,325.43,325.395,325.454,0.0036084159362450236,0.0035434746405639986,aapl,20200213
2020-02-13,14:22,2:22 PM,325.515,325.46,325.488,200,65097.5,2,325.57,325.43,325.487,23956,7797366.9561,93,325.46,325.515,325.455,325.555,0.0038428087662917844,0.003790191760881896,aapl,20200213
2020-02-13,14:23,2:23 PM,325.595,325.57,325.582,200,65116.5,2,325.64,325.56,325.606,15973,5200897.59,125,325.595,325.57,325.56,325.59,0.004132715687665309,0.004157183477354493,aapl,20200213
2020-02-13,14:24,2:24 PM,325.53,325.52,325.527,137,44597.24,5,325.66,325.5,325.57,15281,4975027.771,112,325.52,325.53,325.62,325.51,0.003963089297499917,0.004046160773211491,aapl,20200213
2020-02-13,14:25,2:25 PM,325.49,325.32,325.375,400,130150.0,4,325.52,325.24,325.343,20529,6678962.9516,146,325.49,325.35,325.52,325.35,0.0034943036374065705,0.0033461009443098906,aapl,20200213
2020-02-13,14:26,2:26 PM,325.38,325.36,325.373,300,97612.0,3,325.44,325.31,325.368,17783,5786024.829,143,325.38,325.36,325.38,325.37,0.0034881354050368915,0.003423200044409124,aapl,20200213
2020-02-13,14:27,2:27 PM,325.5,325.46,325.46,101,32871.5,2,325.556,325.36,325.468,15879,5168103.245,80,325.46,325.5,325.37,325.46,0.0037564535131166255,0.0037315964448064085,aapl,20200213
2020-02-13,14:28,2:28 PM,325.56,325.56,325.56,6,1953.36,1,325.592,325.35,325.457,18617,6059041.8212,117,325.56,325.56,325.469,325.592,0.004064865131599187,0.003697672840762641,aapl,20200213
2020-02-13,14:29,2:29 PM,325.56,325.56,325.56,94,30602.64,1,325.59,325.5,325.55,11798,3840843.7354,83,325.56,325.56,325.577,325.5,0.004064865131599187,0.003984481493132105,aapl,20200213
2020-02-13,14:30,2:30 PM,325.63,325.62,325.625,200,65125.0,2,325.69,325.51,325.604,27840,9064819.03,160,325.63,325.62,325.55,325.69,0.004265332683612799,0.00415101554934652,aapl,20200213
2020-02-13,14:31,2:31 PM,325.74,325.69,325.715,200,65143.0,2,325.82,325.67,325.748,20957,6826701.734,161,325.69,325.74,325.68,325.753,0.004542903140246964,0.004595106365918525,aapl,20200213
2020-02-13,14:32,2:32 PM,,,,0,0.0,0,325.819,325.64,325.745,24953,8128325.7753,137,,,325.745,325.81,,0.004585854473906652,aapl,20200213
2020-02-13,14:33,2:33 PM,325.79,325.79,325.79,100,32579.0,1,325.821,325.73,325.777,20271,6603833.749,95,325.79,325.79,325.8,325.74,0.004774211854108973,0.0046845413220337065,aapl,20200213
2020-02-13,14:34,2:34 PM,325.83,325.69,325.726,900,293153.0,9,325.86,325.68,325.761,28433,9262365.955,157,325.695,325.83,325.75,325.83,0.004576828418280113,0.004635197897970267,aapl,20200213
2020-02-13,14:35,2:35 PM,325.855,325.83,325.841,400,130336.5,4,325.875,325.82,325.85,10642,3467693.901,66,325.84,325.855,325.82,325.87,0.0049315017795350065,0.004909670694323784,aapl,20200213
2020-02-13,14:36,2:36 PM,,,,0,0.0,0,325.875,325.79,325.834,14604,4758487.2729,78,,,325.865,325.79,,0.0048603272702601695,aapl,20200213
2020-02-13,14:37,2:37 PM,325.97,325.94,325.968,109,35530.53,3,325.977,325.775,325.923,21260,6929113.5853,104,325.95,325.97,325.78,325.97,0.0053231845350078,0.005134800066613686,aapl,20200213
2020-02-13,14:38,2:38 PM,325.975,325.93,325.974,108,35205.14,5,326.01,325.92,325.974,24661,8038845.7678,151,325.97,325.975,325.97,325.97,0.005341689232116662,0.005292082230816227,aapl,20200213
2020-02-13,14:39,2:39 PM,325.9,325.88,325.89,200,65178.0,2,325.97,325.82,325.897,19419,6328597.5695,109,325.9,325.88,325.965,325.9,0.00508262347259136,0.005054617002510378,aapl,20200213
2020-02-13,14:40,2:40 PM,325.95,325.91,325.928,510,166223.3,6,325.953,325.875,325.918,20439,6661450.174,109,325.92,325.93,325.91,325.895,0.00519981988761474,0.005119380246593839,aapl,20200213
2020-02-13,14:41,2:41 PM,325.81,325.78,325.802,500,162901.0,5,325.88,325.72,325.788,27213,8865658.479,147,325.78,325.81,325.88,325.825,0.004811221248326874,0.004718464926077475,aapl,20200213
2020-02-13,14:42,2:42 PM,325.795,325.71,325.759,378,123136.88,4,325.84,325.72,325.784,27841,9070141.1164,136,325.795,325.71,325.82,325.72,0.004678604252379382,0.004706129070061527,aapl,20200213
2020-02-13,14:43,2:43 PM,325.82,325.7,325.809,110,35839.0,2,325.826,325.69,325.755,10560,3439972.1715,60,325.7,325.82,325.72,325.82,0.004832810061620663,0.004616694113946346,aapl,20200213
2020-02-13,14:44,2:44 PM,325.805,325.805,325.805,100,32580.5,1,325.837,325.773,325.802,14061,4581104.392,45,325.805,325.805,325.837,325.82,0.004820473596881305,0.004761640422133115,aapl,20200213
2020-02-13,14:45,2:45 PM,325.89,325.845,325.866,500,162933.0,5,325.92,325.77,325.871,18697,6092805.795,131,325.845,325.86,325.82,325.8,0.005008604684155558,0.004974433938407069,aapl,20200213
2020-02-13,14:46,2:46 PM,325.805,325.8,325.803,200,65160.5,2,325.88,325.75,325.814,13341,4346683.9249,60,325.8,325.805,325.796,325.82,0.004814305364511625,0.0047986479901807825,aapl,20200213
2020-02-13,14:47,2:47 PM,325.845,325.785,325.824,220,71681.2,3,325.86,325.74,325.804,6693,2180608.1092,52,325.845,325.81,325.82,325.77,0.004879071804392995,0.004767808350140914,aapl,20200213
2020-02-13,14:48,2:48 PM,325.78,325.76,325.772,300,97731.5,3,325.865,325.756,325.811,15623,5090142.2667,115,325.775,325.76,325.77,325.865,0.0047186977627820354,0.004789396098168734,aapl,20200213
2020-02-13,14:49,2:49 PM,,,,0,0.0,0,325.936,325.83,325.88,19449,6338031.2438,153,,,325.88,325.89,,0.005002189614442864,aapl,20200213
2020-02-13,14:50,2:50 PM,325.99,325.92,325.95,400,130380.0,5,326.0,325.9,325.953,41754,13609850.3361,171,325.93,325.96,325.904,325.97,0.0052676704436808615,0.005227318986732766,aapl,20200213
2020-02-13,14:51,2:51 PM,325.93,325.85,325.863,477,155436.61,5,325.96,325.85,325.882,11123,3624781.9191,92,325.87,325.86,325.95,325.86,0.004999352335601128,0.0050083575424508375,aapl,20200213
2020-02-13,14:52,2:52 PM,325.95,325.865,325.909,400,130363.5,4,325.95,325.83,325.875,14364,4680875.834,98,325.865,325.94,325.84,325.94,0.00514122168010305,0.004986769794423017,aapl,20200213
2020-02-13,14:53,2:53 PM,325.955,325.955,325.955,100,32595.5,1,326.0,325.925,325.97,7950,2591461.741,50,325.955,325.955,325.95,325.99,0.005283091024604972,0.0052797463748004555,aapl,20200213
2020-02-13,14:54,2:54 PM,326.06,326.015,326.043,500,163021.5,5,326.063,325.95,326.009,35278,11500939.1194,184,326.015,326.06,325.985,325.98,0.005554493248869633,0.005400020970955329,aapl,20200213
2020-02-13,14:55,2:55 PM,326.065,326.0,326.033,200,65206.5,2,326.07,325.98,326.013,22768,7422654.9128,107,326.0,326.065,325.98,326.061,0.005523652087021412,0.005412356826971102,aapl,20200213
2020-02-13,14:56,2:56 PM,326.17,326.095,326.143,500,163071.5,5,326.17,326.06,326.131,37878,12353193.1861,184,326.095,326.17,326.06,326.13,0.00586290486735202,0.0057762645794398,aapl,20200213
2020-02-13,14:57,2:57 PM,326.16,326.115,326.14,270,88057.7,3,326.18,326.08,326.143,48745,15897836.9401,230,326.115,326.16,326.13,326.158,0.005853652518797588,0.005813272147487467,aapl,20200213
2020-02-13,14:58,2:58 PM,326.15,326.14,326.145,200,65229.0,2,326.17,326.08,326.145,25414,8288646.9659,140,326.14,326.15,326.155,326.14,0.005869073099721699,0.00581944007549544,aapl,20200213
2020-02-13,14:59,2:59 PM,326.1,326.05,326.075,200,65215.0,3,326.17,326.02,326.105,17393,5671948.049,112,326.1,326.05,326.17,326.03,0.005653184966783976,0.005696081515336667,aapl,20200213
2020-02-13,15:00,3 PM,326.16,326.1,326.11,221,72070.36,3,326.18,326.037,326.149,25620,8355940.956,176,326.16,326.11,326.037,326.12,0.005761129033252925,0.005831775931511388,aapl,20200213
2020-02-13,15:01,3:01 PM,326.08,326.03,326.055,200,65211.0,2,326.126,325.916,326.019,24199,7889331.8646,129,326.08,326.03,326.11,325.925,0.005591502643087534,0.005430860610995023,aapl,20200213
2020-02-13,15:02,3:02 PM,325.93,325.93,325.93,100,32593.0,2,326.05,325.386,325.78,54466,17743919.0808,287,325.93,325.93,325.94,325.386,0.005205988119984419,0.004693793214045579,aapl,20200213
2020-02-13,15:03,3:03 PM,325.49,325.325,325.425,506,164665.175,7,325.65,325.25,325.447,72836,23704232.3107,380,325.38,325.47,325.38,325.47,0.0036485094466478514,0.0036668332007229474,aapl,20200213
2020-02-13,15:04,3:04 PM,325.64,325.37,325.475,310,100897.4,4,325.656,325.23,325.438,53523,17418432.5051,341,325.49,325.37,325.46,325.28,0.0038027152558891323,0.003639077524687153,aapl,20200213
2020-02-13,15:05,3:05 PM,325.435,325.31,325.351,329,107040.49,4,325.466,325.18,325.326,31675,10304693.2415,199,325.31,325.435,325.28,325.443,0.00342028484897077,0.0032936735562423764,aapl,20200213
2020-02-13,15:06,3:06 PM,325.53,325.07,325.371,402,130799.14,5,325.56,325.02,325.299,51533,16763629.7983,254,325.52,325.07,325.46,325.14,0.003481967172667212,0.003210406528134994,aapl,20200213
2020-02-13,15:07,3:07 PM,325.13,325.1,325.115,200,65023.0,2,325.23,325.099,325.151,27576,8966352.4413,147,325.1,325.13,325.14,325.185,0.002692433429352121,0.002753979855547216,aapl,20200213
2020-02-13,15:08,3:08 PM,325.35,325.22,325.293,300,97588.0,3,325.39,325.176,325.287,28863,9388768.6429,103,325.22,325.35,325.2,325.357,0.0032414061102509473,0.003173398960087327,aapl,20200213
2020-02-13,15:09,3:09 PM,325.54,325.3,325.469,700,227828.0,7,325.55,325.285,325.438,37850,12317813.6646,174,325.3,325.5,325.33,325.5,0.0037842105587800943,0.003639077524687153,aapl,20200213
2020-02-13,15:10,3:10 PM,325.58,325.555,325.572,420,136740.1,7,325.64,325.51,325.567,16888,5498175.9573,82,325.565,325.57,325.51,325.6,0.004101874525817087,0.004036908881199619,aapl,20200213
2020-02-13,15:11,3:11 PM,325.375,325.375,325.375,148,48155.5,1,325.59,325.33,325.438,30541,9939186.8982,208,325.375,325.375,325.59,325.395,0.0034943036374065705,0.003639077524687153,aapl,20200213
2020-02-13,15:12,3:12 PM,325.4,325.36,325.374,513,166916.68,3,325.455,325.35,325.395,17135,5575647.7523,97,325.36,325.4,325.41,325.424,0.0034912195212218186,0.003506467072516331,aapl,20200213
2020-02-13,15:13,3:13 PM,325.37,325.145,325.182,1000,325182.0,6,325.417,325.07,325.195,33227,10805264.6832,187,325.37,325.145,325.417,325.12,0.002899069213735413,0.002889674271721937,aapl,20200213
2020-02-13,15:14,3:14 PM,325.135,325.03,325.094,1300,422621.775,9,325.17,324.95,325.045,49513,16093971.3685,239,325.045,325.03,325.12,324.96,0.0026276669894707513,0.0024270796711261854,aapl,20200213
2020-02-13,15:15,3:15 PM,325.185,324.99,325.114,1200,390137.0,12,325.22,324.953,325.054,38775,12603965.5128,217,324.99,325.185,324.98,325.182,0.0026893493131671937,0.0024548353471618043,aapl,20200213
2020-02-13,15:16,3:16 PM,,,,0,0.0,0,325.211,324.93,325.065,20488,6659930.442,109,,,325.19,324.94,,0.002488758951205572,aapl,20200213
2020-02-13,15:17,3:17 PM,325.02,324.99,325.015,1624,527824.495,9,325.06,324.9,324.98,30040,9762409.852,193,325.015,325.02,324.93,325.04,0.0023840218108695595,0.002226622010868003,aapl,20200213
2020-02-13,15:18,3:18 PM,325.05,324.95,325.005,401,130326.97,5,325.07,324.95,325.008,11908,3870198.951,93,325.05,325.02,325.057,325.06,0.0023531806490213383,0.0023129730029791094,aapl,20200213
2020-02-13,15:19,3:19 PM,325.06,324.985,325.004,1603,520981.47,10,325.09,324.985,325.039,29582,9615313.9528,148,325.04,325.0,325.052,325.0,0.0023500965328365864,0.002408575887102264,aapl,20200213
2020-02-13,15:20,3:20 PM,325.15,325.01,325.089,577,187576.22,10,325.23,324.99,325.146,32890,10694067.4021,174,325.01,325.13,325.005,325.225,0.002612246408546641,0.0027385600355273694,aapl,20200213
2020-02-13,15:21,3:21 PM,325.11,324.98,325.045,200,65009.0,2,325.22,324.97,325.058,28320,9205647.0315,152,325.11,324.98,325.22,325.006,0.002476545296414398,0.0024671712031777517,aapl,20200213
2020-02-13,15:22,3:22 PM,325.13,325.01,325.088,1000,325088.0,10,325.13,324.98,325.092,21806,7088953.7024,119,325.01,325.13,324.995,325.12,0.002609162292361889,0.0025720259793127792,aapl,20200213
2020-02-13,15:23,3:23 PM,325.2,325.18,325.193,300,97558.0,3,325.25,325.1,325.184,19364,6296862.6113,155,325.18,325.2,325.1,325.25,0.0029329944917683855,0.0028557506676783443,aapl,20200213
2020-02-13,15:24,3:24 PM,325.22,325.05,325.195,210,68291.0,3,325.255,325.025,325.16,24516,7971626.0926,121,325.22,325.05,325.255,325.04,0.002939162724138065,0.0027817355315830103,aapl,20200213
2020-02-13,15:25,3:25 PM,325.19,325.115,325.138,500,162569.0,5,325.23,325.06,325.154,14016,4557358.3975,97,325.115,325.19,325.06,325.11,0.0027633681016029942,0.002763231747559089,aapl,20200213
2020-02-13,15:26,3:26 PM,325.145,325.145,325.145,200,65029.0,2,325.15,325.04,325.105,20030,6511854.1022,110,325.145,325.145,325.1,325.04,0.002784956914896784,0.002612117511364521,aapl,20200213
2020-02-13,15:27,3:27 PM,324.92,324.91,324.918,100,32491.78,3,325.025,324.86,324.94,41561,13504823.0328,186,324.92,324.91,325.025,324.9,0.0020848625409416043,0.002103263450709054,aapl,20200213
2020-02-13,15:28,3:28 PM,325.125,325.0,325.072,300,97521.5,3,325.14,324.91,325.031,18120,5889559.96,107,325.0,325.125,324.91,325.125,0.00255981643340463,0.0023839041750705445,aapl,20200213
2020-02-13,15:29,3:29 PM,325.23,325.2,325.215,400,130086.0,4,325.24,325.125,325.194,20011,6507465.721,120,325.2,325.23,325.13,325.215,0.003000845047834507,0.0028865903077180378,aapl,20200213
2020-02-13,15:30,3:30 PM,325.275,325.105,325.178,400,130071.0,4,325.3,325.05,325.184,39791,12939397.3115,204,325.275,325.105,325.22,325.06,0.002886732748996054,0.0028557506676783443,aapl,20200213
2020-02-13,15:31,3:31 PM,325.06,324.98,325.013,344,111804.64,3,325.09,324.93,324.993,31552,10254175.3421,177,324.98,325.06,325.06,324.93,0.00237785357849988,0.002266713542919569,aapl,20200213
2020-02-13,15:32,3:32 PM,324.96,324.7,324.805,702,228013.04,8,325.003,324.69,324.829,36331,11801380.3842,213,324.96,324.7,324.93,324.69,0.0017363574120563905,0.0017609434462681765,aapl,20200213
2020-02-13,15:33,3:33 PM,324.85,324.715,324.783,725,235467.75,8,324.89,324.67,324.775,46637,15146541.0438,267,324.715,324.78,324.67,324.77,0.001668506855990269,0.0015944093900535868,aapl,20200213
2020-02-13,15:34,3:34 PM,324.88,324.76,324.819,700,227373.5,7,324.94,324.74,324.842,42163,13696309.282,277,324.825,324.88,324.77,324.91,0.00177953503864397,0.001801034978319743,aapl,20200213
2020-02-13,15:35,3:35 PM,324.97,324.96,324.969,112,36396.52,2,324.98,324.74,324.878,35328,11477309.2157,237,324.96,324.97,324.9,324.9,0.002242152466367637,0.0019120576824627445,aapl,20200213
2020-02-13,15:36,3:36 PM,324.79,324.79,324.79,100,32479.0,1,324.94,324.699,324.813,17176,5578987.3488,129,324.79,324.79,324.9,324.723,0.0016900956692840587,0.001711600022204562,aapl,20200213
2020-02-13,15:37,3:37 PM,324.81,324.75,324.768,1100,357245.0,6,324.94,324.71,324.827,53012,17219753.9836,253,324.77,324.81,324.718,324.886,0.001622245113217762,0.0017547755182602029,aapl,20200213
2020-02-13,15:38,3:38 PM,324.96,324.9,324.92,205,66608.62,4,324.99,324.88,324.946,18870,6131740.1825,120,324.9,324.96,324.9,324.95,0.0020910307733112837,0.0021217672347329753,aapl,20200213
2020-02-13,15:39,3:39 PM,324.96,324.94,324.95,300,97485.09,4,324.98,324.91,324.943,11598,3768691.7508,63,324.96,324.96,324.94,324.96,0.002183554258855947,0.002112515342720927,aapl,20200213
2020-02-13,15:40,3:40 PM,325.145,325.12,325.125,500,162562.5,5,325.15,324.8,324.987,34354,11164595.5598,217,325.145,325.12,324.96,324.85,0.002723274591200342,0.0022482097588958235,aapl,20200213
2020-02-13,15:41,3:41 PM,324.88,324.59,324.705,321,104230.35,6,324.88,324.56,324.664,46732,15172203.7598,244,324.87,324.615,324.87,324.565,0.0014279457935738287,0.0012520893856127094,aapl,20200213
2020-02-13,15:42,3:42 PM,324.63,324.53,324.562,426,138263.32,6,324.674,324.52,324.613,68713,22305113.5122,289,324.63,324.57,324.56,324.57,0.0009869171791439515,0.001094807221410168,aapl,20200213
2020-02-13,15:43,3:43 PM,324.64,324.525,324.566,804,260950.78,4,324.64,324.52,324.571,35653,11571920.4232,212,324.64,324.525,324.58,324.56,0.0009992536438831348,0.0009652807332434205,aapl,20200213
2020-02-13,15:44,3:44 PM,324.72,324.72,324.72,100,32472.0,1,324.79,324.56,324.668,33814,10978340.9966,210,324.72,324.72,324.56,324.79,0.0014742075363463358,0.001264425241628657,aapl,20200213
2020-02-13,15:45,3:45 PM,324.53,324.43,324.486,207,67168.63,5,324.84,324.428,324.56,61157,19849147.857,349,324.53,324.48,324.77,324.49,0.0007525243490971908,0.0009313571291996526,aapl,20200213
2020-02-13,15:46,3:46 PM,324.49,324.49,324.49,48,15575.52,1,324.68,324.49,324.572,22264,7226270.0829,136,324.49,324.49,324.49,324.65,0.0007648608138365494,0.0009683646972473197,aapl,20200213
2020-02-13,15:47,3:47 PM,324.74,324.74,324.74,100,32474.0,1,324.84,324.65,324.735,36239,11768078.0891,204,324.74,324.74,324.667,324.84,0.001535889860042778,0.001471050829894813,aapl,20200213
2020-02-13,15:48,3:48 PM,324.83,324.78,324.805,596,193583.55,8,324.874,324.764,324.818,23058,7489654.9767,162,324.825,324.8,324.828,324.873,0.0017363574120563905,0.0017270198422244087,aapl,20200213
2020-02-13,15:49,3:49 PM,324.82,324.79,324.81,300,97443.0,3,324.875,324.73,324.806,21671,7038862.391,181,324.82,324.79,324.87,324.755,0.001751777992980501,0.0016900122741767415,aapl,20200213
2020-02-13,15:50,3:50 PM,324.93,324.7,324.906,281,91298.64,5,325.03,324.64,324.903,71287,23161353.0702,471,324.7,324.93,324.76,324.92,0.002047853146723704,0.0019891567825621533,aapl,20200213
2020-02-13,15:51,3:51 PM,324.91,324.68,324.871,800,259897.0,6,324.93,324.6,324.758,50156,16288578.5579,332,324.86,324.68,324.91,324.613,0.0019399090802547547,0.0015419820019860729,aapl,20200213
2020-02-13,15:52,3:52 PM,324.78,324.65,324.746,508,164970.94,7,324.81,324.62,324.715,72467,23531105.8742,528,324.65,324.755,324.62,324.78,0.0015543945571516405,0.001409371549815251,aapl,20200213
2020-02-13,15:53,3:53 PM,325.05,324.77,324.881,472,153344.06,7,325.16,324.76,324.918,69306,22518745.398,399,324.77,325.05,324.8,325.15,0.001970750242102976,0.0020354162426216935,aapl,20200213
2020-02-13,15:54,3:54 PM,325.18,325.07,325.128,300,97538.5,3,325.29,324.93,325.108,66230,21531942.0019,418,325.18,325.07,325.15,324.97,0.0027325269397547734,0.002621369403376394,aapl,20200213
2020-02-13,15:55,3:55 PM,325.08,324.94,325.01,200,65002.0,2,325.13,324.83,325.014,61015,19830729.8887,305,324.94,325.08,324.96,325.05,0.0023686012299454487,0.0023314767870030307,aapl,20200213
2020-02-13,15:56,3:56 PM,324.92,324.89,324.903,300,97471.0,3,325.048,324.82,324.901,32809,10659680.5468,250,324.9,324.92,325.03,324.91,0.0020386007981692727,0.0019829888545541794,aapl,20200213
2020-02-13,15:57,3:57 PM,324.91,324.82,324.865,200,64973.0,2,324.93,324.75,324.837,78259,25421416.0717,406,324.82,324.91,324.89,324.91,0.0019214043831458922,0.0017856151582998964,aapl,20200213
2020-02-13,15:58,3:58 PM,324.89,324.83,324.86,629,204336.795,7,324.918,324.78,324.846,81299,26409675.5837,472,324.88,324.83,324.9,324.82,0.0019059838022217818,0.0018133708343356905,aapl,20200213
2020-02-13,15:59,3:59 PM,324.99,324.775,324.891,2414,784287.745,29,325.06,324.768,324.901,172159,55934703.5232,1066,324.775,324.93,324.84,324.91,0.0020015914039513724,0.0019829888545541794,aapl,20200213
