date,minute,label,high,low,average,volume,notional,numberOfTrades,marketHigh,marketLow,marketAverage,marketVolume,marketNotional,marketNumberOfTrades,open,close,marketOpen,marketClose,changeOverTime,marketChangeOverTime,tickerName,tickerDate
2019-12-31,09:30,09:30 AM,58.74,58.7,58.714,300,17614.2,5,58.82,58.65,58.721,58534,3437191.992,72,58.72,58.74,58.72,58.776,0.0,0.0,atvi,20191231
2019-12-31,09:31,09:31 AM,58.86,58.82,58.837,300,17651.0,3,58.86,58.698,58.8,5706,335515.022,49,58.82,58.86,58.79,58.85,0.002094900705113,0.001345344936223849,atvi,20191231
2019-12-31,09:32,09:32 AM,58.99,58.86,58.919,500,29459.5,5,59.06,58.83,58.931,23116,1362258.83,160,58.86,58.99,58.84,58.97,0.0034915011751881714,0.0035762333747722426,atvi,20191231
2019-12-31,09:33,09:33 AM,58.97,58.91,58.946,457,26938.22,5,59.018,58.9,58.959,13374,788515.312,108,58.91,58.95,58.95,58.95,0.0039513574275300495,0.004053064491408639,atvi,20191231
2019-12-31,09:34,09:34 AM,59.0,58.92,58.953,600,35372.0,5,59.01,58.9,58.951,7924,467126.856,65,59.0,58.92,58.97,58.96,0.004070579418878025,0.003916827029512508,atvi,20191231
2019-12-31,09:35,09:35 AM,59.03,58.98,58.997,1872,110443.14,10,59.03,58.97,58.997,7211,425430.49,53,58.99,59.03,58.97,58.97,0.004819974793064708,0.004700192435414986,atvi,20191231
2019-12-31,09:36,09:36 AM,,,,0,0.0,0,59.12,58.99,59.094,13423,793220.7249,40,,,58.99,59.11,,0.006352071660905037,atvi,20191231
2019-12-31,09:37,09:37 AM,59.06,59.04,59.056,800,47245.0,5,59.12,59.02,59.066,10232,604366.13,59,59.06,59.05,59.105,59.05,0.005824845862996879,0.005875240544268762,atvi,20191231
2019-12-31,09:38,09:38 AM,,,,0,0.0,0,59.19,59.05,59.147,10948,647539.6418,57,,,59.06,59.15,,0.007254644845966553,atvi,20191231
2019-12-31,09:39,09:39 AM,,,,0,0.0,0,59.22,59.16,59.189,3560,210711.42,22,,,59.17,59.22,,0.007969891520921027,atvi,20191231
2019-12-31,09:40,09:40 AM,59.24,59.24,59.24,100,5924.0,1,59.24,59.18,59.215,4408,261018.6515,28,59.24,59.24,59.21,59.24,0.008958681064141489,0.008412663272083358,atvi,20191231
2019-12-31,09:41,09:41 AM,59.19,59.16,59.17,300,17751.0,3,59.22,59.15,59.184,6286,372030.98,57,59.19,59.16,59.22,59.15,0.007766461150662586,0.00788474310723593,atvi,20191231
2019-12-31,09:42,09:42 AM,59.125,59.125,59.125,100,5912.5,1,59.19,59.09,59.144,6981,412881.8,58,59.125,59.125,59.15,59.11,0.0070000340634261225,0.007203555797755519,atvi,20191231
2019-12-31,09:43,09:43 AM,59.13,59.13,59.13,90,5321.7,1,59.13,59.1,59.115,1701,100554.29,16,59.13,59.13,59.11,59.13,0.007085192628674659,0.006709694998382273,atvi,20191231
2019-12-31,09:44,09:44 AM,59.13,59.09,59.102,400,23641.0,4,59.145,59.09,59.114,4976,294152.76,48,59.13,59.09,59.14,59.12,0.006608304663283001,0.006692665315645181,atvi,20191231
2019-12-31,09:45,09:45 AM,59.16,59.15,59.155,200,11831.0,2,59.17,59.12,59.142,5660,334746.02,50,59.15,59.16,59.13,59.17,0.007510985454917098,0.007169496432281578,atvi,20191231
2019-12-31,09:46,09:46 AM,,,,0,0.0,0,59.18,59.15,59.166,3400,201164.0,24,,,59.18,59.16,,0.007578208817969726,atvi,20191231
2019-12-31,09:47,09:47 AM,59.2,59.175,59.193,500,29596.5,6,59.2,59.17,59.192,7394,437667.946,54,59.175,59.2,59.17,59.193,0.008158190550805586,0.00802098056913206,atvi,20191231
2019-12-31,09:48,09:48 AM,59.2,59.185,59.193,1476,87368.44,13,59.2,59.165,59.188,15327,907181.97,103,59.2,59.19,59.2,59.19,0.008158190550805586,0.007952861838184055,atvi,20191231
2019-12-31,09:49,09:49 AM,59.31,59.27,59.29,200,11858.0,3,59.33,59.205,59.277,9461,560822.94,50,59.27,59.31,59.205,59.31,0.009810266716626367,0.009468503601777976,atvi,20191231
2019-12-31,09:50,09:50 AM,59.3,59.23,59.248,400,23699.0,4,59.3,59.225,59.273,5905,350004.999,51,59.3,59.23,59.3,59.225,0.009094934768539002,0.009400384870829972,atvi,20191231
2019-12-31,09:51,09:51 AM,59.23,59.23,59.23,100,5923.0,1,59.23,59.196,59.217,2850,168769.34,24,59.23,59.23,59.21,59.23,0.008788363933644416,0.0084467226375573,atvi,20191231
2019-12-31,09:52,09:52 AM,59.235,59.22,59.227,300,17768.0,3,59.24,59.2,59.224,3488,206571.815,27,59.225,59.235,59.23,59.235,0.008737268794495318,0.00856593041671634,atvi,20191231
2019-12-31,09:53,09:53 AM,59.23,59.215,59.225,300,17767.5,3,59.23,59.196,59.212,3700,219085.3,28,59.23,59.215,59.23,59.22,0.008703205368396002,0.008361574223872325,atvi,20191231
2019-12-31,09:54,09:54 AM,59.245,59.24,59.242,200,11848.5,2,59.25,59.23,59.244,1335,79090.55,12,59.24,59.245,59.23,59.25,0.008992744490240807,0.008906524071456605,atvi,20191231
2019-12-31,09:55,09:55 AM,59.245,59.215,59.227,300,17768.0,3,59.245,59.21,59.228,3569,211383.56,25,59.215,59.245,59.24,59.245,0.008737268794495318,0.008634049147664465,atvi,20191231
2019-12-31,09:56,09:56 AM,59.29,59.255,59.281,400,23712.5,4,59.33,59.25,59.306,27632,1638737.8,97,59.255,59.29,59.25,59.322,0.009656981299179074,0.009962364401151221,atvi,20191231
2019-12-31,09:57,09:57 AM,59.345,59.305,59.324,430,25509.15,4,59.355,59.29,59.325,5004,296864.9418,45,59.345,59.305,59.33,59.3,0.0103893449603161,0.010285928373154516,atvi,20191231
2019-12-31,09:58,09:58 AM,,,,0,0.0,0,59.29,59.21,59.266,3660,216913.8,30,,,59.29,59.21,,0.009281177091670811,atvi,20191231
2019-12-31,09:59,09:59 AM,59.21,59.19,59.197,401,23738.21,5,59.22,59.17,59.191,4115,243571.57,37,59.21,59.19,59.2,59.21,0.008226317403004463,0.008003950886395089,atvi,20191231
2019-12-31,10:00,10 AM,59.23,59.21,59.22,400,23688.0,4,59.25,59.18,59.215,4896,289916.08,47,59.22,59.23,59.225,59.25,0.008618046803147464,0.008412663272083358,atvi,20191231
2019-12-31,10:01,10:01 AM,59.285,59.24,59.257,500,29628.5,5,59.29,59.23,59.256,4965,294205.6395,48,59.285,59.25,59.266,59.24,0.009248220185986294,0.00911088026430074,atvi,20191231
2019-12-31,10:02,10:02 AM,,,,0,0.0,0,59.24,59.21,59.226,1300,76994.0,12,,,59.24,59.215,,0.008599989782190402,atvi,20191231
2019-12-31,10:03,10:03 AM,59.24,59.22,59.232,500,29616.0,5,59.24,59.2,59.222,4286,253826.7,32,59.22,59.23,59.22,59.21,0.008822427359743855,0.008531871051242397,atvi,20191231
2019-12-31,10:04,10:04 AM,59.2,59.2,59.2,100,5920.0,1,59.23,59.19,59.212,4298,254495.4787,36,59.2,59.2,59.2,59.21,0.008277412542153561,0.008361574223872325,atvi,20191231
2019-12-31,10:05,10:05 AM,,,,0,0.0,0,59.22,59.18,59.203,3700,219051.0,36,,,59.21,59.19,,0.008208307079239224,atvi,20191231
2019-12-31,10:06,10:06 AM,59.165,59.12,59.132,700,41392.5,6,59.18,59.12,59.141,4820,285057.338,40,59.165,59.13,59.18,59.121,0.007119256054773977,0.007152466749544485,atvi,20191231
2019-12-31,10:07,10:07 AM,59.17,59.13,59.153,310,18337.45,4,59.17,59.13,59.151,2400,141963.5,23,59.145,59.17,59.13,59.16,0.00747692202881766,0.007322763576914679,atvi,20191231
2019-12-31,10:08,10:08 AM,59.21,59.18,59.195,200,11839.0,2,59.21,59.15,59.175,3600,213031.27,32,59.18,59.21,59.16,59.21,0.008192253976905026,0.007731475962602828,atvi,20191231
2019-12-31,10:09,10:09 AM,59.245,59.215,59.226,501,29672.245,6,59.26,59.21,59.237,9431,558668.75,69,59.215,59.22,59.21,59.22,0.00872023708144566,0.008787316292297566,atvi,20191231
2019-12-31,10:10,10:10 AM,,,,0,0.0,0,59.275,59.233,59.254,3371,199745.19,26,,,59.233,59.275,,0.009076820898826677,atvi,20191231
2019-12-31,10:11,10:11 AM,59.265,59.24,59.252,200,11850.5,2,59.28,59.24,59.259,2850,168887.65,24,59.265,59.24,59.27,59.26,0.00916306162073788,0.009161969312511774,atvi,20191231
2019-12-31,10:12,10:12 AM,59.27,59.26,59.262,601,35616.26,7,59.27,59.24,59.258,4602,272706.54,31,59.27,59.26,59.26,59.24,0.009333378751234831,0.009144939629774803,atvi,20191231
2019-12-31,10:13,10:13 AM,59.23,59.185,59.209,302,17881.145,5,59.24,59.18,59.204,3667,217101.9,36,59.23,59.185,59.23,59.18,0.008430697959600855,0.008225336761976194,atvi,20191231
2019-12-31,10:14,10:14 AM,59.175,59.15,59.159,524,30999.2,6,59.175,59.14,59.16,5200,307632.46,46,59.155,59.175,59.17,59.16,0.007579112307115855,0.007476030721547659,atvi,20191231
2019-12-31,10:15,10:15 AM,59.145,59.145,59.145,120,7097.4,2,59.19,59.13,59.155,67950,4019559.275,34,59.145,59.145,59.133,59.19,0.007340668324420147,0.007390882307862684,atvi,20191231
2019-12-31,10:16,10:16 AM,59.19,59.16,59.175,500,29587.5,5,59.19,59.14,59.174,5415,320425.75,46,59.19,59.16,59.19,59.16,0.007851619715911001,0.007714446279865857,atvi,20191231
2019-12-31,10:17,10:17 AM,59.17,59.17,59.17,200,11834.0,2,59.2,59.16,59.181,3000,177543.575,21,59.17,59.17,59.17,59.18,0.007766461150662586,0.007833654059024895,atvi,20191231
2019-12-31,10:18,10:18 AM,59.18,59.155,59.167,300,17750.035,4,59.19,59.155,59.169,4619,273300.3803,26,59.18,59.155,59.19,59.155,0.0077153660115134885,0.00762929786618076,atvi,20191231
2019-12-31,10:19,10:19 AM,,,,0,0.0,0,59.17,59.13,59.144,3711,219485.15,33,,,59.15,59.15,,0.007203555797755519,atvi,20191231
2019-12-31,10:20,10:20 AM,59.15,59.15,59.15,100,5915.0,1,59.16,59.11,59.143,4072,240829.2765,35,59.15,59.15,59.15,59.15,0.007425826889668562,0.007186526115018548,atvi,20191231
2019-12-31,10:21,10:21 AM,59.15,59.135,59.146,400,23658.5,4,59.166,59.13,59.149,2900,171533.07,27,59.15,59.135,59.15,59.155,0.007357700037469806,0.007288704211440616,atvi,20191231
2019-12-31,10:22,10:22 AM,59.16,59.15,59.154,400,23661.5,3,59.18,59.15,59.165,2902,171695.9202,19,59.16,59.155,59.16,59.17,0.007493953741867439,0.007561179135232756,atvi,20191231
2019-12-31,10:23,10:23 AM,59.185,59.165,59.175,200,11835.0,2,59.185,59.16,59.174,2100,124265.0,20,59.165,59.185,59.16,59.17,0.007851619715911001,0.007714446279865857,atvi,20191231
2019-12-31,10:24,10:24 AM,59.185,59.155,59.158,110,6507.355,3,59.2,59.16,59.18,2419,143156.1961,18,59.185,59.155,59.181,59.2,0.007562080594066196,0.007816624376287924,atvi,20191231
2019-12-31,10:25,10:25 AM,,,,0,0.0,0,59.22,59.2,59.21,1300,76973.5,11,,,59.2,59.215,,0.008327514858398262,atvi,20191231
2019-12-31,10:26,10:26 AM,,,,0,0.0,0,59.21,59.2,59.206,800,47365.0,8,,,59.21,59.2,,0.008259396127450257,atvi,20191231
2019-12-31,10:27,10:27 AM,59.205,59.16,59.175,500,29587.5,5,59.205,59.16,59.183,4423,261766.64,38,59.205,59.16,59.205,59.16,0.007851619715911001,0.007867713424498959,atvi,20191231
2019-12-31,10:28,10:28 AM,59.14,59.12,59.13,200,11826.0,2,59.16,59.11,59.134,4260,251912.9,33,59.12,59.14,59.15,59.16,0.007085192628674659,0.007033258970385447,atvi,20191231
2019-12-31,10:29,10:29 AM,59.13,59.13,59.13,100,5913.0,1,59.155,59.115,59.132,2300,136004.0,19,59.13,59.13,59.155,59.12,0.007085192628674659,0.006999199604911384,atvi,20191231
2019-12-31,10:30,10:30 AM,59.12,59.09,59.105,400,23642.0,4,59.14,59.08,59.109,7648,452062.9373,52,59.12,59.09,59.14,59.09,0.006659399802432099,0.006607516901960206,atvi,20191231
2019-12-31,10:31,10:31 AM,59.08,59.08,59.08,100,5908.0,1,59.09,59.05,59.07,1400,82698.0,13,59.08,59.08,59.08,59.05,0.0062336069761896595,0.0059433592752167665,atvi,20191231
2019-12-31,10:32,10:32 AM,59.01,59.01,59.01,100,5901.0,1,59.05,59.01,59.021,3400,200670.46,28,59.01,59.01,59.05,59.03,0.005041387062710757,0.005108904821103256,atvi,20191231
2019-12-31,10:33,10:33 AM,59.05,59.025,59.038,457,26980.425,4,59.05,59.02,59.033,2454,144867.51,22,59.04,59.05,59.04,59.05,0.0055182750281022935,0.005313261013947391,atvi,20191231
2019-12-31,10:34,10:34 AM,,,,0,0.0,0,59.06,59.045,59.051,800,47240.5,8,,,59.055,59.055,,0.0056197953032135935,atvi,20191231
2019-12-31,10:35,10:35 AM,59.065,59.06,59.064,800,47251.5,8,59.08,59.06,59.07,4415,260792.7615,38,59.06,59.065,59.06,59.065,0.0059610995673945125,0.0059433592752167665,atvi,20191231
2019-12-31,10:36,10:36 AM,59.095,59.06,59.08,580,34266.5,6,59.095,59.05,59.078,5064,299172.272,41,59.075,59.095,59.065,59.095,0.0062336069761896595,0.006079596737112897,atvi,20191231
2019-12-31,10:37,10:37 AM,,,,0,0.0,0,59.1,59.07,59.084,2000,118168.3,17,,,59.1,59.08,,0.006181774833534965,atvi,20191231
2019-12-31,10:38,10:38 AM,,,,0,0.0,0,59.105,59.075,59.086,2540,150078.32,13,,,59.085,59.105,,0.0062158341990089065,atvi,20191231
2019-12-31,10:39,10:39 AM,59.105,59.105,59.105,100,5910.5,1,59.11,59.08,59.099,3300,195026.5,23,59.105,59.105,59.105,59.08,0.006659399802432099,0.0064372200745900126,atvi,20191231
2019-12-31,10:40,10:40 AM,,,,0,0.0,0,59.074,59.05,59.069,4010,236868.61,14,,,59.065,59.07,,0.005926329592479796,atvi,20191231
2019-12-31,10:41,10:41 AM,,,,0,0.0,0,59.07,59.06,59.065,1000,59065.0,9,,,59.07,59.065,,0.005858210861531671,atvi,20191231
2019-12-31,10:42,10:42 AM,59.065,59.065,59.065,100,5906.5,1,59.095,59.065,59.075,2735,161570.3385,16,59.065,59.065,59.065,59.095,0.005978131280444172,0.006028507688901863,atvi,20191231
2019-12-31,10:43,10:43 AM,59.075,59.075,59.075,100,5907.5,1,59.09,59.06,59.072,3073,181527.3562,15,59.075,59.075,59.09,59.08,0.0061484484109412445,0.00597741864069083,atvi,20191231
2019-12-31,10:44,10:44 AM,59.06,59.06,59.06,200,11812.0,3,59.085,59.06,59.076,1100,64983.9,11,59.06,59.06,59.08,59.075,0.005892972715195757,0.006045537371638834,atvi,20191231
2019-12-31,10:45,10:45 AM,59.065,59.055,59.061,241,14233.665,2,59.078,59.05,59.065,1916,113169.3425,14,59.065,59.055,59.065,59.06,0.005910004428245416,0.005858210861531671,atvi,20191231
2019-12-31,10:46,10:46 AM,59.07,59.07,59.07,100,5907.0,1,59.07,59.04,59.057,3820,225598.22,25,59.07,59.07,59.07,59.06,0.006063289845692708,0.005721973399635661,atvi,20191231
2019-12-31,10:47,10:47 AM,,,,0,0.0,0,59.07,59.055,59.061,3083,182086.4866,17,,,59.06,59.06,,0.0057900921305836656,atvi,20191231
2019-12-31,10:48,10:48 AM,59.055,59.055,59.055,100,5905.5,1,59.06,59.05,59.056,2395,141439.801,13,59.055,59.055,59.058,59.057,0.00580781414994722,0.005704943716898569,atvi,20191231
2019-12-31,10:49,10:49 AM,59.055,59.055,59.055,502,29645.61,5,59.07,59.04,59.053,2799,165289.945,26,59.055,59.055,59.055,59.04,0.00580781414994722,0.005653854668687535,atvi,20191231
2019-12-31,10:50,10:50 AM,59.05,59.005,59.022,327,19300.35,4,59.045,59.004,59.019,2655,156696.141,17,59.05,59.005,59.045,59.01,0.005245767619307147,0.005074845455629193,atvi,20191231
2019-12-31,10:51,10:51 AM,,,,0,0.0,0,59.04,59.02,59.028,2360,139306.07,18,,,59.02,59.03,,0.005228112600262294,atvi,20191231
2019-12-31,10:52,10:52 AM,59.0,59.0,59.0,5,295.0,1,59.025,59.005,59.015,1495,88226.9,13,59.0,59.0,59.025,59.005,0.004871069932213806,0.005006726724681188,atvi,20191231
2019-12-31,10:53,10:53 AM,59.03,59.0,59.029,203,11983.0,3,59.04,58.995,59.015,2900,171144.1,27,59.0,59.03,59.0,59.03,0.0053649896106551225,0.005006726724681188,atvi,20191231
2019-12-31,10:54,10:54 AM,,,,0,0.0,0,59.06,59.03,59.047,3805,224674.2106,20,,,59.03,59.06,,0.005551676572265468,atvi,20191231
2019-12-31,10:55,10:55 AM,59.035,59.035,59.035,100,5903.5,1,59.07,59.035,59.05,2670,157662.658,14,59.035,59.035,59.066,59.045,0.005467179888953197,0.005602765620476502,atvi,20191231
2019-12-31,10:56,10:56 AM,59.06,59.06,59.06,172,10158.32,3,59.069,59.055,59.063,1755,103655.1525,11,59.06,59.06,59.065,59.055,0.005892972715195757,0.005824151496057728,atvi,20191231
2019-12-31,10:57,10:57 AM,59.06,59.045,59.05,202,11928.12,3,59.07,59.045,59.056,1300,76773.5,13,59.055,59.06,59.06,59.07,0.005722655584698684,0.005704943716898569,atvi,20191231
2019-12-31,10:58,10:58 AM,59.075,59.075,59.075,2,118.15,1,59.075,59.065,59.07,900,53163.0,9,59.075,59.075,59.07,59.07,0.0061484484109412445,0.0059433592752167665,atvi,20191231
2019-12-31,10:59,10:59 AM,59.07,59.055,59.063,217,12816.69,3,59.07,59.05,59.051,14383,849328.48,19,59.07,59.07,59.07,59.06,0.005944067854344854,0.0056197953032135935,atvi,20191231
2019-12-31,11:00,11 AM,59.08,59.045,59.075,78,4607.83,3,59.08,59.05,59.07,7264,429086.172,41,59.045,59.08,59.07,59.08,0.0061484484109412445,0.0059433592752167665,atvi,20191231
2019-12-31,11:01,11:01 AM,59.115,59.09,59.1,300,17730.0,4,59.121,59.09,59.104,7982,471770.74,33,59.09,59.115,59.09,59.115,0.006574241237183684,0.006522368488275109,atvi,20191231
2019-12-31,11:02,11:02 AM,,,,0,0.0,0,59.1,59.075,59.088,2381,140688.5,19,,,59.1,59.1,,0.006249893564482969,atvi,20191231
2019-12-31,11:03,11:03 AM,59.095,59.075,59.085,200,11817.0,2,59.1,59.07,59.087,1904,112502.4,16,59.095,59.075,59.1,59.075,0.006318765541438196,0.006232863881745998,atvi,20191231
2019-12-31,11:04,11:04 AM,59.08,59.08,59.08,200,11816.0,2,59.1,59.07,59.086,2450,144761.5,22,59.08,59.08,59.08,59.1,0.0062336069761896595,0.0062158341990089065,atvi,20191231
2019-12-31,11:05,11:05 AM,59.125,59.11,59.117,200,11823.5,2,59.125,59.1,59.111,4100,242354.59,28,59.11,59.125,59.11,59.125,0.006863780359028489,0.0066415762674341475,atvi,20191231
2019-12-31,11:06,11:06 AM,59.12,59.115,59.117,200,11823.5,2,59.125,59.109,59.119,1900,112325.89,15,59.12,59.115,59.12,59.11,0.006863780359028489,0.006777813729330278,atvi,20191231
2019-12-31,11:07,11:07 AM,,,,0,0.0,0,59.12,59.105,59.115,2326,137500.6812,14,,,59.12,59.11,,0.006709694998382273,atvi,20191231
2019-12-31,11:08,11:08 AM,59.13,59.095,59.112,300,17733.5,3,59.13,59.095,59.113,5262,311055.1438,34,59.13,59.095,59.106,59.11,0.006778621793780074,0.00667563563290821,atvi,20191231
2019-12-31,11:09,11:09 AM,,,,0,0.0,0,59.11,59.08,59.091,2350,138863.44,14,,,59.101,59.08,,0.006300982612694003,atvi,20191231
2019-12-31,11:10,11:10 AM,59.095,59.085,59.09,200,11818.0,2,59.095,59.07,59.078,1200,70893.5,11,59.085,59.095,59.07,59.095,0.0064039241066867324,0.006079596737112897,atvi,20191231
2019-12-31,11:11,11:11 AM,59.105,59.105,59.105,100,5910.5,1,59.11,59.095,59.103,2600,153668.0,19,59.105,59.105,59.1,59.11,0.006659399802432099,0.006505338805538138,atvi,20191231
2019-12-31,11:12,11:12 AM,,,,0,0.0,0,59.115,59.08,59.096,8020,473946.62,27,,,59.1,59.1,,0.006386131026378979,atvi,20191231
2019-12-31,11:13,11:13 AM,59.095,59.085,59.095,101,5968.585,2,59.11,59.08,59.098,1596,94320.79,14,59.095,59.085,59.11,59.1,0.0064890826719351475,0.006420190391853041,atvi,20191231
2019-12-31,11:14,11:14 AM,59.11,59.11,59.11,100,5911.0,2,59.11,59.1,59.103,1700,100475.36,15,59.11,59.11,59.109,59.1,0.006744558367680635,0.006505338805538138,atvi,20191231
2019-12-31,11:15,11:15 AM,,,,0,0.0,0,59.11,59.09,59.101,1100,65011.0,10,,,59.105,59.095,,0.006471279440064075,atvi,20191231
2019-12-31,11:16,11:16 AM,59.095,59.095,59.095,100,5909.5,1,59.1,59.085,59.088,2462,145473.7978,12,59.095,59.095,59.095,59.09,0.0064890826719351475,0.006249893564482969,atvi,20191231
2019-12-31,11:17,11:17 AM,59.095,59.08,59.087,200,11817.5,2,59.095,59.08,59.087,1720,101629.0,16,59.095,59.08,59.085,59.085,0.006352828967537635,0.006232863881745998,atvi,20191231
2019-12-31,11:18,11:18 AM,,,,0,0.0,0,59.1,59.085,59.09,1300,76817.5,11,,,59.09,59.085,,0.006283952929957032,atvi,20191231
2019-12-31,11:19,11:19 AM,,,,0,0.0,0,59.13,59.09,59.109,2670,157822.1,26,,,59.09,59.13,,0.006607516901960206,atvi,20191231
2019-12-31,11:20,11:20 AM,,,,0,0.0,0,59.14,59.13,59.137,1450,85748.355,12,,,59.14,59.135,,0.007084348018596481,atvi,20191231
2019-12-31,11:21,11:21 AM,59.14,59.13,59.135,300,17740.5,3,59.145,59.13,59.137,3339,197458.808,23,59.13,59.14,59.14,59.139,0.007170351193923074,0.007084348018596481,atvi,20191231
2019-12-31,11:22,11:22 AM,59.15,59.15,59.15,100,5915.0,1,59.16,59.135,59.15,4972,294094.1989,35,59.15,59.15,59.135,59.145,0.007425826889668562,0.007305733894177587,atvi,20191231
2019-12-31,11:23,11:23 AM,59.135,59.135,59.135,100,5913.5,1,59.155,59.135,59.142,3250,192212.825,26,59.135,59.135,59.14,59.15,0.007170351193923074,0.007169496432281578,atvi,20191231
2019-12-31,11:24,11:24 AM,59.14,59.13,59.139,112,6623.63,5,59.15,59.14,59.143,3600,212914.1,18,59.14,59.14,59.142,59.146,0.007238478046121951,0.007186526115018548,atvi,20191231
2019-12-31,11:25,11:25 AM,59.16,59.15,59.15,103,6092.48,2,59.18,59.15,59.163,4250,251443.52,35,59.15,59.16,59.15,59.155,0.007425826889668562,0.007527119769758693,atvi,20191231
2019-12-31,11:26,11:26 AM,59.16,59.145,59.148,5,295.74,3,59.17,59.15,59.16,2224,131571.55,18,59.16,59.145,59.16,59.15,0.007391763463569245,0.007476030721547659,atvi,20191231
2019-12-31,11:27,11:27 AM,,,,0,0.0,0,59.15,59.105,59.137,1967,116322.405,15,,,59.15,59.105,,0.007084348018596481,atvi,20191231
2019-12-31,11:28,11:28 AM,59.095,59.09,59.09,201,11877.095,3,59.11,59.08,59.098,4094,241946.525,28,59.095,59.09,59.1,59.095,0.0064039241066867324,0.006420190391853041,atvi,20191231
2019-12-31,11:29,11:29 AM,59.08,59.08,59.08,105,6203.4,2,59.095,59.08,59.091,2179,128759.9618,14,59.08,59.08,59.09,59.095,0.0062336069761896595,0.006300982612694003,atvi,20191231
2019-12-31,11:30,11:30 AM,,,,0,0.0,0,59.09,59.06,59.077,4570,269984.1,41,,,59.09,59.08,,0.0060625670543758056,atvi,20191231
2019-12-31,11:31,11:31 AM,59.065,59.065,59.065,100,5906.5,1,59.08,59.063,59.069,2648,156413.7544,19,59.065,59.065,59.08,59.07,0.005978131280444172,0.005926329592479796,atvi,20191231
2019-12-31,11:32,11:32 AM,59.085,59.085,59.085,100,5908.5,1,59.085,59.06,59.075,3150,186087.72,22,59.085,59.085,59.08,59.07,0.006318765541438196,0.006028507688901863,atvi,20191231
2019-12-31,11:33,11:33 AM,,,,0,0.0,0,59.065,59.03,59.048,2854,168523.2,25,,,59.065,59.035,,0.0055687062550025595,atvi,20191231
2019-12-31,11:34,11:34 AM,59.025,59.025,59.025,4,236.1,1,59.03,59.01,59.019,2136,126064.47,19,59.025,59.025,59.01,59.02,0.005296862758456244,0.005074845455629193,atvi,20191231
2019-12-31,11:35,11:35 AM,59.04,59.035,59.04,103,6081.105,2,59.05,59.025,59.039,1954,115361.8,18,59.035,59.04,59.03,59.045,0.005552338454201732,0.0054154391103694586,atvi,20191231
2019-12-31,11:36,11:36 AM,59.025,59.025,59.025,16,944.4,1,59.06,59.03,59.038,4995,294897.45,42,59.025,59.025,59.045,59.04,0.005296862758456244,0.005398409427632367,atvi,20191231
2019-12-31,11:37,11:37 AM,,,,0,0.0,0,59.03,59.02,59.024,1350,79682.5,13,,,59.03,59.02,,0.00515999386931429,atvi,20191231
2019-12-31,11:38,11:38 AM,,,,0,0.0,0,59.048,59.02,59.029,5567,328615.958,16,,,59.022,59.045,,0.0052451422829993865,atvi,20191231
2019-12-31,11:39,11:39 AM,59.06,59.045,59.055,400,23622.0,4,59.06,59.041,59.05,2700,159435.57,24,59.055,59.06,59.05,59.06,0.00580781414994722,0.005602765620476502,atvi,20191231
2019-12-31,11:40,11:40 AM,59.04,59.04,59.04,100,5904.0,1,59.05,59.03,59.043,1650,97420.515,16,59.04,59.04,59.045,59.03,0.005552338454201732,0.005483557841317463,atvi,20191231
2019-12-31,11:41,11:41 AM,59.045,59.045,59.045,100,5904.5,1,59.045,59.03,59.037,700,41326.0,7,59.045,59.045,59.03,59.045,0.005637497019450269,0.005381379744895396,atvi,20191231
2019-12-31,11:42,11:42 AM,59.05,59.045,59.047,300,17714.0,4,59.07,59.045,59.058,2300,135833.5,21,59.045,59.05,59.05,59.06,0.005671560445549587,0.005739003082372632,atvi,20191231
2019-12-31,11:43,11:43 AM,,,,0,0.0,0,59.07,59.05,59.06,1602,94614.6202,16,,,59.06,59.055,,0.0057730624478466944,atvi,20191231
2019-12-31,11:44,11:44 AM,,,,0,0.0,0,59.095,59.05,59.073,2500,147682.0,22,,,59.06,59.095,,0.0059944483234278005,atvi,20191231
2019-12-31,11:45,11:45 AM,59.095,59.095,59.095,111,6559.545,2,59.12,59.08,59.096,6991,413141.478,54,59.095,59.095,59.095,59.12,0.0064890826719351475,0.006386131026378979,atvi,20191231
2019-12-31,11:46,11:46 AM,59.145,59.14,59.142,200,11828.5,2,59.15,59.115,59.137,4318,255352.02,36,59.145,59.14,59.12,59.13,0.007289573185271049,0.007084348018596481,atvi,20191231
2019-12-31,11:47,11:47 AM,59.105,59.105,59.105,1,59.105,1,59.14,59.11,59.128,5227,309061.6703,41,59.105,59.105,59.13,59.13,0.006659399802432099,0.006931080873963379,atvi,20191231
2019-12-31,11:48,11:48 AM,,,,0,0.0,0,59.125,59.12,59.121,700,41384.5,7,,,59.12,59.125,,0.006811873094804341,atvi,20191231
2019-12-31,11:49,11:49 AM,59.125,59.115,59.115,201,11882.125,3,59.14,59.11,59.12,3242,191668.524,16,59.125,59.115,59.122,59.11,0.006829716932929171,0.006794843412067249,atvi,20191231
2019-12-31,11:50,11:50 AM,59.125,59.12,59.122,202,11942.74,4,59.16,59.11,59.132,3617,213882.08,31,59.12,59.125,59.115,59.16,0.0069489389242770256,0.006999199604911384,atvi,20191231
2019-12-31,11:51,11:51 AM,,,,0,0.0,0,59.15,59.145,59.146,903,53408.664,7,,,59.145,59.15,,0.007237615163229582,atvi,20191231
2019-12-31,11:52,11:52 AM,59.16,59.16,59.16,124,7335.84,3,59.16,59.14,59.154,3425,202601.95,28,59.16,59.16,59.145,59.15,0.007596144020165513,0.007373852625125713,atvi,20191231
2019-12-31,11:53,11:53 AM,59.15,59.15,59.15,100,5915.0,1,59.15,59.14,59.145,2858,169036.6211,21,59.15,59.15,59.15,59.145,0.007425826889668562,0.007220585480492611,atvi,20191231
2019-12-31,11:54,11:54 AM,59.155,59.155,59.155,100,5915.5,1,59.18,59.14,59.156,6201,366823.2949,46,59.155,59.155,59.15,59.14,0.007510985454917098,0.007407911990599654,atvi,20191231
2019-12-31,11:55,11:55 AM,59.15,59.13,59.142,205,12124.15,4,59.16,59.12,59.149,8300,490933.4,33,59.13,59.15,59.12,59.15,0.007289573185271049,0.007288704211440616,atvi,20191231
2019-12-31,11:56,11:56 AM,59.155,59.155,59.155,100,5915.5,1,59.16,59.15,59.152,2273,134451.95,17,59.155,59.155,59.15,59.155,0.007510985454917098,0.00733979325965165,atvi,20191231
2019-12-31,11:57,11:57 AM,,,,0,0.0,0,59.16,59.13,59.147,1800,106465.0,16,,,59.16,59.14,,0.007254644845966553,atvi,20191231
2019-12-31,11:58,11:58 AM,59.16,59.16,59.16,100,5916.0,1,59.16,59.15,59.156,2140,126593.07,17,59.16,59.16,59.15,59.16,0.007596144020165513,0.007407911990599654,atvi,20191231
2019-12-31,11:59,11:59 AM,59.175,59.175,59.175,200,11835.0,2,59.18,59.16,59.176,4100,242622.81,19,59.175,59.175,59.16,59.17,0.007851619715911001,0.00774850564533992,atvi,20191231
2019-12-31,12:00,12 PM,59.165,59.155,59.16,301,17807.155,4,59.17,59.14,59.151,3831,226608.15,37,59.165,59.155,59.16,59.17,0.007596144020165513,0.007322763576914679,atvi,20191231
2019-12-31,12:01,12:01 PM,,,,0,0.0,0,59.175,59.16,59.162,1358,80342.28,13,,,59.165,59.175,,0.007510090087021722,atvi,20191231
2019-12-31,12:02,12:02 PM,,,,0,0.0,0,59.18,59.17,59.175,1800,106515.27,15,,,59.18,59.17,,0.007731475962602828,atvi,20191231
2019-12-31,12:03,12:03 PM,59.21,59.205,59.208,200,11841.5,3,59.21,59.18,59.195,5110,302484.992,38,59.21,59.205,59.18,59.205,0.008413666246551075,0.008072069617343093,atvi,20191231
2019-12-31,12:04,12:04 PM,59.22,59.22,59.22,100,5922.0,1,59.23,59.19,59.212,4301,254672.02,30,59.22,59.22,59.21,59.19,0.008618046803147464,0.008361574223872325,atvi,20191231
2019-12-31,12:05,12:05 PM,,,,0,0.0,0,59.21,59.16,59.184,6304,373098.135,47,,,59.19,59.16,,0.00788474310723593,atvi,20191231
2019-12-31,12:06,12:06 PM,,,,0,0.0,0,59.155,59.15,59.15,1100,65065.5,10,,,59.15,59.15,,0.007305733894177587,atvi,20191231
2019-12-31,12:07,12:07 PM,59.15,59.145,59.145,1736,102676.72,8,59.17,59.14,59.151,5352,316575.885,33,59.15,59.145,59.15,59.165,0.007340668324420147,0.007322763576914679,atvi,20191231
2019-12-31,12:08,12:08 PM,,,,0,0.0,0,59.19,59.17,59.181,4191,248028.4547,15,,,59.17,59.19,,0.007833654059024895,atvi,20191231
2019-12-31,12:09,12:09 PM,59.195,59.19,59.193,200,11838.5,2,59.195,59.184,59.188,4600,272264.92,30,59.195,59.19,59.195,59.19,0.008158190550805586,0.007952861838184055,atvi,20191231
2019-12-31,12:10,12:10 PM,,,,0,0.0,0,59.22,59.2,59.207,4213,249438.73,14,,,59.2,59.22,,0.008276425810187229,atvi,20191231
2019-12-31,12:11,12:11 PM,,,,0,0.0,0,59.22,59.21,59.215,1112,65847.16,8,,,59.22,59.215,,0.008412663272083358,atvi,20191231
2019-12-31,12:12,12:12 PM,59.205,59.205,59.205,100,5920.5,1,59.216,59.185,59.203,2000,118406.59,17,59.205,59.205,59.216,59.185,0.008362571107401977,0.008208307079239224,atvi,20191231
2019-12-31,12:13,12:13 PM,,,,0,0.0,0,59.19,59.18,59.183,980,57999.43,9,,,59.185,59.18,,0.007867713424498959,atvi,20191231
2019-12-31,12:14,12:14 PM,,,,0,0.0,0,59.23,59.19,59.202,4199,248590.8062,33,,,59.19,59.23,,0.008191277396502132,atvi,20191231
2019-12-31,12:15,12:15 PM,59.205,59.205,59.205,100,5920.5,1,59.23,59.2,59.212,2308,136661.63,17,59.205,59.205,59.225,59.2,0.008362571107401977,0.008361574223872325,atvi,20191231
2019-12-31,12:16,12:16 PM,59.205,59.2,59.2,201,11899.205,4,59.22,59.2,59.208,2763,163592.405,26,59.205,59.2,59.204,59.21,0.008277412542153561,0.0082934554929242,atvi,20191231
2019-12-31,12:17,12:17 PM,,,,0,0.0,0,59.21,59.17,59.191,2509,148511.55,17,,,59.205,59.175,,0.008003950886395089,atvi,20191231
2019-12-31,12:18,12:18 PM,,,,0,0.0,0,59.176,59.15,59.161,900,53244.58,9,,,59.176,59.16,,0.007493060404284751,atvi,20191231
2019-12-31,12:19,12:19 PM,59.165,59.165,59.165,1,59.165,1,59.175,59.165,59.169,1157,68458.0149,11,59.165,59.165,59.17,59.166,0.00768130258541405,0.00762929786618076,atvi,20191231
2019-12-31,12:20,12:20 PM,59.17,59.165,59.165,765,45261.53,4,59.19,59.16,59.175,4259,252028.63,34,59.165,59.17,59.162,59.19,0.00768130258541405,0.007731475962602828,atvi,20191231
2019-12-31,12:21,12:21 PM,,,,0,0.0,0,59.21,59.195,59.201,4991,295471.294,40,,,59.2,59.2,,0.00817424771376516,atvi,20191231
2019-12-31,12:22,12:22 PM,59.205,59.205,59.205,100,5920.5,1,59.22,59.2,59.207,1201,71107.77,12,59.205,59.205,59.205,59.21,0.008362571107401977,0.008276425810187229,atvi,20191231
2019-12-31,12:23,12:23 PM,59.235,59.235,59.235,20,1184.7,1,59.24,59.215,59.226,2329,137937.24,18,59.235,59.235,59.22,59.22,0.008873522498892953,0.008599989782190402,atvi,20191231
2019-12-31,12:24,12:24 PM,,,,0,0.0,0,59.21,59.205,59.209,600,35525.5,6,,,59.21,59.21,,0.00831048517566129,atvi,20191231
2019-12-31,12:25,12:25 PM,,,,0,0.0,0,59.225,59.22,59.22,1338,79236.86,12,,,59.22,59.22,,0.008497811685768334,atvi,20191231
2019-12-31,12:26,12:26 PM,59.215,59.195,59.215,3512,207963.005,8,59.22,59.19,59.206,12828,759491.6,65,59.21,59.215,59.21,59.215,0.00853288823789905,0.008259396127450257,atvi,20191231
2019-12-31,12:27,12:27 PM,59.22,59.2,59.213,890,52699.4,9,59.22,59.2,59.212,5201,307960.19,34,59.215,59.2,59.21,59.21,0.00849882481179961,0.008361574223872325,atvi,20191231
2019-12-31,12:28,12:28 PM,59.24,59.225,59.226,2212,131007.2,10,59.25,59.215,59.238,11980,709675.92,43,59.225,59.24,59.215,59.245,0.00872023708144566,0.008804345975034537,atvi,20191231
2019-12-31,12:29,12:29 PM,59.25,59.245,59.246,600,35547.5,5,59.25,59.23,59.24,2274,134712.85,19,59.25,59.245,59.25,59.24,0.009060871342439684,0.0088384053405086,atvi,20191231
2019-12-31,12:30,12:30 PM,,,,0,0.0,0,59.245,59.22,59.232,3213,190311.4262,26,,,59.23,59.233,,0.00870216787861247,atvi,20191231
2019-12-31,12:31,12:31 PM,59.235,59.235,59.235,100,5923.5,1,59.24,59.23,59.234,2682,158864.85,25,59.235,59.235,59.235,59.24,0.008873522498892953,0.008736227244086531,atvi,20191231
2019-12-31,12:32,12:32 PM,59.225,59.225,59.225,100,5922.5,1,59.23,59.225,59.228,950,56266.855,9,59.225,59.225,59.23,59.226,0.008703205368396002,0.008634049147664465,atvi,20191231
2019-12-31,12:33,12:33 PM,59.225,59.225,59.225,200,11845.0,2,59.23,59.22,59.221,2082,123299.04,17,59.225,59.225,59.23,59.225,0.008703205368396002,0.008514841368505305,atvi,20191231
2019-12-31,12:34,12:34 PM,,,,0,0.0,0,,,,0,0.0,0,,,,,,,atvi,20191231
2019-12-31,12:35,12:35 PM,59.225,59.225,59.225,200,11845.0,2,59.235,59.21,59.224,3000,177672.5,18,59.225,59.225,59.225,59.21,0.008703205368396002,0.00856593041671634,atvi,20191231
2019-12-31,12:36,12:36 PM,59.205,59.19,59.203,1002,59320.905,6,59.22,59.19,59.198,17161,1015902.09,30,59.205,59.19,59.22,59.19,0.008328507681302659,0.008123158665554128,atvi,20191231
2019-12-31,12:37,12:37 PM,59.215,59.205,59.208,917,54294.045,6,59.22,59.2,59.202,23479,1389999.12,27,59.205,59.215,59.2,59.22,0.008413666246551075,0.008191277396502132,atvi,20191231
2019-12-31,12:38,12:38 PM,59.24,59.23,59.232,432,25588.405,9,59.24,59.22,59.23,3347,198244.22,30,59.23,59.235,59.22,59.235,0.008822427359743855,0.008668108513138406,atvi,20191231
2019-12-31,12:39,12:39 PM,,,,0,0.0,0,59.239,59.239,59.239,155,9182.107,1,,,59.239,59.239,,0.008821375657771508,atvi,20191231
2019-12-31,12:40,12:40 PM,59.24,59.235,59.237,200,11847.5,2,59.24,59.23,59.237,1800,106627.41,17,59.24,59.235,59.24,59.24,0.00890758592499239,0.008787316292297566,atvi,20191231
2019-12-31,12:41,12:41 PM,,,,0,0.0,0,59.25,59.23,59.24,2034,120495.3254,14,,,59.24,59.23,,0.0088384053405086,atvi,20191231
2019-12-31,12:42,12:42 PM,59.22,59.215,59.218,200,11843.5,2,59.24,59.21,59.222,3518,208342.81,25,59.22,59.215,59.24,59.22,0.008583983377048148,0.008531871051242397,atvi,20191231
2019-12-31,12:43,12:43 PM,59.255,59.235,59.245,200,11849.0,2,59.26,59.23,59.239,3995,236658.62,18,59.235,59.255,59.23,59.255,0.009043839629389904,0.008821375657771508,atvi,20191231
2019-12-31,12:44,12:44 PM,59.26,59.26,59.26,100,5926.0,1,59.27,59.233,59.255,4069,241109.43,34,59.26,59.26,59.26,59.24,0.009299315325135392,0.009093850581563768,atvi,20191231
2019-12-31,12:45,12:45 PM,59.25,59.235,59.239,32,1895.645,3,59.26,59.24,59.249,2339,138583.598,22,59.24,59.235,59.24,59.24,0.008941649351091709,0.0089916724851417,atvi,20191231
2019-12-31,12:46,12:46 PM,,,,0,0.0,0,59.235,59.21,59.226,1407,83331.11,14,,,59.23,59.21,,0.008599989782190402,atvi,20191231
2019-12-31,12:47,12:47 PM,59.2,59.2,59.2,100,5920.0,1,59.211,59.19,59.202,2122,125626.5643,17,59.2,59.2,59.211,59.2,0.008277412542153561,0.008191277396502132,atvi,20191231
2019-12-31,12:48,12:48 PM,59.2,59.195,59.198,260,15391.5,3,59.2,59.195,59.2,1100,65119.5,9,59.195,59.2,59.195,59.2,0.008243349116054123,0.00815721803102819,atvi,20191231
2019-12-31,12:49,12:49 PM,,,,0,0.0,0,59.2,59.19,59.196,2000,118391.43,19,,,59.2,59.193,,0.008089099300080064,atvi,20191231
2019-12-31,12:50,12:50 PM,59.205,59.195,59.201,638,37770.01,8,59.21,59.191,59.2,3344,197965.4432,26,59.205,59.205,59.195,59.21,0.008294444255203221,0.00815721803102819,atvi,20191231
2019-12-31,12:51,12:51 PM,59.21,59.21,59.21,100,5921.0,1,59.225,59.21,59.217,1875,111032.76,15,59.21,59.21,59.215,59.22,0.008447729672650513,0.0084467226375573,atvi,20191231
2019-12-31,12:52,12:52 PM,59.21,59.21,59.21,5,296.05,1,59.23,59.2,59.214,2000,118427.0,10,59.21,59.21,59.22,59.2,0.008447729672650513,0.008395633589346268,atvi,20191231
2019-12-31,12:53,12:53 PM,59.225,59.225,59.225,1,59.225,1,59.24,59.2,59.22,1500,88829.42,15,59.225,59.225,59.2,59.23,0.008703205368396002,0.008497811685768334,atvi,20191231
2019-12-31,12:54,12:54 PM,59.22,59.22,59.22,100,5922.0,1,59.24,59.22,59.228,2943,174309.579,28,59.22,59.22,59.23,59.235,0.008618046803147464,0.008634049147664465,atvi,20191231
2019-12-31,12:55,12:55 PM,,,,0,0.0,0,59.26,59.24,59.249,1600,94799.0,16,,,59.24,59.25,,0.0089916724851417,atvi,20191231
2019-12-31,12:56,12:56 PM,59.275,59.275,59.275,100,5927.5,1,59.283,59.26,59.271,2800,165959.32,16,59.275,59.275,59.26,59.28,0.009554791020880879,0.009366325505355908,atvi,20191231
2019-12-31,12:57,12:57 PM,59.265,59.265,59.265,6,355.59,2,59.28,59.27,59.274,2303,136507.96,12,59.265,59.265,59.28,59.27,0.009384473890383927,0.009417414553566943,atvi,20191231
2019-12-31,12:58,12:58 PM,59.28,59.275,59.277,100,5927.665,2,59.281,59.275,59.279,1800,106702.64,16,59.28,59.275,59.275,59.28,0.009588854446980318,0.009502562967252038,atvi,20191231
2019-12-31,12:59,12:59 PM,,,,0,0.0,0,59.285,59.25,59.273,2300,136328.57,23,,,59.28,59.25,,0.009400384870829972,atvi,20191231
2019-12-31,13:00,1 PM,59.28,59.28,59.28,12,711.36,1,59.28,59.255,59.262,22178,1314317.88,41,59.28,59.28,59.255,59.276,0.009639949586129416,0.009213058360722807,atvi,20191231
2019-12-31,13:01,1:01 PM,59.295,59.295,59.295,1,59.295,1,59.295,59.27,59.279,3759,222830.161,26,59.295,59.295,59.27,59.29,0.009895425281874903,0.009502562967252038,atvi,20191231
2019-12-31,13:02,1:02 PM,,,,0,0.0,0,59.32,59.29,59.301,9600,569293.98,43,,,59.295,59.3,,0.009877215987466246,atvi,20191231
2019-12-31,13:03,1:03 PM,59.31,59.31,59.31,100,5931.0,1,59.31,59.3,59.303,1345,79762.5,10,59.31,59.31,59.3,59.3,0.010150900977620392,0.009911275352940188,atvi,20191231
2019-12-31,13:04,1:04 PM,59.265,59.265,59.265,100,5926.5,1,59.29,59.26,59.278,22769,1349708.51,44,59.265,59.265,59.29,59.27,0.009384473890383927,0.009485533284514947,atvi,20191231
2019-12-31,13:05,1:05 PM,59.275,59.275,59.275,1400,82985.0,1,59.3,59.25,59.274,5750,340827.66,30,59.275,59.275,59.25,59.3,0.009554791020880879,0.009417414553566943,atvi,20191231
2019-12-31,13:06,1:06 PM,,,,0,0.0,0,59.306,59.302,59.303,975,57820.0346,3,,,59.302,59.306,,0.009911275352940188,atvi,20191231
2019-12-31,13:07,1:07 PM,59.305,59.305,59.305,100,5930.5,1,59.315,59.305,59.31,2067,122593.77,18,59.305,59.305,59.31,59.31,0.010065742412371854,0.010030483132099347,atvi,20191231
2019-12-31,13:08,1:08 PM,59.335,59.335,59.335,100,5933.5,1,59.335,59.32,59.326,1985,117762.99,18,59.335,59.335,59.32,59.332,0.01057669380386283,0.010302958055891487,atvi,20191231
2019-12-31,13:09,1:09 PM,59.345,59.335,59.345,205,12165.675,3,59.345,59.33,59.336,3700,219542.0,33,59.345,59.335,59.33,59.335,0.010747010934359782,0.010473254883261559,atvi,20191231
2019-12-31,13:10,1:10 PM,59.35,59.33,59.349,16,949.58,2,59.36,59.325,59.343,4922,292087.441,37,59.33,59.35,59.334,59.35,0.010815137786558538,0.01059246266242072,atvi,20191231
2019-12-31,13:11,1:11 PM,,,,0,0.0,0,59.36,59.352,59.355,534,31695.5612,5,,,59.352,59.354,,0.010796818855264734,atvi,20191231
2019-12-31,13:12,1:12 PM,59.36,59.36,59.36,200,11872.0,2,59.37,59.355,59.362,2907,172565.01,26,59.36,59.36,59.36,59.365,0.01100248663010527,0.010916026634423892,atvi,20191231
2019-12-31,13:13,1:13 PM,59.37,59.37,59.37,100,5937.0,2,59.37,59.36,59.364,1752,104006.48,10,59.37,59.37,59.36,59.37,0.011172803760602222,0.010950085999897835,atvi,20191231
2019-12-31,13:14,1:14 PM,,,,0,0.0,0,59.36,59.354,59.359,933,55382.1534,6,,,59.36,59.36,,0.01086493758621286,atvi,20191231
2019-12-31,13:15,1:15 PM,59.36,59.35,59.353,140,8309.4,2,59.36,59.34,59.348,3141,186412.69,26,59.36,59.35,59.36,59.35,0.010883264638757415,0.010677611076105695,atvi,20191231
2019-12-31,13:16,1:16 PM,59.355,59.355,59.355,29,1721.295,1,59.35,59.33,59.343,1900,112751.0,18,59.355,59.355,59.35,59.34,0.010917328064856733,0.01059246266242072,atvi,20191231
2019-12-31,13:17,1:17 PM,59.325,59.325,59.325,19,1127.175,1,59.34,59.32,59.328,2549,151226.4544,13,59.325,59.325,59.34,59.326,0.010406376673365879,0.01033701742136555,atvi,20191231
2019-12-31,13:18,1:18 PM,59.315,59.315,59.315,100,5931.5,1,59.32,59.3,59.315,2332,138323.24,19,59.315,59.315,59.32,59.305,0.010236059542868806,0.010115631545784322,atvi,20191231
2019-12-31,13:19,1:19 PM,59.295,59.295,59.295,100,5929.5,1,59.305,59.295,59.3,1500,88950.0,15,59.295,59.295,59.3,59.3,0.009895425281874903,0.009860186304729153,atvi,20191231
2019-12-31,13:20,1:20 PM,59.305,59.305,59.305,1,59.305,1,59.32,59.3,59.311,1892,112217.34,18,59.305,59.305,59.31,59.3,0.010065742412371854,0.010047512814836318,atvi,20191231
2019-12-31,13:21,1:21 PM,,,,0,0.0,0,59.3,59.293,59.297,800,47437.58,7,,,59.295,59.3,,0.00980909725651812,atvi,20191231
2019-12-31,13:22,1:22 PM,59.3,59.3,59.3,100,5930.0,1,59.31,59.3,59.302,1800,106743.05,14,59.3,59.3,59.3,59.305,0.009980583847123319,0.009894245670203217,atvi,20191231
2019-12-31,13:23,1:23 PM,,,,0,0.0,0,59.31,59.3,59.307,1606,95246.81,15,,,59.3,59.31,,0.009979394083888314,atvi,20191231
2019-12-31,13:24,1:24 PM,,,,0,0.0,0,59.31,59.3,59.307,1032,61204.6892,6,,,59.31,59.31,,0.009979394083888314,atvi,20191231
2019-12-31,13:25,1:25 PM,59.31,59.31,59.31,100,5931.0,1,59.32,59.31,59.316,1941,115132.992,17,59.31,59.31,59.31,59.32,0.010150900977620392,0.010132661228521415,atvi,20191231
2019-12-31,13:26,1:26 PM,,,,0,0.0,0,59.35,59.31,59.34,3012,178731.7,29,,,59.31,59.35,,0.010541373614209685,atvi,20191231
2019-12-31,13:27,1:27 PM,,,,0,0.0,0,59.355,59.343,59.349,2473,146770.53,21,,,59.35,59.35,,0.010694640758842666,atvi,20191231
2019-12-31,13:28,1:28 PM,59.355,59.355,59.355,100,5935.5,1,59.36,59.345,59.35,1399,83031.12,13,59.355,59.355,59.345,59.35,0.010917328064856733,0.010711670441579757,atvi,20191231
2019-12-31,13:29,1:29 PM,,,,0,0.0,0,59.36,59.325,59.339,2304,136716.2426,20,,,59.36,59.33,,0.010524343931472594,atvi,20191231
2019-12-31,13:30,1:30 PM,,,,0,0.0,0,59.33,59.32,59.327,3170,188065.4,28,,,59.33,59.32,,0.010319987738628458,atvi,20191231
2019-12-31,13:31,1:31 PM,,,,0,0.0,0,59.34,59.315,59.325,2805,166405.637,20,,,59.32,59.336,,0.010285928373154516,atvi,20191231
2019-12-31,13:32,1:32 PM,,,,0,0.0,0,59.35,59.335,59.349,7398,439060.8,18,,,59.335,59.35,,0.010694640758842666,atvi,20191231
2019-12-31,13:33,1:33 PM,59.325,59.325,59.325,2,118.65,2,59.34,59.32,59.33,1600,94928.65,11,59.325,59.325,59.34,59.33,0.010406376673365879,0.010371076786839491,atvi,20191231
2019-12-31,13:34,1:34 PM,59.345,59.32,59.334,279,16554.17,4,59.345,59.32,59.331,3451,204752.7658,24,59.325,59.345,59.326,59.345,0.010559662090813172,0.010388106469576584,atvi,20191231
2019-12-31,13:35,1:35 PM,59.345,59.345,59.345,300,17803.5,3,59.35,59.34,59.345,2617,155305.493,20,59.345,59.345,59.345,59.345,0.010747010934359782,0.01062652202789466,atvi,20191231
2019-12-31,13:36,1:36 PM,59.34,59.34,59.34,100,5934.0,1,59.355,59.34,59.35,2200,130569.4,14,59.34,59.34,59.345,59.34,0.010661852369111368,0.010711670441579757,atvi,20191231
2019-12-31,13:37,1:37 PM,,,,0,0.0,0,59.36,59.34,59.346,1700,100888.49,15,,,59.34,59.355,,0.010643551710631631,atvi,20191231
2019-12-31,13:38,1:38 PM,59.365,59.365,59.365,100,5936.5,1,59.37,59.36,59.361,2912,172860.705,24,59.365,59.365,59.36,59.365,0.011087645195353806,0.0108989969516868,atvi,20191231
2019-12-31,13:39,1:39 PM,59.37,59.37,59.37,100,5937.0,1,59.38,59.365,59.372,2600,154367.0,25,59.37,59.37,59.37,59.38,0.011172803760602222,0.011086323461793965,atvi,20191231
2019-12-31,13:40,1:40 PM,59.395,59.395,59.395,105,6236.475,2,59.4,59.39,59.397,3382,200880.8,17,59.395,59.395,59.39,59.395,0.011598596586844782,0.011512065530219205,atvi,20191231
2019-12-31,13:41,1:41 PM,59.385,59.385,59.385,5,296.925,1,59.41,59.39,59.399,4331,257259.2108,21,59.385,59.385,59.39,59.39,0.01142827945634771,0.01154612489569327,atvi,20191231
2019-12-31,13:42,1:42 PM,,,,0,0.0,0,59.389,59.37,59.378,2300,136569.7,21,,,59.389,59.38,,0.011188501558216032,atvi,20191231
2019-12-31,13:43,1:43 PM,,,,0,0.0,0,59.38,59.375,59.376,400,23750.5,3,,,59.375,59.375,,0.011154442192741969,atvi,20191231
2019-12-31,13:44,1:44 PM,,,,0,0.0,0,59.4,59.375,59.391,7100,421677.587,40,,,59.38,59.39,,0.011409887433797138,atvi,20191231
2019-12-31,13:45,1:45 PM,59.41,59.41,59.41,2,118.82,1,59.41,59.39,59.401,2939,174579.081,20,59.41,59.41,59.39,59.41,0.011854072282590148,0.011580184261167331,atvi,20191231
2019-12-31,13:46,1:46 PM,,,,0,0.0,0,59.41,59.4,59.403,2840,168704.47,19,,,59.4,59.4,,0.011614243626641273,atvi,20191231
2019-12-31,13:47,1:47 PM,59.385,59.385,59.385,100,5938.5,1,59.4,59.37,59.391,1500,89086.5,15,59.385,59.385,59.4,59.37,0.01142827945634771,0.011409887433797138,atvi,20191231
2019-12-31,13:48,1:48 PM,,,,0,0.0,0,59.39,59.38,59.385,1500,89078.1,6,,,59.38,59.39,,0.01130770933737507,atvi,20191231
2019-12-31,13:49,1:49 PM,59.39,59.39,59.39,100,5939.0,1,59.4,59.39,59.392,1439,85465.21,13,59.39,59.39,59.39,59.39,0.011513438021596245,0.01142691711653423,atvi,20191231
2019-12-31,13:50,1:50 PM,,,,0,0.0,0,59.392,59.356,59.382,2500,148454.44,16,,,59.39,59.36,,0.011256620289164037,atvi,20191231
2019-12-31,13:51,1:51 PM,59.38,59.36,59.37,203,12052.14,4,59.39,59.355,59.372,4623,274478.34,29,59.36,59.38,59.355,59.37,0.011172803760602222,0.011086323461793965,atvi,20191231
2019-12-31,13:52,1:52 PM,59.39,59.375,59.375,101,5996.89,2,59.39,59.375,59.382,2368,140616.78,20,59.375,59.39,59.375,59.375,0.011257962325850758,0.011256620289164037,atvi,20191231
2019-12-31,13:53,1:53 PM,,,,0,0.0,0,59.379,59.37,59.371,1100,65308.42,7,,,59.37,59.37,,0.011069293779056993,atvi,20191231
2019-12-31,13:54,1:54 PM,59.395,59.37,59.382,300,17814.5,3,59.395,59.36,59.379,6872,408053.0456,49,59.37,59.395,59.37,59.395,0.011377184317198611,0.011205531240953004,atvi,20191231
2019-12-31,13:55,1:55 PM,59.405,59.405,59.405,100,5940.5,1,59.41,59.4,59.405,1400,83166.5,11,59.405,59.405,59.4,59.405,0.011768913717341734,0.011648302992115335,atvi,20191231
2019-12-31,13:56,1:56 PM,,,,0,0.0,0,59.41,59.395,59.402,2090,124149.55,17,,,59.41,59.4,,0.011597213943904302,atvi,20191231
2019-12-31,13:57,1:57 PM,59.415,59.395,59.405,201,11940.41,3,59.415,59.39,59.405,2955,175540.97,21,59.395,59.415,59.395,59.41,0.011768913717341734,0.011648302992115335,atvi,20191231
2019-12-31,13:58,1:58 PM,59.41,59.395,59.405,309,18356.055,3,59.41,59.395,59.402,3209,190620.555,28,59.41,59.395,59.41,59.405,0.011768913717341734,0.011597213943904302,atvi,20191231
2019-12-31,13:59,1:59 PM,,,,0,0.0,0,59.41,59.41,59.41,1050,62380.415,3,,,59.41,59.41,,0.011733451405800312,atvi,20191231
2019-12-31,14:00,2 PM,59.39,59.39,59.39,100,5939.0,1,59.4,59.365,59.379,3900,231578.5,36,59.39,59.39,59.4,59.365,0.011513438021596245,0.011205531240953004,atvi,20191231
2019-12-31,14:01,2:01 PM,59.38,59.38,59.38,100,5938.0,1,59.38,59.36,59.371,2200,130616.61,18,59.38,59.38,59.375,59.366,0.011343120891099293,0.011069293779056993,atvi,20191231
2019-12-31,14:02,2:02 PM,59.355,59.345,59.345,101,5993.855,2,59.36,59.345,59.355,300,17806.5,3,59.355,59.345,59.36,59.345,0.010747010934359782,0.010796818855264734,atvi,20191231
2019-12-31,14:03,2:03 PM,,,,0,0.0,0,59.37,59.345,59.356,5342,317079.79,48,,,59.345,59.355,,0.010813848538001825,atvi,20191231
2019-12-31,14:04,2:04 PM,,,,0,0.0,0,59.36,59.35,59.355,1415,83986.75,10,,,59.355,59.355,,0.010796818855264734,atvi,20191231
2019-12-31,14:05,2:05 PM,59.365,59.355,59.365,102,6055.21,2,59.365,59.35,59.359,5863,348022.3648,50,59.355,59.365,59.359,59.365,0.011087645195353806,0.01086493758621286,atvi,20191231
2019-12-31,14:06,2:06 PM,59.365,59.365,59.365,132,7836.18,2,59.37,59.36,59.365,1247,74028.0904,12,59.365,59.365,59.36,59.37,0.011087645195353806,0.010967115682634926,atvi,20191231
2019-12-31,14:07,2:07 PM,,,,0,0.0,0,59.37,59.36,59.367,900,53430.5,7,,,59.365,59.365,,0.011001175048108868,atvi,20191231
2019-12-31,14:08,2:08 PM,59.36,59.33,59.351,554,32880.44,5,59.365,59.325,59.349,5125,304165.975,46,59.36,59.33,59.36,59.33,0.010849201212657977,0.010694640758842666,atvi,20191231
2019-12-31,14:09,2:09 PM,,,,0,0.0,0,59.33,59.32,59.325,400,23730.0,4,,,59.325,59.33,,0.010285928373154516,atvi,20191231
2019-12-31,14:10,2:10 PM,59.32,59.32,59.32,100,5932.0,1,59.33,59.31,59.325,4200,249164.26,38,59.32,59.32,59.32,59.31,0.010321218108117343,0.010285928373154516,atvi,20191231
2019-12-31,14:11,2:11 PM,59.31,59.295,59.308,118,6998.36,3,59.31,59.29,59.301,7226,428512.3438,49,59.31,59.295,59.31,59.295,0.010116837551520952,0.009877215987466246,atvi,20191231
2019-12-31,14:12,2:12 PM,,,,0,0.0,0,59.29,59.275,59.285,2268,134458.54,21,,,59.29,59.28,,0.009604741063673984,atvi,20191231
2019-12-31,14:13,2:13 PM,59.285,59.28,59.281,120,7113.7,2,59.28,59.27,59.277,3096,183520.92,28,59.285,59.28,59.275,59.275,0.009656981299179074,0.009468503601777976,atvi,20191231
2019-12-31,14:14,2:14 PM,59.265,59.26,59.263,200,11852.5,2,59.276,59.26,59.27,4485,265826.7555,34,59.26,59.265,59.27,59.27,0.00935041046428449,0.009349295822618937,atvi,20191231
2019-12-31,14:15,2:15 PM,59.265,59.265,59.265,100,5926.5,1,59.3,59.265,59.285,2500,148212.0,24,59.265,59.265,59.27,59.3,0.009384473890383927,0.009604741063673984,atvi,20191231
2019-12-31,14:16,2:16 PM,59.295,59.285,59.29,207,12272.97,4,59.31,59.29,59.297,2034,120610.1382,19,59.295,59.285,59.31,59.29,0.009810266716626367,0.00980909725651812,atvi,20191231
2019-12-31,14:17,2:17 PM,59.275,59.275,59.275,30,1778.25,1,59.285,59.26,59.273,7625,451955.75,66,59.275,59.275,59.285,59.27,0.009554791020880879,0.009400384870829972,atvi,20191231
2019-12-31,14:18,2:18 PM,59.285,59.26,59.263,231,13689.825,4,59.285,59.25,59.266,4800,284475.31,41,59.285,59.26,59.273,59.26,0.00935041046428449,0.009281177091670811,atvi,20191231
2019-12-31,14:19,2:19 PM,59.275,59.265,59.275,52,3082.28,2,59.285,59.27,59.276,1770,104918.6,17,59.265,59.275,59.27,59.275,0.009554791020880879,0.009451473919041005,atvi,20191231
2019-12-31,14:20,2:20 PM,59.275,59.275,59.275,50,2963.75,1,59.3,59.275,59.285,2300,136356.0,23,59.275,59.275,59.275,59.295,0.009554791020880879,0.009604741063673984,atvi,20191231
2019-12-31,14:21,2:21 PM,59.295,59.29,59.291,140,8300.8,2,59.32,59.29,59.3,4264,252854.7,28,59.295,59.29,59.29,59.315,0.009827298429676026,0.009860186304729153,atvi,20191231
2019-12-31,14:22,2:22 PM,59.31,59.305,59.305,100,5930.535,2,59.31,59.305,59.309,1768,104857.65,16,59.31,59.305,59.31,59.305,0.010065742412371854,0.010013453449362256,atvi,20191231
2019-12-31,14:23,2:23 PM,59.32,59.32,59.32,100,5932.0,1,59.32,59.31,59.312,1700,100830.65,13,59.32,59.32,59.315,59.31,0.010321218108117343,0.010064542497573289,atvi,20191231
2019-12-31,14:24,2:24 PM,59.32,59.315,59.317,194,11507.55,3,59.33,59.31,59.317,1700,100839.5,17,59.315,59.32,59.32,59.33,0.010270122968968246,0.010149690911258386,atvi,20191231
2019-12-31,14:25,2:25 PM,59.325,59.325,59.325,100,5932.5,1,59.33,59.32,59.328,2424,143810.87,23,59.325,59.325,59.33,59.32,0.010406376673365879,0.01033701742136555,atvi,20191231
2019-12-31,14:26,2:26 PM,59.29,59.29,59.29,100,5929.0,1,59.325,59.29,59.31,3436,203788.62,25,59.29,59.29,59.325,59.3,0.009810266716626367,0.010030483132099347,atvi,20191231
2019-12-31,14:27,2:27 PM,59.285,59.28,59.28,104,6165.14,2,59.3,59.28,59.289,7767,460495.166,33,59.28,59.285,59.3,59.295,0.009639949586129416,0.009672859794622112,atvi,20191231
2019-12-31,14:28,2:28 PM,59.29,59.275,59.285,1014,60115.475,13,59.29,59.275,59.285,6277,372134.92,48,59.29,59.275,59.29,59.28,0.009725108151377832,0.009604741063673984,atvi,20191231
2019-12-31,14:29,2:29 PM,59.29,59.275,59.29,308,18261.26,4,59.3,59.275,59.285,7491,444107.2456,37,59.275,59.285,59.28,59.275,0.009810266716626367,0.009604741063673984,atvi,20191231
2019-12-31,14:30,2:30 PM,59.275,59.275,59.275,310,18375.25,2,59.29,59.265,59.276,9964,590626.87,72,59.275,59.275,59.28,59.275,0.009554791020880879,0.009451473919041005,atvi,20191231
2019-12-31,14:31,2:31 PM,59.275,59.235,59.24,8718,516454.47,12,59.27,59.22,59.242,31291,1853731.685,141,59.275,59.235,59.27,59.23,0.008958681064141489,0.008872464705982542,atvi,20191231
2019-12-31,14:32,2:32 PM,59.255,59.25,59.254,400,23701.5,4,59.26,59.23,59.237,18305,1084343.62,51,59.255,59.25,59.23,59.24,0.009197125046837196,0.008787316292297566,atvi,20191231
2019-12-31,14:33,2:33 PM,59.235,59.22,59.229,627,37136.845,6,59.24,59.215,59.232,12873,762488.52,69,59.235,59.235,59.235,59.24,0.008771332220594757,0.00870216787861247,atvi,20191231
2019-12-31,14:34,2:34 PM,59.235,59.215,59.229,207,12260.505,3,59.24,59.215,59.229,3900,230995.0,33,59.235,59.225,59.235,59.24,0.008771332220594757,0.008651078830401436,atvi,20191231
2019-12-31,14:35,2:35 PM,59.305,59.245,59.283,1046,62009.92,12,59.31,59.245,59.278,12799,758696.075,81,59.245,59.305,59.245,59.305,0.009691044725278514,0.009485533284514947,atvi,20191231
2019-12-31,14:36,2:36 PM,59.3,59.3,59.3,100,5930.0,1,59.31,59.29,59.297,3900,231259.83,30,59.3,59.3,59.3,59.305,0.009980583847123319,0.00980909725651812,atvi,20191231
2019-12-31,14:37,2:37 PM,59.3,59.295,59.297,200,11859.5,2,59.302,59.265,59.28,5610,332563.22,29,59.3,59.295,59.302,59.27,0.009929488707974221,0.009519592649989009,atvi,20191231
2019-12-31,14:38,2:38 PM,,,,0,0.0,0,59.28,59.27,59.273,431,25546.8285,4,,,59.27,59.28,,0.009400384870829972,atvi,20191231
2019-12-31,14:39,2:39 PM,59.26,59.26,59.26,100,5926.0,1,59.27,59.26,59.266,2345,138978.655,20,59.26,59.26,59.27,59.27,0.009299315325135392,0.009281177091670811,atvi,20191231
2019-12-31,14:40,2:40 PM,,,,0,0.0,0,59.27,59.26,59.263,750,44447.25,7,,,59.26,59.26,,0.009230088043459778,atvi,20191231
2019-12-31,14:41,2:41 PM,59.28,59.27,59.28,101,5987.27,2,59.3,59.265,59.283,5710,338504.8,53,59.27,59.28,59.265,59.3,0.009639949586129416,0.009570681698200044,atvi,20191231
2019-12-31,14:42,2:42 PM,59.29,59.29,59.29,16,948.64,2,59.3,59.28,59.296,4103,243290.38,35,59.29,59.29,59.3,59.28,0.009810266716626367,0.009792067573781149,atvi,20191231
2019-12-31,14:43,2:43 PM,,,,0,0.0,0,59.32,59.285,59.299,4703,278884.33,38,,,59.29,59.32,,0.009843156621992184,atvi,20191231
2019-12-31,14:44,2:44 PM,,,,0,0.0,0,59.318,59.29,59.306,6505,385785.51,54,,,59.315,59.29,,0.009962364401151221,atvi,20191231
2019-12-31,14:45,2:45 PM,,,,0,0.0,0,59.3,59.28,59.291,2970,176094.95,27,,,59.29,59.295,,0.009706919160096052,atvi,20191231
2019-12-31,14:46,2:46 PM,59.305,59.305,59.305,100,5930.5,1,59.31,59.295,59.303,2000,118606.5,19,59.305,59.305,59.3,59.305,0.010065742412371854,0.009911275352940188,atvi,20191231
2019-12-31,14:47,2:47 PM,59.305,59.305,59.305,200,11861.0,2,59.31,59.304,59.308,2703,160308.62,23,59.305,59.305,59.31,59.305,0.010065742412371854,0.009996423766625285,atvi,20191231
2019-12-31,14:48,2:48 PM,59.325,59.31,59.319,401,23786.82,5,59.33,59.3,59.316,3816,226348.5,33,59.31,59.32,59.305,59.315,0.010304186395067683,0.010132661228521415,atvi,20191231
2019-12-31,14:49,2:49 PM,59.305,59.305,59.305,212,12572.66,2,59.31,59.3,59.308,1912,113397.66,19,59.305,59.305,59.31,59.305,0.010065742412371854,0.009996423766625285,atvi,20191231
2019-12-31,14:50,2:50 PM,59.305,59.305,59.305,88,5218.84,1,59.32,59.305,59.312,2849,168978.777,27,59.305,59.305,59.31,59.32,0.010065742412371854,0.010064542497573289,atvi,20191231
2019-12-31,14:51,2:51 PM,59.325,59.325,59.325,6,355.95,1,59.33,59.32,59.325,2058,122089.8382,14,59.325,59.325,59.323,59.325,0.010406376673365879,0.010285928373154516,atvi,20191231
2019-12-31,14:52,2:52 PM,59.305,59.305,59.305,6,355.83,1,59.33,59.3,59.319,6401,379699.225,38,59.305,59.305,59.32,59.315,0.010065742412371854,0.010183750276732448,atvi,20191231
2019-12-31,14:53,2:53 PM,59.31,59.3,59.307,300,17792.0,3,59.315,59.3,59.309,2520,149459.76,23,59.31,59.3,59.31,59.3,0.010099805838471294,0.010013453449362256,atvi,20191231
2019-12-31,14:54,2:54 PM,59.3,59.295,59.298,175,10377.125,2,59.31,59.3,59.302,2782,164977.9,24,59.3,59.295,59.31,59.3,0.009946520421024,0.009894245670203217,atvi,20191231
2019-12-31,14:55,2:55 PM,,,,0,0.0,0,59.3,59.27,59.285,5235,310360.055,47,,,59.29,59.295,,0.009604741063673984,atvi,20191231
2019-12-31,14:56,2:56 PM,59.3,59.3,59.3,106,6285.8,2,59.304,59.29,59.297,2400,142314.14,20,59.3,59.3,59.29,59.295,0.009980583847123319,0.00980909725651812,atvi,20191231
2019-12-31,14:57,2:57 PM,59.285,59.285,59.285,1,59.285,1,59.29,59.26,59.278,2100,124483.5,17,59.285,59.285,59.29,59.26,0.009725108151377832,0.009485533284514947,atvi,20191231
2019-12-31,14:58,2:58 PM,59.275,59.275,59.275,10,592.75,1,59.28,59.265,59.275,9565,566967.945,41,59.275,59.275,59.265,59.27,0.009554791020880879,0.009434444236303912,atvi,20191231
2019-12-31,14:59,2:59 PM,,,,0,0.0,0,59.28,59.26,59.27,2811,166609.045,22,,,59.27,59.27,,0.009349295822618937,atvi,20191231
2019-12-31,15:00,3 PM,59.26,59.26,59.26,200,11852.0,2,59.27,59.25,59.262,4456,264071.8984,39,59.26,59.26,59.262,59.265,0.009299315325135392,0.009213058360722807,atvi,20191231
2019-12-31,15:01,3:01 PM,59.285,59.265,59.272,700,41490.5,8,59.285,59.26,59.269,6624,392600.5146,43,59.265,59.285,59.265,59.285,0.009503695881731783,0.009332266139881846,atvi,20191231
2019-12-31,15:02,3:02 PM,59.29,59.285,59.286,20,1185.725,2,59.3,59.28,59.287,5000,296436.4704,42,59.285,59.29,59.29,59.283,0.009742139864427611,0.009638800429148048,atvi,20191231
2019-12-31,15:03,3:03 PM,59.305,59.285,59.286,104,6165.72,3,59.31,59.285,59.297,4334,256992.43,35,59.285,59.305,59.285,59.305,0.009742139864427611,0.00980909725651812,atvi,20191231
2019-12-31,15:04,3:04 PM,,,,0,0.0,0,59.31,59.305,59.306,1000,59306.28,9,,,59.305,59.305,,0.009962364401151221,atvi,20191231
2019-12-31,15:05,3:05 PM,59.3,59.29,59.295,201,11918.29,3,59.305,59.27,59.293,3141,186238.87,25,59.3,59.29,59.305,59.27,0.009895425281874903,0.009740978525570116,atvi,20191231
2019-12-31,15:06,3:06 PM,59.27,59.27,59.27,200,11854.0,3,59.285,59.265,59.273,3379,200284.0114,26,59.27,59.27,59.27,59.281,0.009469632455632464,0.009400384870829972,atvi,20191231
2019-12-31,15:07,3:07 PM,59.285,59.285,59.285,100,5928.5,1,59.285,59.275,59.281,1977,117197.56,17,59.285,59.285,59.285,59.28,0.009725108151377832,0.00953662233272598,atvi,20191231
2019-12-31,15:08,3:08 PM,59.315,59.31,59.31,121,7176.525,4,59.33,59.285,59.307,8782,520834.4568,74,59.31,59.315,59.285,59.33,0.010150900977620392,0.009979394083888314,atvi,20191231
2019-12-31,15:09,3:09 PM,59.33,59.33,59.33,100,5933.0,1,59.33,59.32,59.326,2104,124822.3,19,59.33,59.33,59.325,59.33,0.010491535238614295,0.010302958055891487,atvi,20191231
2019-12-31,15:10,3:10 PM,59.325,59.325,59.325,100,5932.5,1,59.33,59.32,59.326,2270,134670.045,20,59.325,59.325,59.325,59.32,0.010406376673365879,0.010302958055891487,atvi,20191231
2019-12-31,15:11,3:11 PM,59.32,59.31,59.31,17,1008.28,4,59.34,59.3,59.323,10509,623428.13,77,59.32,59.31,59.325,59.3,0.010150900977620392,0.010251869007680454,atvi,20191231
2019-12-31,15:12,3:12 PM,59.31,59.31,59.31,100,5931.0,1,59.32,59.3,59.31,8047,477267.07,67,59.31,59.31,59.31,59.32,0.010150900977620392,0.010030483132099347,atvi,20191231
2019-12-31,15:13,3:13 PM,59.325,59.31,59.316,400,23726.5,3,59.335,59.305,59.318,4510,267522.63,38,59.32,59.31,59.32,59.31,0.010253091255918586,0.010166720593995357,atvi,20191231
2019-12-31,15:14,3:14 PM,,,,0,0.0,0,59.32,59.305,59.311,3139,186176.915,23,,,59.31,59.32,,0.010047512814836318,atvi,20191231
2019-12-31,15:15,3:15 PM,,,,0,0.0,0,59.315,59.305,59.311,2000,118621.5,17,,,59.315,59.305,,0.010047512814836318,atvi,20191231
2019-12-31,15:16,3:16 PM,,,,0,0.0,0,59.32,59.295,59.309,4213,249869.6,32,,,59.31,59.3,,0.010013453449362256,atvi,20191231
2019-12-31,15:17,3:17 PM,59.295,59.27,59.283,250,14820.75,3,59.3,59.27,59.286,3180,188529.5,27,59.295,59.27,59.3,59.27,0.009691044725278514,0.009621770746411077,atvi,20191231
2019-12-31,15:18,3:18 PM,59.28,59.28,59.28,300,17784.0,1,59.3,59.265,59.278,10916,647076.78,81,59.28,59.28,59.28,59.295,0.009639949586129416,0.009485533284514947,atvi,20191231
2019-12-31,15:19,3:19 PM,,,,0,0.0,0,59.295,59.28,59.288,3070,182013.6465,23,,,59.295,59.285,,0.00965583011188502,atvi,20191231
2019-12-31,15:20,3:20 PM,59.285,59.28,59.283,300,17785.0,3,59.29,59.275,59.285,4535,268857.16,42,59.285,59.285,59.28,59.29,0.009691044725278514,0.009604741063673984,atvi,20191231
2019-12-31,15:21,3:21 PM,59.29,59.29,59.29,3,177.87,1,59.3,59.28,59.29,3969,235322.4772,27,59.29,59.29,59.28,59.295,0.009810266716626367,0.009689889477359081,atvi,20191231
2019-12-31,15:22,3:22 PM,59.295,59.295,59.295,100,5929.5,1,59.32,59.29,59.306,5424,321678.37,51,59.295,59.295,59.3,59.315,0.009895425281874903,0.009962364401151221,atvi,20191231
2019-12-31,15:23,3:23 PM,59.315,59.305,59.314,115,6821.075,2,59.315,59.28,59.303,3602,213607.9,35,59.315,59.305,59.31,59.285,0.010219027829819148,0.009911275352940188,atvi,20191231
2019-12-31,15:24,3:24 PM,59.29,59.285,59.288,500,29644.0,3,59.29,59.28,59.287,2400,142288.5,20,59.285,59.29,59.28,59.29,0.009776203290526928,0.009638800429148048,atvi,20191231
2019-12-31,15:25,3:25 PM,59.295,59.285,59.289,600,35573.5,4,59.3,59.28,59.291,6404,379697.02,45,59.29,59.285,59.29,59.285,0.00979323500357671,0.009706919160096052,atvi,20191231
2019-12-31,15:26,3:26 PM,59.275,59.235,59.252,205,12146.735,5,59.286,59.23,59.252,10389,615574.45,79,59.275,59.255,59.286,59.25,0.00916306162073788,0.009042761533352735,atvi,20191231
2019-12-31,15:27,3:27 PM,59.245,59.24,59.245,301,17832.74,4,59.255,59.235,59.243,5160,305695.41,41,59.24,59.245,59.25,59.24,0.009043839629389904,0.008889494388719634,atvi,20191231
2019-12-31,15:28,3:28 PM,59.235,59.225,59.229,318,18834.71,5,59.25,59.22,59.233,7798,461899.59,58,59.235,59.23,59.24,59.23,0.008771332220594757,0.00871919756134944,atvi,20191231
2019-12-31,15:29,3:29 PM,59.235,59.225,59.235,287,17000.375,4,59.24,59.22,59.231,4857,287683.663,41,59.235,59.235,59.23,59.235,0.008873522498892953,0.008685138195875498,atvi,20191231
2019-12-31,15:30,3:30 PM,,,,0,0.0,0,59.25,59.24,59.245,5479,324603.96,23,,,59.24,59.24,,0.008923553754193575,atvi,20191231
2019-12-31,15:31,3:31 PM,59.255,59.245,59.25,200,11850.0,2,59.28,59.235,59.25,8988,532541.9512,73,59.245,59.255,59.245,59.275,0.00912899819463844,0.009008702167878671,atvi,20191231
2019-12-31,15:32,3:32 PM,59.275,59.255,59.264,300,17779.2,5,59.27,59.253,59.265,6353,376510.019,59,59.275,59.265,59.27,59.27,0.009367442177334269,0.00926414740893384,atvi,20191231
2019-12-31,15:33,3:33 PM,59.295,59.295,59.295,300,17788.5,3,59.3,59.28,59.291,3772,223647.04,24,59.295,59.295,59.28,59.295,0.009895425281874903,0.009706919160096052,atvi,20191231
2019-12-31,15:34,3:34 PM,59.3,59.295,59.299,526,31191.17,6,59.31,59.295,59.3,6142,364221.1,54,59.295,59.295,59.295,59.305,0.00996355213407366,0.009860186304729153,atvi,20191231
2019-12-31,15:35,3:35 PM,59.305,59.295,59.298,700,41508.5,4,59.305,59.29,59.295,33000,1956742.0,26,59.305,59.295,59.305,59.295,0.009946520421024,0.009775037891044178,atvi,20191231
2019-12-31,15:36,3:36 PM,59.3,59.275,59.282,503,29818.9,8,59.3,59.26,59.28,12926,766256.66,99,59.29,59.275,59.29,59.27,0.009674013012228734,0.009519592649989009,atvi,20191231
2019-12-31,15:37,3:37 PM,59.27,59.255,59.257,803,47583.28,10,59.275,59.255,59.261,5756,341108.6,55,59.27,59.255,59.275,59.26,0.009248220185986294,0.009196028677985836,atvi,20191231
2019-12-31,15:38,3:38 PM,59.25,59.235,59.245,156,9242.16,5,59.26,59.23,59.248,3905,231364.2,36,59.25,59.235,59.26,59.23,0.009043839629389904,0.00897464280240461,atvi,20191231
2019-12-31,15:39,3:39 PM,59.235,59.23,59.235,101,5982.73,2,59.24,59.23,59.237,2300,136246.43,22,59.235,59.23,59.235,59.235,0.008873522498892953,0.008787316292297566,atvi,20191231
2019-12-31,15:40,3:40 PM,59.255,59.235,59.245,201,11908.24,3,59.255,59.23,59.244,6901,408840.1225,62,59.24,59.235,59.24,59.235,0.009043839629389904,0.008906524071456605,atvi,20191231
2019-12-31,15:41,3:41 PM,59.245,59.235,59.24,402,23814.48,6,59.245,59.235,59.24,3410,202007.379,31,59.235,59.24,59.235,59.245,0.008958681064141489,0.0088384053405086,atvi,20191231
2019-12-31,15:42,3:42 PM,59.24,59.24,59.24,108,6397.92,2,59.255,59.235,59.243,5203,308240.3165,45,59.24,59.24,59.24,59.255,0.008958681064141489,0.008889494388719634,atvi,20191231
2019-12-31,15:43,3:43 PM,59.265,59.26,59.263,200,11852.5,3,59.265,59.25,59.257,2570,152291.7,23,59.26,59.265,59.25,59.265,0.00935041046428449,0.00912790994703771,atvi,20191231
2019-12-31,15:44,3:44 PM,59.265,59.25,59.258,400,23703.0,4,59.265,59.25,59.257,4100,242955.5,33,59.265,59.255,59.265,59.25,0.009265251899036073,0.00912790994703771,atvi,20191231
2019-12-31,15:45,3:45 PM,59.275,59.25,59.264,247,14638.14,4,59.28,59.24,59.26,10039,594908.0896,87,59.25,59.275,59.25,59.28,0.009367442177334269,0.009178998995248744,atvi,20191231
2019-12-31,15:46,3:46 PM,59.275,59.265,59.27,300,17781.0,3,59.28,59.26,59.271,6389,378681.545,53,59.275,59.265,59.275,59.27,0.009469632455632464,0.009366325505355908,atvi,20191231
2019-12-31,15:47,3:47 PM,59.285,59.27,59.278,838,49674.975,13,59.285,59.265,59.277,11159,661473.8599,100,59.27,59.285,59.27,59.285,0.009605886160029976,0.009468503601777976,atvi,20191231
2019-12-31,15:48,3:48 PM,59.28,59.275,59.278,200,11855.5,2,59.285,59.27,59.276,2754,163247.35,26,59.28,59.275,59.285,59.275,0.009605886160029976,0.009451473919041005,atvi,20191231
2019-12-31,15:49,3:49 PM,59.275,59.26,59.265,735,43559.775,11,59.275,59.26,59.267,4806,284836.2201,42,59.27,59.26,59.27,59.265,0.009384473890383927,0.009298206774407904,atvi,20191231
2019-12-31,15:50,3:50 PM,59.295,59.28,59.29,1122,66522.99,13,59.32,59.265,59.294,37277,2210290.2875,270,59.28,59.295,59.27,59.3,0.009810266716626367,0.009758008208307087,atvi,20191231
2019-12-31,15:51,3:51 PM,59.315,59.3,59.309,502,29773.1,6,59.32,59.29,59.306,17472,1036189.6392,119,59.3,59.3,59.295,59.31,0.010133869264570612,0.009962364401151221,atvi,20191231
2019-12-31,15:52,3:52 PM,59.335,59.31,59.315,1106,65602.39,6,59.345,59.3,59.319,18351,1088558.1313,124,59.31,59.335,59.31,59.34,0.010236059542868806,0.010183750276732448,atvi,20191231
2019-12-31,15:53,3:53 PM,59.345,59.335,59.339,310,18394.95,4,59.35,59.33,59.338,9383,556768.155,80,59.335,59.345,59.34,59.33,0.010644820656061586,0.010507314248735623,atvi,20191231
2019-12-31,15:54,3:54 PM,59.39,59.335,59.361,1421,84352.535,17,59.46,59.33,59.391,77952,4629677.9115,500,59.335,59.39,59.34,59.43,0.011019518343154929,0.011409887433797138,atvi,20191231
2019-12-31,15:55,3:55 PM,59.455,59.425,59.436,1579,93849.26,15,59.46,59.42,59.434,47863,2844694.195,312,59.45,59.435,59.44,59.435,0.012296896821882368,0.012142163791488582,atvi,20191231
2019-12-31,15:56,3:56 PM,59.455,59.425,59.429,3665,217806.625,40,59.46,59.42,59.432,33803,2008984.05,254,59.435,59.425,59.435,59.43,0.012177674830534514,0.01210810442601464,atvi,20191231
2019-12-31,15:57,3:57 PM,59.43,59.41,59.418,2664,158289.195,31,59.44,59.4,59.419,35679,2120013.5654,272,59.425,59.41,59.42,59.405,0.011990325986987783,0.011886718550433413,atvi,20191231
2019-12-31,15:58,3:58 PM,59.415,59.395,59.405,1793,106513.13,22,59.42,59.38,59.404,46772,2778425.165,351,59.405,59.405,59.41,59.4,0.011768913717341734,0.011631273309378364,atvi,20191231
2019-12-31,15:59,3:59 PM,59.46,59.405,59.438,1512,89870.47,25,59.47,59.4,59.438,144490,8588132.1597,623,59.405,59.46,59.41,59.42,0.012330960247981805,0.012210282522436708,atvi,20191231
