date,minute,label,high,low,average,volume,notional,numberOfTrades,marketHigh,marketLow,marketAverage,marketVolume,marketNotional,marketNumberOfTrades,open,close,marketOpen,marketClose,changeOverTime,marketChangeOverTime,tickerName,tickerDate
2020-01-13,09:30,09:30 AM,59.15,59.13,59.143,800,47314.5,8,59.175,59.08,59.12,74351,4395670.766,45,59.15,59.13,59.12,59.13,0.0,0.0,atvi,20200113
2020-01-13,09:31,09:31 AM,59.145,59.01,59.096,1320,78007.0,14,59.15,58.993,59.066,13084,772820.885,100,59.13,59.05,59.1,59.08,-0.0007946840708114933,-0.0009133964817319848,atvi,20200113
2020-01-13,09:32,09:32 AM,59.09,59.08,59.085,200,11817.0,2,59.15,59.05,59.095,2760,163102.47,23,59.09,59.08,59.09,59.11,-0.000980673959724732,-0.00042286874154260116,atvi,20200113
2020-01-13,09:33,09:33 AM,59.16,59.09,59.123,400,23649.0,4,59.2,59.09,59.152,11927,705505.627,41,59.09,59.16,59.1,59.2,-0.0003381634343878925,0.0005412719891746209,atvi,20200113
2020-01-13,09:34,09:34 AM,59.13,59.13,59.13,300,17739.0,3,59.2,59.11,59.138,4250,251335.55,24,59.13,59.13,59.2,59.14,-0.00021980623235206404,0.0003044654939107017,atvi,20200113
2020-01-13,09:35,09:35 AM,59.17,59.135,59.147,300,17744.0,3,59.22,59.132,59.176,6494,384288.2256,44,59.135,59.17,59.14,59.22,6.763268687753045e-05,0.0009472259810555563,atvi,20200113
2020-01-13,09:36,09:36 AM,59.235,59.235,59.235,100,5923.5,1,59.28,59.21,59.246,7505,444644.163,62,59.235,59.235,59.215,59.215,0.0015555517981840413,0.002131258457374912,atvi,20200113
2020-01-13,09:37,09:37 AM,59.28,59.26,59.27,500,29635.0,5,59.29,59.24,59.267,3100,183729.4,11,59.26,59.28,59.24,59.29,0.002147337808362823,0.0024864682002707305,atvi,20200113
2020-01-13,09:38,09:38 AM,59.24,59.195,59.218,200,11843.5,2,59.37,59.18,59.283,9642,571608.7497,70,59.24,59.195,59.32,59.2,0.0012681128789544466,0.0027571041948579807,atvi,20200113
2020-01-13,09:39,09:39 AM,59.165,59.13,59.148,200,11829.5,2,59.18,59.1,59.129,2635,155805.355,23,59.13,59.165,59.18,59.1,8.454085859700316e-05,0.00015223274695535085,atvi,20200113
2020-01-13,09:40,09:40 AM,59.07,59.0,59.034,446,26329.0,5,59.08,58.98,59.02,6181,364803.24,42,59.07,59.0,59.07,59.0,-0.0018429907174137559,-0.0016914749661704046,atvi,20200113
2020-01-13,09:41,09:41 AM,58.98,58.955,58.966,700,41276.0,7,59.0,58.93,58.957,10831,638565.0,69,58.955,58.955,59.0,58.94,-0.002992746394332374,-0.0027571041948578606,atvi,20200113
2020-01-13,09:42,09:42 AM,58.935,58.9,58.923,500,29461.5,5,58.95,58.82,58.891,12515,737023.8585,82,58.92,58.935,58.95,58.916,-0.0037197977782662166,-0.0038734776725304334,atvi,20200113
2020-01-13,09:43,09:43 AM,58.945,58.87,58.917,300,17675.0,3,58.96,58.86,58.934,4786,282056.52,34,58.87,58.945,58.91,58.96,-0.0038212468085825724,-0.0031461434370771302,atvi,20200113
2020-01-13,09:44,09:44 AM,59.06,58.96,59.008,600,35404.5,6,59.09,58.94,58.965,43398,2558981.678,53,58.995,59.04,58.995,59.05,-0.002282603182117884,-0.002621786197564175,atvi,20200113
2020-01-13,09:45,09:45 AM,59.075,59.06,59.067,700,41347.0,7,59.09,59.05,59.067,3070,181334.8,29,59.06,59.075,59.05,59.05,-0.0012850210506737993,-0.0008964817320703193,atvi,20200113
2020-01-13,09:46,09:46 AM,59.04,59.025,59.034,800,47227.0,8,59.04,58.98,59.007,6318,372807.7691,37,59.035,59.04,59.034,59.04,-0.0018429907174137559,-0.0019113667117726582,atvi,20200113
2020-01-13,09:47,09:47 AM,59.055,59.045,59.049,500,29524.5,5,59.06,58.975,59.013,1741,102741.0,16,59.045,59.055,59.06,58.995,-0.0015893681416228665,-0.0018098782138024243,atvi,20200113
2020-01-13,09:48,09:48 AM,59.085,59.055,59.07,200,11814.0,2,59.097,59.045,59.069,2354,139049.72,20,59.055,59.085,59.05,59.065,-0.0012342965355156214,-0.0008626522327468679,atvi,20200113
2020-01-13,09:49,09:49 AM,59.135,59.1,59.117,200,11823.5,2,59.135,59.09,59.105,9059,535428.8575,50,59.1,59.135,59.1,59.125,-0.00043961246470424826,-0.00025372124492558474,atvi,20200113
2020-01-13,09:50,09:50 AM,59.13,59.115,59.123,200,11824.5,2,59.14,59.115,59.127,2165,128010.15,18,59.13,59.115,59.13,59.13,-0.0003381634343878925,0.00011840324763201966,atvi,20200113
2020-01-13,09:51,09:51 AM,59.16,59.14,59.15,200,11830.0,2,59.17,59.107,59.146,4737,280173.94,38,59.14,59.16,59.107,59.17,0.00011835720203570832,0.0004397834912043869,atvi,20200113
2020-01-13,09:52,09:52 AM,59.23,59.165,59.202,800,47361.5,8,59.23,59.16,59.195,3709,219555.307,26,59.165,59.23,59.165,59.23,0.0009975821314440847,0.0012686062246279237,atvi,20200113
2020-01-13,09:53,09:53 AM,59.295,59.26,59.277,1100,65205.0,10,59.315,59.23,59.272,9316,552176.01,68,59.26,59.285,59.23,59.28,0.0022656950103985313,0.0025710419485791784,atvi,20200113
2020-01-13,09:54,09:54 AM,59.345,59.275,59.301,1100,65231.0,10,59.37,59.267,59.332,13417,796063.6,104,59.28,59.335,59.28,59.31,0.0026714911316639543,0.0035859269282815173,atvi,20200113
2020-01-13,09:55,09:55 AM,59.37,59.365,59.367,300,17810.0,3,59.41,59.33,59.357,4125,244848.3275,25,59.365,59.37,59.338,59.37,0.0037874304651437474,0.004008795669824119,atvi,20200113
2020-01-13,09:56,09:56 AM,59.355,59.325,59.337,300,17801.0,3,59.38,59.325,59.352,9373,556302.0175,52,59.355,59.33,59.37,59.33,0.0032801853135620888,0.00392422192151555,atvi,20200113
2020-01-13,09:57,09:57 AM,59.345,59.295,59.324,500,29662.0,5,59.35,59.29,59.326,4869,288860.65,40,59.34,59.295,59.34,59.295,0.0030603790812099045,0.0034844384303112834,atvi,20200113
2020-01-13,09:58,09:58 AM,59.4,59.34,59.37,200,11874.0,2,59.4,59.29,59.339,8000,474708.0,43,59.34,59.4,59.29,59.4,0.003838154980301925,0.0037043301759134167,atvi,20200113
2020-01-13,09:59,09:59 AM,59.37,59.32,59.347,224,13293.64,3,59.4,59.303,59.351,6230,369755.705,49,59.37,59.32,59.4,59.31,0.003449267030755975,0.003907307171853885,atvi,20200113
2020-01-13,10:00,10 AM,59.325,59.29,59.305,300,17791.5,3,59.325,59.27,59.304,11745,696521.26,55,59.3,59.325,59.3,59.31,0.0027391238185414846,0.0031123139377537993,atvi,20200113
2020-01-13,10:01,10:01 AM,59.33,59.3,59.323,500,29661.5,5,59.34,59.28,59.323,6267,371776.91,46,59.325,59.3,59.32,59.28,0.003043470909490552,0.0034336941813261665,atvi,20200113
2020-01-13,10:02,10:02 AM,59.31,59.295,59.303,200,11860.5,2,59.32,59.25,59.286,3533,209457.25,29,59.31,59.295,59.27,59.27,0.0027053074751026596,0.0028078484438430976,atvi,20200113
2020-01-13,10:03,10:03 AM,59.27,59.27,59.27,100,5927.0,1,59.3,59.25,59.265,3207,190064.32,18,59.27,59.27,59.29,59.27,0.002147337808362823,0.002452638700947279,atvi,20200113
2020-01-13,10:04,10:04 AM,59.28,59.26,59.27,200,11854.0,2,59.295,59.25,59.264,4942,292884.29,35,59.28,59.26,59.28,59.26,0.002147337808362823,0.0024357239512856135,atvi,20200113
2020-01-13,10:05,10:05 AM,59.27,59.27,59.27,100,5927.0,1,59.27,59.21,59.242,12135,718907.775,89,59.27,59.27,59.26,59.23,0.002147337808362823,0.002063599458728009,atvi,20200113
2020-01-13,10:06,10:06 AM,59.22,59.205,59.205,41,2427.42,2,59.22,59.15,59.197,10515,622453.15,35,59.22,59.205,59.22,59.16,0.0010483066466022626,0.001302435723951375,atvi,20200113
2020-01-13,10:07,10:07 AM,59.175,59.135,59.152,1375,81334.35,13,59.18,59.125,59.155,13088,774225.65,85,59.15,59.135,59.15,59.135,0.0001521735454745336,0.0005920162381597378,atvi,20200113
2020-01-13,10:08,10:08 AM,59.14,59.12,59.121,1203,71122.92,9,59.15,59.1,59.113,12689,750088.72,61,59.125,59.12,59.125,59.105,-0.00037197977782659766,-0.00011840324763189948,atvi,20200113
2020-01-13,10:09,10:09 AM,59.13,59.09,59.113,300,17734.0,3,59.135,59.082,59.121,4553,269178.41,31,59.09,59.13,59.09,59.13,-0.0005072451515817787,1.6914749661785774e-05,atvi,20200113
2020-01-13,10:10,10:10 AM,59.145,59.145,59.145,17,1005.465,1,59.158,59.104,59.137,11601,686045.791,38,59.145,59.145,59.14,59.11,3.3816343438825294e-05,0.00028755074424903607,atvi,20200113
2020-01-13,10:11,10:11 AM,59.105,59.105,59.105,300,17731.5,3,59.125,59.094,59.112,5400,319207.4,39,59.105,59.105,59.11,59.115,-0.0006425105253369597,-0.00013531799729356506,atvi,20200113
2020-01-13,10:12,10:12 AM,59.155,59.11,59.13,404,23888.53,6,59.155,59.1,59.122,9347,552617.11,48,59.115,59.155,59.11,59.155,-0.00021980623235206404,3.382949932345136e-05,atvi,20200113
2020-01-13,10:13,10:13 AM,59.2,59.17,59.185,200,11837.0,2,59.2,59.145,59.175,9563,565894.36,53,59.17,59.2,59.16,59.16,0.0007101432122144901,0.0009303112313937706,atvi,20200113
2020-01-13,10:14,10:14 AM,,,,0,0.0,0,59.19,59.17,59.181,700,41426.5,7,,,59.175,59.19,,0.0010317997293640044,atvi,20200113
2020-01-13,10:15,10:15 AM,59.23,59.21,59.21,710,42039.3,8,59.26,59.205,59.223,8622,510617.59,73,59.21,59.23,59.228,59.23,0.0011328475051992656,0.0017422192151556417,atvi,20200113
2020-01-13,10:16,10:16 AM,,,,0,0.0,0,59.24,59.205,59.223,3100,183591.5,28,,,59.24,59.205,,0.0017422192151556417,atvi,20200113
2020-01-13,10:17,10:17 AM,59.175,59.17,59.173,300,17752.0,4,59.22,59.14,59.2,11885,703588.38,70,59.175,59.17,59.21,59.144,0.0005072451515817787,0.001353179972936492,atvi,20200113
2020-01-13,10:18,10:18 AM,59.155,59.1,59.113,476,28137.86,6,59.16,59.09,59.115,4100,242370.04,38,59.155,59.1,59.155,59.09,-0.0005072451515817787,-8.457374830844812e-05,atvi,20200113
2020-01-13,10:19,10:19 AM,59.11,59.08,59.095,200,11819.0,2,59.11,59.07,59.086,1600,94538.03,16,59.11,59.08,59.11,59.07,-0.0008115922425308459,-0.000575101488497952,atvi,20200113
2020-01-13,10:20,10:20 AM,59.065,59.06,59.063,200,11812.5,2,59.08,59.06,59.066,850,50205.98,8,59.065,59.06,59.07,59.063,-0.0013526537375513298,-0.0009133964817319848,atvi,20200113
2020-01-13,10:21,10:21 AM,,,,0,0.0,0,59.08,59.03,59.051,5059,298740.3311,46,,,59.07,59.06,,-0.0011671177266575695,atvi,20200113
2020-01-13,10:22,10:22 AM,59.085,59.07,59.071,208,12286.68,3,59.08,59.055,59.074,4386,259098.02,43,59.085,59.07,59.06,59.055,-0.0012173883637962687,-0.0007780784844384198,atvi,20200113
2020-01-13,10:23,10:23 AM,,,,0,0.0,0,59.07,59.055,59.064,1329,78495.7,12,,,59.06,59.07,,-0.0009472259810554362,atvi,20200113
2020-01-13,10:24,10:24 AM,59.055,59.055,59.055,100,5905.5,1,59.075,59.055,59.069,7007,413898.475,32,59.055,59.055,59.065,59.075,-0.0014879191113065108,-0.0008626522327468679,atvi,20200113
2020-01-13,10:25,10:25 AM,59.07,59.055,59.066,802,47371.12,6,59.08,59.05,59.068,17364,1025656.03,89,59.07,59.065,59.07,59.055,-0.001301929222393152,-0.0008795669824086537,atvi,20200113
2020-01-13,10:26,10:26 AM,59.065,59.055,59.057,500,29528.5,5,59.07,59.05,59.056,7650,451780.38,53,59.055,59.055,59.055,59.055,-0.0014541027678676855,-0.0010825439783491214,atvi,20200113
2020-01-13,10:27,10:27 AM,59.115,59.055,59.079,400,23631.5,4,59.132,59.055,59.08,21412,1265022.2328,157,59.055,59.115,59.055,59.132,-0.0010821229900410878,-0.0006765899864681859,atvi,20200113
2020-01-13,10:28,10:28 AM,59.14,59.13,59.134,404,23890.045,6,59.15,59.105,59.127,7317,432632.15,61,59.14,59.13,59.12,59.14,-0.0001521735454745336,0.00011840324763201966,atvi,20200113
2020-01-13,10:29,10:29 AM,59.115,59.08,59.098,1106,65362.16,12,59.14,59.077,59.109,7527,444913.681,68,59.115,59.08,59.14,59.08,-0.000760867727372668,-0.000186062246278682,atvi,20200113
2020-01-13,10:30,10:30 AM,59.095,59.095,59.095,105,6204.975,2,59.11,59.08,59.095,7795,460647.095,65,59.095,59.095,59.088,59.1,-0.0008115922425308459,-0.00042286874154260116,atvi,20200113
2020-01-13,10:31,10:31 AM,59.095,59.085,59.09,300,17727.0,3,59.155,59.085,59.111,9854,582479.5575,80,59.09,59.085,59.095,59.155,-0.0008961331011277289,-0.00015223274695535085,atvi,20200113
2020-01-13,10:32,10:32 AM,59.16,59.16,59.16,700,41412.0,6,59.2,59.155,59.17,6324,374191.7518,55,59.16,59.16,59.163,59.2,0.0002874389192295945,0.0008457374830853224,atvi,20200113
2020-01-13,10:33,10:33 AM,59.235,59.235,59.235,200,11847.0,2,59.27,59.215,59.233,9510,563308.8206,40,59.235,59.235,59.22,59.27,0.0015555517981840413,0.0019113667117726582,atvi,20200113
2020-01-13,10:34,10:34 AM,59.29,59.275,59.28,601,35627.28,7,59.305,59.27,59.287,7838,464694.6425,65,59.29,59.275,59.29,59.275,0.0023164195255567094,0.002824763193504763,atvi,20200113
2020-01-13,10:35,10:35 AM,59.31,59.28,59.291,431,25554.51,7,59.31,59.28,59.297,9352,554546.2825,50,59.29,59.28,59.28,59.295,0.002502409414469948,0.0029939106901217794,atvi,20200113
2020-01-13,10:36,10:36 AM,59.335,59.31,59.313,115,6821.025,2,59.335,59.29,59.316,3658,216977.96,32,59.31,59.335,59.29,59.335,0.0028743891922966658,0.003315290933694267,atvi,20200113
2020-01-13,10:37,10:37 AM,59.335,59.315,59.323,563,33398.89,10,59.335,59.315,59.33,5962,353727.4344,50,59.335,59.32,59.33,59.32,0.003043470909490552,0.003552097428958066,atvi,20200113
2020-01-13,10:38,10:38 AM,59.335,59.31,59.329,209,12399.79,3,59.335,59.3,59.312,8428,499880.622,62,59.31,59.335,59.31,59.335,0.0031449199398069076,0.003247631935047364,atvi,20200113
2020-01-13,10:39,10:39 AM,59.29,59.28,59.285,200,11857.0,2,59.34,59.25,59.3,4537,269042.3868,34,59.29,59.28,59.335,59.25,0.0024009603841535923,0.0030446549391068964,atvi,20200113
2020-01-13,10:40,10:40 AM,59.25,59.215,59.238,300,17771.5,3,59.26,59.205,59.227,3333,197403.6174,27,59.215,59.25,59.23,59.26,0.0016062763133422192,0.0018098782138024243,atvi,20200113
2020-01-13,10:41,10:41 AM,59.275,59.275,59.275,100,5927.5,1,59.305,59.27,59.278,1200,71134.15,11,59.275,59.275,59.27,59.305,0.002231878666959706,0.0026725304465494122,atvi,20200113
2020-01-13,10:42,10:42 AM,59.37,59.33,59.354,501,29736.34,6,59.38,59.29,59.356,12281,728954.9836,76,59.33,59.33,59.29,59.33,0.003567624232791683,0.003991880920162453,atvi,20200113
2020-01-13,10:43,10:43 AM,59.32,59.26,59.285,800,47428.0,9,59.32,59.26,59.291,3450,204555.055,28,59.32,59.26,59.32,59.265,0.0024009603841535923,0.0028924221921515455,atvi,20200113
2020-01-13,10:44,10:44 AM,59.255,59.225,59.242,400,23697.0,4,59.26,59.225,59.254,56403,3342126.2383,92,59.255,59.25,59.26,59.26,0.0016739090002197495,0.0022665764546684767,atvi,20200113
2020-01-13,10:45,10:45 AM,,,,0,0.0,0,59.27,59.245,59.255,6207,367792.7698,42,,,59.26,59.255,,0.0022834912043302627,atvi,20200113
2020-01-13,10:46,10:46 AM,59.265,59.255,59.258,300,17777.5,3,59.27,59.255,59.261,1344,79646.44,12,59.265,59.255,59.26,59.255,0.0019444397477301116,0.0023849797023004966,atvi,20200113
2020-01-13,10:47,10:47 AM,59.26,59.255,59.256,400,23702.5,4,59.27,59.245,59.259,9038,535582.5903,53,59.255,59.255,59.255,59.26,0.0019106234042912862,0.002351150202977045,atvi,20200113
2020-01-13,10:48,10:48 AM,59.275,59.265,59.268,800,47414.415,9,59.28,59.25,59.266,12007,711605.5367,97,59.265,59.275,59.26,59.28,0.002113521464923998,0.0024695534506089445,atvi,20200113
2020-01-13,10:49,10:49 AM,59.3,59.265,59.288,1101,65276.3,12,59.3,59.265,59.287,6101,361709.295,56,59.285,59.3,59.29,59.3,0.00245168489931177,0.002824763193504763,atvi,20200113
2020-01-13,10:50,10:50 AM,59.305,59.29,59.296,614,36407.77,7,59.31,59.29,59.303,5019,297639.405,37,59.305,59.305,59.3,59.305,0.002586950273066951,0.0030953991880920133,atvi,20200113
2020-01-13,10:51,10:51 AM,59.37,59.3,59.335,319,18927.96,4,59.38,59.3,59.333,3038,180254.65,27,59.3,59.37,59.3,59.36,0.0032463689701232633,0.003602841677943183,atvi,20200113
2020-01-13,10:52,10:52 AM,59.35,59.345,59.347,600,35608.5,6,59.37,59.34,59.352,3948,234324.0504,38,59.35,59.35,59.36,59.36,0.003449267030755975,0.00392422192151555,atvi,20200113
2020-01-13,10:53,10:53 AM,59.385,59.385,59.385,100,5938.5,1,59.4,59.36,59.377,1700,100940.5,16,59.385,59.385,59.36,59.4,0.004091777556092815,0.004347090663058271,atvi,20200113
2020-01-13,10:54,10:54 AM,59.4,59.375,59.387,817,48519.46,10,59.42,59.373,59.397,13551,804886.761,71,59.395,59.4,59.395,59.408,0.00412559389953164,0.004685385656292305,atvi,20200113
2020-01-13,10:55,10:55 AM,59.4,59.395,59.398,200,11879.5,2,59.42,59.385,59.399,3910,232249.81,29,59.4,59.395,59.4,59.41,0.0043115837884449984,0.004719215155615756,atvi,20200113
2020-01-13,10:56,10:56 AM,59.43,59.43,59.43,300,17829.0,3,59.45,59.42,59.439,3246,192939.69,20,59.43,59.43,59.42,59.437,0.004852645283465483,0.005395805142083942,atvi,20200113
2020-01-13,10:57,10:57 AM,59.435,59.41,59.419,400,23767.5,4,59.44,59.404,59.419,6541,388658.4924,44,59.435,59.42,59.43,59.41,0.004666655394552123,0.005057510148849789,atvi,20200113
2020-01-13,10:58,10:58 AM,59.405,59.405,59.405,100,5940.5,1,59.43,59.405,59.419,2000,118838.9,12,59.405,59.405,59.43,59.405,0.004429940990480707,0.005057510148849789,atvi,20200113
2020-01-13,10:59,10:59 AM,59.395,59.39,59.394,400,23757.5,4,59.42,59.39,59.404,5253,312051.85,40,59.395,59.39,59.41,59.41,0.004243951101567348,0.004803788903924324,atvi,20200113
2020-01-13,11:00,11 AM,59.395,59.385,59.39,200,11878.0,2,59.435,59.385,59.408,4430,263179.72,29,59.385,59.395,59.41,59.435,0.004176318414689817,0.0048714479025711065,atvi,20200113
2020-01-13,11:01,11:01 AM,59.41,59.39,59.401,800,47521.0,8,59.45,59.38,59.405,14979,889832.72,105,59.41,59.395,59.44,59.395,0.004362308303603176,0.00482070365358599,atvi,20200113
2020-01-13,11:02,11:02 AM,59.385,59.375,59.38,200,11876.0,2,59.395,59.36,59.383,8885,527614.67,32,59.385,59.375,59.39,59.37,0.004007236697495932,0.004448579161028505,atvi,20200113
2020-01-13,11:03,11:03 AM,59.355,59.35,59.353,300,17806.0,3,59.37,59.34,59.353,3296,195628.79,26,59.355,59.35,59.365,59.345,0.0035507160610723306,0.003941136671177336,atvi,20200113
2020-01-13,11:04,11:04 AM,59.325,59.305,59.318,300,17795.5,3,59.35,59.305,59.329,5112,303289.1,38,59.325,59.305,59.345,59.34,0.0029589300508935487,0.0035351826792964004,atvi,20200113
2020-01-13,11:05,11:05 AM,59.34,59.34,59.34,100,5934.0,1,59.385,59.32,59.351,7333,435219.585,68,59.34,59.34,59.34,59.38,0.0033309098287202664,0.003907307171853885,atvi,20200113
2020-01-13,11:06,11:06 AM,,,,0,0.0,0,59.4,59.38,59.395,1750,103942.0,16,,,59.385,59.4,,0.004651556156968973,atvi,20200113
2020-01-13,11:07,11:07 AM,59.405,59.385,59.39,400,23756.0,4,59.415,59.385,59.397,5293,314386.2536,42,59.385,59.405,59.4,59.407,0.004176318414689817,0.004685385656292305,atvi,20200113
2020-01-13,11:08,11:08 AM,59.405,59.405,59.405,100,5940.5,1,59.42,59.405,59.409,989,58755.885,9,59.405,59.405,59.42,59.405,0.004429940990480707,0.004888362652232772,atvi,20200113
2020-01-13,11:09,11:09 AM,59.42,59.405,59.412,300,17823.5,3,59.43,59.4,59.412,3365,199922.49,30,59.41,59.42,59.41,59.425,0.004548298192516415,0.004939106901217889,atvi,20200113
2020-01-13,11:10,11:10 AM,59.4,59.385,59.394,500,29697.0,5,59.42,59.38,59.4,9115,541434.14,84,59.395,59.4,59.42,59.4,0.004243951101567348,0.004736129905277421,atvi,20200113
2020-01-13,11:11,11:11 AM,,,,0,0.0,0,59.415,59.4,59.408,1578,93745.48,14,,,59.4,59.41,,0.0048714479025711065,atvi,20200113
2020-01-13,11:12,11:12 AM,,,,0,0.0,0,59.44,59.405,59.426,1800,106967.5,15,,,59.405,59.44,,0.005175913396481808,atvi,20200113
2020-01-13,11:13,11:13 AM,59.49,59.49,59.49,100,5949.0,1,59.49,59.448,59.473,5742,341495.05,36,59.49,59.49,59.448,59.49,0.0058671355866290395,0.005970906630581894,atvi,20200113
2020-01-13,11:14,11:14 AM,59.46,59.435,59.446,403,23956.86,6,59.48,59.432,59.454,4766,283358.7364,36,59.46,59.44,59.48,59.44,0.005123176030975725,0.005649526387009526,atvi,20200113
2020-01-13,11:15,11:15 AM,59.435,59.42,59.428,210,12479.8,3,59.446,59.42,59.437,5170,307288.97,43,59.435,59.42,59.44,59.446,0.004818828940026657,0.00536197564276049,atvi,20200113
2020-01-13,11:16,11:16 AM,,,,0,0.0,0,59.47,59.437,59.45,1817,108020.6458,15,,,59.44,59.47,,0.005581867388362744,atvi,20200113
2020-01-13,11:17,11:17 AM,59.47,59.45,59.47,102,6065.9,2,59.48,59.45,59.465,6170,366898.5432,29,59.47,59.45,59.47,59.47,0.005528972152241148,0.005835588633288329,atvi,20200113
2020-01-13,11:18,11:18 AM,59.465,59.46,59.463,302,17957.92,5,59.48,59.46,59.468,3645,216759.1619,33,59.46,59.465,59.46,59.465,0.005410614950205439,0.0058863328822734455,atvi,20200113
2020-01-13,11:19,11:19 AM,,,,0,0.0,0,59.48,59.46,59.472,2152,127983.46,18,,,59.47,59.48,,0.005953991880920228,atvi,20200113
2020-01-13,11:20,11:20 AM,59.455,59.44,59.449,601,35728.94,7,59.47,59.435,59.45,9545,567450.2,79,59.455,59.45,59.47,59.45,0.005173900546133902,0.005581867388362744,atvi,20200113
2020-01-13,11:21,11:21 AM,59.445,59.435,59.441,1000,59440.5,5,59.45,59.43,59.439,6990,415478.34,51,59.44,59.435,59.44,59.43,0.005038635172378842,0.005395805142083942,atvi,20200113
2020-01-13,11:22,11:22 AM,59.415,59.415,59.415,100,5941.5,1,59.42,59.405,59.41,4772,283503.304,38,59.415,59.415,59.42,59.407,0.004599022707674593,0.004905277401894437,atvi,20200113
2020-01-13,11:23,11:23 AM,59.405,59.405,59.405,100,5940.5,1,59.41,59.4,59.408,1869,111033.0196,14,59.405,59.405,59.405,59.408,0.004429940990480707,0.0048714479025711065,atvi,20200113
2020-01-13,11:24,11:24 AM,,,,0,0.0,0,59.41,59.41,59.41,400,23764.0,4,,,59.41,59.41,,0.004905277401894437,atvi,20200113
2020-01-13,11:25,11:25 AM,59.425,59.425,59.425,100,5942.5,1,59.43,59.4,59.407,8547,507748.45,56,59.425,59.425,59.4,59.425,0.004768104424868479,0.004854533152909321,atvi,20200113
2020-01-13,11:26,11:26 AM,59.425,59.425,59.425,1,59.425,1,59.43,59.42,59.425,2079,123544.7982,10,59.425,59.425,59.425,59.425,0.004768104424868479,0.005158998646820023,atvi,20200113
2020-01-13,11:27,11:27 AM,59.425,59.405,59.425,202,12003.81,3,59.44,59.4,59.424,14286,848930.0452,87,59.425,59.405,59.426,59.406,0.004768104424868479,0.005142083897158357,atvi,20200113
2020-01-13,11:28,11:28 AM,59.5,59.345,59.427,1559,92647.025,21,59.52,59.345,59.438,58848,3497801.2955,438,59.405,59.35,59.405,59.385,0.004801920768307304,0.005378890392422276,atvi,20200113
2020-01-13,11:29,11:29 AM,59.425,59.425,59.425,100,5942.5,1,59.46,59.37,59.423,7437,441926.7908,64,59.425,59.425,59.38,59.455,0.004768104424868479,0.005125169147496692,atvi,20200113
2020-01-13,11:30,11:30 AM,59.49,59.45,59.475,500,29737.5,5,59.51,59.45,59.48,5485,326248.7355,47,59.45,59.48,59.45,59.505,0.00561351301083815,0.006089309878213793,atvi,20200113
2020-01-13,11:31,11:31 AM,59.525,59.52,59.523,300,17857.0,3,59.54,59.505,59.525,3869,230302.33,34,59.52,59.525,59.505,59.54,0.006425105253368996,0.006850473612990547,atvi,20200113
2020-01-13,11:32,11:32 AM,59.54,59.535,59.538,200,11907.5,2,59.549,59.53,59.539,2338,139201.7453,19,59.54,59.535,59.54,59.545,0.006678727829159766,0.007087280108254467,atvi,20200113
2020-01-13,11:33,11:33 AM,59.545,59.545,59.545,100,5954.5,1,59.58,59.535,59.556,5112,304451.1,37,59.545,59.545,59.54,59.57,0.006797085031195594,0.007374830852503382,atvi,20200113
2020-01-13,11:34,11:34 AM,59.56,59.545,59.551,900,53596.0,8,59.57,59.54,59.55,5332,317520.39,43,59.555,59.545,59.555,59.55,0.00689853406151195,0.007273342354533149,atvi,20200113
2020-01-13,11:35,11:35 AM,59.55,59.53,59.544,900,53590.0,7,59.56,59.525,59.543,7624,453959.615,61,59.545,59.55,59.56,59.54,0.006780176859476121,0.007154939106901249,atvi,20200113
2020-01-13,11:36,11:36 AM,59.525,59.515,59.518,305,18153.1,4,59.548,59.51,59.519,4155,247301.392,17,59.525,59.515,59.548,59.515,0.006340564394771994,0.0067489851150203135,atvi,20200113
2020-01-13,11:37,11:37 AM,59.525,59.515,59.518,1800,107133.0,6,59.526,59.515,59.518,4013,238845.5721,18,59.515,59.525,59.515,59.526,0.006340564394771994,0.006732070365358648,atvi,20200113
2020-01-13,11:38,11:38 AM,59.525,59.525,59.525,100,5952.5,1,59.53,59.5,59.512,7711,458896.36,53,59.525,59.525,59.525,59.52,0.006458921596807702,0.006630581867388414,atvi,20200113
2020-01-13,11:39,11:39 AM,59.515,59.515,59.515,100,5951.5,1,59.525,59.505,59.515,5436,323524.4078,18,59.515,59.515,59.52,59.52,0.006289839879613815,0.006681326116373531,atvi,20200113
2020-01-13,11:40,11:40 AM,59.5,59.49,59.495,195,11601.5,2,59.53,59.47,59.496,9943,591565.8437,71,59.5,59.49,59.52,59.49,0.0059516764452259225,0.0063599458728011635,atvi,20200113
2020-01-13,11:41,11:41 AM,59.48,59.48,59.48,100,5948.0,1,59.49,59.475,59.486,2237,133070.06,18,59.48,59.48,59.49,59.475,0.005698053869435033,0.006190798376184027,atvi,20200113
2020-01-13,11:42,11:42 AM,59.51,59.48,59.492,400,23797.0,4,59.515,59.47,59.501,6043,359561.64,49,59.48,59.51,59.48,59.505,0.005900951930067745,0.006444519621109612,atvi,20200113
2020-01-13,11:43,11:43 AM,59.51,59.51,59.51,100,5951.0,1,59.522,59.485,59.501,4167,247941.29,35,59.51,59.51,59.5,59.51,0.0062052990210168125,0.006444519621109612,atvi,20200113
2020-01-13,11:44,11:44 AM,59.48,59.46,59.467,435,25868.275,4,59.52,59.46,59.484,7915,470817.175,48,59.48,59.465,59.515,59.46,0.005478247637082969,0.006156968876860696,atvi,20200113
2020-01-13,11:45,11:45 AM,,,,0,0.0,0,59.49,59.463,59.475,3000,178426.15,12,,,59.47,59.48,,0.006004736129905345,atvi,20200113
2020-01-13,11:46,11:46 AM,59.48,59.47,59.475,200,11895.0,2,59.49,59.455,59.474,7666,455927.31,66,59.48,59.47,59.49,59.48,0.00561351301083815,0.005987821380243559,atvi,20200113
2020-01-13,11:47,11:47 AM,59.5,59.5,59.5,100,5950.0,1,59.52,59.485,59.503,2448,145662.712,22,59.5,59.5,59.485,59.5,0.006036217303822926,0.006478349120433063,atvi,20200113
2020-01-13,11:48,11:48 AM,59.485,59.485,59.485,400,23794.0,4,59.5,59.48,59.486,3200,190357.07,25,59.485,59.485,59.5,59.48,0.005782594728032037,0.006190798376184027,atvi,20200113
2020-01-13,11:49,11:49 AM,59.485,59.485,59.485,100,5948.5,1,59.5,59.48,59.486,7865,467862.09,16,59.485,59.485,59.486,59.485,0.005782594728032037,0.006190798376184027,atvi,20200113
2020-01-13,11:50,11:50 AM,59.485,59.44,59.456,670,39835.5,7,59.485,59.42,59.443,59650,3545752.5,85,59.485,59.45,59.485,59.44,0.005292257748169731,0.005463464140730724,atvi,20200113
2020-01-13,11:51,11:51 AM,59.45,59.395,59.424,1400,83193.5,9,59.453,59.39,59.413,25498,1514913.99,153,59.45,59.395,59.45,59.395,0.004751196253149127,0.004956021650879555,atvi,20200113
2020-01-13,11:52,11:52 AM,59.395,59.395,59.395,600,35637.0,4,59.41,59.39,59.398,6587,391256.44,51,59.395,59.395,59.39,59.395,0.004260859273286821,0.00470230040595409,atvi,20200113
2020-01-13,11:53,11:53 AM,,,,0,0.0,0,59.395,59.335,59.352,20815,1235418.32,141,,,59.39,59.335,,0.00392422192151555,atvi,20200113
2020-01-13,11:54,11:54 AM,59.355,59.355,59.355,100,5935.5,1,59.36,59.335,59.35,3375,200306.25,30,59.355,59.355,59.335,59.355,0.003584532404511036,0.003890392422192219,atvi,20200113
2020-01-13,11:55,11:55 AM,59.36,59.36,59.36,100,5936.0,1,59.37,59.35,59.358,2000,118715.0,20,59.36,59.36,59.36,59.37,0.003669073263108039,0.004025710419485784,atvi,20200113
2020-01-13,11:56,11:56 AM,59.385,59.365,59.379,1610,95600.3,8,59.395,59.36,59.377,12134,720480.7028,59,59.365,59.385,59.365,59.395,0.003990328525776458,0.004347090663058271,atvi,20200113
2020-01-13,11:57,11:57 AM,59.395,59.38,59.393,301,17877.38,3,59.4,59.375,59.387,5095,302577.455,35,59.395,59.39,59.4,59.385,0.004227042929847996,0.004516238159675288,atvi,20200113
2020-01-13,11:58,11:58 AM,59.435,59.395,59.405,1010,59998.7,11,59.44,59.395,59.413,13035,774449.155,97,59.395,59.435,59.395,59.435,0.004429940990480707,0.004956021650879555,atvi,20200113
2020-01-13,11:59,11:59 AM,59.44,59.43,59.435,200,11887.0,2,59.45,59.405,59.422,14636,869703.1247,127,59.43,59.44,59.44,59.45,0.0049371861420624856,0.005108254397834905,atvi,20200113
2020-01-13,12:00,12 PM,59.47,59.45,59.459,600,35675.5,6,59.47,59.44,59.461,10773,640576.658,76,59.455,59.465,59.44,59.465,0.0053429822633279086,0.005767929634641426,atvi,20200113
2020-01-13,12:01,12:01 PM,59.465,59.455,59.462,300,17838.5,3,59.47,59.45,59.464,8380,498311.14,52,59.465,59.455,59.465,59.455,0.005393706778486086,0.0058186738836265425,atvi,20200113
2020-01-13,12:02,12:02 PM,,,,0,0.0,0,59.465,59.455,59.459,4100,243781.35,32,,,59.46,59.465,,0.005734100135318095,atvi,20200113
2020-01-13,12:03,12:03 PM,59.47,59.46,59.465,600,35679.0,5,59.47,59.451,59.465,6269,372785.78,58,59.465,59.47,59.465,59.46,0.005444431293644265,0.005835588633288329,atvi,20200113
2020-01-13,12:04,12:04 PM,59.455,59.44,59.455,101,6004.94,2,59.47,59.435,59.445,4737,281591.43,34,59.455,59.44,59.47,59.443,0.005275349576450258,0.005497293640054176,atvi,20200113
2020-01-13,12:05,12:05 PM,59.445,59.445,59.445,100,5944.5,1,59.47,59.445,59.455,10373,616727.82,71,59.445,59.445,59.46,59.445,0.005106267859256372,0.005666441136671192,atvi,20200113
2020-01-13,12:06,12:06 PM,59.44,59.44,59.44,100,5944.0,1,59.46,59.435,59.45,6660,395936.184,31,59.44,59.44,59.44,59.44,0.0050217270006593685,0.005581867388362744,atvi,20200113
2020-01-13,12:07,12:07 PM,59.445,59.42,59.432,400,23773.0,4,59.445,59.415,59.43,3300,196120.0,33,59.445,59.42,59.445,59.415,0.004886461626904308,0.005243572395128591,atvi,20200113
2020-01-13,12:08,12:08 PM,59.405,59.405,59.405,300,17821.5,3,59.415,59.405,59.406,5021,298278.045,46,59.405,59.405,59.415,59.405,0.004429940990480707,0.004837618403247655,atvi,20200113
2020-01-13,12:09,12:09 PM,59.405,59.405,59.405,700,41583.5,1,59.43,59.402,59.416,6367,378305.446,31,59.405,59.405,59.402,59.425,0.004429940990480707,0.005006765899864671,atvi,20200113
2020-01-13,12:10,12:10 PM,59.425,59.425,59.425,1100,65367.5,2,59.44,59.42,59.431,13171,782763.03,73,59.425,59.425,59.425,59.42,0.004768104424868479,0.0052604871447902565,atvi,20200113
2020-01-13,12:11,12:11 PM,,,,0,0.0,0,59.45,59.43,59.441,12420,738261.05,54,,,59.43,59.435,,0.005429634641407393,atvi,20200113
2020-01-13,12:12,12:12 PM,59.415,59.41,59.415,101,6000.91,2,59.43,59.39,59.42,3800,225795.0,34,59.41,59.415,59.43,59.415,0.004599022707674593,0.005074424898511574,atvi,20200113
2020-01-13,12:13,12:13 PM,59.415,59.415,59.415,100,5941.5,1,59.42,59.415,59.418,1069,63517.48,10,59.415,59.415,59.42,59.415,0.004599022707674593,0.005040595399188123,atvi,20200113
2020-01-13,12:14,12:14 PM,,,,0,0.0,0,59.445,59.415,59.429,4441,263926.16,36,,,59.415,59.445,,0.005226657645466926,atvi,20200113
2020-01-13,12:15,12:15 PM,59.445,59.445,59.445,200,11889.0,2,59.446,59.443,59.445,1351,80309.7032,8,59.445,59.445,59.445,59.445,0.005106267859256372,0.005497293640054176,atvi,20200113
2020-01-13,12:16,12:16 PM,59.445,59.415,59.429,400,23771.5,4,59.45,59.41,59.434,7954,472742.76,66,59.445,59.42,59.445,59.415,0.00483573711174613,0.005311231393775373,atvi,20200113
2020-01-13,12:17,12:17 PM,59.435,59.43,59.431,400,23772.5,4,59.435,59.415,59.431,4194,249253.4425,28,59.43,59.435,59.42,59.43,0.004869553455184835,0.0052604871447902565,atvi,20200113
2020-01-13,12:18,12:18 PM,59.435,59.4,59.415,500,29707.5,5,59.44,59.395,59.409,16206,962779.22,71,59.435,59.4,59.43,59.4,0.004599022707674593,0.004888362652232772,atvi,20200113
2020-01-13,12:19,12:19 PM,,,,0,0.0,0,59.399,59.39,59.395,1000,59394.7,6,,,59.395,59.39,,0.004651556156968973,atvi,20200113
2020-01-13,12:20,12:20 PM,59.395,59.37,59.38,313,18586.07,5,59.4,59.365,59.383,5207,309206.3,47,59.395,59.37,59.39,59.38,0.004007236697495932,0.004448579161028505,atvi,20200113
2020-01-13,12:21,12:21 PM,,,,0,0.0,0,59.38,59.365,59.375,3671,217964.1987,22,,,59.379,59.365,,0.0043132611637348205,atvi,20200113
2020-01-13,12:22,12:22 PM,,,,0,0.0,0,59.365,59.35,59.358,4430,262955.722,30,,,59.361,59.35,,0.004025710419485784,atvi,20200113
2020-01-13,12:23,12:23 PM,59.36,59.345,59.354,900,53418.5,9,59.36,59.345,59.355,1800,106838.5,18,59.36,59.355,59.36,59.355,0.003567624232791683,0.003974966170500667,atvi,20200113
2020-01-13,12:24,12:24 PM,,,,0,0.0,0,59.36,59.345,59.353,1250,74190.75,11,,,59.355,59.345,,0.003941136671177336,atvi,20200113
2020-01-13,12:25,12:25 PM,59.34,59.32,59.33,201,11925.34,3,59.35,59.31,59.336,6515,386574.596,48,59.34,59.32,59.34,59.31,0.0031618281115262602,0.0036535859269282997,atvi,20200113
2020-01-13,12:26,12:26 PM,59.315,59.305,59.309,500,29654.5,4,59.316,59.295,59.303,13411,795319.9793,100,59.305,59.315,59.31,59.305,0.0028067565054190153,0.0030953991880920133,atvi,20200113
2020-01-13,12:27,12:27 PM,59.3,59.3,59.3,100,5930.0,1,59.32,59.29,59.312,5473,324614.042,43,59.3,59.3,59.31,59.295,0.0026545829599444815,0.003247631935047364,atvi,20200113
2020-01-13,12:28,12:28 PM,59.335,59.305,59.323,300,17797.0,3,59.34,59.295,59.321,8733,518053.685,58,59.305,59.335,59.295,59.34,0.003043470909490552,0.003399864682002715,atvi,20200113
2020-01-13,12:29,12:29 PM,59.36,59.355,59.356,700,41549.0,3,59.36,59.335,59.349,6151,365058.325,46,59.355,59.36,59.34,59.345,0.0036014405762305086,0.0038734776725304334,atvi,20200113
2020-01-13,12:30,12:30 PM,59.345,59.34,59.34,834,49490.06,6,59.35,59.335,59.343,12394,735493.11,94,59.345,59.34,59.345,59.34,0.0033309098287202664,0.0037719891745603197,atvi,20200113
2020-01-13,12:31,12:31 PM,,,,0,0.0,0,59.35,59.315,59.332,5500,326324.0,40,,,59.34,59.315,,0.0035859269282815173,atvi,20200113
2020-01-13,12:32,12:32 PM,59.32,59.32,59.32,102,6050.64,1,59.33,59.32,59.326,7306,433438.239,50,59.32,59.32,59.32,59.325,0.002992746394332374,0.0034844384303112834,atvi,20200113
2020-01-13,12:33,12:33 PM,59.32,59.315,59.318,200,11863.5,2,59.335,59.305,59.318,4657,276246.24,41,59.315,59.32,59.335,59.32,0.0029589300508935487,0.003349120433017598,atvi,20200113
2020-01-13,12:34,12:34 PM,59.315,59.315,59.315,100,5931.5,1,59.32,59.315,59.317,800,47453.5,8,59.315,59.315,59.32,59.315,0.002908205535735371,0.0033322056833559326,atvi,20200113
2020-01-13,12:35,12:35 PM,59.31,59.26,59.294,734,43522.13,7,59.315,59.255,59.28,17167,1017659.87,121,59.31,59.26,59.315,59.28,0.0025531339296281257,0.0027063599458728637,atvi,20200113
2020-01-13,12:36,12:36 PM,59.275,59.265,59.265,104,6163.6,2,59.285,59.26,59.275,2475,146706.5525,22,59.275,59.265,59.285,59.26,0.00206279694976582,0.0026217861975642953,atvi,20200113
2020-01-13,12:37,12:37 PM,,,,0,0.0,0,59.29,59.26,59.274,2951,174917.4144,21,,,59.26,59.281,,0.00260487144790263,atvi,20200113
2020-01-13,12:38,12:38 PM,59.295,59.295,59.295,100,5929.5,1,59.31,59.275,59.291,4305,255249.015,39,59.295,59.295,59.285,59.3,0.0025700421013475985,0.0028924221921515455,atvi,20200113
2020-01-13,12:39,12:39 PM,59.295,59.295,59.295,100,5929.5,1,59.297,59.29,59.294,671,39786.2928,6,59.295,59.295,59.29,59.297,0.0025700421013475985,0.0029431664411366625,atvi,20200113
2020-01-13,12:40,12:40 PM,59.295,59.265,59.276,700,41493.5,7,59.295,59.26,59.283,5550,329018.5,47,59.295,59.265,59.295,59.265,0.0022487868386791786,0.0027571041948579807,atvi,20200113
2020-01-13,12:41,12:41 PM,,,,0,0.0,0,59.27,59.25,59.26,3395,201187.625,25,,,59.27,59.255,,0.0023680649526387106,atvi,20200113
2020-01-13,12:42,12:42 PM,59.265,59.245,59.255,200,11851.0,2,59.27,59.235,59.253,4953,293482.47,37,59.265,59.245,59.26,59.255,0.0018937152325719337,0.002249661705006811,atvi,20200113
2020-01-13,12:43,12:43 PM,59.255,59.255,59.255,600,35553.0,2,59.26,59.25,59.257,2945,174511.29,23,59.255,59.255,59.255,59.25,0.0018937152325719337,0.0023173207036535936,atvi,20200113
2020-01-13,12:44,12:44 PM,59.255,59.245,59.25,300,17775.0,3,59.26,59.245,59.255,2550,151099.24,24,59.255,59.245,59.255,59.245,0.0018091743739749304,0.0022834912043302627,atvi,20200113
2020-01-13,12:45,12:45 PM,59.245,59.245,59.245,200,11849.0,2,59.29,59.245,59.269,5587,331138.675,40,59.245,59.245,59.245,59.285,0.0017246335153779273,0.0025202976995940614,atvi,20200113
2020-01-13,12:46,12:46 PM,,,,0,0.0,0,59.295,59.265,59.278,8551,506889.38,55,,,59.285,59.281,,0.0026725304465494122,atvi,20200113
2020-01-13,12:47,12:47 PM,59.3,59.285,59.288,504,29881.14,5,59.3,59.28,59.288,2028,120236.01,18,59.285,59.3,59.29,59.3,0.00245168489931177,0.0028416779431664286,atvi,20200113
2020-01-13,12:48,12:48 PM,59.305,59.305,59.305,200,11861.0,2,59.32,59.295,59.306,6050,358798.98,51,59.305,59.305,59.3,59.315,0.0027391238185414846,0.0031461434370771302,atvi,20200113
2020-01-13,12:49,12:49 PM,59.315,59.305,59.315,204,12100.22,3,59.34,59.3,59.314,8027,476117.37,74,59.315,59.305,59.315,59.305,0.002908205535735371,0.0032814614343708156,atvi,20200113
2020-01-13,12:50,12:50 PM,59.345,59.345,59.345,4,237.38,1,59.34,59.3,59.328,2005,118951.9168,17,59.345,59.345,59.305,59.335,0.00341545068731715,0.003518267929634735,atvi,20200113
2020-01-13,12:51,12:51 PM,59.35,59.345,59.35,106,6291.07,2,59.35,59.336,59.345,3300,195839.2,24,59.35,59.345,59.336,59.345,0.003499991545914153,0.0038058186738836506,atvi,20200113
2020-01-13,12:52,12:52 PM,59.365,59.365,59.365,22,1306.03,1,59.375,59.34,59.355,4100,243353.5,27,59.365,59.365,59.35,59.375,0.003753614121705042,0.003974966170500667,atvi,20200113
2020-01-13,12:53,12:53 PM,59.4,59.38,59.39,400,23756.0,5,59.4,59.375,59.386,2100,124710.5,18,59.38,59.39,59.375,59.395,0.004176318414689817,0.004499323410013622,atvi,20200113
2020-01-13,12:54,12:54 PM,59.39,59.39,59.39,100,5939.0,1,59.4,59.385,59.392,1503,89266.8316,8,59.39,59.39,59.39,59.4,0.004176318414689817,0.004600811907983856,atvi,20200113
2020-01-13,12:55,12:55 PM,59.425,59.425,59.425,100,5942.5,1,59.43,59.41,59.423,1200,71307.75,12,59.425,59.425,59.41,59.43,0.004768104424868479,0.005125169147496692,atvi,20200113
2020-01-13,12:56,12:56 PM,59.465,59.45,59.461,400,23784.5,2,59.47,59.43,59.461,1730,102867.638,12,59.45,59.465,59.43,59.461,0.005376798606766614,0.005767929634641426,atvi,20200113
2020-01-13,12:57,12:57 PM,59.46,59.395,59.423,296,17589.16,5,59.46,59.391,59.426,6799,404039.41,55,59.46,59.395,59.46,59.391,0.004734288081429774,0.005175913396481808,atvi,20200113
2020-01-13,12:58,12:58 PM,,,,0,0.0,0,59.41,59.38,59.396,5066,300900.08,40,,,59.38,59.39,,0.004668470906630639,atvi,20200113
2020-01-13,12:59,12:59 PM,59.4,59.4,59.4,500,29700.0,1,59.419,59.4,59.404,2700,160390.2,17,59.4,59.4,59.4,59.415,0.004345400131883704,0.004803788903924324,atvi,20200113
2020-01-13,13:00,1 PM,59.41,59.395,59.403,200,11880.5,2,59.41,59.39,59.406,5800,344552.5,34,59.41,59.395,59.41,59.39,0.004396124647041881,0.004837618403247655,atvi,20200113
2020-01-13,13:01,1:01 PM,59.385,59.365,59.374,600,35624.5,7,59.39,59.365,59.378,6687,397061.51,46,59.385,59.365,59.39,59.365,0.003905787667179576,0.004364005412719937,atvi,20200113
2020-01-13,13:02,1:02 PM,59.365,59.365,59.365,100,5936.5,1,59.38,59.365,59.375,3096,183825.7128,24,59.365,59.365,59.365,59.375,0.003753614121705042,0.0043132611637348205,atvi,20200113
2020-01-13,13:03,1:03 PM,59.37,59.37,59.37,100,5937.0,1,59.38,59.36,59.372,6183,367097.009,55,59.37,59.37,59.37,59.38,0.003838154980301925,0.004262516914749703,atvi,20200113
2020-01-13,13:04,1:04 PM,,,,0,0.0,0,59.387,59.36,59.372,6984,414651.8836,54,,,59.37,59.37,,0.004262516914749703,atvi,20200113
2020-01-13,13:05,1:05 PM,59.38,59.375,59.38,2000,118759.0,4,59.39,59.37,59.381,7460,442983.1,48,59.375,59.375,59.375,59.39,0.004007236697495932,0.004414749661705054,atvi,20200113
2020-01-13,13:06,1:06 PM,,,,0,0.0,0,59.39,59.38,59.383,800,47506.5,7,,,59.38,59.39,,0.004448579161028505,atvi,20200113
2020-01-13,13:07,1:07 PM,59.375,59.375,59.375,100,5937.5,1,59.39,59.37,59.378,5921,351575.759,48,59.375,59.375,59.385,59.372,0.003922695838898928,0.004364005412719937,atvi,20200113
2020-01-13,13:08,1:08 PM,59.375,59.375,59.375,100,5937.5,1,59.38,59.37,59.376,5290,314099.6,31,59.375,59.375,59.373,59.374,0.003922695838898928,0.0043301759133964855,atvi,20200113
2020-01-13,13:09,1:09 PM,59.375,59.375,59.375,100,5937.5,1,59.375,59.37,59.374,2200,130623.5,7,59.375,59.375,59.375,59.373,0.003922695838898928,0.004296346414073155,atvi,20200113
2020-01-13,13:10,1:10 PM,59.375,59.375,59.375,100,5937.5,1,59.379,59.37,59.375,1251,74278.049,7,59.375,59.375,59.375,59.375,0.003922695838898928,0.0043132611637348205,atvi,20200113
2020-01-13,13:11,1:11 PM,59.375,59.375,59.375,100,5937.5,1,59.38,59.37,59.377,5263,312504.19,46,59.375,59.375,59.38,59.375,0.003922695838898928,0.004347090663058271,atvi,20200113
2020-01-13,13:12,1:12 PM,59.375,59.375,59.375,318,18881.25,3,59.38,59.37,59.375,5384,319676.17,39,59.375,59.375,59.38,59.37,0.003922695838898928,0.0043132611637348205,atvi,20200113
2020-01-13,13:13,1:13 PM,59.375,59.375,59.375,200,11875.0,2,59.38,59.37,59.375,4374,259705.67,34,59.375,59.375,59.37,59.375,0.003922695838898928,0.0043132611637348205,atvi,20200113
2020-01-13,13:14,1:14 PM,59.37,59.355,59.359,501,29738.87,6,59.37,59.34,59.358,4700,278982.79,44,59.37,59.355,59.37,59.34,0.0036521650913886863,0.004025710419485784,atvi,20200113
2020-01-13,13:15,1:15 PM,59.345,59.335,59.34,300,17802.0,3,59.352,59.33,59.339,10342,613687.9868,78,59.34,59.345,59.34,59.34,0.0033309098287202664,0.0037043301759134167,atvi,20200113
2020-01-13,13:16,1:16 PM,59.345,59.345,59.345,202,11987.69,2,59.355,59.34,59.345,4213,250019.4668,31,59.345,59.345,59.343,59.35,0.00341545068731715,0.0038058186738836506,atvi,20200113
2020-01-13,13:17,1:17 PM,59.355,59.355,59.355,100,5935.5,1,59.373,59.34,59.355,9304,552240.83,75,59.355,59.355,59.34,59.36,0.003584532404511036,0.003974966170500667,atvi,20200113
2020-01-13,13:18,1:18 PM,59.365,59.355,59.358,300,17807.5,3,59.365,59.35,59.356,3260,193499.796,28,59.365,59.355,59.365,59.352,0.0036352569196692135,0.003991880920162453,atvi,20200113
2020-01-13,13:19,1:19 PM,59.365,59.365,59.365,100,5936.5,1,59.37,59.35,59.357,4862,288593.755,35,59.365,59.365,59.35,59.365,0.003753614121705042,0.004008795669824119,atvi,20200113
2020-01-13,13:20,1:20 PM,59.375,59.375,59.375,2000,118750.0,1,59.38,59.36,59.373,13824,820772.2,97,59.375,59.375,59.362,59.37,0.003922695838898928,0.004279431664411369,atvi,20200113
2020-01-13,13:21,1:21 PM,59.375,59.375,59.375,100,5937.5,1,59.39,59.37,59.38,5295,314417.6874,46,59.375,59.375,59.375,59.385,0.003922695838898928,0.0043978349120433885,atvi,20200113
2020-01-13,13:22,1:22 PM,59.385,59.385,59.385,100,5938.5,1,59.39,59.38,59.385,6349,377038.11,34,59.385,59.385,59.385,59.38,0.004091777556092815,0.004482408660351837,atvi,20200113
2020-01-13,13:23,1:23 PM,59.37,59.365,59.367,403,23925.11,4,59.39,59.36,59.377,13963,829085.6398,103,59.37,59.37,59.385,59.365,0.0037874304651437474,0.004347090663058271,atvi,20200113
2020-01-13,13:24,1:24 PM,59.37,59.36,59.362,310,18402.2,4,59.4,59.3,59.357,39083,2319854.9915,161,59.365,59.36,59.362,59.3,0.0037028896065468644,0.004008795669824119,atvi,20200113
2020-01-13,13:25,1:25 PM,59.305,59.305,59.305,100,5930.5,1,59.32,59.295,59.303,24601,1458924.868,147,59.305,59.305,59.31,59.305,0.0027391238185414846,0.0030953991880920133,atvi,20200113
2020-01-13,13:26,1:26 PM,,,,0,0.0,0,59.32,59.3,59.31,6798,403192.265,58,,,59.3,59.303,,0.0032138024357240332,atvi,20200113
2020-01-13,13:27,1:27 PM,59.31,59.295,59.303,200,11860.5,2,59.32,59.292,59.307,9879,585894.22,68,59.31,59.295,59.303,59.295,0.0027053074751026596,0.0031630581867389163,atvi,20200113
2020-01-13,13:28,1:28 PM,59.295,59.295,59.295,100,5929.5,1,59.305,59.29,59.298,5442,322702.824,37,59.295,59.295,59.295,59.3,0.0025700421013475985,0.0030108254397835654,atvi,20200113
2020-01-13,13:29,1:29 PM,59.3,59.295,59.297,201,11918.8,3,59.303,59.295,59.298,2291,135852.245,19,59.3,59.295,59.303,59.295,0.002603858444786304,0.0030108254397835654,atvi,20200113
2020-01-13,13:30,1:30 PM,59.295,59.295,59.295,500,29647.5,5,59.3,59.295,59.296,5200,308341.49,48,59.295,59.295,59.3,59.295,0.0025700421013475985,0.002976995940460114,atvi,20200113
2020-01-13,13:31,1:31 PM,59.305,59.295,59.3,200,11860.0,2,59.31,59.295,59.302,3277,194333.62,23,59.295,59.305,59.295,59.305,0.0026545829599444815,0.003078484438430348,atvi,20200113
2020-01-13,13:32,1:32 PM,59.305,59.305,59.305,100,5930.5,1,59.305,59.3,59.303,1500,88955.0,13,59.305,59.305,59.305,59.3,0.0027391238185414846,0.0030953991880920133,atvi,20200113
2020-01-13,13:33,1:33 PM,59.305,59.305,59.305,300,17791.5,3,59.31,59.28,59.3,10141,601360.54,87,59.305,59.305,59.303,59.3,0.0027391238185414846,0.0030446549391068964,atvi,20200113
2020-01-13,13:34,1:34 PM,59.305,59.305,59.305,100,5930.5,1,59.31,59.295,59.302,3079,182592.0668,25,59.305,59.305,59.31,59.295,0.0027391238185414846,0.003078484438430348,atvi,20200113
2020-01-13,13:35,1:35 PM,,,,0,0.0,0,59.297,59.29,59.295,1100,65225.05,7,,,59.295,59.295,,0.0029600811907984485,atvi,20200113
2020-01-13,13:36,1:36 PM,59.295,59.295,59.295,2200,130449.0,17,59.3,59.29,59.297,5747,340779.3362,46,59.295,59.295,59.295,59.3,0.0025700421013475985,0.0029939106901217794,atvi,20200113
2020-01-13,13:37,1:37 PM,59.305,59.295,59.3,400,23720.0,4,59.335,59.295,59.316,8060,478089.814,57,59.295,59.305,59.295,59.334,0.0026545829599444815,0.003315290933694267,atvi,20200113
2020-01-13,13:38,1:38 PM,59.315,59.31,59.315,312,18506.22,4,59.335,59.31,59.322,4342,257576.37,35,59.315,59.31,59.335,59.31,0.002908205535735371,0.003416779431664501,atvi,20200113
2020-01-13,13:39,1:39 PM,59.305,59.295,59.297,400,23719.0,4,59.32,59.295,59.31,4855,287949.345,40,59.305,59.295,59.313,59.295,0.002603858444786304,0.0032138024357240332,atvi,20200113
2020-01-13,13:40,1:40 PM,,,,0,0.0,0,59.3,59.29,59.294,600,35576.5,6,,,59.295,59.29,,0.0029431664411366625,atvi,20200113
2020-01-13,13:41,1:41 PM,59.295,59.285,59.29,300,17787.0,3,59.31,59.285,59.296,11379,674729.74,80,59.285,59.295,59.29,59.295,0.0024855012427505954,0.002976995940460114,atvi,20200113
2020-01-13,13:42,1:42 PM,,,,0,0.0,0,59.3,59.291,59.297,3188,189038.94,17,,,59.295,59.3,,0.0029939106901217794,atvi,20200113
2020-01-13,13:43,1:43 PM,59.305,59.285,59.292,500,29646.0,5,59.305,59.285,59.295,3400,201603.75,30,59.305,59.285,59.3,59.285,0.002519317586189421,0.0029600811907984485,atvi,20200113
2020-01-13,13:44,1:44 PM,,,,0,0.0,0,59.3,59.28,59.29,1892,112177.22,17,,,59.285,59.295,,0.00287550744248988,atvi,20200113
2020-01-13,13:45,1:45 PM,,,,0,0.0,0,59.305,59.295,59.3,4576,271356.17,25,,,59.295,59.295,,0.0030446549391068964,atvi,20200113
2020-01-13,13:46,1:46 PM,59.31,59.31,59.31,2,118.62,1,59.32,59.3,59.308,2600,154201.25,20,59.31,59.31,59.3,59.31,0.002823664677138488,0.0031799729364005817,atvi,20200113
2020-01-13,13:47,1:47 PM,59.305,59.295,59.297,600,35578.5,6,59.313,59.295,59.301,6428,381187.68,49,59.305,59.295,59.313,59.303,0.002603858444786304,0.0030615696887686824,atvi,20200113
2020-01-13,13:48,1:48 PM,59.305,59.305,59.305,100,5930.5,1,59.31,59.3,59.304,4283,253999.19,36,59.305,59.305,59.3,59.3,0.0027391238185414846,0.0031123139377537993,atvi,20200113
2020-01-13,13:49,1:49 PM,59.32,59.32,59.32,500,29660.0,5,59.33,59.3,59.311,14668,869973.535,109,59.32,59.32,59.305,59.32,0.002992746394332374,0.0032307171853856987,atvi,20200113
2020-01-13,13:50,1:50 PM,59.305,59.305,59.305,300,17791.5,3,59.325,59.3,59.312,7813,463402.26,42,59.305,59.305,59.32,59.305,0.0027391238185414846,0.003247631935047364,atvi,20200113
2020-01-13,13:51,1:51 PM,59.315,59.305,59.305,2200,130472.0,4,59.33,59.3,59.312,16506,979008.07,116,59.305,59.315,59.31,59.322,0.0027391238185414846,0.003247631935047364,atvi,20200113
2020-01-13,13:52,1:52 PM,59.31,59.31,59.31,100,5931.0,1,59.322,59.31,59.314,4002,237374.23,34,59.31,59.31,59.32,59.313,0.002823664677138488,0.0032814614343708156,atvi,20200113
2020-01-13,13:53,1:53 PM,59.315,59.31,59.311,400,23724.5,4,59.32,59.3,59.312,6760,400948.625,57,59.31,59.315,59.31,59.305,0.0028405728488578403,0.003247631935047364,atvi,20200113
2020-01-13,13:54,1:54 PM,59.3,59.295,59.297,300,17789.0,3,59.31,59.295,59.304,6475,383997.25,50,59.3,59.295,59.3,59.295,0.002603858444786304,0.0031123139377537993,atvi,20200113
2020-01-13,13:55,1:55 PM,,,,0,0.0,0,59.3,59.29,59.298,3592,212999.13,25,,,59.295,59.3,,0.0030108254397835654,atvi,20200113
2020-01-13,13:56,1:56 PM,59.305,59.305,59.305,100,5930.5,1,59.316,59.3,59.306,3421,202886.0622,25,59.305,59.305,59.3,59.3,0.0027391238185414846,0.0031461434370771302,atvi,20200113
2020-01-13,13:57,1:57 PM,59.31,59.275,59.289,801,47490.29,9,59.313,59.275,59.295,4983,295466.146,43,59.31,59.275,59.31,59.275,0.0024685930710312428,0.0029600811907984485,atvi,20200113
2020-01-13,13:58,1:58 PM,59.28,59.27,59.278,5,296.39,2,59.29,59.27,59.28,2022,119864.62,13,59.27,59.28,59.275,59.29,0.002282603182117884,0.0027063599458728637,atvi,20200113
2020-01-13,13:59,1:59 PM,59.28,59.265,59.268,496,29396.88,5,59.285,59.245,59.263,4329,256549.2465,32,59.28,59.265,59.285,59.245,0.002113521464923998,0.0024188092016238275,atvi,20200113
2020-01-13,14:00,2 PM,,,,0,0.0,0,59.26,59.245,59.248,3895,230772.1355,13,,,59.245,59.253,,0.0021650879566982428,atvi,20200113
2020-01-13,14:01,2:01 PM,59.235,59.235,59.235,400,23694.0,4,59.25,59.22,59.238,5161,305725.87,42,59.235,59.235,59.25,59.23,0.0015555517981840413,0.0019959404600812265,atvi,20200113
2020-01-13,14:02,2:02 PM,59.255,59.255,59.255,100,5925.5,1,59.27,59.235,59.253,3887,230315.25,32,59.255,59.255,59.24,59.27,0.0018937152325719337,0.002249661705006811,atvi,20200113
2020-01-13,14:03,2:03 PM,59.265,59.265,59.265,100,5926.5,1,59.27,59.26,59.268,3600,213364.25,22,59.265,59.265,59.27,59.27,0.00206279694976582,0.002503382949932396,atvi,20200113
2020-01-13,14:04,2:04 PM,59.285,59.265,59.273,410,24301.8,5,59.29,59.265,59.275,6584,390267.6888,56,59.285,59.275,59.27,59.28,0.002198062323521001,0.0026217861975642953,atvi,20200113
2020-01-13,14:05,2:05 PM,59.28,59.275,59.277,900,53349.5,9,59.286,59.27,59.28,3124,185191.1304,24,59.275,59.28,59.285,59.285,0.0022656950103985313,0.0027063599458728637,atvi,20200113
2020-01-13,14:06,2:06 PM,59.285,59.28,59.281,600,35568.5,2,59.285,59.28,59.281,1000,59280.5,6,59.285,59.28,59.285,59.28,0.0023333276972760616,0.002723274695534529,atvi,20200113
2020-01-13,14:07,2:07 PM,,,,0,0.0,0,59.29,59.265,59.277,3761,222940.035,33,,,59.284,59.28,,0.002655615696887747,atvi,20200113
2020-01-13,14:08,2:08 PM,59.285,59.285,59.285,100,5928.5,1,59.285,59.28,59.282,1140,67582.135,6,59.285,59.285,59.285,59.285,0.0024009603841535923,0.0027401894451961947,atvi,20200113
2020-01-13,14:09,2:09 PM,59.295,59.295,59.295,100,5929.5,1,59.31,59.282,59.298,3530,209323.97,14,59.295,59.295,59.282,59.3,0.0025700421013475985,0.0030108254397835654,atvi,20200113
2020-01-13,14:10,2:10 PM,59.305,59.305,59.305,100,5930.5,1,59.305,59.29,59.299,3580,212290.1899,26,59.305,59.305,59.305,59.3,0.0027391238185414846,0.003027740189445231,atvi,20200113
2020-01-13,14:11,2:11 PM,59.29,59.285,59.286,284,16837.36,4,59.3,59.28,59.294,3873,229646.99,33,59.29,59.285,59.3,59.295,0.002417868555873065,0.0029431664411366625,atvi,20200113
2020-01-13,14:12,2:12 PM,59.305,59.305,59.305,100,5930.5,1,59.318,59.3,59.311,1465,86890.525,13,59.305,59.305,59.305,59.315,0.0027391238185414846,0.0032307171853856987,atvi,20200113
2020-01-13,14:13,2:13 PM,59.3,59.285,59.296,316,18737.56,4,59.31,59.29,59.3,2300,136389.0,20,59.3,59.295,59.31,59.295,0.002586950273066951,0.0030446549391068964,atvi,20200113
2020-01-13,14:14,2:14 PM,59.295,59.295,59.295,100,5929.5,1,59.303,59.292,59.297,1442,85506.8656,13,59.295,59.295,59.295,59.3,0.0025700421013475985,0.0029939106901217794,atvi,20200113
2020-01-13,14:15,2:15 PM,,,,0,0.0,0,59.3,59.295,59.298,4325,256466.225,9,,,59.3,59.295,,0.0030108254397835654,atvi,20200113
2020-01-13,14:16,2:16 PM,59.295,59.295,59.295,100,5929.5,1,59.3,59.29,59.294,1070,63445.123,9,59.295,59.295,59.295,59.29,0.0025700421013475985,0.0029431664411366625,atvi,20200113
2020-01-13,14:17,2:17 PM,59.29,59.25,59.268,708,41961.82,9,59.29,59.25,59.271,6642,393676.15,42,59.29,59.25,59.29,59.25,0.002113521464923998,0.002554127198917513,atvi,20200113
2020-01-13,14:18,2:18 PM,59.265,59.25,59.258,207,12266.32,4,59.27,59.235,59.259,5555,329182.075,43,59.265,59.25,59.25,59.235,0.0019444397477301116,0.002351150202977045,atvi,20200113
2020-01-13,14:19,2:19 PM,59.265,59.26,59.265,104,6163.54,2,59.265,59.245,59.251,1351,80048.2064,13,59.265,59.26,59.245,59.265,0.00206279694976582,0.0022158322056833597,atvi,20200113
2020-01-13,14:20,2:20 PM,59.26,59.255,59.258,204,12088.54,3,59.27,59.255,59.264,3000,177793.0,13,59.26,59.255,59.26,59.265,0.0019444397477301116,0.0024357239512856135,atvi,20200113
2020-01-13,14:21,2:21 PM,59.26,59.26,59.26,100,5926.0,2,59.275,59.255,59.266,2556,151483.9,22,59.26,59.26,59.27,59.265,0.0019782560911688167,0.0024695534506089445,atvi,20200113
2020-01-13,14:22,2:22 PM,59.27,59.265,59.265,107,6341.39,2,59.275,59.258,59.266,2659,157587.4188,22,59.265,59.27,59.26,59.27,0.00206279694976582,0.0024695534506089445,atvi,20200113
2020-01-13,14:23,2:23 PM,59.295,59.295,59.295,102,6048.09,1,59.3,59.28,59.29,3304,195895.68,28,59.295,59.295,59.28,59.295,0.0025700421013475985,0.00287550744248988,atvi,20200113
2020-01-13,14:24,2:24 PM,59.3,59.3,59.3,208,12334.4,3,59.31,59.295,59.301,2900,171973.75,24,59.3,59.3,59.295,59.3,0.0026545829599444815,0.0030615696887686824,atvi,20200113
2020-01-13,14:25,2:25 PM,,,,0,0.0,0,59.305,59.295,59.3,2521,149494.2425,21,,,59.305,59.295,,0.0030446549391068964,atvi,20200113
2020-01-13,14:26,2:26 PM,59.3,59.3,59.3,175,10377.5,1,59.303,59.292,59.3,2075,123046.68,17,59.3,59.3,59.3,59.3,0.0026545829599444815,0.0030446549391068964,atvi,20200113
2020-01-13,14:27,2:27 PM,,,,0,0.0,0,59.31,59.3,59.305,8101,480427.2387,66,,,59.31,59.3,,0.003129228687415465,atvi,20200113
2020-01-13,14:28,2:28 PM,59.305,59.305,59.305,100,5930.5,1,59.33,59.3,59.315,7650,453761.5,68,59.305,59.305,59.3,59.325,0.0027391238185414846,0.003298376184032481,atvi,20200113
2020-01-13,14:29,2:29 PM,59.335,59.33,59.335,104,6170.82,2,59.335,59.325,59.332,2355,139725.925,22,59.33,59.335,59.325,59.335,0.0032463689701232633,0.0035859269282815173,atvi,20200113
2020-01-13,14:30,2:30 PM,59.34,59.34,59.34,2,118.68,2,59.35,59.33,59.34,6400,379775.02,40,59.34,59.34,59.335,59.33,0.0033309098287202664,0.0037212449255752027,atvi,20200113
2020-01-13,14:31,2:31 PM,59.33,59.325,59.326,800,47460.5,8,59.335,59.32,59.329,6568,389674.35,49,59.33,59.325,59.335,59.33,0.00309419542464873,0.0035351826792964004,atvi,20200113
2020-01-13,14:32,2:32 PM,59.35,59.33,59.336,106,6289.58,3,59.355,59.33,59.343,11128,660375.015,53,59.335,59.35,59.33,59.345,0.003263277141842616,0.0037719891745603197,atvi,20200113
2020-01-13,14:33,2:33 PM,59.345,59.34,59.341,499,29611.16,5,59.35,59.34,59.344,5085,301765.0682,37,59.34,59.345,59.345,59.345,0.003347818000439619,0.003788903924221985,atvi,20200113
2020-01-13,14:34,2:34 PM,59.39,59.39,59.39,100,5939.0,1,59.43,59.345,59.388,16434,975980.14,75,59.39,59.39,59.35,59.42,0.004176318414689817,0.004533152909336953,atvi,20200113
2020-01-13,14:35,2:35 PM,,,,0,0.0,0,59.44,59.41,59.424,15877,943479.2602,44,,,59.43,59.44,,0.005142083897158357,atvi,20200113
2020-01-13,14:36,2:36 PM,,,,0,0.0,0,59.45,59.435,59.44,2514,149433.375,19,,,59.445,59.445,,0.005412719891745607,atvi,20200113
2020-01-13,14:37,2:37 PM,59.45,59.425,59.438,310,18425.8,4,59.45,59.425,59.443,7565,449685.07,47,59.43,59.45,59.444,59.445,0.004987910657220663,0.005463464140730724,atvi,20200113
2020-01-13,14:38,2:38 PM,59.445,59.445,59.445,5,297.225,1,59.45,59.44,59.443,1569,93266.71,11,59.445,59.445,59.445,59.45,0.005106267859256372,0.005463464140730724,atvi,20200113
2020-01-13,14:39,2:39 PM,59.45,59.45,59.45,100,5945.0,1,59.46,59.44,59.45,5120,304381.816,38,59.45,59.45,59.46,59.45,0.005190808717853375,0.005581867388362744,atvi,20200113
2020-01-13,14:40,2:40 PM,59.445,59.445,59.445,100,5944.5,1,59.45,59.445,59.447,3458,205567.238,18,59.445,59.445,59.445,59.445,0.005106267859256372,0.005531123139377627,atvi,20200113
2020-01-13,14:41,2:41 PM,59.42,59.42,59.42,500,29710.0,5,59.45,59.41,59.431,9014,535714.129,53,59.42,59.42,59.449,59.41,0.004683563566271596,0.0052604871447902565,atvi,20200113
2020-01-13,14:42,2:42 PM,59.415,59.39,59.403,600,35641.5,6,59.42,59.39,59.404,5880,349298.85,41,59.415,59.39,59.415,59.395,0.004396124647041881,0.004803788903924324,atvi,20200113
2020-01-13,14:43,2:43 PM,59.39,59.385,59.388,300,17816.5,3,59.4,59.37,59.385,7475,443899.2456,57,59.39,59.385,59.395,59.38,0.004142502071250992,0.004482408660351837,atvi,20200113
2020-01-13,14:44,2:44 PM,59.385,59.38,59.384,500,29692.0,5,59.395,59.375,59.388,5137,305076.82,40,59.38,59.385,59.375,59.395,0.004074869384373462,0.004533152909336953,atvi,20200113
2020-01-13,14:45,2:45 PM,59.395,59.395,59.395,400,23758.0,4,59.396,59.385,59.391,6167,366265.2206,46,59.395,59.395,59.395,59.395,0.004260859273286821,0.004583897158322071,atvi,20200113
2020-01-13,14:46,2:46 PM,59.39,59.37,59.376,105,6234.43,3,59.39,59.36,59.372,4531,269013.2379,30,59.39,59.37,59.39,59.36,0.003939604010618281,0.004262516914749703,atvi,20200113
2020-01-13,14:47,2:47 PM,59.365,59.365,59.365,100,5936.5,1,59.385,59.365,59.375,1821,108121.27,18,59.365,59.365,59.365,59.385,0.003753614121705042,0.0043132611637348205,atvi,20200113
2020-01-13,14:48,2:48 PM,59.385,59.385,59.385,100,5938.5,1,59.39,59.385,59.388,1722,102265.44,13,59.385,59.385,59.39,59.39,0.004091777556092815,0.004533152909336953,atvi,20200113
2020-01-13,14:49,2:49 PM,59.365,59.355,59.36,400,23744.0,4,59.39,59.355,59.368,4584,272144.675,39,59.365,59.355,59.387,59.36,0.003669073263108039,0.004194857916102921,atvi,20200113
2020-01-13,14:50,2:50 PM,59.365,59.365,59.365,400,23746.0,2,59.37,59.345,59.36,6574,390235.46,31,59.365,59.365,59.37,59.345,0.003753614121705042,0.004059539918809235,atvi,20200113
2020-01-13,14:51,2:51 PM,59.35,59.335,59.34,630,37384.5,9,59.36,59.32,59.339,8673,514643.37,59,59.345,59.335,59.34,59.325,0.0033309098287202664,0.0037043301759134167,atvi,20200113
2020-01-13,14:52,2:52 PM,,,,0,0.0,0,59.33,59.32,59.325,1756,104175.4128,12,,,59.324,59.32,,0.003467523680649618,atvi,20200113
2020-01-13,14:53,2:53 PM,59.345,59.345,59.345,100,5934.5,1,59.355,59.335,59.343,24044,1426856.239,153,59.345,59.345,59.34,59.345,0.00341545068731715,0.0037719891745603197,atvi,20200113
2020-01-13,14:54,2:54 PM,59.335,59.335,59.335,100,5933.5,1,59.35,59.33,59.34,5570,330524.548,41,59.335,59.335,59.35,59.335,0.0032463689701232633,0.0037212449255752027,atvi,20200113
2020-01-13,14:55,2:55 PM,59.325,59.3,59.319,633,37549.06,8,59.33,59.29,59.315,3800,225398.5,36,59.325,59.3,59.33,59.3,0.0029758382226130215,0.003298376184032481,atvi,20200113
2020-01-13,14:56,2:56 PM,59.335,59.335,59.335,400,23734.0,4,59.335,59.295,59.313,4333,257003.4,39,59.335,59.335,59.3,59.335,0.0032463689701232633,0.00326454668470915,atvi,20200113
2020-01-13,14:57,2:57 PM,59.325,59.32,59.322,200,11864.5,2,59.335,59.315,59.325,7155,424468.345,46,59.325,59.32,59.335,59.32,0.003026562737771199,0.003467523680649618,atvi,20200113
2020-01-13,14:58,2:58 PM,59.325,59.325,59.325,100,5932.5,1,59.34,59.32,59.328,4833,286734.06,42,59.325,59.325,59.34,59.33,0.0030772872529293773,0.003518267929634735,atvi,20200113
2020-01-13,14:59,2:59 PM,59.325,59.315,59.32,200,11864.0,2,59.33,59.3,59.32,2800,166096.0,22,59.325,59.315,59.33,59.3,0.002992746394332374,0.0033829499323410495,atvi,20200113
2020-01-13,15:00,3 PM,59.305,59.3,59.303,200,11860.5,2,59.325,59.3,59.315,3769,223559.39,33,59.3,59.305,59.3,59.31,0.0027053074751026596,0.003298376184032481,atvi,20200113
2020-01-13,15:01,3:01 PM,59.31,59.305,59.307,400,23723.0,4,59.32,59.3,59.309,2593,153789.77,23,59.305,59.31,59.306,59.3,0.00277294016198031,0.003196887686062247,atvi,20200113
2020-01-13,15:02,3:02 PM,59.31,59.31,59.31,38,2253.78,1,59.32,59.3,59.307,3559,211075.23,30,59.31,59.31,59.305,59.315,0.002823664677138488,0.0031630581867389163,atvi,20200113
2020-01-13,15:03,3:03 PM,59.315,59.315,59.315,300,17794.5,2,59.32,59.315,59.316,14361,851838.145,43,59.315,59.315,59.315,59.315,0.002908205535735371,0.003315290933694267,atvi,20200113
2020-01-13,15:04,3:04 PM,59.31,59.305,59.307,200,11861.5,2,59.32,59.3,59.313,8770,520179.83,75,59.31,59.305,59.315,59.32,0.00277294016198031,0.00326454668470915,atvi,20200113
2020-01-13,15:05,3:05 PM,59.315,59.305,59.308,500,29654.0,5,59.325,59.305,59.313,2455,145614.075,19,59.315,59.305,59.32,59.305,0.0027898483336996627,0.00326454668470915,atvi,20200113
2020-01-13,15:06,3:06 PM,59.305,59.305,59.305,100,5930.5,1,59.32,59.303,59.307,5373,318655.39,26,59.305,59.305,59.303,59.305,0.0027391238185414846,0.0031630581867389163,atvi,20200113
2020-01-13,15:07,3:07 PM,59.305,59.305,59.305,100,5930.5,1,59.31,59.3,59.305,3100,183845.27,30,59.305,59.305,59.305,59.3,0.0027391238185414846,0.003129228687415465,atvi,20200113
2020-01-13,15:08,3:08 PM,59.295,59.295,59.295,500,29647.5,5,59.3,59.29,59.297,9521,564566.3854,48,59.295,59.295,59.295,59.3,0.0025700421013475985,0.0029939106901217794,atvi,20200113
2020-01-13,15:09,3:09 PM,59.31,59.305,59.305,31,1838.465,5,59.31,59.295,59.301,2900,171971.74,21,59.305,59.305,59.3,59.305,0.0027391238185414846,0.0030615696887686824,atvi,20200113
2020-01-13,15:10,3:10 PM,59.315,59.315,59.315,100,5931.5,1,59.32,59.3,59.312,5503,326394.23,46,59.315,59.315,59.31,59.305,0.002908205535735371,0.003247631935047364,atvi,20200113
2020-01-13,15:11,3:11 PM,59.305,59.305,59.305,300,17791.5,3,59.31,59.305,59.306,1384,82079.61,11,59.305,59.305,59.305,59.305,0.0027391238185414846,0.0031461434370771302,atvi,20200113
2020-01-13,15:12,3:12 PM,59.305,59.305,59.305,100,5930.5,1,59.31,59.3,59.307,4009,237761.385,37,59.305,59.305,59.305,59.3,0.0027391238185414846,0.0031630581867389163,atvi,20200113
2020-01-13,15:13,3:13 PM,59.315,59.305,59.31,200,11862.0,2,59.315,59.305,59.31,3480,206399.94,21,59.305,59.315,59.31,59.315,0.002823664677138488,0.0032138024357240332,atvi,20200113
2020-01-13,15:14,3:14 PM,,,,0,0.0,0,59.335,59.315,59.327,4638,275156.94,37,,,59.315,59.33,,0.003501353179972949,atvi,20200113
2020-01-13,15:15,3:15 PM,59.33,59.33,59.33,100,5933.0,1,59.34,59.32,59.329,7309,433636.537,39,59.33,59.33,59.34,59.326,0.0031618281115262602,0.0035351826792964004,atvi,20200113
2020-01-13,15:16,3:16 PM,59.325,59.315,59.316,707,41936.74,8,59.325,59.31,59.316,2776,164661.56,27,59.325,59.315,59.325,59.31,0.0029251137074548434,0.003315290933694267,atvi,20200113
2020-01-13,15:17,3:17 PM,,,,0,0.0,0,59.31,59.3,59.307,2165,128398.8785,19,,,59.305,59.303,,0.0031630581867389163,atvi,20200113
2020-01-13,15:18,3:18 PM,59.295,59.295,59.295,100,5929.5,1,59.315,59.293,59.302,7826,464097.42,61,59.295,59.295,59.31,59.295,0.0025700421013475985,0.003078484438430348,atvi,20200113
2020-01-13,15:19,3:19 PM,,,,0,0.0,0,59.3,59.29,59.296,2334,138398.03,19,,,59.295,59.29,,0.002976995940460114,atvi,20200113
2020-01-13,15:20,3:20 PM,59.3,59.275,59.288,613,36343.27,10,59.3,59.27,59.287,6370,377659.7122,51,59.295,59.275,59.295,59.27,0.00245168489931177,0.002824763193504763,atvi,20200113
2020-01-13,15:21,3:21 PM,59.285,59.27,59.281,564,33434.3,4,59.285,59.26,59.274,7836,464471.92,55,59.27,59.285,59.265,59.28,0.0023333276972760616,0.00260487144790263,atvi,20200113
2020-01-13,15:22,3:22 PM,59.285,59.285,59.285,100,5928.5,1,59.285,59.28,59.284,1541,91357.2435,9,59.285,59.285,59.28,59.285,0.0024009603841535923,0.002774018944519646,atvi,20200113
2020-01-13,15:23,3:23 PM,59.285,59.285,59.285,100,5928.5,1,59.29,59.285,59.287,1100,65216.0,11,59.285,59.285,59.285,59.29,0.0024009603841535923,0.002824763193504763,atvi,20200113
2020-01-13,15:24,3:24 PM,59.28,59.26,59.271,214,12683.92,3,59.29,59.235,59.261,24292,1439565.548,177,59.28,59.26,59.29,59.246,0.0021642459800821755,0.0023849797023004966,atvi,20200113
2020-01-13,15:25,3:25 PM,,,,0,0.0,0,59.26,59.24,59.251,2860,169457.081,18,,,59.24,59.26,,0.0022158322056833597,atvi,20200113
2020-01-13,15:26,3:26 PM,59.25,59.24,59.241,111,6575.75,3,59.26,59.23,59.248,10137,600592.866,80,59.25,59.24,59.25,59.26,0.001657000828500397,0.0021650879566982428,atvi,20200113
2020-01-13,15:27,3:27 PM,59.255,59.225,59.242,405,23993.25,6,59.26,59.225,59.243,6669,395090.6596,41,59.255,59.225,59.255,59.23,0.0016739090002197495,0.002080514208389795,atvi,20200113
2020-01-13,15:28,3:28 PM,59.23,59.2,59.203,110,6512.3,3,59.24,59.195,59.217,7429,439921.6706,58,59.23,59.2,59.235,59.205,0.0010144903031635575,0.0016407307171854078,atvi,20200113
2020-01-13,15:29,3:29 PM,,,,0,0.0,0,59.21,59.205,59.207,1500,88811.0,15,,,59.205,59.205,,0.0014715832205683915,atvi,20200113
2020-01-13,15:30,3:30 PM,59.22,59.195,59.199,505,29895.6,6,59.22,59.19,59.205,5612,332257.4925,50,59.22,59.195,59.21,59.199,0.0009468576162859068,0.00143775372124494,atvi,20200113
2020-01-13,15:31,3:31 PM,59.195,59.195,59.195,200,11839.0,2,59.2,59.195,59.199,5500,325593.44,40,59.195,59.195,59.195,59.2,0.0008792249294083763,0.0013362652232747061,atvi,20200113
2020-01-13,15:32,3:32 PM,59.2,59.175,59.176,205,12131.12,7,59.2,59.17,59.189,10120,598989.96,77,59.2,59.175,59.2,59.195,0.0005579696667399565,0.0011671177266576898,atvi,20200113
2020-01-13,15:33,3:33 PM,59.195,59.175,59.189,1089,64457.33,10,59.195,59.17,59.185,11086,656130.2932,80,59.195,59.185,59.195,59.185,0.0007777758990920206,0.0010994587280109072,atvi,20200113
2020-01-13,15:34,3:34 PM,59.195,59.185,59.19,200,11838.0,2,59.2,59.18,59.189,10163,601540.09,75,59.185,59.195,59.19,59.2,0.0007946840708113732,0.0011671177266576898,atvi,20200113
2020-01-13,15:35,3:35 PM,59.21,59.2,59.205,404,23918.83,6,59.215,59.195,59.205,7027,416032.9934,52,59.2,59.205,59.195,59.205,0.0010483066466022626,0.00143775372124494,atvi,20200113
2020-01-13,15:36,3:36 PM,59.2,59.185,59.188,1207,71439.4,13,59.21,59.18,59.193,17743,1050262.969,135,59.2,59.195,59.205,59.208,0.000760867727372668,0.0012347767253044722,atvi,20200113
2020-01-13,15:37,3:37 PM,59.215,59.21,59.215,2721,161123.515,11,59.225,59.21,59.217,6960,412147.6572,42,59.21,59.215,59.21,59.22,0.0012173883637962687,0.0016407307171854078,atvi,20200113
2020-01-13,15:38,3:38 PM,59.235,59.23,59.232,255,15104.15,3,59.24,59.22,59.232,6097,361136.714,39,59.23,59.235,59.225,59.24,0.0015048272830258634,0.0018944519621109926,atvi,20200113
2020-01-13,15:39,3:39 PM,59.255,59.245,59.25,400,23700.0,4,59.27,59.24,59.256,6362,376985.5756,44,59.25,59.255,59.252,59.265,0.0018091743739749304,0.002300405953991928,atvi,20200113
2020-01-13,15:40,3:40 PM,59.265,59.255,59.257,622,36857.72,11,59.27,59.25,59.26,8393,497367.5549,58,59.265,59.255,59.27,59.26,0.0019275315760106388,0.0023680649526387106,atvi,20200113
2020-01-13,15:41,3:41 PM,59.275,59.265,59.272,213,12624.98,4,59.275,59.26,59.267,8688,514915.345,47,59.27,59.265,59.26,59.27,0.002181154151801528,0.0024864682002707305,atvi,20200113
2020-01-13,15:42,3:42 PM,59.255,59.255,59.255,400,23702.0,4,59.265,59.25,59.258,5126,303756.225,31,59.255,59.255,59.265,59.26,0.0018937152325719337,0.0023342354533153796,atvi,20200113
2020-01-13,15:43,3:43 PM,59.26,59.245,59.248,1020,60433.08,13,59.266,59.24,59.255,12579,745363.2988,72,59.26,59.245,59.26,59.245,0.0017753580305361052,0.0022834912043302627,atvi,20200113
2020-01-13,15:44,3:44 PM,59.245,59.215,59.222,800,47377.5,8,59.245,59.21,59.229,6922,409982.8651,62,59.245,59.215,59.245,59.22,0.0013357455658319771,0.0018437077131258756,atvi,20200113
2020-01-13,15:45,3:45 PM,59.22,59.215,59.215,746,44174.62,7,59.225,59.21,59.218,5379,318535.4764,41,59.215,59.22,59.215,59.22,0.0012173883637962687,0.0016576454668471936,atvi,20200113
2020-01-13,15:46,3:46 PM,59.245,59.225,59.231,1100,65154.0,9,59.25,59.22,59.235,4803,284507.535,39,59.225,59.245,59.22,59.245,0.0014879191113065108,0.0019451962110961095,atvi,20200113
2020-01-13,15:47,3:47 PM,59.245,59.225,59.234,710,42056.35,8,59.245,59.22,59.233,7590,449575.7878,59,59.24,59.225,59.24,59.22,0.0015386436264646886,0.0019113667117726582,atvi,20200113
2020-01-13,15:48,3:48 PM,59.23,59.215,59.218,607,35945.04,7,59.239,59.21,59.225,14516,859711.571,119,59.22,59.23,59.22,59.226,0.0012681128789544466,0.0017760487144790932,atvi,20200113
2020-01-13,15:49,3:49 PM,59.23,59.225,59.226,1307,77408.61,14,59.23,59.22,59.228,9644,571195.5109,75,59.225,59.23,59.225,59.23,0.0014033782527095077,0.00182679296346421,atvi,20200113
2020-01-13,15:50,3:50 PM,59.265,59.24,59.265,801,47471.24,9,59.28,59.23,59.258,12836,760632.6066,104,59.24,59.265,59.24,59.28,0.00206279694976582,0.0023342354533153796,atvi,20200113
2020-01-13,15:51,3:51 PM,59.315,59.285,59.298,1215,72047.35,10,59.32,59.284,59.31,25622,1519643.474,114,59.285,59.315,59.29,59.31,0.0026207666165057766,0.0032138024357240332,atvi,20200113
2020-01-13,15:52,3:52 PM,59.315,59.29,59.299,1782,105670.76,19,59.32,59.285,59.303,20142,1194473.3535,147,59.315,59.295,59.32,59.3,0.002637674788225129,0.0030953991880920133,atvi,20200113
2020-01-13,15:53,3:53 PM,59.305,59.285,59.292,2702,160206.625,24,59.31,59.28,59.295,19868,1178072.0418,134,59.295,59.29,59.3,59.295,0.002519317586189421,0.0029600811907984485,atvi,20200113
2020-01-13,15:54,3:54 PM,59.305,59.27,59.291,1936,114788.5,21,59.32,59.25,59.289,46771,2772988.2581,328,59.295,59.27,59.298,59.274,0.002502409414469948,0.0028585926928282146,atvi,20200113
2020-01-13,15:55,3:55 PM,59.28,59.22,59.25,1434,84964.94,17,59.285,59.21,59.251,33500,1984894.2955,264,59.27,59.22,59.28,59.22,0.0018091743739749304,0.0022158322056833597,atvi,20200113
2020-01-13,15:56,3:56 PM,59.235,59.215,59.224,2519,149185.23,26,59.24,59.21,59.226,26106,1546165.7039,166,59.22,59.235,59.22,59.235,0.0013695619092706822,0.0017929634641407587,atvi,20200113
2020-01-13,15:57,3:57 PM,59.235,59.19,59.217,2817,166815.4,29,59.24,59.19,59.212,33107,1960341.4682,253,59.235,59.19,59.23,59.2,0.001251204707234974,0.0015561569688769597,atvi,20200113
2020-01-13,15:58,3:58 PM,59.245,59.215,59.221,4960,293737.0,28,59.25,59.205,59.224,31095,1841570.574,187,59.215,59.245,59.21,59.25,0.0013188373941125044,0.0017591339648173074,atvi,20200113
2020-01-13,15:59,3:59 PM,59.255,59.22,59.238,3895,230731.125,43,59.26,59.22,59.236,72147,4273698.5827,450,59.245,59.235,59.245,59.24,0.0016062763133422192,0.001962110960757775,atvi,20200113
