date,minute,label,high,low,average,volume,notional,numberOfTrades,marketHigh,marketLow,marketAverage,marketVolume,marketNotional,marketNumberOfTrades,open,close,marketOpen,marketClose,changeOverTime,marketChangeOverTime,tickerName,tickerDate
2020-01-31,09:30,09:30 AM,60.295,59.905,60.168,1719,103429.1,23,60.3,59.85,60.172,156243,9401432.221,301,60.185,59.905,60.2,59.863,0.0,0.0,atvi,20200131
2020-01-31,09:31,09:31 AM,59.95,59.925,59.949,800,47959.05,11,60.02,59.77,59.896,12021,720005.4688,92,59.95,59.925,59.86,59.82,-0.003639808536098943,-0.004586851027055711,atvi,20200131
2020-01-31,09:32,09:32 AM,59.77,59.44,59.567,737,43900.93,8,59.79,59.44,59.648,30042,1791949.6363,223,59.77,59.44,59.785,59.44,-0.009988698311394746,-0.008708369341221728,atvi,20200131
2020-01-31,09:33,09:33 AM,59.34,59.31,59.325,200,11865.0,2,59.47,59.28,59.38,34464,2046472.05,185,59.34,59.31,59.44,59.39,-0.01401076984443552,-0.013162268164594737,atvi,20200131
2020-01-31,09:34,09:34 AM,59.45,59.325,59.374,237,14071.65,4,59.5,59.32,59.434,20500,1218388.335,150,59.325,59.425,59.37,59.32,-0.013196383459646273,-0.012264840789736083,atvi,20200131
2020-01-31,09:35,09:35 AM,59.305,59.25,59.262,503,29808.915,6,59.35,59.23,59.286,22488,1333218.32,159,59.26,59.26,59.31,59.32,-0.01505783805345032,-0.014724456557867376,atvi,20200131
2020-01-31,09:36,09:36 AM,59.525,59.28,59.365,603,35796.9,7,59.54,59.26,59.397,32754,1945492.6186,275,59.32,59.485,59.32,59.485,-0.013345964632362673,-0.012879744731768906,atvi,20200131
2020-01-31,09:37,09:37 AM,59.48,59.39,59.468,2004,119173.56,7,59.5,59.34,59.428,38204,2270404.064,199,59.48,59.39,59.48,59.45,-0.011634091211275026,-0.012364554942498168,atvi,20200131
2020-01-31,09:38,09:38 AM,,,,0,0.0,0,59.703,59.46,59.546,27189,1618988.3112,140,,,59.46,59.7,,-0.010403509938177187,atvi,20200131
2020-01-31,09:39,09:39 AM,59.89,59.8,59.862,147,8799.74,3,59.89,59.7,59.767,151863,9076413.3,223,59.8,59.87,59.71,59.85,-0.005085759872357356,-0.0067307053114404386,atvi,20200131
2020-01-31,09:40,09:40 AM,59.8,59.71,59.745,907,54188.97,9,59.84,59.69,59.752,37929,2266338.23,225,59.8,59.76,59.84,59.75,-0.007030315117670553,-0.006979990693345653,atvi,20200131
2020-01-31,09:41,09:41 AM,59.935,59.86,59.906,250,14976.5,3,59.96,59.77,59.903,18265,1094131.6394,141,59.86,59.935,59.77,59.96,-0.004354474139077258,-0.004470517848833317,atvi,20200131
2020-01-31,09:42,09:42 AM,60.035,59.935,59.968,4993,299422.825,38,60.035,59.92,59.96,30495,1828473.459,240,59.955,60.025,59.96,60.025,-0.0033240260603642426,-0.003523233397593502,atvi,20200131
2020-01-31,09:43,09:43 AM,60.1,59.88,59.994,2557,153404.03,26,60.112,59.87,59.997,16299,977892.57,136,60.095,59.88,60.05,59.88,-0.002891902672516944,-0.002908329455560679,atvi,20200131
2020-01-31,09:44,09:44 AM,59.885,59.86,59.87,600,35922.0,8,59.89,59.819,59.873,19650,1176509.216,80,59.885,59.86,59.88,59.88,-0.004952798829942857,-0.0049690886126437465,atvi,20200131
2020-01-31,09:45,09:45 AM,59.81,59.81,59.81,60,3588.6,1,59.874,59.78,59.8,15780,943643.13,47,59.81,59.81,59.865,59.835,-0.005950006648052071,-0.006182277471249084,atvi,20200131
2020-01-31,09:46,09:46 AM,59.77,59.77,59.77,17,1016.09,1,59.87,59.76,59.801,6431,384578.03,60,59.77,59.77,59.833,59.8,-0.006614811860124919,-0.006165658445788658,atvi,20200131
2020-01-31,09:47,09:47 AM,59.835,59.835,59.835,7,418.845,1,59.88,59.78,59.817,9862,589915.8868,65,59.835,59.835,59.81,59.87,-0.0055345033905065556,-0.0058997540384231354,atvi,20200131
2020-01-31,09:48,09:48 AM,59.915,59.895,59.902,300,17970.5,2,59.97,59.863,59.916,9837,589390.81,89,59.915,59.895,59.863,59.93,-0.004420954660284507,-0.004254470517848837,atvi,20200131
2020-01-31,09:49,09:49 AM,59.965,59.945,59.951,700,41965.5,6,59.98,59.91,59.953,18104,1085395.495,139,59.945,59.95,59.93,59.96,-0.003606568275495259,-0.003639566575815896,atvi,20200131
2020-01-31,09:50,09:50 AM,59.96,59.775,59.858,300,17957.5,3,59.98,59.77,59.911,15150,907656.7,133,59.96,59.775,59.96,59.78,-0.005152240393564723,-0.004337565645150497,atvi,20200131
2020-01-31,09:51,09:51 AM,59.76,59.695,59.718,661,39473.395,7,59.78,59.695,59.727,13584,811335.51,91,59.76,59.715,59.78,59.715,-0.007479058635819634,-0.007395466329854422,atvi,20200131
2020-01-31,09:52,09:52 AM,59.8,59.67,59.731,653,39004.4,5,59.83,59.66,59.723,12624,753944.235,97,59.7,59.8,59.71,59.83,-0.007262996941895985,-0.007461942431695774,atvi,20200131
2020-01-31,09:53,09:53 AM,59.83,59.75,59.807,1047,62617.725,8,59.85,59.73,59.803,5677,339503.725,51,59.83,59.75,59.83,59.75,-0.005999867038957538,-0.0061324203948680414,atvi,20200131
2020-01-31,09:54,09:54 AM,59.76,59.655,59.704,793,47345.215,10,59.76,59.617,59.704,10176,607550.9175,85,59.73,59.655,59.735,59.64,-0.007711740460045184,-0.0077777039154423395,atvi,20200131
2020-01-31,09:55,09:55 AM,59.735,59.7,59.707,162,9672.495,3,59.74,59.62,59.685,6958,415291.7585,50,59.7,59.735,59.624,59.74,-0.007661880069139718,-0.008093465399188905,atvi,20200131
2020-01-31,09:56,09:56 AM,59.78,59.745,59.758,900,53782.0,9,59.8,59.72,59.748,29382,1755506.8606,134,59.745,59.75,59.74,59.77,-0.006814253423746785,-0.007046466795187122,atvi,20200131
2020-01-31,09:57,09:57 AM,,,,0,0.0,0,59.79,59.677,59.727,9656,576723.6913,79,,,59.775,59.78,,-0.007395466329854422,atvi,20200131
2020-01-31,09:58,09:58 AM,59.82,59.775,59.795,500,29897.5,4,59.82,59.77,59.792,11841,708001.401,79,59.82,59.78,59.79,59.77,-0.006199308602579404,-0.006315229674931787,atvi,20200131
2020-01-31,09:59,09:59 AM,59.715,59.715,59.715,100,5971.5,1,59.77,59.715,59.755,7091,423720.18,45,59.715,59.715,59.758,59.73,-0.007528919026725101,-0.00693013361696461,atvi,20200131
2020-01-31,10:00,10 AM,59.73,59.68,59.711,381,22749.73,5,59.74,59.675,59.695,9619,574204.2666,47,59.73,59.72,59.73,59.695,-0.007595399547932469,-0.007927275144585468,atvi,20200131
2020-01-31,10:01,10:01 AM,,,,0,0.0,0,59.7,59.56,59.618,8706,519038.97,55,,,59.695,59.63,,-0.009206940105032157,atvi,20200131
2020-01-31,10:02,10:02 AM,59.56,59.515,59.529,670,39884.2,5,59.59,59.48,59.524,29896,1779537.973,151,59.56,59.515,59.59,59.52,-0.01062026326286391,-0.010769128498304796,atvi,20200131
2020-01-31,10:03,10:03 AM,59.57,59.57,59.57,100,5957.0,1,59.62,59.501,59.569,6330,377071.449,44,59.57,59.57,59.51,59.57,-0.00993883792048928,-0.010021272352589152,atvi,20200131
2020-01-31,10:04,10:04 AM,59.57,59.545,59.553,600,35732.0,6,59.57,59.5,59.544,4817,286821.805,36,59.57,59.545,59.55,59.5,-0.010221380135620297,-0.010436747989097921,atvi,20200131
2020-01-31,10:05,10:05 AM,59.555,59.51,59.532,200,11906.5,2,59.56,59.45,59.518,119858,7133745.66,79,59.555,59.51,59.5,59.45,-0.010570402871958562,-0.010868842651066881,atvi,20200131
2020-01-31,10:06,10:06 AM,59.47,59.455,59.46,300,17838.0,3,59.51,59.44,59.488,108810,6472939.1968,82,59.455,59.455,59.45,59.45,-0.011767052253689642,-0.011367413414877311,atvi,20200131
2020-01-31,10:07,10:07 AM,59.48,59.48,59.48,100,5948.0,1,59.55,59.45,59.503,7608,452698.9,57,59.48,59.48,59.45,59.49,-0.011434649647653278,-0.011118128032972095,atvi,20200131
2020-01-31,10:08,10:08 AM,59.465,59.37,59.444,480,28533.2,3,59.48,59.36,59.416,7613,452331.3172,68,59.465,59.37,59.48,59.36,-0.012032974338518758,-0.01256398324802234,atvi,20200131
2020-01-31,10:09,10:09 AM,59.43,59.41,59.427,410,24365.1,5,59.47,59.365,59.409,5955,353783.434,46,59.42,59.43,59.37,59.47,-0.012315516553649776,-0.012680316426244734,atvi,20200131
2020-01-31,10:10,10:10 AM,59.44,59.355,59.38,500,29690.0,5,59.46,59.35,59.393,9556,567557.664,83,59.44,59.39,59.46,59.38,-0.01309666267783534,-0.012946220833610257,atvi,20200131
2020-01-31,10:11,10:11 AM,59.42,59.38,59.39,303,17995.24,5,59.45,59.38,59.416,7818,464514.84,62,59.38,59.42,59.38,59.43,-0.012930461374817157,-0.01256398324802234,atvi,20200131
2020-01-31,10:12,10:12 AM,59.465,59.435,59.455,300,17836.5,2,59.465,59.395,59.439,4100,243700.88,27,59.465,59.435,59.465,59.397,-0.011850152905198794,-0.012181745662434306,atvi,20200131
2020-01-31,10:13,10:13 AM,59.425,59.39,59.411,700,41588.0,6,59.43,59.39,59.411,12275,729265.705,95,59.4,59.39,59.4,59.39,-0.012581438638478892,-0.012647078375324,atvi,20200131
2020-01-31,10:14,10:14 AM,59.395,59.305,59.342,885,52517.565,7,59.405,59.305,59.329,20144,1195130.8664,84,59.395,59.305,59.38,59.31,-0.013728227629304623,-0.014009838463072466,atvi,20200131
2020-01-31,10:15,10:15 AM,59.325,59.285,59.308,1654,98095.14,10,59.33,59.27,59.3,17868,1059565.835,129,59.285,59.32,59.3,59.31,-0.014293312059566538,-0.014491790201422588,atvi,20200131
2020-01-31,10:16,10:16 AM,59.305,59.305,59.305,147,8717.835,1,59.39,59.29,59.329,8155,483828.385,61,59.305,59.305,59.31,59.39,-0.014343172450472005,-0.014009838463072466,atvi,20200131
2020-01-31,10:17,10:17 AM,59.39,59.335,59.361,600,35616.5,4,59.39,59.29,59.354,5015,297661.34,30,59.39,59.36,59.38,59.29,-0.01341244515357004,-0.013594362826563814,atvi,20200131
2020-01-31,10:18,10:18 AM,59.28,59.245,59.256,400,23702.5,4,59.31,59.24,59.279,12048,714190.33,95,59.245,59.28,59.29,59.285,-0.015157558835261252,-0.014840789736089769,atvi,20200131
2020-01-31,10:19,10:19 AM,59.3,59.26,59.279,304,18020.7,3,59.305,59.25,59.279,15746,933415.7712,86,59.26,59.3,59.273,59.28,-0.014775295838319302,-0.014840789736089769,atvi,20200131
2020-01-31,10:20,10:20 AM,59.34,59.27,59.302,500,29651.0,5,59.345,59.27,59.312,7550,447808.75,63,59.27,59.34,59.275,59.33,-0.014393032841377471,-0.014292361895898416,atvi,20200131
2020-01-31,10:21,10:21 AM,59.34,59.325,59.331,547,32454.275,5,59.345,59.315,59.327,6263,371566.13,57,59.325,59.34,59.335,59.34,-0.013911049062624588,-0.014043076513993202,atvi,20200131
2020-01-31,10:22,10:22 AM,59.385,59.355,59.367,246,14604.35,4,59.385,59.345,59.36,7419,440393.509,65,59.355,59.385,59.345,59.36,-0.013312724371759108,-0.01349464867380173,atvi,20200131
2020-01-31,10:23,10:23 AM,59.34,59.335,59.34,204,12105.34,3,59.36,59.32,59.333,6982,414260.2185,63,59.34,59.335,59.36,59.325,-0.013761467889908188,-0.013943362361231115,atvi,20200131
2020-01-31,10:24,10:24 AM,59.32,59.265,59.283,600,35570.0,6,59.32,59.22,59.266,12914,765355.81,91,59.32,59.28,59.32,59.286,-0.014708815317112054,-0.015056837067074367,atvi,20200131
2020-01-31,10:25,10:25 AM,59.33,59.255,59.279,656,38886.98,8,59.35,59.255,59.293,10246,607520.105,67,59.255,59.33,59.275,59.345,-0.014775295838319302,-0.014608123379644981,atvi,20200131
2020-01-31,10:26,10:26 AM,59.36,59.3,59.325,300,17797.5,3,59.36,59.29,59.322,9131,541666.08,67,59.36,59.3,59.345,59.305,-0.01401076984443552,-0.01412617164129486,atvi,20200131
2020-01-31,10:27,10:27 AM,59.25,59.225,59.237,500,29618.5,4,59.305,59.2,59.233,9955,589666.82,69,59.25,59.225,59.305,59.225,-0.015473341310995835,-0.01560526490726584,atvi,20200131
2020-01-31,10:28,10:28 AM,59.22,59.19,59.209,500,29604.5,5,59.22,59.16,59.191,9612,568947.02,84,59.22,59.2,59.22,59.17,-0.01593870495944682,-0.016303263976600323,atvi,20200131
2020-01-31,10:29,10:29 AM,59.165,59.15,59.153,578,34190.7,6,59.18,59.12,59.151,10944,647352.98,84,59.165,59.15,59.18,59.16,-0.0168694322563489,-0.016968024995014187,atvi,20200131
2020-01-31,10:30,10:30 AM,59.195,59.15,59.183,322,19056.8,4,59.209,59.14,59.177,9934,587861.67,75,59.195,59.15,59.16,59.15,-0.016370828347294232,-0.016535930333045228,atvi,20200131
2020-01-31,10:31,10:31 AM,59.165,59.095,59.122,506,29915.78,6,59.165,59.081,59.118,6642,392659.75,59,59.165,59.115,59.155,59.115,-0.017384656295705347,-0.01751645283520566,atvi,20200131
2020-01-31,10:32,10:32 AM,59.15,59.11,59.136,1000,59136.0,10,59.16,59.106,59.129,9968,589400.534,68,59.145,59.15,59.12,59.145,-0.017151974471479797,-0.017333643555141914,atvi,20200131
2020-01-31,10:33,10:33 AM,59.165,59.125,59.143,1200,70972.0,12,59.17,59.101,59.139,10021,592627.577,86,59.145,59.125,59.147,59.13,-0.017035633559367082,-0.01716745330053836,atvi,20200131
2020-01-31,10:34,10:34 AM,59.15,59.075,59.113,504,29792.8,6,59.153,59.06,59.117,9277,548428.0371,47,59.15,59.075,59.15,59.06,-0.017534237468421747,-0.017533071860666088,atvi,20200131
2020-01-31,10:35,10:35 AM,59.045,59.025,59.034,404,23849.62,5,59.05,59.015,59.032,10969,647518.22,71,59.045,59.025,59.05,59.03,-0.01884722776226566,-0.018945689024795598,atvi,20200131
2020-01-31,10:36,10:36 AM,59.055,59.02,59.036,806,47582.83,9,59.06,59.02,59.036,5396,318560.5126,46,59.02,59.04,59.02,59.04,-0.018813987501661977,-0.018879212922954126,atvi,20200131
2020-01-31,10:37,10:37 AM,59.035,59.02,59.026,500,29513.0,5,59.04,59.01,59.023,4681,276285.21,39,59.035,59.02,59.04,59.015,-0.01898018880468016,-0.019095260253938606,atvi,20200131
2020-01-31,10:38,10:38 AM,59.035,58.995,59.016,409,24137.375,8,59.035,58.99,59.01,7305,431068.838,62,59.035,59.03,59.02,59.03,-0.01914639010769846,-0.019311307584923203,atvi,20200131
2020-01-31,10:39,10:39 AM,59.065,59.04,59.058,600,35435.0,6,59.075,59.022,59.054,9708,573298.14,53,59.04,59.06,59.03,59.06,-0.01844834463502193,-0.01858007046466787,atvi,20200131
2020-01-31,10:40,10:40 AM,59.03,59.015,59.018,207,12216.65,4,59.06,59.0,59.021,4336,255913.9275,40,59.03,59.02,59.055,59.017,-0.01911314984709478,-0.019128498304859343,atvi,20200131
2020-01-31,10:41,10:41 AM,59.095,59.02,59.057,1306,77129.04,9,59.12,59.015,59.058,20099,1187010.89,145,59.02,59.09,59.02,59.11,-0.01846496476532371,-0.01851359436282652,atvi,20200131
2020-01-31,10:42,10:42 AM,59.175,59.09,59.139,2864,169372.82,14,59.177,59.087,59.126,20433,1208118.372,132,59.105,59.17,59.105,59.17,-0.01710211408057433,-0.01738350063152296,atvi,20200131
2020-01-31,10:43,10:43 AM,59.25,59.175,59.226,4749,281263.79,17,59.26,59.175,59.227,42281,2504184.012,242,59.175,59.235,59.175,59.25,-0.01565616274431592,-0.015704979060027924,atvi,20200131
2020-01-31,10:44,10:44 AM,59.24,59.24,59.24,100,5924.0,1,59.26,59.195,59.241,21779,1290219.133,147,59.24,59.24,59.25,59.195,-0.015423480920090368,-0.015472312703583018,atvi,20200131
2020-01-31,10:45,10:45 AM,59.23,59.205,59.211,1406,83251.35,9,59.245,59.2,59.214,27917,1653090.805,144,59.215,59.21,59.2,59.205,-0.01590546469884325,-0.015921026391012404,atvi,20200131
2020-01-31,10:46,10:46 AM,59.225,59.205,59.209,900,53288.5,9,59.23,59.2,59.213,12864,761712.665,62,59.205,59.225,59.205,59.22,-0.01593870495944682,-0.015937645416472714,atvi,20200131
2020-01-31,10:47,10:47 AM,59.27,59.23,59.255,308,18250.42,5,59.29,59.23,59.27,5733,339793.22,40,59.23,59.27,59.23,59.27,-0.015174178965563036,-0.014990360965232898,atvi,20200131
2020-01-31,10:48,10:48 AM,59.305,59.27,59.285,400,23714.0,4,59.31,59.255,59.282,8740,518129.3764,66,59.305,59.27,59.255,59.28,-0.014675575056508487,-0.014790932659708845,atvi,20200131
2020-01-31,10:49,10:49 AM,59.31,59.285,59.297,200,11859.5,2,59.32,59.27,59.288,7049,417920.6875,60,59.285,59.31,59.283,59.31,-0.01447613349288662,-0.01469121850694676,atvi,20200131
2020-01-31,10:50,10:50 AM,59.3,59.215,59.255,355,21035.44,5,59.31,59.2,59.27,10427,618005.2434,70,59.3,59.215,59.31,59.205,-0.015174178965563036,-0.014990360965232898,atvi,20200131
2020-01-31,10:51,10:51 AM,59.18,59.165,59.167,600,35500.5,2,59.21,59.16,59.186,11762,696148.53,75,59.165,59.18,59.21,59.18,-0.01663675043212335,-0.0163863591039021,atvi,20200131
2020-01-31,10:52,10:52 AM,59.17,59.14,59.155,3395,200831.85,13,59.185,59.13,59.156,12331,729451.939,77,59.165,59.14,59.18,59.14,-0.016836191995745216,-0.01688492986771253,atvi,20200131
2020-01-31,10:53,10:53 AM,59.09,59.085,59.088,300,17726.5,3,59.14,59.06,59.089,5851,345731.305,47,59.09,59.09,59.14,59.07,-0.017949740725967264,-0.017998404573555782,atvi,20200131
2020-01-31,10:54,10:54 AM,59.13,59.095,59.116,700,41381.5,3,59.14,59.075,59.108,6490,383612.15,54,59.095,59.13,59.075,59.13,-0.01748437707751628,-0.017682643089809217,atvi,20200131
2020-01-31,10:55,10:55 AM,59.125,59.1,59.111,400,23644.5,4,59.13,59.1,59.111,9352,552811.02,67,59.125,59.105,59.13,59.105,-0.017567477729025432,-0.017632786013428173,atvi,20200131
2020-01-31,10:56,10:56 AM,59.075,59.075,59.075,100,5907.5,1,59.105,59.05,59.074,5478,323608.258,41,59.075,59.075,59.105,59.07,-0.018165802419890912,-0.018247689955460996,atvi,20200131
2020-01-31,10:57,10:57 AM,59.13,59.095,59.116,1700,100498.0,9,59.13,59.075,59.101,11582,684510.3704,72,59.095,59.1,59.075,59.1,-0.01748437707751628,-0.01779897626803161,atvi,20200131
2020-01-31,10:58,10:58 AM,59.105,59.085,59.095,200,11819.0,2,59.12,59.08,59.1,5679,335630.595,50,59.105,59.085,59.11,59.12,-0.017833399813854546,-0.01781559529349192,atvi,20200131
2020-01-31,10:59,10:59 AM,59.11,59.095,59.099,1045,61758.775,11,59.14,59.095,59.117,106080,6271086.3675,53,59.11,59.095,59.13,59.11,-0.017766919292647298,-0.017533071860666088,atvi,20200131
2020-01-31,11:00,11 AM,59.215,59.195,59.208,1212,71760.52,5,59.23,59.13,59.201,11435,676963.94,78,59.215,59.195,59.13,59.18,-0.015955325089748718,-0.016137073721996884,atvi,20200131
2020-01-31,11:01,11:01 AM,59.15,59.1,59.143,700,41400.0,6,59.175,59.084,59.136,13322,787810.9646,84,59.15,59.1,59.17,59.084,-0.017035633559367082,-0.0172173103769194,atvi,20200131
2020-01-31,11:02,11:02 AM,59.11,59.06,59.085,200,11817.0,2,59.12,59.06,59.08,5600,330846.5,47,59.06,59.11,59.085,59.12,-0.01799960111687273,-0.01814797580269891,atvi,20200131
2020-01-31,11:03,11:03 AM,,,,0,0.0,0,59.155,59.11,59.13,4720,279092.0,35,,,59.11,59.149,,-0.01731702452968149,atvi,20200131
2020-01-31,11:04,11:04 AM,59.17,59.155,59.166,701,41475.655,4,59.18,59.14,59.166,3800,224831.14,25,59.155,59.165,59.14,59.16,-0.01665337056242525,-0.01671873961310909,atvi,20200131
2020-01-31,11:05,11:05 AM,59.1,59.085,59.092,300,17727.5,3,59.165,59.08,59.113,8658,511798.72,65,59.09,59.085,59.16,59.08,-0.017883260204760013,-0.01759954796250744,atvi,20200131
2020-01-31,11:06,11:06 AM,59.095,59.075,59.088,377,22276.315,4,59.1,59.01,59.069,12190,720047.99,85,59.095,59.075,59.071,59.01,-0.017949740725967264,-0.018330785082762657,atvi,20200131
2020-01-31,11:07,11:07 AM,59.11,59.03,59.054,2234,131926.69,13,59.12,59.015,59.061,10696,631713.16,71,59.03,59.105,59.02,59.1,-0.018514825156229178,-0.018463737286445476,atvi,20200131
2020-01-31,11:08,11:08 AM,59.085,59.04,59.068,400,23627.0,4,59.121,59.04,59.075,7663,452689.5,54,59.085,59.04,59.11,59.07,-0.018282143332003748,-0.018231070930000568,atvi,20200131
2020-01-31,11:09,11:09 AM,59.075,59.045,59.06,600,35436.0,5,59.09,59.04,59.066,4283,252977.611,41,59.065,59.045,59.067,59.045,-0.018415104374418245,-0.018380642159143697,atvi,20200131
2020-01-31,11:10,11:10 AM,59.085,59.025,59.055,200,11811.0,2,59.085,59.02,59.042,5795,342148.94,48,59.025,59.085,59.04,59.085,-0.018498205025927396,-0.01877949877019204,atvi,20200131
2020-01-31,11:11,11:11 AM,59.12,59.045,59.064,1718,101471.53,9,59.15,59.03,59.093,10997,649848.98,90,59.11,59.045,59.09,59.03,-0.018348623853210996,-0.017931928471714313,atvi,20200131
2020-01-31,11:12,11:12 AM,59.045,59.015,59.028,1200,70834.0,5,59.055,59.005,59.029,17154,1012575.2291,77,59.015,59.045,59.03,59.035,-0.018946948544076594,-0.01899554610117652,atvi,20200131
2020-01-31,11:13,11:13 AM,59.03,59.03,59.03,300,17709.0,3,59.045,59.02,59.034,5700,336495.88,47,59.03,59.03,59.03,59.024,-0.018913708283472913,-0.01891245097387486,atvi,20200131
2020-01-31,11:14,11:14 AM,59.02,58.97,58.998,507,29911.79,6,59.025,58.964,59.004,12853,758373.9194,67,59.015,58.97,59.02,58.985,-0.01944555245313126,-0.019411021737685292,atvi,20200131
2020-01-31,11:15,11:15 AM,58.975,58.84,58.914,1351,79592.85,10,58.98,58.82,58.915,17818,1049756.3689,114,58.97,58.84,58.98,58.83,-0.020841643398484207,-0.020890115003656153,atvi,20200131
2020-01-31,11:16,11:16 AM,58.85,58.85,58.85,200,11770.0,2,58.95,58.8,58.85,16715,983679.565,131,58.85,58.85,58.83,58.95,-0.02190533173780079,-0.02197035165857867,atvi,20200131
2020-01-31,11:17,11:17 AM,59.005,58.945,58.98,400,23592.0,4,59.01,58.94,58.988,10647,628041.3496,65,58.945,59.005,58.94,59.005,-0.019744714798564062,-0.019676926145050812,atvi,20200131
2020-01-31,11:18,11:18 AM,59.04,59.005,59.014,400,23605.5,4,59.045,59.005,59.025,10120,597328.02,72,59.005,59.04,59.005,59.04,-0.019179630368302027,-0.01906202220301799,atvi,20200131
2020-01-31,11:19,11:19 AM,59.13,59.09,59.1,401,23699.1,5,59.15,59.05,59.121,12541,741438.592,95,59.1,59.13,59.06,59.15,-0.017750299162345398,-0.017466595758824616,atvi,20200131
2020-01-31,11:20,11:20 AM,59.22,59.15,59.182,3154,186660.035,14,59.23,59.145,59.182,24915,1474514.285,174,59.15,59.175,59.15,59.175,-0.016387448477596017,-0.016452835205743453,atvi,20200131
2020-01-31,11:21,11:21 AM,59.195,59.165,59.174,2300,136100.5,4,59.22,59.15,59.176,14852,878880.14,84,59.175,59.195,59.17,59.21,-0.016520409520010635,-0.016552549358505537,atvi,20200131
2020-01-31,11:22,11:22 AM,59.155,59.12,59.146,800,47316.5,5,59.2,59.11,59.158,12393,733151.31,76,59.155,59.12,59.2,59.115,-0.016985773168461615,-0.016851691816791796,atvi,20200131
2020-01-31,11:23,11:23 AM,,,,0,0.0,0,59.125,59.04,59.081,6880,406478.54,57,,,59.12,59.04,,-0.018131356777238483,atvi,20200131
2020-01-31,11:24,11:24 AM,59.03,59.03,59.03,4,236.12,1,59.04,59.01,59.03,5764,340250.63,36,59.03,59.03,59.035,59.01,-0.018913708283472913,-0.018978927075716214,atvi,20200131
2020-01-31,11:25,11:25 AM,,,,0,0.0,0,59.02,58.96,58.989,6189,365081.885,50,,,59.0,59.01,,-0.019660307119590506,atvi,20200131
2020-01-31,11:26,11:26 AM,,,,0,0.0,0,59.04,58.96,58.991,7654,451514.0797,47,,,59.005,59.03,,-0.01962706906866977,atvi,20200131
2020-01-31,11:27,11:27 AM,59.035,59.035,59.035,216,12751.56,3,59.055,59.02,59.042,3450,203694.25,29,59.035,59.035,59.02,59.04,-0.01883060763196388,-0.01877949877019204,atvi,20200131
2020-01-31,11:28,11:28 AM,,,,0,0.0,0,59.045,58.95,58.98,12792,754474.35,87,,,59.04,58.97,,-0.019809878348733635,atvi,20200131
2020-01-31,11:29,11:29 AM,59.0,59.0,59.0,1,59.0,1,59.04,58.97,59.001,13879,818874.5799,94,59.0,59.0,58.97,59.0,-0.019412312192527578,-0.019460878814066333,atvi,20200131
2020-01-31,11:30,11:30 AM,,,,0,0.0,0,59.02,59.0,59.009,3335,196795.68,29,,,59.01,59.005,,-0.019327926610383513,atvi,20200131
2020-01-31,11:31,11:31 AM,59.04,59.035,59.038,200,11807.5,2,59.04,58.98,59.01,12800,755323.175,87,59.035,59.04,59.01,58.985,-0.018780747241058413,-0.019311307584923203,atvi,20200131
2020-01-31,11:32,11:32 AM,,,,0,0.0,0,59.015,58.96,58.989,3980,234776.785,34,,,58.98,59.015,,-0.019660307119590506,atvi,20200131
2020-01-31,11:33,11:33 AM,59.045,59.045,59.045,100,5904.5,1,59.11,59.02,59.043,5248,309857.9,47,59.045,59.045,59.02,59.11,-0.018664406328945577,-0.018762879744731734,atvi,20200131
2020-01-31,11:34,11:34 AM,59.095,59.095,59.095,100,5909.5,1,59.11,59.06,59.09,9955,588238.31,68,59.095,59.095,59.1,59.085,-0.017833399813854546,-0.017981785548095354,atvi,20200131
2020-01-31,11:35,11:35 AM,59.14,59.14,59.14,100,5914.0,1,59.155,59.095,59.129,3723,220138.0258,32,59.14,59.14,59.095,59.13,-0.01708549395027255,-0.017333643555141914,atvi,20200131
2020-01-31,11:36,11:36 AM,,,,0,0.0,0,59.13,59.1,59.116,4701,277902.9701,42,,,59.115,59.1,,-0.017549690886126394,atvi,20200131
2020-01-31,11:37,11:37 AM,59.06,59.035,59.045,300,17713.5,3,59.09,59.02,59.064,5816,343516.62,49,59.06,59.035,59.09,59.03,-0.018664406328945577,-0.01841388021006443,atvi,20200131
2020-01-31,11:38,11:38 AM,58.975,58.955,58.958,700,41270.5,3,59.03,58.93,58.97,13015,767494.055,82,58.975,58.955,59.03,58.95,-0.02011035766520411,-0.01997606860333707,atvi,20200131
2020-01-31,11:39,11:39 AM,58.965,58.955,58.96,200,11792.0,2,58.995,58.92,58.959,14725,868179.03,86,58.955,58.965,58.955,58.995,-0.020077117404600425,-0.020158877883400816,atvi,20200131
2020-01-31,11:40,11:40 AM,59.02,59.0,59.001,108,6372.16,2,59.04,58.985,59.015,10232,603839.2916,83,59.02,59.0,58.99,59.009,-0.019395692062225793,-0.01922821245762143,atvi,20200131
2020-01-31,11:41,11:41 AM,58.98,58.955,58.967,300,17690.0,3,59.0,58.951,58.98,9389,553759.97,67,58.98,58.955,59.0,58.955,-0.01996077649248771,-0.019809878348733635,atvi,20200131
2020-01-31,11:42,11:42 AM,59.0,58.94,58.981,400,23592.5,4,59.01,58.93,58.977,21723,1281163.1117,127,58.94,59.0,58.955,58.995,-0.01972809466826216,-0.019859735425114676,atvi,20200131
2020-01-31,11:43,11:43 AM,59.055,58.99,59.034,975,57558.375,6,59.06,58.99,59.02,15023,886656.6,113,58.99,59.055,58.99,59.055,-0.01884722776226566,-0.01914511733031965,atvi,20200131
2020-01-31,11:44,11:44 AM,59.07,59.05,59.057,300,17717.0,3,59.085,59.04,59.059,8088,477667.78,65,59.05,59.07,59.058,59.085,-0.01846496476532371,-0.01849697533736621,atvi,20200131
2020-01-31,11:45,11:45 AM,59.175,59.105,59.145,400,23658.0,4,59.175,59.08,59.134,7196,425531.7925,64,59.105,59.155,59.08,59.155,-0.017002393298763397,-0.017250548427840136,atvi,20200131
2020-01-31,11:46,11:46 AM,,,,0,0.0,0,59.215,59.13,59.164,7127,421664.895,57,,,59.16,59.19,,-0.016751977664029707,atvi,20200131
2020-01-31,11:47,11:47 AM,,,,0,0.0,0,59.25,59.21,59.238,9569,566850.135,69,,,59.21,59.25,,-0.015522169779964063,atvi,20200131
2020-01-31,11:48,11:48 AM,59.22,59.19,59.206,400,23682.5,4,59.255,59.19,59.219,9978,590884.685,52,59.22,59.195,59.255,59.195,-0.015988565350352285,-0.01583793126371063,atvi,20200131
2020-01-31,11:49,11:49 AM,59.21,59.19,59.203,800,47362.5,7,59.21,59.15,59.179,19074,1128773.86,87,59.21,59.19,59.195,59.15,-0.01603842574125775,-0.016502692282124493,atvi,20200131
2020-01-31,11:50,11:50 AM,59.155,59.155,59.155,103,6092.965,2,59.155,59.132,59.145,5400,319385.78,48,59.155,59.155,59.15,59.15,-0.016836191995745216,-0.017067739147776276,atvi,20200131
2020-01-31,11:51,11:51 AM,,,,0,0.0,0,59.14,59.125,59.133,5792,342496.15,50,,,59.14,59.13,,-0.017267167453300446,atvi,20200131
2020-01-31,11:52,11:52 AM,59.125,59.115,59.117,459,27134.785,3,59.125,59.105,59.11,57056,3372607.061,65,59.125,59.115,59.125,59.115,-0.0174677569472145,-0.01764940503888848,atvi,20200131
2020-01-31,11:53,11:53 AM,59.125,59.1,59.12,203,12001.3,3,59.13,59.1,59.115,20457,1209316.18,147,59.1,59.115,59.115,59.12,-0.017417896556309032,-0.017566309911586704,atvi,20200131
2020-01-31,11:54,11:54 AM,59.155,59.125,59.14,500,29570.0,5,59.165,59.12,59.138,16619,982819.6529,94,59.125,59.155,59.125,59.165,-0.01708549395027255,-0.017184072325998785,atvi,20200131
2020-01-31,11:55,11:55 AM,59.165,59.14,59.159,400,23663.5,3,59.17,59.125,59.156,12488,738737.2725,83,59.165,59.14,59.165,59.125,-0.016769711474537968,-0.01688492986771253,atvi,20200131
2020-01-31,11:56,11:56 AM,59.125,59.115,59.12,602,35590.23,5,59.125,59.105,59.12,25287,1494963.235,102,59.125,59.115,59.12,59.105,-0.017417896556309032,-0.017483214784285044,atvi,20200131
2020-01-31,11:57,11:57 AM,59.14,59.1,59.104,1703,100653.92,6,59.2,59.1,59.127,13713,810815.075,90,59.105,59.14,59.105,59.195,-0.017683818641138146,-0.01736688160606253,atvi,20200131
2020-01-31,11:58,11:58 AM,59.21,59.205,59.205,101,5979.71,2,59.216,59.195,59.206,11290,668431.301,70,59.205,59.21,59.195,59.195,-0.016005185480654185,-0.01605397859469511,atvi,20200131
2020-01-31,11:59,11:59 AM,,,,0,0.0,0,59.215,59.19,59.204,3222,190754.63,24,,,59.2,59.19,,-0.016087216645615843,atvi,20200131
2020-01-31,12:00,12 PM,59.265,59.19,59.24,2900,171796.5,6,59.27,59.185,59.236,23648,1400826.3,163,59.195,59.245,59.195,59.27,-0.015423480920090368,-0.015555407830884797,atvi,20200131
2020-01-31,12:01,12:01 PM,59.27,59.27,59.27,300,17781.0,1,59.27,59.23,59.254,5733,339703.7632,40,59.27,59.27,59.27,59.26,-0.014924877011035703,-0.015256265372598539,atvi,20200131
2020-01-31,12:02,12:02 PM,,,,0,0.0,0,59.285,59.26,59.268,4866,288396.195,35,,,59.26,59.265,,-0.015023599016153633,atvi,20200131
2020-01-31,12:03,12:03 PM,59.265,59.235,59.243,700,41470.0,3,59.265,59.235,59.245,9187,544288.84,60,59.265,59.235,59.265,59.235,-0.015373620529184902,-0.015405836601741668,atvi,20200131
2020-01-31,12:04,12:04 PM,59.215,59.21,59.21,103,6098.645,3,59.24,59.18,59.207,8975,531381.3342,67,59.215,59.21,59.24,59.185,-0.015922084829145033,-0.0160373595692348,atvi,20200131
2020-01-31,12:05,12:05 PM,59.17,59.135,59.156,400,23662.5,4,59.18,59.135,59.154,5415,320321.7775,44,59.165,59.135,59.18,59.14,-0.016819571865443434,-0.016918167918633147,atvi,20200131
2020-01-31,12:06,12:06 PM,,,,0,0.0,0,59.15,59.11,59.135,5430,321103.47,42,,,59.14,59.115,,-0.01723392940237983,atvi,20200131
2020-01-31,12:07,12:07 PM,59.115,59.115,59.115,100,5911.5,1,59.12,59.11,59.115,2558,151217.035,22,59.115,59.115,59.12,59.11,-0.017500997207818066,-0.017566309911586704,atvi,20200131
2020-01-31,12:08,12:08 PM,59.125,59.115,59.119,228,13479.22,2,59.13,59.11,59.116,22641,1338447.099,42,59.115,59.125,59.11,59.125,-0.017434516686610814,-0.017549690886126394,atvi,20200131
2020-01-31,12:09,12:09 PM,59.125,59.12,59.123,400,23649.0,4,59.13,59.115,59.123,9029,533823.655,51,59.125,59.125,59.125,59.13,-0.017368036165403566,-0.017433357707904,atvi,20200131
2020-01-31,12:10,12:10 PM,59.165,59.135,59.15,203,12007.495,2,59.175,59.13,59.158,9694,573482.96,44,59.135,59.165,59.13,59.16,-0.016919292647254367,-0.016851691816791796,atvi,20200131
2020-01-31,12:11,12:11 PM,,,,0,0.0,0,59.15,59.11,59.13,2712,160360.335,20,,,59.15,59.115,,-0.01731702452968149,atvi,20200131
2020-01-31,12:12,12:12 PM,59.155,59.125,59.154,217,12836.475,4,59.16,59.115,59.143,7969,471310.88,58,59.125,59.15,59.12,59.14,-0.016852812126046997,-0.01710097719869701,atvi,20200131
2020-01-31,12:13,12:13 PM,59.13,59.08,59.097,300,17729.0,3,59.137,59.065,59.105,5515,325967.275,41,59.13,59.08,59.13,59.07,-0.017800159553250865,-0.017732500166190258,atvi,20200131
2020-01-31,12:14,12:14 PM,,,,0,0.0,0,59.075,59.05,59.061,6953,410650.66,45,,,59.06,59.055,,-0.018463737286445476,atvi,20200131
2020-01-31,12:15,12:15 PM,59.065,59.055,59.063,602,35556.11,4,59.075,59.045,59.061,8785,518853.42,54,59.055,59.065,59.055,59.045,-0.018365243983512778,-0.018463737286445476,atvi,20200131
2020-01-31,12:16,12:16 PM,59.055,59.055,59.055,600,35433.0,4,59.055,59.035,59.048,3155,186295.475,23,59.055,59.055,59.04,59.045,-0.018498205025927396,-0.018679784617429956,atvi,20200131
2020-01-31,12:17,12:17 PM,59.045,59.045,59.045,100,5904.5,1,59.06,59.025,59.041,4684,276546.53,40,59.045,59.045,59.06,59.045,-0.018664406328945577,-0.01879611779565247,atvi,20200131
2020-01-31,12:18,12:18 PM,59.12,59.12,59.12,100,5912.0,1,59.129,59.045,59.08,7914,467562.991,56,59.12,59.12,59.045,59.129,-0.017417896556309032,-0.01814797580269891,atvi,20200131
2020-01-31,12:19,12:19 PM,59.125,59.125,59.125,300,17737.5,3,59.125,59.105,59.12,8541,504941.04,40,59.125,59.125,59.12,59.125,-0.01733479590479988,-0.017483214784285044,atvi,20200131
2020-01-31,12:20,12:20 PM,,,,0,0.0,0,59.165,59.125,59.152,5399,319361.695,44,,,59.125,59.165,,-0.01695140596955388,atvi,20200131
2020-01-31,12:21,12:21 PM,,,,0,0.0,0,59.17,59.15,59.16,2685,158846.025,21,,,59.16,59.155,,-0.016818453765871176,atvi,20200131
2020-01-31,12:22,12:22 PM,59.135,59.135,59.135,3,177.405,1,59.16,59.1,59.125,9534,563700.768,76,59.135,59.135,59.16,59.1,-0.0171685946017817,-0.017400119656983265,atvi,20200131
2020-01-31,12:23,12:23 PM,59.105,59.095,59.098,300,17729.5,3,59.12,59.09,59.1,7219,426645.515,54,59.105,59.095,59.105,59.11,-0.01778353942294908,-0.01781559529349192,atvi,20200131
2020-01-31,12:24,12:24 PM,59.125,59.125,59.125,100,5912.5,1,59.135,59.12,59.123,3728,220412.075,30,59.125,59.125,59.13,59.12,-0.01733479590479988,-0.017433357707904,atvi,20200131
2020-01-31,12:25,12:25 PM,59.08,59.08,59.08,1,59.08,1,59.12,59.07,59.098,4479,264700.115,31,59.08,59.08,59.12,59.08,-0.018082701768381882,-0.017848833344412653,atvi,20200131
2020-01-31,12:26,12:26 PM,59.085,59.085,59.085,404,23870.34,3,59.12,59.055,59.086,9854,582236.738,73,59.085,59.085,59.07,59.08,-0.01799960111687273,-0.018048261649936823,atvi,20200131
2020-01-31,12:27,12:27 PM,59.075,59.075,59.075,500,29537.5,1,59.105,59.07,59.084,3100,183161.5,26,59.075,59.075,59.08,59.105,-0.018165802419890912,-0.01808149970085744,atvi,20200131
2020-01-31,12:28,12:28 PM,59.125,59.115,59.12,396,23411.54,4,59.145,59.105,59.125,4687,277120.755,36,59.115,59.125,59.105,59.145,-0.017417896556309032,-0.017400119656983265,atvi,20200131
2020-01-31,12:29,12:29 PM,,,,0,0.0,0,59.21,59.15,59.192,5695,337100.4299,43,,,59.15,59.21,,-0.016286644951140013,atvi,20200131
2020-01-31,12:30,12:30 PM,59.205,59.175,59.196,400,23678.5,4,59.215,59.175,59.198,8853,524081.52,73,59.205,59.2,59.21,59.19,-0.016154766653370584,-0.01618693079837793,atvi,20200131
2020-01-31,12:31,12:31 PM,59.25,59.25,59.25,100,5925.0,1,59.25,59.2,59.222,3585,212309.55,30,59.25,59.25,59.209,59.25,-0.015257279617072185,-0.015788074187329585,atvi,20200131
2020-01-31,12:32,12:32 PM,59.255,59.245,59.248,400,23699.0,4,59.26,59.24,59.25,5326,315566.066,41,59.255,59.245,59.25,59.24,-0.01529051987767587,-0.015322741474439891,atvi,20200131
2020-01-31,12:33,12:33 PM,59.255,59.245,59.252,400,23701.0,4,59.255,59.23,59.243,3625,214757.155,32,59.245,59.255,59.24,59.233,-0.015224039356468502,-0.015439074652662284,atvi,20200131
2020-01-31,12:34,12:34 PM,,,,0,0.0,0,59.255,59.19,59.236,19811,1173533.7842,68,,,59.235,59.19,,-0.015555407830884797,atvi,20200131
2020-01-31,12:35,12:35 PM,59.14,59.14,59.14,100,5914.0,1,59.19,59.05,59.117,10718,633618.03,92,59.14,59.14,59.18,59.06,-0.01708549395027255,-0.017533071860666088,atvi,20200131
2020-01-31,12:36,12:36 PM,59.08,59.08,59.08,100,5908.0,1,59.095,59.05,59.073,9290,548787.315,79,59.08,59.08,59.05,59.08,-0.018082701768381882,-0.018264308980921302,atvi,20200131
2020-01-31,12:37,12:37 PM,59.085,59.085,59.085,1700,100444.5,1,59.11,59.05,59.082,5490,324360.6251,34,59.085,59.085,59.07,59.085,-0.01799960111687273,-0.018114737751778177,atvi,20200131
2020-01-31,12:38,12:38 PM,59.1,59.1,59.1,100,5910.0,1,59.1,59.08,59.093,7545,445859.565,58,59.1,59.1,59.09,59.08,-0.017750299162345398,-0.017931928471714313,atvi,20200131
2020-01-31,12:39,12:39 PM,59.025,59.025,59.025,824,48636.6,4,59.08,59.01,59.03,7372,435167.48,58,59.025,59.025,59.08,59.02,-0.01899680893498206,-0.018978927075716214,atvi,20200131
2020-01-31,12:40,12:40 PM,59.015,58.995,59.009,500,29504.5,5,59.04,58.995,59.007,25821,1523627.51,137,59.015,59.015,59.02,59.04,-0.01926273101981118,-0.019361164661304248,atvi,20200131
2020-01-31,12:41,12:41 PM,,,,0,0.0,0,59.04,58.97,58.984,48931,2886172.535,172,,,59.035,58.98,,-0.019743402246892163,atvi,20200131
2020-01-31,12:42,12:42 PM,59.115,59.005,59.051,1700,100386.5,11,59.115,58.975,59.04,43313,2557206.315,237,59.005,59.115,58.98,59.08,-0.018564685547134644,-0.018812736821112775,atvi,20200131
2020-01-31,12:43,12:43 PM,59.08,59.045,59.059,400,23623.5,3,59.13,59.02,59.067,11684,690134.621,85,59.055,59.08,59.08,59.12,-0.018431724504720148,-0.01836402313368339,atvi,20200131
2020-01-31,12:44,12:44 PM,59.17,59.17,59.17,100,5917.0,1,59.23,59.11,59.171,14113,835082.02,110,59.17,59.17,59.12,59.22,-0.016586890041217883,-0.016635644485807316,atvi,20200131
2020-01-31,12:45,12:45 PM,,,,0,0.0,0,59.22,59.17,59.194,5835,345397.135,42,,,59.22,59.22,,-0.01625340690021928,atvi,20200131
2020-01-31,12:46,12:46 PM,59.205,59.205,59.205,300,17761.5,2,59.22,59.18,59.196,8693,514591.2,61,59.205,59.205,59.22,59.21,-0.016005185480654185,-0.016220168849298663,atvi,20200131
2020-01-31,12:47,12:47 PM,59.205,59.205,59.205,100,5920.5,1,59.22,59.2,59.214,5100,301988.9,36,59.205,59.205,59.2,59.22,-0.016005185480654185,-0.015921026391012404,atvi,20200131
2020-01-31,12:48,12:48 PM,,,,0,0.0,0,59.21,59.16,59.185,6955,411632.8,66,,,59.21,59.171,,-0.01640297812936241,atvi,20200131
2020-01-31,12:49,12:49 PM,59.17,59.165,59.168,300,17750.5,2,59.17,59.15,59.164,4980,294639.13,34,59.17,59.165,59.17,59.15,-0.016620130301821568,-0.016751977664029707,atvi,20200131
2020-01-31,12:50,12:50 PM,59.115,59.115,59.115,100,5911.5,1,59.15,59.05,59.106,6503,384369.605,54,59.115,59.115,59.15,59.05,-0.017500997207818066,-0.017715881140729833,atvi,20200131
2020-01-31,12:51,12:51 PM,59.05,59.05,59.05,3,177.15,1,59.07,59.04,59.053,6072,358569.39,42,59.05,59.05,59.055,59.06,-0.018581305677436547,-0.018596689490128295,atvi,20200131
2020-01-31,12:52,12:52 PM,59.055,59.055,59.055,8,472.44,1,59.07,59.05,59.062,5033,297259.29,44,59.055,59.055,59.07,59.05,-0.018498205025927396,-0.018447118260985166,atvi,20200131
2020-01-31,12:53,12:53 PM,,,,0,0.0,0,59.063,59.04,59.051,3681,217365.58,27,,,59.048,59.06,,-0.01862992754104891,atvi,20200131
2020-01-31,12:54,12:54 PM,59.17,59.145,59.162,230,13607.35,3,59.22,59.05,59.145,17936,1060824.38,125,59.145,59.17,59.05,59.15,-0.0167198510836325,-0.017067739147776276,atvi,20200131
2020-01-31,12:55,12:55 PM,59.165,59.165,59.165,400,23666.0,2,59.18,59.15,59.167,5906,349441.525,42,59.165,59.165,59.15,59.17,-0.016669990692727035,-0.016702120587648667,atvi,20200131
2020-01-31,12:56,12:56 PM,59.16,59.16,59.16,180,10648.8,2,59.17,59.13,59.15,5843,345613.5,47,59.16,59.16,59.16,59.155,-0.016753091344236182,-0.016984644020474615,atvi,20200131
2020-01-31,12:57,12:57 PM,,,,0,0.0,0,59.19,59.16,59.173,1895,112133.415,16,,,59.16,59.19,,-0.016602406434886578,atvi,20200131
2020-01-31,12:58,12:58 PM,59.165,59.165,59.165,400,23666.0,2,59.185,59.15,59.165,4309,254942.68,33,59.165,59.165,59.185,59.16,-0.016669990692727035,-0.0167353586385694,atvi,20200131
2020-01-31,12:59,12:59 PM,59.145,59.135,59.14,300,17742.0,3,59.16,59.135,59.148,4509,266696.35,30,59.145,59.135,59.16,59.16,-0.01708549395027255,-0.01701788207139523,atvi,20200131
2020-01-31,13:00,1 PM,59.185,59.185,59.185,27,1597.995,1,59.19,59.15,59.168,9192,543874.09,73,59.185,59.185,59.17,59.17,-0.01633758808669055,-0.016685501562188357,atvi,20200131
2020-01-31,13:01,1:01 PM,59.245,59.245,59.245,10,592.45,1,59.265,59.19,59.235,4415,261522.49,31,59.245,59.245,59.19,59.26,-0.015340380268581337,-0.015572026856345105,atvi,20200131
2020-01-31,13:02,1:02 PM,59.245,59.245,59.245,101,5983.745,1,59.285,59.23,59.251,5353,317173.27,45,59.245,59.245,59.253,59.27,-0.015340380268581337,-0.015306122448979583,atvi,20200131
2020-01-31,13:03,1:03 PM,59.265,59.245,59.245,4400,260680.0,6,59.265,59.24,59.25,17428,1032616.375,81,59.265,59.245,59.265,59.25,-0.015340380268581337,-0.015322741474439891,atvi,20200131
2020-01-31,13:04,1:04 PM,59.185,59.185,59.185,100,5918.5,1,59.25,59.17,59.202,21311,1261651.52,90,59.185,59.185,59.25,59.185,-0.01633758808669055,-0.016120454696536578,atvi,20200131
2020-01-31,13:05,1:05 PM,59.175,59.16,59.169,398,23549.15,3,59.19,59.13,59.175,14702,869990.795,103,59.16,59.175,59.18,59.13,-0.016603510171519783,-0.016569168383965962,atvi,20200131
2020-01-31,13:06,1:06 PM,59.115,59.095,59.104,400,23641.5,3,59.125,59.08,59.109,8875,524596.8586,58,59.115,59.095,59.115,59.09,-0.017683818641138146,-0.01766602406434879,atvi,20200131
2020-01-31,13:07,1:07 PM,,,,0,0.0,0,59.105,59.06,59.076,13501,797585.957,74,,,59.08,59.1,,-0.01821445190454026,atvi,20200131
2020-01-31,13:08,1:08 PM,59.095,59.095,59.095,800,47276.0,3,59.11,59.095,59.101,7378,436047.14,42,59.095,59.095,59.096,59.11,-0.017833399813854546,-0.01779897626803161,atvi,20200131
2020-01-31,13:09,1:09 PM,59.09,59.09,59.09,15,886.35,1,59.1,59.07,59.087,5144,303941.86,39,59.09,59.09,59.1,59.09,-0.01791650046536358,-0.018031642624476398,atvi,20200131
2020-01-31,13:10,1:10 PM,59.115,59.11,59.112,400,23645.0,4,59.12,59.09,59.108,6099,360497.4,38,59.11,59.115,59.1,59.09,-0.017550857598723532,-0.017682643089809217,atvi,20200131
2020-01-31,13:11,1:11 PM,59.11,59.095,59.102,589,34811.345,9,59.11,59.09,59.101,4700,277773.5286,31,59.095,59.105,59.092,59.1,-0.01771705890174183,-0.01779897626803161,atvi,20200131
2020-01-31,13:12,1:12 PM,59.09,59.085,59.087,600,35452.5,5,59.108,59.079,59.089,6003,354708.9678,45,59.085,59.09,59.108,59.09,-0.017966360856269046,-0.017998404573555782,atvi,20200131
2020-01-31,13:13,1:13 PM,59.075,59.055,59.072,115,6793.325,2,59.085,59.05,59.07,11102,655794.175,82,59.075,59.055,59.085,59.065,-0.01821566281079638,-0.018314166057302347,atvi,20200131
2020-01-31,13:14,1:14 PM,59.065,59.065,59.065,1400,82691.0,2,59.08,59.05,59.063,9308,549754.13,66,59.065,59.065,59.065,59.05,-0.018332003722909215,-0.01843049923552474,atvi,20200131
2020-01-31,13:15,1:15 PM,59.025,59.01,59.021,700,41315.0,6,59.065,59.005,59.032,13552,799996.225,79,59.025,59.025,59.05,59.065,-0.019063289456189313,-0.018945689024795598,atvi,20200131
2020-01-31,13:16,1:16 PM,59.125,59.125,59.125,100,5912.5,1,59.14,59.075,59.098,2960,174929.935,27,59.125,59.125,59.075,59.14,-0.01733479590479988,-0.017848833344412653,atvi,20200131
2020-01-31,13:17,1:17 PM,,,,0,0.0,0,59.15,59.135,59.143,4982,294648.555,44,,,59.15,59.145,,-0.01710097719869701,atvi,20200131
2020-01-31,13:18,1:18 PM,59.155,59.135,59.145,200,11829.0,2,59.17,59.13,59.15,6970,412273.9,54,59.135,59.155,59.14,59.17,-0.017002393298763397,-0.016984644020474615,atvi,20200131
2020-01-31,13:19,1:19 PM,59.165,59.135,59.159,501,29638.65,3,59.165,59.135,59.151,8542,505270.623,62,59.165,59.15,59.165,59.155,-0.016769711474537968,-0.016968024995014187,atvi,20200131
2020-01-31,13:20,1:20 PM,59.125,59.125,59.125,100,5912.5,1,59.15,59.1,59.127,3998,236390.55,29,59.125,59.125,59.15,59.1,-0.01733479590479988,-0.01736688160606253,atvi,20200131
2020-01-31,13:21,1:21 PM,59.135,59.135,59.135,200,11827.0,2,59.169,59.1,59.14,21794,1288901.5355,140,59.135,59.135,59.1,59.158,-0.0171685946017817,-0.01715083427507805,atvi,20200131
2020-01-31,13:22,1:22 PM,59.14,59.105,59.135,900,53221.5,3,59.15,59.09,59.121,9322,551123.4275,66,59.14,59.105,59.15,59.09,-0.0171685946017817,-0.017466595758824616,atvi,20200131
2020-01-31,13:23,1:23 PM,59.09,59.075,59.079,9300,549439.0,17,59.1,59.05,59.077,244875,14466511.33,178,59.08,59.08,59.095,59.055,-0.018099321898683664,-0.018197832879079952,atvi,20200131
2020-01-31,13:24,1:24 PM,59.07,59.055,59.063,1200,70875.5,5,59.08,59.035,59.059,17413,1028387.3122,99,59.055,59.07,59.05,59.08,-0.018365243983512778,-0.01849697533736621,atvi,20200131
2020-01-31,13:25,1:25 PM,59.09,59.075,59.085,1701,100503.575,4,59.12,59.06,59.091,13207,780414.2299,67,59.085,59.09,59.085,59.104,-0.01799960111687273,-0.017965166522635048,atvi,20200131
2020-01-31,13:26,1:26 PM,59.065,59.065,59.065,200,11813.0,2,59.105,59.04,59.074,5928,350193.31,47,59.065,59.065,59.1,59.05,-0.018332003722909215,-0.018247689955460996,atvi,20200131
2020-01-31,13:27,1:27 PM,59.015,59.015,59.015,200,11803.0,2,59.05,59.005,59.016,8742,515917.1047,56,59.015,59.015,59.05,59.02,-0.019163010238000246,-0.01921159343216112,atvi,20200131
2020-01-31,13:28,1:28 PM,58.985,58.985,58.985,200,11797.0,2,59.01,58.985,58.997,8064,475750.21,52,58.985,58.985,59.01,59.01,-0.01966161414705491,-0.019527354915907683,atvi,20200131
2020-01-31,13:29,1:29 PM,59.01,59.01,59.01,100,5901.0,2,59.08,59.0,59.019,12219,721155.695,52,59.01,59.01,59.005,59.06,-0.019246110889509394,-0.019161736355780078,atvi,20200131
2020-01-31,13:30,1:30 PM,58.985,58.985,58.985,300,17695.5,1,59.06,58.98,59.01,3891,229607.393,29,58.985,58.985,59.06,58.98,-0.01966161414705491,-0.019311307584923203,atvi,20200131
2020-01-31,13:31,1:31 PM,58.955,58.955,58.955,100,5895.5,1,58.97,58.935,58.95,9451,557140.76,67,58.955,58.955,58.97,58.95,-0.020160218056109576,-0.020308449112543946,atvi,20200131
2020-01-31,13:32,1:32 PM,58.91,58.895,58.895,917,54006.97,4,58.93,58.885,58.901,8200,482986.5,62,58.91,58.895,58.93,58.895,-0.021157425874218788,-0.02112278136010094,atvi,20200131
2020-01-31,13:33,1:33 PM,58.925,58.895,58.91,600,35346.0,6,58.925,58.895,58.911,5277,310872.18,45,58.895,58.925,58.895,58.925,-0.020908123919691574,-0.020956591105497503,atvi,20200131
2020-01-31,13:34,1:34 PM,58.905,58.905,58.905,200,11781.0,2,58.925,58.9,58.911,5893,347164.595,50,58.905,58.905,58.925,58.925,-0.020991224571200607,-0.020956591105497503,atvi,20200131
2020-01-31,13:35,1:35 PM,58.895,58.89,58.892,200,11778.5,2,58.945,58.88,58.91,7229,425857.695,46,58.895,58.89,58.92,58.89,-0.021207286265124258,-0.020973210130957928,atvi,20200131
2020-01-31,13:36,1:36 PM,58.865,58.865,58.865,300,17659.5,3,58.885,58.86,58.87,4807,282986.115,39,58.865,58.865,58.885,58.86,-0.021656029783273457,-0.021637971149371795,atvi,20200131
2020-01-31,13:37,1:37 PM,58.905,58.86,58.873,800,47098.5,5,58.91,58.86,58.886,5807,341952.335,45,58.86,58.905,58.86,58.905,-0.021523068740858957,-0.021372066742006153,atvi,20200131
2020-01-31,13:38,1:38 PM,58.91,58.87,58.886,800,47108.5,5,58.91,58.85,58.878,13520,796032.7,83,58.91,58.87,58.9,58.86,-0.02130700704693519,-0.021505018945688976,atvi,20200131
2020-01-31,13:39,1:39 PM,58.91,58.91,58.91,100,5891.0,1,58.936,58.86,58.898,4873,287009.83,40,58.91,58.91,58.86,58.935,-0.020908123919691574,-0.021172638436481983,atvi,20200131
2020-01-31,13:40,1:40 PM,58.96,58.925,58.944,400,23577.5,3,58.965,58.925,58.95,16355,964122.815,85,58.925,58.945,58.93,58.96,-0.020343039489429542,-0.020308449112543946,atvi,20200131
2020-01-31,13:41,1:41 PM,58.945,58.94,58.943,200,11788.5,2,58.96,58.915,58.943,6500,383128.5,55,58.94,58.945,58.96,58.94,-0.020359659619731442,-0.02042478229076646,atvi,20200131
2020-01-31,13:42,1:42 PM,58.935,58.935,58.935,100,5893.5,1,58.96,58.9,58.931,6028,355234.705,49,58.935,58.935,58.95,58.935,-0.020492620662145942,-0.02062421059629063,atvi,20200131
2020-01-31,13:43,1:43 PM,,,,0,0.0,0,58.94,58.91,58.925,3056,180075.532,25,,,58.937,58.925,,-0.020723924749052713,atvi,20200131
2020-01-31,13:44,1:44 PM,58.935,58.925,58.931,400,23572.5,4,58.935,58.925,58.928,3530,208015.75,26,58.935,58.93,58.93,58.925,-0.020559101183353308,-0.020674067672671673,atvi,20200131
2020-01-31,13:45,1:45 PM,58.93,58.925,58.925,203,11961.79,3,58.95,58.92,58.931,3963,233545.59,35,58.93,58.925,58.925,58.925,-0.02065882196516424,-0.02062421059629063,atvi,20200131
2020-01-31,13:46,1:46 PM,58.945,58.92,58.933,228,13436.76,3,58.95,58.92,58.933,4800,282879.0,45,58.92,58.945,58.92,58.92,-0.020525860922749627,-0.020590972545369894,atvi,20200131
2020-01-31,13:47,1:47 PM,58.925,58.865,58.896,235,13840.52,4,58.935,58.86,58.905,6096,359082.76,50,58.91,58.865,58.915,58.865,-0.021140805743917006,-0.021056305258259588,atvi,20200131
2020-01-31,13:48,1:48 PM,58.94,58.875,58.908,500,29454.0,5,58.94,58.855,58.9,8090,476503.875,70,58.875,58.94,58.87,58.94,-0.02094136418029514,-0.021139400385561367,atvi,20200131
2020-01-31,13:49,1:49 PM,59.01,58.94,58.984,334,19700.67,4,59.025,58.935,58.997,13897,819877.085,86,58.94,59.005,58.945,59.0,-0.019678234277356692,-0.019527354915907683,atvi,20200131
2020-01-31,13:50,1:50 PM,,,,0,0.0,0,58.99,58.92,58.954,7270,428594.69,47,,,58.99,58.92,,-0.020241973010702595,atvi,20200131
2020-01-31,13:51,1:51 PM,58.95,58.95,58.95,3,176.85,1,58.97,58.935,58.951,4941,291279.29,35,58.95,58.95,58.935,58.96,-0.02024331870761861,-0.020291830087083636,atvi,20200131
2020-01-31,13:52,1:52 PM,58.915,58.915,58.915,100,5891.5,1,58.95,58.9,58.92,4489,264492.98,37,58.915,58.915,58.95,58.92,-0.020825023268182426,-0.020807019876354374,atvi,20200131
2020-01-31,13:53,1:53 PM,58.94,58.94,58.94,100,5894.0,1,59.015,58.92,58.97,7177,423225.8,58,58.94,58.94,58.93,59.015,-0.02040952001063691,-0.01997606860333707,atvi,20200131
2020-01-31,13:54,1:54 PM,59.025,58.995,59.01,200,11802.0,2,59.028,58.99,59.011,5100,300957.2,39,59.025,58.995,59.02,58.99,-0.019246110889509394,-0.01929468855946278,atvi,20200131
2020-01-31,13:55,1:55 PM,59.045,59.005,59.017,1500,88525.5,11,59.05,58.995,59.017,11896,702072.885,70,59.005,59.045,59.0,59.045,-0.01912976997739656,-0.019194974406700694,atvi,20200131
2020-01-31,13:56,1:56 PM,59.035,59.035,59.035,200,11807.0,2,59.05,59.02,59.038,7431,438709.0743,55,59.035,59.035,59.047,59.025,-0.01883060763196388,-0.01884597487203351,atvi,20200131
2020-01-31,13:57,1:57 PM,59.075,59.075,59.075,100,5907.5,1,59.08,59.02,59.051,7981,471288.46,67,59.075,59.075,59.025,59.075,-0.018165802419890912,-0.01862992754104891,atvi,20200131
2020-01-31,13:58,1:58 PM,59.055,59.045,59.05,200,11810.0,2,59.07,59.04,59.051,5401,318936.04,48,59.055,59.045,59.07,59.04,-0.018581305677436547,-0.01862992754104891,atvi,20200131
2020-01-31,13:59,1:59 PM,59.03,59.03,59.03,100,5903.0,1,59.05,59.015,59.033,7151,422142.91,51,59.03,59.03,59.045,59.025,-0.018913708283472913,-0.01892906999933517,atvi,20200131
2020-01-31,14:00,2 PM,59.05,59.04,59.043,367,21668.79,6,59.06,59.025,59.045,8481,500759.04,70,59.04,59.045,59.025,59.045,-0.018697646589549262,-0.018729641693811,atvi,20200131
2020-01-31,14:01,2:01 PM,59.065,59.05,59.057,200,11811.5,2,59.08,59.045,59.065,10124,597972.4,72,59.05,59.065,59.05,59.06,-0.01846496476532371,-0.018397261184604125,atvi,20200131
2020-01-31,14:02,2:02 PM,59.035,59.03,59.032,200,11806.5,2,59.06,59.025,59.036,10808,638065.175,78,59.035,59.03,59.06,59.04,-0.018880468022869346,-0.018879212922954126,atvi,20200131
2020-01-31,14:03,2:03 PM,59.105,59.105,59.105,235,13889.675,1,59.11,59.035,59.077,10170,600808.27,72,59.105,59.105,59.035,59.105,-0.017667198510836365,-0.018197832879079952,atvi,20200131
2020-01-31,14:04,2:04 PM,59.125,59.105,59.118,300,17735.5,3,59.14,59.105,59.12,6781,400890.335,51,59.105,59.125,59.105,59.135,-0.0174511368169126,-0.017483214784285044,atvi,20200131
2020-01-31,14:05,2:05 PM,59.135,59.115,59.125,200,11825.0,2,59.14,59.11,59.127,8778,519018.1335,63,59.135,59.115,59.14,59.11,-0.01733479590479988,-0.01736688160606253,atvi,20200131
2020-01-31,14:06,2:06 PM,59.12,59.085,59.1,306,18084.6,4,59.12,59.08,59.096,11639,687824.004,70,59.1,59.12,59.11,59.12,-0.017750299162345398,-0.017882071395333387,atvi,20200131
2020-01-31,14:07,2:07 PM,59.125,59.115,59.12,310,18327.15,4,59.13,59.11,59.117,10830,640235.2264,51,59.115,59.125,59.115,59.13,-0.017417896556309032,-0.017533071860666088,atvi,20200131
2020-01-31,14:08,2:08 PM,59.145,59.145,59.145,300,17743.5,2,59.15,59.13,59.138,13334,788539.84,81,59.145,59.145,59.13,59.13,-0.017002393298763397,-0.017184072325998785,atvi,20200131
2020-01-31,14:09,2:09 PM,59.16,59.095,59.133,675,39915.0,5,59.16,59.08,59.134,11202,662422.635,68,59.14,59.095,59.135,59.08,-0.017201834862385263,-0.017250548427840136,atvi,20200131
2020-01-31,14:10,2:10 PM,59.06,59.06,59.06,100,5906.0,1,59.08,59.06,59.073,5160,304816.75,28,59.06,59.06,59.075,59.06,-0.018415104374418245,-0.018264308980921302,atvi,20200131
2020-01-31,14:11,2:11 PM,59.035,59.03,59.033,555,32763.15,2,59.055,59.01,59.031,9267,547044.43,65,59.03,59.035,59.055,59.02,-0.018863847892567447,-0.018962308050255904,atvi,20200131
2020-01-31,14:12,2:12 PM,58.99,58.975,58.976,106,6251.42,3,59.02,58.97,58.987,6257,369081.76,51,58.99,58.985,59.02,58.99,-0.01981119531977131,-0.019693545170511122,atvi,20200131
2020-01-31,14:13,2:13 PM,,,,0,0.0,0,59.03,59.0,59.016,6840,403669.947,47,,,59.0,59.03,,-0.01921159343216112,atvi,20200131
2020-01-31,14:14,2:14 PM,,,,0,0.0,0,59.015,58.985,59.001,3600,212402.45,28,,,59.015,59.0,,-0.019460878814066333,atvi,20200131
2020-01-31,14:15,2:15 PM,59.005,59.0,59.003,300,17701.0,2,59.045,59.0,59.017,8644,510146.9671,76,59.005,59.0,59.0,59.03,-0.01936245180162211,-0.019194974406700694,atvi,20200131
2020-01-31,14:16,2:16 PM,,,,0,0.0,0,59.04,59.0,59.02,6299,371764.205,46,,,59.02,59.0,,-0.01914511733031965,atvi,20200131
2020-01-31,14:17,2:17 PM,59.03,59.01,59.016,761,44910.975,4,59.03,58.996,59.014,10813,638120.7589,65,59.015,59.01,58.996,59.02,-0.01914639010769846,-0.019244831483081735,atvi,20200131
2020-01-31,14:18,2:18 PM,59.005,59.005,59.005,400,23602.0,1,59.03,58.995,59.011,5432,320545.9055,41,59.005,59.005,59.02,59.005,-0.019329211541018427,-0.01929468855946278,atvi,20200131
2020-01-31,14:19,2:19 PM,,,,0,0.0,0,59.045,59.005,59.024,5425,320205.34,39,,,59.005,59.045,,-0.0190786412284783,atvi,20200131
2020-01-31,14:20,2:20 PM,59.01,58.99,58.997,501,29557.505,6,59.05,58.979,59.015,8433,497674.5388,69,59.01,58.99,59.05,58.98,-0.019462172583433045,-0.01922821245762143,atvi,20200131
2020-01-31,14:21,2:21 PM,58.965,58.965,58.965,100,5896.5,1,58.99,58.9,58.953,27456,1618601.66,181,58.965,58.965,58.985,58.97,-0.019994016753091277,-0.0202585920361629,atvi,20200131
2020-01-31,14:22,2:22 PM,59.0,59.0,59.0,100,5900.0,1,59.0,58.94,58.975,7886,465076.04,61,59.0,59.0,58.96,58.98,-0.019412312192527578,-0.019892973476035292,atvi,20200131
2020-01-31,14:23,2:23 PM,58.98,58.98,58.98,12,707.76,1,58.99,58.925,58.958,5779,340718.025,37,58.98,58.98,58.99,58.925,-0.019744714798564062,-0.020175496908861244,atvi,20200131
2020-01-31,14:24,2:24 PM,,,,0,0.0,0,58.95,58.92,58.938,4108,242117.4,34,,,58.94,58.935,,-0.020507877418068116,atvi,20200131
2020-01-31,14:25,2:25 PM,58.97,58.97,58.97,100,5897.0,1,58.985,58.94,58.966,5096,300489.115,41,58.97,58.97,58.94,58.98,-0.019910916101582243,-0.02004254470517842,atvi,20200131
2020-01-31,14:26,2:26 PM,59.02,58.99,59.004,400,23601.5,5,59.02,58.975,58.992,11157,658172.36,88,58.99,59.02,58.98,59.015,-0.019345831671320327,-0.019610450043209462,atvi,20200131
2020-01-31,14:27,2:27 PM,58.985,58.985,58.985,100,5898.5,1,59.015,58.975,58.988,3000,176964.5,28,58.985,58.985,59.015,58.975,-0.01966161414705491,-0.019676926145050812,atvi,20200131
2020-01-31,14:28,2:28 PM,58.975,58.96,58.967,200,11793.48,3,58.975,58.94,58.96,5108,301166.76,38,58.97,58.96,58.97,58.94,-0.01996077649248771,-0.020142258857940507,atvi,20200131
2020-01-31,14:29,2:29 PM,,,,0,0.0,0,59.0,58.945,58.977,3199,188668.03,22,,,58.945,58.99,,-0.019859735425114676,atvi,20200131
2020-01-31,14:30,2:30 PM,,,,0,0.0,0,58.995,58.97,58.987,2439,143869.2069,20,,,58.98,58.995,,-0.019693545170511122,atvi,20200131
2020-01-31,14:31,2:31 PM,59.015,58.995,59.006,600,35403.5,5,59.02,58.99,59.009,13035,769188.375,95,58.995,59.015,59.0,59.02,-0.019312591410716645,-0.019327926610383513,atvi,20200131
2020-01-31,14:32,2:32 PM,59.035,58.995,59.023,8600,507594.5,7,59.035,58.99,59.01,30382,1792841.5825,132,59.025,59.035,59.02,59.035,-0.019030049195585628,-0.019311307584923203,atvi,20200131
2020-01-31,14:33,2:33 PM,59.075,59.04,59.069,1500,88603.5,6,59.075,59.035,59.053,23716,1400510.1171,138,59.045,59.075,59.04,59.055,-0.018265523201701845,-0.018596689490128295,atvi,20200131
2020-01-31,14:34,2:34 PM,59.055,59.005,59.018,2300,135742.5,7,59.055,58.995,59.017,13396,790592.825,75,59.055,59.005,59.055,58.995,-0.01911314984709478,-0.019194974406700694,atvi,20200131
2020-01-31,14:35,2:35 PM,58.995,58.995,58.995,29,1710.855,1,59.0,58.98,58.996,12364,729423.5636,87,58.995,58.995,59.0,58.98,-0.019495412844036726,-0.019543973941367993,atvi,20200131
2020-01-31,14:36,2:36 PM,59.015,58.955,58.996,410,24188.55,4,59.02,58.955,58.994,14209,838241.8904,87,58.955,59.0,58.975,59.0,-0.019478792713734826,-0.019577211992288727,atvi,20200131
2020-01-31,14:37,2:37 PM,58.995,58.985,58.991,1780,105004.3,4,59.0,58.98,58.994,8466,499446.8,48,58.995,58.985,59.0,58.985,-0.019561893365243978,-0.019577211992288727,atvi,20200131
2020-01-31,14:38,2:38 PM,59.0,59.0,59.0,300,17700.0,2,59.005,58.985,58.996,10531,621288.33,66,59.0,59.0,58.99,59.0,-0.019412312192527578,-0.019543973941367993,atvi,20200131
2020-01-31,14:39,2:39 PM,59.0,58.985,58.986,1235,72847.975,6,59.0,58.97,58.986,9763,575881.47,76,59.0,58.985,58.995,58.995,-0.01964499401675313,-0.019710164195971547,atvi,20200131
2020-01-31,14:40,2:40 PM,,,,0,0.0,0,59.005,58.975,58.995,13554,799625.7056,81,,,59.0,58.975,,-0.01956059296682842,atvi,20200131
2020-01-31,14:41,2:41 PM,58.955,58.955,58.955,800,47164.0,2,58.99,58.95,58.968,7556,445565.285,64,58.955,58.955,58.97,58.955,-0.020160218056109576,-0.020009306654257687,atvi,20200131
2020-01-31,14:42,2:42 PM,58.975,58.97,58.972,200,11794.5,2,58.98,58.95,58.965,7614,448959.535,62,58.97,58.975,58.96,58.975,-0.01987767584097856,-0.02005916373063873,atvi,20200131
2020-01-31,14:43,2:43 PM,58.955,58.955,58.955,400,23582.0,4,58.98,58.95,58.958,6857,404278.2633,52,58.955,58.955,58.98,58.955,-0.020160218056109576,-0.020175496908861244,atvi,20200131
2020-01-31,14:44,2:44 PM,58.965,58.94,58.956,600,35373.5,6,58.968,58.935,58.952,8766,516776.1,61,58.955,58.965,58.955,58.965,-0.020143597925807676,-0.02027521106162333,atvi,20200131
2020-01-31,14:45,2:45 PM,58.965,58.925,58.929,901,53095.43,5,58.965,58.92,58.932,9756,574944.555,45,58.965,58.93,58.96,58.928,-0.020592341443956875,-0.020607591570830204,atvi,20200131
2020-01-31,14:46,2:46 PM,58.94,58.925,58.932,200,11786.5,2,58.95,58.905,58.932,7015,413407.3675,61,58.94,58.925,58.94,58.905,-0.02054248105305141,-0.020607591570830204,atvi,20200131
2020-01-31,14:47,2:47 PM,58.92,58.895,58.9,1100,64790.0,5,58.93,58.89,58.908,8604,506842.0574,59,58.895,58.915,58.9,58.93,-0.02107432522270976,-0.021006448181878547,atvi,20200131
2020-01-31,14:48,2:48 PM,58.925,58.915,58.924,214,12609.835,3,58.93,58.895,58.914,9527,561277.7926,42,58.925,58.915,58.925,58.898,-0.020675442095466026,-0.02090673402911646,atvi,20200131
2020-01-31,14:49,2:49 PM,58.885,58.87,58.878,328,19312.14,5,58.9,58.87,58.884,10271,604793.5,62,58.885,58.87,58.895,58.89,-0.021439968089349806,-0.021405304792926887,atvi,20200131
2020-01-31,14:50,2:50 PM,58.915,58.905,58.908,300,17672.5,3,58.92,58.888,58.902,7276,428570.734,58,58.915,58.905,58.895,58.91,-0.02094136418029514,-0.021106162334640632,atvi,20200131
2020-01-31,14:51,2:51 PM,58.905,58.855,58.857,105,6180.025,2,58.91,58.83,58.874,10880,640552.9058,49,58.905,58.855,58.91,58.83,-0.02178899082568807,-0.021571495047530326,atvi,20200131
2020-01-31,14:52,2:52 PM,58.87,58.825,58.842,900,52957.5,7,58.88,58.825,58.843,14117,830684.55,109,58.825,58.87,58.835,58.845,-0.022038292780215407,-0.022086684836801065,atvi,20200131
2020-01-31,14:53,2:53 PM,58.855,58.835,58.845,300,17653.5,3,58.86,58.83,58.842,7340,431902.874,48,58.855,58.835,58.85,58.845,-0.02198843238930994,-0.02210330386226149,atvi,20200131
2020-01-31,14:54,2:54 PM,58.865,58.825,58.847,400,23539.0,4,58.865,58.825,58.849,10960,644981.558,84,58.825,58.845,58.84,58.84,-0.021955192128706256,-0.021986970684039094,atvi,20200131
2020-01-31,14:55,2:55 PM,58.895,58.845,58.869,500,29434.5,5,58.9,58.835,58.86,6350,373763.625,51,58.845,58.895,58.84,58.895,-0.021589549262066205,-0.02180416140397523,atvi,20200131
2020-01-31,14:56,2:56 PM,58.915,58.885,58.911,757,44595.655,5,58.93,58.88,58.913,7487,441081.3525,56,58.915,58.885,58.915,58.89,-0.020891503789389674,-0.020923353054576887,atvi,20200131
2020-01-31,14:57,2:57 PM,58.87,58.855,58.86,203,11948.61,3,58.89,58.855,58.869,7775,457709.2507,60,58.87,58.855,58.89,58.88,-0.021739130434782605,-0.021654590174832105,atvi,20200131
2020-01-31,14:58,2:58 PM,58.89,58.88,58.885,216,12719.09,4,58.9,58.865,58.879,4528,266604.4,38,58.885,58.88,58.87,58.87,-0.02132362717723709,-0.021488399920228666,atvi,20200131
2020-01-31,14:59,2:59 PM,58.87,58.85,58.862,125,7357.81,3,58.89,58.847,58.868,12317,725073.84,83,58.865,58.85,58.865,58.847,-0.021705890174178923,-0.02167120920029241,atvi,20200131
2020-01-31,15:00,3 PM,58.875,58.845,58.866,747,43972.625,7,58.89,58.845,58.867,8928,525566.39,63,58.845,58.85,58.855,58.85,-0.02163940965297167,-0.02168782822575284,atvi,20200131
2020-01-31,15:01,3:01 PM,58.88,58.845,58.849,507,29836.48,4,58.88,58.82,58.844,6684,393312.6815,46,58.88,58.85,58.85,58.84,-0.02192195186810269,-0.022070065811340755,atvi,20200131
2020-01-31,15:02,3:02 PM,58.835,58.795,58.815,400,23526.0,4,58.84,58.785,58.81,15959,938550.8765,95,58.835,58.795,58.84,58.8,-0.022487036298364606,-0.022635112676992534,atvi,20200131
2020-01-31,15:03,3:03 PM,58.805,58.8,58.803,200,11760.5,2,58.83,58.797,58.807,5189,305152.0706,41,58.8,58.805,58.8,58.825,-0.022686477861986472,-0.022684969753373578,atvi,20200131
2020-01-31,15:04,3:04 PM,58.8,58.795,58.796,803,47212.885,4,58.865,58.79,58.814,8053,473628.435,55,58.8,58.795,58.84,58.8,-0.022802818774099187,-0.022568636575151183,atvi,20200131
2020-01-31,15:05,3:05 PM,58.795,58.775,58.782,1387,81530.325,13,58.8,58.77,58.782,9540,560777.96,60,58.785,58.795,58.79,58.79,-0.023035500598324737,-0.02310044538988235,atvi,20200131
2020-01-31,15:06,3:06 PM,58.785,58.755,58.784,306,17988.03,4,58.79,58.75,58.777,8591,504949.91,65,58.785,58.755,58.79,58.76,-0.023002260337721053,-0.023183540517184006,atvi,20200131
2020-01-31,15:07,3:07 PM,58.695,58.67,58.687,401,23533.67,5,58.77,58.67,58.723,16896,992179.905,127,58.695,58.67,58.76,58.675,-0.024614412976997766,-0.024080967892042778,atvi,20200131
2020-01-31,15:08,3:08 PM,58.725,58.695,58.711,1400,82195.5,10,58.725,58.67,58.698,14195,833221.3692,106,58.695,58.725,58.68,58.72,-0.024215529849754034,-0.02449644352855143,atvi,20200131
2020-01-31,15:09,3:09 PM,58.715,58.695,58.705,200,11741.0,2,58.725,58.685,58.705,9385,550943.3841,74,58.715,58.695,58.72,58.695,-0.024315250631564967,-0.024380110350329037,atvi,20200131
2020-01-31,15:10,3:10 PM,58.705,58.67,58.694,800,46955.0,9,58.71,58.66,58.686,10258,602001.59,89,58.695,58.67,58.695,58.67,-0.024498072064884933,-0.0246958718340756,atvi,20200131
2020-01-31,15:11,3:11 PM,58.675,58.655,58.661,1288,75555.595,8,58.69,58.655,58.668,7388,433441.9081,54,58.66,58.675,58.66,58.69,-0.025046536364845065,-0.02499501429236186,atvi,20200131
2020-01-31,15:12,3:12 PM,58.715,58.69,58.7,322,18901.445,6,58.715,58.68,58.696,8586,503964.3,77,58.715,58.69,58.69,58.685,-0.024398351283074,-0.024529681579472166,atvi,20200131
2020-01-31,15:13,3:13 PM,58.675,58.645,58.671,1800,105608.5,9,58.69,58.64,58.668,12313,722382.8869,67,58.67,58.645,58.69,58.64,-0.024880335061826884,-0.02499501429236186,atvi,20200131
2020-01-31,15:14,3:14 PM,58.635,58.625,58.628,300,17588.5,3,58.66,58.62,58.641,9625,564419.655,74,58.635,58.625,58.64,58.62,-0.025595000664805197,-0.025443727979791247,atvi,20200131
2020-01-31,15:15,3:15 PM,58.63,58.575,58.603,514,30122.05,6,58.63,58.574,58.601,10517,616306.388,67,58.63,58.58,58.63,58.58,-0.026010503922350714,-0.02610848899820511,atvi,20200131
2020-01-31,15:16,3:16 PM,58.63,58.595,58.611,473,27722.92,7,58.65,58.58,58.625,21154,1240149.5425,149,58.595,58.625,58.58,58.65,-0.025877542879936214,-0.025709632387156768,atvi,20200131
2020-01-31,15:17,3:17 PM,58.655,58.625,58.634,316,18528.425,6,58.655,58.62,58.639,17518,1027238.446,139,58.635,58.625,58.65,58.63,-0.025495279882994264,-0.025476966030711864,atvi,20200131
2020-01-31,15:18,3:18 PM,58.635,58.625,58.634,3221,188860.125,8,58.64,58.61,58.633,46095,2702699.81,217,58.625,58.625,58.64,58.61,-0.025495279882994264,-0.02557668018347395,atvi,20200131
2020-01-31,15:19,3:19 PM,58.645,58.63,58.636,400,23454.5,4,58.66,58.62,58.639,11712,686778.5455,77,58.635,58.645,58.62,58.645,-0.025462039622390582,-0.025476966030711864,atvi,20200131
2020-01-31,15:20,3:20 PM,58.665,58.605,58.646,783,45920.195,7,58.67,58.6,58.648,15274,895783.5684,88,58.655,58.605,58.642,58.6,-0.025295838319372398,-0.025327394801568735,atvi,20200131
2020-01-31,15:21,3:21 PM,58.61,58.6,58.605,200,11721.0,2,58.62,58.59,58.61,7766,455162.16,67,58.6,58.61,58.59,58.62,-0.025977263661747147,-0.025958917769061982,atvi,20200131
2020-01-31,15:22,3:22 PM,58.65,58.615,58.633,1220,71531.8,7,58.65,58.61,58.632,23614,1384530.78,125,58.65,58.615,58.62,58.625,-0.02551190001329605,-0.025593299208934377,atvi,20200131
2020-01-31,15:23,3:23 PM,58.6,58.6,58.6,4,234.4,1,58.63,58.59,58.612,18373,1076871.8336,106,58.6,58.6,58.63,58.61,-0.02606036431325618,-0.025925679718141248,atvi,20200131
2020-01-31,15:24,3:24 PM,58.58,58.55,58.562,500,29281.0,2,58.605,58.54,58.569,33777,1978298.0456,208,58.58,58.55,58.6,58.55,-0.026691929264725463,-0.02664029781293616,atvi,20200131
2020-01-31,15:25,3:25 PM,58.55,58.54,58.541,114,6673.7,2,58.555,58.515,58.544,8296,485681.8,57,58.55,58.54,58.55,58.515,-0.02704095200106373,-0.027055773449444927,atvi,20200131
2020-01-31,15:26,3:26 PM,58.53,58.495,58.51,300,17553.0,3,58.53,58.49,58.505,26614,1557053.276,136,58.53,58.505,58.515,58.505,-0.02755617604042018,-0.027703915442398367,atvi,20200131
2020-01-31,15:27,3:27 PM,58.51,58.505,58.508,200,11701.5,2,58.51,58.48,58.497,22177,1297291.69,151,58.51,58.505,58.505,58.5,-0.027589416301023743,-0.027836867646081186,atvi,20200131
2020-01-31,15:28,3:28 PM,58.51,58.49,58.495,404,23632.18,5,58.51,58.49,58.498,16413,960130.14,94,58.49,58.51,58.5,58.495,-0.027805477994947512,-0.02782024862062088,atvi,20200131
2020-01-31,15:29,3:29 PM,58.5,58.45,58.458,992,57989.99,7,58.5,58.45,58.475,18362,1073715.474,133,58.5,58.45,58.5,58.45,-0.02842042281611489,-0.028202486206208795,atvi,20200131
2020-01-31,15:30,3:30 PM,58.43,58.41,58.419,635,37095.76,6,58.45,58.4,58.424,25045,1463221.38,142,58.425,58.41,58.45,58.405,-0.02906860789788596,-0.029050056504686526,atvi,20200131
2020-01-31,15:31,3:31 PM,58.42,58.41,58.413,1103,64429.76,14,58.42,58.395,58.412,25297,1477638.6163,193,58.41,58.42,58.41,58.42,-0.029168328679696893,-0.029249484810210696,atvi,20200131
2020-01-31,15:32,3:32 PM,58.43,58.4,58.413,1102,64371.33,9,58.44,58.4,58.417,23737,1386638.143,168,58.415,58.405,58.415,58.405,-0.029168328679696893,-0.02916638968290892,atvi,20200131
2020-01-31,15:33,3:33 PM,58.45,58.4,58.432,1626,95010.31,15,58.45,58.4,58.427,21648,1264835.7868,172,58.41,58.445,58.41,58.445,-0.02885254620396219,-0.029000199428305482,atvi,20200131
2020-01-31,15:34,3:34 PM,58.435,58.42,58.428,2366,138241.95,22,58.45,58.42,58.431,11833,691411.79,96,58.435,58.42,58.45,58.42,-0.02891902672516956,-0.02893372332646413,atvi,20200131
2020-01-31,15:35,3:35 PM,58.45,58.395,58.415,1009,58941.15,14,58.47,58.39,58.415,20858,1218428.09,111,58.41,58.45,58.41,58.47,-0.029135088419093208,-0.029199627733829656,atvi,20200131
2020-01-31,15:36,3:36 PM,58.46,58.46,58.46,203,11867.38,2,58.47,58.44,58.458,9974,583059.375,83,58.46,58.46,58.465,58.46,-0.02838718255551121,-0.028485009639034747,atvi,20200131
2020-01-31,15:37,3:37 PM,58.45,58.41,58.425,617,36048.48,5,58.46,58.4,58.424,13403,783063.19,105,58.45,58.41,58.46,58.405,-0.028968887116075027,-0.029050056504686526,atvi,20200131
2020-01-31,15:38,3:38 PM,58.43,58.39,58.4,500,29200.0,5,58.445,58.38,58.4,19286,1126310.1913,139,58.39,58.43,58.405,58.44,-0.02938439037362054,-0.02944891311573487,atvi,20200131
2020-01-31,15:39,3:39 PM,58.43,58.4,58.41,508,29672.35,10,58.44,58.39,58.414,15061,879768.24,111,58.43,58.4,58.435,58.4,-0.02921818907060236,-0.029216246759289962,atvi,20200131
2020-01-31,15:40,3:40 PM,58.365,58.365,58.365,847,49435.155,4,58.4,58.36,58.373,11908,695100.103,82,58.365,58.365,58.4,58.365,-0.02996609493418424,-0.029897626803164254,atvi,20200131
2020-01-31,15:41,3:41 PM,58.375,58.345,58.354,712,41548.245,12,58.38,58.347,58.358,31388,1831739.1624,202,58.35,58.375,58.36,58.37,-0.030148916367504323,-0.03014691218506947,atvi,20200131
2020-01-31,15:42,3:42 PM,58.405,58.39,58.401,575,33580.455,8,58.41,58.37,58.392,10756,628070.2301,86,58.405,58.405,58.37,58.4,-0.02936777024331864,-0.02958186531941757,atvi,20200131
2020-01-31,15:43,3:43 PM,58.525,58.41,58.494,830,48549.9,8,58.56,58.38,58.462,50198,2934658.5152,334,58.415,58.51,58.405,58.52,-0.027822098125249294,-0.028418533537193275,atvi,20200131
2020-01-31,15:44,3:44 PM,58.61,58.54,58.559,818,47901.03,11,58.61,58.53,58.577,25523,1495053.89,188,58.54,58.6,58.53,58.609,-0.02674178965563093,-0.026507345609253455,atvi,20200131
2020-01-31,15:45,3:45 PM,58.64,58.61,58.624,706,41388.69,6,58.65,58.57,58.617,28565,1674389.265,210,58.64,58.615,58.61,58.57,-0.02566148118601245,-0.02584258459083959,atvi,20200131
2020-01-31,15:46,3:46 PM,58.615,58.555,58.573,837,49025.96,6,58.645,58.53,58.573,18335,1073932.62,147,58.555,58.615,58.56,58.645,-0.02650910783140538,-0.026573821711094806,atvi,20200131
2020-01-31,15:47,3:47 PM,58.64,58.535,58.58,1484,86932.965,9,58.645,58.53,58.567,44245,2591286.8948,261,58.64,58.55,58.64,58.56,-0.026392766919292664,-0.026673535863856894,atvi,20200131
2020-01-31,15:48,3:48 PM,58.56,58.5,58.536,1002,58653.38,12,58.57,58.495,58.537,42928,2512867.5075,300,58.56,58.54,58.56,58.5,-0.027124052652572762,-0.027172106627667322,atvi,20200131
2020-01-31,15:49,3:49 PM,58.5,58.455,58.478,1503,87891.925,14,58.505,58.455,58.481,21141,1236344.2402,179,58.5,58.465,58.495,58.468,-0.02808802021007841,-0.02810277205344671,atvi,20200131
2020-01-31,15:50,3:50 PM,58.56,58.455,58.511,1830,107075.17,18,58.57,58.43,58.51,59167,3461846.5315,404,58.46,58.525,58.46,58.515,-0.027539555910118276,-0.027620820315096706,atvi,20200131
2020-01-31,15:51,3:51 PM,58.505,58.435,58.484,870,50880.885,16,58.51,58.429,58.486,95868,5606963.78,404,58.505,58.495,58.51,58.495,-0.027988299428267475,-0.02801967692614505,atvi,20200131
2020-01-31,15:52,3:52 PM,58.52,58.475,58.493,701,41003.515,9,58.53,58.46,58.503,47646,2787456.8054,292,58.495,58.515,58.495,58.505,-0.027838718255551075,-0.0277371534933191,atvi,20200131
2020-01-31,15:53,3:53 PM,58.6,58.51,58.533,1208,70707.71,11,58.6,58.5,58.519,71047,4157600.883,315,58.51,58.6,58.505,58.6,-0.02717391304347823,-0.02747124908595358,atvi,20200131
2020-01-31,15:54,3:54 PM,58.59,58.545,58.574,1776,104027.81,17,58.61,58.54,58.571,111630,6538276.6125,492,58.585,58.55,58.6,58.555,-0.026492487701103597,-0.026607059762015543,atvi,20200131
2020-01-31,15:55,3:55 PM,58.59,58.47,58.519,1363,79761.12,22,58.59,58.45,58.534,93022,5444991.7204,574,58.59,58.47,58.56,58.46,-0.02740659486770378,-0.027221963704048363,atvi,20200131
2020-01-31,15:56,3:56 PM,58.515,58.45,58.488,2420,141540.67,26,58.517,58.44,58.484,88543,5178375.186,568,58.46,58.515,58.46,58.51,-0.027921818907060227,-0.028052914977065666,atvi,20200131
2020-01-31,15:57,3:57 PM,58.52,58.43,58.483,8036,469971.49,40,58.52,58.43,58.465,191939,11221622.9613,992,58.52,58.435,58.515,58.43,-0.028004919558569378,-0.028368676460812235,atvi,20200131
2020-01-31,15:58,3:58 PM,58.495,58.425,58.472,5065,296159.69,53,58.5,58.42,58.46,172064,10058820.095,1097,58.45,58.495,58.44,58.485,-0.028187740991889344,-0.02845177158811401,atvi,20200131
2020-01-31,15:59,3:59 PM,58.505,58.45,58.481,4072,238134.33,44,58.52,58.43,58.471,181104,10589368.4361,935,58.485,58.455,58.48,58.47,-0.02803815981917294,-0.028268962308050267,atvi,20200131
