date,minute,label,high,low,average,volume,notional,numberOfTrades,marketHigh,marketLow,marketAverage,marketVolume,marketNotional,marketNumberOfTrades,open,close,marketOpen,marketClose,changeOverTime,marketChangeOverTime,tickerName,tickerDate
2020-01-06,09:30,09:30 AM,58.67,58.435,58.506,842,49262.25,14,58.68,58.435,58.486,98305,5749517.658,126,58.47,58.67,58.47,58.66,0.0,0.0,atvi,20200106
2020-01-06,09:31,09:31 AM,58.8,58.7,58.754,500,29377.0,5,58.84,58.67,58.759,15356,902310.4425,94,58.7,58.735,58.68,58.78,0.004238881482241096,0.004667783743118067,atvi,20200106
2020-01-06,09:32,09:32 AM,,,,0,0.0,0,58.89,58.775,58.845,9589,564266.685,73,,,58.775,58.83,,0.006138221112744961,atvi,20200106
2020-01-06,09:33,09:33 AM,58.905,58.83,58.831,102,6000.81,2,58.98,58.82,58.906,13584,800179.3825,74,58.83,58.905,58.83,58.91,0.005554985813420894,0.0071812057586431235,atvi,20200106
2020-01-06,09:34,09:34 AM,,,,0,0.0,0,58.97,58.865,58.915,10198,600817.9341,63,,,58.92,58.89,,0.007335088739185481,atvi,20200106
2020-01-06,09:35,09:35 AM,,,,0,0.0,0,58.95,58.9,58.926,4300,253382.169,29,,,58.9,58.95,,0.007523167937626181,atvi,20200106
2020-01-06,09:36,09:36 AM,59.13,59.01,59.07,200,11814.0,2,59.15,58.959,59.031,17771,1049044.03,90,59.01,59.13,58.959,59.068,0.00964003691929033,0.009318469377286902,atvi,20200106
2020-01-06,09:37,09:37 AM,,,,0,0.0,0,59.09,59.03,59.053,2845,168007.005,24,,,59.03,59.05,,0.00969462777416818,atvi,20200106
2020-01-06,09:38,09:38 AM,59.04,59.04,59.04,86,5077.44,1,59.108,59.02,59.075,8821,521100.391,32,59.04,59.04,59.05,59.108,0.009127268998051464,0.01007078617104958,atvi,20200106
2020-01-06,09:39,09:39 AM,59.26,59.22,59.255,9,533.3,2,59.34,59.085,59.224,27302,1616930.5215,156,59.22,59.26,59.11,59.32,0.012802105766929927,0.012618404404472858,atvi,20200106
2020-01-06,09:40,09:40 AM,59.32,59.235,59.287,700,41501.0,7,59.34,59.21,59.295,22075,1308934.32,126,59.31,59.235,59.32,59.27,0.013349058216251304,0.013832370139862611,atvi,20200106
2020-01-06,09:41,09:41 AM,59.29,59.29,59.29,100,5929.0,1,59.34,59.23,59.295,13845,820937.925,84,59.29,59.29,59.29,59.29,0.01340033500837519,0.013832370139862611,atvi,20200106
2020-01-06,09:42,09:42 AM,59.28,59.28,59.28,100,5928.0,1,59.31,59.21,59.264,14224,842973.8,90,59.28,59.28,59.28,59.29,0.013229412367962276,0.013302328762438973,atvi,20200106
2020-01-06,09:43,09:43 AM,59.335,59.31,59.313,206,12218.435,5,59.35,59.24,59.315,31833,1888174.685,210,59.31,59.335,59.28,59.24,0.013793457081325029,0.014174332318845547,atvi,20200106
2020-01-06,09:44,09:44 AM,59.31,59.31,59.31,102,6049.62,3,59.33,59.22,59.292,11566,685770.19,51,59.31,59.31,59.26,59.23,0.013742180289201142,0.013781075813015157,atvi,20200106
2020-01-06,09:45,09:45 AM,59.2,59.2,59.2,100,5920.0,1,59.23,59.163,59.199,6300,372955.3,45,59.2,59.2,59.214,59.189,0.011862031244658712,0.012190951680744126,atvi,20200106
2020-01-06,09:46,09:46 AM,59.16,59.16,59.16,100,5916.0,1,59.21,59.125,59.157,9197,544071.914,57,59.16,59.16,59.191,59.16,0.01117834068300681,0.01147283110487979,atvi,20200106
2020-01-06,09:47,09:47 AM,59.185,59.185,59.185,100,5918.5,1,59.22,59.17,59.185,8917,527755.205,69,59.185,59.185,59.17,59.19,0.011605647284039278,0.011951578155456095,atvi,20200106
2020-01-06,09:48,09:48 AM,59.21,59.21,59.21,100,5921.0,2,59.3,59.19,59.249,11807,699555.305,89,59.21,59.21,59.19,59.285,0.012032953885071628,0.01304585712820171,atvi,20200106
2020-01-06,09:49,09:49 AM,59.32,59.32,59.32,100,5932.0,1,59.4,59.26,59.293,44902,2662369.114,221,59.32,59.32,59.29,59.4,0.013913102929614058,0.01379817392196427,atvi,20200106
2020-01-06,09:50,09:50 AM,59.415,59.41,59.413,7,415.89,2,59.45,59.4,59.416,9500,564457.612,68,59.41,59.415,59.4,59.45,0.015502683485454423,0.015901241322709703,atvi,20200106
2020-01-06,09:51,09:51 AM,59.455,59.39,59.391,104,6176.7,4,59.455,59.39,59.433,15847,941841.47,79,59.455,59.39,59.445,59.4,0.015126653676545962,0.01619190917484531,atvi,20200106
2020-01-06,09:52,09:52 AM,59.425,59.4,59.411,185,10991.125,3,59.43,59.38,59.4,7095,421443.854,58,59.425,59.425,59.39,59.415,0.015468498957371913,0.01562767157952333,atvi,20200106
2020-01-06,09:53,09:53 AM,59.35,59.35,59.35,400,23740.0,2,59.42,59.335,59.365,6855,406945.025,49,59.35,59.35,59.42,59.335,0.014425870850852925,0.015029237766303131,atvi,20200106
2020-01-06,09:54,09:54 AM,59.34,59.34,59.34,101,5993.34,2,59.36,59.26,59.321,12578,746133.815,87,59.34,59.34,59.33,59.3,0.014254948210440009,0.014276920972540453,atvi,20200106
2020-01-06,09:55,09:55 AM,59.255,59.255,59.255,100,5925.5,1,59.3,59.228,59.26,2788,165216.886,19,59.255,59.255,59.292,59.29,0.012802105766929927,0.01323393632664229,atvi,20200106
2020-01-06,09:56,09:56 AM,59.27,59.24,59.255,200,11851.0,2,59.32,59.22,59.279,6721,398414.84,24,59.24,59.27,59.31,59.264,0.012802105766929927,0.013558800396676236,atvi,20200106
2020-01-06,09:57,09:57 AM,59.27,59.26,59.26,104,6163.08,2,59.27,59.22,59.259,5439,322308.1,47,59.27,59.26,59.26,59.26,0.012887567087136323,0.01321683821769318,atvi,20200106
2020-01-06,09:58,09:58 AM,59.25,59.25,59.25,100,5925.0,1,59.265,59.22,59.236,2700,159936.0,16,59.25,59.25,59.265,59.23,0.01271664444672341,0.012823581711862668,atvi,20200106
2020-01-06,09:59,09:59 AM,59.24,59.24,59.24,100,5924.0,1,59.25,59.17,59.216,4237,250897.0,30,59.24,59.24,59.23,59.17,0.012545721806310493,0.012481619532879733,atvi,20200106
2020-01-06,10:00,10 AM,59.15,59.14,59.15,305,18040.7,4,59.18,59.11,59.147,13725,811786.695,109,59.14,59.15,59.18,59.16,0.011007418042593893,0.011301850015388321,atvi,20200106
2020-01-06,10:01,10:01 AM,,,,0,0.0,0,59.2,59.14,59.163,4936,292027.3386,35,,,59.18,59.195,,0.011575419758574696,atvi,20200106
2020-01-06,10:02,10:02 AM,59.26,59.21,59.258,304,18014.34,4,59.27,59.23,59.258,6605,391401.38,55,59.21,59.26,59.24,59.26,0.012853382559053814,0.013199740108744069,atvi,20200106
2020-01-06,10:03,10:03 AM,59.37,59.37,59.37,100,5937.0,1,59.39,59.265,59.276,98035,5811104.9,74,59.37,59.37,59.265,59.38,0.014767716131678755,0.013507506069828784,atvi,20200106
2020-01-06,10:04,10:04 AM,59.355,59.33,59.343,200,11868.5,2,59.375,59.32,59.345,4366,259098.85,39,59.33,59.355,59.375,59.36,0.014306225002563896,0.014687275587320072,atvi,20200106
2020-01-06,10:05,10:05 AM,59.33,59.31,59.32,200,11864.0,2,59.36,59.3,59.332,3055,181259.1,27,59.31,59.33,59.35,59.36,0.013913102929614058,0.014465000170981153,atvi,20200106
2020-01-06,10:06,10:06 AM,59.37,59.31,59.311,102,6049.74,2,59.39,59.3,59.34,4189,248573.93,34,59.37,59.31,59.37,59.3,0.013759272553242398,0.0146017850425744,atvi,20200106
2020-01-06,10:07,10:07 AM,59.32,59.32,59.32,100,5932.0,1,59.36,59.28,59.297,3542,210028.7125,30,59.32,59.32,59.29,59.36,0.013913102929614058,0.013866566357760832,atvi,20200106
2020-01-06,10:08,10:08 AM,59.38,59.365,59.372,202,11993.24,3,59.42,59.36,59.391,12846,762941.856,61,59.37,59.38,59.37,59.38,0.014801900659761386,0.015473788598980973,atvi,20200106
2020-01-06,10:09,10:09 AM,59.36,59.32,59.34,200,11868.0,2,59.381,59.32,59.356,2400,142453.56,22,59.36,59.32,59.37,59.33,0.014254948210440009,0.014875354785760773,atvi,20200106
2020-01-06,10:10,10:10 AM,59.36,59.34,59.346,248,14717.81,5,59.37,59.34,59.356,5251,311676.3144,37,59.34,59.36,59.34,59.37,0.014357501794687661,0.014875354785760773,atvi,20200106
2020-01-06,10:11,10:11 AM,59.425,59.34,59.395,458,27202.84,6,59.43,59.335,59.382,5337,316920.69,47,59.34,59.425,59.37,59.43,0.015195022732711224,0.015319905618438615,atvi,20200106
2020-01-06,10:12,10:12 AM,59.42,59.41,59.411,119,7069.98,3,59.42,59.403,59.414,8680,515713.174,60,59.42,59.42,59.42,59.41,0.015468498957371913,0.015867045104811482,atvi,20200106
2020-01-06,10:13,10:13 AM,59.385,59.37,59.378,209,12409.92,3,59.42,59.37,59.389,6210,368804.433,53,59.37,59.385,59.41,59.385,0.01490445424400916,0.015439592381082752,atvi,20200106
2020-01-06,10:14,10:14 AM,59.385,59.35,59.382,112,6650.805,3,59.385,59.34,59.365,4502,267260.3886,42,59.35,59.385,59.38,59.34,0.014972823300174302,0.015029237766303131,atvi,20200106
2020-01-06,10:15,10:15 AM,59.345,59.325,59.335,301,17859.825,3,59.35,59.32,59.335,2087,123831.6493,19,59.325,59.345,59.34,59.35,0.014169486890233491,0.014516294497828605,atvi,20200106
2020-01-06,10:16,10:16 AM,59.38,59.365,59.365,99,5877.165,2,59.38,59.315,59.358,5191,308127.7669,41,59.38,59.365,59.36,59.369,0.014682254811472359,0.014909551003658993,atvi,20200106
2020-01-06,10:17,10:17 AM,59.425,59.36,59.397,300,17819.0,3,59.43,59.36,59.404,4920,292268.344,31,59.36,59.425,59.36,59.43,0.015229207260793735,0.015696064015320015,atvi,20200106
2020-01-06,10:18,10:18 AM,59.48,59.4,59.459,138,8205.28,3,59.49,59.413,59.449,5260,312702.256,44,59.4,59.48,59.42,59.48,0.0162889276313541,0.016465478918031684,atvi,20200106
2020-01-06,10:19,10:19 AM,,,,0,0.0,0,59.52,59.494,59.508,13350,794430.84,87,,,59.5,59.51,,0.017474267346031625,atvi,20200106
2020-01-06,10:20,10:20 AM,59.51,59.44,59.492,200,11898.31,3,59.52,59.415,59.457,8673,515673.44,55,59.51,59.44,59.52,59.46,0.01685297234471673,0.01660226378962493,atvi,20200106
2020-01-06,10:21,10:21 AM,59.48,59.45,59.47,300,17841.0,3,59.495,59.425,59.467,7698,457776.81,42,59.45,59.48,59.46,59.49,0.01647694253580827,0.016773244879116397,atvi,20200106
2020-01-06,10:22,10:22 AM,59.52,59.49,59.514,1100,65466.0,8,59.52,59.47,59.494,6623,394031.57,41,59.49,59.49,59.49,59.5,0.017229002153625314,0.01723489382074347,atvi,20200106
2020-01-06,10:23,10:23 AM,59.52,59.52,59.52,115,6844.8,2,59.53,59.5,59.52,9003,535857.8416,53,59.52,59.52,59.52,59.5,0.017331555737873088,0.017679444653421434,atvi,20200106
2020-01-06,10:24,10:24 AM,59.5,59.5,59.5,200,11900.0,4,59.515,59.468,59.49,3500,208215.52,23,59.5,59.5,59.51,59.468,0.016989710457047138,0.01716650138494691,atvi,20200106
2020-01-06,10:25,10:25 AM,59.5,59.475,59.487,200,11897.5,2,59.52,59.47,59.505,3347,199163.03,21,59.475,59.5,59.475,59.5,0.016767511024510334,0.017422973019184173,atvi,20200106
2020-01-06,10:26,10:26 AM,59.515,59.505,59.51,200,11902.0,2,59.52,59.48,59.507,3418,203393.518,28,59.505,59.515,59.48,59.499,0.017160633097460052,0.017457169237082393,atvi,20200106
2020-01-06,10:27,10:27 AM,59.56,59.555,59.557,200,11911.5,2,59.57,59.5,59.533,16838,1002419.58,47,59.56,59.555,59.51,59.5,0.017963969507400982,0.017901720069760357,atvi,20200106
2020-01-06,10:28,10:28 AM,59.55,59.515,59.532,309,18395.33,5,59.56,59.51,59.54,3785,225357.9713,33,59.515,59.55,59.52,59.55,0.017536662906368513,0.01802140683240437,atvi,20200106
2020-01-06,10:29,10:29 AM,59.575,59.57,59.571,400,23828.5,4,59.59,59.54,59.563,8233,490383.5,32,59.575,59.57,59.54,59.565,0.01820326120397904,0.018414663338234882,atvi,20200106
2020-01-06,10:30,10:30 AM,59.515,59.48,59.503,445,26478.675,5,59.56,59.46,59.511,10675,635276.0576,75,59.515,59.48,59.56,59.48,0.017040987249171025,0.017525561672879077,atvi,20200106
2020-01-06,10:31,10:31 AM,59.5,59.5,59.5,100,5950.0,1,59.515,59.46,59.492,4000,237970.03,36,59.5,59.5,59.48,59.46,0.016989710457047138,0.01720069760284513,atvi,20200106
2020-01-06,10:32,10:32 AM,59.45,59.44,59.446,162,9630.28,2,59.46,59.415,59.438,5390,320368.7,37,59.44,59.45,59.46,59.415,0.016066728198817177,0.016277399719591103,atvi,20200106
2020-01-06,10:33,10:33 AM,59.445,59.42,59.432,300,17829.5,3,59.46,59.41,59.444,3287,195392.9897,29,59.42,59.445,59.41,59.446,0.01582743650223912,0.01637998837328601,atvi,20200106
2020-01-06,10:34,10:34 AM,59.475,59.475,59.475,100,5947.5,1,59.48,59.445,59.469,8644,514047.04,51,59.475,59.475,59.445,59.46,0.016562403856014787,0.01680744109701474,atvi,20200106
2020-01-06,10:35,10:35 AM,59.465,59.43,59.443,673,40005.39,6,59.5,59.425,59.455,5061,300899.48,42,59.43,59.45,59.425,59.435,0.01601545140669329,0.01656806757172659,atvi,20200106
2020-01-06,10:36,10:36 AM,59.445,59.395,59.441,108,6419.67,3,59.445,59.39,59.419,5366,318842.44,32,59.445,59.4,59.445,59.41,0.01598126687861078,0.01595253564955716,atvi,20200106
2020-01-06,10:37,10:37 AM,,,,0,0.0,0,59.46,59.43,59.449,2644,157184.289,19,,,59.43,59.45,,0.016465478918031684,atvi,20200106
2020-01-06,10:38,10:38 AM,59.51,59.51,59.51,100,5951.0,1,59.52,59.46,59.509,4398,261720.6136,24,59.51,59.51,59.46,59.5,0.017160633097460052,0.017491365454980735,atvi,20200106
2020-01-06,10:39,10:39 AM,,,,0,0.0,0,59.47,59.434,59.453,2686,159690.5286,24,,,59.47,59.46,,0.016533871353828368,atvi,20200106
2020-01-06,10:40,10:40 AM,59.51,59.51,59.51,100,5951.0,1,59.51,59.465,59.488,2693,160202.0,19,59.51,59.51,59.465,59.49,0.017160633097460052,0.017132305167048566,atvi,20200106
2020-01-06,10:41,10:41 AM,59.49,59.49,59.49,100,5949.0,1,59.53,59.485,59.51,3344,199002.1354,27,59.49,59.49,59.485,59.52,0.01681878781663422,0.017508463563929846,atvi,20200106
2020-01-06,10:42,10:42 AM,59.56,59.55,59.553,313,18640.15,4,59.58,59.515,59.529,18686,1112353.7191,64,59.55,59.56,59.515,59.58,0.01789560045123572,0.017833327633963794,atvi,20200106
2020-01-06,10:43,10:43 AM,59.57,59.57,59.57,100,5957.0,1,59.617,59.57,59.584,8577,511052.0084,68,59.57,59.57,59.58,59.61,0.018186168939937786,0.01877372362616705,atvi,20200106
2020-01-06,10:44,10:44 AM,,,,0,0.0,0,59.66,59.615,59.637,9014,537571.11,53,,,59.63,59.615,,0.019679923400471967,atvi,20200106
2020-01-06,10:45,10:45 AM,59.625,59.625,59.625,200,11925.0,1,59.67,59.62,59.649,4793,285899.5629,31,59.625,59.625,59.62,59.65,0.019126243462209,0.019885100707861775,atvi,20200106
2020-01-06,10:46,10:46 AM,59.675,59.65,59.663,200,11932.5,2,59.68,59.65,59.663,4138,246887.96,27,59.65,59.675,59.65,59.67,0.01977574949577815,0.02012447423314981,atvi,20200106
2020-01-06,10:47,10:47 AM,59.7,59.7,59.7,100,5970.0,1,59.74,59.66,59.7,4881,291394.9069,39,59.7,59.7,59.66,59.72,0.020408163265306166,0.02075710426426847,atvi,20200106
2020-01-06,10:48,10:48 AM,59.735,59.735,59.735,100,5973.5,1,59.75,59.72,59.74,6237,372597.2,42,59.735,59.735,59.74,59.75,0.02100639250675143,0.021441028622234466,atvi,20200106
2020-01-06,10:49,10:49 AM,59.73,59.73,59.73,100,5973.0,1,59.755,59.72,59.73,4307,257258.62,27,59.73,59.73,59.75,59.72,0.02092093118654491,0.021270047532742874,atvi,20200106
2020-01-06,10:50,10:50 AM,59.74,59.74,59.74,100,5974.0,1,59.76,59.715,59.734,24487,1462706.8538,72,59.74,59.74,59.715,59.76,0.021091853826957947,0.021338439968539562,atvi,20200106
2020-01-06,10:51,10:51 AM,59.765,59.765,59.765,100,5976.5,1,59.765,59.73,59.753,4097,244807.11,30,59.765,59.765,59.76,59.73,0.0215191604279903,0.021663304038573385,atvi,20200106
2020-01-06,10:52,10:52 AM,59.725,59.725,59.725,100,5972.5,1,59.76,59.7,59.722,7644,456517.202,46,59.725,59.725,59.758,59.72,0.020835469866338517,0.02113326266114975,atvi,20200106
2020-01-06,10:53,10:53 AM,59.67,59.665,59.667,200,11933.5,2,59.7,59.65,59.671,3649,217740.09,30,59.67,59.665,59.7,59.65,0.019844118551943412,0.020261259104743055,atvi,20200106
2020-01-06,10:54,10:54 AM,59.67,59.67,59.67,8,477.36,1,59.685,59.66,59.671,4100,244652.0,20,59.67,59.67,59.66,59.66,0.0198953953440673,0.020261259104743055,atvi,20200106
2020-01-06,10:55,10:55 AM,59.67,59.65,59.669,105,6265.25,2,59.675,59.645,59.66,9121,544158.85,41,59.65,59.67,59.665,59.66,0.019878303080025923,0.020073179906302356,atvi,20200106
2020-01-06,10:56,10:56 AM,59.615,59.59,59.598,300,17879.5,3,59.665,59.58,59.606,13157,784233.2675,62,59.615,59.59,59.665,59.58,0.01866475233309402,0.01914988202304833,atvi,20200106
2020-01-06,10:57,10:57 AM,,,,0,0.0,0,59.61,59.58,59.593,4172,248620.12,27,,,59.59,59.6,,0.018927606606709408,atvi,20200106
2020-01-06,10:58,10:58 AM,59.58,59.58,59.58,3,178.74,1,59.61,59.56,59.581,4500,268114.86,38,59.58,59.58,59.6,59.57,0.0183570915803507,0.0187224292993196,atvi,20200106
2020-01-06,10:59,10:59 AM,59.57,59.525,59.535,503,29946.21,7,59.57,59.52,59.544,11829,704347.44,83,59.57,59.53,59.57,59.521,0.0175879396984924,0.018089799268200934,atvi,20200106
2020-01-06,11:00,11 AM,59.54,59.51,59.525,400,23810.0,4,59.549,59.51,59.532,9821,584666.395,63,59.53,59.51,59.53,59.512,0.017417017058079486,0.017884621960811125,atvi,20200106
2020-01-06,11:01,11:01 AM,59.53,59.52,59.53,303,18037.56,4,59.56,59.495,59.525,8835,525900.549,57,59.52,59.53,59.52,59.56,0.017502478378286,0.01776493519816711,atvi,20200106
2020-01-06,11:02,11:02 AM,59.555,59.53,59.542,200,11908.5,2,59.57,59.53,59.549,6078,361940.86,38,59.555,59.53,59.57,59.55,0.01770758554678155,0.01817528981294673,atvi,20200106
2020-01-06,11:03,11:03 AM,,,,0,0.0,0,59.58,59.545,59.568,4788,285213.46,36,,,59.55,59.57,,0.018500153882980555,atvi,20200106
2020-01-06,11:04,11:04 AM,,,,0,0.0,0,59.62,59.56,59.59,4391,261659.29,31,,,59.56,59.605,,0.018876312279861956,atvi,20200106
2020-01-06,11:05,11:05 AM,59.58,59.57,59.575,199,11855.42,2,59.61,59.57,59.585,2836,168983.38,27,59.57,59.58,59.61,59.57,0.018271630260144302,0.01879082173511616,atvi,20200106
2020-01-06,11:06,11:06 AM,59.575,59.56,59.568,2,119.135,2,59.58,59.545,59.563,2907,173148.65,27,59.56,59.575,59.56,59.58,0.018151984411855154,0.018414663338234882,atvi,20200106
2020-01-06,11:07,11:07 AM,,,,0,0.0,0,59.59,59.565,59.581,2000,119162.5,19,,,59.59,59.57,,0.0187224292993196,atvi,20200106
2020-01-06,11:08,11:08 AM,59.55,59.525,59.537,201,11967.025,3,59.56,59.525,59.54,2625,156293.645,22,59.55,59.525,59.56,59.527,0.017622124226575032,0.01802140683240437,atvi,20200106
2020-01-06,11:09,11:09 AM,59.525,59.515,59.52,200,11904.0,2,59.535,59.5,59.519,5203,309677.585,32,59.525,59.515,59.52,59.51,0.017331555737873088,0.017662346544472202,atvi,20200106
2020-01-06,11:10,11:10 AM,59.53,59.53,59.53,100,5953.0,1,59.53,59.5,59.515,3290,195805.3776,29,59.53,59.53,59.53,59.5,0.017502478378286,0.01759395410867564,atvi,20200106
2020-01-06,11:11,11:11 AM,59.515,59.465,59.497,500,29748.5,5,59.515,59.465,59.497,24196,1439599.34,193,59.495,59.465,59.505,59.505,0.01693843366492325,0.017286188147590927,atvi,20200106
2020-01-06,11:12,11:12 AM,59.51,59.495,59.496,223,13267.73,4,59.51,59.495,59.501,8639,514029.214,69,59.51,59.495,59.505,59.505,0.016921341400881994,0.01735458058338749,atvi,20200106
2020-01-06,11:13,11:13 AM,59.5,59.485,59.489,138,8209.5,2,59.505,59.485,59.494,3731,221973.55,26,59.5,59.485,59.505,59.495,0.016801695552592845,0.01723489382074347,atvi,20200106
2020-01-06,11:14,11:14 AM,59.485,59.485,59.485,100,5948.5,1,59.51,59.485,59.498,4499,267680.53,39,59.485,59.485,59.5,59.5,0.016733326496427704,0.017303286256540037,atvi,20200106
2020-01-06,11:15,11:15 AM,59.495,59.48,59.487,204,12135.45,4,59.5,59.47,59.483,9175,545757.575,60,59.495,59.48,59.5,59.47,0.016767511024510334,0.017046814622302772,atvi,20200106
2020-01-06,11:16,11:16 AM,59.475,59.475,59.475,2,118.95,1,59.51,59.47,59.49,5002,297569.46,42,59.475,59.475,59.47,59.49,0.016562403856014787,0.01716650138494691,atvi,20200106
2020-01-06,11:17,11:17 AM,59.51,59.51,59.51,101,6010.51,2,59.54,59.5,59.515,2426,144384.32,19,59.51,59.51,59.5,59.54,0.017160633097460052,0.01759395410867564,atvi,20200106
2020-01-06,11:18,11:18 AM,59.525,59.52,59.52,113,6725.775,5,59.54,59.51,59.527,2060,122625.3,18,59.52,59.525,59.535,59.53,0.017331555737873088,0.017799131416065452,atvi,20200106
2020-01-06,11:19,11:19 AM,59.535,59.535,59.535,3,178.605,1,59.54,59.505,59.522,3600,214279.5,32,59.535,59.535,59.54,59.505,0.0175879396984924,0.017713640871319655,atvi,20200106
2020-01-06,11:20,11:20 AM,59.495,59.49,59.491,364,21654.86,5,59.507,59.48,59.494,2765,164500.165,22,59.49,59.495,59.507,59.495,0.016835880080675478,0.01723489382074347,atvi,20200106
2020-01-06,11:21,11:21 AM,59.54,59.505,59.511,106,6308.205,3,59.56,59.5,59.524,5700,339286.0,49,59.505,59.54,59.5,59.51,0.017177725361501427,0.017747837089218,atvi,20200106
2020-01-06,11:22,11:22 AM,59.515,59.515,59.515,100,5951.5,1,59.53,59.5,59.519,2400,142844.79,21,59.515,59.515,59.515,59.529,0.01724609441766657,0.017662346544472202,atvi,20200106
2020-01-06,11:23,11:23 AM,59.51,59.51,59.51,300,17853.0,2,59.535,59.51,59.524,3947,234940.82,29,59.51,59.51,59.52,59.51,0.017160633097460052,0.017747837089218,atvi,20200106
2020-01-06,11:24,11:24 AM,,,,0,0.0,0,59.54,59.5,59.515,3201,190506.52,27,,,59.505,59.5,,0.01759395410867564,atvi,20200106
2020-01-06,11:25,11:25 AM,59.54,59.53,59.533,141,8394.14,2,59.54,59.495,59.518,5647,336100.1385,39,59.54,59.53,59.5,59.495,0.01755375517040989,0.017645248435523092,atvi,20200106
2020-01-06,11:26,11:26 AM,59.505,59.505,59.505,100,5950.5,1,59.505,59.49,59.495,4600,273676.59,18,59.505,59.505,59.495,59.505,0.017075171777253654,0.01725199192969258,atvi,20200106
2020-01-06,11:27,11:27 AM,59.495,59.485,59.49,200,11898.0,2,59.52,59.485,59.506,4959,295090.7204,42,59.485,59.495,59.503,59.515,0.01681878781663422,0.017440071128133283,atvi,20200106
2020-01-06,11:28,11:28 AM,59.545,59.53,59.54,405,24113.7,5,59.551,59.51,59.534,3353,199617.253,30,59.53,59.545,59.52,59.546,0.01767340101869892,0.017918818178709467,atvi,20200106
2020-01-06,11:29,11:29 AM,,,,0,0.0,0,59.55,59.51,59.536,2269,135087.36,21,,,59.54,59.51,,0.01795301439660781,atvi,20200106
2020-01-06,11:30,11:30 AM,59.545,59.525,59.537,500,29768.5,5,59.55,59.52,59.533,3195,190207.48,28,59.525,59.535,59.52,59.535,0.017622124226575032,0.017901720069760357,atvi,20200106
2020-01-06,11:31,11:31 AM,59.54,59.525,59.526,973,57919.325,7,59.545,59.52,59.528,6508,387410.14,51,59.525,59.525,59.53,59.525,0.01743410932212086,0.017816229525014562,atvi,20200106
2020-01-06,11:32,11:32 AM,59.52,59.505,59.505,304,18089.58,3,59.52,59.5,59.514,2867,170626.005,26,59.52,59.505,59.52,59.52,0.017075171777253654,0.01757685599972653,atvi,20200106
2020-01-06,11:33,11:33 AM,59.545,59.515,59.535,709,42210.27,9,59.55,59.51,59.533,8582,510915.57,64,59.515,59.53,59.52,59.54,0.0175879396984924,0.017901720069760357,atvi,20200106
2020-01-06,11:34,11:34 AM,59.57,59.56,59.565,200,11913.0,2,59.58,59.54,59.563,8779,522900.69,62,59.57,59.56,59.55,59.57,0.018100707619731267,0.018414663338234882,atvi,20200106
2020-01-06,11:35,11:35 AM,59.62,59.57,59.618,5900,351748.5,5,59.65,59.57,59.611,12435,741257.3516,47,59.575,59.62,59.57,59.63,0.01900659761391997,0.019235372567794003,atvi,20200106
2020-01-06,11:36,11:36 AM,59.63,59.63,59.63,100,5963.0,1,59.66,59.62,59.641,7771,463471.457,55,59.63,59.63,59.63,59.62,0.019211704782415517,0.01974831583626853,atvi,20200106
2020-01-06,11:37,11:37 AM,59.63,59.63,59.63,100,5963.0,1,59.63,59.605,59.614,2750,163939.15,14,59.63,59.63,59.625,59.63,0.019211704782415517,0.019286666894641456,atvi,20200106
2020-01-06,11:38,11:38 AM,59.635,59.635,59.635,100,5963.5,1,59.635,59.63,59.631,2705,161303.095,14,59.635,59.635,59.63,59.632,0.019297166102621915,0.019577334746777062,atvi,20200106
2020-01-06,11:39,11:39 AM,59.59,59.59,59.59,13,774.67,2,59.602,59.545,59.583,3081,183574.8044,12,59.59,59.59,59.602,59.545,0.018528014220763736,0.01875662551721782,atvi,20200106
2020-01-06,11:40,11:40 AM,59.55,59.52,59.525,402,23929.1,4,59.55,59.51,59.528,3800,226207.75,29,59.55,59.52,59.54,59.52,0.017417017058079486,0.017816229525014562,atvi,20200106
2020-01-06,11:41,11:41 AM,59.53,59.525,59.526,833,49585.49,4,59.55,59.525,59.535,4460,265525.49,27,59.53,59.525,59.525,59.55,0.01743410932212086,0.017935916287658577,atvi,20200106
2020-01-06,11:42,11:42 AM,,,,0,0.0,0,59.555,59.55,59.552,1090,64911.58,4,,,59.555,59.552,,0.018226584139794184,atvi,20200106
2020-01-06,11:43,11:43 AM,59.57,59.555,59.561,217,12924.675,5,59.58,59.552,59.569,17343,1033096.83,48,59.565,59.555,59.56,59.555,0.018032338563566126,0.018517251991929787,atvi,20200106
2020-01-06,11:44,11:44 AM,59.55,59.525,59.538,4,238.15,3,59.57,59.515,59.541,2300,136944.0,17,59.55,59.525,59.56,59.52,0.017639216490616286,0.01803850494135348,atvi,20200106
2020-01-06,11:45,11:45 AM,59.515,59.51,59.513,200,11902.5,3,59.53,59.51,59.517,2637,156947.49,23,59.515,59.51,59.515,59.51,0.01721190988958394,0.017628150326573982,atvi,20200106
2020-01-06,11:46,11:46 AM,,,,0,0.0,0,59.55,59.515,59.535,1145,68167.575,11,,,59.515,59.54,,0.017935916287658577,atvi,20200106
2020-01-06,11:47,11:47 AM,59.53,59.53,59.53,100,5953.0,1,59.545,59.515,59.53,2607,155195.815,23,59.53,59.53,59.53,59.53,0.017502478378286,0.017850425742912904,atvi,20200106
2020-01-06,11:48,11:48 AM,59.535,59.535,59.535,100,5953.5,1,59.54,59.517,59.53,3230,192282.4516,22,59.535,59.535,59.53,59.52,0.0175879396984924,0.017850425742912904,atvi,20200106
2020-01-06,11:49,11:49 AM,59.53,59.53,59.53,101,6012.53,2,59.541,59.517,59.53,4918,292768.69,41,59.53,59.53,59.52,59.53,0.017502478378286,0.017850425742912904,atvi,20200106
2020-01-06,11:50,11:50 AM,59.545,59.505,59.525,242,14404.935,5,59.55,59.5,59.53,1809,107690.35,16,59.545,59.505,59.54,59.5,0.017417017058079486,0.017850425742912904,atvi,20200106
2020-01-06,11:51,11:51 AM,59.49,59.47,59.483,303,18023.47,5,59.5,59.46,59.484,6249,371717.315,51,59.49,59.49,59.49,59.495,0.01669914196834507,0.017063912731252004,atvi,20200106
2020-01-06,11:52,11:52 AM,59.515,59.515,59.515,3,178.545,1,59.53,59.48,59.504,6012,357736.3364,40,59.515,59.515,59.5,59.51,0.01724609441766657,0.01740587491023494,atvi,20200106
2020-01-06,11:53,11:53 AM,59.535,59.535,59.535,130,7739.55,3,59.57,59.5,59.53,2625,156267.0425,21,59.535,59.535,59.5,59.57,0.0175879396984924,0.017850425742912904,atvi,20200106
2020-01-06,11:54,11:54 AM,,,,0,0.0,0,59.574,59.56,59.57,4207,250611.618,12,,,59.572,59.56,,0.018534350100878897,atvi,20200106
2020-01-06,11:55,11:55 AM,59.585,59.585,59.585,127,7567.295,3,59.585,59.56,59.571,3716,221367.01,28,59.585,59.585,59.56,59.58,0.01844255290055722,0.018551448209828007,atvi,20200106
2020-01-06,11:56,11:56 AM,,,,0,0.0,0,59.6,59.57,59.587,1899,113155.41,16,,,59.585,59.57,,0.018825017953014504,atvi,20200106
2020-01-06,11:57,11:57 AM,,,,0,0.0,0,59.57,59.56,59.563,1000,59562.9,4,,,59.57,59.562,,0.018414663338234882,atvi,20200106
2020-01-06,11:58,11:58 AM,,,,0,0.0,0,59.6,59.562,59.588,5338,318080.4773,29,,,59.562,59.58,,0.018842116061963614,atvi,20200106
2020-01-06,11:59,11:59 AM,59.585,59.56,59.576,401,23890.06,5,59.592,59.555,59.577,10060,599340.0971,28,59.57,59.56,59.57,59.555,0.01828872252418556,0.018654036863522915,atvi,20200106
2020-01-06,12:00,12 PM,59.545,59.545,59.545,100,5954.5,1,59.555,59.53,59.545,2560,152436.0,12,59.545,59.545,59.555,59.55,0.017758862338905435,0.018106897377150166,atvi,20200106
2020-01-06,12:01,12:01 PM,,,,0,0.0,0,59.55,59.515,59.54,5492,326996.18,15,,,59.55,59.52,,0.01802140683240437,atvi,20200106
2020-01-06,12:02,12:02 PM,,,,0,0.0,0,59.54,59.5,59.516,4480,266632.3504,16,,,59.52,59.505,,0.01761105221762475,atvi,20200106
2020-01-06,12:03,12:03 PM,59.515,59.515,59.515,100,5951.5,1,59.54,59.513,59.521,4011,238737.62,21,59.515,59.515,59.513,59.54,0.01724609441766657,0.017696542762370544,atvi,20200106
2020-01-06,12:04,12:04 PM,59.54,59.53,59.533,300,17860.0,3,59.55,59.53,59.537,2800,166702.5,23,59.54,59.53,59.55,59.53,0.01755375517040989,0.01797011250555692,atvi,20200106
2020-01-06,12:05,12:05 PM,59.55,59.54,59.549,111,6609.94,3,59.55,59.54,59.543,1000,59543.0,9,59.55,59.54,59.54,59.54,0.01782723139507058,0.018072701159251824,atvi,20200106
2020-01-06,12:06,12:06 PM,,,,0,0.0,0,59.54,59.505,59.518,2756,164030.89,19,,,59.54,59.51,,0.017645248435523092,atvi,20200106
2020-01-06,12:07,12:07 PM,,,,0,0.0,0,59.51,59.5,59.507,3374,200777.7548,24,,,59.51,59.508,,0.017457169237082393,atvi,20200106
2020-01-06,12:08,12:08 PM,,,,0,0.0,0,59.53,59.51,59.52,2727,162310.13,24,,,59.51,59.53,,0.017679444653421434,atvi,20200106
2020-01-06,12:09,12:09 PM,59.525,59.525,59.525,100,5952.5,1,59.538,59.52,59.528,4195,249720.64,16,59.525,59.525,59.53,59.538,0.017417017058079486,0.017816229525014562,atvi,20200106
2020-01-06,12:10,12:10 PM,59.54,59.525,59.536,400,23814.5,5,59.54,59.525,59.537,1110,66085.8,10,59.54,59.525,59.54,59.54,0.017605031962533775,0.01797011250555692,atvi,20200106
2020-01-06,12:11,12:11 PM,59.555,59.53,59.542,200,11908.5,2,59.555,59.53,59.54,2322,138251.841,20,59.555,59.53,59.53,59.53,0.01770758554678155,0.01802140683240437,atvi,20200106
2020-01-06,12:12,12:12 PM,,,,0,0.0,0,59.53,59.48,59.502,4049,240924.0,20,,,59.53,59.48,,0.01737167869233672,atvi,20200106
2020-01-06,12:13,12:13 PM,,,,0,0.0,0,59.48,59.44,59.452,7747,460575.8077,47,,,59.48,59.46,,0.016516773244879136,atvi,20200106
2020-01-06,12:14,12:14 PM,59.44,59.44,59.44,200,11888.0,2,59.465,59.44,59.453,2212,131511.0855,21,59.44,59.44,59.465,59.44,0.015964174614569403,0.016533871353828368,atvi,20200106
2020-01-06,12:15,12:15 PM,,,,0,0.0,0,59.465,59.44,59.45,8433,501343.9812,31,,,59.44,59.457,,0.016482577026980916,atvi,20200106
2020-01-06,12:16,12:16 PM,59.465,59.465,59.465,100,5946.5,1,59.476,59.46,59.467,6388,379878.024,20,59.465,59.465,59.46,59.469,0.016391481215601873,0.016773244879116397,atvi,20200106
2020-01-06,12:17,12:17 PM,59.44,59.44,59.44,100,5944.0,1,59.47,59.435,59.453,2522,149939.3995,20,59.44,59.44,59.47,59.455,0.015964174614569403,0.016533871353828368,atvi,20200106
2020-01-06,12:18,12:18 PM,,,,0,0.0,0,59.46,59.44,59.457,1665,98995.3225,14,,,59.455,59.445,,0.01660226378962493,atvi,20200106
2020-01-06,12:19,12:19 PM,,,,0,0.0,0,59.45,59.44,59.448,2200,130785.0,21,,,59.44,59.45,,0.016448380809082574,atvi,20200106
2020-01-06,12:20,12:20 PM,59.47,59.455,59.456,110,6540.2,2,59.46,59.44,59.45,5275,313599.1355,34,59.455,59.47,59.445,59.44,0.016237650839230212,0.016482577026980916,atvi,20200106
2020-01-06,12:21,12:21 PM,59.465,59.465,59.465,100,5946.5,1,59.48,59.45,59.465,2700,160554.5,26,59.465,59.465,59.45,59.46,0.016391481215601873,0.016739048661218177,atvi,20200106
2020-01-06,12:22,12:22 PM,59.48,59.47,59.48,101,6007.47,2,59.5,59.46,59.477,4929,293163.106,34,59.47,59.48,59.46,59.49,0.016647865176221185,0.016944225968607868,atvi,20200106
2020-01-06,12:23,12:23 PM,,,,0,0.0,0,59.495,59.48,59.487,2841,169004.2594,17,,,59.49,59.485,,0.017115207058099456,atvi,20200106
2020-01-06,12:24,12:24 PM,,,,0,0.0,0,59.5,59.49,59.491,836,49734.6064,4,,,59.5,59.49,,0.01718359949389602,atvi,20200106
2020-01-06,12:25,12:25 PM,,,,0,0.0,0,59.491,59.48,59.489,1983,117965.94,14,,,59.485,59.485,,0.017149403275997677,atvi,20200106
2020-01-06,12:26,12:26 PM,59.505,59.495,59.5,200,11900.0,2,59.52,59.485,59.501,5388,320591.4255,37,59.495,59.505,59.49,59.515,0.016989710457047138,0.01735458058338749,atvi,20200106
2020-01-06,12:27,12:27 PM,,,,0,0.0,0,59.52,59.505,59.513,3595,213948.3086,18,,,59.52,59.512,,0.017559757890777298,atvi,20200106
2020-01-06,12:28,12:28 PM,59.495,59.495,59.495,6,356.97,1,59.513,59.495,59.506,4616,274678.86,26,59.495,59.495,59.51,59.51,0.01690424913684062,0.017440071128133283,atvi,20200106
2020-01-06,12:29,12:29 PM,59.53,59.53,59.53,100,5953.0,1,59.575,59.525,59.549,2800,166737.5,20,59.53,59.53,59.525,59.57,0.017502478378286,0.01817528981294673,atvi,20200106
2020-01-06,12:30,12:30 PM,59.575,59.56,59.568,300,17870.5,3,59.58,59.555,59.568,3292,196099.4176,24,59.57,59.575,59.575,59.58,0.018151984411855154,0.018500153882980555,atvi,20200106
2020-01-06,12:31,12:31 PM,59.58,59.545,59.57,580,34550.84,10,59.58,59.545,59.562,2200,131037.43,19,59.575,59.55,59.575,59.55,0.018186168939937786,0.01839756522928565,atvi,20200106
2020-01-06,12:32,12:32 PM,59.58,59.55,59.561,401,23883.82,6,59.58,59.55,59.571,2595,154587.1,20,59.55,59.58,59.55,59.58,0.018032338563566126,0.018551448209828007,atvi,20200106
2020-01-06,12:33,12:33 PM,59.58,59.56,59.57,203,12092.68,3,59.585,59.55,59.569,1741,103710.2694,14,59.58,59.56,59.585,59.55,0.018186168939937786,0.018517251991929787,atvi,20200106
2020-01-06,12:34,12:34 PM,59.55,59.55,59.55,100,5955.0,1,59.56,59.545,59.55,1496,89086.3,13,59.55,59.55,59.55,59.555,0.017844323659111833,0.018192387921895842,atvi,20200106
2020-01-06,12:35,12:35 PM,,,,0,0.0,0,59.55,59.525,59.537,2700,160750.82,17,,,59.55,59.532,,0.01797011250555692,atvi,20200106
2020-01-06,12:36,12:36 PM,,,,0,0.0,0,59.55,59.53,59.536,1808,107642.0824,7,,,59.535,59.55,,0.01795301439660781,atvi,20200106
2020-01-06,12:37,12:37 PM,59.555,59.555,59.555,100,5955.5,1,59.59,59.555,59.57,4798,285815.58,37,59.555,59.555,59.56,59.565,0.017929784979318353,0.018534350100878897,atvi,20200106
2020-01-06,12:38,12:38 PM,59.585,59.585,59.585,100,5958.5,1,59.585,59.565,59.574,3500,208508.8,14,59.585,59.585,59.57,59.57,0.01844255290055722,0.01860274253667546,atvi,20200106
2020-01-06,12:39,12:39 PM,,,,0,0.0,0,59.57,59.56,59.567,4917,292892.4505,23,,,59.566,59.56,,0.018483055774031445,atvi,20200106
2020-01-06,12:40,12:40 PM,59.575,59.575,59.575,100,5957.5,1,59.575,59.56,59.565,1348,80293.1009,8,59.575,59.575,59.566,59.568,0.018271630260144302,0.018448859556133103,atvi,20200106
2020-01-06,12:41,12:41 PM,,,,0,0.0,0,59.58,59.565,59.574,1000,59573.5,8,,,59.575,59.57,,0.01860274253667546,atvi,20200106
2020-01-06,12:42,12:42 PM,59.615,59.58,59.607,415,24736.84,10,59.615,59.58,59.597,6264,373316.7,39,59.58,59.59,59.58,59.585,0.01881858270946568,0.01899599904250597,atvi,20200106
2020-01-06,12:43,12:43 PM,,,,0,0.0,0,59.6,59.585,59.596,700,41717.0,5,,,59.593,59.585,,0.01897890093355674,atvi,20200106
2020-01-06,12:44,12:44 PM,,,,0,0.0,0,59.61,59.58,59.594,1738,103575.36,13,,,59.58,59.59,,0.01894470471565852,atvi,20200106
2020-01-06,12:45,12:45 PM,59.58,59.555,59.566,209,12449.22,5,59.59,59.55,59.574,7122,424282.858,32,59.58,59.555,59.59,59.55,0.018117799883772642,0.01860274253667546,atvi,20200106
2020-01-06,12:46,12:46 PM,59.58,59.58,59.58,1,59.58,1,59.587,59.56,59.568,2100,125093.25,20,59.58,59.58,59.56,59.585,0.0183570915803507,0.018500153882980555,atvi,20200106
2020-01-06,12:47,12:47 PM,59.57,59.57,59.57,6,357.42,2,59.585,59.57,59.58,1900,113201.5,17,59.57,59.57,59.58,59.57,0.018186168939937786,0.018705331190370367,atvi,20200106
2020-01-06,12:48,12:48 PM,,,,0,0.0,0,59.57,59.56,59.565,2515,149805.1,16,,,59.57,59.57,,0.018448859556133103,atvi,20200106
2020-01-06,12:49,12:49 PM,59.57,59.57,59.57,100,5957.0,1,59.58,59.56,59.567,1104,65761.74,10,59.57,59.57,59.57,59.56,0.018186168939937786,0.018483055774031445,atvi,20200106
2020-01-06,12:50,12:50 PM,59.575,59.575,59.575,3,178.725,1,59.58,59.56,59.568,653,38898.18,5,59.575,59.575,59.56,59.575,0.018271630260144302,0.018500153882980555,atvi,20200106
2020-01-06,12:51,12:51 PM,59.555,59.555,59.555,2,119.11,1,59.575,59.55,59.563,1400,83388.0,8,59.555,59.555,59.575,59.557,0.017929784979318353,0.018414663338234882,atvi,20200106
2020-01-06,12:52,12:52 PM,59.57,59.56,59.561,15,893.41,2,59.58,59.559,59.57,3025,180200.725,26,59.56,59.57,59.559,59.57,0.018032338563566126,0.018534350100878897,atvi,20200106
2020-01-06,12:53,12:53 PM,59.59,59.57,59.589,153,9117.13,4,59.59,59.57,59.584,4876,290533.285,26,59.57,59.59,59.57,59.59,0.01851092195672236,0.01877372362616705,atvi,20200106
2020-01-06,12:54,12:54 PM,59.57,59.57,59.57,10,595.7,2,59.625,59.57,59.595,5093,303518.91,36,59.57,59.57,59.58,59.62,0.018186168939937786,0.01896180282460763,atvi,20200106
2020-01-06,12:55,12:55 PM,59.615,59.615,59.615,100,5961.5,1,59.65,59.615,59.633,3992,238054.73,27,59.615,59.615,59.615,59.64,0.018955320821796084,0.019611530964675404,atvi,20200106
2020-01-06,12:56,12:56 PM,,,,0,0.0,0,59.64,59.63,59.633,600,35779.5,6,,,59.64,59.635,,0.019611530964675404,atvi,20200106
2020-01-06,12:57,12:57 PM,,,,0,0.0,0,59.655,59.63,59.645,3065,182813.47,26,,,59.635,59.65,,0.019816708272065213,atvi,20200106
2020-01-06,12:58,12:58 PM,59.68,59.67,59.677,138,8235.46,2,59.68,59.66,59.673,2072,123642.88,16,59.67,59.68,59.66,59.67,0.02001504119235633,0.020295455322641397,atvi,20200106
2020-01-06,12:59,12:59 PM,,,,0,0.0,0,59.695,59.665,59.678,1803,107599.8833,15,,,59.675,59.69,,0.02038094586738707,atvi,20200106
2020-01-06,13:00,1 PM,59.65,59.65,59.65,3,178.95,1,59.67,59.635,59.655,3000,178965.0,22,59.65,59.65,59.67,59.66,0.01955355006324135,0.019987689361556683,atvi,20200106
2020-01-06,13:01,1:01 PM,59.685,59.655,59.656,104,6204.225,3,59.69,59.655,59.673,2600,155149.73,16,59.655,59.68,59.655,59.68,0.019656103647489123,0.020295455322641397,atvi,20200106
2020-01-06,13:02,1:02 PM,59.67,59.67,59.67,1,59.67,1,59.685,59.66,59.676,4515,269439.2468,33,59.67,59.67,59.68,59.66,0.0198953953440673,0.02034674964948885,atvi,20200106
2020-01-06,13:03,1:03 PM,59.67,59.66,59.665,202,12052.32,3,59.68,59.66,59.67,1500,89504.77,13,59.66,59.67,59.66,59.67,0.019809934023860783,0.020244160995793944,atvi,20200106
2020-01-06,13:04,1:04 PM,59.68,59.68,59.68,12,716.16,1,59.68,59.665,59.675,3054,182246.985,20,59.68,59.68,59.67,59.68,0.020066317984480216,0.020329651540539617,atvi,20200106
2020-01-06,13:05,1:05 PM,59.68,59.67,59.67,201,11993.68,3,59.685,59.67,59.676,4600,274507.78,39,59.67,59.68,59.673,59.68,0.0198953953440673,0.02034674964948885,atvi,20200106
2020-01-06,13:06,1:06 PM,59.7,59.7,59.7,100,5970.0,1,59.715,59.67,59.699,6288,375386.46,48,59.7,59.7,59.68,59.7,0.020408163265306166,0.02074000615531924,atvi,20200106
2020-01-06,13:07,1:07 PM,,,,0,0.0,0,59.73,59.71,59.717,4180,249615.424,32,,,59.71,59.73,,0.021047772116403955,atvi,20200106
2020-01-06,13:08,1:08 PM,,,,0,0.0,0,59.74,59.715,59.73,1300,77649.77,10,,,59.72,59.735,,0.021270047532742874,atvi,20200106
2020-01-06,13:09,1:09 PM,59.715,59.705,59.705,104,6209.35,4,59.73,59.7,59.713,2255,134653.2611,20,59.715,59.705,59.73,59.71,0.020493624585512564,0.020979379680607393,atvi,20200106
2020-01-06,13:10,1:10 PM,59.71,59.705,59.708,200,11941.5,2,59.73,59.705,59.717,2558,152755.97,19,59.705,59.71,59.705,59.73,0.02054490137763645,0.021047772116403955,atvi,20200106
2020-01-06,13:11,1:11 PM,59.73,59.73,59.73,100,5973.0,1,59.74,59.72,59.73,1054,62955.92,8,59.73,59.73,59.73,59.725,0.02092093118654491,0.021270047532742874,atvi,20200106
2020-01-06,13:12,1:12 PM,59.715,59.715,59.715,6,358.29,1,59.725,59.7,59.712,2542,151788.9946,16,59.715,59.715,59.725,59.705,0.0206645472259256,0.020962281571658282,atvi,20200106
2020-01-06,13:13,1:13 PM,59.715,59.715,59.715,100,5971.5,1,59.735,59.708,59.722,4000,238888.75,33,59.715,59.715,59.708,59.735,0.0206645472259256,0.02113326266114975,atvi,20200106
2020-01-06,13:14,1:14 PM,59.73,59.72,59.725,4,238.9,3,59.74,59.71,59.734,6070,362586.8324,37,59.73,59.72,59.735,59.73,0.020835469866338517,0.021338439968539562,atvi,20200106
2020-01-06,13:15,1:15 PM,59.72,59.715,59.717,10,597.165,3,59.74,59.71,59.721,3300,197081.2,22,59.72,59.715,59.724,59.725,0.02069873175400811,0.021116164552200518,atvi,20200106
2020-01-06,13:16,1:16 PM,,,,0,0.0,0,59.737,59.725,59.73,2765,165154.171,17,,,59.725,59.735,,0.021270047532742874,atvi,20200106
2020-01-06,13:17,1:17 PM,59.75,59.735,59.749,108,6452.88,3,59.755,59.73,59.748,8629,515564.168,41,59.75,59.735,59.731,59.73,0.021245684203329607,0.02157781349382759,atvi,20200106
2020-01-06,13:18,1:18 PM,,,,0,0.0,0,59.74,59.725,59.731,3200,191140.5,25,,,59.73,59.735,,0.021287145641692106,atvi,20200106
2020-01-06,13:19,1:19 PM,59.72,59.72,59.72,2,119.44,1,59.73,59.72,59.725,2970,177383.995,18,59.72,59.72,59.73,59.72,0.020750008546131998,0.0211845569879972,atvi,20200106
2020-01-06,13:20,1:20 PM,59.755,59.755,59.755,100,5975.5,1,59.76,59.71,59.744,2706,161668.06,22,59.755,59.755,59.71,59.755,0.02134823778757738,0.02150942105803103,atvi,20200106
2020-01-06,13:21,1:21 PM,59.745,59.73,59.739,107,6392.125,4,59.755,59.725,59.738,2400,143371.0,18,59.745,59.73,59.755,59.73,0.021074761562916572,0.021406832404336124,atvi,20200106
2020-01-06,13:22,1:22 PM,,,,0,0.0,0,59.735,59.725,59.729,1400,83620.62,12,,,59.73,59.73,,0.021252949423793764,atvi,20200106
2020-01-06,13:23,1:23 PM,59.715,59.715,59.715,106,6329.79,3,59.745,59.7,59.724,4583,273715.5942,31,59.715,59.715,59.73,59.7,0.0206645472259256,0.02116745887904797,atvi,20200106
2020-01-06,13:24,1:24 PM,59.71,59.71,59.71,5,298.55,2,59.715,59.697,59.705,1072,64003.57,10,59.71,59.71,59.7,59.7,0.020579085905719083,0.020842594809014143,atvi,20200106
2020-01-06,13:25,1:25 PM,59.705,59.705,59.705,9,537.345,2,59.72,59.7,59.71,1365,81503.975,10,59.705,59.705,59.7,59.71,0.020493624585512564,0.02092808535375994,atvi,20200106
2020-01-06,13:26,1:26 PM,59.7,59.7,59.7,1,59.7,1,59.725,59.693,59.713,4835,288710.485,40,59.7,59.7,59.705,59.71,0.020408163265306166,0.020979379680607393,atvi,20200106
2020-01-06,13:27,1:27 PM,59.71,59.7,59.7,103,6149.13,2,59.72,59.695,59.706,4020,240016.3344,31,59.71,59.7,59.715,59.7,0.020408163265306166,0.020859692917963378,atvi,20200106
2020-01-06,13:28,1:28 PM,59.745,59.715,59.719,410,24484.93,4,59.75,59.7,59.731,6765,404077.89,37,59.715,59.745,59.7,59.75,0.020732916282090744,0.021287145641692106,atvi,20200106
2020-01-06,13:29,1:29 PM,59.75,59.75,59.75,5,298.75,2,59.77,59.75,59.759,4851,289891.7,32,59.75,59.75,59.75,59.755,0.021262776467370865,0.021765892692268293,atvi,20200106
2020-01-06,13:30,1:30 PM,,,,0,0.0,0,59.77,59.755,59.759,1830,109359.6,13,,,59.765,59.755,,0.021765892692268293,atvi,20200106
2020-01-06,13:31,1:31 PM,59.76,59.75,59.751,101,6034.88,3,59.77,59.752,59.759,1560,93224.336,15,59.76,59.75,59.752,59.76,0.02127986873141212,0.021765892692268293,atvi,20200106
2020-01-06,13:32,1:32 PM,59.77,59.77,59.77,100,5977.0,1,59.777,59.755,59.768,4421,264234.5312,22,59.77,59.77,59.765,59.756,0.021604621748196814,0.02191977567281065,atvi,20200106
2020-01-06,13:33,1:33 PM,59.75,59.75,59.75,1,59.75,1,59.76,59.73,59.747,2421,144648.39,17,59.75,59.75,59.76,59.74,0.021262776467370865,0.02156071538487848,atvi,20200106
2020-01-06,13:34,1:34 PM,59.75,59.74,59.75,101,6034.74,2,59.755,59.73,59.743,3692,220570.11,29,59.75,59.74,59.74,59.74,0.021262776467370865,0.02149232294908192,atvi,20200106
2020-01-06,13:35,1:35 PM,,,,0,0.0,0,59.744,59.73,59.736,1702,101671.1902,12,,,59.74,59.73,,0.021372636186437782,atvi,20200106
2020-01-06,13:36,1:36 PM,59.72,59.72,59.72,3,179.16,2,59.75,59.72,59.736,4050,241932.0,28,59.72,59.72,59.74,59.72,0.020750008546131998,0.021372636186437782,atvi,20200106
2020-01-06,13:37,1:37 PM,,,,0,0.0,0,59.74,59.72,59.725,2148,128289.28,16,,,59.72,59.74,,0.0211845569879972,atvi,20200106
2020-01-06,13:38,1:38 PM,59.73,59.73,59.73,1,59.73,1,59.76,59.713,59.733,4483,267783.3862,33,59.73,59.73,59.74,59.72,0.02092093118654491,0.02132134185959033,atvi,20200106
2020-01-06,13:39,1:39 PM,59.705,59.705,59.705,2,119.41,1,59.72,59.693,59.704,2184,130392.902,16,59.705,59.705,59.72,59.695,0.020493624585512564,0.020825496700065033,atvi,20200106
2020-01-06,13:40,1:40 PM,,,,0,0.0,0,59.705,59.695,59.699,1675,99995.393,12,,,59.695,59.7,,0.02074000615531924,atvi,20200106
2020-01-06,13:41,1:41 PM,,,,0,0.0,0,59.714,59.691,59.703,2650,158211.755,19,,,59.695,59.691,,0.020808398591115922,atvi,20200106
2020-01-06,13:42,1:42 PM,59.71,59.71,59.71,68,4060.28,1,59.715,59.681,59.694,7299,435708.2418,64,59.71,59.71,59.71,59.696,0.020579085905719083,0.020654515610573566,atvi,20200106
2020-01-06,13:43,1:43 PM,,,,0,0.0,0,59.705,59.695,59.698,2595,154916.8666,16,,,59.7,59.7,,0.020722908046370128,atvi,20200106
2020-01-06,13:44,1:44 PM,,,,0,0.0,0,59.705,59.686,59.695,2796,166908.0436,22,,,59.705,59.686,,0.020671613719522676,atvi,20200106
2020-01-06,13:45,1:45 PM,59.69,59.69,59.69,2,119.38,2,59.7,59.69,59.696,3993,238365.16,20,59.69,59.69,59.69,59.695,0.02023724062489313,0.020688711828471786,atvi,20200106
2020-01-06,13:46,1:46 PM,59.69,59.69,59.69,57,3402.33,2,59.7,59.69,59.694,1423,84945.035,12,59.69,59.69,59.69,59.696,0.02023724062489313,0.020654515610573566,atvi,20200106
2020-01-06,13:47,1:47 PM,59.68,59.68,59.68,17,1014.56,3,59.705,59.68,59.691,2600,155196.48,22,59.68,59.68,59.702,59.69,0.020066317984480216,0.020603221283726113,atvi,20200106
2020-01-06,13:48,1:48 PM,,,,0,0.0,0,59.71,59.69,59.703,1000,59703.5,7,,,59.69,59.705,,0.020808398591115922,atvi,20200106
2020-01-06,13:49,1:49 PM,59.7,59.7,59.7,100,5970.0,1,59.705,59.685,59.693,2230,133115.4254,18,59.7,59.7,59.705,59.69,0.020408163265306166,0.020637417501624334,atvi,20200106
2020-01-06,13:50,1:50 PM,,,,0,0.0,0,59.695,59.685,59.688,1929,115138.155,15,,,59.695,59.685,,0.02055192695687866,atvi,20200106
2020-01-06,13:51,1:51 PM,59.69,59.675,59.679,4,238.715,2,59.695,59.665,59.675,1700,101448.5,14,59.69,59.675,59.68,59.665,0.02004922572043896,0.020329651540539617,atvi,20200106
2020-01-06,13:52,1:52 PM,59.68,59.67,59.675,6,358.05,2,59.69,59.665,59.674,5260,313885.2733,17,59.67,59.68,59.667,59.68,0.019980856664273697,0.020312553431590507,atvi,20200106
2020-01-06,13:53,1:53 PM,,,,0,0.0,0,59.7,59.685,59.694,2937,175320.7038,20,,,59.685,59.7,,0.020654515610573566,atvi,20200106
2020-01-06,13:54,1:54 PM,59.705,59.705,59.705,100,5970.5,1,59.72,59.695,59.707,2685,160313.53,23,59.705,59.705,59.705,59.695,0.020493624585512564,0.02087679102691249,atvi,20200106
2020-01-06,13:55,1:55 PM,59.69,59.69,59.69,4,238.76,2,59.7,59.69,59.696,2651,158254.593,20,59.69,59.69,59.7,59.69,0.02023724062489313,0.020688711828471786,atvi,20200106
2020-01-06,13:56,1:56 PM,,,,0,0.0,0,59.7,59.67,59.68,1176,70184.1624,11,,,59.67,59.7,,0.020415142085285415,atvi,20200106
2020-01-06,13:57,1:57 PM,,,,0,0.0,0,59.705,59.685,59.695,3136,187202.83,20,,,59.697,59.69,,0.020671613719522676,atvi,20200106
2020-01-06,13:58,1:58 PM,59.69,59.69,59.69,14,835.66,2,59.7,59.68,59.687,1101,65715.042,10,59.69,59.69,59.69,59.7,0.02023724062489313,0.02053482884792943,atvi,20200106
2020-01-06,13:59,1:59 PM,,,,0,0.0,0,59.71,59.69,59.701,3624,216355.2875,23,,,59.7,59.695,,0.02077420237321758,atvi,20200106
2020-01-06,14:00,2 PM,59.68,59.665,59.672,6,358.035,2,59.69,59.65,59.672,4838,288691.479,39,59.68,59.665,59.69,59.65,0.01992957987214981,0.020278357213692165,atvi,20200106
2020-01-06,14:01,2:01 PM,,,,0,0.0,0,59.65,59.64,59.645,1800,107360.77,15,,,59.64,59.64,,0.019816708272065213,atvi,20200106
2020-01-06,14:02,2:02 PM,,,,0,0.0,0,59.64,59.61,59.632,4250,253436.08,34,,,59.632,59.61,,0.019594432855726172,atvi,20200106
2020-01-06,14:03,2:03 PM,59.64,59.635,59.638,8,477.1,3,59.645,59.615,59.627,5719,341009.58,35,59.635,59.635,59.62,59.64,0.019348442894745802,0.019508942310980496,atvi,20200106
2020-01-06,14:04,2:04 PM,59.635,59.635,59.635,2,119.27,1,59.645,59.63,59.637,2209,131737.78,19,59.635,59.635,59.64,59.63,0.019297166102621915,0.019679923400471967,atvi,20200106
2020-01-06,14:05,2:05 PM,59.635,59.625,59.627,8,477.02,3,59.64,59.625,59.635,1200,71562.5,11,59.635,59.625,59.64,59.625,0.01916042799029163,0.019645727182573625,atvi,20200106
2020-01-06,14:06,2:06 PM,59.63,59.63,59.63,101,6022.63,2,59.65,59.625,59.635,1689,100723.4575,13,59.63,59.63,59.63,59.64,0.019211704782415517,0.019645727182573625,atvi,20200106
2020-01-06,14:07,2:07 PM,59.645,59.645,59.645,4,238.58,1,59.65,59.63,59.644,3415,203685.25,21,59.645,59.645,59.65,59.63,0.01946808874303495,0.01979961016311598,atvi,20200106
2020-01-06,14:08,2:08 PM,,,,0,0.0,0,59.637,59.61,59.622,5490,327323.1834,37,,,59.637,59.625,,0.019423451766234702,atvi,20200106
2020-01-06,14:09,2:09 PM,,,,0,0.0,0,59.635,59.61,59.62,4926,293687.7848,32,,,59.63,59.615,,0.01938925554833636,atvi,20200106
2020-01-06,14:10,2:10 PM,59.64,59.64,59.64,1,59.64,1,59.665,59.62,59.648,5042,300746.125,46,59.64,59.64,59.62,59.645,0.019382627422828435,0.019868002598912665,atvi,20200106
2020-01-06,14:11,2:11 PM,59.65,59.65,59.65,1,59.65,1,59.675,59.65,59.664,2501,149221.0608,17,59.65,59.65,59.65,59.675,0.01955355006324135,0.02014157234209904,atvi,20200106
2020-01-06,14:12,2:12 PM,59.69,59.69,59.69,18,1074.42,4,59.71,59.675,59.692,10290,614235.71,86,59.69,59.69,59.675,59.695,0.02023724062489313,0.020620319392675224,atvi,20200106
2020-01-06,14:13,2:13 PM,59.69,59.69,59.69,1,59.69,1,59.7,59.68,59.691,5598,334152.2582,35,59.69,59.69,59.7,59.69,0.02023724062489313,0.020603221283726113,atvi,20200106
2020-01-06,14:14,2:14 PM,,,,0,0.0,0,59.685,59.675,59.68,2500,149199.5,20,,,59.68,59.675,,0.020415142085285415,atvi,20200106
2020-01-06,14:15,2:15 PM,,,,0,0.0,0,59.68,59.665,59.675,5574,332629.5955,25,,,59.675,59.67,,0.020329651540539617,atvi,20200106
2020-01-06,14:16,2:16 PM,,,,0,0.0,0,59.675,59.66,59.669,3030,180798.6,20,,,59.67,59.67,,0.020227062886844713,atvi,20200106
2020-01-06,14:17,2:17 PM,59.675,59.67,59.675,107,6385.19,2,59.68,59.66,59.674,1886,112545.19,18,59.675,59.67,59.68,59.66,0.019980856664273697,0.020312553431590507,atvi,20200106
2020-01-06,14:18,2:18 PM,59.67,59.67,59.67,3,179.01,1,59.68,59.66,59.672,1880,112182.62,16,59.67,59.67,59.665,59.68,0.0198953953440673,0.020278357213692165,atvi,20200106
2020-01-06,14:19,2:19 PM,59.7,59.7,59.7,1,59.7,1,59.7,59.69,59.692,3124,186477.0992,27,59.7,59.7,59.69,59.69,0.020408163265306166,0.020620319392675224,atvi,20200106
2020-01-06,14:20,2:20 PM,59.7,59.7,59.7,41,2447.7,1,59.7,59.69,59.696,3821,228097.629,23,59.7,59.7,59.69,59.69,0.020408163265306166,0.020688711828471786,atvi,20200106
2020-01-06,14:21,2:21 PM,59.69,59.685,59.685,143,8535.02,3,59.7,59.685,59.69,1475,88043.1,13,59.69,59.685,59.69,59.685,0.020151779304686732,0.020586123174776882,atvi,20200106
2020-01-06,14:22,2:22 PM,59.685,59.68,59.684,119,7102.42,2,59.69,59.675,59.685,1968,117459.4,15,59.685,59.68,59.68,59.675,0.020134687040645357,0.02050063263003121,atvi,20200106
2020-01-06,14:23,2:23 PM,59.665,59.665,59.665,100,5966.5,1,59.67,59.66,59.666,2000,119332.76,16,59.665,59.665,59.67,59.67,0.019809934023860783,0.02017576855999726,atvi,20200106
2020-01-06,14:24,2:24 PM,59.66,59.66,59.66,8,477.28,2,59.67,59.64,59.658,3848,229562.45,30,59.66,59.66,59.67,59.645,0.019724472703654263,0.020038983688404136,atvi,20200106
2020-01-06,14:25,2:25 PM,,,,0,0.0,0,59.65,59.625,59.641,1367,81529.38,13,,,59.65,59.625,,0.01974831583626853,atvi,20200106
2020-01-06,14:26,2:26 PM,59.63,59.625,59.63,16,954.075,5,59.635,59.625,59.63,2602,155157.6787,21,59.63,59.63,59.63,59.63,0.019211704782415517,0.019560236637827952,atvi,20200106
2020-01-06,14:27,2:27 PM,59.63,59.63,59.63,17,1013.71,2,59.635,59.62,59.627,6124,365155.9608,40,59.63,59.63,59.635,59.625,0.019211704782415517,0.019508942310980496,atvi,20200106
2020-01-06,14:28,2:28 PM,59.635,59.615,59.634,1043,62198.575,5,59.64,59.61,59.627,8028,478688.35,58,59.63,59.615,59.625,59.62,0.01928007383858066,0.019508942310980496,atvi,20200106
2020-01-06,14:29,2:29 PM,,,,0,0.0,0,59.63,59.62,59.627,2038,121520.2634,17,,,59.625,59.625,,0.019508942310980496,atvi,20200106
2020-01-06,14:30,2:30 PM,59.62,59.61,59.62,101,6021.61,3,59.625,59.6,59.614,3368,200781.8502,23,59.62,59.61,59.62,59.6,0.019040782142002482,0.019286666894641456,atvi,20200106
2020-01-06,14:31,2:31 PM,59.6,59.585,59.585,103,6137.285,4,59.61,59.565,59.596,9589,571462.15,38,59.6,59.585,59.61,59.565,0.01844255290055722,0.01897890093355674,atvi,20200106
2020-01-06,14:32,2:32 PM,,,,0,0.0,0,59.569,59.56,59.565,850,50630.65,4,,,59.565,59.565,,0.018448859556133103,atvi,20200106
2020-01-06,14:33,2:33 PM,,,,0,0.0,0,59.57,59.56,59.562,600,35737.0,6,,,59.56,59.56,,0.01839756522928565,atvi,20200106
2020-01-06,14:34,2:34 PM,,,,0,0.0,0,59.57,59.56,59.566,2087,124314.7553,12,,,59.569,59.565,,0.018465957665082335,atvi,20200106
2020-01-06,14:35,2:35 PM,59.57,59.57,59.57,3,178.71,1,59.58,59.565,59.575,2707,161271.06,22,59.57,59.57,59.565,59.58,0.018186168939937786,0.018619840645624695,atvi,20200106
2020-01-06,14:36,2:36 PM,59.58,59.58,59.58,72,4289.76,1,59.58,59.56,59.574,5991,356909.8122,47,59.58,59.58,59.58,59.575,0.0183570915803507,0.01860274253667546,atvi,20200106
2020-01-06,14:37,2:37 PM,,,,0,0.0,0,59.575,59.57,59.572,1002,59691.64,8,,,59.57,59.57,,0.01856854631877724,atvi,20200106
2020-01-06,14:38,2:38 PM,59.545,59.545,59.545,13,774.085,1,59.57,59.54,59.557,3009,179208.3112,22,59.545,59.545,59.56,59.545,0.017758862338905435,0.018312074684539978,atvi,20200106
2020-01-06,14:39,2:39 PM,,,,0,0.0,0,59.55,59.545,59.548,700,41683.5,7,,,59.55,59.545,,0.018158191703997618,atvi,20200106
2020-01-06,14:40,2:40 PM,,,,0,0.0,0,59.554,59.55,59.553,1173,69855.1785,6,,,59.55,59.554,,0.018243682248743294,atvi,20200106
2020-01-06,14:41,2:41 PM,59.55,59.55,59.55,2,119.1,1,59.56,59.545,59.549,2440,145300.065,19,59.55,59.55,59.55,59.55,0.017844323659111833,0.01817528981294673,atvi,20200106
2020-01-06,14:42,2:42 PM,59.56,59.56,59.56,100,5956.0,1,59.565,59.551,59.555,2910,173305.7022,12,59.56,59.56,59.551,59.555,0.01801524629952487,0.018277878466641636,atvi,20200106
2020-01-06,14:43,2:43 PM,59.56,59.56,59.56,8,476.48,1,59.56,59.55,59.559,5916,352348.4212,13,59.56,59.56,59.553,59.55,0.01801524629952487,0.0183462709024382,atvi,20200106
2020-01-06,14:44,2:44 PM,,,,0,0.0,0,59.57,59.56,59.563,1170,69688.205,7,,,59.56,59.562,,0.018414663338234882,atvi,20200106
2020-01-06,14:45,2:45 PM,59.57,59.57,59.57,15,893.55,2,59.58,59.56,59.569,2250,134031.311,16,59.57,59.57,59.56,59.577,0.018186168939937786,0.018517251991929787,atvi,20200106
2020-01-06,14:46,2:46 PM,,,,0,0.0,0,59.59,59.57,59.583,1307,77875.43,11,,,59.57,59.585,,0.01875662551721782,atvi,20200106
2020-01-06,14:47,2:47 PM,59.59,59.59,59.59,1,59.59,1,59.63,59.58,59.607,3547,211425.64,30,59.59,59.59,59.58,59.625,0.018528014220763736,0.01916698013199744,atvi,20200106
2020-01-06,14:48,2:48 PM,59.62,59.61,59.616,52,3100.02,5,59.625,59.605,59.612,2737,163157.33,22,59.62,59.61,59.62,59.605,0.01897241308583734,0.019252470676743235,atvi,20200106
2020-01-06,14:49,2:49 PM,,,,0,0.0,0,59.62,59.61,59.615,700,41730.5,6,,,59.61,59.615,,0.019303765003590687,atvi,20200106
2020-01-06,14:50,2:50 PM,,,,0,0.0,0,59.61,59.6,59.605,2483,147998.525,17,,,59.61,59.6,,0.0191327839140991,atvi,20200106
2020-01-06,14:51,2:51 PM,59.605,59.605,59.605,100,5960.5,1,59.61,59.6,59.608,1990,118619.484,13,59.605,59.605,59.605,59.605,0.018784398181383048,0.01918407824094655,atvi,20200106
2020-01-06,14:52,2:52 PM,,,,0,0.0,0,59.62,59.605,59.612,4992,297584.0392,27,,,59.61,59.615,,0.019252470676743235,atvi,20200106
2020-01-06,14:53,2:53 PM,59.62,59.62,59.62,6,357.72,1,59.63,59.61,59.614,7428,442812.48,23,59.62,59.62,59.615,59.625,0.019040782142002482,0.019286666894641456,atvi,20200106
2020-01-06,14:54,2:54 PM,59.62,59.62,59.62,1,59.62,1,59.627,59.61,59.62,9410,561027.665,24,59.62,59.62,59.627,59.62,0.019040782142002482,0.01938925554833636,atvi,20200106
2020-01-06,14:55,2:55 PM,59.61,59.61,59.61,4,238.44,1,59.62,59.615,59.619,1069,63732.5139,10,59.61,59.61,59.62,59.615,0.018869859501589568,0.01937215743938725,atvi,20200106
2020-01-06,14:56,2:56 PM,,,,0,0.0,0,59.62,59.61,59.615,1652,98484.275,12,,,59.61,59.61,,0.019303765003590687,atvi,20200106
2020-01-06,14:57,2:57 PM,,,,0,0.0,0,59.62,59.615,59.62,2004,119477.97,19,,,59.615,59.62,,0.01938925554833636,atvi,20200106
2020-01-06,14:58,2:58 PM,59.61,59.605,59.609,119,7093.54,8,59.62,59.61,59.615,3604,214851.94,30,59.61,59.605,59.61,59.62,0.01885276723754831,0.019303765003590687,atvi,20200106
2020-01-06,14:59,2:59 PM,,,,0,0.0,0,59.61,59.6,59.604,1950,116228.26,15,,,59.61,59.6,,0.01911568580514999,atvi,20200106
2020-01-06,15:00,3 PM,,,,0,0.0,0,59.61,59.605,59.608,1059,63124.5732,6,,,59.605,59.61,,0.01918407824094655,atvi,20200106
2020-01-06,15:01,3:01 PM,59.595,59.58,59.585,146,8699.37,6,59.61,59.575,59.587,3100,184720.0,26,59.595,59.58,59.61,59.575,0.01844255290055722,0.018825017953014504,atvi,20200106
2020-01-06,15:02,3:02 PM,59.56,59.555,59.555,102,6074.62,3,59.57,59.555,59.56,3867,230320.395,34,59.56,59.555,59.57,59.555,0.017929784979318353,0.01836336901138743,atvi,20200106
2020-01-06,15:03,3:03 PM,,,,0,0.0,0,59.58,59.56,59.568,1400,83394.5,14,,,59.56,59.57,,0.018500153882980555,atvi,20200106
2020-01-06,15:04,3:04 PM,59.58,59.565,59.57,109,6493.155,6,59.58,59.55,59.57,2768,164888.9,24,59.58,59.565,59.58,59.56,0.018186168939937786,0.018534350100878897,atvi,20200106
2020-01-06,15:05,3:05 PM,59.565,59.565,59.565,100,5956.5,1,59.565,59.55,59.558,5359,319170.3406,23,59.565,59.565,59.555,59.55,0.018100707619731267,0.018329172793489088,atvi,20200106
2020-01-06,15:06,3:06 PM,59.56,59.56,59.56,100,5956.0,1,59.565,59.55,59.559,2090,124477.85,18,59.56,59.56,59.56,59.555,0.01801524629952487,0.0183462709024382,atvi,20200106
2020-01-06,15:07,3:07 PM,59.57,59.57,59.57,6,357.42,1,59.58,59.555,59.567,3771,224627.299,36,59.57,59.57,59.555,59.58,0.018186168939937786,0.018483055774031445,atvi,20200106
2020-01-06,15:08,3:08 PM,,,,0,0.0,0,59.625,59.58,59.603,5918,352732.28,50,,,59.58,59.62,,0.01909858769620088,atvi,20200106
2020-01-06,15:09,3:09 PM,,,,0,0.0,0,59.62,59.61,59.618,4357,259757.745,38,,,59.62,59.62,,0.01935505933043814,atvi,20200106
2020-01-06,15:10,3:10 PM,59.61,59.61,59.61,104,6199.44,2,59.62,59.605,59.616,4445,264993.15,38,59.61,59.61,59.62,59.617,0.018869859501589568,0.019320863112539798,atvi,20200106
2020-01-06,15:11,3:11 PM,59.61,59.61,59.61,22,1311.42,1,59.63,59.6,59.612,5470,326078.075,32,59.61,59.61,59.615,59.615,0.018869859501589568,0.019252470676743235,atvi,20200106
2020-01-06,15:12,3:12 PM,,,,0,0.0,0,59.62,59.6,59.611,1400,83456.0,13,,,59.615,59.6,,0.019235372567794003,atvi,20200106
2020-01-06,15:13,3:13 PM,59.65,59.61,59.633,620,36972.37,12,59.65,59.61,59.631,9121,543891.09,59,59.61,59.65,59.61,59.65,0.019262981574539404,0.019577334746777062,atvi,20200106
2020-01-06,15:14,3:14 PM,59.655,59.65,59.655,102,6084.8,3,59.69,59.655,59.674,1822,108725.914,15,59.65,59.655,59.66,59.69,0.01963901138344787,0.020312553431590507,atvi,20200106
2020-01-06,15:15,3:15 PM,59.685,59.685,59.685,7,417.795,1,59.71,59.68,59.694,5587,333511.8089,35,59.685,59.685,59.688,59.709,0.020151779304686732,0.020654515610573566,atvi,20200106
2020-01-06,15:16,3:16 PM,59.705,59.68,59.705,207,12358.86,4,59.71,59.675,59.694,4430,264445.3827,35,59.705,59.68,59.705,59.675,0.020493624585512564,0.020654515610573566,atvi,20200106
2020-01-06,15:17,3:17 PM,,,,0,0.0,0,59.68,59.67,59.673,4500,268528.83,9,,,59.677,59.67,,0.020295455322641397,atvi,20200106
2020-01-06,15:18,3:18 PM,59.66,59.66,59.66,2,119.32,1,59.68,59.655,59.672,3725,222279.9099,24,59.66,59.66,59.67,59.66,0.019724472703654263,0.020278357213692165,atvi,20200106
2020-01-06,15:19,3:19 PM,59.705,59.695,59.7,300,17910.0,3,59.705,59.656,59.686,6215,370946.7526,54,59.695,59.705,59.656,59.705,0.020408163265306166,0.02051773073898032,atvi,20200106
2020-01-06,15:20,3:20 PM,,,,0,0.0,0,59.715,59.695,59.706,3894,232495.556,33,,,59.7,59.705,,0.020859692917963378,atvi,20200106
2020-01-06,15:21,3:21 PM,59.71,59.71,59.71,100,5971.0,1,59.715,59.7,59.711,1740,103896.6,16,59.71,59.71,59.7,59.715,0.020579085905719083,0.02094518346270905,atvi,20200106
2020-01-06,15:22,3:22 PM,59.735,59.735,59.735,100,5973.5,1,59.74,59.71,59.718,6991,417487.3656,59,59.735,59.735,59.72,59.73,0.02100639250675143,0.021064870225353187,atvi,20200106
2020-01-06,15:23,3:23 PM,59.745,59.74,59.744,142,8483.61,5,59.75,59.735,59.742,2596,155089.3325,21,59.74,59.745,59.735,59.735,0.02116022288312309,0.021475224840132687,atvi,20200106
2020-01-06,15:24,3:24 PM,59.75,59.74,59.75,92,5496.99,4,59.75,59.735,59.741,5183,309636.7457,37,59.74,59.75,59.735,59.735,0.021262776467370865,0.021458126731183576,atvi,20200106
2020-01-06,15:25,3:25 PM,59.75,59.745,59.748,300,17924.5,6,59.75,59.738,59.743,3224,192611.628,17,59.745,59.75,59.738,59.74,0.021228591939288232,0.02149232294908192,atvi,20200106
2020-01-06,15:26,3:26 PM,59.74,59.74,59.74,1,59.74,1,59.745,59.735,59.74,2856,170618.345,24,59.74,59.74,59.74,59.735,0.021091853826957947,0.021441028622234466,atvi,20200106
2020-01-06,15:27,3:27 PM,59.735,59.705,59.722,945,56437.245,15,59.737,59.7,59.724,7276,434552.871,63,59.73,59.705,59.735,59.705,0.02078419307421463,0.02116745887904797,atvi,20200106
2020-01-06,15:28,3:28 PM,59.76,59.7,59.712,177,10569.085,4,59.77,59.705,59.736,11193,668626.16,91,59.7,59.76,59.705,59.755,0.020613270433801713,0.021372636186437782,atvi,20200106
2020-01-06,15:29,3:29 PM,59.765,59.76,59.763,200,11952.615,3,59.77,59.754,59.761,5068,302869.575,29,59.76,59.765,59.76,59.76,0.021484975899907666,0.021800088910166635,atvi,20200106
2020-01-06,15:30,3:30 PM,59.765,59.735,59.749,143,8544.145,8,59.765,59.7,59.738,4993,298269.88,44,59.755,59.735,59.76,59.7,0.021245684203329607,0.021406832404336124,atvi,20200106
2020-01-06,15:31,3:31 PM,59.725,59.71,59.718,335,20005.45,6,59.73,59.71,59.72,7747,462650.9198,61,59.71,59.715,59.71,59.715,0.020715824018049486,0.021099066443251407,atvi,20200106
2020-01-06,15:32,3:32 PM,59.715,59.715,59.715,200,11943.0,2,59.725,59.71,59.717,4637,276907.4071,44,59.715,59.715,59.72,59.715,0.0206645472259256,0.021047772116403955,atvi,20200106
2020-01-06,15:33,3:33 PM,59.72,59.72,59.72,8,477.76,1,59.74,59.715,59.726,6821,407389.045,53,59.72,59.72,59.715,59.73,0.020750008546131998,0.021201655096946312,atvi,20200106
2020-01-06,15:34,3:34 PM,,,,0,0.0,0,59.75,59.72,59.737,5966,356390.7526,43,,,59.725,59.745,,0.021389734295387014,atvi,20200106
2020-01-06,15:35,3:35 PM,59.77,59.755,59.769,105,6275.775,4,59.77,59.75,59.76,7935,474199.225,60,59.77,59.755,59.75,59.75,0.02158752948415544,0.021782990801217404,atvi,20200106
2020-01-06,15:36,3:36 PM,59.745,59.735,59.743,12,716.92,5,59.76,59.735,59.743,9726,581062.9204,77,59.745,59.735,59.755,59.74,0.021143130619081834,0.02149232294908192,atvi,20200106
2020-01-06,15:37,3:37 PM,59.76,59.735,59.748,235,14040.85,5,59.76,59.735,59.746,7322,437461.5844,53,59.745,59.76,59.745,59.76,0.021228591939288232,0.02154361727592937,atvi,20200106
2020-01-06,15:38,3:38 PM,59.76,59.75,59.758,17,1015.89,3,59.77,59.74,59.752,10016,598474.3198,52,59.76,59.75,59.765,59.75,0.021399514579701268,0.021646205929624275,atvi,20200106
2020-01-06,15:39,3:39 PM,59.79,59.775,59.782,191,11418.39,2,59.8,59.76,59.779,6930,414272.335,53,59.775,59.79,59.76,59.8,0.02180972891669224,0.02210785487125135,atvi,20200106
2020-01-06,15:40,3:40 PM,59.795,59.785,59.789,716,42809.14,5,59.8,59.78,59.788,8652,517286.3913,66,59.795,59.785,59.795,59.785,0.021929374764981392,0.022261737851793587,atvi,20200106
2020-01-06,15:41,3:41 PM,59.785,59.78,59.782,303,18113.84,5,59.79,59.77,59.777,8988,537277.5406,71,59.785,59.78,59.79,59.775,0.02180972891669224,0.022073658653353007,atvi,20200106
2020-01-06,15:42,3:42 PM,59.77,59.76,59.769,112,6694.18,4,59.78,59.735,59.763,7530,450015.825,63,59.77,59.76,59.77,59.735,0.02158752948415544,0.021834285128064856,atvi,20200106
2020-01-06,15:43,3:43 PM,59.75,59.73,59.74,195,11649.35,2,59.76,59.73,59.746,13927,832087.267,94,59.73,59.75,59.735,59.76,0.021091853826957947,0.02154361727592937,atvi,20200106
2020-01-06,15:44,3:44 PM,59.775,59.775,59.775,310,18530.25,2,59.78,59.76,59.771,6368,380621.535,52,59.775,59.775,59.76,59.78,0.021690083068403213,0.021971069999658102,atvi,20200106
2020-01-06,15:45,3:45 PM,59.775,59.775,59.775,100,5977.5,1,59.79,59.77,59.779,9889,591159.8899,82,59.775,59.775,59.78,59.78,0.021690083068403213,0.02210785487125135,atvi,20200106
2020-01-06,15:46,3:46 PM,59.785,59.78,59.784,685,40951.8,5,59.79,59.77,59.783,7662,458059.3939,61,59.78,59.785,59.78,59.79,0.021843913444774873,0.02217624730704791,atvi,20200106
2020-01-06,15:47,3:47 PM,59.8,59.775,59.793,1266,75698.29,14,59.8,59.78,59.79,15967,954661.3977,119,59.785,59.795,59.79,59.79,0.021997743821146533,0.02229593406969193,atvi,20200106
2020-01-06,15:48,3:48 PM,59.81,59.795,59.799,1818,108713.915,11,59.81,59.79,59.803,12464,745382.4053,86,59.795,59.805,59.795,59.81,0.022100297405394306,0.02251820948603085,atvi,20200106
2020-01-06,15:49,3:49 PM,59.83,59.81,59.818,640,38283.4,9,59.83,59.8,59.815,13813,826222.315,98,59.82,59.81,59.82,59.8,0.02242505042217888,0.02272338679342066,atvi,20200106
2020-01-06,15:50,3:50 PM,59.81,59.805,59.806,2264,135401.84,13,59.82,59.8,59.809,16983,1015745.8347,128,59.805,59.81,59.81,59.82,0.022219943253683334,0.022620798139725753,atvi,20200106
2020-01-06,15:51,3:51 PM,59.835,59.82,59.83,1201,71856.33,8,59.84,59.818,59.828,20420,1221698.0302,155,59.825,59.82,59.82,59.82,0.022630157590674427,0.0229456622097597,atvi,20200106
2020-01-06,15:52,3:52 PM,59.835,59.82,59.83,908,54326.06,6,59.84,59.81,59.827,15391,920796.1966,104,59.82,59.835,59.82,59.84,0.022630157590674427,0.02292856410081047,atvi,20200106
2020-01-06,15:53,3:53 PM,59.87,59.835,59.85,2619,156748.47,12,59.87,59.835,59.855,15887,950910.642,113,59.835,59.865,59.835,59.865,0.02297200287150038,0.023407311151386653,atvi,20200106
2020-01-06,15:54,3:54 PM,59.865,59.79,59.825,3936,235473.105,38,59.87,59.785,59.82,44141,2640531.8014,320,59.865,59.805,59.865,59.815,0.02254469627046803,0.022808877338166455,atvi,20200106
2020-01-06,15:55,3:55 PM,59.81,59.775,59.784,2136,127699.665,21,59.81,59.76,59.782,31058,1856718.79,226,59.81,59.785,59.81,59.79,0.021843913444774873,0.02215914919809868,atvi,20200106
2020-01-06,15:56,3:56 PM,59.795,59.78,59.791,3704,221466.755,23,59.8,59.78,59.79,28394,1697680.175,199,59.785,59.79,59.785,59.785,0.0219635592930639,0.02229593406969193,atvi,20200106
2020-01-06,15:57,3:57 PM,59.8,59.78,59.792,2707,161857.085,31,59.81,59.775,59.791,51788,3096483.1703,338,59.785,59.8,59.785,59.81,0.02198065155710528,0.02231303217864104,atvi,20200106
2020-01-06,15:58,3:58 PM,59.84,59.8,59.81,966,57776.42,14,59.84,59.8,59.813,50968,3048555.5159,278,59.805,59.805,59.805,59.81,0.022288312309848596,0.02268919057552244,atvi,20200106
2020-01-06,15:59,3:59 PM,59.805,59.75,59.789,2195,131236.075,22,59.81,59.72,59.763,112143,6701985.6838,657,59.805,59.75,59.8,59.75,0.021929374764981392,0.021834285128064856,atvi,20200106
