date,minute,label,high,low,average,volume,notional,numberOfTrades,marketHigh,marketLow,marketAverage,marketVolume,marketNotional,marketNumberOfTrades,open,close,marketOpen,marketClose,changeOverTime,marketChangeOverTime,tickerName,tickerDate
2019-12-11,09:30,09:30 AM,55.99,55.965,55.983,300,16794.82,4,56.06,55.94,55.96,130358,7294870.0575,202,55.99,55.99,55.94,56.04,0.0,0.0,atvi,20191211
2019-12-11,09:31,09:31 AM,56.05,55.995,56.019,492,27561.2,6,56.06,55.99,56.025,10652,596783.445,82,55.995,56.05,56.04,56.06,0.0006430523551792753,0.0011615439599713675,atvi,20191211
2019-12-11,09:32,09:32 AM,,,,0,0.0,0,56.12,56.06,56.09,10911,612000.74,77,,,56.06,56.089,,0.002323087919942862,atvi,20191211
2019-12-11,09:33,09:33 AM,56.23,56.12,56.16,377,21172.24,5,56.25,56.12,56.184,16798,943776.08,79,56.12,56.23,56.12,56.25,0.0031616740796313095,0.004002859185132177,atvi,20191211
2019-12-11,09:34,09:34 AM,,,,0,0.0,0,56.29,56.205,56.24,11754,661047.76,67,,,56.248,56.288,,0.005003573981415317,atvi,20191211
2019-12-11,09:35,09:35 AM,56.41,56.39,56.4,200,11280.0,2,56.42,56.26,56.33,15189,855596.965,84,56.39,56.41,56.29,56.41,0.007448689780826351,0.006611865618298739,atvi,20191211
2019-12-11,09:36,09:36 AM,56.42,56.42,56.42,19,1071.98,2,56.44,56.37,56.415,19009,1072394.25,118,56.42,56.42,56.42,56.43,0.007805941089259324,0.008130807719799826,atvi,20191211
2019-12-11,09:37,09:37 AM,56.685,56.4,56.45,2221,125375.015,16,56.685,56.39,56.494,143810,8124398.6912,452,56.4,56.685,56.39,56.685,0.00834181805190872,0.00954253037884201,atvi,20191211
2019-12-11,09:38,09:38 AM,56.81,56.65,56.739,1843,104569.445,17,56.827,56.62,56.718,49235,2792494.8808,305,56.675,56.66,56.68,56.66,0.013504099458764272,0.013545389563974315,atvi,20191211
2019-12-11,09:39,09:39 AM,56.725,56.66,56.689,295,16723.2,3,56.86,56.64,56.772,24230,1375581.2125,126,56.66,56.725,56.657,56.83,0.01261097118768203,0.014510364546104318,atvi,20191211
2019-12-11,09:40,09:40 AM,56.76,56.66,56.71,200,11342.0,2,56.835,56.605,56.722,31229,1771361.7196,175,56.76,56.66,56.835,56.715,0.012986085061536607,0.013616869192280208,atvi,20191211
2019-12-11,09:41,09:41 AM,,,,0,0.0,0,56.78,56.63,56.691,21230,1203558.7868,139,,,56.72,56.78,,0.01306290207290925,atvi,20191211
2019-12-11,09:42,09:42 AM,56.86,56.76,56.812,500,28406.0,4,56.87,56.75,56.789,38214,2170152.2301,266,56.76,56.86,56.8,56.85,0.014808066734544427,0.014814152966404585,atvi,20191211
2019-12-11,09:43,09:43 AM,56.82,56.82,56.82,20,1136.4,1,56.85,56.79,56.814,20756,1179233.323,144,56.82,56.82,56.84,56.85,0.014950967257917641,0.01526090064331664,atvi,20191211
2019-12-11,09:44,09:44 AM,56.84,56.72,56.732,310,17587.04,6,56.87,56.71,56.77,17946,1018804.13,131,56.84,56.72,56.854,56.71,0.01337906150081279,0.014474624731951434,atvi,20191211
2019-12-11,09:45,09:45 AM,56.81,56.795,56.805,3,170.415,2,56.81,56.68,56.745,18234,1034680.9807,132,56.81,56.795,56.72,56.8,0.014683028776592943,0.014027877055039252,atvi,20191211
2019-12-11,09:46,09:46 AM,56.86,56.785,56.816,396,22499.3,4,56.87,56.76,56.82,19364,1100258.284,120,56.785,56.86,56.82,56.87,0.014879516996231098,0.015368120085775544,atvi,20191211
2019-12-11,09:47,09:47 AM,56.865,56.835,56.862,202,11486.17,3,56.87,56.8,56.828,15207,864179.92,117,56.865,56.835,56.86,56.84,0.015701195005626795,0.015511079342387457,atvi,20191211
2019-12-11,09:48,09:48 AM,56.84,56.775,56.797,568,32260.805,14,56.86,56.775,56.812,17153,974491.54,125,56.84,56.82,56.84,56.819,0.01454012825321973,0.01522516082916363,atvi,20191211
2019-12-11,09:49,09:49 AM,56.83,56.69,56.712,214,12136.43,9,56.83,56.64,56.742,23461,1331225.0025,128,56.83,56.69,56.82,56.67,0.013021810192379944,0.013974267333809801,atvi,20191211
2019-12-11,09:50,09:50 AM,56.82,56.75,56.789,481,27315.42,6,56.837,56.64,56.729,26370,1495936.1219,148,56.75,56.82,56.673,56.837,0.014397227729846642,0.013741958541815553,atvi,20191211
2019-12-11,09:51,09:51 AM,56.895,56.84,56.862,341,19389.97,7,56.93,56.84,56.875,53073,3018538.1502,264,56.84,56.895,56.84,56.87,0.015701195005626795,0.016350964974982115,atvi,20191211
2019-12-11,09:52,09:52 AM,56.93,56.93,56.93,2,113.86,1,56.97,56.89,56.935,14255,811608.81,67,56.93,56.93,56.89,56.96,0.016915849454298675,0.017423159399571148,atvi,20191211
2019-12-11,09:53,09:53 AM,56.96,56.88,56.931,314,17876.39,6,56.98,56.85,56.913,18744,1066778.7733,107,56.96,56.88,56.95,56.85,0.01693371201972028,0.01703002144388842,atvi,20191211
2019-12-11,09:54,09:54 AM,56.795,56.76,56.77,221,12546.195,3,56.86,56.73,56.807,27708,1574010.4198,211,56.795,56.775,56.858,56.775,0.0140578389868354,0.015135811293781295,atvi,20191211
2019-12-11,09:55,09:55 AM,56.715,56.645,56.648,130,7364.195,3,56.77,56.6,56.686,26364,1494467.4,187,56.715,56.645,56.77,56.64,0.011878606005394607,0.012973552537526788,atvi,20191211
2019-12-11,09:56,09:56 AM,56.67,56.62,56.642,432,24469.16,8,56.68,56.605,56.653,19870,1125689.606,109,56.63,56.67,56.63,56.672,0.011771430612864727,0.012383845604002821,atvi,20191211
2019-12-11,09:57,09:57 AM,56.73,56.68,56.705,200,11341.0,2,56.74,56.663,56.7,10087,571931.8644,65,56.68,56.73,56.67,56.7,0.012896772234428333,0.013223731236597605,atvi,20191211
2019-12-11,09:58,09:58 AM,56.805,56.805,56.805,100,5680.5,1,56.84,56.7,56.763,17361,985470.8787,85,56.805,56.805,56.7,56.84,0.014683028776592943,0.014349535382415962,atvi,20191211
2019-12-11,09:59,09:59 AM,56.91,56.85,56.869,498,28320.73,6,56.91,56.83,56.868,30259,1720762.485,199,56.855,56.86,56.84,56.86,0.01582623296357828,0.01622587562544677,atvi,20191211
2019-12-11,10:00,10 AM,56.855,56.76,56.791,611,34699.315,10,56.86,56.76,56.822,15854,900862.7967,91,56.855,56.82,56.86,56.82,0.01443295286068985,0.015403859899928554,atvi,20191211
2019-12-11,10:01,10:01 AM,56.805,56.805,56.805,31,1760.955,1,56.84,56.795,56.818,11687,664035.647,49,56.805,56.805,56.82,56.795,0.014683028776592943,0.015332380271622533,atvi,20191211
2019-12-11,10:02,10:02 AM,56.83,56.83,56.83,11,625.13,1,56.855,56.78,56.819,9696,550922.69,74,56.83,56.83,56.794,56.82,0.015129592912134065,0.015350250178699102,atvi,20191211
2019-12-11,10:03,10:03 AM,56.79,56.7,56.781,142,8062.95,5,56.815,56.66,56.75,10938,620730.125,75,56.79,56.7,56.81,56.665,0.014254327206473428,0.014117226590421715,atvi,20191211
2019-12-11,10:04,10:04 AM,56.67,56.645,56.66,314,17791.2,5,56.681,56.61,56.651,15189,860465.9344,118,56.65,56.67,56.665,56.65,0.012092956790454239,0.012348105789849937,atvi,20191211
2019-12-11,10:05,10:05 AM,56.6,56.56,56.598,70,3961.88,2,56.67,56.53,56.578,25461,1440523.8569,97,56.6,56.56,56.67,56.55,0.010985477734312238,0.011043602573266656,atvi,20191211
2019-12-11,10:06,10:06 AM,56.555,56.555,56.555,100,5655.5,1,56.56,56.45,56.509,13876,784125.5074,108,56.555,56.555,56.545,56.55,0.01021738742118148,0.00981057898498927,atvi,20191211
2019-12-11,10:07,10:07 AM,56.575,56.54,56.565,515,29130.82,7,56.59,56.48,56.542,22134,1251504.22,136,56.54,56.55,56.54,56.489,0.010396013075397902,0.010400285918513236,atvi,20191211
2019-12-11,10:08,10:08 AM,56.515,56.5,56.508,500,28254.0,5,56.525,56.47,56.502,12478,705033.211,91,56.5,56.515,56.47,56.525,0.009377846846364177,0.009685489635453924,atvi,20191211
2019-12-11,10:09,10:09 AM,56.55,56.53,56.54,200,11308.0,2,56.56,56.53,56.543,10785,609815.0907,84,56.53,56.55,56.53,56.545,0.00994944893985678,0.010418155825589678,atvi,20191211
2019-12-11,10:10,10:10 AM,56.57,56.545,56.562,1016,57467.31,14,56.57,56.54,56.556,7796,440914.533,60,56.57,56.555,56.55,56.555,0.010342425379132963,0.010650464617583927,atvi,20191211
2019-12-11,10:11,10:11 AM,56.615,56.595,56.605,200,11321.0,2,56.62,56.55,56.586,10378,587248.39,79,56.595,56.615,56.55,56.615,0.011110515692263722,0.011186561829878443,atvi,20191211
2019-12-11,10:12,10:12 AM,56.665,56.61,56.628,703,39809.39,9,56.665,56.605,56.635,16876,955768.62,115,56.61,56.645,56.61,56.655,0.011521354696961634,0.012062187276626111,atvi,20191211
2019-12-11,10:13,10:13 AM,56.68,56.665,56.673,815,46188.7,7,56.69,56.65,56.669,11067,627151.4722,88,56.665,56.68,56.655,56.685,0.012325170140935728,0.01266976411722652,atvi,20191211
2019-12-11,10:14,10:14 AM,56.675,56.635,56.656,2113,119714.075,8,56.685,56.62,56.648,23105,1308842.645,117,56.67,56.635,56.685,56.62,0.012021506528767694,0.012294496068620486,atvi,20191211
2019-12-11,10:15,10:15 AM,56.625,56.605,56.62,2005,113524.025,8,56.63,56.585,56.612,11160,631789.555,79,56.625,56.605,56.62,56.585,0.01137845417358842,0.011651179413867067,atvi,20191211
2019-12-11,10:16,10:16 AM,56.6,56.585,56.595,510,28863.45,5,56.61,56.585,56.598,8098,458328.4031,55,56.6,56.585,56.585,56.585,0.010931890038047298,0.01140100071479625,atvi,20191211
2019-12-11,10:17,10:17 AM,56.6,56.575,56.594,508,28749.675,7,56.615,56.57,56.597,12515,708307.1772,64,56.575,56.59,56.58,56.585,0.010914027472625694,0.011383130807719808,atvi,20191211
2019-12-11,10:18,10:18 AM,56.585,56.555,56.571,1587,89778.845,15,56.59,56.55,56.57,10086,570569.52,62,56.585,56.58,56.585,56.58,0.010503188467927782,0.010900643316654744,atvi,20191211
2019-12-11,10:19,10:19 AM,56.61,56.595,56.603,816,46188.2,9,56.62,56.57,56.598,11140,630506.765,73,56.595,56.61,56.58,56.62,0.011074790561420514,0.01140100071479625,atvi,20191211
2019-12-11,10:20,10:20 AM,56.615,56.595,56.605,401,22698.61,5,56.625,56.595,56.608,6062,343158.44,49,56.605,56.595,56.62,56.6,0.011110515692263722,0.011579699785561046,atvi,20191211
2019-12-11,10:21,10:21 AM,56.645,56.595,56.625,405,22932.975,6,56.659,56.59,56.616,15820,895660.37,98,56.6,56.645,56.605,56.659,0.011467767000696695,0.01172265904217296,atvi,20191211
2019-12-11,10:22,10:22 AM,56.71,56.675,56.699,1500,85049.0,11,56.71,56.655,56.689,15103,856177.78,95,56.675,56.705,56.655,56.7,0.012789596841898454,0.01302716225875624,atvi,20191211
2019-12-11,10:23,10:23 AM,56.7,56.7,56.7,103,5840.1,2,56.71,56.685,56.695,9144,518419.9744,73,56.7,56.7,56.7,56.696,0.012807459407320185,0.013134381701215144,atvi,20191211
2019-12-11,10:24,10:24 AM,56.7,56.7,56.7,10,567.0,1,56.705,56.69,56.696,6399,362799.4618,45,56.7,56.7,56.7,56.69,0.012807459407320185,0.013152251608291586,atvi,20191211
2019-12-11,10:25,10:25 AM,56.715,56.685,56.691,512,29025.78,6,56.72,56.67,56.699,9496,538414.105,78,56.69,56.715,56.7,56.715,0.012646696318525366,0.013205861329521036,atvi,20191211
2019-12-11,10:26,10:26 AM,56.705,56.645,56.677,448,25391.39,7,56.715,56.64,56.683,15122,857166.81,65,56.705,56.645,56.71,56.656,0.012396620402622271,0.012919942816297337,atvi,20191211
2019-12-11,10:27,10:27 AM,56.685,56.67,56.677,300,17003.0,3,56.69,56.66,56.679,5676,321709.155,49,56.675,56.685,56.66,56.685,0.012396620402622271,0.012848463187991443,atvi,20191211
2019-12-11,10:28,10:28 AM,56.645,56.645,56.645,100,5664.5,1,56.68,56.6,56.638,9340,528997.825,47,56.645,56.645,56.68,56.615,0.011825018309129668,0.012115796997855562,atvi,20191211
2019-12-11,10:29,10:29 AM,56.63,56.62,56.629,106,6002.72,2,56.63,56.61,56.622,3337,188947.275,33,56.63,56.62,56.62,56.63,0.011539217262383238,0.011829878484631863,atvi,20191211
2019-12-11,10:30,10:30 AM,56.615,56.595,56.61,203,11491.785,3,56.62,56.59,56.602,7955,450271.9,68,56.605,56.615,56.62,56.605,0.011199828519371997,0.011472480343102142,atvi,20191211
2019-12-11,10:31,10:31 AM,56.62,56.62,56.62,110,6228.2,2,56.629,56.61,56.617,5944,336529.2668,43,56.62,56.62,56.61,56.62,0.01137845417358842,0.011740528949249401,atvi,20191211
2019-12-11,10:32,10:32 AM,56.62,56.615,56.62,304,17212.46,5,56.62,56.61,56.614,35403,2004319.73,85,56.615,56.62,56.61,56.615,0.01137845417358842,0.011686919228019949,atvi,20191211
2019-12-11,10:33,10:33 AM,56.625,56.605,56.614,715,40479.14,12,56.63,56.6,56.615,19300,1092672.824,132,56.62,56.625,56.61,56.63,0.01127127878105854,0.011704789135096517,atvi,20191211
2019-12-11,10:34,10:34 AM,56.64,56.58,56.586,47,2659.56,4,56.65,56.58,56.632,16214,918225.315,118,56.64,56.58,56.63,56.58,0.01077112694925248,0.012008577555396659,atvi,20191211
2019-12-11,10:35,10:35 AM,56.565,56.52,56.526,115,6500.515,7,56.58,56.5,56.543,19807,1119952.776,153,56.545,56.52,56.572,56.535,0.009699373023953814,0.010418155825589678,atvi,20191211
2019-12-11,10:36,10:36 AM,56.535,56.465,56.498,275,15536.845,5,56.535,56.46,56.49,8628,487395.07,45,56.535,56.465,56.535,56.47,0.009199221192147626,0.009471050750536118,atvi,20191211
2019-12-11,10:37,10:37 AM,56.465,56.465,56.465,100,5646.5,1,56.475,56.425,56.449,11832,667902.62,72,56.465,56.465,56.463,56.45,0.008609756533233419,0.008738384560400237,atvi,20191211
2019-12-11,10:38,10:38 AM,56.455,56.455,56.455,10,564.55,1,56.51,56.445,56.472,4700,265416.52,42,56.455,56.455,56.455,56.51,0.008431130879016868,0.009149392423159408,atvi,20191211
2019-12-11,10:39,10:39 AM,56.5,56.48,56.481,107,6043.5,2,56.51,56.47,56.488,8802,497207.51,50,56.5,56.48,56.51,56.488,0.00889555757997972,0.009435310936383107,atvi,20191211
2019-12-11,10:40,10:40 AM,56.49,56.485,56.489,111,6270.335,4,56.495,56.48,56.487,3825,216063.01,25,56.49,56.485,56.48,56.495,0.009038458103352808,0.009417441029306665,atvi,20191211
2019-12-11,10:41,10:41 AM,56.49,56.485,56.485,117,6608.775,5,56.505,56.48,56.489,8128,459146.392,57,56.485,56.485,56.5,56.48,0.008967007841666264,0.009453180843459549,atvi,20191211
2019-12-11,10:42,10:42 AM,56.5,56.5,56.5,3,169.5,1,56.505,56.475,56.488,6371,359883.85,45,56.5,56.5,56.48,56.49,0.009234946322990963,0.009435310936383107,atvi,20191211
2019-12-11,10:43,10:43 AM,56.49,56.49,56.49,33,1864.17,2,56.505,56.475,56.489,8577,484508.69,61,56.49,56.49,56.49,56.5,0.009056320668774539,0.009453180843459549,atvi,20191211
2019-12-11,10:44,10:44 AM,56.51,56.51,56.51,15,847.65,1,56.57,56.495,56.529,13577,767493.366,99,56.51,56.51,56.495,56.57,0.009413571977207385,0.010167977126518988,atvi,20191211
2019-12-11,10:45,10:45 AM,56.55,56.55,56.55,5,282.75,1,56.575,56.55,56.56,6417,362945.11,37,56.55,56.55,56.57,56.55,0.010128074594073205,0.010721944245889946,atvi,20191211
2019-12-11,10:46,10:46 AM,,,,0,0.0,0,56.56,56.54,56.55,4750,268614.86,39,,,56.55,56.55,,0.010543245175125024,atvi,20191211
2019-12-11,10:47,10:47 AM,56.565,56.545,56.561,325,18382.395,7,56.565,56.471,56.543,28719,1623864.575,138,56.555,56.545,56.555,56.505,0.01032456281371136,0.010418155825589678,atvi,20191211
2019-12-11,10:48,10:48 AM,56.5,56.48,56.491,54,3050.53,7,56.51,56.475,56.492,6866,387871.586,48,56.5,56.48,56.51,56.49,0.009074183234196143,0.009506790564689,atvi,20191211
2019-12-11,10:49,10:49 AM,56.5,56.465,56.48,615,34734.95,8,56.51,56.46,56.484,11969,676055.6844,95,56.49,56.49,56.495,56.49,0.00887769501455799,0.009363831308077214,atvi,20191211
2019-12-11,10:50,10:50 AM,56.49,56.49,56.49,11,621.39,2,56.507,56.47,56.49,3165,178792.647,15,56.49,56.49,56.507,56.47,0.009056320668774539,0.009471050750536118,atvi,20191211
2019-12-11,10:51,10:51 AM,56.43,56.405,56.419,227,12807.185,4,56.46,56.38,56.413,13684,771956.5843,85,56.415,56.43,56.46,56.43,0.007788078523837593,0.008095067905646817,atvi,20191211
2019-12-11,10:52,10:52 AM,56.415,56.405,56.407,21,1184.545,4,56.43,56.39,56.407,4100,231267.0,24,56.415,56.405,56.42,56.396,0.007573727738777835,0.007987848463187914,atvi,20191211
2019-12-11,10:53,10:53 AM,,,,0,0.0,0,56.42,56.39,56.399,3461,195196.505,25,,,56.39,56.39,,0.007844889206576127,atvi,20191211
2019-12-11,10:54,10:54 AM,56.45,56.44,56.45,103,5814.32,3,56.46,56.4,56.438,7588,428254.59,45,56.44,56.45,56.4,56.46,0.00834181805190872,0.008541815582558999,atvi,20191211
2019-12-11,10:55,10:55 AM,56.49,56.47,56.488,111,6270.17,2,56.51,56.45,56.469,7682,433793.873,52,56.47,56.49,56.46,56.51,0.009020595537931204,0.009095782701929955,atvi,20191211
2019-12-11,10:56,10:56 AM,56.54,56.52,56.534,566,31998.32,5,56.55,56.51,56.528,15769,891394.134,67,56.535,56.52,56.515,56.52,0.009842273547326903,0.01015010721944242,atvi,20191211
2019-12-11,10:57,10:57 AM,56.505,56.48,56.495,248,14010.845,4,56.53,56.45,56.498,15229,860408.315,54,56.505,56.48,56.53,56.45,0.009145633495882688,0.009614010007147903,atvi,20191211
2019-12-11,10:58,10:58 AM,56.425,56.395,56.418,5200,293376.0,7,56.455,56.39,56.421,11253,634908.4,43,56.405,56.425,56.45,56.425,0.0077702159584159885,0.00823802716225873,atvi,20191211
2019-12-11,10:59,10:59 AM,56.46,56.42,56.433,16894,953385.555,21,56.46,56.42,56.44,46800,2641386.5,100,56.425,56.445,56.425,56.445,0.008038154439740687,0.008577555396711881,atvi,20191211
2019-12-11,11:00,11 AM,56.435,56.28,56.358,1200,67629.5,7,56.44,56.28,56.34,17539,988153.7586,124,56.435,56.28,56.435,56.28,0.006698462033117197,0.006790564689063663,atvi,20191211
2019-12-11,11:01,11:01 AM,56.3,56.275,56.287,818,46042.715,9,56.3,56.24,56.277,9327,524894.275,68,56.285,56.29,56.285,56.29,0.005430219888180377,0.0056647605432451785,atvi,20191211
2019-12-11,11:02,11:02 AM,56.27,56.255,56.257,2309,129896.87,5,56.28,56.24,56.263,14734,828984.253,74,56.27,56.26,56.28,56.26,0.004894342925530981,0.005414581844174361,atvi,20191211
2019-12-11,11:03,11:03 AM,56.265,56.22,56.228,3400,191174.0,8,56.27,56.22,56.243,12582,707656.19,74,56.265,56.23,56.26,56.226,0.0043763285283033165,0.005057183702644769,atvi,20191211
2019-12-11,11:04,11:04 AM,56.275,56.27,56.274,226,12718.02,3,56.28,56.24,56.273,21500,1209863.855,55,56.275,56.27,56.24,56.275,0.0051980065376990145,0.005593280914939285,atvi,20191211
2019-12-11,11:05,11:05 AM,56.265,56.26,56.263,167,9395.92,3,56.29,56.23,56.256,4802,270142.78,44,56.26,56.265,56.27,56.29,0.005001518318060861,0.005289492494639017,atvi,20191211
2019-12-11,11:06,11:06 AM,56.3,56.3,56.3,100,5630.0,1,56.36,56.29,56.33,6625,373184.175,52,56.3,56.3,56.3,56.35,0.00566243323866174,0.006611865618298739,atvi,20191211
2019-12-11,11:07,11:07 AM,56.35,56.325,56.339,7,394.375,3,56.36,56.32,56.344,6950,391593.825,47,56.325,56.35,56.34,56.36,0.006359073290105955,0.006862044317369555,atvi,20191211
2019-12-11,11:08,11:08 AM,56.39,56.39,56.39,2,112.78,1,56.41,56.37,56.393,5235,295216.065,28,56.39,56.39,56.37,56.396,0.007270064126609928,0.0077376697641172235,atvi,20191211
2019-12-11,11:09,11:09 AM,56.39,56.39,56.39,22,1240.58,3,56.417,56.38,56.398,6372,359368.64,44,56.39,56.39,56.4,56.4,0.007270064126609928,0.007827019299499685,atvi,20191211
2019-12-11,11:10,11:10 AM,56.36,56.36,56.36,5,281.8,1,56.395,56.355,56.378,3750,211417.15,22,56.36,56.36,56.395,56.365,0.006734187163960532,0.007469621157969965,atvi,20191211
2019-12-11,11:11,11:11 AM,56.35,56.33,56.332,111,6252.85,2,56.36,56.32,56.347,9000,507119.94,45,56.35,56.33,56.36,56.345,0.006234035332154471,0.006915654038599007,atvi,20191211
2019-12-11,11:12,11:12 AM,56.405,56.36,56.382,202,11389.23,3,56.405,56.341,56.363,4913,276909.615,29,56.36,56.405,56.341,56.405,0.007127163603236714,0.007201572551822707,atvi,20191211
2019-12-11,11:13,11:13 AM,56.42,56.405,56.406,104,5866.18,2,56.42,56.39,56.408,8203,462713.015,32,56.405,56.42,56.4,56.42,0.0075558651733562306,0.008005718370264482,atvi,20191211
2019-12-11,11:14,11:14 AM,56.435,56.435,56.435,56,3160.36,1,56.46,56.42,56.442,10869,613472.9373,54,56.435,56.435,56.42,56.46,0.008073879570584022,0.008613295210864891,atvi,20191211
2019-12-11,11:15,11:15 AM,,,,0,0.0,0,56.515,56.46,56.494,14172,800639.837,75,,,56.46,56.505,,0.00954253037884201,atvi,20191211
2019-12-11,11:16,11:16 AM,,,,0,0.0,0,56.545,56.51,56.534,13584,767963.7805,80,,,56.51,56.52,,0.010257326661901323,atvi,20191211
2019-12-11,11:17,11:17 AM,56.475,56.475,56.475,15,847.125,1,56.52,56.471,56.491,6532,369001.172,34,56.475,56.475,56.51,56.475,0.008788382187449841,0.00948892065761256,atvi,20191211
2019-12-11,11:18,11:18 AM,56.49,56.49,56.49,1900,107331.0,6,56.51,56.45,56.475,9653,545151.2677,38,56.49,56.49,56.47,56.49,0.009056320668774539,0.009203002144388859,atvi,20191211
2019-12-11,11:19,11:19 AM,56.495,56.47,56.492,892,50391.255,7,56.5,56.464,56.49,4883,275842.4118,22,56.495,56.47,56.495,56.48,0.009092045799617747,0.009471050750536118,atvi,20191211
2019-12-11,11:20,11:20 AM,56.48,56.455,56.456,408,23033.915,5,56.49,56.45,56.468,3002,169516.95,23,56.48,56.455,56.48,56.45,0.008448993444438599,0.009077912794853515,atvi,20191211
2019-12-11,11:21,11:21 AM,56.475,56.435,56.463,4026,227319.06,9,56.48,56.43,56.455,9951,561787.42,50,56.445,56.47,56.45,56.47,0.008574031402390082,0.00884560400285914,atvi,20191211
2019-12-11,11:22,11:22 AM,56.495,56.47,56.487,310,17510.875,6,56.495,56.464,56.474,2500,141186.26,18,56.47,56.495,56.47,56.49,0.0090027329725096,0.00918513223731229,atvi,20191211
2019-12-11,11:23,11:23 AM,56.545,56.5,56.535,3243,183341.735,9,56.55,56.49,56.52,10178,575259.31,62,56.5,56.535,56.49,56.54,0.009860136112748507,0.010007147962830634,atvi,20191211
2019-12-11,11:24,11:24 AM,56.54,56.515,56.532,709,40081.295,11,56.54,56.51,56.528,5144,290779.42,29,56.54,56.535,56.54,56.535,0.009806548416483566,0.01015010721944242,atvi,20191211
2019-12-11,11:25,11:25 AM,56.575,56.535,56.555,201,11367.535,3,56.61,56.53,56.569,16695,944422.33,121,56.535,56.575,56.535,56.58,0.01021738742118148,0.010882773409578302,atvi,20191211
2019-12-11,11:26,11:26 AM,56.6,56.59,56.594,336,19015.6,5,56.605,56.585,56.595,4508,255130.85,39,56.59,56.6,56.585,56.595,0.010914027472625694,0.011347390993566797,atvi,20191211
2019-12-11,11:27,11:27 AM,56.58,56.565,56.568,29,1640.475,3,56.595,56.54,56.574,3800,214979.5,29,56.58,56.565,56.595,56.54,0.010449600771662843,0.010972122944960637,atvi,20191211
2019-12-11,11:28,11:28 AM,56.55,56.545,56.546,235,13288.25,5,56.565,56.54,56.546,5937,335716.2,36,56.55,56.55,56.54,56.565,0.01005662433238666,0.010471765546819129,atvi,20191211
2019-12-11,11:29,11:29 AM,56.56,56.56,56.56,200,11312.0,2,56.588,56.55,56.568,4568,258404.46,38,56.56,56.56,56.57,56.56,0.010306700248289754,0.010864903502501733,atvi,20191211
2019-12-11,11:30,11:30 AM,56.57,56.55,56.564,858,48531.81,13,56.58,56.54,56.56,11105,628102.75,94,56.56,56.565,56.555,56.57,0.010378150509976298,0.010721944245889946,atvi,20191211
2019-12-11,11:31,11:31 AM,,,,0,0.0,0,56.62,56.58,56.597,4094,231709.43,40,,,56.58,56.62,,0.011383130807719808,atvi,20191211
2019-12-11,11:32,11:32 AM,56.62,56.62,56.62,40,2264.8,1,56.625,56.58,56.598,4292,242918.26,33,56.62,56.62,56.62,56.58,0.01137845417358842,0.01140100071479625,atvi,20191211
2019-12-11,11:33,11:33 AM,56.6,56.6,56.6,100,5660.0,2,56.6,56.58,56.589,5858,331495.52,28,56.6,56.6,56.585,56.58,0.011021202865155573,0.011240171551107894,atvi,20191211
2019-12-11,11:34,11:34 AM,56.59,56.575,56.583,200,11316.5,2,56.61,56.57,56.588,7990,452135.2474,63,56.575,56.59,56.585,56.575,0.01071753925298754,0.011222301644031454,atvi,20191211
2019-12-11,11:35,11:35 AM,56.595,56.57,56.578,500,28289.0,5,56.6,56.57,56.58,8906,503899.44,73,56.57,56.585,56.57,56.585,0.010628226425879392,0.01107934238741954,atvi,20191211
2019-12-11,11:36,11:36 AM,56.6,56.58,56.581,213,12051.8,4,56.605,56.58,56.591,7407,419170.8062,53,56.58,56.6,56.58,56.59,0.010681814122144332,0.011275911365260904,atvi,20191211
2019-12-11,11:37,11:37 AM,,,,0,0.0,0,56.64,56.605,56.627,2600,147230.0,25,,,56.605,56.64,,0.011919228020014324,atvi,20191211
2019-12-11,11:38,11:38 AM,56.635,56.635,56.635,20,1132.7,1,56.66,56.63,56.648,6657,377107.8918,49,56.635,56.635,56.65,56.63,0.011646392654913117,0.012294496068620486,atvi,20191211
2019-12-11,11:39,11:39 AM,56.65,56.65,56.65,57,3229.05,2,56.651,56.613,56.628,5676,321422.8515,24,56.65,56.65,56.622,56.65,0.011914331136237816,0.011937097927090766,atvi,20191211
2019-12-11,11:40,11:40 AM,,,,0,0.0,0,56.66,56.64,56.652,3061,173411.76,30,,,56.65,56.64,,0.012365975696926379,atvi,20191211
2019-12-11,11:41,11:41 AM,56.65,56.64,56.648,94,5324.9,6,56.65,56.62,56.643,6889,390214.47,24,56.65,56.64,56.643,56.62,0.011878606005394607,0.012205146533238023,atvi,20191211
2019-12-11,11:42,11:42 AM,56.65,56.595,56.643,213,12065.005,6,56.66,56.61,56.64,8601,487159.2,67,56.64,56.595,56.63,56.61,0.011789293178286333,0.012151536812008572,atvi,20191211
2019-12-11,11:43,11:43 AM,56.6,56.6,56.6,1,56.6,1,56.6,56.58,56.593,2497,141311.715,23,56.6,56.6,56.59,56.6,0.011021202865155573,0.011311651179413915,atvi,20191211
2019-12-11,11:44,11:44 AM,56.605,56.605,56.605,6,339.63,1,56.63,56.59,56.606,3396,192234.17,28,56.605,56.605,56.61,56.63,0.011110515692263722,0.011543959971408163,atvi,20191211
2019-12-11,11:45,11:45 AM,56.635,56.585,56.605,159,9000.175,6,56.635,56.58,56.616,25807,1461098.4922,117,56.635,56.585,56.635,56.58,0.011110515692263722,0.01172265904217296,atvi,20191211
2019-12-11,11:46,11:46 AM,56.62,56.6,56.603,414,23433.68,5,56.62,56.55,56.592,10326,584373.16,60,56.6,56.62,56.59,56.55,0.011074790561420514,0.011293781272337346,atvi,20191211
2019-12-11,11:47,11:47 AM,56.58,56.565,56.57,311,17593.27,4,56.58,56.553,56.569,5153,291497.5974,27,56.58,56.565,56.553,56.57,0.010485325902506178,0.010882773409578302,atvi,20191211
2019-12-11,11:48,11:48 AM,56.625,56.595,56.603,600,33962.0,6,56.64,56.57,56.617,6900,390659.6,60,56.595,56.625,56.57,56.61,0.011074790561420514,0.011740528949249401,atvi,20191211
2019-12-11,11:49,11:49 AM,,,,0,0.0,0,56.63,56.61,56.623,6300,356722.3,29,,,56.61,56.63,,0.011847748391708305,atvi,20191211
2019-12-11,11:50,11:50 AM,,,,0,0.0,0,56.635,56.62,56.625,4459,252489.75,29,,,56.63,56.62,,0.011883488205861313,atvi,20191211
2019-12-11,11:51,11:51 AM,,,,0,0.0,0,56.625,56.61,56.616,3430,194193.955,20,,,56.61,56.61,,0.01172265904217296,atvi,20191211
2019-12-11,11:52,11:52 AM,,,,0,0.0,0,56.63,56.62,56.623,1300,73609.55,10,,,56.62,56.623,,0.011847748391708305,atvi,20191211
2019-12-11,11:53,11:53 AM,56.63,56.59,56.615,165,9341.425,4,56.63,56.58,56.613,25017,1416282.61,108,56.605,56.63,56.625,56.63,0.01128914134648027,0.011669049320943507,atvi,20191211
2019-12-11,11:54,11:54 AM,56.59,56.57,56.586,230,13014.725,5,56.625,56.565,56.595,6721,380374.47,62,56.59,56.585,56.625,56.58,0.01077112694925248,0.011347390993566797,atvi,20191211
2019-12-11,11:55,11:55 AM,56.58,56.58,56.58,4,226.32,1,56.61,56.57,56.597,4013,227126.06,39,56.58,56.58,56.58,56.61,0.0106639515567226,0.011383130807719808,atvi,20191211
2019-12-11,11:56,11:56 AM,56.56,56.56,56.56,4,226.24,1,56.605,56.55,56.591,9067,513109.365,87,56.56,56.56,56.6,56.56,0.010306700248289754,0.011275911365260904,atvi,20191211
2019-12-11,11:57,11:57 AM,56.53,56.485,56.491,114,6440.015,3,56.55,56.48,56.51,7079,400030.8347,49,56.53,56.485,56.55,56.508,0.009074183234196143,0.00982844889206571,atvi,20191211
2019-12-11,11:58,11:58 AM,56.5,56.48,56.485,1121,63319.71,10,56.51,56.46,56.484,8313,469550.9027,60,56.5,56.48,56.508,56.465,0.008967007841666264,0.009363831308077214,atvi,20191211
2019-12-11,11:59,11:59 AM,56.465,56.455,56.465,113,6380.535,5,56.47,56.46,56.464,2900,163746.5,23,56.465,56.465,56.46,56.46,0.008609756533233419,0.009006433166547494,atvi,20191211
2019-12-11,12:00,12 PM,56.465,56.465,56.465,283,15979.595,3,56.47,56.43,56.452,3770,212823.63,33,56.465,56.465,56.47,56.46,0.008609756533233419,0.008791994281629687,atvi,20191211
2019-12-11,12:01,12:01 PM,56.485,56.485,56.485,100,5648.5,1,56.49,56.47,56.481,3519,198756.85,32,56.485,56.485,56.47,56.48,0.008967007841666264,0.009310221586847762,atvi,20191211
2019-12-11,12:02,12:02 PM,56.475,56.47,56.473,75,4235.45,4,56.485,56.47,56.477,3200,180725.0,28,56.475,56.47,56.47,56.485,0.008752657056606506,0.009238741958541742,atvi,20191211
2019-12-11,12:03,12:03 PM,56.49,56.48,56.489,223,12597.135,4,56.5,56.46,56.477,5549,313392.6,47,56.48,56.49,56.48,56.5,0.009038458103352808,0.009238741958541742,atvi,20191211
2019-12-11,12:04,12:04 PM,56.5,56.485,56.499,213,12034.305,4,56.51,56.48,56.5,8780,496072.12,69,56.485,56.5,56.5,56.51,0.009217083757569359,0.009649749821300914,atvi,20191211
2019-12-11,12:05,12:05 PM,56.495,56.455,56.465,126,7114.61,3,56.51,56.455,56.482,4500,254167.5,36,56.495,56.455,56.51,56.46,0.008609756533233419,0.009328091493924204,atvi,20191211
2019-12-11,12:06,12:06 PM,56.45,56.45,56.45,100,5645.0,1,56.5,56.45,56.47,3600,203293.0,34,56.45,56.45,56.46,56.495,0.00834181805190872,0.009113652609006397,atvi,20191211
2019-12-11,12:07,12:07 PM,56.495,56.46,56.481,320,18073.875,6,56.51,56.45,56.485,6408,361955.54,59,56.495,56.46,56.495,56.455,0.00889555757997972,0.009381701215153656,atvi,20191211
2019-12-11,12:08,12:08 PM,,,,0,0.0,0,56.46,56.44,56.451,1400,79031.0,9,,,56.46,56.455,,0.008774124374553246,atvi,20191211
2019-12-11,12:09,12:09 PM,56.465,56.46,56.465,328,18520.425,5,56.485,56.455,56.468,8714,492060.265,65,56.465,56.465,56.46,56.465,0.008609756533233419,0.009077912794853515,atvi,20191211
2019-12-11,12:10,12:10 PM,56.475,56.475,56.475,100,5647.5,1,56.485,56.47,56.481,6400,361480.89,35,56.475,56.475,56.47,56.475,0.008788382187449841,0.009310221586847762,atvi,20191211
2019-12-11,12:11,12:11 PM,56.5,56.475,56.493,878,49601.11,8,56.515,56.475,56.496,5643,318810.177,47,56.475,56.5,56.48,56.51,0.00910990836503948,0.00957827019299502,atvi,20191211
2019-12-11,12:12,12:12 PM,56.53,56.53,56.53,6,339.18,2,56.54,56.51,56.529,4200,237424.19,36,56.53,56.53,56.51,56.52,0.009770823285640358,0.010167977126518988,atvi,20191211
2019-12-11,12:13,12:13 PM,,,,0,0.0,0,56.535,56.52,56.526,2900,163924.0,28,,,56.52,56.52,,0.010114367405289537,atvi,20191211
2019-12-11,12:14,12:14 PM,,,,0,0.0,0,56.52,56.51,56.517,2200,124337.5,19,,,56.52,56.51,,0.009953538241601181,atvi,20191211
2019-12-11,12:15,12:15 PM,56.525,56.51,56.517,324,18311.48,6,56.54,56.5,56.516,6743,381089.1,48,56.51,56.525,56.518,56.54,0.009538609935158995,0.009935668334524613,atvi,20191211
2019-12-11,12:16,12:16 PM,56.545,56.545,56.545,100,5654.5,1,56.555,56.54,56.548,3604,203799.06,31,56.545,56.545,56.55,56.54,0.010038761766965056,0.01050750536097214,atvi,20191211
2019-12-11,12:17,12:17 PM,56.545,56.535,56.541,730,41274.7,7,56.55,56.535,56.542,8183,462680.355,60,56.545,56.535,56.55,56.535,0.009967311505278386,0.010400285918513236,atvi,20191211
2019-12-11,12:18,12:18 PM,56.53,56.53,56.53,15,847.95,3,56.54,56.5,56.529,3960,223855.6,35,56.53,56.53,56.535,56.5,0.009770823285640358,0.010167977126518988,atvi,20191211
2019-12-11,12:19,12:19 PM,56.505,56.49,56.5,151,8531.49,3,56.51,56.485,56.495,5979,337784.5772,55,56.505,56.49,56.5,56.49,0.009234946322990963,0.009560400285918452,atvi,20191211
2019-12-11,12:20,12:20 PM,56.49,56.49,56.49,10,564.9,4,56.5,56.47,56.494,9497,536526.8096,45,56.49,56.49,56.495,56.477,0.009056320668774539,0.00954253037884201,atvi,20191211
2019-12-11,12:21,12:21 PM,56.475,56.47,56.473,155,8753.35,2,56.49,56.475,56.481,5766,325668.3608,27,56.475,56.47,56.48,56.48,0.008752657056606506,0.009310221586847762,atvi,20191211
2019-12-11,12:22,12:22 PM,56.5,56.495,56.495,32,1807.85,3,56.5,56.47,56.49,10390,586927.27,89,56.495,56.5,56.47,56.47,0.009145633495882688,0.009471050750536118,atvi,20191211
2019-12-11,12:23,12:23 PM,,,,0,0.0,0,56.48,56.46,56.47,3400,191999.52,28,,,56.48,56.475,,0.009113652609006397,atvi,20191211
2019-12-11,12:24,12:24 PM,56.47,56.47,56.47,2,112.94,1,56.48,56.46,56.47,2579,145635.8579,24,56.47,56.47,56.47,56.46,0.008699069360341566,0.009113652609006397,atvi,20191211
2019-12-11,12:25,12:25 PM,,,,0,0.0,0,56.48,56.47,56.475,1500,84713.0,15,,,56.47,56.48,,0.009203002144388859,atvi,20191211
2019-12-11,12:26,12:26 PM,56.49,56.49,56.49,145,8191.05,2,56.505,56.48,56.493,11624,656681.3987,64,56.49,56.49,56.485,56.49,0.009056320668774539,0.009524660471765568,atvi,20191211
2019-12-11,12:27,12:27 PM,,,,0,0.0,0,56.495,56.48,56.487,1445,81624.348,13,,,56.486,56.495,,0.009417441029306665,atvi,20191211
2019-12-11,12:28,12:28 PM,,,,0,0.0,0,56.51,56.49,56.501,5459,308437.5,43,,,56.49,56.505,,0.009667619728377356,atvi,20191211
2019-12-11,12:29,12:29 PM,56.505,56.5,56.505,107,6046.0,2,56.51,56.5,56.503,2844,160695.91,19,56.505,56.5,56.505,56.502,0.009324259150099237,0.009703359542530366,atvi,20191211
2019-12-11,12:30,12:30 PM,56.505,56.485,56.502,297,16781.005,7,56.51,56.49,56.5,5211,294423.375,47,56.505,56.5,56.505,56.5,0.009270671453834298,0.009649749821300914,atvi,20191211
2019-12-11,12:31,12:31 PM,56.49,56.485,56.489,11,621.385,2,56.495,56.48,56.49,5777,326340.75,34,56.485,56.49,56.495,56.48,0.009038458103352808,0.009471050750536118,atvi,20191211
2019-12-11,12:32,12:32 PM,,,,0,0.0,0,56.505,56.485,56.498,3449,194863.51,28,,,56.485,56.505,,0.009614010007147903,atvi,20191211
2019-12-11,12:33,12:33 PM,56.5,56.5,56.5,100,5650.0,2,56.505,56.471,56.492,5024,283816.437,45,56.5,56.5,56.5,56.49,0.009234946322990963,0.009506790564689,atvi,20191211
2019-12-11,12:34,12:34 PM,,,,0,0.0,0,56.49,56.48,56.488,2000,112976.12,18,,,56.49,56.48,,0.009435310936383107,atvi,20191211
2019-12-11,12:35,12:35 PM,56.485,56.48,56.484,879,49649.835,9,56.49,56.471,56.485,6274,354389.1101,51,56.48,56.485,56.48,56.48,0.00894914527624466,0.009381701215153656,atvi,20191211
2019-12-11,12:36,12:36 PM,56.475,56.44,56.444,121,6829.795,7,56.48,56.43,56.454,6385,360457.155,58,56.475,56.44,56.48,56.455,0.00823464265937884,0.008827734095782698,atvi,20191211
2019-12-11,12:37,12:37 PM,56.45,56.45,56.45,1,56.45,1,56.48,56.45,56.469,13629,769616.772,98,56.45,56.45,56.455,56.48,0.00834181805190872,0.009095782701929955,atvi,20191211
2019-12-11,12:38,12:38 PM,56.435,56.435,56.435,100,5643.5,1,56.485,56.435,56.465,8879,501348.305,67,56.435,56.435,56.48,56.485,0.008073879570584022,0.009024303073624063,atvi,20191211
2019-12-11,12:39,12:39 PM,56.485,56.46,56.472,200,11294.5,2,56.485,56.46,56.474,3343,188794.355,30,56.485,56.46,56.48,56.47,0.008734794491184902,0.00918513223731229,atvi,20191211
2019-12-11,12:40,12:40 PM,56.46,56.45,56.455,207,11686.185,3,56.46,56.445,56.455,2388,134815.035,23,56.46,56.455,56.46,56.46,0.008431130879016868,0.00884560400285914,atvi,20191211
2019-12-11,12:41,12:41 PM,56.45,56.45,56.45,4,225.8,1,56.455,56.44,56.445,4600,259647.5,45,56.45,56.45,56.45,56.45,0.00834181805190872,0.008666904932094342,atvi,20191211
2019-12-11,12:42,12:42 PM,56.46,56.45,56.454,402,22694.4,6,56.46,56.45,56.458,11796,665978.7144,93,56.45,56.45,56.456,56.45,0.008413268313595264,0.00889921372408859,atvi,20191211
2019-12-11,12:43,12:43 PM,,,,0,0.0,0,56.46,56.44,56.457,8202,463060.92,70,,,56.44,56.46,,0.008881343817012149,atvi,20191211
2019-12-11,12:44,12:44 PM,56.445,56.445,56.445,17,959.565,3,56.455,56.43,56.445,5938,335171.5,49,56.445,56.445,56.45,56.43,0.008252505224800446,0.008666904932094342,atvi,20191211
2019-12-11,12:45,12:45 PM,,,,0,0.0,0,56.46,56.44,56.452,12488,704975.57,105,,,56.44,56.455,,0.008791994281629687,atvi,20191211
2019-12-11,12:46,12:46 PM,56.46,56.45,56.453,780,44033.5,5,56.48,56.45,56.461,16214,915462.32,116,56.45,56.455,56.46,56.48,0.00839540574817366,0.008952823445318043,atvi,20191211
2019-12-11,12:47,12:47 PM,56.5,56.49,56.499,220,12429.8,3,56.54,56.48,56.502,19424,1097500.045,115,56.49,56.5,56.48,56.54,0.009217083757569359,0.009685489635453924,atvi,20191211
2019-12-11,12:48,12:48 PM,56.53,56.53,56.53,118,6670.54,3,56.55,56.525,56.542,16026,906143.59,62,56.53,56.53,56.54,56.54,0.009770823285640358,0.010400285918513236,atvi,20191211
2019-12-11,12:49,12:49 PM,56.505,56.5,56.503,300,16951.045,4,56.55,56.505,56.514,13496,762708.03,57,56.505,56.5,56.545,56.51,0.009288534019255902,0.00989992852037173,atvi,20191211
2019-12-11,12:50,12:50 PM,56.5,56.49,56.49,106,5988.0,3,56.51,56.49,56.502,7842,443088.31,33,56.5,56.49,56.5,56.49,0.009056320668774539,0.009685489635453924,atvi,20191211
2019-12-11,12:51,12:51 PM,56.47,56.455,56.467,221,12479.28,4,56.495,56.435,56.466,12351,697411.635,76,56.47,56.455,56.49,56.44,0.008645481664076627,0.009042172980700505,atvi,20191211
2019-12-11,12:52,12:52 PM,,,,0,0.0,0,56.445,56.435,56.44,3264,184221.48,30,,,56.445,56.44,,0.008577555396711881,atvi,20191211
2019-12-11,12:53,12:53 PM,56.44,56.44,56.44,13,733.72,1,56.45,56.41,56.434,5102,287928.1596,44,56.44,56.44,56.44,56.41,0.00816319239769217,0.008470335954252978,atvi,20191211
2019-12-11,12:54,12:54 PM,,,,0,0.0,0,56.42,56.4,56.409,4866,274487.31,25,,,56.41,56.41,,0.008023588277340923,atvi,20191211
2019-12-11,12:55,12:55 PM,56.45,56.42,56.434,39,2200.915,4,56.45,56.412,56.44,3795,214190.1225,21,56.42,56.45,56.412,56.45,0.008056017005162291,0.008577555396711881,atvi,20191211
2019-12-11,12:56,12:56 PM,,,,0,0.0,0,56.49,56.46,56.476,4797,270915.8,34,,,56.46,56.49,,0.0092208720514653,atvi,20191211
2019-12-11,12:57,12:57 PM,,,,0,0.0,0,56.525,56.5,56.511,3120,176313.06,27,,,56.5,56.52,,0.009846318799142278,atvi,20191211
2019-12-11,12:58,12:58 PM,56.515,56.5,56.506,12,678.075,2,56.525,56.5,56.514,2461,139082.11,18,56.515,56.5,56.525,56.5,0.009342121715520842,0.00989992852037173,atvi,20191211
2019-12-11,12:59,12:59 PM,56.495,56.495,56.495,111,6270.945,2,56.5,56.49,56.498,3813,215425.65,11,56.495,56.495,56.492,56.49,0.009145633495882688,0.009614010007147903,atvi,20191211
2019-12-11,13:00,1 PM,56.5,56.5,56.5,23,1299.5,1,56.52,56.495,56.503,3765,212733.5,33,56.5,56.5,56.5,56.515,0.009234946322990963,0.009703359542530366,atvi,20191211
2019-12-11,13:01,1:01 PM,56.54,56.53,56.539,105,5936.65,3,56.54,56.52,56.53,2290,129452.793,18,56.54,56.53,56.52,56.53,0.009931586374435177,0.01018584703359543,atvi,20191211
2019-12-11,13:02,1:02 PM,,,,0,0.0,0,56.54,56.515,56.525,3113,175963.2702,28,,,56.53,56.53,,0.010096497498212969,atvi,20191211
2019-12-11,13:03,1:03 PM,56.54,56.54,56.54,100,5654.0,1,56.55,56.535,56.54,1400,79155.52,12,56.54,56.54,56.535,56.54,0.00994944893985678,0.010364546104360226,atvi,20191211
2019-12-11,13:04,1:04 PM,56.545,56.535,56.536,110,6218.95,2,56.546,56.53,56.539,3314,187369.9,26,56.545,56.535,56.546,56.539,0.009877998678170238,0.010346676197283786,atvi,20191211
2019-12-11,13:05,1:05 PM,56.505,56.5,56.505,106,5989.5,3,56.535,56.495,56.514,4224,238713.564,33,56.505,56.5,56.531,56.495,0.009324259150099237,0.00989992852037173,atvi,20191211
2019-12-11,13:06,1:06 PM,56.49,56.49,56.49,14,790.86,3,56.5,56.485,56.492,2142,121004.9851,16,56.49,56.49,56.495,56.485,0.009056320668774539,0.009506790564689,atvi,20191211
2019-12-11,13:07,1:07 PM,,,,0,0.0,0,56.495,56.49,56.492,1607,90783.43,13,,,56.49,56.495,,0.009506790564689,atvi,20191211
2019-12-11,13:08,1:08 PM,,,,0,0.0,0,56.495,56.47,56.485,1300,73430.0,13,,,56.49,56.47,,0.009381701215153656,atvi,20191211
2019-12-11,13:09,1:09 PM,,,,0,0.0,0,56.475,56.45,56.46,2814,158877.8494,24,,,56.473,56.45,,0.008934953538241601,atvi,20191211
2019-12-11,13:10,1:10 PM,56.46,56.44,56.45,57,3217.63,4,56.46,56.425,56.446,7679,433450.2,64,56.455,56.44,56.46,56.43,0.00834181805190872,0.008684774839170784,atvi,20191211
2019-12-11,13:11,1:11 PM,56.43,56.42,56.425,190,10720.8,2,56.44,56.4,56.425,6150,347012.475,49,56.42,56.43,56.43,56.43,0.007895253916367473,0.008309506790564624,atvi,20191211
2019-12-11,13:12,1:12 PM,56.44,56.44,56.44,100,5644.0,1,56.44,56.41,56.428,2900,163640.6494,24,56.44,56.44,56.435,56.41,0.00816319239769217,0.008363116511794074,atvi,20191211
2019-12-11,13:13,1:13 PM,56.41,56.41,56.41,100,5641.0,1,56.415,56.4,56.407,3570,201375.081,34,56.41,56.41,56.41,56.4,0.007627315435042774,0.007987848463187914,atvi,20191211
2019-12-11,13:14,1:14 PM,56.41,56.405,56.406,126,7107.16,2,56.41,56.395,56.402,9558,539094.8682,69,56.405,56.41,56.405,56.4,0.0075558651733562306,0.007898498927805577,atvi,20191211
2019-12-11,13:15,1:15 PM,56.41,56.405,56.407,193,10886.665,4,56.42,56.4,56.408,4365,246219.275,39,56.405,56.41,56.4,56.415,0.007573727738777835,0.008005718370264482,atvi,20191211
2019-12-11,13:16,1:16 PM,56.42,56.41,56.419,212,11960.92,4,56.43,56.405,56.417,3392,191368.175,32,56.41,56.42,56.415,56.43,0.007788078523837593,0.008166547533952837,atvi,20191211
2019-12-11,13:17,1:17 PM,,,,0,0.0,0,56.46,56.44,56.455,4930,278323.32,35,,,56.44,56.46,,0.00884560400285914,atvi,20191211
2019-12-11,13:18,1:18 PM,56.45,56.45,56.45,38,2145.1,1,56.46,56.44,56.451,2300,129837.5,22,56.45,56.45,56.46,56.45,0.00834181805190872,0.008774124374553246,atvi,20191211
2019-12-11,13:19,1:19 PM,56.44,56.42,56.421,341,19239.68,7,56.445,56.41,56.422,6412,361776.42,40,56.44,56.42,56.44,56.42,0.007823803654680928,0.008255897069335171,atvi,20191211
2019-12-11,13:20,1:20 PM,56.45,56.45,56.45,100,5645.0,1,56.455,56.42,56.443,5933,334873.68,43,56.45,56.45,56.43,56.45,0.00834181805190872,0.008631165117941333,atvi,20191211
2019-12-11,13:21,1:21 PM,56.455,56.45,56.451,37,2088.7,2,56.46,56.44,56.45,4474,252558.32,38,56.45,56.455,56.45,56.45,0.008359680617330324,0.008756254467476805,atvi,20191211
2019-12-11,13:22,1:22 PM,,,,0,0.0,0,56.458,56.45,56.453,1081,61025.65,9,,,56.45,56.458,,0.008809864188706256,atvi,20191211
2019-12-11,13:23,1:23 PM,56.45,56.45,56.45,3,169.35,2,56.46,56.43,56.448,6761,381646.12,55,56.45,56.45,56.46,56.46,0.00834181805190872,0.008720514653323795,atvi,20191211
2019-12-11,13:24,1:24 PM,56.45,56.45,56.45,2,112.9,1,56.46,56.445,56.453,7998,451507.6178,61,56.45,56.45,56.46,56.45,0.00834181805190872,0.008809864188706256,atvi,20191211
2019-12-11,13:25,1:25 PM,56.46,56.46,56.46,200,11292.0,2,56.465,56.45,56.456,8361,472029.72,74,56.46,56.46,56.45,56.46,0.008520443706125144,0.008863473909935709,atvi,20191211
2019-12-11,13:26,1:26 PM,56.47,56.47,56.47,100,5647.0,1,56.47,56.46,56.465,4820,272163.9,42,56.47,56.47,56.47,56.46,0.008699069360341566,0.009024303073624063,atvi,20191211
2019-12-11,13:27,1:27 PM,,,,0,0.0,0,56.465,56.46,56.462,600,33877.42,6,,,56.465,56.464,,0.008970693352394612,atvi,20191211
2019-12-11,13:28,1:28 PM,56.46,56.455,56.458,237,13380.52,5,56.47,56.45,56.46,3700,208902.5,32,56.46,56.46,56.47,56.47,0.008484718575281807,0.008934953538241601,atvi,20191211
2019-12-11,13:29,1:29 PM,56.49,56.48,56.485,200,11297.0,4,56.5,56.47,56.482,8256,466317.7578,62,56.48,56.49,56.475,56.476,0.008967007841666264,0.009328091493924204,atvi,20191211
2019-12-11,13:30,1:30 PM,56.46,56.46,56.46,18,1016.28,1,56.48,56.46,56.47,2556,144337.26,24,56.46,56.46,56.48,56.47,0.008520443706125144,0.009113652609006397,atvi,20191211
2019-12-11,13:31,1:31 PM,56.48,56.47,56.479,111,6269.17,2,56.48,56.47,56.475,1472,83130.84,12,56.47,56.48,56.475,56.475,0.008859832449136386,0.009203002144388859,atvi,20191211
2019-12-11,13:32,1:32 PM,56.47,56.46,56.461,119,6718.87,4,56.48,56.44,56.456,2891,163214.6681,23,56.47,56.46,56.475,56.44,0.008538306271546748,0.008863473909935709,atvi,20191211
2019-12-11,13:33,1:33 PM,56.46,56.45,56.452,19,1072.59,2,56.47,56.445,56.459,2527,142671.555,21,56.45,56.46,56.445,56.47,0.00837754318275193,0.00891708363116516,atvi,20191211
2019-12-11,13:34,1:34 PM,56.47,56.46,56.469,130,7341.025,7,56.48,56.46,56.47,5498,310472.65,37,56.47,56.47,56.47,56.47,0.008681206794919962,0.009113652609006397,atvi,20191211
2019-12-11,13:35,1:35 PM,56.48,56.47,56.479,12,677.75,3,56.48,56.47,56.478,1500,84717.0,14,56.47,56.48,56.475,56.48,0.008859832449136386,0.009256611865618311,atvi,20191211
2019-12-11,13:36,1:36 PM,56.465,56.465,56.465,2,112.93,2,56.47,56.46,56.465,2156,121738.506,13,56.465,56.465,56.465,56.464,0.008609756533233419,0.009024303073624063,atvi,20191211
2019-12-11,13:37,1:37 PM,56.46,56.405,56.439,303,17101.04,8,56.465,56.405,56.43,4228,238586.2718,37,56.46,56.405,56.46,56.41,0.008145329832270566,0.008398856325947085,atvi,20191211
2019-12-11,13:38,1:38 PM,56.405,56.395,56.4,40,2256.01,4,56.41,56.4,56.402,7711,434914.19,34,56.4,56.405,56.405,56.41,0.007448689780826351,0.007898498927805577,atvi,20191211
2019-12-11,13:39,1:39 PM,,,,0,0.0,0,56.42,56.4,56.415,5003,282243.9943,23,,,56.409,56.415,,0.008130807719799826,atvi,20191211
2019-12-11,13:40,1:40 PM,56.405,56.385,56.385,906,51084.87,5,56.415,56.38,56.395,15492,873673.835,38,56.405,56.385,56.411,56.395,0.0071807512995016535,0.007773409578270233,atvi,20191211
2019-12-11,13:41,1:41 PM,56.395,56.385,56.388,6,338.33,2,56.4,56.375,56.394,5733,323307.461,43,56.395,56.385,56.39,56.375,0.007234338995766592,0.007755539671193665,atvi,20191211
2019-12-11,13:42,1:42 PM,56.36,56.35,56.36,112,6312.3,5,56.37,56.35,56.357,4232,238502.98,22,56.36,56.35,56.37,56.35,0.006734187163960532,0.007094353109363804,atvi,20191211
2019-12-11,13:43,1:43 PM,56.355,56.34,56.345,19,1070.555,4,56.365,56.33,56.35,3500,197225.64,32,56.355,56.34,56.35,56.33,0.006466248682635834,0.006969263759828459,atvi,20191211
2019-12-11,13:44,1:44 PM,56.37,56.335,56.368,30,1691.045,3,56.37,56.33,56.353,4200,236683.51,35,56.335,56.37,56.33,56.37,0.006877087687333747,0.00702287348105791,atvi,20191211
2019-12-11,13:45,1:45 PM,,,,0,0.0,0,56.37,56.355,56.365,3500,197276.72,34,,,56.365,56.37,,0.007237312365975717,atvi,20191211
2019-12-11,13:46,1:46 PM,,,,0,0.0,0,56.38,56.365,56.374,1876,105756.89,15,,,56.365,56.38,,0.007398141529664072,atvi,20191211
2019-12-11,13:47,1:47 PM,,,,0,0.0,0,56.39,56.375,56.381,2826,159332.8214,20,,,56.38,56.39,,0.007523230879199417,atvi,20191211
2019-12-11,13:48,1:48 PM,,,,0,0.0,0,56.4,56.385,56.393,2120,119553.656,16,,,56.385,56.4,,0.0077376697641172235,atvi,20191211
2019-12-11,13:49,1:49 PM,,,,0,0.0,0,56.41,56.39,56.4,3376,190407.98,30,,,56.41,56.41,,0.007862759113652569,atvi,20191211
2019-12-11,13:50,1:50 PM,56.4,56.4,56.4,27,1522.8,4,56.406,56.39,56.401,3100,174843.17,23,56.4,56.4,56.405,56.4,0.007448689780826351,0.007880629020729137,atvi,20191211
2019-12-11,13:51,1:51 PM,56.41,56.41,56.41,34,1917.94,2,56.41,56.4,56.406,635,35817.69,6,56.41,56.41,56.405,56.404,0.007627315435042774,0.007969978556111472,atvi,20191211
2019-12-11,13:52,1:52 PM,,,,0,0.0,0,56.405,56.4,56.403,1222,68924.41,10,,,56.4,56.4,,0.00791636883488202,atvi,20191211
2019-12-11,13:53,1:53 PM,,,,0,0.0,0,56.41,56.4,56.407,1900,107173.0,16,,,56.405,56.41,,0.007987848463187914,atvi,20191211
2019-12-11,13:54,1:54 PM,56.4,56.4,56.4,6,338.4,4,56.41,56.39,56.401,3856,217480.441,31,56.4,56.4,56.405,56.39,0.007448689780826351,0.007880629020729137,atvi,20191211
2019-12-11,13:55,1:55 PM,56.4,56.4,56.4,50,2820.0,1,56.4,56.385,56.392,2200,124062.76,22,56.4,56.4,56.39,56.39,0.007448689780826351,0.0077197998570407815,atvi,20191211
2019-12-11,13:56,1:56 PM,,,,0,0.0,0,56.42,56.395,56.405,20343,1147451.92,37,,,56.395,56.42,,0.00795210864903503,atvi,20191211
2019-12-11,13:57,1:57 PM,56.42,56.42,56.42,13,733.46,1,56.45,56.42,56.432,6237,351967.9,39,56.42,56.42,56.42,56.45,0.007805941089259324,0.008434596140100096,atvi,20191211
2019-12-11,13:58,1:58 PM,,,,0,0.0,0,56.465,56.445,56.455,18386,1037982.0175,24,,,56.449,56.46,,0.00884560400285914,atvi,20191211
2019-12-11,13:59,1:59 PM,56.46,56.46,56.46,201,11348.46,4,56.465,56.41,56.445,7293,411653.78,51,56.46,56.46,56.465,56.45,0.008520443706125144,0.008666904932094342,atvi,20191211
2019-12-11,14:00,2 PM,,,,0,0.0,0,56.455,56.39,56.412,6938,391386.12,62,,,56.45,56.4,,0.008077197998570375,atvi,20191211
2019-12-11,14:01,2:01 PM,56.44,56.44,56.44,100,5644.0,1,56.455,56.4,56.433,4729,266871.6,39,56.44,56.44,56.4,56.455,0.00816319239769217,0.008452466047176536,atvi,20191211
2019-12-11,14:02,2:02 PM,,,,0,0.0,0,56.49,56.46,56.477,5249,296449.3564,32,,,56.46,56.49,,0.009238741958541742,atvi,20191211
2019-12-11,14:03,2:03 PM,,,,0,0.0,0,56.49,56.46,56.475,7778,439262.715,55,,,56.485,56.47,,0.009203002144388859,atvi,20191211
2019-12-11,14:04,2:04 PM,56.465,56.465,56.465,116,6549.94,1,56.485,56.46,56.474,8486,479239.32,74,56.465,56.465,56.48,56.47,0.008609756533233419,0.00918513223731229,atvi,20191211
2019-12-11,14:05,2:05 PM,56.475,56.47,56.474,28,1581.27,2,56.48,56.455,56.466,4500,254096.5,34,56.475,56.47,56.475,56.48,0.00877051962202811,0.009042172980700505,atvi,20191211
2019-12-11,14:06,2:06 PM,56.49,56.49,56.49,1012,57167.88,3,56.5,56.49,56.494,7756,438167.0,42,56.49,56.49,56.49,56.49,0.009056320668774539,0.00954253037884201,atvi,20191211
2019-12-11,14:07,2:07 PM,56.455,56.455,56.455,10,564.55,1,56.49,56.415,56.465,2600,146809.96,23,56.455,56.455,56.48,56.415,0.008431130879016868,0.009024303073624063,atvi,20191211
2019-12-11,14:08,2:08 PM,56.44,56.42,56.44,101,5700.42,2,56.45,56.41,56.422,6182,348804.335,50,56.42,56.44,56.415,56.44,0.00816319239769217,0.008255897069335171,atvi,20191211
2019-12-11,14:09,2:09 PM,56.45,56.45,56.45,99,5588.55,1,56.45,56.44,56.444,722,40752.68,6,56.45,56.45,56.45,56.44,0.00834181805190872,0.008649035025017902,atvi,20191211
2019-12-11,14:10,2:10 PM,56.405,56.395,56.396,112,6316.36,4,56.445,56.38,56.411,7500,423079.61,63,56.405,56.395,56.445,56.395,0.007377239519139807,0.008059328091493933,atvi,20191211
2019-12-11,14:11,2:11 PM,56.43,56.43,56.43,14,790.02,1,56.45,56.4,56.44,3150,177785.5,29,56.43,56.43,56.4,56.435,0.007984566743475746,0.008577555396711881,atvi,20191211
2019-12-11,14:12,2:12 PM,,,,0,0.0,0,56.44,56.43,56.434,1595,90012.8,14,,,56.435,56.44,,0.008470335954252978,atvi,20191211
2019-12-11,14:13,2:13 PM,,,,0,0.0,0,56.49,56.44,56.459,3949,222955.294,33,,,56.44,56.49,,0.00891708363116516,atvi,20191211
2019-12-11,14:14,2:14 PM,56.485,56.485,56.485,200,11297.0,2,56.49,56.46,56.479,5531,312387.45,44,56.485,56.485,56.49,56.47,0.008967007841666264,0.009274481772694753,atvi,20191211
2019-12-11,14:15,2:15 PM,56.48,56.48,56.48,100,5648.0,1,56.487,56.475,56.481,3161,178535.3854,23,56.48,56.48,56.477,56.487,0.00887769501455799,0.009310221586847762,atvi,20191211
2019-12-11,14:16,2:16 PM,,,,0,0.0,0,56.485,56.48,56.483,200,11296.5,2,,,56.485,56.48,,0.009345961401000646,atvi,20191211
2019-12-11,14:17,2:17 PM,56.485,56.48,56.481,33,1863.89,5,56.49,56.475,56.484,5061,285863.79,44,56.48,56.485,56.49,56.475,0.00889555757997972,0.009363831308077214,atvi,20191211
2019-12-11,14:18,2:18 PM,56.5,56.485,56.499,106,5988.91,3,56.505,56.47,56.487,20098,1135271.195,95,56.485,56.5,56.47,56.48,0.009217083757569359,0.009417441029306665,atvi,20191211
2019-12-11,14:19,2:19 PM,,,,0,0.0,0,56.49,56.485,56.489,1565,88405.095,12,,,56.485,56.49,,0.009453180843459549,atvi,20191211
2019-12-11,14:20,2:20 PM,,,,0,0.0,0,56.52,56.499,56.51,3168,179022.2637,14,,,56.499,56.52,,0.00982844889206571,atvi,20191211
2019-12-11,14:21,2:21 PM,56.51,56.51,56.51,13,734.63,2,56.52,56.5,56.514,7224,408255.46,49,56.51,56.51,56.52,56.515,0.009413571977207385,0.00989992852037173,atvi,20191211
2019-12-11,14:22,2:22 PM,56.48,56.48,56.48,12,677.76,2,56.518,56.465,56.489,3455,195168.91,33,56.48,56.48,56.518,56.465,0.00887769501455799,0.009453180843459549,atvi,20191211
2019-12-11,14:23,2:23 PM,56.5,56.5,56.5,1000,56500.0,1,56.5,56.465,56.487,9844,556061.2615,57,56.5,56.5,56.47,56.5,0.009234946322990963,0.009417441029306665,atvi,20191211
2019-12-11,14:24,2:24 PM,56.5,56.5,56.5,3,169.5,1,56.51,56.49,56.499,7771,439054.8485,46,56.5,56.5,56.51,56.5,0.009234946322990963,0.009631879914224472,atvi,20191211
2019-12-11,14:25,2:25 PM,56.49,56.49,56.49,6,338.94,1,56.495,56.475,56.486,4172,235659.9215,16,56.49,56.49,56.49,56.48,0.009056320668774539,0.009399571122230096,atvi,20191211
2019-12-11,14:26,2:26 PM,56.47,56.465,56.466,499,28176.535,2,56.49,56.452,56.47,7686,434031.473,61,56.465,56.47,56.47,56.49,0.008627619098655023,0.009113652609006397,atvi,20191211
2019-12-11,14:27,2:27 PM,56.48,56.47,56.48,1007,56875.29,3,56.49,56.46,56.479,6300,355818.65,36,56.48,56.47,56.48,56.46,0.00887769501455799,0.009274481772694753,atvi,20191211
2019-12-11,14:28,2:28 PM,56.465,56.465,56.465,100,5646.5,1,56.47,56.46,56.465,1755,99096.575,13,56.465,56.465,56.46,56.465,0.008609756533233419,0.009024303073624063,atvi,20191211
2019-12-11,14:29,2:29 PM,,,,0,0.0,0,56.48,56.465,56.473,2092,118141.9738,18,,,56.465,56.48,,0.00916726233023585,atvi,20191211
2019-12-11,14:30,2:30 PM,56.49,56.49,56.49,10,564.9,1,56.5,56.48,56.49,4725,266917.25,38,56.49,56.49,56.49,56.5,0.009056320668774539,0.009471050750536118,atvi,20191211
2019-12-11,14:31,2:31 PM,56.49,56.485,56.489,110,6213.85,5,56.5,56.48,56.495,10081,569521.425,84,56.49,56.49,56.5,56.49,0.009038458103352808,0.009560400285918452,atvi,20191211
2019-12-11,14:32,2:32 PM,56.455,56.455,56.455,100,5645.5,1,56.49,56.45,56.473,9616,543045.24,70,56.455,56.455,56.49,56.47,0.008431130879016868,0.00916726233023585,atvi,20191211
2019-12-11,14:33,2:33 PM,56.475,56.465,56.475,810,45744.71,3,56.48,56.45,56.472,6425,362833.2402,35,56.475,56.465,56.47,56.45,0.008788382187449841,0.009149392423159408,atvi,20191211
2019-12-11,14:34,2:34 PM,56.475,56.475,56.475,15,847.125,1,56.48,56.445,56.47,13253,748392.8705,51,56.475,56.475,56.45,56.472,0.008788382187449841,0.009113652609006397,atvi,20191211
2019-12-11,14:35,2:35 PM,56.47,56.46,56.461,110,6210.66,4,56.475,56.46,56.471,7267,410373.2516,52,56.47,56.46,56.475,56.47,0.008538306271546748,0.00913152251608284,atvi,20191211
2019-12-11,14:36,2:36 PM,56.46,56.425,56.44,301,16988.425,3,56.465,56.395,56.41,16038,904702.3244,79,56.46,56.425,56.465,56.4,0.00816319239769217,0.008041458184417365,atvi,20191211
2019-12-11,14:37,2:37 PM,56.46,56.41,56.455,228,12871.68,5,56.47,56.4,56.443,8342,470848.14,70,56.41,56.46,56.4,56.46,0.008431130879016868,0.008631165117941333,atvi,20191211
2019-12-11,14:38,2:38 PM,56.49,56.48,56.489,106,5987.88,2,56.495,56.457,56.478,16703,943346.8325,108,56.49,56.48,56.46,56.49,0.009038458103352808,0.009256611865618311,atvi,20191211
2019-12-11,14:39,2:39 PM,56.47,56.45,56.459,222,12533.9,3,56.49,56.45,56.475,9609,542671.4175,51,56.45,56.47,56.48,56.475,0.00850258114070354,0.009203002144388859,atvi,20191211
2019-12-11,14:40,2:40 PM,56.46,56.46,56.46,2,112.92,1,56.489,56.425,56.454,8870,500747.4245,55,56.46,56.46,56.47,56.489,0.008520443706125144,0.008827734095782698,atvi,20191211
2019-12-11,14:41,2:41 PM,,,,0,0.0,0,56.5,56.475,56.487,11535,651577.1115,69,,,56.485,56.495,,0.009417441029306665,atvi,20191211
2019-12-11,14:42,2:42 PM,56.465,56.455,56.458,140,7904.1,4,56.49,56.45,56.47,4460,251857.54,38,56.465,56.455,56.49,56.46,0.008484718575281807,0.009113652609006397,atvi,20191211
2019-12-11,14:43,2:43 PM,56.49,56.475,56.484,221,12483.065,5,56.5,56.455,56.485,8100,457525.5,65,56.48,56.48,56.455,56.47,0.00894914527624466,0.009381701215153656,atvi,20191211
2019-12-11,14:44,2:44 PM,,,,0,0.0,0,56.46,56.44,56.454,1500,84681.0,14,,,56.45,56.46,,0.008827734095782698,atvi,20191211
2019-12-11,14:45,2:45 PM,56.465,56.445,56.461,22,1242.145,3,56.475,56.43,56.46,3694,208563.74,34,56.465,56.445,56.47,56.46,0.008538306271546748,0.008934953538241601,atvi,20191211
2019-12-11,14:46,2:46 PM,56.47,56.47,56.47,3,169.41,2,56.48,56.46,56.468,2918,164774.5872,25,56.47,56.47,56.47,56.48,0.008699069360341566,0.009077912794853515,atvi,20191211
2019-12-11,14:47,2:47 PM,56.49,56.47,56.487,13,734.33,3,56.5,56.47,56.481,10628,600277.595,77,56.47,56.48,56.48,56.49,0.0090027329725096,0.009310221586847762,atvi,20191211
2019-12-11,14:48,2:48 PM,56.485,56.47,56.483,589,33268.445,13,56.49,56.475,56.482,7133,402886.5487,49,56.48,56.475,56.48,56.475,0.008931282710822929,0.009328091493924204,atvi,20191211
2019-12-11,14:49,2:49 PM,56.485,56.47,56.484,105,5930.88,5,56.485,56.47,56.479,3711,209593.725,33,56.47,56.485,56.47,56.485,0.00894914527624466,0.009274481772694753,atvi,20191211
2019-12-11,14:50,2:50 PM,56.485,56.465,56.474,51,2880.195,7,56.5,56.47,56.489,5602,316453.45,52,56.48,56.48,56.485,56.49,0.00877051962202811,0.009453180843459549,atvi,20191211
2019-12-11,14:51,2:51 PM,56.475,56.475,56.475,124,7002.9,3,56.48,56.47,56.475,600,33885.0,5,56.475,56.475,56.48,56.475,0.008788382187449841,0.009203002144388859,atvi,20191211
2019-12-11,14:52,2:52 PM,56.49,56.485,56.489,110,6213.85,2,56.5,56.475,56.487,5406,305369.4165,23,56.485,56.49,56.475,56.5,0.009038458103352808,0.009417441029306665,atvi,20191211
2019-12-11,14:53,2:53 PM,56.52,56.495,56.515,2791,157734.165,10,56.525,56.495,56.502,65005,3672927.4275,125,56.495,56.52,56.495,56.52,0.00950288480431566,0.009685489635453924,atvi,20191211
2019-12-11,14:54,2:54 PM,56.515,56.505,56.512,635,35885.395,5,56.53,56.5,56.51,11810,667383.55,76,56.515,56.51,56.52,56.51,0.00944929710805072,0.00982844889206571,atvi,20191211
2019-12-11,14:55,2:55 PM,56.52,56.5,56.51,200,11302.0,2,56.53,56.5,56.511,10765,608347.15,92,56.52,56.5,56.51,56.5,0.009413571977207385,0.009846318799142278,atvi,20191211
2019-12-11,14:56,2:56 PM,,,,0,0.0,0,56.509,56.5,56.505,2200,124310.4,16,,,56.5,56.505,,0.009739099356683375,atvi,20191211
2019-12-11,14:57,2:57 PM,,,,0,0.0,0,56.52,56.48,56.502,10825,611633.9875,64,,,56.51,56.48,,0.009685489635453924,atvi,20191211
2019-12-11,14:58,2:58 PM,56.48,56.48,56.48,200,11296.0,3,56.49,56.47,56.48,2600,146849.5,22,56.48,56.48,56.485,56.47,0.00887769501455799,0.009292351679771193,atvi,20191211
2019-12-11,14:59,2:59 PM,56.47,56.47,56.47,61,3444.67,1,56.47,56.44,56.456,4410,248969.615,35,56.47,56.47,56.46,56.45,0.008699069360341566,0.008863473909935709,atvi,20191211
2019-12-11,15:00,3 PM,56.485,56.47,56.483,114,6439.11,4,56.51,56.46,56.488,14792,835566.89,98,56.47,56.47,56.46,56.485,0.008931282710822929,0.009435310936383107,atvi,20191211
2019-12-11,15:01,3:01 PM,56.48,56.48,56.48,6,338.88,1,56.495,56.47,56.483,6800,384087.0,52,56.48,56.48,56.49,56.475,0.00887769501455799,0.009345961401000646,atvi,20191211
2019-12-11,15:02,3:02 PM,56.47,56.47,56.47,100,5647.0,1,56.525,56.46,56.5,18641,1053224.37,86,56.47,56.47,56.47,56.52,0.008699069360341566,0.009649749821300914,atvi,20191211
2019-12-11,15:03,3:03 PM,56.53,56.53,56.53,100,5653.0,1,56.54,56.515,56.526,10819,611554.207,85,56.53,56.53,56.52,56.525,0.009770823285640358,0.010114367405289537,atvi,20191211
2019-12-11,15:04,3:04 PM,56.53,56.51,56.519,226,12773.275,5,56.535,56.5,56.522,8501,480492.341,52,56.515,56.53,56.52,56.53,0.009574335066002203,0.010042887776983516,atvi,20191211
2019-12-11,15:05,3:05 PM,56.54,56.535,56.54,206,11647.21,2,56.545,56.5,56.531,14686,830209.41,86,56.54,56.535,56.53,56.51,0.00994944893985678,0.010203716940671872,atvi,20191211
2019-12-11,15:06,3:06 PM,56.5,56.495,56.498,200,11299.5,2,56.525,56.49,56.508,15700,887168.56,59,56.495,56.5,56.52,56.51,0.009199221192147626,0.009792709077912827,atvi,20191211
2019-12-11,15:07,3:07 PM,56.52,56.51,56.517,317,17915.82,5,56.53,56.505,56.516,8524,481744.52,64,56.52,56.51,56.51,56.51,0.009538609935158995,0.009935668334524613,atvi,20191211
2019-12-11,15:08,3:08 PM,56.495,56.495,56.495,7,395.465,2,56.517,56.48,56.499,2895,163564.5576,19,56.495,56.495,56.51,56.48,0.009145633495882688,0.009631879914224472,atvi,20191211
2019-12-11,15:09,3:09 PM,56.49,56.49,56.49,100,5649.0,1,56.51,56.48,56.491,16093,909106.28,91,56.49,56.49,56.485,56.5,0.009056320668774539,0.00948892065761256,atvi,20191211
2019-12-11,15:10,3:10 PM,,,,0,0.0,0,56.51,56.485,56.49,9522,537895.78,31,,,56.505,56.505,,0.009471050750536118,atvi,20191211
2019-12-11,15:11,3:11 PM,56.49,56.48,56.49,77,4349.71,2,56.5,56.48,56.489,4630,261544.15,43,56.49,56.48,56.495,56.49,0.009056320668774539,0.009453180843459549,atvi,20191211
2019-12-11,15:12,3:12 PM,56.47,56.47,56.47,98,5534.06,1,56.5,56.46,56.494,10000,564941.5,44,56.47,56.47,56.49,56.47,0.008699069360341566,0.00954253037884201,atvi,20191211
2019-12-11,15:13,3:13 PM,56.47,56.47,56.47,20,1129.4,1,56.47,56.44,56.457,11580,653774.677,74,56.47,56.47,56.465,56.455,0.008699069360341566,0.008881343817012149,atvi,20191211
2019-12-11,15:14,3:14 PM,56.44,56.44,56.44,100,5644.0,1,56.47,56.425,56.435,10897,614975.43,44,56.44,56.44,56.45,56.47,0.00816319239769217,0.008488205861329546,atvi,20191211
2019-12-11,15:15,3:15 PM,56.48,56.45,56.475,12,677.7,2,56.48,56.44,56.472,20367,1150157.41,87,56.48,56.45,56.47,56.44,0.008788382187449841,0.009149392423159408,atvi,20191211
2019-12-11,15:16,3:16 PM,56.455,56.43,56.45,205,11572.23,6,56.46,56.435,56.438,26016,1468304.2775,56,56.43,56.455,56.445,56.45,0.00834181805190872,0.008541815582558999,atvi,20191211
2019-12-11,15:17,3:17 PM,56.45,56.445,56.445,114,6434.78,4,56.455,56.445,56.45,1629,91957.05,13,56.445,56.445,56.45,56.445,0.008252505224800446,0.008756254467476805,atvi,20191211
2019-12-11,15:18,3:18 PM,,,,0,0.0,0,56.455,56.445,56.451,1200,67741.5,12,,,56.45,56.445,,0.008774124374553246,atvi,20191211
2019-12-11,15:19,3:19 PM,,,,0,0.0,0,56.455,56.43,56.445,4915,277429.4386,37,,,56.44,56.43,,0.008666904932094342,atvi,20191211
2019-12-11,15:20,3:20 PM,56.43,56.425,56.426,132,7448.26,3,56.435,56.42,56.427,4681,264135.5585,42,56.425,56.43,56.428,56.43,0.007913116481789204,0.008345246604717632,atvi,20191211
2019-12-11,15:21,3:21 PM,56.45,56.435,56.45,909,51312.915,5,56.45,56.43,56.446,9683,546563.1342,52,56.45,56.435,56.44,56.44,0.00834181805190872,0.008684774839170784,atvi,20191211
2019-12-11,15:22,3:22 PM,56.42,56.42,56.42,35,1974.7,2,56.435,56.42,56.429,6877,388059.7056,50,56.42,56.42,56.43,56.435,0.007805941089259324,0.008380986418870643,atvi,20191211
2019-12-11,15:23,3:23 PM,56.45,56.43,56.447,91,5136.7,4,56.45,56.42,56.437,39640,2237176.5036,71,56.43,56.435,56.434,56.43,0.00828823035564378,0.00852394567548243,atvi,20191211
2019-12-11,15:24,3:24 PM,56.425,56.425,56.425,5,282.125,1,56.475,56.42,56.443,27272,1539326.195,158,56.425,56.425,56.43,56.47,0.007895253916367473,0.008631165117941333,atvi,20191211
2019-12-11,15:25,3:25 PM,56.48,56.48,56.48,25,1412.0,1,56.51,56.46,56.498,66152,3737449.57,164,56.48,56.48,56.47,56.51,0.00887769501455799,0.009614010007147903,atvi,20191211
2019-12-11,15:26,3:26 PM,56.51,56.49,56.507,135,7628.48,5,56.51,56.49,56.502,10455,590734.16,74,56.51,56.49,56.51,56.49,0.009359984280942446,0.009685489635453924,atvi,20191211
2019-12-11,15:27,3:27 PM,,,,0,0.0,0,56.505,56.495,56.5,2100,118649.5,21,,,56.495,56.5,,0.009649749821300914,atvi,20191211
2019-12-11,15:28,3:28 PM,56.51,56.51,56.51,26,1469.26,2,56.52,56.5,56.508,10714,605432.54,79,56.51,56.51,56.5,56.505,0.009413571977207385,0.009792709077912827,atvi,20191211
2019-12-11,15:29,3:29 PM,56.5,56.49,56.495,360,20338.035,8,56.505,56.48,56.492,3411,192695.16,30,56.5,56.49,56.505,56.48,0.009145633495882688,0.009506790564689,atvi,20191211
2019-12-11,15:30,3:30 PM,56.48,56.47,56.474,271,15304.47,4,56.485,56.455,56.467,8808,497365.24,57,56.475,56.48,56.48,56.485,0.00877051962202811,0.009060042887776946,atvi,20191211
2019-12-11,15:31,3:31 PM,56.48,56.475,56.477,200,11295.5,2,56.49,56.46,56.475,11438,645967.52,79,56.48,56.475,56.49,56.475,0.00882410731829305,0.009203002144388859,atvi,20191211
2019-12-11,15:32,3:32 PM,56.49,56.475,56.478,127,7172.73,4,56.51,56.475,56.481,24132,1363011.175,69,56.475,56.49,56.475,56.509,0.00884196988371478,0.009310221586847762,atvi,20191211
2019-12-11,15:33,3:33 PM,,,,0,0.0,0,56.52,56.49,56.506,10959,619249.4802,62,,,56.505,56.515,,0.009756969263759817,atvi,20191211
2019-12-11,15:34,3:34 PM,,,,0,0.0,0,56.515,56.5,56.504,2315,130807.476,20,,,56.51,56.505,,0.009721229449606806,atvi,20191211
2019-12-11,15:35,3:35 PM,56.5,56.5,56.5,15,847.5,2,56.515,56.492,56.501,8993,508114.516,55,56.5,56.5,56.5,56.51,0.009234946322990963,0.009667619728377356,atvi,20191211
2019-12-11,15:36,3:36 PM,56.505,56.5,56.501,15,847.51,3,56.515,56.485,56.5,5700,322049.5,45,56.505,56.5,56.515,56.49,0.009252808888412567,0.009649749821300914,atvi,20191211
2019-12-11,15:37,3:37 PM,56.495,56.49,56.492,200,11298.5,3,56.5,56.49,56.494,4498,254108.52,41,56.49,56.495,56.49,56.495,0.009092045799617747,0.00954253037884201,atvi,20191211
2019-12-11,15:38,3:38 PM,56.495,56.485,56.494,130,7344.17,3,56.5,56.48,56.49,7540,425936.635,55,56.495,56.49,56.495,56.5,0.009127770930461084,0.009471050750536118,atvi,20191211
2019-12-11,15:39,3:39 PM,56.49,56.49,56.49,6,338.94,1,56.505,56.49,56.497,10125,572032.94,72,56.49,56.49,56.495,56.495,0.009056320668774539,0.009596140100071463,atvi,20191211
2019-12-11,15:40,3:40 PM,56.5,56.49,56.495,200,11299.0,3,56.505,56.485,56.497,10238,578416.34,72,56.5,56.49,56.495,56.49,0.009145633495882688,0.009596140100071463,atvi,20191211
2019-12-11,15:41,3:41 PM,56.51,56.485,56.498,200,11299.5,2,56.52,56.485,56.509,13145,742805.98,86,56.485,56.51,56.49,56.51,0.009199221192147626,0.00981057898498927,atvi,20191211
2019-12-11,15:42,3:42 PM,,,,0,0.0,0,56.52,56.51,56.511,5100,288208.0,29,,,56.51,56.51,,0.009846318799142278,atvi,20191211
2019-12-11,15:43,3:43 PM,56.515,56.505,56.51,208,11754.04,4,56.52,56.5,56.51,5388,304475.28,38,56.515,56.505,56.515,56.505,0.009413571977207385,0.00982844889206571,atvi,20191211
2019-12-11,15:44,3:44 PM,,,,0,0.0,0,56.508,56.5,56.504,2830,159907.542,24,,,56.505,56.5,,0.009721229449606806,atvi,20191211
2019-12-11,15:45,3:45 PM,56.51,56.49,56.504,213,12035.32,9,56.51,56.485,56.503,36769,2077571.71,76,56.5,56.49,56.5,56.49,0.009306396584677506,0.009703359542530366,atvi,20191211
2019-12-11,15:46,3:46 PM,56.495,56.485,56.492,137,7739.445,3,56.5,56.485,56.494,5668,320210.4768,42,56.485,56.495,56.49,56.495,0.009092045799617747,0.00954253037884201,atvi,20191211
2019-12-11,15:47,3:47 PM,56.51,56.495,56.502,234,13221.55,6,56.515,56.495,56.506,13077,738933.852,89,56.495,56.51,56.495,56.51,0.009270671453834298,0.009756969263759817,atvi,20191211
2019-12-11,15:48,3:48 PM,56.505,56.5,56.505,132,7458.6,5,56.51,56.49,56.501,10660,602296.14,79,56.505,56.505,56.5,56.496,0.009324259150099237,0.009667619728377356,atvi,20191211
2019-12-11,15:49,3:49 PM,56.51,56.49,56.504,426,24070.67,8,56.515,56.485,56.501,15535,877748.1748,130,56.49,56.51,56.495,56.515,0.009306396584677506,0.009667619728377356,atvi,20191211
2019-12-11,15:50,3:50 PM,56.53,56.52,56.527,219,12379.46,5,56.545,56.52,56.529,43433,2455224.6888,289,56.53,56.52,56.52,56.52,0.00971723558937542,0.010167977126518988,atvi,20191211
2019-12-11,15:51,3:51 PM,56.535,56.525,56.528,300,16958.5,3,56.54,56.52,56.528,31077,1756705.947,198,56.535,56.525,56.52,56.54,0.009735098154797023,0.01015010721944242,atvi,20191211
2019-12-11,15:52,3:52 PM,56.54,56.5,56.52,1248,70537.085,8,56.54,56.49,56.519,60921,3443207.7249,316,56.54,56.52,56.54,56.51,0.009592197631423936,0.009989278055754065,atvi,20191211
2019-12-11,15:53,3:53 PM,56.52,56.505,56.508,123,6950.46,3,56.52,56.49,56.507,20690,1169132.59,149,56.505,56.52,56.51,56.51,0.009377846846364177,0.009774839170836259,atvi,20191211
2019-12-11,15:54,3:54 PM,56.53,56.525,56.528,300,16958.5,3,56.56,56.519,56.532,81668,4616898.752,354,56.53,56.525,56.52,56.55,0.009735098154797023,0.010221586847748314,atvi,20191211
2019-12-11,15:55,3:55 PM,56.55,56.51,56.529,454,25664.16,8,56.565,56.5,56.532,40001,2261351.77,306,56.55,56.51,56.56,56.5,0.009752960720218754,0.010221586847748314,atvi,20191211
2019-12-11,15:56,3:56 PM,56.51,56.485,56.497,612,34576.395,8,56.51,56.48,56.498,39108,2209504.7097,234,56.505,56.485,56.505,56.49,0.009181358626726022,0.009614010007147903,atvi,20191211
2019-12-11,15:57,3:57 PM,56.51,56.485,56.5,643,36329.315,12,56.51,56.485,56.499,40559,2291549.0983,256,56.485,56.495,56.49,56.49,0.009234946322990963,0.009631879914224472,atvi,20191211
2019-12-11,15:58,3:58 PM,56.505,56.49,56.498,2115,119492.35,21,56.51,56.49,56.498,30239,1708442.86,193,56.495,56.49,56.5,56.495,0.009199221192147626,0.009614010007147903,atvi,20191211
2019-12-11,15:59,3:59 PM,56.5,56.48,56.493,2284,129030.545,22,56.5,56.47,56.489,78541,4436733.5044,390,56.49,56.5,56.5,56.48,0.00910990836503948,0.009453180843459549,atvi,20191211
