date,minute,label,high,low,average,volume,notional,numberOfTrades,marketHigh,marketLow,marketAverage,marketVolume,marketNotional,marketNumberOfTrades,open,close,marketOpen,marketClose,changeOverTime,marketChangeOverTime,tickerName,tickerDate
2020-01-23,09:30,09:30 AM,60.49,60.26,60.417,1327,80173.58,16,60.49,60.25,60.335,81970,4945680.05,133,60.26,60.43,60.32,60.42,0.0,0.0,atvi,20200123
2020-01-23,09:31,09:31 AM,60.41,60.35,60.381,913,55127.73,9,60.42,60.32,60.374,18757,1132428.2852,128,60.41,60.39,60.41,60.36,-0.0005958587814688145,0.0006463909836745087,atvi,20200123
2020-01-23,09:32,09:32 AM,60.4,60.33,60.337,111,6697.4,2,60.41,60.25,60.354,12230,738128.198,95,60.4,60.33,60.345,60.29,-0.001324130625486176,0.0003149084279439521,atvi,20200123
2020-01-23,09:33,09:33 AM,,,,0,0.0,0,60.4,60.283,60.352,15459,932980.2078,120,,,60.32,60.34,,0.00028176017237086117,atvi,20200123
2020-01-23,09:34,09:34 AM,60.35,60.35,60.35,100,6035.0,1,60.44,60.33,60.389,9724,587218.747,76,60.35,60.35,60.35,60.44,-0.0011089593988446989,0.0008950029004723965,atvi,20200123
2020-01-23,09:35,09:35 AM,60.415,60.36,60.361,103,6217.2,4,60.41,60.201,60.346,16369,987800.417,125,60.41,60.36,60.41,60.201,-0.0009268914378404172,0.00018231540565170597,atvi,20200123
2020-01-23,09:36,09:36 AM,60.21,60.195,60.203,200,12040.5,2,60.374,60.18,60.251,11728,706628.429,83,60.195,60.21,60.22,60.374,-0.003542049423175574,-0.0013922267340681724,atvi,20200123
2020-01-23,09:37,09:37 AM,60.42,60.365,60.392,200,12078.5,2,60.44,60.32,60.392,7263,438625.09,53,60.365,60.42,60.34,60.42,-0.0004137908204644153,0.0009447252838319741,atvi,20200123
2020-01-23,09:38,09:38 AM,60.36,60.32,60.341,798,48152.34,8,60.41,60.31,60.362,5400,325956.5,47,60.36,60.34,60.41,60.395,-0.0012579240942119025,0.00044750145023619826,atvi,20200123
2020-01-23,09:39,09:39 AM,60.405,60.405,60.405,200,12081.0,1,60.43,60.35,60.404,14190,857130.98,75,60.405,60.405,60.4,60.375,-0.00019861959382293815,0.0011436148172702845,atvi,20200123
2020-01-23,09:40,09:40 AM,60.33,60.3,60.329,106,6394.89,4,60.36,60.27,60.332,11862,715662.188,39,60.33,60.3,60.355,60.295,-0.0014565436880348405,-4.9722383359577585e-05,atvi,20200123
2020-01-23,09:41,09:41 AM,60.25,60.25,60.25,2,120.5,1,60.33,60.2,60.257,7024,423244.47,63,60.25,60.25,60.295,60.22,-0.0027641226807024774,-0.0012927819673490173,atvi,20200123
2020-01-23,09:42,09:42 AM,60.205,60.205,60.205,100,6020.5,1,60.23,60.17,60.206,13427,808380.463,89,60.205,60.205,60.21,60.215,-0.0035089461575384955,-0.0021380624844617186,atvi,20200123
2020-01-23,09:43,09:43 AM,,,,0,0.0,0,60.22,60.073,60.132,12432,747558.05,82,,,60.2,60.097,,-0.0033645479406646714,atvi,20200123
2020-01-23,09:44,09:44 AM,60.12,60.07,60.084,1007,60504.84,7,60.14,60.06,60.096,70588,4242027.8,107,60.07,60.12,60.08,60.08,-0.005511693728586299,-0.003961216540979602,atvi,20200123
2020-01-23,09:45,09:45 AM,60.12,60.11,60.115,200,12023.0,2,60.13,60.08,60.102,18256,1097218.6362,102,60.11,60.12,60.08,60.13,-0.004998593111210414,-0.0038617717742604474,atvi,20200123
2020-01-23,09:46,09:46 AM,60.245,60.23,60.24,62,3734.875,3,60.25,60.13,60.21,38348,2308941.8,266,60.24,60.245,60.13,60.225,-0.00292963900888822,-0.0020717659733156544,atvi,20200123
2020-01-23,09:47,09:47 AM,60.255,60.24,60.247,215,12953.1,6,60.27,60.24,60.252,11358,684346.945,90,60.255,60.24,60.24,60.27,-0.0028137775791582122,-0.0013756526062815681,atvi,20200123
2020-01-23,09:48,09:48 AM,60.275,60.24,60.264,352,21212.8,4,60.28,60.235,60.264,11542,695566.3376,85,60.27,60.24,60.27,60.24,-0.002532399821242344,-0.0011767630728432576,atvi,20200123
2020-01-23,09:49,09:49 AM,,,,0,0.0,0,60.255,60.225,60.237,8936,538278.2028,69,,,60.25,60.225,,-0.0016242645230794559,atvi,20200123
2020-01-23,09:50,09:50 AM,60.3,60.255,60.275,493,29715.605,5,60.3,60.225,60.265,24432,1472395.815,183,60.265,60.3,60.225,60.295,-0.0023503318602380624,-0.001160188945056771,atvi,20200123
2020-01-23,09:51,09:51 AM,60.345,60.31,60.338,502,30289.68,3,60.365,60.285,60.322,23961,1445369.555,135,60.31,60.34,60.295,60.335,-0.0013075789926676369,-0.00021546366122479694,atvi,20200123
2020-01-23,09:52,09:52 AM,60.345,60.32,60.335,711,42898.285,9,60.35,60.315,60.336,15555,938521.0442,113,60.34,60.32,60.34,60.32,-0.0013572338911233715,1.6574127786486607e-05,atvi,20200123
2020-01-23,09:53,09:53 AM,60.31,60.23,60.26,506,30491.32,7,60.327,60.23,60.268,13628,821330.902,108,60.31,60.265,60.325,60.265,-0.002598606352516735,-0.0011104665616971936,atvi,20200123
2020-01-23,09:54,09:54 AM,60.255,60.24,60.248,200,12049.5,2,60.29,60.24,60.271,10190,614166.35,68,60.255,60.24,60.265,60.285,-0.0027972259463396733,-0.001060744178337616,atvi,20200123
2020-01-23,09:55,09:55 AM,60.32,60.305,60.313,300,18094.0,3,60.36,60.285,60.318,18020,1086930.735,152,60.315,60.305,60.29,60.345,-0.0017213698131320523,-0.0002817601723709789,atvi,20200123
2020-01-23,09:56,09:56 AM,60.345,60.32,60.344,102,6155.14,2,60.35,60.32,60.335,10253,618612.115,69,60.345,60.32,60.344,60.325,-0.0012082691957561679,0.0,atvi,20200123
2020-01-23,09:57,09:57 AM,60.315,60.28,60.29,906,54622.78,6,60.35,60.275,60.305,15665,944677.955,119,60.315,60.3,60.325,60.345,-0.0021020573679593896,-0.0004972238335957758,atvi,20200123
2020-01-23,09:58,09:58 AM,60.425,60.345,60.372,385,23243.325,3,60.425,60.345,60.398,17180,1037634.7052,131,60.345,60.425,60.345,60.42,-0.0007448234768360181,0.0010441700505511293,atvi,20200123
2020-01-23,09:59,09:59 AM,60.415,60.415,60.415,100,6041.5,1,60.46,60.41,60.44,26895,1625524.7,195,60.415,60.415,60.42,60.44,-3.310326563719556e-05,0.0017402834175850978,atvi,20200123
2020-01-23,10:00,10 AM,60.44,60.435,60.435,101,6103.94,2,60.49,60.43,60.456,19815,1197929.55,144,60.44,60.435,60.45,60.43,0.00029792939073440723,0.00200546946216959,atvi,20200123
2020-01-23,10:01,10:01 AM,60.44,60.435,60.439,815,49258.1,3,60.445,60.425,60.436,8846,534619.38,65,60.44,60.44,60.43,60.44,0.00036413592200868074,0.0016739869064390336,atvi,20200123
2020-01-23,10:02,10:02 AM,60.48,60.48,60.48,200,12096.0,2,60.48,60.44,60.473,10940,661570.572,102,60.48,60.48,60.44,60.47,0.0010427528675703078,0.002287229634540451,atvi,20200123
2020-01-23,10:03,10:03 AM,60.475,60.405,60.449,384,23212.265,6,60.483,60.403,60.46,11641,703813.25,86,60.475,60.405,60.47,60.403,0.0005296522501944234,0.0020717659733156544,atvi,20200123
2020-01-23,10:04,10:04 AM,60.41,60.355,60.382,545,32908.4,7,60.41,60.355,60.382,5955,359576.895,41,60.41,60.4,60.405,60.395,-0.0005793071486502755,0.000778984005966637,atvi,20200123
2020-01-23,10:05,10:05 AM,60.405,60.395,60.395,104,6281.12,2,60.43,60.385,60.408,12902,779382.4461,89,60.405,60.395,60.4,60.425,-0.00036413592200868074,0.0012099113284163487,atvi,20200123
2020-01-23,10:06,10:06 AM,60.445,60.41,60.434,902,54511.39,5,60.45,60.4,60.434,10527,636184.87,78,60.445,60.41,60.425,60.415,0.00028137775791575064,0.0016408386508659427,atvi,20200123
2020-01-23,10:07,10:07 AM,60.445,60.42,60.432,200,12086.5,2,60.46,60.41,60.438,7759,468942.8166,72,60.42,60.445,60.42,60.445,0.0002482744922786727,0.0017071351620121245,atvi,20200123
2020-01-23,10:08,10:08 AM,60.455,60.43,60.439,786,47505.405,8,60.46,60.43,60.443,4252,257002.73,32,60.45,60.455,60.445,60.46,0.00036413592200868074,0.0017900058009446753,atvi,20200123
2020-01-23,10:09,10:09 AM,60.475,60.47,60.474,400,24189.5,4,60.49,60.46,60.479,10921,660495.6394,84,60.47,60.475,60.47,60.49,0.0009434430706588387,0.0023866744012596064,atvi,20200123
2020-01-23,10:10,10:10 AM,60.45,60.435,60.437,603,36443.34,9,60.49,60.435,60.47,11823,714940.52,88,60.45,60.435,60.487,60.445,0.0003310326563714852,0.0022375072511808735,atvi,20200123
2020-01-23,10:11,10:11 AM,60.445,60.445,60.445,100,6044.5,1,60.46,60.44,60.45,4089,247180.5306,36,60.445,60.445,60.445,60.46,0.0004634457189201498,0.001906024695450435,atvi,20200123
2020-01-23,10:12,10:12 AM,60.46,60.46,60.46,9,544.14,1,60.485,60.46,60.473,8408,508453.68,62,60.46,60.46,60.47,60.48,0.0007117202111988225,0.002287229634540451,atvi,20200123
2020-01-23,10:13,10:13 AM,60.51,60.475,60.484,330,19959.65,6,60.52,60.475,60.498,21378,1293318.84,114,60.51,60.475,60.49,60.5,0.0011089593988446989,0.0027015828292035584,atvi,20200123
2020-01-23,10:14,10:14 AM,60.535,60.495,60.513,600,36307.5,5,60.55,60.49,60.51,11982,725034.965,99,60.505,60.535,60.5,60.53,0.0015889567505833876,0.0029004723626418687,atvi,20200123
2020-01-23,10:15,10:15 AM,60.525,60.48,60.512,2876,174032.32,15,60.53,60.45,60.509,11122,672983.3455,72,60.525,60.485,60.525,60.45,0.0015724051177648487,0.0028838982348553823,atvi,20200123
2020-01-23,10:16,10:16 AM,60.465,60.44,60.453,300,18136.0,3,60.47,60.43,60.45,8955,541328.7,67,60.455,60.465,60.45,60.465,0.0005958587814688145,0.001906024695450435,atvi,20200123
2020-01-23,10:17,10:17 AM,60.465,60.445,60.455,200,12091.0,2,60.47,60.445,60.461,3978,240514.77,35,60.465,60.445,60.465,60.45,0.0006289620471058924,0.0020883401011021407,atvi,20200123
2020-01-23,10:18,10:18 AM,60.44,60.43,60.44,88,5318.71,3,60.455,60.41,60.435,6400,386783.5,51,60.44,60.43,60.45,60.43,0.0003806875548272197,0.001657412778652547,atvi,20200123
2020-01-23,10:19,10:19 AM,60.465,60.445,60.452,476,28775.245,8,60.47,60.44,60.457,5761,348294.22,48,60.45,60.445,60.44,60.45,0.0005793071486501579,0.0020220435899560765,atvi,20200123
2020-01-23,10:20,10:20 AM,60.46,60.45,60.455,400,24182.0,4,60.475,60.44,60.453,13599,822099.585,118,60.46,60.45,60.45,60.45,0.0006289620471058924,0.0019557470788100126,atvi,20200123
2020-01-23,10:21,10:21 AM,60.45,60.45,60.45,100,6045.0,1,60.455,60.42,60.443,2743,165794.635,25,60.45,60.45,60.45,60.45,0.00054620388301308,0.0017900058009446753,atvi,20200123
2020-01-23,10:22,10:22 AM,,,,0,0.0,0,60.46,60.445,60.451,3743,226269.7668,32,,,60.46,60.455,,0.0019225988232369215,atvi,20200123
2020-01-23,10:23,10:23 AM,60.465,60.445,60.46,402,24304.89,5,60.47,60.445,60.455,4966,300220.0068,44,60.445,60.465,60.45,60.465,0.0007117202111988225,0.0019888953343829858,atvi,20200123
2020-01-23,10:24,10:24 AM,60.46,60.445,60.448,309,18678.585,7,60.47,60.442,60.459,6592,398544.46,48,60.455,60.45,60.465,60.453,0.0005131006173758844,0.0020551918455291676,atvi,20200123
2020-01-23,10:25,10:25 AM,60.455,60.455,60.455,100,6045.5,1,60.46,60.44,60.451,5994,362344.7999,54,60.455,60.455,60.46,60.45,0.0006289620471058924,0.0019225988232369215,atvi,20200123
2020-01-23,10:26,10:26 AM,60.435,60.415,60.422,809,48881.375,12,60.45,60.41,60.421,6300,380651.31,47,60.435,60.42,60.45,60.42,8.27581640928125e-05,0.0014253749896411456,atvi,20200123
2020-01-23,10:27,10:27 AM,60.43,60.43,60.43,100,6043.0,1,60.435,60.41,60.424,5756,347802.64,46,60.43,60.43,60.425,60.43,0.00021517122664147713,0.0014750973730007233,atvi,20200123
2020-01-23,10:28,10:28 AM,60.46,60.44,60.45,300,18135.0,6,60.46,60.43,60.449,5813,351387.72,51,60.44,60.45,60.43,60.45,0.00054620388301308,0.0018894505676638304,atvi,20200123
2020-01-23,10:29,10:29 AM,60.48,60.455,60.463,302,18259.94,4,60.49,60.443,60.474,8658,523581.97,78,60.48,60.455,60.443,60.45,0.000761375109654557,0.002303803762326938,atvi,20200123
2020-01-23,10:30,10:30 AM,60.455,60.445,60.45,200,12090.0,2,60.46,60.445,60.455,5491,331956.995,43,60.445,60.455,60.445,60.46,0.00054620388301308,0.0019888953343829858,atvi,20200123
2020-01-23,10:31,10:31 AM,60.505,60.5,60.502,303,18332.0,6,60.53,60.465,60.48,30263,1830307.135,95,60.505,60.5,60.465,60.495,0.0014068887895791061,0.002403248529046093,atvi,20200123
2020-01-23,10:32,10:32 AM,60.515,60.5,60.506,600,36303.5,6,60.52,60.495,60.507,8224,497612.0,68,60.5,60.505,60.495,60.505,0.0014730953208533797,0.002850749979282291,atvi,20200123
2020-01-23,10:33,10:33 AM,60.505,60.47,60.479,406,24554.48,8,60.51,60.47,60.498,10400,629181.45,78,60.505,60.47,60.505,60.47,0.0010262012347517688,0.0027015828292035584,atvi,20200123
2020-01-23,10:34,10:34 AM,60.46,60.455,60.458,200,12091.5,2,60.475,60.455,60.461,2730,165058.612,23,60.455,60.46,60.475,60.46,0.000678616945561627,0.0020883401011021407,atvi,20200123
2020-01-23,10:35,10:35 AM,60.5,60.47,60.49,312,18872.86,5,60.505,60.46,60.488,7574,458134.43,63,60.47,60.49,60.46,60.486,0.0012082691957561679,0.002535841551338339,atvi,20200123
2020-01-23,10:36,10:36 AM,60.5,60.485,60.492,200,12098.5,2,60.505,60.475,60.49,6589,398570.48,44,60.485,60.5,60.48,60.5,0.0012413724613932458,0.0025689898069114303,atvi,20200123
2020-01-23,10:37,10:37 AM,60.51,60.49,60.5,365,22082.51,7,60.51,60.5,60.504,6466,391217.33,56,60.5,60.49,60.5,60.5,0.0013737855239419105,0.0028010275959227137,atvi,20200123
2020-01-23,10:38,10:38 AM,60.49,60.48,60.484,185,11189.48,4,60.49,60.47,60.478,2500,151194.53,20,60.48,60.49,60.48,60.49,0.0011089593988446989,0.0023701002734731196,atvi,20200123
2020-01-23,10:39,10:39 AM,60.505,60.505,60.505,1,60.505,1,60.51,60.495,60.501,4500,272253.5,36,60.505,60.505,60.495,60.5,0.0014565436880348405,0.0027513052125631363,atvi,20200123
2020-01-23,10:40,10:40 AM,60.495,60.49,60.492,300,18147.5,3,60.5,60.49,60.497,7166,433519.969,47,60.49,60.495,60.49,60.5,0.0012413724613932458,0.002685008701417072,atvi,20200123
2020-01-23,10:41,10:41 AM,60.5,60.49,60.499,105,6352.45,4,60.5,60.48,60.49,3519,212863.61,30,60.5,60.49,60.5,60.48,0.0013572338911233715,0.0025689898069114303,atvi,20200123
2020-01-23,10:42,10:42 AM,60.49,60.485,60.485,240,14516.48,3,60.5,60.485,60.491,6692,404804.255,51,60.485,60.49,60.49,60.49,0.0011255110316632378,0.0025855639346979166,atvi,20200123
2020-01-23,10:43,10:43 AM,60.515,60.515,60.515,124,7503.86,1,60.52,60.49,60.512,10235,619338.8667,77,60.515,60.515,60.49,60.52,0.0016220600162205833,0.0029336206182149598,atvi,20200123
2020-01-23,10:44,10:44 AM,60.51,60.49,60.501,311,18815.95,7,60.53,60.485,60.506,11625,703385.2012,74,60.51,60.49,60.52,60.49,0.0013903371567604494,0.002834175851495805,atvi,20200123
2020-01-23,10:45,10:45 AM,60.48,60.47,60.474,670,40517.45,7,60.48,60.47,60.475,9870,596886.635,63,60.48,60.47,60.48,60.475,0.0009434430706588387,0.002320377890113542,atvi,20200123
2020-01-23,10:46,10:46 AM,60.49,60.47,60.477,518,31327.25,7,,,,0,0.0,0,60.475,60.48,,,0.0009930979691145732,0.002403248529046093,atvi,20200123
2020-01-23,10:47,10:47 AM,60.49,60.455,60.461,615,37183.35,7,60.5,60.43,60.473,11511,696104.045,81,60.485,60.455,60.485,60.45,0.0007282718440173615,0.002287229634540451,atvi,20200123
2020-01-23,10:48,10:48 AM,60.45,60.445,60.449,389,23514.55,5,60.46,60.44,60.448,7447,450159.761,39,60.445,60.45,60.44,60.45,0.0005296522501944234,0.0018728764398773438,atvi,20200123
2020-01-23,10:49,10:49 AM,60.45,60.44,60.45,208,12573.54,6,,,,0,0.0,0,60.45,60.44,,,0.00054620388301308,0.0017402834175850978,atvi,20200123
2020-01-23,10:50,10:50 AM,60.455,60.455,60.455,141,8524.155,1,,,,0,0.0,0,60.455,60.455,,,0.0006289620471058924,0.0019888953343829858,atvi,20200123
2020-01-23,10:51,10:51 AM,60.505,60.495,60.498,322,19480.41,4,60.51,60.495,60.501,4528,273947.91,37,60.5,60.495,60.5,60.495,0.001340682258304715,0.0027513052125631363,atvi,20200123
2020-01-23,10:52,10:52 AM,60.5,60.475,60.487,639,38651.22,8,,,,0,0.0,0,60.495,60.475,,,0.0011586142973004333,0.002320377890113542,atvi,20200123
2020-01-23,10:53,10:53 AM,60.475,60.46,60.468,318,19228.865,4,60.48,60.46,60.47,2597,157041.805,22,60.475,60.46,60.475,60.46,0.0008441332737474872,0.0022375072511808735,atvi,20200123
2020-01-23,10:54,10:54 AM,60.44,60.43,60.43,102,6163.88,2,,,,0,0.0,0,60.44,60.43,,,0.00021517122664147713,0.0015745421397198784,atvi,20200123
2020-01-23,10:55,10:55 AM,,,,0,0.0,0,60.455,60.42,60.437,1700,102742.5,16,,,60.445,60.455,,0.0016905610342255201,atvi,20200123
2020-01-23,10:56,10:56 AM,60.44,60.44,60.44,100,6044.0,1,,,,0,0.0,0,60.44,60.44,,,0.0003806875548272197,0.0017402834175850978,atvi,20200123
2020-01-23,10:57,10:57 AM,60.46,60.455,60.458,301,18197.96,4,,,,0,0.0,0,60.46,60.455,,,0.000678616945561627,0.0019888953343829858,atvi,20200123
2020-01-23,10:58,10:58 AM,60.44,60.44,60.44,5,302.2,1,60.455,60.44,60.451,3350,202510.25,30,60.44,60.44,60.455,60.44,0.0003806875548272197,0.0019225988232369215,atvi,20200123
2020-01-23,10:59,10:59 AM,60.47,60.43,60.453,301,18196.43,4,,,,0,0.0,0,60.43,60.47,,,0.0005958587814688145,0.0022375072511808735,atvi,20200123
2020-01-23,11:00,11 AM,60.48,60.48,60.48,4,241.92,1,60.48,60.45,60.463,7147,432131.845,52,60.48,60.48,60.47,60.475,0.0010427528675703078,0.002121488356675232,atvi,20200123
2020-01-23,11:02,11:02 AM,,,,0,0.0,0,60.45,60.425,60.444,3874,234159.8,29,,,60.44,60.44,,0.0018065799287312796,atvi,20200123
2020-01-23,11:03,11:03 AM,60.455,60.435,60.453,110,6649.85,2,60.46,60.433,60.447,1245,75256.13,11,60.435,60.455,60.433,60.46,0.0005958587814688145,0.0018563023120908573,atvi,20200123
2020-01-23,11:04,11:04 AM,,,,0,0.0,0,60.467,60.45,60.455,2166,130944.45,21,,,60.45,60.46,,0.0019888953343829858,atvi,20200123
2020-01-23,11:05,11:05 AM,60.45,60.44,60.444,7,423.11,2,60.46,60.42,60.447,6412,387586.19,52,60.45,60.44,60.455,60.42,0.00044689408610161085,0.0018563023120908573,atvi,20200123
2020-01-23,11:06,11:06 AM,60.425,60.425,60.425,656,39638.8,6,60.43,60.42,60.427,2571,155357.25,22,60.425,60.425,60.43,60.425,0.00013241306254854702,0.0015248197563603007,atvi,20200123
2020-01-23,11:07,11:07 AM,60.445,60.425,60.432,272,16437.6,2,60.445,60.42,60.433,3244,196045.52,24,60.425,60.445,60.425,60.44,0.0002482744922786727,0.0016242645230794559,atvi,20200123
2020-01-23,11:08,11:08 AM,60.44,60.435,60.435,104,6285.26,2,60.455,60.435,60.445,5442,328944.34,43,60.44,60.435,60.44,60.435,0.00029792939073440723,0.0018231540565177664,atvi,20200123
2020-01-23,11:09,11:09 AM,60.435,60.435,60.435,100,6043.5,1,60.44,60.425,60.434,2795,168912.592,25,60.435,60.435,60.44,60.435,0.00029792939073440723,0.0016408386508659427,atvi,20200123
2020-01-23,11:10,11:10 AM,60.425,60.415,60.418,300,18125.5,3,60.45,60.415,60.429,3949,238635.3,27,60.425,60.415,60.43,60.435,1.6551632818538976e-05,0.0015579680119333918,atvi,20200123
2020-01-23,11:11,11:11 AM,60.43,60.395,60.417,406,24529.48,6,60.43,60.39,60.406,5553,335435.7,46,60.43,60.395,60.43,60.4,0.0,0.0011767630728432576,atvi,20200123
2020-01-23,11:12,11:12 AM,60.42,60.42,60.42,200,12084.0,2,60.42,60.395,60.409,5657,341732.94,53,60.42,60.42,60.4,60.42,4.9654898455734536e-05,0.0012264854562028353,atvi,20200123
2020-01-23,11:13,11:13 AM,,,,0,0.0,0,60.435,60.42,60.43,1707,103153.4993,14,,,60.43,60.435,,0.0015745421397198784,atvi,20200123
2020-01-23,11:14,11:14 AM,60.435,60.435,60.435,300,18130.5,3,60.44,60.43,60.435,4605,278304.41,39,60.435,60.435,60.43,60.43,0.00029792939073440723,0.001657412778652547,atvi,20200123
2020-01-23,11:15,11:15 AM,60.44,60.44,60.44,100,6044.0,1,,,,0,0.0,0,60.44,60.44,,,0.0003806875548272197,0.0017402834175850978,atvi,20200123
2020-01-23,11:16,11:16 AM,60.44,60.435,60.435,105,6345.7,3,60.44,60.43,60.439,2052,124020.38,16,60.44,60.435,60.44,60.435,0.00029792939073440723,0.001723709289798611,atvi,20200123
2020-01-23,11:17,11:17 AM,60.5,60.48,60.492,300,18147.5,3,60.51,60.435,60.475,14747,891832.58,99,60.48,60.495,60.435,60.5,0.0012413724613932458,0.002320377890113542,atvi,20200123
2020-01-23,11:18,11:18 AM,60.485,60.475,60.48,200,12096.0,2,,,,0,0.0,0,60.485,60.475,,,0.0010427528675703078,0.002320377890113542,atvi,20200123
2020-01-23,11:19,11:19 AM,60.475,60.47,60.472,200,12094.5,2,60.48,60.47,60.473,2144,129653.664,19,60.47,60.475,60.48,60.477,0.0009103398050217607,0.002287229634540451,atvi,20200123
2020-01-23,11:20,11:20 AM,60.455,60.455,60.455,845,51084.475,5,60.47,60.45,60.458,3200,193467.0,25,60.455,60.455,60.47,60.46,0.0006289620471058924,0.0020386177177425632,atvi,20200123
2020-01-23,11:21,11:21 AM,60.475,60.46,60.468,837,50612.075,8,60.486,60.455,60.469,10980,663951.89,83,60.46,60.475,60.455,60.48,0.0008441332737474872,0.002220933123394387,atvi,20200123
2020-01-23,11:22,11:22 AM,,,,0,0.0,0,60.48,60.47,60.472,2500,151180.0,21,,,60.475,60.47,,0.0022706555067539646,atvi,20200123
2020-01-23,11:23,11:23 AM,60.445,60.44,60.444,394,23814.86,4,60.475,60.44,60.453,7525,454910.769,68,60.445,60.44,60.474,60.44,0.00044689408610161085,0.0019557470788100126,atvi,20200123
2020-01-23,11:24,11:24 AM,60.435,60.425,60.43,302,18249.86,4,,,,0,0.0,0,60.435,60.425,,,0.00021517122664147713,0.0014916715007872098,atvi,20200123
2020-01-23,11:25,11:25 AM,60.385,60.38,60.383,200,12076.5,2,,,,0,0.0,0,60.385,60.38,,,-0.0005627555158316189,0.0007458357503936638,atvi,20200123
2020-01-23,11:26,11:26 AM,60.36,60.35,60.36,102,6156.7,2,60.36,60.345,60.356,2984,180102.74,25,60.35,60.36,60.36,60.36,-0.0009434430706589562,0.0003480566835170431,atvi,20200123
2020-01-23,11:27,11:27 AM,,,,0,0.0,0,60.36,60.33,60.345,4980,300518.5618,41,,,60.36,60.33,,0.00016574127786521937,atvi,20200123
2020-01-23,11:28,11:28 AM,60.335,60.33,60.335,18,1086.025,2,60.34,60.325,60.331,2100,126695.99,17,60.33,60.335,60.325,60.34,-0.0013572338911233715,-6.62965111460642e-05,atvi,20200123
2020-01-23,11:29,11:29 AM,60.355,60.355,60.355,5,301.775,2,60.36,60.345,60.355,3008,181547.36,21,60.355,60.355,60.345,60.359,-0.0010262012347518864,0.00033148255573043874,atvi,20200123
2020-01-23,11:30,11:30 AM,60.375,60.375,60.375,300,18112.5,2,60.385,60.355,60.373,3764,227245.305,32,60.375,60.375,60.355,60.375,-0.0006951685783802836,0.0006298168558879042,atvi,20200123
2020-01-23,11:31,11:31 AM,60.375,60.36,60.367,201,12133.865,4,60.375,60.36,60.368,3681,222213.72,28,60.375,60.36,60.375,60.36,-0.0008275816409289481,0.0005469462169553534,atvi,20200123
2020-01-23,11:32,11:32 AM,60.365,60.355,60.358,300,18107.5,3,,,,0,0.0,0,60.365,60.355,,,-0.0009765463362961517,0.00033148255573043874,atvi,20200123
2020-01-23,11:33,11:33 AM,,,,0,0.0,0,60.39,60.37,60.384,3114,188034.8415,18,,,60.375,60.388,,0.0008121322615397279,atvi,20200123
2020-01-23,11:34,11:34 AM,60.385,60.385,60.385,904,54588.04,6,60.39,60.385,60.386,3150,190217.25,24,60.385,60.385,60.385,60.385,-0.0005296522501945409,0.0008452805171128189,atvi,20200123
2020-01-23,11:35,11:35 AM,60.395,60.395,60.395,100,6039.5,1,60.4,60.393,60.397,3427,206981.18,21,60.395,60.395,60.4,60.395,-0.00036413592200868074,0.001027595922764525,atvi,20200123
2020-01-23,11:36,11:36 AM,60.405,60.395,60.398,382,23071.89,3,60.405,60.395,60.398,7535,455101.655,54,60.395,60.405,60.395,60.405,-0.0003144810235529462,0.0010441700505511293,atvi,20200123
2020-01-23,11:37,11:37 AM,60.42,60.405,60.414,704,42531.66,8,,,,0,0.0,0,60.405,60.42,,,-4.9654898455734536e-05,0.001408800861854659,atvi,20200123
2020-01-23,11:38,11:38 AM,,,,0,0.0,0,,,,0,0.0,0,,,,,,,atvi,20200123
2020-01-23,11:39,11:39 AM,,,,0,0.0,0,60.405,60.4,60.403,700,42282.0,6,,,60.405,60.405,,0.0011270406894836802,atvi,20200123
2020-01-23,11:40,11:40 AM,60.4,60.39,60.397,48,2899.05,4,60.41,60.385,60.394,2932,177075.256,25,60.4,60.39,60.4,60.395,-0.0003310326563716028,0.0009778735394049473,atvi,20200123
2020-01-23,11:41,11:41 AM,60.415,60.415,60.415,100,6041.5,1,60.42,60.395,60.41,5006,302410.43,29,60.415,60.415,60.395,60.415,-3.310326563719556e-05,0.0012430595839893219,atvi,20200123
2020-01-23,11:42,11:42 AM,60.425,60.425,60.425,500,30212.5,1,60.46,60.415,60.445,9437,570416.899,40,60.425,60.425,60.415,60.455,0.00013241306254854702,0.0018231540565177664,atvi,20200123
2020-01-23,11:43,11:43 AM,60.45,60.42,60.45,120,7253.96,8,60.455,60.42,60.448,6025,364199.875,37,60.45,60.42,60.455,60.42,0.00054620388301308,0.0018728764398773438,atvi,20200123
2020-01-23,11:44,11:44 AM,,,,0,0.0,0,,,,0,0.0,0,,,,,,,atvi,20200123
2020-01-23,11:45,11:45 AM,60.44,60.43,60.433,148,8944.12,2,,,,0,0.0,0,60.43,60.44,,,0.0002648261250972117,0.0017402834175850978,atvi,20200123
2020-01-23,11:46,11:46 AM,60.43,60.42,60.43,204,12327.7,4,60.44,60.42,60.432,3460,209093.756,24,60.43,60.42,60.435,60.42,0.00021517122664147713,0.0016076903952929693,atvi,20200123
2020-01-23,11:48,11:48 AM,,,,0,0.0,0,,,,0,0.0,0,,,,,,,atvi,20200123
2020-01-23,11:49,11:49 AM,60.45,60.45,60.45,200,12090.0,2,,,,0,0.0,0,60.45,60.45,,,0.00054620388301308,0.001906024695450435,atvi,20200123
2020-01-23,11:50,11:50 AM,60.45,60.435,60.436,110,6648.0,7,60.455,60.42,60.444,7007,423534.96,51,60.45,60.435,60.45,60.42,0.0003144810235529462,0.0018065799287312796,atvi,20200123
2020-01-23,11:51,11:51 AM,60.41,60.4,60.405,200,12081.0,2,60.41,60.37,60.382,5000,301907.55,39,60.41,60.4,60.41,60.375,-0.00019861959382293815,0.000778984005966637,atvi,20200123
2020-01-23,11:52,11:52 AM,60.42,60.42,60.42,6,362.52,1,60.43,60.38,60.409,2575,155554.1975,20,60.42,60.42,60.38,60.425,4.9654898455734536e-05,0.0012264854562028353,atvi,20200123
2020-01-23,11:53,11:53 AM,60.45,60.45,60.45,4,241.8,1,60.455,60.43,60.447,3242,195968.23,27,60.45,60.45,60.43,60.45,0.00054620388301308,0.0018563023120908573,atvi,20200123
2020-01-23,11:54,11:54 AM,60.445,60.44,60.442,209,12632.46,5,,,,0,0.0,0,60.44,60.445,,,0.0004137908204644153,0.0018231540565177664,atvi,20200123
2020-01-23,11:55,11:55 AM,60.45,60.445,60.446,500,30223.0,2,60.45,60.44,60.446,1600,96713.5,10,60.445,60.45,60.44,60.45,0.0004799973517386888,0.001839728184304253,atvi,20200123
2020-01-23,11:56,11:56 AM,60.445,60.445,60.445,128,7736.96,1,60.455,60.43,60.445,4438,268255.715,36,60.445,60.445,60.44,60.441,0.0004634457189201498,0.0018231540565177664,atvi,20200123
2020-01-23,11:57,11:57 AM,60.44,60.44,60.44,1,60.44,1,60.445,60.44,60.441,2500,151101.47,17,60.44,60.44,60.44,60.441,0.0003806875548272197,0.0017568575453717021,atvi,20200123
2020-01-23,11:58,11:58 AM,60.435,60.435,60.435,135,8158.725,1,,,,0,0.0,0,60.435,60.435,,,0.00029792939073440723,0.001657412778652547,atvi,20200123
2020-01-23,12:00,12 PM,,,,0,0.0,0,60.455,60.441,60.45,3545,214294.57,24,,,60.45,60.445,,0.001906024695450435,atvi,20200123
2020-01-23,12:01,12:01 PM,,,,0,0.0,0,,,,0,0.0,0,,,,,,,atvi,20200123
2020-01-23,12:02,12:02 PM,,,,0,0.0,0,60.45,60.44,60.445,2016,121856.82,20,,,60.441,60.441,,0.0018231540565177664,atvi,20200123
2020-01-23,12:03,12:03 PM,,,,0,0.0,0,60.45,60.44,60.442,1100,66486.7,10,,,60.44,60.45,,0.0017734316731581887,atvi,20200123
2020-01-23,12:04,12:04 PM,60.445,60.44,60.443,200,12088.5,2,60.45,60.44,60.447,6472,391211.735,37,60.445,60.44,60.445,60.44,0.00043034245328295426,0.0018563023120908573,atvi,20200123
2020-01-23,12:05,12:05 PM,60.45,60.445,60.447,200,12089.5,2,60.45,60.44,60.446,9292,561668.687,59,60.445,60.45,60.45,60.45,0.0004965489845573454,0.001839728184304253,atvi,20200123
2020-01-23,12:06,12:06 PM,,,,0,0.0,0,60.45,60.44,60.447,5373,324779.2715,36,,,60.445,60.45,,0.0018563023120908573,atvi,20200123
2020-01-23,12:07,12:07 PM,60.45,60.45,60.45,200,12090.0,2,60.455,60.44,60.449,10847,655694.885,61,60.45,60.45,60.45,60.455,0.00054620388301308,0.0018894505676638304,atvi,20200123
2020-01-23,12:08,12:08 PM,60.455,60.455,60.455,2,120.91,1,,,,0,0.0,0,60.455,60.455,,,0.0006289620471058924,0.0019888953343829858,atvi,20200123
2020-01-23,12:09,12:09 PM,,,,0,0.0,0,60.46,60.45,60.454,2786,168424.055,24,,,60.45,60.451,,0.001972321206596499,atvi,20200123
2020-01-23,12:10,12:10 PM,60.445,60.445,60.445,202,12209.89,2,60.455,60.441,60.447,9204,556358.92,58,60.445,60.445,60.455,60.445,0.0004634457189201498,0.0018563023120908573,atvi,20200123
2020-01-23,12:11,12:11 PM,60.445,60.445,60.445,224,13539.68,3,,,,0,0.0,0,60.445,60.445,,,0.0004634457189201498,0.0018231540565177664,atvi,20200123
2020-01-23,12:12,12:12 PM,60.445,60.445,60.445,200,12089.0,2,60.45,60.44,60.445,7645,462104.746,43,60.445,60.445,60.445,60.45,0.0004634457189201498,0.0018231540565177664,atvi,20200123
2020-01-23,12:13,12:13 PM,60.45,60.44,60.446,409,24722.505,10,60.45,60.44,60.447,3239,195787.855,27,60.445,60.45,60.445,60.45,0.0004799973517386888,0.0018563023120908573,atvi,20200123
2020-01-23,12:14,12:14 PM,60.435,60.435,60.435,100,6043.5,1,60.44,60.431,60.437,6282,379666.6,59,60.435,60.435,60.44,60.431,0.00029792939073440723,0.0016905610342255201,atvi,20200123
2020-01-23,12:15,12:15 PM,60.435,60.415,60.427,43,2598.345,7,60.44,60.41,60.423,8571,517883.83,62,60.435,60.415,60.44,60.415,0.0001655163281857426,0.0014585232452142367,atvi,20200123
2020-01-23,12:17,12:17 PM,60.41,60.41,60.41,100,6041.0,1,60.41,60.4,60.409,7296,440741.86,42,60.41,60.41,60.41,60.41,-0.00011586142973012566,0.0012264854562028353,atvi,20200123
2020-01-23,12:18,12:18 PM,,,,0,0.0,0,60.42,60.41,60.417,4106,248071.44,19,,,60.415,60.41,,0.0013590784784950813,atvi,20200123
2020-01-23,12:19,12:19 PM,60.415,60.41,60.413,300,18124.0,3,,,,0,0.0,0,60.415,60.41,,,-6.620653127439112e-05,0.0012430595839893219,atvi,20200123
2020-01-23,12:20,12:20 PM,60.415,60.41,60.413,796,48088.83,9,60.42,60.4,60.41,13729,829372.785,79,60.415,60.415,60.42,60.415,-6.620653127439112e-05,0.0012430595839893219,atvi,20200123
2020-01-23,12:21,12:21 PM,60.4,60.39,60.395,115,6945.4,5,60.41,60.39,60.401,3557,214847.3,29,60.4,60.39,60.41,60.395,-0.00036413592200868074,0.0010938924339107068,atvi,20200123
2020-01-23,12:22,12:22 PM,60.395,60.395,60.395,100,6039.5,1,60.395,60.39,60.393,1100,66432.52,10,60.395,60.395,60.39,60.39,-0.00036413592200868074,0.0009612994116184608,atvi,20200123
2020-01-23,12:24,12:24 PM,60.385,60.385,60.385,100,6038.5,1,60.39,60.384,60.386,2438,147220.0196,11,60.385,60.385,60.385,60.386,-0.0005296522501945409,0.0008452805171128189,atvi,20200123
2020-01-23,12:25,12:25 PM,60.385,60.385,60.385,400,24154.0,1,60.39,60.38,60.383,2900,175112.3,17,60.385,60.385,60.385,60.385,-0.0005296522501945409,0.0007955581337532414,atvi,20200123
2020-01-23,12:27,12:27 PM,60.385,60.385,60.385,19,1147.315,1,60.39,60.385,60.386,1663,100421.255,12,60.385,60.385,60.385,60.39,-0.0005296522501945409,0.0008452805171128189,atvi,20200123
2020-01-23,12:28,12:28 PM,60.385,60.385,60.385,1761,106337.985,6,,,,0,0.0,0,60.385,60.385,,,-0.0005296522501945409,0.0008287063893262146,atvi,20200123
2020-01-23,12:29,12:29 PM,,,,0,0.0,0,60.39,60.38,60.384,1350,81518.885,11,,,60.381,60.385,,0.0008121322615397279,atvi,20200123
2020-01-23,12:30,12:30 PM,60.385,60.385,60.385,11,664.235,2,60.385,60.38,60.384,1643,99211.175,14,60.385,60.385,60.385,60.381,-0.0005296522501945409,0.0008121322615397279,atvi,20200123
2020-01-23,12:32,12:32 PM,,,,0,0.0,0,60.39,60.38,60.385,1100,66423.0,9,,,60.39,60.385,,0.0008287063893262146,atvi,20200123
2020-01-23,12:33,12:33 PM,,,,0,0.0,0,60.385,60.385,60.385,300,18115.5,3,,,60.385,60.385,,0.0008287063893262146,atvi,20200123
2020-01-23,12:34,12:34 PM,60.385,60.375,60.382,371,22401.895,14,60.39,60.37,60.377,14278,862064.815,79,60.38,60.375,60.385,60.375,-0.0005793071486502755,0.0006961133670340862,atvi,20200123
2020-01-23,12:35,12:35 PM,60.37,60.365,60.365,518,31269.16,6,60.372,60.361,60.367,3314,200056.9194,26,60.37,60.365,60.372,60.365,-0.0008606849065660261,0.0005303720891687491,atvi,20200123
2020-01-23,12:36,12:36 PM,60.36,60.36,60.36,100,6036.0,1,60.365,60.36,60.364,1387,83724.815,11,60.36,60.36,60.365,60.365,-0.0009434430706589562,0.0004806497058091715,atvi,20200123
2020-01-23,12:37,12:37 PM,60.36,60.36,60.36,1,60.36,1,60.368,60.365,60.367,1132,68334.88,6,60.36,60.36,60.365,60.365,-0.0009434430706589562,0.0005303720891687491,atvi,20200123
2020-01-23,12:38,12:38 PM,60.36,60.335,60.336,195,11765.505,7,60.365,60.335,60.351,4879,294454.2706,36,60.36,60.335,60.365,60.335,-0.0013406822583048325,0.00026518604458437454,atvi,20200123
2020-01-23,12:39,12:39 PM,60.33,60.325,60.328,200,12065.5,2,60.33,60.32,60.328,5041,304111.83,29,60.33,60.325,60.33,60.325,-0.0014730953208533797,-0.00011601889450564178,atvi,20200123
2020-01-23,12:40,12:40 PM,60.32,60.31,60.32,202,12184.62,3,,,,0,0.0,0,60.32,60.31,,,-0.0016055083834020441,-0.0004143531946631073,atvi,20200123
2020-01-23,12:41,12:41 PM,60.3,60.285,60.29,202,12178.585,4,60.31,60.28,60.291,8369,504572.195,34,60.3,60.285,60.31,60.285,-0.0021020573679593896,-0.0007292616226071772,atvi,20200123
2020-01-23,12:42,12:42 PM,60.28,60.23,60.255,422,25427.62,7,60.28,60.23,60.256,6898,415646.028,53,60.28,60.23,60.28,60.235,-0.0026813645166095476,-0.0013093560951355039,atvi,20200123
2020-01-23,12:43,12:43 PM,60.24,60.235,60.236,908,54693.88,3,60.24,60.235,60.237,6603,397746.565,35,60.235,60.24,60.235,60.24,-0.0029958455401626113,-0.0016242645230794559,atvi,20200123
2020-01-23,12:44,12:44 PM,60.235,60.235,60.235,63,3794.805,1,60.24,60.235,60.236,1617,97400.995,10,60.235,60.235,60.235,60.235,-0.0030123971729811502,-0.0016408386508660604,atvi,20200123
2020-01-23,12:45,12:45 PM,60.235,60.235,60.235,1900,114446.5,2,60.24,60.225,60.233,10178,613057.45,61,60.235,60.235,60.235,60.235,-0.0030123971729811502,-0.0016905610342256379,atvi,20200123
2020-01-23,12:47,12:47 PM,60.235,60.235,60.235,100,6023.5,1,60.24,60.223,60.231,10000,602312.77,45,60.235,60.235,60.23,60.24,-0.0030123971729811502,-0.001723709289798611,atvi,20200123
2020-01-23,12:48,12:48 PM,60.265,60.26,60.262,300,18078.5,3,60.27,60.23,60.251,11768,709033.217,69,60.265,60.26,60.23,60.265,-0.0025655030868795394,-0.0013922267340681724,atvi,20200123
2020-01-23,12:49,12:49 PM,60.265,60.245,60.258,406,24464.555,7,60.27,60.24,60.256,7704,464209.79,60,60.265,60.245,60.27,60.26,-0.0026317096181538127,-0.0013093560951355039,atvi,20200123
2020-01-23,12:50,12:50 PM,60.245,60.225,60.24,212,12770.8,5,60.25,60.225,60.236,4231,254859.665,40,60.245,60.225,60.25,60.225,-0.00292963900888822,-0.0016408386508660604,atvi,20200123
2020-01-23,12:51,12:51 PM,60.22,60.22,60.22,202,12164.44,3,60.225,60.21,60.219,2710,163194.33,22,60.22,60.22,60.22,60.21,-0.003260671665259823,-0.0019225988232369215,atvi,20200123
2020-01-23,12:52,12:52 PM,60.215,60.195,60.211,313,18846.065,7,60.22,60.19,60.204,10111,608718.73,34,60.21,60.195,60.21,60.2,-0.0034096363606270267,-0.0021712107400348093,atvi,20200123
2020-01-23,12:53,12:53 PM,60.22,60.21,60.211,215,12945.3,2,60.23,60.2,60.217,8741,526354.4,58,60.21,60.22,60.2,60.21,-0.0034096363606270267,-0.0019557470788100126,atvi,20200123
2020-01-23,12:54,12:54 PM,,,,0,0.0,0,60.21,60.175,60.19,5256,316357.14,41,,,60.21,60.18,,-0.0024032485290462107,atvi,20200123
2020-01-23,12:55,12:55 PM,60.19,60.19,60.19,100,6019.0,1,60.19,60.17,60.179,1660,99897.69,15,60.19,60.19,60.19,60.175,-0.0037572206498171683,-0.0025855639346979166,atvi,20200123
2020-01-23,12:56,12:56 PM,60.16,60.155,60.157,200,12031.5,2,60.17,60.155,60.164,2815,169362.42,26,60.16,60.155,60.17,60.155,-0.004303424532830248,-0.002834175851495805,atvi,20200123
2020-01-23,12:57,12:57 PM,,,,0,0.0,0,60.155,60.13,60.142,3032,182352.125,28,,,60.15,60.13,,-0.0031988066627993343,atvi,20200123
2020-01-23,12:58,12:58 PM,60.14,60.135,60.139,172,10343.83,4,60.14,60.115,60.13,3168,190492.341,26,60.14,60.135,60.135,60.115,-0.004601353923564538,-0.0033976961962376446,atvi,20200123
2020-01-23,12:59,12:59 PM,60.115,60.11,60.113,13,781.475,3,60.12,60.11,60.114,5959,358219.4736,47,60.115,60.11,60.115,60.12,-0.00503169637684761,-0.003662882240822137,atvi,20200123
2020-01-23,13:00,1 PM,60.16,60.15,60.16,103,6196.45,3,60.16,60.13,60.143,8719,524390.94,40,60.16,60.15,60.13,60.145,-0.004253769634374514,-0.003182232535012848,atvi,20200123
2020-01-23,13:01,1:01 PM,,,,0,0.0,0,60.15,60.14,60.145,1500,90217.66,12,,,60.14,60.145,,-0.003149084279439757,atvi,20200123
2020-01-23,13:02,1:02 PM,60.145,60.125,60.13,414,24894.015,7,60.15,60.125,60.142,4711,283327.14,36,60.145,60.125,60.145,60.125,-0.004750318618931742,-0.0031988066627993343,atvi,20200123
2020-01-23,13:03,1:03 PM,60.145,60.145,60.145,200,12029.0,2,60.16,60.125,60.138,6800,408940.5,54,60.145,60.145,60.125,60.16,-0.004502044126653068,-0.003265103173945516,atvi,20200123
2020-01-23,13:04,1:04 PM,,,,0,0.0,0,60.153,60.14,60.149,1300,78193.68,13,,,60.153,60.14,,-0.0030827877682936926,atvi,20200123
2020-01-23,13:05,1:05 PM,60.14,60.13,60.133,3,180.4,2,60.145,60.13,60.142,35840,2155487.0944,74,60.14,60.13,60.14,60.135,-0.004700663720476007,-0.0031988066627993343,atvi,20200123
2020-01-23,13:06,1:06 PM,60.145,60.135,60.138,747,44923.345,10,60.145,60.13,60.138,5950,357819.155,37,60.135,60.145,60.13,60.145,-0.004617905556383194,-0.003265103173945516,atvi,20200123
2020-01-23,13:07,1:07 PM,60.155,60.155,60.155,100,6015.5,1,60.21,60.14,60.186,12833,772368.526,89,60.155,60.155,60.14,60.195,-0.004336527798467326,-0.002469545040192275,atvi,20200123
2020-01-23,13:08,1:08 PM,,,,0,0.0,0,60.195,60.18,60.191,4000,240765.0,29,,,60.195,60.18,,-0.0023866744012596064,atvi,20200123
2020-01-23,13:09,1:09 PM,60.18,60.175,60.175,202,12155.36,2,60.181,60.17,60.177,2300,138406.55,20,60.18,60.175,60.18,60.175,-0.004005495142095841,-0.0026187121902710078,atvi,20200123
2020-01-23,13:10,1:10 PM,60.195,60.18,60.19,310,18658.95,4,60.2,60.17,60.183,3752,225807.1,22,60.18,60.195,60.175,60.195,-0.0037572206498171683,-0.0025192674235518524,atvi,20200123
2020-01-23,13:11,1:11 PM,60.195,60.195,60.195,700,42136.5,6,60.2,60.172,60.192,6816,410269.6736,52,60.195,60.195,60.195,60.175,-0.003674462485724238,-0.0023701002734731196,atvi,20200123
2020-01-23,13:12,1:12 PM,60.18,60.175,60.176,500,30088.0,3,60.189,60.17,60.179,7001,421311.3556,44,60.175,60.18,60.175,60.189,-0.003988943509277185,-0.0025855639346979166,atvi,20200123
2020-01-23,13:13,1:13 PM,60.205,60.205,60.205,200,12041.0,1,60.22,60.185,60.197,2000,120393.5,14,60.205,60.205,60.19,60.22,-0.0035089461575384955,-0.002287229634540451,atvi,20200123
2020-01-23,13:14,1:14 PM,60.295,60.265,60.285,837,50458.725,9,60.31,60.215,60.279,30977,1867256.99,167,60.29,60.265,60.22,60.265,-0.00218481553205232,-0.0009281511560453698,atvi,20200123
2020-01-23,13:15,1:15 PM,60.255,60.23,60.245,300,18073.5,3,60.265,60.22,60.248,6500,391615.5,37,60.25,60.23,60.265,60.22,-0.0028468808447954077,-0.00144194911742775,atvi,20200123
2020-01-23,13:16,1:16 PM,60.22,60.22,60.22,3,180.66,2,60.225,60.21,60.218,2000,120435.0,19,60.22,60.22,60.22,60.21,-0.003260671665259823,-0.001939172951023408,atvi,20200123
2020-01-23,13:17,1:17 PM,,,,0,0.0,0,60.22,60.2,60.218,5079,305846.515,26,,,60.215,60.207,,-0.001939172951023408,atvi,20200123
2020-01-23,13:18,1:18 PM,60.205,60.195,60.204,110,6622.45,2,60.205,60.195,60.2,1700,102339.5,14,60.205,60.195,60.205,60.2,-0.0035254977903570344,-0.0022375072511808735,atvi,20200123
2020-01-23,13:19,1:19 PM,,,,0,0.0,0,60.25,60.195,60.224,9718,585258.1265,42,,,60.195,60.235,,-0.0018397281843043707,atvi,20200123
2020-01-23,13:20,1:20 PM,60.27,60.24,60.253,353,21269.25,4,60.27,60.235,60.246,4832,291107.828,34,60.24,60.27,60.24,60.265,-0.002714467782246743,-0.0014750973730007233,atvi,20200123
2020-01-23,13:21,1:21 PM,60.265,60.265,60.265,100,6026.5,1,60.27,60.263,60.266,2214,133429.01,18,60.265,60.265,60.265,60.265,-0.002515848188423805,-0.0011436148172702845,atvi,20200123
2020-01-23,13:22,1:22 PM,60.26,60.26,60.26,209,12594.34,9,60.265,60.255,60.259,4459,268695.545,39,60.26,60.26,60.265,60.255,-0.002598606352516735,-0.0012596337117759262,atvi,20200123
2020-01-23,13:23,1:23 PM,60.26,60.255,60.256,3400,204870.5,9,60.26,60.25,60.255,8187,493312.59,38,60.255,60.255,60.25,60.26,-0.0026648128837910086,-0.0013259302229219904,atvi,20200123
2020-01-23,13:24,1:24 PM,60.29,60.25,60.272,1334,80402.76,19,60.3,60.25,60.27,43968,2649930.175,252,60.265,60.28,60.26,60.28,-0.002399986758693797,-0.0010773183061241025,atvi,20200123
2020-01-23,13:25,1:25 PM,60.255,60.255,60.255,300,18076.5,3,60.28,60.24,60.262,8997,542176.555,58,60.255,60.255,60.28,60.265,-0.0026813645166095476,-0.0012099113284163487,atvi,20200123
2020-01-23,13:26,1:26 PM,60.25,60.24,60.245,200,12049.0,2,60.255,60.24,60.248,4341,261535.93,21,60.25,60.24,60.25,60.25,-0.0028468808447954077,-0.00144194911742775,atvi,20200123
2020-01-23,13:27,1:27 PM,,,,0,0.0,0,60.248,60.24,60.245,1585,95488.4425,10,,,60.245,60.24,,-0.0014916715007873276,atvi,20200123
2020-01-23,13:28,1:28 PM,60.23,60.205,60.205,102,6140.96,2,60.245,60.2,60.222,3992,240407.14,31,60.23,60.205,60.245,60.205,-0.0035089461575384955,-0.0018728764398773438,atvi,20200123
2020-01-23,13:29,1:29 PM,,,,0,0.0,0,60.2,60.175,60.191,4225,254305.66,33,,,60.2,60.18,,-0.0023866744012596064,atvi,20200123
2020-01-23,13:30,1:30 PM,60.19,60.19,60.19,120,7222.8,2,60.19,60.18,60.188,5950,358121.175,31,60.19,60.19,60.185,60.19,-0.0037572206498171683,-0.002436396784619184,atvi,20200123
2020-01-23,13:31,1:31 PM,,,,0,0.0,0,60.19,60.18,60.185,2091,125848.047,13,,,60.185,60.19,,-0.0024861191679787617,atvi,20200123
2020-01-23,13:32,1:32 PM,,,,0,0.0,0,60.19,60.18,60.187,775,46644.75,6,,,60.18,60.19,,-0.002452970912405788,atvi,20200123
2020-01-23,13:33,1:33 PM,,,,0,0.0,0,60.2,60.185,60.191,3486,209826.255,27,,,60.185,60.195,,-0.0023866744012596064,atvi,20200123
2020-01-23,13:34,1:34 PM,60.2,60.195,60.197,608,36599.56,7,60.22,60.19,60.201,8630,519534.662,55,60.195,60.2,60.195,60.22,-0.0036413592200870426,-0.002220933123394387,atvi,20200123
2020-01-23,13:35,1:35 PM,60.255,60.245,60.251,500,30125.5,5,60.265,60.23,60.251,8903,536417.998,47,60.245,60.255,60.23,60.265,-0.0027475710478839384,-0.0013922267340681724,atvi,20200123
2020-01-23,13:36,1:36 PM,60.265,60.25,60.257,300,18077.0,3,60.28,60.235,60.26,12686,764461.598,90,60.265,60.25,60.275,60.245,-0.0026482612509724696,-0.0012430595839894396,atvi,20200123
2020-01-23,13:37,1:37 PM,60.24,60.24,60.24,4,240.96,3,60.25,60.235,60.241,1700,102410.5,16,60.24,60.24,60.245,60.235,-0.00292963900888822,-0.0015579680119333918,atvi,20200123
2020-01-23,13:38,1:38 PM,60.24,60.235,60.237,200,12047.5,2,60.25,60.235,60.243,3859,232479.655,27,60.235,60.24,60.235,60.245,-0.002979293907343955,-0.0015248197563603007,atvi,20200123
2020-01-23,13:39,1:39 PM,60.24,60.24,60.24,3,180.72,1,60.245,60.22,60.238,2800,168665.5,24,60.24,60.24,60.245,60.22,-0.00292963900888822,-0.0016076903952929693,atvi,20200123
2020-01-23,13:40,1:40 PM,,,,0,0.0,0,60.22,60.215,60.217,787,47390.788,6,,,60.218,60.215,,-0.0019557470788100126,atvi,20200123
2020-01-23,13:41,1:41 PM,60.21,60.21,60.21,102,6141.42,2,60.22,60.2,60.213,2567,154565.97,18,60.21,60.21,60.22,60.21,-0.0034261879934455656,-0.0020220435899560765,atvi,20200123
2020-01-23,13:42,1:42 PM,60.22,60.21,60.217,258,15535.93,3,60.22,60.205,60.214,4808,289511.242,32,60.21,60.22,60.205,60.22,-0.0033103265637155575,-0.00200546946216959,atvi,20200123
2020-01-23,13:43,1:43 PM,60.24,60.23,60.24,102,6144.46,2,60.25,60.226,60.239,4046,243725.0,30,60.23,60.24,60.226,60.25,-0.00292963900888822,-0.0015911162675064827,atvi,20200123
2020-01-23,13:44,1:44 PM,60.25,60.25,60.25,2,120.5,1,60.26,60.25,60.252,5410,325961.13,43,60.25,60.25,60.25,60.25,-0.0027641226807024774,-0.0013756526062815681,atvi,20200123
2020-01-23,13:45,1:45 PM,60.24,60.24,60.24,401,24156.24,12,60.245,60.235,60.241,5288,318554.62,36,60.24,60.24,60.245,60.24,-0.00292963900888822,-0.0015579680119333918,atvi,20200123
2020-01-23,13:46,1:46 PM,60.255,60.25,60.254,782,47118.41,8,60.26,60.245,60.252,5580,336208.69,42,60.25,60.255,60.25,60.25,-0.002697916149428204,-0.0013756526062815681,atvi,20200123
2020-01-23,13:47,1:47 PM,60.24,60.24,60.24,103,6204.72,3,60.25,60.24,60.241,2100,126506.23,18,60.24,60.24,60.24,60.244,-0.00292963900888822,-0.0015579680119333918,atvi,20200123
2020-01-23,13:48,1:48 PM,60.24,60.23,60.23,102,6143.48,2,60.24,60.22,60.235,2833,170644.6653,26,60.24,60.23,60.24,60.23,-0.0030951553370740805,-0.001657412778652547,atvi,20200123
2020-01-23,13:49,1:49 PM,60.23,60.23,60.23,8,481.84,1,60.25,60.225,60.236,2803,168842.655,19,60.23,60.23,60.23,60.245,-0.0030951553370740805,-0.0016408386508660604,atvi,20200123
2020-01-23,13:50,1:50 PM,,,,0,0.0,0,60.245,60.235,60.241,3700,222892.5,24,,,60.245,60.235,,-0.0015579680119333918,atvi,20200123
2020-01-23,13:51,1:51 PM,60.25,60.25,60.25,100,6025.0,1,60.25,60.245,60.248,5758,346911.0,33,60.25,60.25,60.245,60.25,-0.0027641226807024774,-0.00144194911742775,atvi,20200123
2020-01-23,13:52,1:52 PM,60.255,60.255,60.255,100,6025.5,1,60.256,60.25,60.254,2030,122315.4295,15,60.255,60.255,60.25,60.255,-0.0026813645166095476,-0.0013425043507085948,atvi,20200123
2020-01-23,13:53,1:53 PM,60.26,60.25,60.258,605,36456.28,10,60.26,60.25,60.253,13412,808119.925,97,60.26,60.25,60.254,60.25,-0.0026317096181538127,-0.0013590784784950813,atvi,20200123
2020-01-23,13:54,1:54 PM,60.26,60.245,60.255,2063,124306.56,9,60.26,60.25,60.254,6213,374356.481,32,60.255,60.255,60.255,60.256,-0.0026813645166095476,-0.0013425043507085948,atvi,20200123
2020-01-23,13:55,1:55 PM,60.285,60.26,60.268,806,48576.06,10,60.285,60.255,60.269,11186,674166.93,83,60.26,60.285,60.26,60.28,-0.00246619328996807,-0.0010938924339107068,atvi,20200123
2020-01-23,13:56,1:56 PM,60.275,60.275,60.275,200,12055.0,2,60.28,60.27,60.275,3767,227055.4751,20,60.275,60.275,60.28,60.27,-0.0023503318602380624,-0.0009944476671915517,atvi,20200123
2020-01-23,13:57,1:57 PM,60.275,60.23,60.259,410,24706.19,11,60.275,60.23,60.254,5466,329348.34,42,60.275,60.23,60.275,60.23,-0.0026151579853352738,-0.0013425043507085948,atvi,20200123
2020-01-23,13:58,1:58 PM,60.225,60.225,60.225,200,12045.0,1,60.23,60.221,60.226,1992,119971.113,12,60.225,60.225,60.23,60.225,-0.003177913501166893,-0.0018065799287312796,atvi,20200123
2020-01-23,13:59,1:59 PM,60.245,60.23,60.23,105,6324.21,3,60.25,60.225,60.233,5284,318270.085,37,60.23,60.245,60.225,60.25,-0.0030951553370740805,-0.0016905610342256379,atvi,20200123
2020-01-23,14:00,2 PM,60.28,60.25,60.251,104,6266.12,2,60.295,60.245,60.281,5100,307431.53,43,60.25,60.28,60.245,60.275,-0.0027475710478839384,-0.0008950029004723965,atvi,20200123
2020-01-23,14:01,2:01 PM,60.28,60.275,60.278,191,11513.03,3,60.28,60.275,60.278,1660,100060.952,11,60.28,60.275,60.28,60.275,-0.0023006769617823276,-0.0009447252838319741,atvi,20200123
2020-01-23,14:02,2:02 PM,60.315,60.3,60.307,443,26716.0,8,60.315,60.28,60.303,9221,556056.615,74,60.3,60.3,60.28,60.3,-0.0018206796100435213,-0.0005303720891688668,atvi,20200123
2020-01-23,14:03,2:03 PM,60.3,60.285,60.3,208,12542.315,4,60.305,60.285,60.301,8095,488136.907,22,60.3,60.285,60.295,60.29,-0.001936541039773647,-0.0005635203447418401,atvi,20200123
2020-01-23,14:04,2:04 PM,60.285,60.265,60.27,400,24108.0,4,60.285,60.26,60.273,3260,196489.6195,25,60.285,60.265,60.285,60.265,-0.0024330900243308747,-0.001027595922764525,atvi,20200123
2020-01-23,14:05,2:05 PM,60.265,60.235,60.248,330,19881.85,3,60.265,60.235,60.248,5365,323232.605,43,60.265,60.235,60.26,60.235,-0.0027972259463396733,-0.00144194911742775,atvi,20200123
2020-01-23,14:06,2:06 PM,60.24,60.23,60.24,138,8313.11,3,60.24,60.235,60.239,2810,169270.25,17,60.24,60.23,60.24,60.24,-0.00292963900888822,-0.0015911162675064827,atvi,20200123
2020-01-23,14:07,2:07 PM,60.23,60.22,60.227,299,18007.77,3,60.23,60.22,60.225,5467,329252.75,36,60.23,60.22,60.23,60.22,-0.003144810235529815,-0.0018231540565177664,atvi,20200123
2020-01-23,14:08,2:08 PM,60.24,60.22,60.229,265,15960.65,6,60.24,60.215,60.216,51574,3105600.3628,32,60.22,60.24,60.22,60.24,-0.0031117069698926195,-0.001972321206596499,atvi,20200123
2020-01-23,14:09,2:09 PM,60.295,60.24,60.269,866,52192.94,10,60.3,60.23,60.266,10617,639839.005,84,60.24,60.295,60.24,60.296,-0.002449641657149531,-0.0011436148172702845,atvi,20200123
2020-01-23,14:10,2:10 PM,60.31,60.31,60.31,242,14595.02,3,60.31,60.3,60.305,7000,422132.6,54,60.31,60.31,60.3,60.31,-0.001771024711587787,-0.0004972238335957758,atvi,20200123
2020-01-23,14:11,2:11 PM,60.3,60.27,60.289,407,24537.57,9,60.3,60.26,60.284,8053,485469.8163,65,60.3,60.27,60.3,60.275,-0.0021186090007779285,-0.0008452805171128189,atvi,20200123
2020-01-23,14:12,2:12 PM,,,,0,0.0,0,60.29,60.27,60.281,2500,150701.5,24,,,60.27,60.29,,-0.0008950029004723965,atvi,20200123
2020-01-23,14:13,2:13 PM,60.285,60.285,60.285,100,6028.5,1,60.29,60.265,60.273,3100,186846.47,25,60.285,60.285,60.29,60.27,-0.00218481553205232,-0.001027595922764525,atvi,20200123
2020-01-23,14:14,2:14 PM,60.285,60.28,60.28,1500,90420.5,10,60.285,60.27,60.278,5192,312961.74,28,60.28,60.285,60.27,60.285,-0.002267573696145132,-0.0009447252838319741,atvi,20200123
2020-01-23,14:15,2:15 PM,60.295,60.295,60.295,212,12782.54,2,60.32,60.28,60.297,3126,188489.9,26,60.295,60.295,60.28,60.32,-0.0020192992038664593,-0.000629816855888022,atvi,20200123
2020-01-23,14:16,2:16 PM,60.38,60.375,60.379,4,241.515,2,60.385,60.33,60.352,4544,274241.96,36,60.375,60.38,60.33,60.38,-0.00062896204710601,0.00028176017237086117,atvi,20200123
2020-01-23,14:17,2:17 PM,60.41,60.41,60.41,200,12082.0,2,60.42,60.38,60.403,4489,271148.0852,29,60.41,60.41,60.38,60.42,-0.00011586142973012566,0.0011270406894836802,atvi,20200123
2020-01-23,14:18,2:18 PM,60.46,60.425,60.438,317,19158.82,9,60.465,60.42,60.454,5788,349906.98,38,60.425,60.46,60.42,60.455,0.0003475842891901418,0.001972321206596499,atvi,20200123
2020-01-23,14:19,2:19 PM,60.455,60.45,60.455,203,12272.35,2,60.46,60.43,60.452,4800,290169.39,45,60.455,60.45,60.454,60.43,0.0006289620471058924,0.001939172951023408,atvi,20200123
2020-01-23,14:20,2:20 PM,60.445,60.445,60.445,100,6044.5,1,60.445,60.43,60.435,4288,259145.87,29,60.445,60.445,60.44,60.43,0.0004634457189201498,0.001657412778652547,atvi,20200123
2020-01-23,14:21,2:21 PM,60.43,60.425,60.425,201,12145.43,3,60.44,60.425,60.432,4332,261792.57,34,60.43,60.425,60.44,60.425,0.00013241306254854702,0.0016076903952929693,atvi,20200123
2020-01-23,14:22,2:22 PM,60.425,60.425,60.425,100,6042.5,1,60.427,60.4,60.414,4859,293554.0403,37,60.425,60.425,60.42,60.425,0.00013241306254854702,0.0013093560951355039,atvi,20200123
2020-01-23,14:23,2:23 PM,60.43,60.415,60.42,843,50934.5,8,60.43,60.41,60.419,4331,261674.445,33,60.425,60.42,60.42,60.41,4.9654898455734536e-05,0.0013922267340680547,atvi,20200123
2020-01-23,14:24,2:24 PM,60.415,60.41,60.411,426,25735.16,7,60.42,60.4,60.41,7443,449634.2405,53,60.415,60.41,60.42,60.41,-9.930979691146907e-05,0.0012430595839893219,atvi,20200123
2020-01-23,14:25,2:25 PM,60.41,60.39,60.408,502,30324.78,4,60.415,60.37,60.4,5840,352736.47,46,60.41,60.39,60.415,60.38,-0.00014896469536720362,0.0010773183061241025,atvi,20200123
2020-01-23,14:26,2:26 PM,60.38,60.36,60.371,110,6640.77,4,60.385,60.36,60.371,5130,309703.42,42,60.37,60.37,60.375,60.37,-0.000761375109654557,0.0005966686003149311,atvi,20200123
2020-01-23,14:27,2:27 PM,60.35,60.3,60.312,1573,94870.4,15,60.365,60.27,60.309,36267,2187214.733,290,60.35,60.3,60.365,60.28,-0.0017379214459507088,-0.0004309273224497117,atvi,20200123
2020-01-23,14:28,2:28 PM,60.29,60.25,60.272,998,60151.715,13,60.3,60.26,60.275,17919,1080064.7,158,60.275,60.25,60.28,60.26,-0.002399986758693797,-0.0009944476671915517,atvi,20200123
2020-01-23,14:29,2:29 PM,60.27,60.27,60.27,236,14223.72,4,60.27,60.255,60.268,10411,627448.09,82,60.27,60.27,60.255,60.261,-0.0024330900243308747,-0.0011104665616971936,atvi,20200123
2020-01-23,14:30,2:30 PM,,,,0,0.0,0,60.33,60.265,60.291,7815,471175.39,52,,,60.265,60.33,,-0.0007292616226071772,atvi,20200123
2020-01-23,14:31,2:31 PM,60.33,60.33,60.33,100,6033.0,1,60.39,60.325,60.347,2382,143746.055,17,60.33,60.33,60.33,60.39,-0.0014399920552163015,0.00019888953343831034,atvi,20200123
2020-01-23,14:32,2:32 PM,60.36,60.36,60.36,4,241.44,2,60.38,60.34,60.364,3000,181092.0,28,60.36,60.36,60.38,60.34,-0.0009434430706589562,0.0004806497058091715,atvi,20200123
2020-01-23,14:33,2:33 PM,60.33,60.31,60.324,5,301.62,4,,,,0,0.0,0,60.33,60.31,,,-0.0015393018521277708,-0.0004143531946631073,atvi,20200123
2020-01-23,14:34,2:34 PM,60.32,60.3,60.309,531,32023.91,7,60.33,60.27,60.307,15290,922102.78,96,60.32,60.3,60.325,60.27,-0.0017875763444064434,-0.0004640755780226849,atvi,20200123
2020-01-23,14:35,2:35 PM,60.28,60.255,60.257,108,6507.72,3,60.28,60.255,60.261,7133,429845.7385,52,60.26,60.28,60.26,60.28,-0.0026482612509724696,-0.0012264854562028353,atvi,20200123
2020-01-23,14:36,2:36 PM,60.305,60.305,60.305,5,301.525,1,,,,0,0.0,0,60.305,60.305,,,-0.001853782875680717,-0.0004972238335957758,atvi,20200123
2020-01-23,14:37,2:37 PM,,,,0,0.0,0,60.33,60.305,60.317,2000,120634.0,17,,,60.31,60.33,,-0.00029833430015746554,atvi,20200123
2020-01-23,14:38,2:38 PM,,,,0,0.0,0,60.34,60.32,60.327,1500,90490.5,13,,,60.32,60.34,,-0.00013259302229224614,atvi,20200123
2020-01-23,14:39,2:39 PM,60.34,60.32,60.327,156,9411.04,6,,,,0,0.0,0,60.34,60.32,,,-0.0014896469536720362,-0.0002486119167978879,atvi,20200123
2020-01-23,14:40,2:40 PM,60.32,60.32,60.32,100,6032.0,3,60.325,60.31,60.319,1210,72986.7,12,60.32,60.32,60.325,60.32,-0.0016055083834020441,-0.00026518604458437454,atvi,20200123
2020-01-23,14:41,2:41 PM,,,,0,0.0,0,,,,0,0.0,0,,,,,,,atvi,20200123
2020-01-23,14:42,2:42 PM,60.325,60.325,60.325,100,6032.5,1,60.35,60.325,60.331,1800,108595.94,14,60.325,60.325,60.326,60.335,-0.001522750219309114,-6.62965111460642e-05,atvi,20200123
2020-01-23,14:43,2:43 PM,60.335,60.335,60.335,147,8869.245,3,60.335,60.33,60.331,1524,91945.02,11,60.335,60.335,60.33,60.335,-0.0013572338911233715,-6.62965111460642e-05,atvi,20200123
2020-01-23,14:44,2:44 PM,60.34,60.33,60.335,1629,98285.82,11,60.34,60.325,60.334,3170,191258.866,20,60.335,60.33,60.34,60.325,-0.0013572338911233715,-1.6574127786486607e-05,atvi,20200123
2020-01-23,14:45,2:45 PM,60.31,60.31,60.31,1,60.31,1,60.325,60.315,60.319,1567,94519.116,12,60.31,60.31,60.325,60.315,-0.001771024711587787,-0.00026518604458437454,atvi,20200123
2020-01-23,14:46,2:46 PM,60.31,60.285,60.29,340,20498.645,4,60.31,60.285,60.296,5250,316555.635,43,60.31,60.285,60.31,60.29,-0.0021020573679593896,-0.0006463909836745087,atvi,20200123
2020-01-23,14:47,2:47 PM,60.28,60.24,60.265,538,32422.57,8,60.29,60.24,60.265,9298,560340.675,83,60.28,60.24,60.285,60.24,-0.002515848188423805,-0.001160188945056771,atvi,20200123
2020-01-23,14:48,2:48 PM,,,,0,0.0,0,60.265,60.24,60.249,2256,135922.0485,16,,,60.24,60.265,,-0.0014253749896411456,atvi,20200123
2020-01-23,14:49,2:49 PM,60.26,60.26,60.26,100,6026.0,1,,,,0,0.0,0,60.26,60.26,,,-0.002598606352516735,-0.0012430595839894396,atvi,20200123
2020-01-23,14:50,2:50 PM,60.255,60.255,60.255,4,241.02,1,,,,0,0.0,0,60.255,60.255,,,-0.0026813645166095476,-0.0013259302229219904,atvi,20200123
2020-01-23,14:51,2:51 PM,60.26,60.25,60.255,221,13316.46,4,60.265,60.25,60.257,4561,274833.485,27,60.26,60.26,60.26,60.26,-0.0026813645166095476,-0.0012927819673490173,atvi,20200123
2020-01-23,14:52,2:52 PM,,,,0,0.0,0,,,,0,0.0,0,,,,,,,atvi,20200123
2020-01-23,14:53,2:53 PM,,,,0,0.0,0,,,,0,0.0,0,,,,,,,atvi,20200123
2020-01-23,14:54,2:54 PM,60.295,60.27,60.284,510,30744.71,7,60.3,60.27,60.285,4700,283339.43,33,60.285,60.27,60.285,60.27,-0.002201367164870859,-0.0008287063893263324,atvi,20200123
2020-01-23,14:55,2:55 PM,60.28,60.28,60.28,100,6028.0,3,60.28,60.26,60.266,1600,96425.7,14,60.28,60.28,60.26,60.28,-0.002267573696145132,-0.0011436148172702845,atvi,20200123
2020-01-23,14:57,2:57 PM,60.28,60.28,60.28,1,60.28,1,60.28,60.27,60.278,4615,278181.62,28,60.28,60.28,60.275,60.28,-0.002267573696145132,-0.0009447252838319741,atvi,20200123
2020-01-23,14:58,2:58 PM,60.285,60.28,60.281,5,301.405,2,60.29,60.28,60.282,2941,177290.468,26,60.285,60.28,60.285,60.285,-0.002251022063326593,-0.0008784287726859099,atvi,20200123
2020-01-23,14:59,2:59 PM,60.315,60.29,60.309,113,6814.92,4,60.315,60.28,60.303,5139,309897.32,32,60.29,60.315,60.28,60.31,-0.0017875763444064434,-0.0005303720891688668,atvi,20200123
2020-01-23,15:00,3 PM,60.31,60.29,60.309,108,6513.41,5,60.31,60.26,60.288,7399,446068.69,64,60.31,60.29,60.31,60.265,-0.0017875763444064434,-0.0007789840059667548,atvi,20200123
2020-01-23,15:01,3:01 PM,60.265,60.265,60.265,2,120.53,1,60.28,60.26,60.272,4100,247114.93,33,60.265,60.265,60.265,60.264,-0.002515848188423805,-0.0010441700505511293,atvi,20200123
2020-01-23,15:02,3:02 PM,60.27,60.265,60.265,101,6086.77,2,60.28,60.265,60.272,2231,134466.1313,20,60.265,60.27,60.27,60.275,-0.002515848188423805,-0.0010441700505511293,atvi,20200123
2020-01-23,15:03,3:03 PM,60.28,60.28,60.28,86,5184.08,1,60.28,60.27,60.277,5234,315491.94,31,60.28,60.28,60.275,60.275,-0.002267573696145132,-0.0009612994116184608,atvi,20200123
2020-01-23,15:04,3:04 PM,60.27,60.26,60.266,5,301.33,3,60.28,60.245,60.267,4600,277226.45,39,60.27,60.26,60.28,60.245,-0.002499296555605266,-0.0011270406894836802,atvi,20200123
2020-01-23,15:05,3:05 PM,60.23,60.23,60.23,21,1264.83,1,60.245,60.21,60.23,1800,108414.0,17,60.23,60.23,60.245,60.22,-0.0030951553370740805,-0.0017402834175852156,atvi,20200123
2020-01-23,15:06,3:06 PM,60.22,60.2,60.207,329,19808.04,7,60.225,60.19,60.205,8992,541366.0925,66,60.21,60.22,60.21,60.225,-0.0034758428919013,-0.002154636612248323,atvi,20200123
2020-01-23,15:07,3:07 PM,60.25,60.23,60.249,59,3554.71,2,60.25,60.22,60.235,4646,279850.2,37,60.25,60.23,60.23,60.22,-0.0027806743135210163,-0.001657412778652547,atvi,20200123
2020-01-23,15:08,3:08 PM,60.22,60.21,60.215,442,26615.24,8,60.23,60.205,60.213,4600,276978.55,39,60.22,60.22,60.23,60.21,-0.0033434298293526354,-0.0020220435899560765,atvi,20200123
2020-01-23,15:09,3:09 PM,60.21,60.19,60.208,110,6622.9,3,,,,0,0.0,0,60.19,60.21,,,-0.003459291259082761,-0.0020717659733156544,atvi,20200123
2020-01-23,15:10,3:10 PM,,,,0,0.0,0,60.21,60.19,60.201,1881,113237.3712,14,,,60.21,60.2,,-0.002220933123394387,atvi,20200123
2020-01-23,15:11,3:11 PM,60.19,60.19,60.19,100,6019.0,1,60.2,60.18,60.189,4300,258812.0,33,60.19,60.19,60.195,60.185,-0.0037572206498171683,-0.0024198226568326975,atvi,20200123
2020-01-23,15:12,3:12 PM,60.2,60.19,60.192,107,6440.55,7,60.21,60.18,60.191,7790,468888.913,57,60.19,60.19,60.185,60.19,-0.003724117384179973,-0.0023866744012596064,atvi,20200123
2020-01-23,15:13,3:13 PM,60.205,60.195,60.202,79,4755.93,3,,,,0,0.0,0,60.2,60.195,,,-0.0035586010559942303,-0.002320377890113542,atvi,20200123
2020-01-23,15:14,3:14 PM,60.18,60.17,60.18,106,6379.04,3,60.19,60.165,60.182,4400,264801.0,38,60.18,60.17,60.19,60.165,-0.003922736978002911,-0.002535841551338339,atvi,20200123
2020-01-23,15:15,3:15 PM,60.16,60.155,60.155,101,6075.66,2,60.16,60.14,60.156,3617,217582.9,29,60.16,60.155,60.16,60.16,-0.004336527798467326,-0.002966768873788051,atvi,20200123
2020-01-23,15:16,3:16 PM,60.18,60.17,60.175,200,12035.0,3,60.19,60.16,60.174,5573,335351.67,46,60.17,60.18,60.17,60.19,-0.004005495142095841,-0.002668434573630585,atvi,20200123
2020-01-23,15:17,3:17 PM,60.21,60.19,60.2,200,12040.0,2,60.21,60.15,60.182,8666,521535.4982,68,60.21,60.19,60.185,60.15,-0.003591704321631308,-0.002535841551338339,atvi,20200123
2020-01-23,15:18,3:18 PM,60.18,60.18,60.18,83,4994.94,1,60.19,60.155,60.17,6976,419744.87,60,60.18,60.18,60.155,60.19,-0.003922736978002911,-0.0027347310847766495,atvi,20200123
2020-01-23,15:19,3:19 PM,60.18,60.175,60.177,305,18353.9,3,60.195,60.175,60.181,6106,367467.472,48,60.18,60.175,60.19,60.175,-0.003972391876458646,-0.0025524156791249435,atvi,20200123
2020-01-23,15:20,3:20 PM,60.18,60.175,60.179,500,30089.5,3,60.18,60.17,60.178,14194,854172.5419,100,60.18,60.18,60.18,60.18,-0.00393928861082145,-0.002602138062484521,atvi,20200123
2020-01-23,15:21,3:21 PM,60.195,60.175,60.183,500,30091.5,4,60.195,60.17,60.178,12534,754275.8721,69,60.18,60.195,60.17,60.195,-0.0038730820795471765,-0.002602138062484521,atvi,20200123
2020-01-23,15:22,3:22 PM,60.245,60.195,60.215,710,42752.32,10,60.25,60.19,60.227,8335,501992.0755,65,60.195,60.24,60.195,60.235,-0.0033434298293526354,-0.001790005800944793,atvi,20200123
2020-01-23,15:23,3:23 PM,60.245,60.24,60.244,127,7650.98,4,60.245,60.22,60.228,6244,376064.5777,44,60.24,60.245,60.24,60.245,-0.0028634324776139466,-0.0017734316731581887,atvi,20200123
2020-01-23,15:24,3:24 PM,60.24,60.23,60.231,122,7348.16,5,60.24,60.225,60.234,4957,298580.972,42,60.24,60.23,60.24,60.23,-0.0030786037042554236,-0.0016739869064390336,atvi,20200123
2020-01-23,15:25,3:25 PM,60.22,60.2,60.21,149,8971.3,6,,,,0,0.0,0,60.22,60.21,,,-0.0034261879934455656,-0.0020717659733156544,atvi,20200123
2020-01-23,15:26,3:26 PM,60.22,60.21,60.219,108,6503.68,3,,,,0,0.0,0,60.22,60.21,,,-0.003277223298078362,-0.0020717659733156544,atvi,20200123
2020-01-23,15:27,3:27 PM,60.215,60.205,60.205,2200,132452.0,7,60.215,60.2,60.207,9079,546622.965,61,60.205,60.215,60.205,60.21,-0.0035089461575384955,-0.002121488356675232,atvi,20200123
2020-01-23,15:28,3:28 PM,60.24,60.2,60.222,616,37096.8,9,60.24,60.2,60.217,9136,550143.84,81,60.205,60.24,60.205,60.234,-0.003227568399622627,-0.0019557470788100126,atvi,20200123
2020-01-23,15:29,3:29 PM,60.255,60.23,60.244,1100,66268.62,8,60.255,60.235,60.242,13459,810791.55,88,60.235,60.245,60.235,60.245,-0.0028634324776139466,-0.001541393884146905,atvi,20200123
2020-01-23,15:30,3:30 PM,60.24,60.21,60.221,608,36614.42,9,60.24,60.21,60.221,15473,931800.92,95,60.24,60.21,60.24,60.225,-0.003244120032441284,-0.0018894505676639482,atvi,20200123
2020-01-23,15:31,3:31 PM,60.23,60.22,60.225,201,12105.22,3,,,,0,0.0,0,60.22,60.23,,,-0.003177913501166893,-0.0017402834175852156,atvi,20200123
2020-01-23,15:32,3:32 PM,60.26,60.25,60.253,7,421.77,2,60.27,60.235,60.249,8448,508983.5279,50,60.25,60.26,60.24,60.265,-0.002714467782246743,-0.0014253749896411456,atvi,20200123
2020-01-23,15:33,3:33 PM,60.27,60.245,60.252,419,25245.48,9,,,,0,0.0,0,60.26,60.245,,,-0.002731019415065282,-0.0014916715007873276,atvi,20200123
2020-01-23,15:34,3:34 PM,60.265,60.255,60.255,101,6085.765,2,60.26,60.235,60.249,3413,205629.38,33,60.265,60.255,60.235,60.255,-0.0026813645166095476,-0.0014253749896411456,atvi,20200123
2020-01-23,15:35,3:35 PM,60.25,60.245,60.249,1417,85373.25,13,60.25,60.245,60.248,10426,628147.5,63,60.25,60.25,60.25,60.25,-0.0027806743135210163,-0.00144194911742775,atvi,20200123
2020-01-23,15:36,3:36 PM,60.265,60.24,60.256,415,25006.32,10,60.27,60.24,60.253,8003,482207.77,64,60.25,60.24,60.25,60.24,-0.0026648128837910086,-0.0013590784784950813,atvi,20200123
2020-01-23,15:37,3:37 PM,60.26,60.26,60.26,9,542.34,2,60.27,60.245,60.261,3433,206874.76,33,60.26,60.26,60.245,60.26,-0.002598606352516735,-0.0012264854562028353,atvi,20200123
2020-01-23,15:38,3:38 PM,60.27,60.26,60.265,200,12053.0,3,60.27,60.26,60.268,4300,259152.0,37,60.26,60.27,60.26,60.265,-0.002515848188423805,-0.0011104665616971936,atvi,20200123
2020-01-23,15:39,3:39 PM,60.26,60.23,60.241,331,19939.72,9,60.27,60.225,60.243,5850,352420.01,53,60.26,60.235,60.27,60.24,-0.002913087376069681,-0.0015248197563603007,atvi,20200123
2020-01-23,15:40,3:40 PM,60.24,60.23,60.235,2,120.47,2,60.24,60.23,60.233,2968,178770.98,22,60.23,60.24,60.235,60.23,-0.0030123971729811502,-0.0016905610342256379,atvi,20200123
2020-01-23,15:41,3:41 PM,60.21,60.21,60.21,100,6021.0,1,60.23,60.2,60.218,10278,618917.6,75,60.21,60.21,60.225,60.215,-0.0034261879934455656,-0.001939172951023408,atvi,20200123
2020-01-23,15:42,3:42 PM,60.21,60.205,60.205,121,7284.855,3,,,,0,0.0,0,60.21,60.21,,,-0.0035089461575384955,-0.0020717659733156544,atvi,20200123
2020-01-23,15:43,3:43 PM,60.22,60.22,60.22,107,6443.54,2,,,,0,0.0,0,60.22,60.22,,,-0.003260671665259823,-0.001906024695450435,atvi,20200123
2020-01-23,15:44,3:44 PM,60.23,60.225,60.227,200,12045.5,2,60.255,60.225,60.233,8667,522042.76,68,60.225,60.23,60.225,60.255,-0.003144810235529815,-0.0016905610342256379,atvi,20200123
2020-01-23,15:45,3:45 PM,60.285,60.26,60.279,910,54854.35,7,60.29,60.255,60.278,10635,641056.97,79,60.26,60.285,60.255,60.29,-0.002284125328963671,-0.0009447252838319741,atvi,20200123
2020-01-23,15:46,3:46 PM,60.29,60.27,60.28,1053,63475.12,19,60.29,60.26,60.279,11120,670297.542,81,60.285,60.27,60.285,60.265,-0.002267573696145132,-0.0009281511560453698,atvi,20200123
2020-01-23,15:47,3:47 PM,60.27,60.27,60.27,6,361.62,2,60.27,60.26,60.266,3526,212496.89,33,60.27,60.27,60.27,60.265,-0.0024330900243308747,-0.0011436148172702845,atvi,20200123
2020-01-23,15:48,3:48 PM,60.265,60.25,60.256,359,21631.805,12,60.265,60.245,60.252,18333,1104609.339,128,60.26,60.25,60.265,60.248,-0.0026648128837910086,-0.0013756526062815681,atvi,20200123
2020-01-23,15:49,3:49 PM,60.245,60.23,60.238,634,38191.155,15,60.25,60.22,60.238,15478,932366.0992,123,60.24,60.23,60.25,60.238,-0.002962742274525416,-0.0016076903952929693,atvi,20200123
2020-01-23,15:50,3:50 PM,60.245,60.185,60.218,1242,74791.255,16,60.25,60.17,60.214,33105,1993388.2,256,60.24,60.185,60.23,60.17,-0.003293774930896901,-0.00200546946216959,atvi,20200123
2020-01-23,15:51,3:51 PM,60.18,60.17,60.171,735,44225.95,9,60.19,60.16,60.173,15491,932142.02,111,60.17,60.18,60.16,60.185,-0.0040717016733701145,-0.002685008701417072,atvi,20200123
2020-01-23,15:52,3:52 PM,60.18,60.16,60.175,255,15344.56,7,60.19,60.16,60.174,11664,701865.496,95,60.18,60.16,60.18,60.17,-0.004005495142095841,-0.002668434573630585,atvi,20200123
2020-01-23,15:53,3:53 PM,60.2,60.16,60.177,1055,63486.96,10,60.2,60.16,60.175,21940,1320246.46,171,60.165,60.2,60.16,60.2,-0.003972391876458646,-0.002651860445844099,atvi,20200123
2020-01-23,15:54,3:54 PM,60.19,60.13,60.151,1281,77053.27,25,60.21,60.06,60.148,132577,7974202.8385,806,60.19,60.13,60.2,60.07,-0.0044027343297416,-0.0030993618960801794,atvi,20200123
2020-01-23,15:55,3:55 PM,60.175,60.105,60.147,711,42764.815,9,,,,0,0.0,0,60.105,60.165,,,-0.0044689408610159905,-0.002817601723709318,atvi,20200123
2020-01-23,15:56,3:56 PM,60.16,60.13,60.135,810,48709.75,17,60.167,60.12,60.135,46116,2773179.8728,325,60.16,60.135,60.165,60.13,-0.004667560454838929,-0.003314825557305094,atvi,20200123
2020-01-23,15:57,3:57 PM,60.165,60.13,60.143,1873,112647.495,29,60.18,60.13,60.148,54096,3253753.32,371,60.14,60.135,60.133,60.13,-0.004535147392290264,-0.0030993618960801794,atvi,20200123
2020-01-23,15:58,3:58 PM,60.17,60.13,60.142,735,44204.6,17,60.18,60.12,60.142,51227,3080878.328,323,60.13,60.165,60.12,60.15,-0.004551699025108803,-0.0031988066627993343,atvi,20200123
2020-01-23,15:59,3:59 PM,60.195,60.13,60.167,2915,175385.93,35,60.2,60.13,60.151,188752,11353620.8,880,60.15,60.15,60.15,60.13,-0.004137908204644388,-0.0030496395127206015,atvi,20200123
