date,minute,label,high,low,average,volume,notional,numberOfTrades,marketHigh,marketLow,marketAverage,marketVolume,marketNotional,marketNumberOfTrades,open,close,marketOpen,marketClose,changeOverTime,marketChangeOverTime,tickerName,tickerDate
2019-12-06,09:30,09:30 AM,55.38,55.16,55.324,950,52557.5,5,55.4,55.12,55.139,112481,6202088.4386,73,55.16,55.38,55.12,55.4,0.0,0.0,atvi,20191206
2019-12-06,09:31,09:31 AM,55.405,55.27,55.365,2579,142786.245,14,55.419,55.2,55.365,19101,1057530.295,108,55.385,55.27,55.4,55.26,0.0007410888583617223,0.004098732294745989,atvi,20191206
2019-12-06,09:32,09:32 AM,,,,0,0.0,0,55.28,55.07,55.155,7164,395127.71,52,,,55.28,55.115,,0.00029017573768110115,atvi,20191206
2019-12-06,09:33,09:33 AM,55.3,55.24,55.294,1100,60824.0,2,55.3,55.125,55.24,6272,346467.2044,37,55.24,55.3,55.145,55.3,-0.0005422601402646436,0.0018317343441121364,atvi,20191206
2019-12-06,09:34,09:34 AM,,,,0,0.0,0,55.26,55.12,55.206,7290,402454.543,50,,,55.26,55.12,,0.001215110901539748,atvi,20191206
2019-12-06,09:35,09:35 AM,55.21,55.11,55.143,600,33086.0,5,55.21,55.042,55.123,20400,1124516.3773,146,55.21,55.13,55.127,55.09,-0.0032716361795965113,-0.00029017573768123,atvi,20191206
2019-12-06,09:36,09:36 AM,55.12,55.1,55.11,200,11022.0,2,55.13,55.06,55.101,8768,483126.4518,54,55.1,55.12,55.09,55.115,-0.0038681223338876193,-0.0006891673769927602,atvi,20191206
2019-12-06,09:37,09:37 AM,55.17,55.115,55.13,6601,363914.145,18,55.21,55.113,55.146,51540,2842216.63,172,55.115,55.17,55.13,55.16,-0.0035066155737111474,0.0001269518852354576,atvi,20191206
2019-12-06,09:38,09:38 AM,55.2,55.17,55.188,600,33113.0,5,55.25,55.15,55.184,27120,1496597.2236,70,55.17,55.19,55.17,55.23,-0.002458245969199546,0.000816119262228089,atvi,20191206
2019-12-06,09:39,09:39 AM,55.23,55.175,55.195,3028,167129.375,18,55.24,55.16,55.193,60911,3361869.2726,178,55.23,55.18,55.21,55.23,-0.0023317186031378387,0.0009793431146737325,atvi,20191206
2019-12-06,09:40,09:40 AM,55.21,55.205,55.205,282,15567.82,2,55.28,55.18,55.229,9973,550796.9785,68,55.21,55.205,55.225,55.21,-0.002150965223049667,0.0016322385244563068,atvi,20191206
2019-12-06,09:41,09:41 AM,55.22,55.09,55.172,1600,88274.5,14,55.228,55.05,55.157,36880,2034173.87,195,55.22,55.09,55.22,55.07,-0.0027474513773407747,0.00032644770489115825,atvi,20191206
2019-12-06,09:42,09:42 AM,55.12,55.06,55.087,1049,57786.38,11,55.12,55.06,55.086,11292,622027.19,85,55.075,55.06,55.08,55.08,-0.004283855108090427,-0.0009612071310688328,atvi,20191206
2019-12-06,09:43,09:43 AM,55.095,55.03,55.049,606,33359.69,10,55.095,54.99,55.038,22442,1235174.1746,145,55.095,55.035,55.08,55.034,-0.004970717952425685,-0.0018317343441122652,atvi,20191206
2019-12-06,09:44,09:44 AM,55.17,55.01,55.144,1152,63525.97,14,55.17,55.01,55.103,15040,828747.879,108,55.02,55.155,55.027,55.17,-0.0032535608415877326,-0.0006528954097825743,atvi,20191206
2019-12-06,09:45,09:45 AM,55.22,55.14,55.196,969,53485.06,14,55.23,55.13,55.194,21429,1182758.07,160,55.2,55.15,55.2,55.15,-0.00231364326512906,0.00099747909827889,atvi,20191206
2019-12-06,09:46,09:46 AM,55.18,55.135,55.171,1201,66260.1,11,55.193,55.11,55.158,17527,966753.68,101,55.17,55.15,55.17,55.12,-0.0027655267153495534,0.0003445836884963157,atvi,20191206
2019-12-06,09:47,09:47 AM,,,,0,0.0,0,55.13,55.07,55.099,2351,129537.57,19,,,55.12,55.081,,-0.0007254393442029462,atvi,20191206
2019-12-06,09:48,09:48 AM,55.18,55.155,55.156,103,5681.04,2,55.2,55.095,55.165,10555,582270.6437,68,55.155,55.18,55.1,55.19,-0.0030366567854818753,0.0004715355737317733,atvi,20191206
2019-12-06,09:49,09:49 AM,55.19,55.15,55.156,405,22338.37,6,55.19,55.14,55.165,6688,368942.802,47,55.19,55.155,55.19,55.15,-0.0030366567854818753,0.0004715355737317733,atvi,20191206
2019-12-06,09:50,09:50 AM,55.135,55.02,55.088,705,38837.04,7,55.17,55.02,55.084,12430,684687.98,88,55.135,55.02,55.16,55.02,-0.0042657797700816485,-0.00099747909827889,atvi,20191206
2019-12-06,09:51,09:51 AM,55.0,54.94,54.974,600,32984.5,5,55.01,54.94,54.979,12186,669970.66,73,55.0,54.965,55.01,54.98,-0.006326368303087294,-0.002901757376811398,atvi,20191206
2019-12-06,09:52,09:52 AM,55.02,54.97,54.984,515,28316.93,11,55.05,54.96,54.986,17170,944103.06,79,54.97,55.02,54.97,55.04,-0.006145614922998994,-0.0027748054915759405,atvi,20191206
2019-12-06,09:53,09:53 AM,55.05,55.005,55.022,1022,56232.44,9,55.07,55.0,55.012,49903,2745267.2175,69,55.04,55.02,55.03,55.015,-0.005458752078663864,-0.0023032699178440383,atvi,20191206
2019-12-06,09:54,09:54 AM,55.01,54.98,54.985,902,49596.5,9,55.02,54.98,55.0,7567,416185.47,44,54.985,55.01,55.01,55.02,-0.006127539584990215,-0.0025209017211048966,atvi,20191206
2019-12-06,09:55,09:55 AM,55.09,55.06,55.077,708,38994.63,11,55.1,55.03,55.081,10750,592120.45,74,55.07,55.06,55.03,55.08,-0.004464608488178727,-0.0010518870490941045,atvi,20191206
2019-12-06,09:56,09:56 AM,55.07,55.03,55.036,204,11227.275,4,55.09,55.018,55.051,106700,5873903.06,48,55.07,55.03,55.07,55.018,-0.005205697346540321,-0.0015959665572462497,atvi,20191206
2019-12-06,09:57,09:57 AM,55.04,54.995,55.038,109,5999.15,5,55.05,54.99,55.01,5232,287812.55,44,55.01,55.04,55.01,55.05,-0.005169546670522764,-0.0023395418850542245,atvi,20191206
2019-12-06,09:58,09:58 AM,55.05,55.015,55.016,104,5721.7,4,55.09,55.011,55.062,4862,267709.466,36,55.05,55.015,55.06,55.02,-0.005567204106716793,-0.001396470737590549,atvi,20191206
2019-12-06,09:59,09:59 AM,55.06,55.04,55.05,238,13101.83,10,55.06,55.03,55.051,3802,209303.6356,27,55.04,55.06,55.03,55.056,-0.004952642614416906,-0.0015959665572462497,atvi,20191206
2019-12-06,10:00,10 AM,55.07,55.0,55.068,107,5892.25,7,55.1,55.0,55.047,6202,341404.637,54,55.07,55.035,55.07,55.03,-0.00462728653025812,-0.0016685104916666217,atvi,20191206
2019-12-06,10:01,10:01 AM,55.03,55.005,55.015,3,165.045,3,55.05,54.995,55.019,3784,208190.407,29,55.03,55.01,55.04,55.04,-0.005585279444725572,-0.0021763180326085808,atvi,20191206
2019-12-06,10:02,10:02 AM,55.05,55.02,55.035,205,11282.25,5,55.07,55.02,55.039,4500,247674.36,40,55.05,55.05,55.05,55.06,-0.005223772684549228,-0.0018135983605071077,atvi,20191206
2019-12-06,10:03,10:03 AM,55.065,55.04,55.057,5,275.285,4,55.07,55.03,55.049,2600,143127.0,23,55.065,55.06,55.07,55.05,-0.004826115248355071,-0.0016322385244564356,atvi,20191206
2019-12-06,10:04,10:04 AM,55.075,55.045,55.074,65,3579.795,5,55.09,55.045,55.065,3514,193497.61,32,55.075,55.045,55.06,55.045,-0.004518834502205192,-0.0013420627867753345,atvi,20191206
2019-12-06,10:05,10:05 AM,55.08,55.045,55.075,209,11510.61,7,55.08,55.04,55.061,4550,250525.93,34,55.055,55.045,55.04,55.045,-0.004500759164196284,-0.0014146067211955775,atvi,20191206
2019-12-06,10:06,10:06 AM,55.065,55.025,55.061,318,17509.285,6,55.065,55.02,55.043,2120,116691.6,20,55.045,55.065,55.045,55.065,-0.004753813896319827,-0.0017410544260868647,atvi,20191206
2019-12-06,10:07,10:07 AM,,,,0,0.0,0,55.08,55.0,55.041,6170,339603.2806,51,,,55.05,55.04,,-0.0017773263932970506,atvi,20191206
2019-12-06,10:08,10:08 AM,54.995,54.995,54.995,500,27497.5,4,55.06,54.98,55.03,9257,509413.9803,80,54.995,54.995,55.05,54.99,-0.005946786204902043,-0.0019768222129527514,atvi,20191206
2019-12-06,10:09,10:09 AM,54.985,54.975,54.98,104,5717.92,4,55.03,54.97,54.994,7711,424057.328,56,54.975,54.985,54.99,54.99,-0.006217916275034365,-0.0026297176227353257,atvi,20191206
2019-12-06,10:10,10:10 AM,55.0,54.955,54.988,606,33322.84,12,55.0,54.955,54.983,16698,918102.92,60,54.98,54.955,54.985,54.955,-0.0060733135709637506,-0.002829213442391155,atvi,20191206
2019-12-06,10:11,10:11 AM,54.955,54.95,54.955,105,5770.255,4,54.965,54.93,54.947,9505,522269.325,29,54.955,54.95,54.965,54.935,-0.0066697997252548585,-0.0034821088521736006,atvi,20191206
2019-12-06,10:12,10:12 AM,54.96,54.94,54.949,679,37310.045,7,54.975,54.94,54.958,16135,886743.6628,63,54.945,54.94,54.94,54.942,-0.006778251753307787,-0.0032826130325179,atvi,20191206
2019-12-06,10:13,10:13 AM,54.995,54.9,54.923,1237,67939.86,16,55.03,54.898,54.94,513182,28194171.752,101,54.91,54.995,54.933,55.03,-0.007248210541537059,-0.003609060737409187,atvi,20191206
2019-12-06,10:14,10:14 AM,55.04,55.02,55.03,200,11006.0,2,55.05,55.005,55.029,11400,627333.02,45,55.02,55.04,55.033,55.05,-0.005314149374593249,-0.00199495819655778,atvi,20191206
2019-12-06,10:15,10:15 AM,55.06,54.89,54.999,1956,107578.745,23,55.06,54.9,54.992,31964,1757760.06,265,55.06,54.96,55.055,54.98,-0.0058744848528666715,-0.0026659895899455114,atvi,20191206
2019-12-06,10:16,10:16 AM,54.995,54.97,54.988,500,27494.0,6,55.013,54.96,54.987,6377,350655.581,56,54.99,54.97,54.99,54.97,-0.0060733135709637506,-0.0027566695079707833,atvi,20191206
2019-12-06,10:17,10:17 AM,54.985,54.92,54.955,642,35280.845,8,55.0,54.92,54.957,4300,236315.46,35,54.96,54.98,54.96,54.99,-0.0066697997252548585,-0.0033007490161229285,atvi,20191206
2019-12-06,10:18,10:18 AM,55.04,55.015,55.027,206,11335.59,2,55.05,55.0,55.035,4532,249416.4275,32,55.015,55.04,55.01,55.049,-0.0053683753886197135,-0.0018861422949274797,atvi,20191206
2019-12-06,10:19,10:19 AM,55.035,55.035,55.035,100,5503.5,1,55.07,55.02,55.052,3102,170772.376,27,55.035,55.035,55.05,55.06,-0.005223772684549228,-0.0015778305736412212,atvi,20191206
2019-12-06,10:20,10:20 AM,55.04,55.04,55.04,100,5504.0,1,55.06,55.04,55.042,2360,129900.451,20,55.04,55.04,55.041,55.04,-0.005133395994505078,-0.0017591904096918934,atvi,20191206
2019-12-06,10:21,10:21 AM,55.105,55.065,55.105,103,5675.775,3,55.137,55.06,55.088,6559,361321.4325,36,55.065,55.105,55.06,55.137,-0.00395849902393177,-0.0009249351638586469,atvi,20191206
2019-12-06,10:22,10:22 AM,55.15,55.15,55.15,100,5515.0,1,55.185,55.13,55.161,5286,291581.353,32,55.15,55.15,55.13,55.185,-0.003145108813534804,0.0003989916393115302,atvi,20191206
2019-12-06,10:23,10:23 AM,,,,0,0.0,0,55.23,55.185,55.203,5627,310625.01,42,,,55.188,55.23,,0.0011607029507245336,atvi,20191206
2019-12-06,10:24,10:24 AM,55.23,55.19,55.211,172,9496.28,4,55.24,55.18,55.208,6283,346873.976,42,55.23,55.19,55.23,55.197,-0.002042513194996738,0.001251382868749805,atvi,20191206
2019-12-06,10:25,10:25 AM,55.205,55.15,55.184,1446,79796.17,13,55.205,55.15,55.173,6554,361605.17,45,55.205,55.165,55.205,55.162,-0.0025305473212349173,0.0006166234425723883,atvi,20191206
2019-12-06,10:26,10:26 AM,55.165,55.13,55.142,600,33085.0,7,55.169,55.125,55.14,8447,465768.51,42,55.165,55.13,55.165,55.125,-0.00328971151760529,1.8135983605028554e-05,atvi,20191206
2019-12-06,10:27,10:27 AM,55.12,55.12,55.12,60,3307.2,1,55.14,55.11,55.125,11233,619216.06,29,55.12,55.12,55.13,55.11,-0.0036873689537994473,-0.00025390377047104405,atvi,20191206
2019-12-06,10:28,10:28 AM,55.09,55.09,55.09,200,11018.0,2,55.115,55.045,55.079,7512,413753.505,43,55.09,55.09,55.115,55.06,-0.004229629094063963,-0.0010881590163042904,atvi,20191206
2019-12-06,10:29,10:29 AM,55.065,55.065,55.065,200,11013.0,1,55.07,55.03,55.055,5077,279514.94,33,55.065,55.065,55.061,55.03,-0.004681512544284584,-0.0015234226228260067,atvi,20191206
2019-12-06,10:30,10:30 AM,55.04,55.04,55.04,100,5504.0,3,55.08,55.04,55.065,3344,184136.64,16,55.04,55.04,55.04,55.08,-0.005133395994505078,-0.0013420627867753345,atvi,20191206
2019-12-06,10:31,10:31 AM,55.06,55.06,55.06,200,11012.0,2,55.08,55.06,55.066,5679,312718.184,23,55.06,55.06,55.07,55.06,-0.0047718892343286065,-0.001323926803170177,atvi,20191206
2019-12-06,10:32,10:32 AM,55.055,55.02,55.039,367,20199.51,4,55.06,55.01,55.04,11632,640229.7433,44,55.05,55.02,55.06,55.012,-0.005151471332513856,-0.0017954623769020793,atvi,20191206
2019-12-06,10:33,10:33 AM,55.09,55.02,55.055,200,11011.0,2,55.11,55.02,55.07,5204,286583.35,41,55.02,55.09,55.03,55.11,-0.0048622659243727565,-0.001251382868749934,atvi,20191206
2019-12-06,10:34,10:34 AM,55.12,55.11,55.113,300,16534.0,4,55.13,55.09,55.113,2618,144286.94,24,55.11,55.11,55.11,55.09,-0.0038138963198611547,-0.00047153557373190213,atvi,20191206
2019-12-06,10:35,10:35 AM,,,,0,0.0,0,55.095,55.07,55.083,3100,170758.0,29,,,55.095,55.08,,-0.0010156150818840474,atvi,20191206
2019-12-06,10:36,10:36 AM,,,,0,0.0,0,55.1,55.06,55.082,2500,137704.99,16,,,55.1,55.06,,-0.0010337510654890758,atvi,20191206
2019-12-06,10:37,10:37 AM,55.08,55.08,55.08,100,5508.0,1,55.09,55.05,55.077,2100,115661.01,19,55.08,55.08,55.05,55.08,-0.004410382474152263,-0.0011244309835144765,atvi,20191206
2019-12-06,10:38,10:38 AM,55.07,55.07,55.07,200,11014.0,2,55.085,55.07,55.076,3183,175307.69,21,55.07,55.07,55.08,55.075,-0.004591135854240434,-0.001142566967119505,atvi,20191206
2019-12-06,10:39,10:39 AM,,,,0,0.0,0,55.12,55.07,55.097,3266,179946.6,23,,,55.08,55.12,,-0.0007617113114130033,atvi,20191206
2019-12-06,10:40,10:40 AM,55.13,55.12,55.126,405,22326.13,7,55.14,55.12,55.126,6502,358426.45,30,55.13,55.12,55.13,55.125,-0.0035789169257465186,-0.0002357677868660155,atvi,20191206
2019-12-06,10:41,10:41 AM,55.13,55.12,55.127,298,16427.73,4,55.13,55.12,55.123,1500,82684.86,13,55.13,55.12,55.13,55.125,-0.0035608415877376115,-0.00029017573768123,atvi,20191206
2019-12-06,10:42,10:42 AM,55.12,55.1,55.106,826,45517.62,11,55.14,55.09,55.111,4345,239456.95,38,55.12,55.11,55.12,55.14,-0.003940423685922862,-0.0005078075409420881,atvi,20191206
2019-12-06,10:43,10:43 AM,55.125,55.125,55.125,100,5512.5,1,55.15,55.125,55.139,3450,190231.005,31,55.125,55.125,55.13,55.14,-0.0035969922637552974,0.0,atvi,20191206
2019-12-06,10:44,10:44 AM,55.135,55.135,55.135,100,5513.5,1,55.14,55.11,55.125,6342,349603.105,37,55.135,55.135,55.14,55.132,-0.003416238883667126,-0.00025390377047104405,atvi,20191206
2019-12-06,10:45,10:45 AM,55.085,55.085,55.085,200,11017.0,1,55.09,55.06,55.074,3500,192760.45,22,55.085,55.085,55.09,55.07,-0.004320005784108113,-0.0011788389343296909,atvi,20191206
2019-12-06,10:46,10:46 AM,55.075,55.065,55.072,300,16521.5,2,55.09,55.055,55.068,3733,205569.195,26,55.065,55.075,55.07,55.09,-0.004554985178222748,-0.00128765483596012,atvi,20191206
2019-12-06,10:47,10:47 AM,55.09,55.09,55.09,34,1873.06,2,55.1,55.08,55.094,2348,129360.72,13,55.09,55.09,55.09,55.1,-0.004229629094063963,-0.0008161192622282178,atvi,20191206
2019-12-06,10:48,10:48 AM,,,,0,0.0,0,55.11,55.08,55.093,3626,199769.17,25,,,55.1,55.11,,-0.0008342552458332463,atvi,20191206
2019-12-06,10:49,10:49 AM,55.095,55.095,55.095,100,5509.5,1,55.117,55.09,55.101,1424,78464.48,11,55.095,55.095,55.117,55.105,-0.004139252404019941,-0.0006891673769927602,atvi,20191206
2019-12-06,10:50,10:50 AM,55.14,55.14,55.14,7,385.98,2,55.163,55.09,55.139,7000,385969.82,51,55.14,55.14,55.1,55.15,-0.0033258621936229755,0.0,atvi,20191206
2019-12-06,10:51,10:51 AM,55.14,55.14,55.14,100,5514.0,1,55.156,55.135,55.143,8965,494354.3288,41,55.14,55.14,55.156,55.14,-0.0033258621936229755,7.254393442024307e-05,atvi,20191206
2019-12-06,10:52,10:52 AM,,,,0,0.0,0,55.14,55.13,55.133,900,49620.0,9,,,55.13,55.14,,-0.00010881590163042904,atvi,20191206
2019-12-06,10:53,10:53 AM,,,,0,0.0,0,55.16,55.14,55.152,2800,154424.53,20,,,55.14,55.16,,0.00023576778686588664,atvi,20191206
2019-12-06,10:54,10:54 AM,55.165,55.165,55.165,300,16549.5,1,55.17,55.16,55.163,3565,196657.4,20,55.165,55.165,55.16,55.16,-0.002873978743402482,0.0004352636065215873,atvi,20191206
2019-12-06,10:55,10:55 AM,,,,0,0.0,0,55.16,55.1,55.124,6400,352794.08,22,,,55.16,55.11,,-0.0002720397540760726,atvi,20191206
2019-12-06,10:56,10:56 AM,,,,0,0.0,0,55.12,55.1,55.111,3207,176739.7017,22,,,55.11,55.115,,-0.0005078075409420881,atvi,20191206
2019-12-06,10:57,10:57 AM,55.14,55.125,55.133,200,11026.5,2,55.145,55.12,55.13,13343,735597.6324,47,55.125,55.14,55.12,55.145,-0.003452389559684683,-0.00016322385244564358,atvi,20191206
2019-12-06,10:58,10:58 AM,55.185,55.125,55.15,984,54267.64,7,55.185,55.13,55.16,32654,1801182.195,174,55.14,55.125,55.14,55.14,-0.003145108813534804,0.0003808556557063728,atvi,20191206
2019-12-06,10:59,10:59 AM,55.14,55.14,55.14,100,5514.0,1,55.155,55.05,55.107,8902,490559.8032,63,55.14,55.14,55.15,55.05,-0.0033258621936229755,-0.0005803514753623312,atvi,20191206
2019-12-06,11:00,11 AM,,,,0,0.0,0,55.07,55.04,55.06,3545,195186.405,27,,,55.04,55.07,,-0.0014327427048006062,atvi,20191206
2019-12-06,11:01,11:01 AM,,,,0,0.0,0,55.073,55.011,55.045,6296,346563.315,35,,,55.073,55.03,,-0.0017047824588766788,atvi,20191206
2019-12-06,11:02,11:02 AM,,,,0,0.0,0,55.1,55.04,55.065,1850,101869.595,16,,,55.04,55.1,,-0.0013420627867753345,atvi,20191206
2019-12-06,11:03,11:03 AM,,,,0,0.0,0,55.095,55.06,55.077,2564,141218.354,17,,,55.095,55.06,,-0.0011244309835144765,atvi,20191206
2019-12-06,11:04,11:04 AM,55.095,55.09,55.093,200,11018.5,2,55.1,55.055,55.073,4126,227231.31,27,55.09,55.095,55.07,55.09,-0.004175403080037499,-0.0011969749179347195,atvi,20191206
2019-12-06,11:05,11:05 AM,,,,0,0.0,0,55.095,55.065,55.085,1505,82902.45,13,,,55.095,55.065,,-0.0009793431146738615,atvi,20191206
2019-12-06,11:06,11:06 AM,,,,0,0.0,0,55.065,55.025,55.051,3253,179079.8518,24,,,55.06,55.04,,-0.0015959665572462497,atvi,20191206
2019-12-06,11:07,11:07 AM,55.105,55.06,55.081,593,32662.89,8,55.107,55.05,55.051,509100,28026356.12,56,55.06,55.105,55.05,55.1,-0.004392307136143356,-0.0015959665572462497,atvi,20191206
2019-12-06,11:08,11:08 AM,,,,0,0.0,0,55.1,55.08,55.087,1065,58667.6125,8,,,55.1,55.08,,-0.0009430711474636755,atvi,20191206
2019-12-06,11:09,11:09 AM,55.085,55.08,55.085,101,5563.58,2,55.09,55.06,55.077,3331,183462.9776,29,55.08,55.085,55.08,55.06,-0.004320005784108113,-0.0011244309835144765,atvi,20191206
2019-12-06,11:10,11:10 AM,55.095,55.095,55.095,100,5509.5,1,55.13,55.06,55.108,4687,258292.0084,36,55.095,55.095,55.06,55.12,-0.004139252404019941,-0.0005622154917573027,atvi,20191206
2019-12-06,11:11,11:11 AM,,,,0,0.0,0,55.135,55.11,55.12,3944,217392.24,23,,,55.13,55.11,,-0.00034458368849644457,atvi,20191206
2019-12-06,11:12,11:12 AM,55.11,55.1,55.103,6,330.62,2,55.12,55.094,55.106,1593,87784.68,13,55.11,55.1,55.1,55.12,-0.003994649699949326,-0.0005984874589673598,atvi,20191206
2019-12-06,11:13,11:13 AM,55.165,55.155,55.162,106,5847.185,4,55.16,55.12,55.145,1450,79960.13,10,55.155,55.165,55.12,55.16,-0.0029282047574289466,0.00010881590163042904,atvi,20191206
2019-12-06,11:14,11:14 AM,55.165,55.16,55.165,302,16659.82,4,55.17,55.13,55.156,3131,172694.155,26,55.165,55.16,55.16,55.157,-0.002873978743402482,0.0003083117212861297,atvi,20191206
2019-12-06,11:15,11:15 AM,55.155,55.155,55.155,308,16987.74,4,55.16,55.14,55.151,2710,149459.6685,24,55.155,55.155,55.16,55.145,-0.003054732123490654,0.0002176318032608581,atvi,20191206
2019-12-06,11:16,11:16 AM,55.16,55.145,55.153,16,882.44,2,55.21,55.14,55.178,7438,410418.1546,44,55.145,55.16,55.14,55.2,-0.0030908827995083394,0.00070730336059766,atvi,20191206
2019-12-06,11:17,11:17 AM,55.2,55.17,55.174,8,441.39,2,55.196,55.17,55.184,1642,90613.08,14,55.2,55.17,55.195,55.17,-0.0027113007013230893,0.000816119262228089,atvi,20191206
2019-12-06,11:18,11:18 AM,55.17,55.155,55.155,155,8549.07,4,55.173,55.14,55.158,2274,125428.92,14,55.17,55.155,55.173,55.14,-0.003054732123490654,0.0003445836884963157,atvi,20191206
2019-12-06,11:19,11:19 AM,55.155,55.12,55.143,388,21395.395,6,55.155,55.11,55.134,8347,460207.065,62,55.15,55.12,55.145,55.11,-0.0032716361795965113,-9.06799180254005e-05,atvi,20191206
2019-12-06,11:20,11:20 AM,,,,0,0.0,0,55.105,55.09,55.094,1400,77132.0268,12,,,55.105,55.09,,-0.0008161192622282178,atvi,20191206
2019-12-06,11:21,11:21 AM,,,,0,0.0,0,55.095,55.075,55.081,5502,303053.43,28,,,55.095,55.08,,-0.0010518870490941045,atvi,20191206
2019-12-06,11:22,11:22 AM,55.09,55.09,55.09,15,826.35,1,55.095,55.032,55.056,6932,381646.4948,38,55.09,55.09,55.085,55.032,-0.004229629094063963,-0.001505286639220978,atvi,20191206
2019-12-06,11:23,11:23 AM,,,,0,0.0,0,55.03,55.01,55.017,5332,293349.585,42,,,55.03,55.02,,-0.002212589999818638,atvi,20191206
2019-12-06,11:24,11:24 AM,55.01,55.01,55.01,238,13092.38,1,55.02,55.001,55.007,6064,333564.225,26,55.01,55.01,55.015,55.02,-0.005675656134769722,-0.002393949835869439,atvi,20191206
2019-12-06,11:25,11:25 AM,,,,0,0.0,0,55.065,55.02,55.046,4509,248201.5222,31,,,55.02,55.052,,-0.0016866464752716501,atvi,20191206
2019-12-06,11:26,11:26 AM,55.07,55.065,55.07,200,11013.955,2,55.07,55.05,55.061,6527,359382.95,43,55.065,55.07,55.06,55.055,-0.004591135854240434,-0.0014146067211955775,atvi,20191206
2019-12-06,11:27,11:27 AM,55.055,55.055,55.055,6,330.33,1,55.06,55.045,55.054,2701,148700.2096,14,55.055,55.055,55.06,55.045,-0.0048622659243727565,-0.0015415586064310351,atvi,20191206
2019-12-06,11:28,11:28 AM,55.03,55.03,55.03,140,7704.2,3,55.04,54.99,55.01,4851,266854.152,41,55.03,55.03,55.03,54.99,-0.005314149374593249,-0.0023395418850542245,atvi,20191206
2019-12-06,11:29,11:29 AM,54.995,54.91,54.918,316,17354.0,7,55.0,54.91,54.964,11274,619659.3369,84,54.995,54.91,54.995,54.91,-0.00733858723158121,-0.003173797130887471,atvi,20191206
2019-12-06,11:30,11:30 AM,54.95,54.9,54.904,224,12298.555,5,54.955,54.895,54.913,7805,428595.095,67,54.9,54.95,54.9,54.94,-0.007591641963704624,-0.004098732294746118,atvi,20191206
2019-12-06,11:31,11:31 AM,54.945,54.93,54.93,305,16753.78,7,54.94,54.93,54.933,6670,366404.361,49,54.945,54.93,54.94,54.93,-0.0071216831754753514,-0.0037360126226446445,atvi,20191206
2019-12-06,11:32,11:32 AM,54.925,54.92,54.921,26,1427.95,2,54.93,54.92,54.928,2761,151655.95,18,54.925,54.92,54.93,54.93,-0.007284361217554745,-0.0038266925406700452,atvi,20191206
2019-12-06,11:33,11:33 AM,54.935,54.935,54.935,11,604.285,1,54.95,54.925,54.937,2591,142340.565,23,54.935,54.935,54.93,54.945,-0.0070313064854312015,-0.0036634686882244015,atvi,20191206
2019-12-06,11:34,11:34 AM,54.97,54.935,54.943,312,17142.16,9,54.97,54.93,54.944,4829,265327.25,41,54.95,54.97,54.94,54.97,-0.006886703781360716,-0.003536516802988815,atvi,20191206
2019-12-06,11:35,11:35 AM,54.97,54.935,54.95,3716,204192.36,22,54.98,54.93,54.95,34903,1917938.53,205,54.97,54.94,54.97,54.93,-0.00676017641529888,-0.003427700901358386,atvi,20191206
2019-12-06,11:36,11:36 AM,54.96,54.96,54.96,223,12256.08,3,54.97,54.935,54.955,9360,514381.175,75,54.96,54.96,54.94,54.95,-0.0065794230352107085,-0.0033370209833331146,atvi,20191206
2019-12-06,11:37,11:37 AM,54.95,54.925,54.927,2377,130561.61,9,54.96,54.92,54.935,24292,1334491.42,157,54.95,54.93,54.957,54.925,-0.007175909189501816,-0.0036997406554344584,atvi,20191206
2019-12-06,11:38,11:38 AM,55.015,54.985,54.991,700,38494.0,5,55.02,54.93,54.995,30985,1704010.535,49,54.99,55.015,54.93,55.015,-0.0060190875569372864,-0.0026115816391302973,atvi,20191206
2019-12-06,11:39,11:39 AM,55.01,55.01,55.01,500,27505.0,3,55.04,55.005,55.019,6842,376440.89,47,55.01,55.01,55.01,55.03,-0.005675656134769722,-0.0021763180326085808,atvi,20191206
2019-12-06,11:40,11:40 AM,,,,0,0.0,0,55.035,55.01,55.019,3814,209841.52,28,,,55.01,55.035,,-0.0021763180326085808,atvi,20191206
2019-12-06,11:41,11:41 AM,,,,0,0.0,0,55.04,55.025,55.032,3605,198391.325,33,,,55.04,55.03,,-0.0019405502457426943,atvi,20191206
2019-12-06,11:42,11:42 AM,55.025,55.015,55.02,107,5887.115,3,55.035,55.014,55.022,4656,256181.8832,32,55.025,55.02,55.027,55.03,-0.005494902754681421,-0.002121910081793366,atvi,20191206
2019-12-06,11:43,11:43 AM,55.03,55.015,55.015,101,5556.53,2,55.045,55.01,55.034,5800,319197.52,39,55.03,55.015,55.03,55.02,-0.005585279444725572,-0.0019042782785325082,atvi,20191206
2019-12-06,11:44,11:44 AM,55.01,55.0,55.008,400,22003.0,4,55.02,55.0,55.008,5073,279057.495,39,55.0,55.01,55.005,55.0,-0.005711806810787278,-0.0023758138522642813,atvi,20191206
2019-12-06,11:45,11:45 AM,55.035,55.005,55.022,233,12820.155,2,55.04,55.003,55.017,2202,121147.33,17,55.005,55.035,55.005,55.04,-0.005458752078663864,-0.002212589999818638,atvi,20191206
2019-12-06,11:46,11:46 AM,55.04,55.04,55.04,6,330.24,1,55.055,55.04,55.048,2360,129913.65,16,55.04,55.04,55.045,55.055,-0.005133395994505078,-0.0016503745080614642,atvi,20191206
2019-12-06,11:47,11:47 AM,,,,0,0.0,0,55.08,55.045,55.058,5256,289386.503,45,,,55.05,55.08,,-0.001469014672010792,atvi,20191206
2019-12-06,11:48,11:48 AM,,,,0,0.0,0,55.095,55.09,55.091,2795,153978.685,25,,,55.09,55.09,,-0.0008705272130434324,atvi,20191206
2019-12-06,11:49,11:49 AM,55.09,55.09,55.09,100,5509.0,1,55.09,55.06,55.071,1493,82221.51,11,55.09,55.09,55.09,55.065,-0.004229629094063963,-0.0012332468851449054,atvi,20191206
2019-12-06,11:50,11:50 AM,,,,0,0.0,0,55.08,55.055,55.065,2488,137002.365,23,,,55.06,55.08,,-0.0013420627867753345,atvi,20191206
2019-12-06,11:51,11:51 AM,,,,0,0.0,0,55.07,55.055,55.061,1518,83583.2164,14,,,55.07,55.055,,-0.0014146067211955775,atvi,20191206
2019-12-06,11:52,11:52 AM,55.045,55.045,55.045,350,19265.75,2,55.055,55.045,55.05,4024,221520.8875,24,55.045,55.045,55.055,55.045,-0.005043019304460928,-0.0016141025408514071,atvi,20191206
2019-12-06,11:53,11:53 AM,,,,0,0.0,0,55.05,55.041,55.045,2706,148953.0526,13,,,55.046,55.045,,-0.0017047824588766788,atvi,20191206
2019-12-06,11:54,11:54 AM,55.045,55.035,55.039,2647,145687.94,7,55.045,55.03,55.042,14383,791671.6,38,55.045,55.04,55.045,55.03,-0.005151471332513856,-0.0017591904096918934,atvi,20191206
2019-12-06,11:55,11:55 AM,55.05,55.04,55.047,1743,95946.4,10,55.08,55.035,55.049,7661,421731.1858,53,55.045,55.05,55.035,55.075,-0.0050068686284433705,-0.0016322385244564356,atvi,20191206
2019-12-06,11:56,11:56 AM,55.065,55.045,55.049,486,26753.975,5,55.085,55.04,55.066,7496,412777.072,44,55.065,55.045,55.075,55.04,-0.004970717952425685,-0.001323926803170177,atvi,20191206
2019-12-06,11:57,11:57 AM,55.05,55.045,55.047,200,11009.5,3,55.08,55.04,55.057,3224,177505.505,28,55.045,55.05,55.05,55.075,-0.0050068686284433705,-0.0014871506556158205,atvi,20191206
2019-12-06,11:58,11:58 AM,,,,0,0.0,0,55.08,55.07,55.074,2691,148203.3906,14,,,55.075,55.075,,-0.0011788389343296909,atvi,20191206
2019-12-06,11:59,11:59 AM,55.08,55.075,55.078,560,30843.765,5,55.08,55.07,55.076,1194,65760.315,10,55.075,55.075,55.07,55.08,-0.00444653315016982,-0.001142566967119505,atvi,20191206
2019-12-06,12:00,12 PM,,,,0,0.0,0,55.08,55.07,55.077,1898,104535.2918,13,,,55.075,55.08,,-0.0011244309835144765,atvi,20191206
2019-12-06,12:01,12:01 PM,55.08,55.045,55.073,210,11565.38,4,55.075,55.045,55.064,3886,213980.085,27,55.08,55.045,55.075,55.045,-0.00453690984021397,-0.001360198770380363,atvi,20191206
2019-12-06,12:02,12:02 PM,55.055,55.04,55.052,822,45253.08,4,55.06,55.04,55.052,2477,136364.24,17,55.045,55.055,55.04,55.055,-0.004916491938399221,-0.0015778305736412212,atvi,20191206
2019-12-06,12:03,12:03 PM,55.05,55.05,55.05,407,22405.35,6,55.055,55.035,55.048,5198,286138.33,34,55.05,55.05,55.05,55.054,-0.004952642614416906,-0.0016503745080614642,atvi,20191206
2019-12-06,12:04,12:04 PM,55.035,55.035,55.035,30,1651.05,2,55.052,55.035,55.043,4676,257383.125,34,55.035,55.035,55.05,55.05,-0.005223772684549228,-0.0017410544260868647,atvi,20191206
2019-12-06,12:05,12:05 PM,,,,0,0.0,0,55.055,55.04,55.046,2692,148183.6438,18,,,55.055,55.045,,-0.0016866464752716501,atvi,20191206
2019-12-06,12:06,12:06 PM,55.06,55.05,55.057,227,12497.85,4,55.07,55.045,55.057,4816,265155.81,36,55.06,55.055,55.05,55.06,-0.004826115248355071,-0.0014871506556158205,atvi,20191206
2019-12-06,12:07,12:07 PM,55.055,55.04,55.047,227,12495.8,5,55.05,55.04,55.047,1035,56973.5284,9,55.055,55.04,55.05,55.045,-0.0050068686284433705,-0.0016685104916666217,atvi,20191206
2019-12-06,12:08,12:08 PM,55.045,55.045,55.045,428,23559.26,6,55.05,55.04,55.044,995,54768.775,9,55.045,55.045,55.04,55.045,-0.005043019304460928,-0.0017229184424818363,atvi,20191206
2019-12-06,12:09,12:09 PM,55.05,55.04,55.048,230,12660.95,3,55.05,55.04,55.047,2166,119231.795,21,55.04,55.05,55.05,55.05,-0.004988793290434464,-0.0016685104916666217,atvi,20191206
2019-12-06,12:10,12:10 PM,55.05,55.04,55.05,900,49544.655,6,55.05,55.04,55.048,1738,95674.045,11,55.04,55.05,55.05,55.05,-0.004952642614416906,-0.0016503745080614642,atvi,20191206
2019-12-06,12:11,12:11 PM,55.045,55.035,55.035,207,11392.265,5,55.05,55.035,55.042,5168,284456.618,28,55.045,55.035,55.04,55.035,-0.005223772684549228,-0.0017591904096918934,atvi,20191206
2019-12-06,12:12,12:12 PM,55.05,55.04,55.05,102,5615.085,3,55.05,55.035,55.042,1614,88838.2586,15,55.04,55.045,55.04,55.043,-0.004952642614416906,-0.0017591904096918934,atvi,20191206
2019-12-06,12:13,12:13 PM,55.05,55.045,55.047,314,17284.69,7,55.05,55.04,55.047,2175,119727.715,21,55.05,55.045,55.05,55.05,-0.0050068686284433705,-0.0016685104916666217,atvi,20191206
2019-12-06,12:14,12:14 PM,55.05,55.025,55.042,210,11558.845,6,55.05,55.02,55.032,5249,288862.1533,41,55.05,55.025,55.05,55.025,-0.005097245318487392,-0.0019405502457426943,atvi,20191206
2019-12-06,12:15,12:15 PM,55.045,55.03,55.031,105,5778.21,4,55.05,55.025,55.041,4724,260013.95,33,55.03,55.045,55.025,55.05,-0.005296074036584471,-0.0017773263932970506,atvi,20191206
2019-12-06,12:16,12:16 PM,55.045,55.04,55.044,5,275.22,3,55.05,55.04,55.045,2197,120934.35,20,55.045,55.045,55.05,55.05,-0.005061094642469835,-0.0017047824588766788,atvi,20191206
2019-12-06,12:17,12:17 PM,55.025,55.015,55.022,14,770.31,4,55.04,55.02,55.022,2996,164845.92,27,55.015,55.025,55.04,55.02,-0.005458752078663864,-0.002121910081793366,atvi,20191206
2019-12-06,12:18,12:18 PM,55.045,55.0,55.026,422,23220.85,11,55.05,54.995,55.018,8823,485420.645,66,55.005,55.045,55.01,55.045,-0.005386450726628493,-0.0021944540162136096,atvi,20191206
2019-12-06,12:19,12:19 PM,55.045,55.045,55.045,6,330.27,2,55.05,55.04,55.045,4049,222878.61,16,55.045,55.045,55.045,55.041,-0.005043019304460928,-0.0017047824588766788,atvi,20191206
2019-12-06,12:20,12:20 PM,55.035,55.03,55.033,224,12327.34,3,55.04,55.03,55.036,1123,61805.305,11,55.035,55.03,55.04,55.03,-0.005259923360566785,-0.0018680063113223223,atvi,20191206
2019-12-06,12:21,12:21 PM,55.04,55.035,55.035,152,8365.325,4,55.045,55.02,55.035,4829,265766.44,39,55.035,55.035,55.035,55.02,-0.005223772684549228,-0.0018861422949274797,atvi,20191206
2019-12-06,12:22,12:22 PM,55.015,55.005,55.01,200,11002.0,2,55.016,55.0,55.011,2865,157606.4211,27,55.015,55.005,55.015,55.005,-0.005675656134769722,-0.002321405901449067,atvi,20191206
2019-12-06,12:23,12:23 PM,55.005,55.0,55.004,216,11880.765,4,55.01,55.0,55.003,2853,156924.585,21,55.0,55.005,55.005,55.005,-0.00578410816282265,-0.002466493770289682,atvi,20191206
2019-12-06,12:24,12:24 PM,55.025,55.0,55.013,838,46101.285,13,55.03,55.0,55.011,8203,451259.87,66,55.005,55.02,55.01,55.025,-0.005621430120743257,-0.002321405901449067,atvi,20191206
2019-12-06,12:25,12:25 PM,55.015,55.005,55.015,105,5776.545,3,55.02,55.003,55.01,3100,170532.52,21,55.015,55.005,55.02,55.003,-0.005585279444725572,-0.0023395418850542245,atvi,20191206
2019-12-06,12:26,12:26 PM,55.005,55.0,55.002,200,11000.5,2,55.01,55.0,55.002,3616,198887.8764,20,55.0,55.005,55.003,55.0,-0.005820258838840207,-0.0024846297538947105,atvi,20191206
2019-12-06,12:27,12:27 PM,55.005,55.0,55.0,252,13860.105,7,55.01,55.0,55.003,4145,227985.92,37,55.0,55.005,55.0,55.01,-0.005856409514857893,-0.002466493770289682,atvi,20191206
2019-12-06,12:28,12:28 PM,55.035,55.025,55.033,502,27626.56,7,55.04,55.015,55.031,2725,149959.275,24,55.025,55.035,55.015,55.03,-0.005259923360566785,-0.001958686229347723,atvi,20191206
2019-12-06,12:29,12:29 PM,55.035,55.035,55.035,3,165.105,3,55.04,55.03,55.035,1054,58007.31,8,55.035,55.035,55.03,55.035,-0.005223772684549228,-0.0018861422949274797,atvi,20191206
2019-12-06,12:30,12:30 PM,55.025,55.005,55.025,95,5227.355,3,55.03,55.0,55.021,1489,81926.0,12,55.025,55.005,55.03,55.005,-0.005404526064637399,-0.002140046065398395,atvi,20191206
2019-12-06,12:31,12:31 PM,55.005,55.005,55.005,83,4565.415,3,55.01,55.0,55.005,848,46644.5,8,55.005,55.005,55.005,55.005,-0.005766032824813743,-0.002430221803079496,atvi,20191206
2019-12-06,12:32,12:32 PM,55.005,55.0,55.002,203,11165.51,5,55.01,55.0,55.005,2422,133221.17,18,55.0,55.005,55.0,55.005,-0.005820258838840207,-0.002430221803079496,atvi,20191206
2019-12-06,12:33,12:33 PM,55.035,54.995,55.011,546,30035.74,11,55.035,55.0,55.009,5459,300292.295,47,55.005,55.035,55.005,55.035,-0.005657580796760814,-0.002357677868659253,atvi,20191206
2019-12-06,12:34,12:34 PM,55.025,55.025,55.025,1,55.025,1,55.035,55.02,55.028,3548,195237.68,18,55.025,55.025,55.035,55.02,-0.005404526064637399,-0.0020130941801629375,atvi,20191206
2019-12-06,12:35,12:35 PM,55.035,55.025,55.035,105,5778.625,3,55.035,55.02,55.028,2721,149730.015,12,55.025,55.035,55.02,55.03,-0.005223772684549228,-0.0020130941801629375,atvi,20191206
2019-12-06,12:36,12:36 PM,55.045,55.035,55.037,5,275.185,4,55.05,55.03,55.036,3946,217172.435,33,55.035,55.035,55.03,55.035,-0.005187622008531542,-0.0018680063113223223,atvi,20191206
2019-12-06,12:37,12:37 PM,55.04,55.015,55.028,3,165.085,3,55.045,55.01,55.025,4414,242880.431,24,55.04,55.015,55.034,55.015,-0.005350300050610935,-0.0020675021309781516,atvi,20191206
2019-12-06,12:38,12:38 PM,55.015,55.015,55.015,4,220.06,1,55.02,55.01,55.011,34799,1914328.43,34,55.015,55.015,55.01,55.015,-0.005585279444725572,-0.002321405901449067,atvi,20191206
2019-12-06,12:39,12:39 PM,55.015,55.005,55.01,640,35206.4,8,55.02,55.0,55.012,6136,337555.985,51,55.01,55.005,55.01,55.005,-0.005675656134769722,-0.0023032699178440383,atvi,20191206
2019-12-06,12:40,12:40 PM,55.02,55.02,55.02,100,5502.0,2,55.02,55.01,55.016,3403,187219.31,26,55.02,55.02,55.01,55.016,-0.005494902754681421,-0.0022307259834237953,atvi,20191206
2019-12-06,12:41,12:41 PM,,,,0,0.0,0,55.025,55.02,55.022,2279,125394.595,14,,,55.02,55.02,,-0.002121910081793366,atvi,20191206
2019-12-06,12:42,12:42 PM,,,,0,0.0,0,55.03,55.02,55.025,2999,165019.87,19,,,55.025,55.026,,-0.0020675021309781516,atvi,20191206
2019-12-06,12:43,12:43 PM,,,,0,0.0,0,55.02,55.02,55.02,700,38514.0,6,,,55.02,55.02,,-0.0021581820490034235,atvi,20191206
2019-12-06,12:44,12:44 PM,55.025,55.02,55.02,201,11059.025,3,55.025,55.01,55.018,2455,135069.03,19,55.02,55.025,55.02,55.01,-0.005494902754681421,-0.0021944540162136096,atvi,20191206
2019-12-06,12:45,12:45 PM,55.0,55.0,55.0,3,165.0,1,55.01,55.005,55.01,1102,60620.52,11,55.0,55.0,55.01,55.01,-0.005856409514857893,-0.0023395418850542245,atvi,20191206
2019-12-06,12:46,12:46 PM,55.03,55.01,55.01,335,18428.42,6,55.035,55.005,55.023,8516,468575.81,56,55.01,55.025,55.01,55.025,-0.005675656134769722,-0.002103774098188209,atvi,20191206
2019-12-06,12:47,12:47 PM,55.035,55.025,55.03,202,11116.07,3,55.04,55.02,55.032,4179,229978.26,26,55.035,55.025,55.025,55.02,-0.005314149374593249,-0.0019405502457426943,atvi,20191206
2019-12-06,12:48,12:48 PM,55.025,55.02,55.024,9,495.22,2,55.03,55.02,55.023,1604,88256.4,7,55.025,55.02,55.02,55.02,-0.0054226014026461785,-0.002103774098188209,atvi,20191206
2019-12-06,12:49,12:49 PM,55.025,55.02,55.025,247,13591.13,6,55.03,55.005,55.02,5187,285386.3,42,55.025,55.02,55.03,55.005,-0.005404526064637399,-0.0021581820490034235,atvi,20191206
2019-12-06,12:50,12:50 PM,55.01,55.0,55.002,503,27666.05,8,55.01,55.0,55.007,13474,741160.278,41,55.0,55.0,55.005,55.0,-0.005820258838840207,-0.002393949835869439,atvi,20191206
2019-12-06,12:51,12:51 PM,55.005,55.0,55.002,210,11550.515,6,55.02,54.995,55.004,14482,796574.48,84,55.0,55.0,55.0,55.02,-0.005820258838840207,-0.0024483577866846536,atvi,20191206
2019-12-06,12:52,12:52 PM,55.01,55.01,55.01,100,5501.0,1,55.03,55.005,55.023,2795,153788.7,26,55.01,55.01,55.026,55.005,-0.005675656134769722,-0.002103774098188209,atvi,20191206
2019-12-06,12:53,12:53 PM,55.02,55.01,55.01,101,5556.02,2,55.025,55.0,55.014,4022,221266.718,31,55.01,55.02,55.01,55.0,-0.005675656134769722,-0.0022669979506338526,atvi,20191206
2019-12-06,12:54,12:54 PM,55.0,55.0,55.0,100,5500.0,1,55.01,54.995,55.005,6559,360775.3304,47,55.0,55.0,55.01,55.0,-0.005856409514857893,-0.002430221803079496,atvi,20191206
2019-12-06,12:55,12:55 PM,55.0,54.975,54.981,409,22487.275,3,55.0,54.965,54.977,9469,520576.49,59,55.0,54.975,55.0,54.97,-0.006199840937025458,-0.002938029344021584,atvi,20191206
2019-12-06,12:56,12:56 PM,54.985,54.985,54.985,200,10997.0,2,54.99,54.97,54.984,7300,401384.75,33,54.985,54.985,54.98,54.985,-0.006127539584990215,-0.002811077458785998,atvi,20191206
2019-12-06,12:57,12:57 PM,54.98,54.98,54.98,100,5498.0,1,55.005,54.96,54.985,8102,445486.755,56,54.98,54.98,54.985,55.0,-0.006217916275034365,-0.002792941475180969,atvi,20191206
2019-12-06,12:58,12:58 PM,,,,0,0.0,0,55.01,54.995,55.0,3505,192773.975,22,,,55.01,54.995,,-0.0025209017211048966,atvi,20191206
2019-12-06,12:59,12:59 PM,,,,0,0.0,0,55.0,54.99,54.999,2862,157406.0,20,,,55.0,54.995,,-0.002539037704709925,atvi,20191206
2019-12-06,13:00,1 PM,,,,0,0.0,0,54.995,54.991,54.994,600,32996.58,6,,,54.995,54.995,,-0.0026297176227353257,atvi,20191206
2019-12-06,13:01,1:01 PM,54.995,54.99,54.99,316,17376.88,5,55.007,54.984,54.995,5522,303683.9741,46,54.995,54.99,55.0,54.995,-0.006037162894946065,-0.0026115816391302973,atvi,20191206
2019-12-06,13:02,1:02 PM,54.99,54.99,54.99,1,54.99,1,55.0,54.98,54.989,1700,93482.16,15,54.99,54.99,54.99,54.995,-0.006037162894946065,-0.002720397540760726,atvi,20191206
2019-12-06,13:03,1:03 PM,,,,0,0.0,0,54.999,54.985,54.99,1807,99367.6073,15,,,54.999,54.985,,-0.0027022615571555687,atvi,20191206
2019-12-06,13:04,1:04 PM,54.985,54.985,54.985,5,274.925,1,55.0,54.985,54.992,2441,134234.555,17,54.985,54.985,54.99,54.99,-0.006127539584990215,-0.0026659895899455114,atvi,20191206
2019-12-06,13:05,1:05 PM,54.99,54.99,54.99,1,54.99,1,54.995,54.98,54.987,1379,75827.665,12,54.99,54.99,54.995,54.985,-0.006037162894946065,-0.0027566695079707833,atvi,20191206
2019-12-06,13:06,1:06 PM,,,,0,0.0,0,54.99,54.97,54.983,2330,128111.672,15,,,54.99,54.97,,-0.002829213442391155,atvi,20191206
2019-12-06,13:07,1:07 PM,54.975,54.965,54.966,108,5936.3,2,54.98,54.964,54.971,5765,316906.1,34,54.965,54.975,54.97,54.98,-0.006470971007157779,-0.0030468452456520133,atvi,20191206
2019-12-06,13:08,1:08 PM,,,,0,0.0,0,54.995,54.98,54.989,2668,146710.16,22,,,54.98,54.99,,-0.002720397540760726,atvi,20191206
2019-12-06,13:09,1:09 PM,,,,0,0.0,0,55.0,54.985,54.991,2513,138192.19,20,,,54.99,54.995,,-0.0026841255735505403,atvi,20191206
2019-12-06,13:10,1:10 PM,,,,0,0.0,0,55.0,54.99,54.992,917,50427.83,9,,,54.995,54.99,,-0.0026659895899455114,atvi,20191206
2019-12-06,13:11,1:11 PM,54.99,54.99,54.99,3,164.97,2,55.0,54.985,54.991,2261,124335.4325,19,54.99,54.99,54.985,54.995,-0.006037162894946065,-0.0026841255735505403,atvi,20191206
2019-12-06,13:12,1:12 PM,,,,0,0.0,0,55.005,54.99,54.997,6085,334659.615,47,,,54.995,54.995,,-0.002575309671920111,atvi,20191206
2019-12-06,13:13,1:13 PM,54.98,54.98,54.98,196,10776.08,3,54.99,54.97,54.976,6636,364821.28,26,54.98,54.98,54.99,54.97,-0.006217916275034365,-0.0029561653276266127,atvi,20191206
2019-12-06,13:14,1:14 PM,54.955,54.955,54.955,6,329.73,2,54.97,54.95,54.957,6782,372720.1704,27,54.955,54.955,54.97,54.956,-0.0066697997252548585,-0.0033007490161229285,atvi,20191206
2019-12-06,13:15,1:15 PM,,,,0,0.0,0,54.96,54.94,54.95,2925,160728.925,18,,,54.955,54.945,,-0.003427700901358386,atvi,20191206
2019-12-06,13:16,1:16 PM,54.95,54.95,54.95,100,5495.0,1,54.96,54.943,54.95,6738,370255.8983,55,54.95,54.95,54.945,54.96,-0.00676017641529888,-0.003427700901358386,atvi,20191206
2019-12-06,13:17,1:17 PM,,,,0,0.0,0,54.97,54.95,54.962,2326,127840.6262,18,,,54.955,54.967,,-0.003210069098097528,atvi,20191206
2019-12-06,13:18,1:18 PM,54.97,54.965,54.968,400,21987.0,4,54.98,54.96,54.972,3595,197625.9525,30,54.97,54.97,54.97,54.975,-0.006434820331140094,-0.0030287092620468557,atvi,20191206
2019-12-06,13:19,1:19 PM,54.975,54.975,54.975,100,5497.5,1,54.98,54.97,54.977,1513,83179.675,13,54.975,54.975,54.975,54.975,-0.006308292965078386,-0.002938029344021584,atvi,20191206
2019-12-06,13:20,1:20 PM,54.975,54.975,54.975,400,21990.0,4,54.985,54.97,54.979,3868,212657.27,32,54.975,54.975,54.97,54.985,-0.006308292965078386,-0.002901757376811398,atvi,20191206
2019-12-06,13:21,1:21 PM,,,,0,0.0,0,54.98,54.97,54.977,2834,155806.4222,25,,,54.98,54.975,,-0.002938029344021584,atvi,20191206
2019-12-06,13:22,1:22 PM,54.975,54.96,54.967,207,11378.255,5,54.976,54.935,54.958,6309,346727.1046,53,54.975,54.96,54.975,54.935,-0.006452895669149001,-0.0032826130325179,atvi,20191206
2019-12-06,13:23,1:23 PM,54.97,54.94,54.949,515,28298.55,3,54.98,54.935,54.954,18379,1010001.585,116,54.94,54.97,54.935,54.95,-0.006778251753307787,-0.003355156966938143,atvi,20191206
2019-12-06,13:24,1:24 PM,54.935,54.93,54.933,501,27521.43,6,54.95,54.92,54.932,9316,511749.119,72,54.93,54.935,54.945,54.925,-0.007067457161448887,-0.003754148606249673,atvi,20191206
2019-12-06,13:25,1:25 PM,54.93,54.93,54.93,2,109.86,1,54.955,54.925,54.937,5618,308636.595,42,54.93,54.93,54.925,54.95,-0.0071216831754753514,-0.0036634686882244015,atvi,20191206
2019-12-06,13:26,1:26 PM,54.955,54.955,54.955,2,109.91,2,54.962,54.95,54.956,3755,206359.3691,24,54.955,54.955,54.955,54.962,-0.0066697997252548585,-0.003318884999727957,atvi,20191206
2019-12-06,13:27,1:27 PM,54.955,54.95,54.95,277,15221.175,5,54.965,54.95,54.953,3544,194753.68,29,54.95,54.955,54.965,54.955,-0.00676017641529888,-0.0033732929505431715,atvi,20191206
2019-12-06,13:28,1:28 PM,54.975,54.955,54.96,300,16488.02,5,54.99,54.955,54.968,4248,233505.105,31,54.96,54.975,54.96,54.99,-0.0065794230352107085,-0.003101253196467099,atvi,20191206
2019-12-06,13:29,1:29 PM,54.995,54.985,54.99,207,11382.895,3,55.005,54.985,54.996,9791,538465.636,70,54.995,54.985,55.0,54.99,-0.006037162894946065,-0.0025934456555251396,atvi,20191206
2019-12-06,13:30,1:30 PM,54.985,54.985,54.985,200,10997.0,2,54.987,54.98,54.984,2540,139658.781,18,54.985,54.985,54.985,54.985,-0.006127539584990215,-0.002811077458785998,atvi,20191206
2019-12-06,13:31,1:31 PM,54.985,54.975,54.976,116,6377.22,3,54.99,54.97,54.98,4222,232126.555,30,54.985,54.975,54.985,54.97,-0.006290217627069608,-0.0028836213932063696,atvi,20191206
2019-12-06,13:32,1:32 PM,54.97,54.97,54.97,104,5716.88,4,54.975,54.965,54.969,7239,397918.115,42,54.97,54.97,54.975,54.965,-0.006398669655122537,-0.0030831172128620702,atvi,20191206
2019-12-06,13:33,1:33 PM,54.965,54.945,54.952,334,18353.93,10,54.965,54.945,54.953,5226,287187.12,34,54.965,54.945,54.965,54.945,-0.006724025739281323,-0.0033732929505431715,atvi,20191206
2019-12-06,13:34,1:34 PM,54.94,54.94,54.94,100,5494.0,1,54.96,54.93,54.944,8565,470594.115,47,54.94,54.94,54.945,54.95,-0.00694092979538718,-0.003536516802988815,atvi,20191206
2019-12-06,13:35,1:35 PM,54.965,54.965,54.965,2,109.93,1,54.98,54.95,54.971,4200,230876.645,32,54.965,54.965,54.95,54.98,-0.006489046345166559,-0.0030468452456520133,atvi,20191206
2019-12-06,13:36,1:36 PM,54.955,54.955,54.955,300,16486.5,2,54.97,54.95,54.96,3095,170102.7,21,54.955,54.955,54.97,54.95,-0.0066697997252548585,-0.003246341065307714,atvi,20191206
2019-12-06,13:37,1:37 PM,54.95,54.95,54.95,100,5495.0,1,54.97,54.95,54.958,5466,300399.39,37,54.95,54.95,54.96,54.97,-0.00676017641529888,-0.0032826130325179,atvi,20191206
2019-12-06,13:38,1:38 PM,,,,0,0.0,0,54.99,54.975,54.982,1765,97042.525,17,,,54.975,54.98,,-0.0028473494259961835,atvi,20191206
2019-12-06,13:39,1:39 PM,54.98,54.98,54.98,5,274.9,2,54.99,54.98,54.986,2938,161548.12,25,54.98,54.98,54.985,54.99,-0.006217916275034365,-0.0027748054915759405,atvi,20191206
2019-12-06,13:40,1:40 PM,,,,0,0.0,0,54.995,54.98,54.987,1975,108599.555,16,,,54.98,54.995,,-0.0027566695079707833,atvi,20191206
2019-12-06,13:41,1:41 PM,54.99,54.99,54.99,10,549.9,2,55.0,54.985,54.995,3911,215084.1,31,54.99,54.99,55.0,54.985,-0.006037162894946065,-0.0026115816391302973,atvi,20191206
2019-12-06,13:42,1:42 PM,,,,0,0.0,0,55.0,54.99,54.993,1891,103992.76,15,,,54.99,54.995,,-0.002647853606340354,atvi,20191206
2019-12-06,13:43,1:43 PM,,,,0,0.0,0,54.99,54.98,54.987,800,43989.5,8,,,54.99,54.985,,-0.0027566695079707833,atvi,20191206
2019-12-06,13:44,1:44 PM,54.98,54.98,54.98,100,5498.0,1,54.985,54.97,54.978,2359,129692.3,22,54.98,54.98,54.98,54.971,-0.006217916275034365,-0.002919893360416427,atvi,20191206
2019-12-06,13:45,1:45 PM,54.975,54.975,54.975,100,5497.5,1,54.99,54.97,54.979,4505,247682.4,34,54.975,54.975,54.97,54.98,-0.006308292965078386,-0.002901757376811398,atvi,20191206
2019-12-06,13:46,1:46 PM,,,,0,0.0,0,54.99,54.97,54.982,3600,197936.865,27,,,54.97,54.99,,-0.0028473494259961835,atvi,20191206
2019-12-06,13:47,1:47 PM,54.99,54.99,54.99,4,219.96,1,55.0,54.98,54.99,5124,281770.2766,33,54.99,54.99,54.98,54.995,-0.006037162894946065,-0.0027022615571555687,atvi,20191206
2019-12-06,13:48,1:48 PM,54.975,54.975,54.975,595,32710.125,6,55.0,54.975,54.988,5658,311120.9,42,54.975,54.975,54.99,54.98,-0.006308292965078386,-0.002738533524365755,atvi,20191206
2019-12-06,13:49,1:49 PM,54.96,54.95,54.95,270,14836.61,4,54.97,54.935,54.957,5425,298139.9,48,54.96,54.95,54.97,54.935,-0.00676017641529888,-0.0033007490161229285,atvi,20191206
2019-12-06,13:50,1:50 PM,54.915,54.915,54.915,100,5491.5,1,54.93,54.89,54.912,5651,310308.865,38,54.915,54.915,54.93,54.895,-0.007392813245607674,-0.004116868278351146,atvi,20191206
2019-12-06,13:51,1:51 PM,54.895,54.875,54.885,200,10977.0,2,54.9,54.84,54.882,24286,1332863.3,147,54.895,54.875,54.891,54.84,-0.007935073385872318,-0.004660947786503292,atvi,20191206
2019-12-06,13:52,1:52 PM,,,,0,0.0,0,54.845,54.8,54.826,9059,496667.05,72,,,54.84,54.805,,-0.00567656286838721,atvi,20191206
2019-12-06,13:53,1:53 PM,,,,0,0.0,0,54.855,54.8,54.826,6656,364920.2256,39,,,54.8,54.855,,-0.00567656286838721,atvi,20191206
2019-12-06,13:54,1:54 PM,,,,0,0.0,0,54.86,54.85,54.855,2143,117555.235,13,,,54.85,54.855,,-0.005150619343840222,atvi,20191206
2019-12-06,13:55,1:55 PM,54.87,54.87,54.87,100,5487.0,1,54.875,54.855,54.867,4705,258150.72,30,54.87,54.87,54.855,54.87,-0.008206203456004639,-0.004932987540579364,atvi,20191206
2019-12-06,13:56,1:56 PM,,,,0,0.0,0,54.895,54.87,54.881,4672,256405.8968,24,,,54.87,54.88,,-0.00467908377010832,atvi,20191206
2019-12-06,13:57,1:57 PM,,,,0,0.0,0,54.9,54.885,54.891,4042,221871.43,32,,,54.885,54.89,,-0.0044977239340576475,atvi,20191206
2019-12-06,13:58,1:58 PM,,,,0,0.0,0,54.94,54.89,54.916,9281,509671.665,60,,,54.89,54.935,,-0.004044324343930903,atvi,20191206
2019-12-06,13:59,1:59 PM,54.945,54.945,54.945,8,439.56,1,54.95,54.935,54.943,3125,171696.5849,18,54.945,54.945,54.939,54.94,-0.00685055310534303,-0.0035546527865939724,atvi,20191206
2019-12-06,14:00,2 PM,,,,0,0.0,0,54.955,54.935,54.945,4527,248737.7042,26,,,54.94,54.947,,-0.0035183808193837867,atvi,20191206
2019-12-06,14:01,2:01 PM,,,,0,0.0,0,54.99,54.96,54.972,1896,104227.58,16,,,54.96,54.98,,-0.0030287092620468557,atvi,20191206
2019-12-06,14:02,2:02 PM,54.99,54.99,54.99,100,5499.0,1,55.0,54.975,54.987,5792,318482.75,54,54.99,54.99,54.98,54.985,-0.006037162894946065,-0.0027566695079707833,atvi,20191206
2019-12-06,14:03,2:03 PM,54.96,54.96,54.96,4,219.84,1,54.99,54.955,54.971,6391,351318.3143,46,54.96,54.96,54.98,54.97,-0.0065794230352107085,-0.0030468452456520133,atvi,20191206
2019-12-06,14:04,2:04 PM,,,,0,0.0,0,54.97,54.96,54.967,2897,159239.41,22,,,54.97,54.965,,-0.0031193891800722563,atvi,20191206
2019-12-06,14:05,2:05 PM,54.97,54.97,54.97,246,13522.62,4,54.975,54.96,54.968,3425,188265.185,23,54.97,54.97,54.965,54.975,-0.006398669655122537,-0.003101253196467099,atvi,20191206
2019-12-06,14:06,2:06 PM,,,,0,0.0,0,54.972,54.95,54.964,5800,318791.4,19,,,54.971,54.95,,-0.003173797130887471,atvi,20191206
2019-12-06,14:07,2:07 PM,54.955,54.95,54.953,201,11045.455,2,54.96,54.95,54.955,1291,70947.135,11,54.95,54.955,54.95,54.955,-0.006705950401272416,-0.0033370209833331146,atvi,20191206
2019-12-06,14:08,2:08 PM,54.955,54.955,54.955,8,439.64,1,54.97,54.955,54.96,4253,233746.13,34,54.955,54.955,54.96,54.96,-0.0066697997252548585,-0.003246341065307714,atvi,20191206
2019-12-06,14:09,2:09 PM,54.97,54.955,54.969,107,5881.685,2,54.97,54.95,54.961,3265,179446.6425,26,54.955,54.97,54.96,54.97,-0.006416744993131315,-0.0032282050817026855,atvi,20191206
2019-12-06,14:10,2:10 PM,,,,0,0.0,0,54.97,54.96,54.963,600,32978.0,6,,,54.965,54.96,,-0.0031919331144924993,atvi,20191206
2019-12-06,14:11,2:11 PM,54.955,54.935,54.946,236,12967.335,7,54.965,54.93,54.942,6516,358005.11,39,54.955,54.94,54.965,54.935,-0.006832477767334252,-0.003572788770199001,atvi,20191206
2019-12-06,14:12,2:12 PM,54.93,54.93,54.93,100,5493.0,1,54.955,54.93,54.94,5373,295190.56,40,54.93,54.93,54.93,54.955,-0.0071216831754753514,-0.003609060737409187,atvi,20191206
2019-12-06,14:13,2:13 PM,54.95,54.95,54.95,15,824.25,2,54.97,54.94,54.955,3402,186956.095,28,54.95,54.95,54.95,54.97,-0.00676017641529888,-0.0033370209833331146,atvi,20191206
2019-12-06,14:14,2:14 PM,54.975,54.97,54.97,108,5936.8,2,54.98,54.97,54.977,1647,90546.43,13,54.975,54.97,54.97,54.975,-0.006398669655122537,-0.002938029344021584,atvi,20191206
2019-12-06,14:15,2:15 PM,,,,0,0.0,0,54.985,54.965,54.975,2441,134193.18,20,,,54.98,54.965,,-0.002974301311231641,atvi,20191206
2019-12-06,14:16,2:16 PM,54.96,54.96,54.96,300,16488.0,3,54.965,54.95,54.959,4822,265013.355,38,54.96,54.96,54.96,54.96,-0.0065794230352107085,-0.0032644770489127423,atvi,20191206
2019-12-06,14:17,2:17 PM,,,,0,0.0,0,54.965,54.95,54.958,2588,142232.2729,16,,,54.951,54.96,,-0.0032826130325179,atvi,20191206
2019-12-06,14:18,2:18 PM,,,,0,0.0,0,54.965,54.93,54.947,8829,485126.33,68,,,54.96,54.935,,-0.0034821088521736006,atvi,20191206
2019-12-06,14:19,2:19 PM,54.94,54.94,54.94,2,109.88,2,54.94,54.93,54.939,6488,356442.555,45,54.94,54.94,54.935,54.935,-0.00694092979538718,-0.0036271967210142154,atvi,20191206
2019-12-06,14:20,2:20 PM,,,,0,0.0,0,54.96,54.93,54.938,8850,486198.7438,56,,,54.93,54.96,,-0.0036453327046192443,atvi,20191206
2019-12-06,14:21,2:21 PM,,,,0,0.0,0,54.99,54.96,54.979,3510,192977.566,20,,,54.96,54.99,,-0.002901757376811398,atvi,20191206
2019-12-06,14:22,2:22 PM,54.99,54.98,54.99,372,20456.26,7,54.99,54.975,54.985,5572,306379.0955,51,54.98,54.99,54.986,54.98,-0.006037162894946065,-0.002792941475180969,atvi,20191206
2019-12-06,14:23,2:23 PM,54.98,54.98,54.98,40,2199.2,1,54.98,54.965,54.971,2183,120002.41,17,54.98,54.98,54.97,54.965,-0.006217916275034365,-0.0030468452456520133,atvi,20191206
2019-12-06,14:24,2:24 PM,54.97,54.97,54.97,100,5497.0,2,54.98,54.96,54.969,6179,339657.1205,46,54.97,54.97,54.97,54.965,-0.006398669655122537,-0.0030831172128620702,atvi,20191206
2019-12-06,14:25,2:25 PM,54.96,54.955,54.956,19,1044.155,3,54.97,54.95,54.96,6368,349983.985,54,54.955,54.96,54.96,54.96,-0.006651724387245951,-0.003246341065307714,atvi,20191206
2019-12-06,14:26,2:26 PM,54.97,54.96,54.965,202,11102.935,4,54.98,54.955,54.967,5656,310890.59,46,54.965,54.96,54.96,54.97,-0.006489046345166559,-0.0031193891800722563,atvi,20191206
2019-12-06,14:27,2:27 PM,54.97,54.97,54.97,100,5497.0,1,54.975,54.96,54.97,2313,127145.41,20,54.97,54.97,54.96,54.97,-0.006398669655122537,-0.0030649812292570418,atvi,20191206
2019-12-06,14:28,2:28 PM,54.97,54.97,54.97,1,54.97,1,54.975,54.97,54.972,200,10994.5,2,54.97,54.97,54.975,54.97,-0.006398669655122537,-0.0030287092620468557,atvi,20191206
2019-12-06,14:29,2:29 PM,,,,0,0.0,0,54.995,54.97,54.983,4623,254187.21,31,,,54.98,54.995,,-0.002829213442391155,atvi,20191206
2019-12-06,14:30,2:30 PM,55.005,54.99,55.005,1109,61000.41,2,55.005,54.99,55.002,2849,156700.0,15,55.005,54.99,55.0,54.99,-0.005766032824813743,-0.0024846297538947105,atvi,20191206
2019-12-06,14:31,2:31 PM,54.995,54.995,54.995,140,7699.3,1,55.0,54.985,54.99,2642,145283.8,22,54.995,54.995,54.995,54.985,-0.005946786204902043,-0.0027022615571555687,atvi,20191206
2019-12-06,14:32,2:32 PM,54.98,54.98,54.98,100,5498.0,1,54.99,54.98,54.983,1549,85168.4595,12,54.98,54.98,54.98,54.98,-0.006217916275034365,-0.002829213442391155,atvi,20191206
2019-12-06,14:33,2:33 PM,54.965,54.965,54.965,454,24954.11,3,54.98,54.96,54.972,5083,279422.835,33,54.965,54.965,54.98,54.97,-0.006489046345166559,-0.0030287092620468557,atvi,20191206
2019-12-06,14:34,2:34 PM,54.985,54.965,54.968,120,6596.2,2,54.99,54.96,54.975,9039,496923.075,62,54.965,54.985,54.96,54.98,-0.006434820331140094,-0.002974301311231641,atvi,20191206
2019-12-06,14:35,2:35 PM,,,,0,0.0,0,55.0,54.98,54.989,3478,191250.505,27,,,54.985,54.99,,-0.002720397540760726,atvi,20191206
2019-12-06,14:36,2:36 PM,,,,0,0.0,0,54.99,54.98,54.986,2484,136584.74,17,,,54.985,54.99,,-0.0027748054915759405,atvi,20191206
2019-12-06,14:37,2:37 PM,55.005,54.99,55.0,413,22714.87,5,55.005,54.985,54.994,9162,503857.855,67,54.99,54.99,54.989,54.99,-0.005856409514857893,-0.0026297176227353257,atvi,20191206
2019-12-06,14:38,2:38 PM,54.995,54.995,54.995,3,164.985,1,54.995,54.99,54.992,200,10998.5,2,54.995,54.995,54.99,54.995,-0.005946786204902043,-0.0026659895899455114,atvi,20191206
2019-12-06,14:39,2:39 PM,54.995,54.995,54.995,100,5499.5,1,54.995,54.99,54.993,1400,76991.0,12,54.995,54.995,54.995,54.99,-0.005946786204902043,-0.002647853606340354,atvi,20191206
2019-12-06,14:40,2:40 PM,54.995,54.985,54.994,117,6434.335,4,55.0,54.98,54.989,3056,168045.61,29,54.985,54.995,54.995,54.99,-0.0059648615429108215,-0.002720397540760726,atvi,20191206
2019-12-06,14:41,2:41 PM,,,,0,0.0,0,55.01,54.99,54.996,6812,374635.615,49,,,54.99,54.995,,-0.0025934456555251396,atvi,20191206
2019-12-06,14:42,2:42 PM,,,,0,0.0,0,55.0,54.99,54.995,1330,73144.05,11,,,54.995,54.995,,-0.0026115816391302973,atvi,20191206
2019-12-06,14:43,2:43 PM,,,,0,0.0,0,55.0,54.99,54.993,1704,93708.5336,12,,,54.995,54.99,,-0.002647853606340354,atvi,20191206
2019-12-06,14:44,2:44 PM,54.995,54.995,54.995,200,10999.0,2,55.0,54.99,54.993,1885,103662.6125,14,54.995,54.995,54.99,54.995,-0.005946786204902043,-0.002647853606340354,atvi,20191206
2019-12-06,14:45,2:45 PM,54.995,54.995,54.995,61,3354.695,1,54.995,54.99,54.994,1523,83755.8984,10,54.995,54.995,54.995,54.995,-0.005946786204902043,-0.0026297176227353257,atvi,20191206
2019-12-06,14:46,2:46 PM,55.04,55.0,55.022,793,43632.13,11,55.05,54.99,55.021,31575,1737282.92,195,55.0,55.0,54.995,54.99,-0.005458752078663864,-0.002140046065398395,atvi,20191206
2019-12-06,14:47,2:47 PM,54.995,54.995,54.995,9,494.955,1,55.0,54.99,54.995,1600,87991.62,16,54.995,54.995,54.99,54.993,-0.005946786204902043,-0.0026115816391302973,atvi,20191206
2019-12-06,14:48,2:48 PM,55.0,54.995,54.996,231,12704.0,4,55.0,54.98,54.995,5787,318256.3036,46,54.995,55.0,54.995,54.99,-0.0059287108668931365,-0.0026115816391302973,atvi,20191206
2019-12-06,14:49,2:49 PM,54.985,54.985,54.985,100,5498.5,1,54.99,54.98,54.985,794,43658.1601,7,54.985,54.985,54.99,54.985,-0.006127539584990215,-0.002792941475180969,atvi,20191206
2019-12-06,14:50,2:50 PM,54.995,54.985,54.988,209,11492.455,3,55.005,54.985,54.993,5218,286951.56,41,54.99,54.995,54.985,55.005,-0.0060733135709637506,-0.002647853606340354,atvi,20191206
2019-12-06,14:51,2:51 PM,,,,0,0.0,0,55.002,54.99,54.997,1716,94374.481,16,,,55.002,54.997,,-0.002575309671920111,atvi,20191206
2019-12-06,14:52,2:52 PM,54.995,54.985,54.99,232,12757.81,5,55.0,54.985,54.994,6084,334585.3963,42,54.99,54.995,54.995,54.99,-0.006037162894946065,-0.0026297176227353257,atvi,20191206
2019-12-06,14:53,2:53 PM,54.98,54.975,54.977,202,11105.46,4,55.0,54.975,54.983,3029,166542.6,27,54.975,54.98,55.0,54.98,-0.00627214228906083,-0.002829213442391155,atvi,20191206
2019-12-06,14:54,2:54 PM,54.965,54.965,54.965,7,384.755,1,54.983,54.96,54.974,2500,137435.68,20,54.965,54.965,54.98,54.96,-0.006489046345166559,-0.0029924372948367988,atvi,20191206
2019-12-06,14:55,2:55 PM,54.95,54.95,54.95,98,5385.1,1,54.955,54.93,54.949,23101,1269372.7725,30,54.95,54.95,54.95,54.93,-0.00676017641529888,-0.0034458368849635433,atvi,20191206
2019-12-06,14:56,2:56 PM,54.92,54.895,54.918,108,5931.16,3,54.93,54.895,54.912,4574,251165.89,38,54.92,54.895,54.93,54.9,-0.00733858723158121,-0.004116868278351146,atvi,20191206
2019-12-06,14:57,2:57 PM,54.91,54.91,54.91,22,1208.02,3,54.935,54.903,54.914,6915,379733.98,44,54.91,54.91,54.905,54.935,-0.007483189935651824,-0.00408059631114096,atvi,20191206
2019-12-06,14:58,2:58 PM,54.96,54.955,54.955,104,5715.34,2,54.97,54.94,54.963,4663,256290.705,29,54.96,54.955,54.94,54.97,-0.0066697997252548585,-0.0031919331144924993,atvi,20191206
2019-12-06,14:59,2:59 PM,,,,0,0.0,0,54.98,54.965,54.972,1634,89825.22,13,,,54.97,54.98,,-0.0030287092620468557,atvi,20191206
2019-12-06,15:00,3 PM,54.99,54.975,54.985,43,2364.345,2,54.985,54.97,54.976,1545,84937.48,15,54.99,54.975,54.985,54.97,-0.006127539584990215,-0.0029561653276266127,atvi,20191206
2019-12-06,15:01,3:01 PM,,,,0,0.0,0,54.98,54.96,54.968,4332,238122.22,41,,,54.98,54.96,,-0.003101253196467099,atvi,20191206
2019-12-06,15:02,3:02 PM,,,,0,0.0,0,54.969,54.95,54.96,5634,309647.412,29,,,54.96,54.96,,-0.003246341065307714,atvi,20191206
2019-12-06,15:03,3:03 PM,,,,0,0.0,0,54.965,54.96,54.964,1276,70133.93,11,,,54.96,54.96,,-0.003173797130887471,atvi,20191206
2019-12-06,15:04,3:04 PM,54.97,54.965,54.968,380,20887.67,4,54.99,54.96,54.971,3936,216364.395,28,54.965,54.97,54.965,54.985,-0.006434820331140094,-0.0030468452456520133,atvi,20191206
2019-12-06,15:05,3:05 PM,54.98,54.98,54.98,1,54.98,1,54.99,54.97,54.982,3555,195462.385,29,54.98,54.98,54.98,54.984,-0.006217916275034365,-0.0028473494259961835,atvi,20191206
2019-12-06,15:06,3:06 PM,54.985,54.985,54.985,100,5498.5,1,54.99,54.98,54.985,988,54325.155,7,54.985,54.985,54.985,54.98,-0.006127539584990215,-0.002792941475180969,atvi,20191206
2019-12-06,15:07,3:07 PM,54.985,54.985,54.985,10,549.85,1,54.99,54.985,54.987,2083,114539.1575,16,54.985,54.985,54.985,54.985,-0.006127539584990215,-0.0027566695079707833,atvi,20191206
2019-12-06,15:08,3:08 PM,,,,0,0.0,0,54.985,54.98,54.983,1286,70708.6913,11,,,54.983,54.985,,-0.002829213442391155,atvi,20191206
2019-12-06,15:09,3:09 PM,54.97,54.97,54.97,100,5497.0,1,54.985,54.95,54.971,2586,142154.1756,25,54.97,54.97,54.98,54.95,-0.006398669655122537,-0.0030468452456520133,atvi,20191206
2019-12-06,15:10,3:10 PM,54.95,54.95,54.95,100,5495.0,1,54.99,54.945,54.961,7984,438806.2709,54,54.95,54.95,54.95,54.986,-0.00676017641529888,-0.0032282050817026855,atvi,20191206
2019-12-06,15:11,3:11 PM,,,,0,0.0,0,54.99,54.97,54.976,1100,60473.51,10,,,54.99,54.975,,-0.0029561653276266127,atvi,20191206
2019-12-06,15:12,3:12 PM,54.97,54.96,54.965,200,10993.0,2,54.975,54.95,54.965,1842,101246.03,18,54.97,54.96,54.97,54.955,-0.006489046345166559,-0.0031556611472823132,atvi,20191206
2019-12-06,15:13,3:13 PM,54.95,54.95,54.95,200,10990.0,2,54.96,54.95,54.951,5457,299865.47,32,54.95,54.95,54.95,54.95,-0.00676017641529888,-0.0034095649177533576,atvi,20191206
2019-12-06,15:14,3:14 PM,54.96,54.955,54.958,207,11376.22,4,54.96,54.95,54.957,3949,217024.79,31,54.955,54.96,54.96,54.95,-0.006615573711228394,-0.0033007490161229285,atvi,20191206
2019-12-06,15:15,3:15 PM,54.95,54.95,54.95,100,5495.0,1,54.97,54.94,54.953,7069,388464.3694,44,54.95,54.95,54.95,54.965,-0.00676017641529888,-0.0033732929505431715,atvi,20191206
2019-12-06,15:16,3:16 PM,54.96,54.955,54.96,108,5935.645,3,54.965,54.955,54.96,5934,326133.14,27,54.96,54.96,54.965,54.965,-0.0065794230352107085,-0.003246341065307714,atvi,20191206
2019-12-06,15:17,3:17 PM,54.97,54.97,54.97,363,19954.11,3,54.98,54.97,54.974,2833,155741.25,20,54.97,54.97,54.97,54.98,-0.006398669655122537,-0.0029924372948367988,atvi,20191206
2019-12-06,15:18,3:18 PM,54.97,54.97,54.97,60,3298.2,1,54.98,54.96,54.977,11410,627284.994,25,54.97,54.97,54.97,54.96,-0.006398669655122537,-0.002938029344021584,atvi,20191206
2019-12-06,15:19,3:19 PM,54.955,54.95,54.953,200,10990.5,2,54.97,54.945,54.952,6606,363011.035,41,54.955,54.95,54.955,54.97,-0.006705950401272416,-0.0033914289341483287,atvi,20191206
2019-12-06,15:20,3:20 PM,,,,0,0.0,0,54.97,54.96,54.965,1105,60736.825,7,,,54.96,54.965,,-0.0031556611472823132,atvi,20191206
2019-12-06,15:21,3:21 PM,54.97,54.96,54.962,203,11157.305,5,54.98,54.955,54.97,2654,145889.34,20,54.96,54.97,54.955,54.98,-0.006543272359193023,-0.0030649812292570418,atvi,20191206
2019-12-06,15:22,3:22 PM,,,,0,0.0,0,55.0,54.98,54.996,6316,347356.29,41,,,54.985,55.0,,-0.0025934456555251396,atvi,20191206
2019-12-06,15:23,3:23 PM,55.0,55.0,55.0,435,23925.0,3,55.005,54.99,54.999,11238,618085.1176,48,55.0,55.0,55.0,55.0,-0.005856409514857893,-0.002539037704709925,atvi,20191206
2019-12-06,15:24,3:24 PM,54.995,54.995,54.995,8,439.96,1,55.01,54.99,55.001,4207,231387.7,25,54.995,54.995,54.99,54.995,-0.005946786204902043,-0.002502765737499868,atvi,20191206
2019-12-06,15:25,3:25 PM,54.99,54.99,54.99,127,6983.73,4,55.0,54.99,54.995,1252,68853.24,11,54.99,54.99,54.995,54.99,-0.006037162894946065,-0.0026115816391302973,atvi,20191206
2019-12-06,15:26,3:26 PM,55.005,55.005,55.005,100,5500.5,1,55.02,54.99,55.001,4008,220442.27,34,55.005,55.005,54.99,55.02,-0.005766032824813743,-0.002502765737499868,atvi,20191206
2019-12-06,15:27,3:27 PM,55.025,55.025,55.025,510,28062.75,2,55.04,55.02,55.029,4386,241357.4298,34,55.025,55.025,55.025,55.035,-0.005404526064637399,-0.00199495819655778,atvi,20191206
2019-12-06,15:28,3:28 PM,,,,0,0.0,0,55.04,55.03,55.034,2619,144134.5422,20,,,55.038,55.04,,-0.0019042782785325082,atvi,20191206
2019-12-06,15:29,3:29 PM,55.05,55.04,55.041,917,50472.21,7,55.055,55.035,55.046,13281,731070.08,84,55.05,55.045,55.05,55.045,-0.0051153206564963,-0.0016866464752716501,atvi,20191206
2019-12-06,15:30,3:30 PM,55.065,55.045,55.053,260,14313.9,6,55.07,55.03,55.053,13238,728790.46,93,55.045,55.055,55.04,55.055,-0.004898416600390442,-0.0015596945900361926,atvi,20191206
2019-12-06,15:31,3:31 PM,55.055,55.04,55.049,1213,66774.155,12,55.055,55.03,55.047,15025,827078.825,108,55.055,55.04,55.055,55.05,-0.004970717952425685,-0.0016685104916666217,atvi,20191206
2019-12-06,15:32,3:32 PM,,,,0,0.0,0,55.07,55.03,55.044,5328,293276.564,41,,,55.05,55.065,,-0.0017229184424818363,atvi,20191206
2019-12-06,15:33,3:33 PM,55.11,55.075,55.11,990,54558.62,6,55.12,55.062,55.092,9940,547616.429,69,55.075,55.11,55.062,55.111,-0.0038681223338876193,-0.0008523912294384038,atvi,20191206
2019-12-06,15:34,3:34 PM,55.145,55.14,55.141,15,827.11,3,55.15,55.1,55.13,11075,610570.54,72,55.145,55.14,55.11,55.14,-0.003307786855614197,-0.00016322385244564358,atvi,20191206
2019-12-06,15:35,3:35 PM,,,,0,0.0,0,55.145,55.133,55.141,4770,263022.2991,34,,,55.135,55.14,,3.627196721005711e-05,atvi,20191206
2019-12-06,15:36,3:36 PM,55.14,55.14,55.14,5,275.7,2,55.145,55.13,55.135,5049,278378.5486,35,55.14,55.14,55.145,55.135,-0.0033258621936229755,-7.254393442037194e-05,atvi,20191206
2019-12-06,15:37,3:37 PM,55.14,55.14,55.14,22,1213.08,8,55.14,55.13,55.133,3028,166943.3954,26,55.14,55.14,55.13,55.135,-0.0033258621936229755,-0.00010881590163042904,atvi,20191206
2019-12-06,15:38,3:38 PM,55.155,55.13,55.139,1722,94950.12,18,55.155,55.11,55.132,26919,1484107.1533,147,55.14,55.13,55.14,55.11,-0.003343937531631754,-0.00012695188523558645,atvi,20191206
2019-12-06,15:39,3:39 PM,55.115,55.085,55.102,3546,195391.74,6,55.135,55.07,55.103,42004,2314570.65,227,55.115,55.085,55.12,55.09,-0.004012725037958234,-0.0006528954097825743,atvi,20191206
2019-12-06,15:40,3:40 PM,55.1,55.095,55.097,2277,125455.815,3,55.11,55.09,55.099,15012,827148.72,77,55.095,55.1,55.09,55.1,-0.004103101728002255,-0.0007254393442029462,atvi,20191206
2019-12-06,15:41,3:41 PM,55.125,55.115,55.124,22,1212.74,2,55.125,55.1,55.112,19533,1076497.3787,129,55.115,55.125,55.11,55.115,-0.003615067601764076,-0.0004896715573369307,atvi,20191206
2019-12-06,15:42,3:42 PM,55.12,55.11,55.113,377,20777.67,5,55.14,55.11,55.123,8392,462592.015,53,55.11,55.12,55.115,55.13,-0.0038138963198611547,-0.00029017573768123,atvi,20191206
2019-12-06,15:43,3:43 PM,55.15,55.135,55.145,3,165.435,2,55.145,55.135,55.139,2955,162936.305,21,55.135,55.15,55.135,55.145,-0.0032354855035788255,0.0,atvi,20191206
2019-12-06,15:44,3:44 PM,55.155,55.155,55.155,59,3254.145,1,55.16,55.14,55.153,6250,344708.38,46,55.155,55.155,55.14,55.155,-0.003054732123490654,0.0002539037704709152,atvi,20191206
2019-12-06,15:45,3:45 PM,55.155,55.14,55.154,242,13347.315,8,55.16,55.135,55.148,11231,619361.935,70,55.155,55.14,55.155,55.139,-0.0030728074614994327,0.00016322385244564358,atvi,20191206
2019-12-06,15:46,3:46 PM,55.14,55.135,55.136,123,6781.72,4,55.165,55.13,55.146,10428,575065.4397,75,55.135,55.14,55.135,55.165,-0.0033981635456582187,0.0001269518852354576,atvi,20191206
2019-12-06,15:47,3:47 PM,55.17,55.17,55.17,100,5517.0,1,55.175,55.164,55.168,7052,389045.0594,42,55.17,55.17,55.165,55.17,-0.002783602053358332,0.0005259435245469878,atvi,20191206
2019-12-06,15:48,3:48 PM,55.175,55.16,55.169,653,36025.54,5,55.18,55.16,55.172,22577,1245615.535,154,55.175,55.16,55.16,55.175,-0.002801677391367239,0.0005984874589672308,atvi,20191206
2019-12-06,15:49,3:49 PM,55.175,55.17,55.173,542,29903.85,6,55.18,55.165,55.172,6148,339200.205,55,55.175,55.175,55.17,55.175,-0.002729376039331868,0.0005984874589672308,atvi,20191206
2019-12-06,15:50,3:50 PM,55.2,55.18,55.187,146,8057.26,6,55.21,55.18,55.194,17346,957391.0751,124,55.18,55.2,55.18,55.21,-0.002476321307208453,0.00099747909827889,atvi,20191206
2019-12-06,15:51,3:51 PM,55.22,55.2,55.206,705,38920.525,7,55.22,55.195,55.207,25433,1404084.81,155,55.22,55.2,55.21,55.2,-0.00213288988504076,0.0012332468851447766,atvi,20191206
2019-12-06,15:52,3:52 PM,55.205,55.205,55.205,313,17279.165,3,55.21,55.17,55.193,13358,737267.14,93,55.205,55.205,55.2,55.175,-0.002150965223049667,0.0009793431146737325,atvi,20191206
2019-12-06,15:53,3:53 PM,55.18,55.165,55.173,659,36359.02,6,55.18,55.16,55.17,11150,615142.655,67,55.175,55.165,55.18,55.165,-0.002729376039331868,0.0005622154917571737,atvi,20191206
2019-12-06,15:54,3:54 PM,55.16,55.15,55.157,795,43850.15,9,55.175,55.15,55.161,15406,849812.137,106,55.16,55.16,55.16,55.17,-0.0030185814474730966,0.0003989916393115302,atvi,20191206
2019-12-06,15:55,3:55 PM,55.16,55.15,55.155,1505,83008.98,11,55.165,55.15,55.158,8298,457698.16,61,55.155,55.155,55.16,55.155,-0.003054732123490654,0.0003445836884963157,atvi,20191206
2019-12-06,15:56,3:56 PM,55.145,55.135,55.145,313,17260.255,4,55.155,55.11,55.136,23865,1315817.9716,146,55.145,55.135,55.155,55.12,-0.0032354855035788255,-5.440795081521452e-05,atvi,20191206
2019-12-06,15:57,3:57 PM,55.165,55.12,55.149,623,34357.84,12,55.17,55.115,55.143,51369,2832647.86,279,55.12,55.165,55.12,55.165,-0.0031631841515435827,7.254393442024307e-05,atvi,20191206
2019-12-06,15:58,3:58 PM,55.195,55.18,55.187,414,22847.52,6,55.22,55.16,55.183,51830,2860123.3162,280,55.18,55.195,55.165,55.22,-0.002476321307208453,0.0007979832786230604,atvi,20191206
2019-12-06,15:59,3:59 PM,55.26,55.205,55.24,3769,208199.575,28,55.26,55.205,55.241,148131,8182913.1112,755,55.215,55.205,55.22,55.21,-0.0015183283927408735,0.0018498703277171648,atvi,20191206
