date,minute,label,high,low,average,volume,notional,numberOfTrades,marketHigh,marketLow,marketAverage,marketVolume,marketNotional,marketNumberOfTrades,open,close,marketOpen,marketClose,changeOverTime,marketChangeOverTime,tickerName,tickerDate
2020-01-02,09:30,09:30 AM,59.94,59.685,59.831,560,33505.6,6,60.0,59.69,59.901,90588,5426342.2607,169,59.92,59.685,59.91,59.71,0.0,0.0,atvi,20200102
2020-01-02,09:31,09:31 AM,59.72,59.52,59.596,686,40883.22,8,59.73,59.51,59.574,12516,745632.5394,101,59.72,59.535,59.71,59.51,-0.003927729772191782,-0.005459007362147631,atvi,20200102
2020-01-02,09:32,09:32 AM,59.89,59.515,59.631,617,36792.24,8,59.94,59.5,59.642,25530,1522657.6338,171,59.515,59.89,59.53,59.94,-0.003342748742290833,-0.0043238009382147264,atvi,20200102
2020-01-02,09:33,09:33 AM,59.97,59.97,59.97,71,4257.87,2,60.0,59.88,59.952,29325,1758092.74,177,59.97,59.97,59.9,59.98,0.0023232103758920254,0.0008514048179495304,atvi,20200102
2020-01-02,09:34,09:34 AM,60.0,59.99,59.999,113,6779.87,2,60.05,59.858,59.974,70831,4248034.195,265,59.99,60.0,59.989,59.91,0.0028079089435242475,0.0012186774845160061,atvi,20200102
2020-01-02,09:35,09:35 AM,59.96,59.93,59.936,123,7372.08,2,59.98,59.92,59.949,5670,339908.01,37,59.93,59.96,59.94,59.94,0.00175494308970261,0.0008013221815995511,atvi,20200102
2020-01-02,09:36,09:36 AM,59.79,59.76,59.776,190,11357.4,2,59.94,59.7,59.817,12680,758476.0025,90,59.79,59.76,59.94,59.73,-0.0009192559041299612,-0.001402313817799422,atvi,20200102
2020-01-02,09:37,09:37 AM,59.73,59.66,59.694,236,14087.84,3,59.77,59.66,59.704,15948,952164.8812,104,59.66,59.73,59.74,59.72,-0.0022897828884691955,-0.003288759786981899,atvi,20200102
2020-01-02,09:38,09:38 AM,59.64,59.64,59.64,2,119.28,1,59.795,59.62,59.682,7600,453581.03,43,59.64,59.64,59.741,59.63,-0.003192325048887742,-0.0036560324535483747,atvi,20200102
2020-01-02,09:39,09:39 AM,59.62,59.62,59.62,1,59.62,1,59.67,59.58,59.632,8141,485468.0,67,59.62,59.62,59.64,59.63,-0.003526599923116873,-0.004490743059381404,atvi,20200102
2020-01-02,09:40,09:40 AM,59.715,59.715,59.715,1,59.715,1,59.72,59.65,59.683,3732,222738.0896,29,59.715,59.715,59.65,59.65,-0.0019387942705286498,-0.003639338241431754,atvi,20200102
2020-01-02,09:41,09:41 AM,59.72,59.675,59.703,300,17911.0,3,59.73,59.664,59.697,3464,206789.1808,29,59.675,59.715,59.675,59.73,-0.0021393591950661047,-0.0034056192717984777,atvi,20200102
2020-01-02,09:42,09:42 AM,59.74,59.74,59.74,100,5974.0,1,59.76,59.63,59.709,9294,554936.5792,63,59.74,59.74,59.734,59.648,-0.0015209506777423254,-0.0032052887263985604,atvi,20200102
2020-01-02,09:43,09:43 AM,,,,0,0.0,0,59.68,59.53,59.607,10571,630110.7961,55,,,59.68,59.53,,-0.004908098362297859,atvi,20200102
2020-01-02,09:44,09:44 AM,,,,0,0.0,0,59.56,59.5,59.517,17951,1068387.6532,124,,,59.55,59.518,,-0.006410577452797121,atvi,20200102
2020-01-02,09:45,09:45 AM,59.56,59.51,59.541,550,32747.86,10,59.59,59.51,59.543,8830,525767.973,61,59.55,59.56,59.52,59.575,-0.004846985676321743,-0.005976527937764045,atvi,20200102
2020-01-02,09:46,09:46 AM,59.62,59.605,59.619,210,12520.05,3,59.655,59.55,59.603,7709,459482.97,42,59.62,59.605,59.62,59.58,-0.0035433136668282877,-0.004974875210764458,atvi,20200102
2020-01-02,09:47,09:47 AM,59.54,59.5,59.536,469,27922.47,6,59.57,59.5,59.538,8229,489940.93,48,59.51,59.54,59.565,59.54,-0.004930554394878937,-0.0060599989983473835,atvi,20200102
2020-01-02,09:48,09:48 AM,59.515,59.45,59.466,156,9276.74,4,59.56,59.44,59.524,21913,1304352.75,121,59.515,59.45,59.55,59.45,-0.006100516454680717,-0.006293717967980542,atvi,20200102
2020-01-02,09:49,09:49 AM,59.445,59.415,59.434,656,38988.78,7,59.465,59.41,59.43,12271,729271.253,65,59.445,59.43,59.465,59.43,-0.0066353562534473024,-0.007862973906946522,atvi,20200102
2020-01-02,09:50,09:50 AM,59.455,59.455,59.455,100,5945.5,1,59.52,59.43,59.484,6400,380697.4,55,59.455,59.455,59.43,59.46,-0.0062843676355067565,-0.006961486452646893,atvi,20200102
2020-01-02,09:51,09:51 AM,59.455,59.455,59.455,100,5945.5,1,59.489,59.45,59.468,6344,377261.954,32,59.455,59.455,59.46,59.47,-0.0062843676355067565,-0.007228593846513411,atvi,20200102
2020-01-02,09:52,09:52 AM,59.49,59.455,59.483,263,15644.015,5,59.5,59.445,59.474,12169,723736.0,78,59.49,59.455,59.49,59.46,-0.0058163828115860685,-0.0071284285738135705,atvi,20200102
2020-01-02,09:53,09:53 AM,59.44,59.44,59.44,300,17832.0,3,59.46,59.405,59.436,10036,596502.287,41,59.44,59.44,59.44,59.44,-0.006535073791178575,-0.007762808634246564,atvi,20200102
2020-01-02,09:54,09:54 AM,,,,0,0.0,0,59.48,59.42,59.45,7086,421260.095,58,,,59.45,59.435,,-0.007529089664613286,atvi,20200102
2020-01-02,09:55,09:55 AM,59.455,59.45,59.453,300,17836.0,2,59.47,59.42,59.434,7180,426732.9725,49,59.455,59.45,59.44,59.47,-0.006317795122929587,-0.007796197058479923,atvi,20200102
2020-01-02,09:56,09:56 AM,,,,0,0.0,0,59.5,59.47,59.485,4695,279283.02,26,,,59.49,59.49,,-0.006944792240530274,atvi,20200102
2020-01-02,09:57,09:57 AM,59.53,59.53,59.53,117,6965.01,1,59.54,59.45,59.493,10510,625270.86,54,59.53,59.53,59.485,59.535,-0.005030836857147665,-0.0068112385435969555,atvi,20200102
2020-01-02,09:58,09:58 AM,,,,0,0.0,0,59.53,59.45,59.493,2210,131479.14,20,,,59.53,59.45,,-0.0068112385435969555,atvi,20200102
2020-01-02,09:59,09:59 AM,,,,0,0.0,0,59.49,59.42,59.449,11004,654173.4799,65,,,59.44,59.425,,-0.007545783876730026,atvi,20200102
2020-01-02,10:00,10 AM,59.425,59.355,59.408,405,24060.125,2,59.43,59.32,59.381,16282,966846.345,112,59.425,59.355,59.422,59.32,-0.007069913589945042,-0.008680990300662812,atvi,20200102
2020-01-02,10:01,10:01 AM,59.235,59.23,59.235,106,6278.88,2,59.301,59.22,59.254,18090,1071896.4078,127,59.23,59.235,59.301,59.255,-0.009961391252026601,-0.010801155239478565,atvi,20200102
2020-01-02,10:02,10:02 AM,59.255,59.22,59.232,150,8884.75,2,59.25,59.14,59.187,10947,647918.403,90,59.255,59.22,59.25,59.18,-0.010011532483160966,-0.01191966745129473,atvi,20200102
2020-01-02,10:03,10:03 AM,59.19,59.19,59.19,20,1183.8,2,59.2,59.16,59.179,5876,347737.8227,39,59.19,59.19,59.19,59.16,-0.010713509719042056,-0.012053221148227931,atvi,20200102
2020-01-02,10:04,10:04 AM,59.175,59.16,59.167,200,11833.465,3,59.19,59.15,59.17,8346,493832.73,67,59.16,59.175,59.16,59.19,-0.011097925824405433,-0.012203469057277868,atvi,20200102
2020-01-02,10:05,10:05 AM,59.17,59.17,59.17,100,5917.0,1,59.19,59.145,59.169,6865,406197.69,55,59.17,59.17,59.18,59.18,-0.01104778459327107,-0.012220163269394608,atvi,20200102
2020-01-02,10:06,10:06 AM,59.19,59.19,59.19,104,6155.76,2,59.195,59.18,59.19,7720,456944.34,43,59.19,59.19,59.193,59.18,-0.010713509719042056,-0.011869584814944751,atvi,20200102
2020-01-02,10:07,10:07 AM,,,,0,0.0,0,59.182,59.175,59.18,6275,371353.59,40,,,59.175,59.178,,-0.01203652693611131,atvi,20200102
2020-01-02,10:08,10:08 AM,59.18,59.18,59.18,100,5918.0,1,59.2,59.175,59.188,3832,226807.655,32,59.18,59.18,59.19,59.18,-0.010880647156156564,-0.011902973239177992,atvi,20200102
2020-01-02,10:09,10:09 AM,59.22,59.22,59.22,1,59.22,1,59.25,59.185,59.206,7039,416751.41,56,59.22,59.22,59.185,59.19,-0.01021209740769842,-0.011602477421078117,atvi,20200102
2020-01-02,10:10,10:10 AM,59.165,59.165,59.165,400,23666.0,1,59.23,59.15,59.176,13923,823903.2425,60,59.165,59.165,59.17,59.22,-0.011131353311828381,-0.01210330378457791,atvi,20200102
2020-01-02,10:11,10:11 AM,59.18,59.17,59.175,200,11835.0,2,59.21,59.165,59.187,5965,353048.061,39,59.18,59.17,59.21,59.18,-0.010964215874713875,-0.01191966745129473,atvi,20200102
2020-01-02,10:12,10:12 AM,59.2,59.2,59.2,100,5920.0,1,59.21,59.16,59.182,9391,555774.95,56,59.2,59.2,59.174,59.2,-0.010546372281927433,-0.012003138511877951,atvi,20200102
2020-01-02,10:13,10:13 AM,59.21,59.18,59.189,320,18940.6,5,59.215,59.162,59.188,5002,296059.924,42,59.21,59.18,59.21,59.18,-0.010730223462753471,-0.011902973239177992,atvi,20200102
2020-01-02,10:14,10:14 AM,59.145,59.105,59.127,500,29563.5,5,59.17,59.1,59.136,12764,754805.53,84,59.145,59.105,59.17,59.11,-0.011766475572863576,-0.012771072269244262,atvi,20200102
2020-01-02,10:15,10:15 AM,59.105,58.98,59.034,501,29576.095,6,59.115,58.965,59.029,24185,1427629.195,152,59.105,58.98,59.11,58.99,-0.01332085373802885,-0.01455735296572678,atvi,20200102
2020-01-02,10:16,10:16 AM,59.02,58.98,58.984,110,6488.2,2,59.02,58.96,58.995,11413,673309.895,94,58.98,59.02,59.0,59.015,-0.014156540923601498,-0.01512495617769329,atvi,20200102
2020-01-02,10:17,10:17 AM,59.06,59.06,59.06,10,590.6,1,59.085,59.0,59.038,7455,440124.85,56,59.06,59.06,59.01,59.08,-0.012886296401530991,-0.01440710505667696,atvi,20200102
2020-01-02,10:18,10:18 AM,59.03,59.02,59.025,200,11805.0,2,59.08,59.005,59.033,14511,856627.03,86,59.03,59.02,59.08,59.02,-0.01347127743143194,-0.01449057611726018,atvi,20200102
2020-01-02,10:19,10:19 AM,59.01,58.9,58.961,400,23584.5,5,59.025,58.86,58.933,29660,1747965.78,184,59.01,58.9,59.025,58.86,-0.014540957028964994,-0.016159997328926118,atvi,20200102
2020-01-02,10:20,10:20 AM,,,,0,0.0,0,58.86,58.71,58.796,54441,3200891.447,340,,,58.86,58.71,,-0.018447104388908432,atvi,20200102
2020-01-02,10:21,10:21 AM,58.805,58.805,58.805,200,11761.0,1,58.81,58.72,58.765,33476,1967208.2355,199,58.805,58.805,58.73,58.76,-0.017148301047951786,-0.018964624964524845,atvi,20200102
2020-01-02,10:22,10:22 AM,58.72,58.71,58.718,707,41514.005,3,58.75,58.67,58.717,26885,1578609.44,159,58.71,58.715,58.75,58.7,-0.018602396750848214,-0.019765947146124514,atvi,20200102
2020-01-02,10:23,10:23 AM,58.67,58.63,58.646,308,18063.05,4,58.715,58.61,58.658,17714,1039068.168,126,58.67,58.63,58.7,58.63,-0.019805786298072944,-0.020750905661007363,atvi,20200102
2020-01-02,10:24,10:24 AM,58.64,58.61,58.62,400,23448.0,3,58.66,58.61,58.636,17496,1025892.6988,112,58.61,58.62,58.64,58.66,-0.0202403436345708,-0.021118178327573837,atvi,20200102
2020-01-02,10:25,10:25 AM,,,,0,0.0,0,58.65,58.59,58.616,11438,670453.26,74,,,58.65,58.605,,-0.021452062569907074,atvi,20200102
2020-01-02,10:26,10:26 AM,,,,0,0.0,0,58.699,58.57,58.616,21791,1277294.81,126,,,58.61,58.699,,-0.021452062569907074,atvi,20200102
2020-01-02,10:27,10:27 AM,,,,0,0.0,0,58.83,58.7,58.782,5775,339466.1825,28,,,58.7,58.805,,-0.018680823358541706,atvi,20200102
2020-01-02,10:28,10:28 AM,,,,0,0.0,0,58.83,58.75,58.798,18622,1094947.25,59,,,58.82,58.81,,-0.018413715964675073,atvi,20200102
2020-01-02,10:29,10:29 AM,58.815,58.815,58.815,100,5881.5,1,58.85,58.805,58.833,3889,228800.2821,31,58.815,58.815,58.815,58.83,-0.01698116361083728,-0.017829418540592057,atvi,20200102
2020-01-02,10:30,10:30 AM,,,,0,0.0,0,58.84,58.78,58.807,4159,244578.8754,38,,,58.83,58.835,,-0.018263468055625134,atvi,20200102
2020-01-02,10:31,10:31 AM,58.8,58.8,58.8,10,588.0,1,58.85,58.806,58.828,7435,437387.8,59,58.8,58.8,58.82,58.806,-0.0172318697665091,-0.017912889601175278,atvi,20200102
2020-01-02,10:32,10:32 AM,58.805,58.805,58.805,141,8291.505,2,58.82,58.785,58.801,5626,330816.42,43,58.805,58.805,58.8,58.81,-0.017148301047951786,-0.018363633328325094,atvi,20200102
2020-01-02,10:33,10:33 AM,58.79,58.77,58.782,600,35269.5,5,58.81,58.76,58.78,4800,282145.5,45,58.79,58.785,58.78,58.81,-0.01753271715331528,-0.018714211782774947,atvi,20200102
2020-01-02,10:34,10:34 AM,58.83,58.83,58.83,53,3117.99,1,58.83,58.78,58.811,6522,383567.9,39,58.83,58.83,58.815,58.805,-0.01673045745516546,-0.018196691207158534,atvi,20200102
2020-01-02,10:35,10:35 AM,58.81,58.795,58.803,400,23521.0,4,58.82,58.79,58.797,4808,282695.71,34,58.81,58.795,58.82,58.81,-0.017181728535374734,-0.01843041017679181,atvi,20200102
2020-01-02,10:36,10:36 AM,58.9,58.845,58.857,420,24720.0,6,58.95,58.815,58.876,17392,1023968.45,128,58.845,58.9,58.82,58.93,-0.01627918637495619,-0.017111567419575726,atvi,20200102
2020-01-02,10:37,10:37 AM,58.905,58.87,58.884,400,23553.5,4,58.93,58.87,58.893,6537,384986.409,41,58.905,58.87,58.928,58.871,-0.015827915294746916,-0.016827765813592473,atvi,20200102
2020-01-02,10:38,10:38 AM,58.895,58.88,58.887,300,17666.0,3,58.9,58.845,58.877,6701,394534.7,39,58.88,58.895,58.9,58.864,-0.01577777406361255,-0.017094873207458988,atvi,20200102
2020-01-02,10:39,10:39 AM,58.895,58.87,58.874,1200,70648.5,8,58.91,58.86,58.887,7340,432230.4,56,58.87,58.895,58.87,58.91,-0.01599505273186142,-0.01692793108629243,atvi,20200102
2020-01-02,10:40,10:40 AM,58.91,58.87,58.88,400,23552.0,3,58.91,58.855,58.878,4897,288325.1041,34,58.91,58.87,58.91,58.87,-0.015894770269592694,-0.017078178995342367,atvi,20200102
2020-01-02,10:41,10:41 AM,58.875,58.855,58.872,610,35911.75,4,58.885,58.855,58.872,3761,221417.665,33,58.875,58.855,58.875,58.87,-0.01602848021928437,-0.017178344268042326,atvi,20200102
2020-01-02,10:42,10:42 AM,58.87,58.87,58.87,1,58.87,1,58.95,58.88,58.923,5574,328434.6477,42,58.87,58.87,58.88,58.92,-0.016061907706707318,-0.016326939450092677,atvi,20200102
2020-01-02,10:43,10:43 AM,58.96,58.935,58.951,320,18864.2,5,58.97,58.93,58.951,6310,371983.011,53,58.955,58.935,58.952,58.95,-0.0147080944660795,-0.015859501510826244,atvi,20200102
2020-01-02,10:44,10:44 AM,58.955,58.955,58.955,100,5895.5,1,59.0,58.95,58.972,5505,324642.581,36,58.955,58.955,58.95,58.985,-0.01464123949123372,-0.015508923056376387,atvi,20200102
2020-01-02,10:45,10:45 AM,59.02,59.02,59.02,100,5902.0,1,59.03,58.985,59.011,9047,533874.855,57,59.02,59.02,58.99,59.01,-0.013554846149989135,-0.014857848783826656,atvi,20200102
2020-01-02,10:46,10:46 AM,,,,0,0.0,0,59.02,58.99,59.006,3355,197965.03,27,,,59.005,59.015,,-0.014941319844409995,atvi,20200102
2020-01-02,10:47,10:47 AM,58.985,58.985,58.985,100,5898.5,1,59.02,58.98,59.005,4982,293964.1,40,58.985,58.985,59.02,58.98,-0.014139827179890084,-0.014958014056526615,atvi,20200102
2020-01-02,10:48,10:48 AM,58.94,58.925,58.929,188,11078.69,3,58.97,58.92,58.941,7744,456442.9346,44,58.925,58.93,58.97,58.95,-0.01507579682773146,-0.016026443631992803,atvi,20200102
2020-01-02,10:49,10:49 AM,,,,0,0.0,0,59.0,58.96,58.978,7688,453421.921,56,,,58.96,58.995,,-0.01540875778367643,atvi,20200102
2020-01-02,10:50,10:50 AM,58.975,58.97,58.972,200,11794.5,2,59.0,58.94,58.975,6004,354087.438,46,58.975,58.97,58.99,58.948,-0.014357105848138953,-0.015458840420026407,atvi,20200102
2020-01-02,10:51,10:51 AM,58.955,58.945,58.953,500,29476.5,3,58.955,58.945,58.951,5125,302124.75,29,58.955,58.945,58.95,58.95,-0.014674666978656551,-0.015859501510826244,atvi,20200102
2020-01-02,10:52,10:52 AM,58.94,58.94,58.94,210,12377.4,3,58.95,58.93,58.943,3967,233825.58,27,58.94,58.94,58.945,58.95,-0.01489194564690554,-0.015993055207759562,atvi,20200102
2020-01-02,10:53,10:53 AM,58.95,58.925,58.944,400,23577.5,3,58.957,58.914,58.935,4113,242400.8837,32,58.95,58.925,58.95,58.925,-0.014825090672059641,-0.01612660890469276,atvi,20200102
2020-01-02,10:54,10:54 AM,58.925,58.925,58.925,200,11785.0,1,58.96,58.91,58.926,4113,242364.679,33,58.925,58.925,58.93,58.949,-0.015142651802577357,-0.016276856813742697,atvi,20200102
2020-01-02,10:55,10:55 AM,59.07,58.98,59.04,300,17712.0,2,59.08,58.95,59.019,8488,500951.53,73,58.98,59.07,58.96,59.07,-0.013220571275760122,-0.014724295086893456,atvi,20200102
2020-01-02,10:56,10:56 AM,59.15,59.1,59.125,453,26783.45,5,59.16,59.07,59.112,17185,1015836.94,98,59.1,59.15,59.07,59.12,-0.011799903060286525,-0.013171733360044097,atvi,20200102
2020-01-02,10:57,10:57 AM,59.14,59.13,59.133,462,27319.23,5,59.14,59.115,59.127,4929,291437.7615,43,59.13,59.14,59.12,59.14,-0.011666193110594848,-0.0129213201782942,atvi,20200102
2020-01-02,10:58,10:58 AM,59.15,59.15,59.15,100,5915.0,1,59.16,59.125,59.146,4244,251016.58,32,59.15,59.15,59.139,59.125,-0.0113820594675002,-0.012604130148077703,atvi,20200102
2020-01-02,10:59,10:59 AM,,,,0,0.0,0,59.14,59.12,59.125,2380,140717.6,19,,,59.13,59.12,,-0.01295470860252756,atvi,20200102
2020-01-02,11:00,11 AM,59.12,59.115,59.119,800,47295.5,4,59.12,59.085,59.113,6964,411664.8951,47,59.12,59.115,59.115,59.085,-0.011900185522555251,-0.013155039147927476,atvi,20200102
2020-01-02,11:01,11:01 AM,59.095,59.075,59.09,400,23636.0,2,59.1,59.07,59.087,2600,153624.9,19,59.075,59.095,59.08,59.1,-0.012384884090187355,-0.013589088662960552,atvi,20200102
2020-01-02,11:02,11:02 AM,59.095,59.095,59.095,100,5909.5,1,59.096,59.06,59.075,3379,199614.8,33,59.095,59.095,59.095,59.08,-0.01230131537163016,-0.013789419208360468,atvi,20200102
2020-01-02,11:03,11:03 AM,59.06,59.06,59.06,100,5906.0,1,59.08,59.06,59.069,1800,106323.5,17,59.06,59.06,59.08,59.06,-0.012886296401530991,-0.013889584481060428,atvi,20200102
2020-01-02,11:04,11:04 AM,59.07,59.065,59.068,809,47785.63,7,59.075,59.065,59.069,2818,166457.17,21,59.065,59.07,59.065,59.065,-0.012752586451839434,-0.013889584481060428,atvi,20200102
2020-01-02,11:05,11:05 AM,59.055,59.055,59.055,40,2362.2,1,59.067,59.04,59.052,2700,159441.2,26,59.055,59.055,59.065,59.05,-0.012969865120088304,-0.014173386087043684,atvi,20200102
2020-01-02,11:06,11:06 AM,59.065,59.055,59.06,200,11812.0,2,59.07,59.055,59.067,3483,205729.27,26,59.055,59.065,59.057,59.07,-0.012886296401530991,-0.013922972905293787,atvi,20200102
2020-01-02,11:07,11:07 AM,59.095,59.055,59.068,600,35441.0,4,59.11,59.055,59.08,6475,382539.85,54,59.075,59.095,59.075,59.11,-0.012752586451839434,-0.01370594814777725,atvi,20200102
2020-01-02,11:08,11:08 AM,59.1,59.075,59.087,600,35452.5,4,59.11,59.07,59.098,6176,364987.1412,37,59.1,59.075,59.1,59.075,-0.012435025321321718,-0.013405452329677374,atvi,20200102
2020-01-02,11:09,11:09 AM,,,,0,0.0,0,59.07,59.05,59.062,3986,235420.91,27,,,59.07,59.065,,-0.014006443965877125,atvi,20200102
2020-01-02,11:10,11:10 AM,59.065,59.065,59.065,400,23626.0,2,59.07,59.06,59.065,3136,185227.6677,16,59.065,59.065,59.069,59.06,-0.012802727682973797,-0.013956361329527146,atvi,20200102
2020-01-02,11:11,11:11 AM,59.09,59.075,59.08,300,17724.0,2,59.105,59.065,59.083,6800,401761.28,60,59.075,59.09,59.065,59.08,-0.01255202152730198,-0.01365586551142727,atvi,20200102
2020-01-02,11:12,11:12 AM,59.11,59.08,59.105,218,12884.94,3,59.115,59.09,59.106,3329,196764.19,27,59.08,59.11,59.09,59.115,-0.012134177934515655,-0.013271898632744056,atvi,20200102
2020-01-02,11:13,11:13 AM,59.085,59.085,59.085,100,5908.5,1,59.13,59.08,59.105,3500,206867.03,30,59.085,59.085,59.12,59.085,-0.012468452808744666,-0.013288592844860794,atvi,20200102
2020-01-02,11:14,11:14 AM,,,,0,0.0,0,59.09,59.075,59.079,2444,144389.1307,18,,,59.085,59.075,,-0.01372264235989387,atvi,20200102
2020-01-02,11:15,11:15 AM,59.075,59.07,59.074,500,29537.0,3,59.09,59.065,59.075,3339,197252.4509,27,59.075,59.07,59.075,59.07,-0.012652303989570707,-0.013789419208360468,atvi,20200102
2020-01-02,11:16,11:16 AM,59.075,59.075,59.075,1,59.075,1,59.1,59.06,59.076,3897,230217.775,32,59.075,59.075,59.06,59.1,-0.012635590245859174,-0.01377272499624385,atvi,20200102
2020-01-02,11:17,11:17 AM,,,,0,0.0,0,59.09,59.05,59.061,5364,316803.9954,38,,,59.09,59.05,,-0.014023138177993746,atvi,20200102
2020-01-02,11:18,11:18 AM,,,,0,0.0,0,59.06,59.045,59.05,1500,88574.62,12,,,59.05,59.06,,-0.014206774511277043,atvi,20200102
2020-01-02,11:19,11:19 AM,59.04,59.04,59.04,40,2361.6,1,59.059,59.03,59.046,2783,164325.135,24,59.04,59.04,59.059,59.03,-0.013220571275760122,-0.014273551359743642,atvi,20200102
2020-01-02,11:20,11:20 AM,,,,0,0.0,0,59.05,59.02,59.039,5094,300743.98,43,,,59.04,59.05,,-0.014390410844560221,atvi,20200102
2020-01-02,11:21,11:21 AM,,,,0,0.0,0,59.12,59.055,59.093,6750,398880.9872,60,,,59.058,59.11,,-0.013488923390260593,atvi,20200102
2020-01-02,11:22,11:22 AM,,,,0,0.0,0,59.115,59.075,59.097,4899,289516.32,46,,,59.115,59.095,,-0.013422146541793993,atvi,20200102
2020-01-02,11:23,11:23 AM,59.135,59.135,59.135,4,236.54,1,59.14,59.09,59.114,5549,328021.8285,45,59.135,59.135,59.09,59.12,-0.011632765623172019,-0.013138344935810856,atvi,20200102
2020-01-02,11:24,11:24 AM,59.135,59.13,59.135,104,6150.02,2,59.135,59.125,59.13,2317,137004.715,17,59.13,59.135,59.13,59.135,-0.011632765623172019,-0.012871237541944221,atvi,20200102
2020-01-02,11:25,11:25 AM,59.1,59.1,59.1,100,5910.0,1,59.135,59.1,59.115,4595,271635.8214,37,59.1,59.1,59.135,59.1,-0.012217746653072849,-0.013121650723694117,atvi,20200102
2020-01-02,11:26,11:26 AM,59.11,59.11,59.11,100,5911.0,2,59.11,59.09,59.106,5054,298720.94,18,59.11,59.11,59.095,59.11,-0.012050609215958344,-0.013271898632744056,atvi,20200102
2020-01-02,11:27,11:27 AM,59.145,59.14,59.143,150,8871.5,2,59.145,59.115,59.13,2056,121571.28,18,59.14,59.145,59.115,59.145,-0.011499055673480342,-0.012871237541944221,atvi,20200102
2020-01-02,11:28,11:28 AM,59.16,59.15,59.152,132,7808.085,3,59.165,59.14,59.152,7216,426839.085,41,59.16,59.15,59.15,59.14,-0.011348631980077252,-0.012503964875377745,atvi,20200102
2020-01-02,11:29,11:29 AM,59.14,59.14,59.14,29,1715.06,3,59.15,59.12,59.139,2308,136492.2622,17,59.14,59.14,59.141,59.12,-0.011549196904614705,-0.012720989632894282,atvi,20200102
2020-01-02,11:30,11:30 AM,59.11,59.11,59.11,2,118.22,1,59.12,59.085,59.1,2813,166248.0599,23,59.11,59.11,59.11,59.12,-0.012050609215958344,-0.013372063905444015,atvi,20200102
2020-01-02,11:31,11:31 AM,59.085,59.085,59.085,55,3249.675,1,59.11,59.06,59.085,2500,147711.5,17,59.085,59.085,59.11,59.06,-0.012468452808744666,-0.013622477087193911,atvi,20200102
2020-01-02,11:32,11:32 AM,59.04,59.04,59.04,4,236.16,1,59.04,59.02,59.034,1178,69542.36,9,59.04,59.04,59.04,59.02,-0.013220571275760122,-0.01447388190514356,atvi,20200102
2020-01-02,11:33,11:33 AM,59.01,58.995,59.0,400,23600.0,3,59.01,58.982,58.995,5494,324121.5662,41,59.01,58.995,59.01,58.996,-0.013889121024218265,-0.01512495617769329,atvi,20200102
2020-01-02,11:34,11:34 AM,58.985,58.98,58.983,300,17695.0,2,58.99,58.93,58.968,4038,238114.63,25,58.985,58.98,58.985,58.93,-0.014173254667313033,-0.015575699904842987,atvi,20200102
2020-01-02,11:35,11:35 AM,58.935,58.91,58.917,804,47369.64,4,58.935,58.91,58.918,9415,554716.74,51,58.935,58.915,58.93,58.915,-0.015276361752268914,-0.016410410510676016,atvi,20200102
2020-01-02,11:36,11:36 AM,58.855,58.835,58.848,300,17654.5,2,58.915,58.83,58.874,23382,1376589.3338,66,58.835,58.855,58.914,58.855,-0.01642961006835928,-0.017144955843808967,atvi,20200102
2020-01-02,11:37,11:37 AM,58.86,58.86,58.86,53,3119.58,1,58.88,58.86,58.87,2800,164836.5,23,58.86,58.86,58.86,58.88,-0.016229045143821823,-0.017211732692275685,atvi,20200102
2020-01-02,11:38,11:38 AM,,,,0,0.0,0,58.92,58.897,58.909,500,29454.72,5,,,58.897,58.92,,-0.016560658419725954,atvi,20200102
2020-01-02,11:39,11:39 AM,,,,0,0.0,0,58.96,58.935,58.943,3100,182723.0,22,,,58.945,58.96,,-0.015993055207759562,atvi,20200102
2020-01-02,11:40,11:40 AM,58.965,58.965,58.965,100,5896.5,1,58.99,58.95,58.971,5016,295801.525,34,58.965,58.965,58.961,58.97,-0.014474102054119095,-0.015525617268493127,atvi,20200102
2020-01-02,11:41,11:41 AM,58.985,58.985,58.985,100,5898.5,1,58.997,58.971,58.987,4956,292340.732,32,58.985,58.985,58.971,58.995,-0.014139827179890084,-0.015258509874626491,atvi,20200102
2020-01-02,11:42,11:42 AM,59.01,59.01,59.01,100,5901.0,1,59.05,59.0,59.013,3617,213450.5,25,59.01,59.01,59.0,59.05,-0.01372198358710376,-0.014824460359593415,atvi,20200102
2020-01-02,11:43,11:43 AM,,,,0,0.0,0,59.12,59.06,59.078,1696,100197.1,14,,,59.06,59.12,,-0.01373933657201049,atvi,20200102
2020-01-02,11:44,11:44 AM,59.075,59.075,59.075,100,5907.5,1,59.11,59.075,59.087,2662,157291.02,16,59.075,59.075,59.11,59.075,-0.012635590245859174,-0.013589088662960552,atvi,20200102
2020-01-02,11:45,11:45 AM,59.11,59.09,59.102,302,17848.78,4,59.11,59.075,59.093,3815,225441.884,33,59.09,59.1,59.08,59.1,-0.012184319165650019,-0.013488923390260593,atvi,20200102
2020-01-02,11:46,11:46 AM,,,,0,0.0,0,59.12,59.092,59.11,3813,225385.7892,30,,,59.095,59.1,,-0.013205121784277456,atvi,20200102
2020-01-02,11:47,11:47 AM,,,,0,0.0,0,59.13,59.11,59.118,4240,250661.32,24,,,59.11,59.13,,-0.013071568087344138,atvi,20200102
2020-01-02,11:48,11:48 AM,59.165,59.165,59.165,100,5916.5,1,59.165,59.14,59.154,800,47323.5,8,59.165,59.165,59.14,59.165,-0.011131353311828381,-0.012470576451144386,atvi,20200102
2020-01-02,11:49,11:49 AM,59.18,59.18,59.18,100,5918.0,1,59.18,59.168,59.174,2846,168409.158,21,59.18,59.18,59.169,59.18,-0.010880647156156564,-0.01213669220881127,atvi,20200102
2020-01-02,11:50,11:50 AM,59.19,59.17,59.183,200,11836.52,4,59.198,59.155,59.178,3964,234583.9629,27,59.19,59.17,59.19,59.155,-0.0108305059250222,-0.01206991536034467,atvi,20200102
2020-01-02,11:51,11:51 AM,59.18,59.145,59.149,115,6802.13,3,59.187,59.145,59.168,10992,650375.8572,77,59.18,59.145,59.157,59.15,-0.011398773211211615,-0.012236857481511227,atvi,20200102
2020-01-02,11:52,11:52 AM,59.145,59.095,59.143,104,6150.88,2,59.15,59.09,59.111,27045,1598649.505,211,59.095,59.145,59.15,59.145,-0.011499055673480342,-0.013188427572160835,atvi,20200102
2020-01-02,11:53,11:53 AM,,,,0,0.0,0,59.13,59.115,59.121,1100,65033.5,11,,,59.13,59.12,,-0.013021485450994158,atvi,20200102
2020-01-02,11:54,11:54 AM,59.1,59.1,59.1,100,5910.0,1,59.11,59.095,59.105,1395,82450.831,12,59.1,59.1,59.11,59.108,-0.012217746653072849,-0.013288592844860794,atvi,20200102
2020-01-02,11:55,11:55 AM,,,,0,0.0,0,59.13,59.1,59.116,1800,106409.5,17,,,59.1,59.12,,-0.013104956511577497,atvi,20200102
2020-01-02,11:56,11:56 AM,,,,0,0.0,0,59.13,59.095,59.119,2594,153354.05,14,,,59.095,59.12,,-0.013054873875227517,atvi,20200102
2020-01-02,11:57,11:57 AM,,,,0,0.0,0,59.149,59.117,59.131,650,38435.025,6,,,59.117,59.149,,-0.0128545433298276,atvi,20200102
2020-01-02,11:58,11:58 AM,59.16,59.16,59.16,100,5916.0,2,59.17,59.155,59.167,1770,104725.25,16,59.16,59.16,59.165,59.155,-0.011214922030385694,-0.012253551693627848,atvi,20200102
2020-01-02,11:59,11:59 AM,,,,0,0.0,0,59.18,59.15,59.163,3417,202158.86,14,,,59.15,59.17,,-0.012320328542094566,atvi,20200102
2020-01-02,12:00,12 PM,,,,0,0.0,0,59.185,59.16,59.17,3596,212775.4416,7,,,59.17,59.16,,-0.012203469057277868,atvi,20200102
2020-01-02,12:01,12:01 PM,59.155,59.145,59.15,200,11830.0,2,59.155,59.112,59.142,2126,125734.852,18,59.155,59.145,59.155,59.112,-0.0113820594675002,-0.012670906996544303,atvi,20200102
2020-01-02,12:02,12:02 PM,,,,0,0.0,0,59.13,59.11,59.117,3300,195087.4,19,,,59.115,59.12,,-0.013088262299460876,atvi,20200102
2020-01-02,12:03,12:03 PM,,,,0,0.0,0,59.15,59.11,59.136,2600,153754.11,21,,,59.11,59.136,,-0.012771072269244262,atvi,20200102
2020-01-02,12:04,12:04 PM,59.115,59.115,59.115,82,4847.43,1,59.16,59.114,59.134,6078,359418.582,47,59.115,59.115,59.13,59.155,-0.01196704049740103,-0.012804460693477621,atvi,20200102
2020-01-02,12:05,12:05 PM,,,,0,0.0,0,59.16,59.13,59.148,4329,256051.0942,33,,,59.154,59.15,,-0.012570741723844344,atvi,20200102
2020-01-02,12:06,12:06 PM,,,,0,0.0,0,59.14,59.125,59.131,9635,569730.05,52,,,59.13,59.14,,-0.0128545433298276,atvi,20200102
2020-01-02,12:07,12:07 PM,59.13,59.105,59.124,400,23649.5,4,59.14,59.1,59.124,4800,283795.5,31,59.13,59.105,59.14,59.1,-0.01181661680399794,-0.012971402814644178,atvi,20200102
2020-01-02,12:08,12:08 PM,59.105,59.105,59.105,1000,59105.0,5,59.11,59.08,59.102,3201,189184.625,18,59.105,59.105,59.102,59.084,-0.012134177934515655,-0.013338675481210774,atvi,20200102
2020-01-02,12:09,12:09 PM,59.075,59.035,59.04,115,6789.625,2,59.08,59.01,59.038,11112,656033.2784,87,59.075,59.035,59.08,59.035,-0.013220571275760122,-0.01440710505667696,atvi,20200102
2020-01-02,12:10,12:10 PM,59.0,59.0,59.0,100,5900.0,1,59.03,58.99,59.009,10279,606558.4712,58,59.0,59.0,59.03,59.0,-0.013889121024218265,-0.014891237208060015,atvi,20200102
2020-01-02,12:11,12:11 PM,59.0,59.0,59.0,200,11800.0,1,59.015,58.96,58.998,12144,716471.08,69,59.0,59.0,59.003,58.97,-0.013889121024218265,-0.015074873541343313,atvi,20200102
2020-01-02,12:12,12:12 PM,59.015,58.995,59.008,300,17702.5,3,59.015,58.96,58.99,3736,220385.63,33,58.995,59.015,58.96,59.015,-0.013755411074526588,-0.015208427238276511,atvi,20200102
2020-01-02,12:13,12:13 PM,59.025,59.015,59.02,200,11804.0,2,59.025,58.995,59.005,2900,171113.3,18,59.015,59.025,59.015,59.02,-0.013554846149989135,-0.014958014056526615,atvi,20200102
2020-01-02,12:14,12:14 PM,,,,0,0.0,0,59.02,59.01,59.016,1099,64858.62,9,,,59.015,59.02,,-0.014774377723243436,atvi,20200102
2020-01-02,12:15,12:15 PM,,,,0,0.0,0,59.05,59.02,59.034,3946,232948.73,32,,,59.02,59.05,,-0.01447388190514356,atvi,20200102
2020-01-02,12:16,12:16 PM,59.055,59.055,59.055,200,11811.0,2,59.06,59.03,59.049,2993,176734.15,26,59.055,59.055,59.045,59.06,-0.012969865120088304,-0.014223468723393664,atvi,20200102
2020-01-02,12:17,12:17 PM,59.105,59.105,59.105,100,5910.5,1,59.11,59.08,59.096,2678,158259.315,17,59.105,59.105,59.08,59.11,-0.012134177934515655,-0.013438840753910733,atvi,20200102
2020-01-02,12:18,12:18 PM,59.12,59.1,59.11,200,11822.0,2,59.12,59.09,59.096,3630,214518.87,31,59.12,59.1,59.12,59.09,-0.012050609215958344,-0.013438840753910733,atvi,20200102
2020-01-02,12:19,12:19 PM,,,,0,0.0,0,59.11,59.09,59.106,2994,176962.52,25,,,59.096,59.105,,-0.013271898632744056,atvi,20200102
2020-01-02,12:20,12:20 PM,,,,0,0.0,0,59.1,59.085,59.091,769,45440.8633,6,,,59.1,59.085,,-0.013522311814493952,atvi,20200102
2020-01-02,12:21,12:21 PM,59.08,59.08,59.08,100,5908.0,1,59.085,59.075,59.08,1366,80702.7022,11,59.08,59.08,59.08,59.085,-0.01255202152730198,-0.01370594814777725,atvi,20200102
2020-01-02,12:22,12:22 PM,59.095,59.095,59.095,100,5909.5,1,59.1,59.08,59.093,3950,233418.67,27,59.095,59.095,59.09,59.08,-0.01230131537163016,-0.013488923390260593,atvi,20200102
2020-01-02,12:23,12:23 PM,,,,0,0.0,0,59.08,59.06,59.073,2534,149690.364,14,,,59.071,59.07,,-0.013822807632593827,atvi,20200102
2020-01-02,12:24,12:24 PM,59.085,59.085,59.085,100,5908.5,1,59.085,59.055,59.072,1388,81991.8317,12,59.085,59.085,59.08,59.055,-0.012468452808744666,-0.013839501844710448,atvi,20200102
2020-01-02,12:25,12:25 PM,,,,0,0.0,0,59.065,59.045,59.053,2886,170427.3102,21,,,59.055,59.045,,-0.014156691874927064,atvi,20200102
2020-01-02,12:26,12:26 PM,59.06,59.055,59.055,101,5964.56,2,59.06,59.04,59.056,5625,332192.75,19,59.06,59.055,59.05,59.04,-0.012969865120088304,-0.014106609238577084,atvi,20200102
2020-01-02,12:27,12:27 PM,59.04,59.04,59.04,1,59.04,1,59.045,59.032,59.041,2298,135675.3158,17,59.04,59.04,59.032,59.04,-0.013220571275760122,-0.01435702242032698,atvi,20200102
2020-01-02,12:28,12:28 PM,,,,0,0.0,0,59.04,59.003,59.022,2126,125480.755,17,,,59.04,59.01,,-0.014674212450543478,atvi,20200102
2020-01-02,12:29,12:29 PM,59.03,59.03,59.03,30,1770.9,2,59.045,59.005,59.027,3175,187412.23,30,59.03,59.03,59.005,59.045,-0.013387708712874629,-0.01459074138996014,atvi,20200102
2020-01-02,12:30,12:30 PM,,,,0,0.0,0,59.05,59.02,59.036,2015,118958.5,18,,,59.04,59.05,,-0.014440493480910201,atvi,20200102
2020-01-02,12:31,12:31 PM,59.05,59.05,59.05,1,59.05,1,59.085,59.06,59.069,2474,146135.98,18,59.05,59.05,59.06,59.075,-0.013053433838645616,-0.013889584481060428,atvi,20200102
2020-01-02,12:32,12:32 PM,59.07,59.06,59.063,308,18191.48,4,59.08,59.055,59.069,2863,169115.95,22,59.07,59.06,59.079,59.07,-0.012836155170396627,-0.013889584481060428,atvi,20200102
2020-01-02,12:33,12:33 PM,,,,0,0.0,0,59.06,59.035,59.042,1834,108282.925,14,,,59.06,59.035,,-0.014340328208210242,atvi,20200102
2020-01-02,12:34,12:34 PM,,,,0,0.0,0,59.077,59.055,59.066,3697,218368.9044,22,,,59.055,59.065,,-0.013939667117410407,atvi,20200102
2020-01-02,12:35,12:35 PM,59.08,59.045,59.08,101,5967.045,2,59.08,59.035,59.056,4241,250457.14,32,59.045,59.08,59.06,59.08,-0.01255202152730198,-0.014106609238577084,atvi,20200102
2020-01-02,12:36,12:36 PM,59.12,59.11,59.114,403,23822.83,5,59.13,59.09,59.11,9939,587499.1649,37,59.11,59.11,59.09,59.11,-0.011983754241112563,-0.013205121784277456,atvi,20200102
2020-01-02,12:37,12:37 PM,59.09,59.085,59.088,300,17726.5,3,59.1,59.08,59.084,3038,179497.87,14,59.09,59.085,59.1,59.09,-0.012418311577610303,-0.013639171299310532,atvi,20200102
2020-01-02,12:38,12:38 PM,59.09,59.075,59.083,200,11816.5,2,59.096,59.06,59.085,3410,201479.327,30,59.09,59.075,59.083,59.06,-0.012501880296167616,-0.013622477087193911,atvi,20200102
2020-01-02,12:39,12:39 PM,59.06,59.045,59.054,4218,249091.58,8,59.07,59.045,59.057,13893,820475.475,88,59.055,59.06,59.07,59.055,-0.01298657886379972,-0.014089915026460346,atvi,20200102
2020-01-02,12:40,12:40 PM,,,,0,0.0,0,59.06,59.035,59.049,3756,221786.865,25,,,59.056,59.06,,-0.014223468723393664,atvi,20200102
2020-01-02,12:41,12:41 PM,59.06,59.06,59.06,200,11812.0,3,59.06,59.035,59.055,7237,427380.265,62,59.06,59.06,59.053,59.035,-0.012886296401530991,-0.014123303450693705,atvi,20200102
2020-01-02,12:42,12:42 PM,59.03,58.975,58.992,716,42238.575,7,59.04,58.97,59.006,17106,1009356.511,107,59.03,58.975,59.04,58.974,-0.01402283097390994,-0.014941319844409995,atvi,20200102
2020-01-02,12:43,12:43 PM,58.95,58.945,58.945,110,6484.0,2,58.97,58.94,58.955,4662,274847.8434,39,58.945,58.95,58.97,58.97,-0.014808376928348226,-0.015792724662359644,atvi,20200102
2020-01-02,12:44,12:44 PM,58.965,58.95,58.958,200,11791.5,2,58.97,58.945,58.959,3487,205591.147,29,58.95,58.965,58.965,58.97,-0.014591098260099357,-0.015725947813892926,atvi,20200102
2020-01-02,12:45,12:45 PM,58.985,58.975,58.98,500,29490.0,5,58.99,58.975,58.98,5045,297555.605,37,58.975,58.98,58.975,58.977,-0.014223395898447396,-0.015375369359443189,atvi,20200102
2020-01-02,12:46,12:46 PM,59.0,58.985,58.985,201,11856.0,3,59.0,58.975,58.99,3477,205106.93,28,58.985,58.985,58.98,58.98,-0.014139827179890084,-0.015208427238276511,atvi,20200102
2020-01-02,12:47,12:47 PM,58.97,58.97,58.97,700,41279.0,5,58.98,58.96,58.97,3559,209873.32,26,58.97,58.97,58.98,58.965,-0.014390533335561902,-0.015542311480609746,atvi,20200102
2020-01-02,12:48,12:48 PM,58.96,58.95,58.953,362,21341.02,4,58.97,58.95,58.956,4469,263474.3275,30,58.95,58.96,58.96,58.955,-0.014674666978656551,-0.015776030450242905,atvi,20200102
2020-01-02,12:49,12:49 PM,58.965,58.955,58.962,241,14209.845,4,58.97,58.95,58.966,20569,1212867.335,50,58.96,58.955,58.96,58.95,-0.014524243285253459,-0.015609088329076346,atvi,20200102
2020-01-02,12:50,12:50 PM,58.95,58.935,58.944,400,23577.5,3,58.95,58.935,58.947,5560,327745.375,25,58.95,58.94,58.95,58.947,-0.014825090672059641,-0.015926278359292844,atvi,20200102
2020-01-02,12:51,12:51 PM,58.95,58.935,58.947,600,35368.0,6,58.95,58.932,58.947,5624,331517.6,45,58.945,58.935,58.945,58.94,-0.014774949440925278,-0.015926278359292844,atvi,20200102
2020-01-02,12:52,12:52 PM,58.98,58.945,58.95,827,48751.675,10,58.98,58.92,58.95,42674,2515644.47,320,58.945,58.95,58.945,58.95,-0.014724808209790914,-0.015876195722942864,atvi,20200102
2020-01-02,12:53,12:53 PM,58.945,58.945,58.945,300,17683.5,3,58.95,58.94,58.946,1824,107517.3939,14,58.945,58.945,58.945,58.945,-0.014808376928348226,-0.015942972571409583,atvi,20200102
2020-01-02,12:54,12:54 PM,58.975,58.945,58.96,402,23701.91,5,58.99,58.945,58.961,6379,376114.895,35,58.945,58.965,58.945,58.965,-0.014557670772676409,-0.015692559389659685,atvi,20200102
2020-01-02,12:55,12:55 PM,58.995,58.985,58.99,200,11798.0,2,59.0,58.97,58.983,3157,186208.615,25,58.995,58.985,58.97,58.985,-0.014056258461332771,-0.015325286723093209,atvi,20200102
2020-01-02,12:56,12:56 PM,58.985,58.96,58.972,200,11794.5,2,58.985,58.94,58.96,4795,282712.9,39,58.985,58.96,58.985,58.94,-0.014357105848138953,-0.015709253601776305,atvi,20200102
2020-01-02,12:57,12:57 PM,58.94,58.94,58.94,3,176.82,1,58.945,58.93,58.934,5671,334215.94,27,58.94,58.94,58.941,58.93,-0.01489194564690554,-0.016143303116809497,atvi,20200102
2020-01-02,12:58,12:58 PM,58.925,58.905,58.909,311,18320.665,5,58.93,58.905,58.914,6630,390601.095,49,58.925,58.91,58.93,58.93,-0.015410071701960591,-0.016477187359142616,atvi,20200102
2020-01-02,12:59,12:59 PM,58.93,58.9,58.917,300,17675.0,3,58.935,58.89,58.914,6703,394899.69,36,58.93,58.9,58.925,58.89,-0.015276361752268914,-0.016477187359142616,atvi,20200102
2020-01-02,13:00,1 PM,58.9,58.885,58.89,260,15311.44,4,58.9,58.885,58.891,2781,163776.99,25,58.895,58.885,58.895,58.885,-0.01572763283247819,-0.01686115423782583,atvi,20200102
2020-01-02,13:01,1:01 PM,58.9,58.89,58.897,302,17786.78,5,58.9,58.88,58.891,3448,203054.79,27,58.895,58.89,58.89,58.88,-0.015610636626498045,-0.01686115423782583,atvi,20200102
2020-01-02,13:02,1:02 PM,58.87,58.805,58.846,1374,80854.74,16,58.87,58.805,58.846,17354,1021209.0634,135,58.87,58.805,58.865,58.805,-0.01646303755578223,-0.01761239378307552,atvi,20200102
2020-01-02,13:03,1:03 PM,58.8,58.785,58.799,2347,138001.07,30,58.8,58.78,58.799,34467,2026611.369,229,58.8,58.8,58.8,58.8,-0.017248583510220513,-0.018397021752558453,atvi,20200102
2020-01-02,13:04,1:04 PM,58.8,58.795,58.799,800,47039.0,8,58.8,58.79,58.796,9236,543044.0021,51,58.795,58.8,58.8,58.8,-0.017248583510220513,-0.018447104388908432,atvi,20200102
2020-01-02,13:05,1:05 PM,58.765,58.765,58.765,100,5876.5,1,58.8,58.75,58.771,9279,545333.87,76,58.765,58.765,58.8,58.755,-0.01781685079640993,-0.018864459691824886,atvi,20200102
2020-01-02,13:06,1:06 PM,58.755,58.745,58.75,200,11750.0,2,58.76,58.745,58.752,3249,190886.9,26,58.755,58.745,58.755,58.745,-0.01806755695208175,-0.019181649722041384,atvi,20200102
2020-01-02,13:07,1:07 PM,58.745,58.745,58.745,127,7460.615,4,58.75,58.74,58.744,2814,165306.337,16,58.745,58.745,58.745,58.74,-0.01815112567063906,-0.0193152034189747,atvi,20200102
2020-01-02,13:08,1:08 PM,58.74,58.735,58.737,305,17914.69,6,58.745,58.73,58.741,6440,378292.248,40,58.735,58.74,58.74,58.74,-0.018284835620330616,-0.01936528605532468,atvi,20200102
2020-01-02,13:09,1:09 PM,58.745,58.735,58.743,500,29371.5,4,58.745,58.735,58.74,5949,349445.41,45,58.735,58.745,58.74,58.745,-0.01818455315806189,-0.0193819802674413,atvi,20200102
2020-01-02,13:10,1:10 PM,58.79,58.745,58.755,230,13513.7,3,58.799,58.74,58.761,5336,313550.5578,45,58.745,58.79,58.75,58.799,-0.017983988233524435,-0.019031401812991445,atvi,20200102
2020-01-02,13:11,1:11 PM,58.78,58.775,58.775,106,6230.18,3,58.79,58.761,58.777,2159,126899.0053,19,58.78,58.775,58.79,58.765,-0.017649713359295424,-0.018764294419124927,atvi,20200102
2020-01-02,13:12,1:12 PM,58.76,58.745,58.752,200,11750.5,2,58.761,58.74,58.754,4583,269269.35,31,58.745,58.76,58.76,58.761,-0.018034129464658797,-0.019148261297808142,atvi,20200102
2020-01-02,13:13,1:13 PM,58.805,58.76,58.778,300,17633.5,3,58.83,58.76,58.782,9844,578651.07,39,58.76,58.805,58.76,58.82,-0.01759957212816106,-0.018680823358541706,atvi,20200102
2020-01-02,13:14,1:14 PM,58.81,58.785,58.797,200,11759.5,2,58.81,58.78,58.802,6192,364104.6268,48,58.81,58.785,58.81,58.785,-0.01728201099764346,-0.018346939116208473,atvi,20200102
2020-01-02,13:15,1:15 PM,58.78,58.725,58.76,1381,81147.7,14,58.785,58.72,58.759,14505,852298.6858,114,58.78,58.725,58.785,58.725,-0.01790041951496724,-0.019064790237224804,atvi,20200102
2020-01-02,13:16,1:16 PM,58.745,58.725,58.735,200,11747.0,2,58.75,58.713,58.723,6090,357622.926,37,58.725,58.745,58.72,58.745,-0.018318263107753564,-0.019665781873424555,atvi,20200102
2020-01-02,13:17,1:17 PM,58.745,58.72,58.734,305,17913.775,5,58.75,58.73,58.737,4019,236063.2073,23,58.745,58.72,58.75,58.73,-0.01833497685146498,-0.019432062903791278,atvi,20200102
2020-01-02,13:18,1:18 PM,58.725,58.725,58.725,100,5872.5,1,58.74,58.725,58.73,2000,117459.0,18,58.725,58.725,58.725,58.735,-0.018485400544868073,-0.019548922388607975,atvi,20200102
2020-01-02,13:19,1:19 PM,58.745,58.745,58.745,100,5874.5,1,58.745,58.735,58.744,1702,99982.275,8,58.745,58.745,58.735,58.74,-0.01815112567063906,-0.0193152034189747,atvi,20200102
2020-01-02,13:20,1:20 PM,58.75,58.74,58.748,1206,70849.985,9,58.75,58.735,58.747,9893,581185.995,81,58.74,58.745,58.74,58.74,-0.018100984439504697,-0.019265120782624722,atvi,20200102
2020-01-02,13:21,1:21 PM,58.75,58.745,58.748,203,11925.75,3,58.75,58.74,58.747,4432,260366.7,32,58.745,58.75,58.74,58.745,-0.018100984439504697,-0.019265120782624722,atvi,20200102
2020-01-02,13:22,1:22 PM,58.76,58.735,58.749,1087,63860.375,11,58.76,58.735,58.751,8163,479583.365,69,58.75,58.745,58.75,58.74,-0.018084270695793162,-0.019198343934158122,atvi,20200102
2020-01-02,13:23,1:23 PM,58.735,58.735,58.735,100,5873.5,1,58.75,58.725,58.742,3948,231913.5078,30,58.735,58.735,58.745,58.745,-0.018318263107753564,-0.01934859184320806,atvi,20200102
2020-01-02,13:24,1:24 PM,58.73,58.73,58.73,100,5873.0,2,58.745,58.723,58.73,4828,283549.5621,32,58.73,58.73,58.735,58.73,-0.018401831826310878,-0.019548922388607975,atvi,20200102
2020-01-02,13:25,1:25 PM,58.735,58.69,58.717,537,31530.91,9,58.74,58.68,58.705,8773,515015.36,69,58.735,58.69,58.74,58.69,-0.01861911049455975,-0.019966277691524432,atvi,20200102
2020-01-02,13:26,1:26 PM,,,,0,0.0,0,58.7,58.68,58.686,3051,179051.6506,23,,,58.684,58.68,,-0.020283467721740927,atvi,20200102
2020-01-02,13:27,1:27 PM,58.69,58.69,58.69,8,469.52,1,58.71,58.685,58.699,4840,284103.85,37,58.69,58.69,58.69,58.685,-0.01907038157476902,-0.02006644296422439,atvi,20200102
2020-01-02,13:28,1:28 PM,58.72,58.695,58.703,9,528.325,3,58.72,58.685,58.705,6531,383401.625,47,58.695,58.72,58.69,58.715,-0.018853102906520033,-0.019966277691524432,atvi,20200102
2020-01-02,13:29,1:29 PM,58.715,58.715,58.715,86,5049.49,1,58.72,58.71,58.715,1275,74861.2266,9,58.715,58.715,58.71,58.715,-0.01865253798198258,-0.019799335570357755,atvi,20200102
2020-01-02,13:30,1:30 PM,58.71,58.71,58.71,101,5929.71,2,58.714,58.7,58.711,2131,125112.4141,14,58.71,58.71,58.71,58.71,-0.01873610670053989,-0.019866112418824473,atvi,20200102
2020-01-02,13:31,1:31 PM,,,,0,0.0,0,58.74,58.72,58.725,6456,379131.82,33,,,58.72,58.74,,-0.019632393449191196,atvi,20200102
2020-01-02,13:32,1:32 PM,,,,0,0.0,0,58.75,58.733,58.739,3261,191549.83,22,,,58.735,58.74,,-0.01939867447955804,atvi,20200102
2020-01-02,13:33,1:33 PM,58.73,58.73,58.73,100,5873.0,2,58.74,58.715,58.726,2700,158561.5,25,58.73,58.73,58.73,58.73,-0.018401831826310878,-0.019615699237074576,atvi,20200102
2020-01-02,13:34,1:34 PM,58.725,58.725,58.725,200,11745.0,3,58.73,58.72,58.726,2426,142468.42,15,58.725,58.725,58.72,58.725,-0.018485400544868073,-0.019615699237074576,atvi,20200102
2020-01-02,13:35,1:35 PM,58.72,58.72,58.72,206,12096.32,3,58.73,58.72,58.721,11040,648282.414,48,58.72,58.72,58.725,58.73,-0.018568969263425383,-0.019699170297657914,atvi,20200102
2020-01-02,13:36,1:36 PM,58.725,58.71,58.717,791,46445.515,9,58.735,58.705,58.718,9147,537096.3,75,58.72,58.725,58.725,58.73,-0.01861911049455975,-0.019749252934007776,atvi,20200102
2020-01-02,13:37,1:37 PM,,,,0,0.0,0,58.75,58.72,58.729,7653,449450.11,45,,,58.74,58.73,,-0.019565616600724596,atvi,20200102
2020-01-02,13:38,1:38 PM,58.745,58.745,58.745,100,5874.5,1,58.745,58.736,58.741,2135,125412.5894,13,58.745,58.745,58.739,58.745,-0.01815112567063906,-0.01936528605532468,atvi,20200102
2020-01-02,13:39,1:39 PM,58.705,58.69,58.705,200,11740.985,3,58.75,58.69,58.713,10746,630931.6199,70,58.69,58.705,58.74,58.7,-0.018819675419097202,-0.019832723994591114,atvi,20200102
2020-01-02,13:40,1:40 PM,,,,0,0.0,0,58.71,58.685,58.693,1479,86806.7877,7,,,58.706,58.695,,-0.02016660823692435,atvi,20200102
2020-01-02,13:41,1:41 PM,,,,0,0.0,0,58.7,58.68,58.687,2545,149359.6303,17,,,58.696,58.68,,-0.020266773509624306,atvi,20200102
2020-01-02,13:42,1:42 PM,,,,0,0.0,0,58.695,58.675,58.687,4491,263562.79,29,,,58.684,58.695,,-0.020266773509624306,atvi,20200102
2020-01-02,13:43,1:43 PM,58.7,58.7,58.7,100,5870.0,1,58.705,58.695,58.702,1677,98442.5254,10,58.7,58.7,58.695,58.705,-0.018903244137654394,-0.020016360327874412,atvi,20200102
2020-01-02,13:44,1:44 PM,,,,0,0.0,0,58.71,58.695,58.705,2521,147995.71,21,,,58.702,58.705,,-0.019966277691524432,atvi,20200102
2020-01-02,13:45,1:45 PM,,,,0,0.0,0,58.72,58.71,58.718,2549,149671.735,19,,,58.71,58.715,,-0.019749252934007776,atvi,20200102
2020-01-02,13:46,1:46 PM,58.73,58.72,58.72,82,4815.05,3,58.725,58.715,58.719,1125,66058.5,10,58.73,58.72,58.72,58.72,-0.018568969263425383,-0.019732558721891155,atvi,20200102
2020-01-02,13:47,1:47 PM,,,,0,0.0,0,58.81,58.725,58.76,3685,216531.595,33,,,58.73,58.8,,-0.019048096025108183,atvi,20200102
2020-01-02,13:48,1:48 PM,58.84,58.8,58.817,601,35348.84,7,58.835,58.8,58.809,14245,837736.254,92,58.83,58.8,58.8,58.8,-0.016947736123414332,-0.018230079631391893,atvi,20200102
2020-01-02,13:49,1:49 PM,58.79,58.75,58.763,753,44248.5,11,58.8,58.745,58.783,18560,1091016.775,112,58.79,58.76,58.8,58.76,-0.017850278283832878,-0.018664129146424967,atvi,20200102
2020-01-02,13:50,1:50 PM,58.755,58.755,58.755,78,4582.89,1,58.76,58.755,58.76,8300,487703.99,61,58.755,58.755,58.76,58.755,-0.017983988233524435,-0.019048096025108183,atvi,20200102
2020-01-02,13:51,1:51 PM,58.76,58.71,58.741,907,53278.11,9,58.76,58.7,58.733,15380,903312.1105,127,58.76,58.71,58.76,58.71,-0.018217980645484837,-0.019498839752257996,atvi,20200102
2020-01-02,13:52,1:52 PM,58.7,58.7,58.7,1,58.7,1,58.71,58.69,58.701,3237,190015.07,23,58.7,58.7,58.71,58.695,-0.018903244137654394,-0.020033054539991033,atvi,20200102
2020-01-02,13:53,1:53 PM,58.695,58.69,58.691,30,1760.72,2,58.7,58.67,58.688,8109,475899.16,60,58.695,58.69,58.7,58.695,-0.019053667831057487,-0.020250079297507568,atvi,20200102
2020-01-02,13:54,1:54 PM,,,,0,0.0,0,58.72,58.71,58.715,850,49907.425,7,,,58.71,58.72,,-0.019799335570357755,atvi,20200102
2020-01-02,13:55,1:55 PM,58.77,58.77,58.77,100,5877.0,1,58.775,58.72,58.739,3908,229551.492,29,58.77,58.77,58.72,58.775,-0.017733282077852616,-0.01939867447955804,atvi,20200102
2020-01-02,13:56,1:56 PM,58.78,58.78,58.78,102,5995.56,3,58.79,58.78,58.783,3284,193043.68,20,58.78,58.78,58.78,58.78,-0.01756614464073811,-0.018664129146424967,atvi,20200102
2020-01-02,13:57,1:57 PM,58.785,58.78,58.78,212,12461.37,3,58.785,58.765,58.774,2079,122191.555,18,58.785,58.78,58.77,58.785,-0.01756614464073811,-0.018814377055474906,atvi,20200102
2020-01-02,13:58,1:58 PM,58.78,58.705,58.752,1120,65801.825,15,58.78,58.7,58.749,17676,1038451.313,105,58.78,58.705,58.78,58.7,-0.018034129464658797,-0.019231732358391363,atvi,20200102
2020-01-02,13:59,1:59 PM,58.71,58.7,58.709,13,763.22,2,58.71,58.7,58.706,7614,446987.325,43,58.71,58.7,58.71,58.7,-0.018752820444251306,-0.019949583479407694,atvi,20200102
2020-01-02,14:00,2 PM,58.695,58.695,58.695,4,234.78,1,58.71,58.69,58.699,2154,126437.5296,20,58.695,58.695,58.7,58.71,-0.018986812856211708,-0.02006644296422439,atvi,20200102
2020-01-02,14:01,2:01 PM,,,,0,0.0,0,58.71,58.7,58.709,4500,264191.84,41,,,58.7,58.71,,-0.019899500843057714,atvi,20200102
2020-01-02,14:02,2:02 PM,58.71,58.675,58.693,226,13264.59,5,58.72,58.67,58.697,12039,706650.27,87,58.71,58.675,58.71,58.695,-0.019020240343634656,-0.020099831388457633,atvi,20200102
2020-01-02,14:03,2:03 PM,,,,0,0.0,0,58.7,58.68,58.69,2450,143790.91,19,,,58.69,58.695,,-0.02021669087327433,atvi,20200102
2020-01-02,14:04,2:04 PM,58.755,58.745,58.75,200,11750.0,2,58.755,58.7,58.724,4233,248581.12,34,58.745,58.755,58.7,58.755,-0.01806755695208175,-0.019649087661307935,atvi,20200102
2020-01-02,14:05,2:05 PM,58.755,58.755,58.755,111,6521.805,1,58.76,58.75,58.757,3011,176918.095,24,58.755,58.755,58.755,58.755,-0.017983988233524435,-0.019098178661458163,atvi,20200102
2020-01-02,14:06,2:06 PM,58.745,58.74,58.742,19,1116.105,4,58.76,58.74,58.748,2791,163966.675,24,58.745,58.74,58.76,58.745,-0.018201266901773424,-0.0192484265705081,atvi,20200102
2020-01-02,14:07,2:07 PM,58.74,58.725,58.732,204,11981.42,3,58.75,58.725,58.739,2762,162238.7,21,58.74,58.725,58.747,58.735,-0.01836840433888793,-0.01939867447955804,atvi,20200102
2020-01-02,14:08,2:08 PM,58.725,58.7,58.709,700,41096.5,7,58.731,58.68,58.7,13091,768439.213,100,58.725,58.7,58.731,58.7,-0.018752820444251306,-0.020049748752107653,atvi,20200102
2020-01-02,14:09,2:09 PM,,,,0,0.0,0,58.74,58.69,58.702,11686,685990.2256,85,,,58.7,58.74,,-0.020016360327874412,atvi,20200102
2020-01-02,14:10,2:10 PM,58.75,58.75,58.75,4,235.0,1,58.8,58.75,58.77,2565,150744.03,23,58.75,58.75,58.75,58.8,-0.01806755695208175,-0.018881153903941506,atvi,20200102
2020-01-02,14:11,2:11 PM,58.81,58.8,58.806,8,470.445,3,58.805,58.795,58.801,1087,63916.6,10,58.805,58.8,58.795,58.805,-0.01713158730424037,-0.018363633328325094,atvi,20200102
2020-01-02,14:12,2:12 PM,,,,0,0.0,0,58.82,58.8,58.81,1200,70572.0,12,,,58.81,58.8,,-0.018213385419275155,atvi,20200102
2020-01-02,14:13,2:13 PM,58.815,58.81,58.811,11,646.92,3,58.82,58.8,58.808,6142,361196.8289,39,58.815,58.81,58.8,58.805,-0.01704801858568306,-0.018246773843508514,atvi,20200102
2020-01-02,14:14,2:14 PM,58.81,58.785,58.798,121,7114.605,6,58.815,58.79,58.803,3990,234622.4525,33,58.81,58.79,58.81,58.8,-0.01726529725393193,-0.018330244904091852,atvi,20200102
2020-01-02,14:15,2:15 PM,58.79,58.765,58.786,311,18282.52,9,58.8,58.77,58.785,5342,314030.68,41,58.79,58.77,58.79,58.78,-0.017465862178469384,-0.018630740722191726,atvi,20200102
2020-01-02,14:16,2:16 PM,58.79,58.79,58.79,3,176.37,1,58.8,58.78,58.788,3076,180831.5,24,58.79,58.79,58.782,58.78,-0.017399007203623605,-0.01858065808584175,atvi,20200102
2020-01-02,14:17,2:17 PM,,,,0,0.0,0,58.78,58.775,58.779,710,41732.8,3,,,58.78,58.775,,-0.018730905994891568,atvi,20200102
2020-01-02,14:18,2:18 PM,58.765,58.765,58.765,1,58.765,1,58.78,58.765,58.775,6247,367167.445,27,58.765,58.765,58.78,58.78,-0.01781685079640993,-0.018797682843358286,atvi,20200102
2020-01-02,14:19,2:19 PM,58.77,58.7,58.724,2338,137295.96,30,58.775,58.7,58.722,46928,2755731.437,379,58.77,58.7,58.775,58.7,-0.018502114288579605,-0.019682476085541176,atvi,20200102
2020-01-02,14:20,2:20 PM,58.695,58.675,58.687,510,29930.365,9,58.7,58.67,58.689,7212,423268.49,61,58.69,58.695,58.69,58.7,-0.019120522805903383,-0.020233385085390947,atvi,20200102
2020-01-02,14:21,2:21 PM,,,,0,0.0,0,58.7,58.69,58.696,1300,76304.62,13,,,58.697,58.695,,-0.02011652560057437,atvi,20200102
2020-01-02,14:22,2:22 PM,58.685,58.675,58.68,200,11736.0,2,58.7,58.67,58.691,5226,306719.73,38,58.675,58.685,58.7,58.68,-0.019237519011883527,-0.02019999666115759,atvi,20200102
2020-01-02,14:23,2:23 PM,58.68,58.665,58.675,301,17661.18,4,58.685,58.66,58.675,7145,419232.37,57,58.68,58.665,58.685,58.68,-0.01932108773044084,-0.020467104055024225,atvi,20200102
2020-01-02,14:24,2:24 PM,58.69,58.69,58.69,2,117.38,1,58.69,58.675,58.686,4100,240612.5,18,58.69,58.69,58.69,58.69,-0.01907038157476902,-0.020283467721740927,atvi,20200102
2020-01-02,14:25,2:25 PM,58.68,58.655,58.663,701,41123.18,4,58.69,58.655,58.669,7690,451162.715,61,58.68,58.665,58.685,58.68,-0.019521652654978294,-0.020567269327724184,atvi,20200102
2020-01-02,14:26,2:26 PM,58.68,58.68,58.68,21,1232.28,3,58.685,58.67,58.679,3046,178736.0395,18,58.68,58.68,58.685,58.675,-0.019237519011883527,-0.020400327206557507,atvi,20200102
2020-01-02,14:27,2:27 PM,58.675,58.675,58.675,100,5867.5,1,58.7,58.675,58.691,4481,262992.1542,32,58.675,58.675,58.675,58.688,-0.01932108773044084,-0.02019999666115759,atvi,20200102
2020-01-02,14:28,2:28 PM,58.69,58.69,58.69,1,58.69,1,58.695,58.68,58.689,700,41082.4,7,58.69,58.69,58.69,58.685,-0.01907038157476902,-0.020233385085390947,atvi,20200102
2020-01-02,14:29,2:29 PM,58.665,58.655,58.658,300,17597.5,3,58.69,58.655,58.677,2831,166113.51,26,58.665,58.655,58.68,58.655,-0.019605221373535486,-0.020433715630790866,atvi,20200102
2020-01-02,14:30,2:30 PM,58.65,58.65,58.65,165,9677.25,2,58.667,58.64,58.648,10603,621839.5075,42,58.65,58.65,58.655,58.65,-0.019738931323227165,-0.020917847782173923,atvi,20200102
2020-01-02,14:31,2:31 PM,58.65,58.645,58.648,200,11729.5,2,58.65,58.635,58.646,7698,451456.165,50,58.65,58.645,58.65,58.65,-0.019772358810649995,-0.02095123620640728,atvi,20200102
2020-01-02,14:32,2:32 PM,,,,0,0.0,0,58.667,58.65,58.657,2783,163242.888,20,,,58.65,58.661,,-0.020767599873124102,atvi,20200102
2020-01-02,14:33,2:33 PM,58.68,58.66,58.672,601,35262.18,3,58.685,58.655,58.669,6795,398658.2418,42,58.68,58.66,58.67,58.655,-0.019371228961575202,-0.020567269327724184,atvi,20200102
2020-01-02,14:34,2:34 PM,58.66,58.66,58.66,2,117.32,1,58.66,58.63,58.643,5677,332917.135,35,58.66,58.66,58.655,58.635,-0.019571793886112656,-0.021001318842757258,atvi,20200102
2020-01-02,14:35,2:35 PM,,,,0,0.0,0,58.64,58.63,58.632,3524,206617.92,29,,,58.63,58.63,,-0.021184955176040556,atvi,20200102
2020-01-02,14:36,2:36 PM,58.635,58.635,58.635,213,12489.255,2,58.65,58.631,58.641,3871,226997.4973,22,58.635,58.635,58.635,58.65,-0.01998963747889898,-0.02103470726699062,atvi,20200102
2020-01-02,14:37,2:37 PM,58.63,58.63,58.63,100,5863.0,1,58.67,58.62,58.641,8471,496748.8188,59,58.63,58.63,58.645,58.67,-0.020073206197456176,-0.02103470726699062,atvi,20200102
2020-01-02,14:38,2:38 PM,,,,0,0.0,0,58.7,58.67,58.691,3941,231300.9245,24,,,58.67,58.69,,-0.02019999666115759,atvi,20200102
2020-01-02,14:39,2:39 PM,58.655,58.655,58.655,100,5865.5,1,58.685,58.65,58.671,7501,440089.0138,42,58.655,58.655,58.68,58.66,-0.01965536260466985,-0.020533880903490825,atvi,20200102
2020-01-02,14:40,2:40 PM,58.675,58.66,58.665,200,11733.025,5,58.68,58.65,58.665,2901,170186.045,24,58.66,58.67,58.65,58.675,-0.019488225167555346,-0.020634046176190784,atvi,20200102
2020-01-02,14:41,2:41 PM,58.68,58.67,58.678,122,7158.74,2,58.69,58.665,58.677,3102,182016.258,29,58.68,58.67,58.675,58.665,-0.019270946499306475,-0.020433715630790866,atvi,20200102
2020-01-02,14:42,2:42 PM,58.68,58.68,58.68,100,5868.0,1,58.69,58.665,58.672,3728,218729.0536,27,58.68,58.68,58.665,58.69,-0.019237519011883527,-0.020517186691374204,atvi,20200102
2020-01-02,14:43,2:43 PM,,,,0,0.0,0,58.695,58.68,58.687,2835,166376.475,21,,,58.685,58.695,,-0.020266773509624306,atvi,20200102
2020-01-02,14:44,2:44 PM,,,,0,0.0,0,58.72,58.695,58.705,5290,310550.85,47,,,58.695,58.71,,-0.019966277691524432,atvi,20200102
2020-01-02,14:45,2:45 PM,58.71,58.71,58.71,100,5871.0,1,58.71,58.675,58.692,11351,666211.1355,62,58.71,58.71,58.71,58.68,-0.01873610670053989,-0.020183302449040968,atvi,20200102
2020-01-02,14:46,2:46 PM,,,,0,0.0,0,58.681,58.67,58.677,1492,87545.5452,11,,,58.68,58.68,,-0.020433715630790866,atvi,20200102
2020-01-02,14:47,2:47 PM,58.68,58.68,58.68,5,293.4,1,58.69,58.67,58.678,5298,310875.7268,44,58.68,58.68,58.68,58.685,-0.019237519011883527,-0.020417021418674245,atvi,20200102
2020-01-02,14:48,2:48 PM,58.69,58.685,58.687,238,13967.465,3,58.69,58.68,58.687,6744,395787.64,54,58.685,58.69,58.685,58.69,-0.019120522805903383,-0.020266773509624306,atvi,20200102
2020-01-02,14:49,2:49 PM,58.71,58.71,58.71,6,352.26,1,58.715,58.685,58.703,9250,543003.7,62,58.71,58.71,58.685,58.715,-0.01873610670053989,-0.019999666115757674,atvi,20200102
2020-01-02,14:50,2:50 PM,58.705,58.705,58.705,106,6222.73,1,58.71,58.7,58.706,3706,217564.43,29,58.705,58.705,58.71,58.7,-0.018819675419097202,-0.019949583479407694,atvi,20200102
2020-01-02,14:51,2:51 PM,58.74,58.69,58.714,507,29768.095,7,58.749,58.69,58.721,7407,434947.7811,50,58.69,58.735,58.69,58.74,-0.01866925172569411,-0.019699170297657914,atvi,20200102
2020-01-02,14:52,2:52 PM,,,,0,0.0,0,58.75,58.74,58.742,4330,254355.03,29,,,58.74,58.745,,-0.01934859184320806,atvi,20200102
2020-01-02,14:53,2:53 PM,58.74,58.725,58.73,220,12920.725,6,58.74,58.72,58.731,6233,366071.42,39,58.74,58.73,58.74,58.73,-0.018401831826310878,-0.019532228176491237,atvi,20200102
2020-01-02,14:54,2:54 PM,58.73,58.73,58.73,100,5873.0,1,58.735,58.725,58.729,2903,170489.175,23,58.73,58.73,58.725,58.73,-0.018401831826310878,-0.019565616600724596,atvi,20200102
2020-01-02,14:55,2:55 PM,58.725,58.72,58.723,13,763.395,3,58.73,58.715,58.719,2795,164121.25,25,58.72,58.725,58.72,58.73,-0.01851882803229102,-0.019732558721891155,atvi,20200102
2020-01-02,14:56,2:56 PM,58.725,58.715,58.716,87,5108.27,3,58.72,58.71,58.718,3619,212502.295,22,58.715,58.725,58.72,58.72,-0.018635824238271162,-0.019749252934007776,atvi,20200102
2020-01-02,14:57,2:57 PM,58.72,58.715,58.715,2879,169040.49,2,58.725,58.71,58.717,5678,333392.71,16,58.715,58.72,58.715,58.715,-0.01865253798198258,-0.019765947146124514,atvi,20200102
2020-01-02,14:58,2:58 PM,58.72,58.705,58.71,762,44737.21,9,58.724,58.705,58.715,11774,691305.3926,79,58.705,58.72,58.715,58.72,-0.01873610670053989,-0.019799335570357755,atvi,20200102
2020-01-02,14:59,2:59 PM,,,,0,0.0,0,58.76,58.7,58.702,108861,6390341.9593,67,,,58.725,58.75,,-0.020016360327874412,atvi,20200102
2020-01-02,15:00,3 PM,58.76,58.75,58.752,201,11809.26,3,58.76,58.74,58.752,3320,195057.525,24,58.75,58.76,58.75,58.745,-0.018034129464658797,-0.019181649722041384,atvi,20200102
2020-01-02,15:01,3:01 PM,58.735,58.73,58.733,200,11746.5,2,58.74,58.71,58.729,6484,380798.94,39,58.735,58.73,58.74,58.715,-0.018351690595176513,-0.019565616600724596,atvi,20200102
2020-01-02,15:02,3:02 PM,58.725,58.725,58.725,100,5872.5,1,58.735,58.72,58.726,6199,364043.67,43,58.725,58.725,58.72,58.73,-0.018485400544868073,-0.019615699237074576,atvi,20200102
2020-01-02,15:03,3:03 PM,58.715,58.715,58.715,81,4755.915,1,58.735,58.71,58.722,6433,377758.092,52,58.715,58.715,58.725,58.71,-0.01865253798198258,-0.019682476085541176,atvi,20200102
2020-01-02,15:04,3:04 PM,58.71,58.7,58.707,300,17612.0,3,58.71,58.695,58.704,7213,423432.1796,48,58.71,58.7,58.71,58.7,-0.018786247931674254,-0.019982971903641053,atvi,20200102
2020-01-02,15:05,3:05 PM,58.715,58.705,58.71,306,17965.23,4,58.72,58.7,58.711,4595,269778.025,31,58.71,58.715,58.709,58.715,-0.01873610670053989,-0.019866112418824473,atvi,20200102
2020-01-02,15:06,3:06 PM,58.735,58.73,58.733,300,17620.0,3,58.735,58.715,58.727,9524,559314.3824,66,58.73,58.735,58.715,58.725,-0.018351690595176513,-0.019599005024957955,atvi,20200102
2020-01-02,15:07,3:07 PM,58.73,58.705,58.716,342,20080.8,5,58.73,58.695,58.718,10889,639385.34,78,58.73,58.705,58.73,58.7,-0.018635824238271162,-0.019749252934007776,atvi,20200102
2020-01-02,15:08,3:08 PM,58.72,58.72,58.72,30,1761.6,2,58.72,58.695,58.709,3271,192037.555,28,58.72,58.72,58.71,58.695,-0.018568969263425383,-0.019899500843057714,atvi,20200102
2020-01-02,15:09,3:09 PM,,,,0,0.0,0,58.7,58.695,58.698,2162,126905.55,16,,,58.7,58.7,,-0.020083137176341012,atvi,20200102
2020-01-02,15:10,3:10 PM,58.715,58.705,58.712,500,29356.0,5,58.72,58.692,58.708,8844,519211.358,60,58.71,58.715,58.692,58.71,-0.01870267921311694,-0.019916195055174453,atvi,20200102
2020-01-02,15:11,3:11 PM,58.705,58.705,58.705,100,5870.5,1,58.715,58.7,58.709,1980,116244.05,18,58.705,58.705,58.705,58.715,-0.018819675419097202,-0.019899500843057714,atvi,20200102
2020-01-02,15:12,3:12 PM,58.72,58.715,58.717,285,16734.275,3,58.73,58.711,58.72,4800,281858.0192,37,58.715,58.72,58.715,58.73,-0.01861911049455975,-0.019715864509774535,atvi,20200102
2020-01-02,15:13,3:13 PM,58.725,58.65,58.691,1150,67494.1,14,58.725,58.65,58.68,24984,1466059.08,165,58.725,58.65,58.725,58.65,-0.019053667831057487,-0.020383632994440886,atvi,20200102
2020-01-02,15:14,3:14 PM,58.66,58.655,58.657,295,17303.7,4,58.665,58.655,58.659,4999,293236.6975,32,58.655,58.655,58.655,58.655,-0.01962193511724702,-0.020734211448890743,atvi,20200102
2020-01-02,15:15,3:15 PM,58.63,58.625,58.628,761,44615.625,7,58.655,58.615,58.629,15261,894740.005,93,58.625,58.63,58.655,58.631,-0.020106633684879124,-0.021235037812390535,atvi,20200102
2020-01-02,15:16,3:16 PM,58.635,58.635,58.635,300,17590.5,3,58.645,58.63,58.636,4237,248442.525,32,58.635,58.635,58.635,58.645,-0.01998963747889898,-0.021118178327573837,atvi,20200102
2020-01-02,15:17,3:17 PM,58.665,58.645,58.654,700,41058.0,7,58.67,58.645,58.658,6607,387552.1337,55,58.645,58.655,58.646,58.655,-0.019672076348381265,-0.020750905661007363,atvi,20200102
2020-01-02,15:18,3:18 PM,58.645,58.645,58.645,100,5864.5,1,58.66,58.63,58.646,2055,120518.27,18,58.645,58.645,58.66,58.63,-0.019822500041784357,-0.02095123620640728,atvi,20200102
2020-01-02,15:19,3:19 PM,58.62,58.605,58.612,942,55212.505,8,58.63,58.6,58.612,10435,611617.035,85,58.62,58.615,58.63,58.62,-0.020374053584262357,-0.021518839418373674,atvi,20200102
2020-01-02,15:20,3:20 PM,58.645,58.625,58.63,404,23686.5,4,58.65,58.615,58.631,7062,414053.5,58,58.625,58.645,58.615,58.64,-0.020073206197456176,-0.021201649388157176,atvi,20200102
2020-01-02,15:21,3:21 PM,58.7,58.645,58.681,1100,64549.0,12,58.71,58.645,58.684,24817,1456374.895,188,58.645,58.7,58.645,58.69,-0.019220805268172114,-0.020316856145974286,atvi,20200102
2020-01-02,15:22,3:22 PM,58.685,58.655,58.676,504,29572.72,6,58.69,58.655,58.675,7601,445991.35,57,58.685,58.655,58.685,58.655,-0.019304373986729306,-0.020467104055024225,atvi,20200102
2020-01-02,15:23,3:23 PM,58.655,58.595,58.622,1800,105519.5,20,58.655,58.595,58.62,49404,2896058.03,294,58.655,58.605,58.65,58.615,-0.02020691614714785,-0.021385285721440474,atvi,20200102
2020-01-02,15:24,3:24 PM,58.615,58.605,58.612,300,17583.5,3,58.62,58.595,58.605,6360,372728.28,40,58.615,58.605,58.615,58.595,-0.020374053584262357,-0.02163569890319037,atvi,20200102
2020-01-02,15:25,3:25 PM,58.61,58.595,58.603,1104,64697.4,11,58.61,58.59,58.598,13464,788962.3987,88,58.595,58.6,58.6,58.6,-0.02052447727766545,-0.02175255838800695,atvi,20200102
2020-01-02,15:26,3:26 PM,58.61,58.595,58.604,601,35221.1,7,58.61,58.595,58.601,7293,427377.8313,49,58.6,58.605,58.595,58.605,-0.020507763533954036,-0.02170247575165697,atvi,20200102
2020-01-02,15:27,3:27 PM,58.665,58.615,58.635,600,35181.0,6,58.67,58.605,58.634,13753,806398.76,96,58.615,58.665,58.605,58.67,-0.01998963747889898,-0.021151566751807196,atvi,20200102
2020-01-02,15:28,3:28 PM,58.655,58.625,58.638,905,53067.2,9,58.675,58.62,58.648,6604,387313.9,52,58.655,58.625,58.675,58.625,-0.01993949624776462,-0.020917847782173923,atvi,20200102
2020-01-02,15:29,3:29 PM,58.62,58.61,58.614,400,23445.5,4,58.625,58.61,58.614,4989,292427.35,28,58.62,58.61,58.62,58.615,-0.020340626096839527,-0.021485450994140433,atvi,20200102
2020-01-02,15:30,3:30 PM,58.635,58.62,58.627,1508,88409.04,13,58.64,58.615,58.629,16768,983096.8288,100,58.62,58.635,58.62,58.63,-0.020123347428590538,-0.021235037812390535,atvi,20200102
2020-01-02,15:31,3:31 PM,58.64,58.63,58.636,513,30080.23,7,58.65,58.62,58.636,18889,1107572.01,111,58.64,58.635,58.635,58.635,-0.01997292373518745,-0.021118178327573837,atvi,20200102
2020-01-02,15:32,3:32 PM,58.645,58.625,58.633,405,23746.2,7,58.645,58.625,58.636,8738,512363.217,61,58.645,58.63,58.64,58.64,-0.02002306496632181,-0.021118178327573837,atvi,20200102
2020-01-02,15:33,3:33 PM,58.645,58.635,58.642,400,23457.0,4,58.65,58.635,58.644,6923,405990.445,49,58.635,58.645,58.635,58.645,-0.019872641272918722,-0.02098462463064064,atvi,20200102
2020-01-02,15:34,3:34 PM,58.65,58.645,58.645,103,6040.45,2,58.65,58.64,58.644,1804,105793.87,16,58.645,58.65,58.64,58.645,-0.019822500041784357,-0.02098462463064064,atvi,20200102
2020-01-02,15:35,3:35 PM,58.66,58.645,58.645,1283,75242.01,11,58.655,58.645,58.651,19754,1158582.77,97,58.655,58.645,58.65,58.655,-0.019822500041784357,-0.020867765145823943,atvi,20200102
2020-01-02,15:36,3:36 PM,58.66,58.65,58.656,400,23462.5,4,58.66,58.65,58.653,3882,227692.57,33,58.655,58.65,58.655,58.655,-0.019638648860958435,-0.020834376721590702,atvi,20200102
2020-01-02,15:37,3:37 PM,58.675,58.66,58.666,996,58430.92,12,58.68,58.65,58.664,15792,926426.724,82,58.66,58.675,58.65,58.68,-0.01947151142384393,-0.020650740388307404,atvi,20200102
2020-01-02,15:38,3:38 PM,58.685,58.665,58.677,1124,65953.44,10,58.69,58.655,58.671,10704,628017.24,84,58.675,58.665,58.675,58.655,-0.019287660243017892,-0.020533880903490825,atvi,20200102
2020-01-02,15:39,3:39 PM,58.66,58.65,58.655,300,17596.5,3,58.66,58.65,58.656,4386,257264.566,38,58.655,58.65,58.65,58.65,-0.01965536260466985,-0.020784294085240722,atvi,20200102
2020-01-02,15:40,3:40 PM,58.66,58.655,58.656,600,35193.5,6,58.66,58.65,58.656,4652,272865.5701,40,58.655,58.655,58.655,58.655,-0.019638648860958435,-0.020784294085240722,atvi,20200102
2020-01-02,15:41,3:41 PM,58.685,58.665,58.675,300,17602.5,3,58.69,58.655,58.674,7570,444165.045,57,58.665,58.685,58.655,58.685,-0.01932108773044084,-0.020483798267140845,atvi,20200102
2020-01-02,15:42,3:42 PM,58.685,58.68,58.682,200,11736.5,2,58.69,58.68,58.684,3530,207154.4905,22,58.68,58.685,58.69,58.685,-0.01920409152446058,-0.020316856145974286,atvi,20200102
2020-01-02,15:43,3:43 PM,58.685,58.685,58.685,300,17605.5,3,58.69,58.68,58.685,3929,230572.6914,28,58.685,58.685,58.684,58.685,-0.019153950293326213,-0.020300161933857547,atvi,20200102
2020-01-02,15:44,3:44 PM,58.745,58.685,58.706,1836,107783.64,14,58.745,58.68,58.705,21358,1253823.2425,151,58.69,58.745,58.685,58.745,-0.018802961675385668,-0.019966277691524432,atvi,20200102
2020-01-02,15:45,3:45 PM,58.74,58.7,58.725,542,31828.78,10,58.745,58.7,58.722,12825,753110.1155,66,58.74,58.7,58.741,58.7,-0.018485400544868073,-0.019682476085541176,atvi,20200102
2020-01-02,15:46,3:46 PM,58.715,58.71,58.714,400,23485.5,5,58.715,58.7,58.71,12991,762700.9583,91,58.71,58.715,58.705,58.71,-0.01866925172569411,-0.019882806630941094,atvi,20200102
2020-01-02,15:47,3:47 PM,58.715,58.71,58.712,500,29356.0,4,58.72,58.71,58.715,3975,233393.825,32,58.715,58.71,58.72,58.715,-0.01870267921311694,-0.019799335570357755,atvi,20200102
2020-01-02,15:48,3:48 PM,58.72,58.71,58.713,646,37928.405,9,58.715,58.71,58.711,3745,219874.4857,31,58.72,58.71,58.71,58.71,-0.018685965469405527,-0.019866112418824473,atvi,20200102
2020-01-02,15:49,3:49 PM,58.71,58.68,58.691,1496,87801.66,12,58.71,58.68,58.693,28881,1695103.34,188,58.71,58.69,58.71,58.7,-0.019053667831057487,-0.02016660823692435,atvi,20200102
2020-01-02,15:50,3:50 PM,58.765,58.695,58.716,2996,175914.145,28,58.77,58.69,58.726,95227,5592335.9,541,58.7,58.7,58.7,58.7,-0.018635824238271162,-0.019615699237074576,atvi,20200102
2020-01-02,15:51,3:51 PM,58.685,58.66,58.67,170,9973.95,4,58.7,58.66,58.676,19599,1149996.7736,125,58.685,58.66,58.69,58.66,-0.019404656448998032,-0.020450409842907486,atvi,20200102
2020-01-02,15:52,3:52 PM,58.67,58.655,58.667,1712,100438.015,21,58.67,58.65,58.665,50966,2989942.7147,328,58.665,58.67,58.66,58.67,-0.019454797680132398,-0.020634046176190784,atvi,20200102
2020-01-02,15:53,3:53 PM,58.67,58.645,58.658,1740,102065.45,17,58.67,58.64,58.658,26758,1569578.3295,187,58.66,58.645,58.67,58.645,-0.019605221373535486,-0.020750905661007363,atvi,20200102
2020-01-02,15:54,3:54 PM,58.67,58.645,58.657,1121,65754.105,14,58.675,58.63,58.659,69392,4070457.3592,418,58.645,58.655,58.65,58.67,-0.01962193511724702,-0.020734211448890743,atvi,20200102
2020-01-02,15:55,3:55 PM,58.66,58.635,58.65,1333,78180.67,18,58.67,58.63,58.645,43235,2535531.5451,259,58.65,58.655,58.67,58.655,-0.019738931323227165,-0.0209679304185239,atvi,20200102
2020-01-02,15:56,3:56 PM,58.67,58.645,58.658,1815,106463.69,22,58.67,58.64,58.656,35524,2083689.2226,256,58.655,58.66,58.65,58.66,-0.019605221373535486,-0.020784294085240722,atvi,20200102
2020-01-02,15:57,3:57 PM,58.645,58.595,58.62,1395,81775.29,18,58.66,58.59,58.612,51167,2999022.305,371,58.645,58.595,58.655,58.59,-0.0202403436345708,-0.021518839418373674,atvi,20200102
2020-01-02,15:58,3:58 PM,58.63,58.605,58.613,3994,234101.525,29,58.64,58.595,58.619,84050,4926915.2399,533,58.605,58.615,58.595,58.615,-0.020357339840550943,-0.021401979933557094,atvi,20200102
2020-01-02,15:59,3:59 PM,58.62,58.565,58.617,7294,427554.78,45,58.65,58.56,58.607,161532,9466959.9609,713,58.615,58.62,58.62,58.64,-0.020290484865705165,-0.021602310478957013,atvi,20200102
