date,minute,label,high,low,average,volume,notional,numberOfTrades,marketHigh,marketLow,marketAverage,marketVolume,marketNotional,marketNumberOfTrades,open,close,marketOpen,marketClose,changeOverTime,marketChangeOverTime,tickerName,tickerDate
2020-01-29,09:30,09:30 AM,34.18,34.18,34.18,100,3418.0,1,34.4,34.1,34.16,39608,1353008.55,36,34.18,34.18,34.1,34.36,0.0,0.0,hog,20200129
2020-01-29,09:31,09:31 AM,34.38,34.375,34.377,200,6875.5,2,34.4,34.35,34.374,1795,61701.94,12,34.375,34.38,34.35,34.4,0.005763604447045136,0.006264637002342089,hog,20200129
2020-01-29,09:32,09:32 AM,34.42,34.42,34.42,100,3442.0,2,34.46,34.32,34.373,8504,292308.73,56,34.42,34.42,34.4,34.36,0.007021650087770685,0.006235362997658108,hog,20200129
2020-01-29,09:33,09:33 AM,34.66,34.615,34.632,300,10389.5,3,34.762,34.415,34.589,27701,958144.155,183,34.615,34.62,34.44,34.58,0.013224107665301292,0.012558548009367742,hog,20200129
2020-01-29,09:34,09:34 AM,34.64,34.53,34.57,300,10371.0,3,34.64,34.47,34.535,2501,86373.2199,21,34.64,34.54,34.625,34.47,0.011410181392627285,0.010977751756440283,hog,20200129
2020-01-29,09:35,09:35 AM,34.535,34.485,34.51,200,6902.0,2,34.565,34.47,34.5,1400,48300.36,12,34.535,34.485,34.535,34.485,0.00965476887068456,0.009953161592505956,hog,20200129
2020-01-29,09:36,09:36 AM,34.43,34.43,34.43,100,3443.0,1,34.454,34.34,34.387,2900,99723.41,21,34.43,34.43,34.418,34.37,0.007314218841427736,0.006645199063231964,hog,20200129
2020-01-29,09:37,09:37 AM,34.3,34.3,34.3,100,3430.0,1,34.36,34.19,34.274,1470,50383.34,13,34.3,34.3,34.36,34.24,0.0035108250438852383,0.0033372365339579724,hog,20200129
2020-01-29,09:38,09:38 AM,34.285,34.285,34.285,127,4354.195,1,34.285,34.18,34.241,2927,100222.545,26,34.285,34.285,34.26,34.22,0.0030719719133995575,0.002371194379391191,hog,20200129
2020-01-29,09:39,09:39 AM,34.18,34.18,34.18,110,3759.8,1,34.21,34.14,34.173,1010,34514.8,10,34.18,34.18,34.14,34.21,0.0,0.0003805620608900829,hog,20200129
2020-01-29,09:40,09:40 AM,34.175,34.16,34.164,400,13665.5,4,34.28,34.09,34.174,2904,99241.76,18,34.175,34.16,34.28,34.13,-0.00046811000585132354,0.0004098360655738554,hog,20200129
2020-01-29,09:41,09:41 AM,34.15,34.15,34.15,5000,170750.0,1,34.2,34.1,34.139,21026,717805.7098,43,34.15,34.15,34.13,34.12,-0.0008777062609713615,-0.000614754098360471,hog,20200129
2020-01-29,09:42,09:42 AM,34.14,34.03,34.085,200,6817.0,2,34.17,34.02,34.082,7285,248288.01,57,34.14,34.03,34.12,34.02,-0.0027794031597425063,-0.002283372365339457,hog,20200129
2020-01-29,09:43,09:43 AM,34.04,33.975,33.984,700,23789.0,3,34.05,33.93,34.021,6151,209262.03,23,34.04,33.975,34.02,33.93,-0.0057343475716792845,-0.004069086651053742,hog,20200129
2020-01-29,09:44,09:44 AM,33.98,33.975,33.979,500,16989.5,5,34.01,33.93,33.969,3723,126467.81,28,33.975,33.98,33.93,34.01,-0.0058806319485079145,-0.005591334894613449,hog,20200129
2020-01-29,09:45,09:45 AM,34.015,33.965,33.998,301,10233.465,3,34.03,33.88,33.96,6835,232114.5,59,34.015,33.965,34.01,33.88,-0.005324751316559455,-0.005854800936768025,hog,20200129
2020-01-29,09:46,09:46 AM,,,,0,0.0,0,33.88,33.87,33.875,400,13550.0,3,,,33.88,33.88,,-0.008343091334894515,hog,20200129
2020-01-29,09:47,09:47 AM,33.85,33.81,33.84,690,23350.0,5,33.88,33.8,33.832,5395,182526.23,41,33.85,33.81,33.88,33.84,-0.009947337624341612,-0.009601873536299646,hog,20200129
2020-01-29,09:48,09:48 AM,33.91,33.77,33.836,500,16918.0,5,33.91,33.73,33.828,5300,179287.8,45,33.82,33.91,33.8,33.91,-0.0100643651258046,-0.009718969555034944,hog,20200129
2020-01-29,09:49,09:49 AM,33.905,33.875,33.888,226,7658.75,2,33.93,33.87,33.889,5126,173715.422,42,33.905,33.875,33.905,33.89,-0.008543007606787641,-0.00793325526932066,hog,20200129
2020-01-29,09:50,09:50 AM,33.895,33.87,33.893,1504,50975.48,6,33.91,33.86,33.889,5804,196689.58,36,33.87,33.895,33.89,33.895,-0.008396723229959012,-0.00793325526932066,hog,20200129
2020-01-29,09:51,09:51 AM,33.885,33.865,33.873,2387,80855.495,9,33.89,33.8,33.864,6187,209519.495,36,33.885,33.865,33.88,33.81,-0.008981860737273322,-0.008665105386416844,hog,20200129
2020-01-29,09:52,09:52 AM,,,,0,0.0,0,33.82,33.79,33.808,3200,108186.5,28,,,33.81,33.805,,-0.01030444964871185,hog,20200129
2020-01-29,09:53,09:53 AM,33.88,33.79,33.84,1800,60912.5,15,33.89,33.79,33.833,25014,846293.69,147,33.805,33.88,33.79,33.89,-0.009947337624341612,-0.009572599531615872,hog,20200129
2020-01-29,09:54,09:54 AM,33.93,33.895,33.904,700,23733.0,6,33.95,33.87,33.902,34694,1176211.7101,62,33.9,33.895,33.89,33.87,-0.008074897600936111,-0.007552693208430784,hog,20200129
2020-01-29,09:55,09:55 AM,33.84,33.83,33.835,200,6767.0,2,33.91,33.8,33.882,15290,518048.3564,38,33.84,33.83,33.87,33.822,-0.010093622001170241,-0.008138173302107692,hog,20200129
2020-01-29,09:56,09:56 AM,33.81,33.81,33.81,4,135.24,1,33.84,33.79,33.81,3464,117118.525,30,33.81,33.81,33.8,33.79,-0.010825043885312973,-0.010245901639344097,hog,20200129
2020-01-29,09:57,09:57 AM,33.83,33.81,33.82,200,6764.0,3,33.88,33.79,33.839,2301,77862.81,20,33.81,33.83,33.79,33.86,-0.010532475131655922,-0.009396955503512822,hog,20200129
2020-01-29,09:58,09:58 AM,33.855,33.85,33.852,200,6770.5,2,33.87,33.79,33.848,3160,106960.184,22,33.855,33.85,33.855,33.79,-0.009596255119953276,-0.009133489461358245,hog,20200129
2020-01-29,09:59,09:59 AM,33.8,33.8,33.8,200,6760.0,2,33.805,33.79,33.792,4664,157608.02,42,33.8,33.8,33.79,33.79,-0.011117612638970233,-0.010772833723653251,hog,20200129
2020-01-29,10:00,10 AM,33.845,33.79,33.829,3225,109099.0,15,33.86,33.77,33.818,16078,543723.9,110,33.79,33.795,33.79,33.78,-0.010269163253364515,-0.010011709601873501,hog,20200129
2020-01-29,10:01,10:01 AM,33.73,33.66,33.689,900,30320.0,7,33.77,33.65,33.696,12294,414253.635,52,33.73,33.66,33.77,33.66,-0.014365125804564062,-0.013583138173302069,hog,20200129
2020-01-29,10:02,10:02 AM,33.63,33.575,33.596,445,14950.26,6,33.65,33.56,33.591,13933,468023.84,110,33.63,33.575,33.65,33.57,-0.017086015213575282,-0.016656908665105257,hog,20200129
2020-01-29,10:03,10:03 AM,33.575,33.51,33.56,818,27451.76,8,33.59,33.5,33.563,26159,877963.6352,153,33.565,33.51,33.58,33.5,-0.01813926272674071,-0.01747658079625276,hog,20200129
2020-01-29,10:04,10:04 AM,33.48,33.41,33.465,1282,42902.845,11,33.52,33.38,33.447,21605,722628.065,112,33.415,33.48,33.495,33.52,-0.020918665886483216,-0.020872365339578276,hog,20200129
2020-01-29,10:05,10:05 AM,33.5,33.5,33.5,100,3350.0,1,33.5,33.43,33.451,4100,137147.86,20,33.5,33.5,33.5,33.44,-0.019894675248683432,-0.020755269320842977,hog,20200129
2020-01-29,10:06,10:06 AM,33.56,33.465,33.526,412,13812.58,5,33.56,33.43,33.508,8522,285559.04,61,33.475,33.53,33.43,33.51,-0.01913399648917485,-0.019086651053863993,hog,20200129
2020-01-29,10:07,10:07 AM,33.48,33.45,33.46,300,10038.0,4,33.51,33.43,33.476,4761,159379.46,41,33.48,33.45,33.51,33.45,-0.021064950263311844,-0.020023419203747003,hog,20200129
2020-01-29,10:08,10:08 AM,33.485,33.47,33.477,200,6695.5,2,33.485,33.45,33.472,3290,110123.32,25,33.47,33.485,33.47,33.47,-0.02056758338209488,-0.0201405152224823,hog,20200129
2020-01-29,10:09,10:09 AM,33.535,33.46,33.491,400,13396.5,4,33.535,33.46,33.498,2800,93793.14,25,33.46,33.51,33.46,33.49,-0.020157987126974843,-0.01937939110070255,hog,20200129
2020-01-29,10:10,10:10 AM,33.465,33.465,33.465,100,3346.5,1,33.54,33.44,33.503,5800,194319.0,42,33.465,33.465,33.49,33.53,-0.020918665886483216,-0.01923302107728327,hog,20200129
2020-01-29,10:11,10:11 AM,33.58,33.57,33.573,300,10072.0,3,33.59,33.52,33.555,2875,96470.468,28,33.58,33.57,33.52,33.55,-0.017758923346986522,-0.017710772833723562,hog,20200129
2020-01-29,10:12,10:12 AM,33.52,33.47,33.49,810,27126.7,5,33.535,33.44,33.486,5506,184376.19,39,33.52,33.47,33.535,33.465,-0.020187244002340482,-0.019730679156908654,hog,20200129
2020-01-29,10:13,10:13 AM,33.49,33.465,33.471,400,13388.5,4,33.51,33.44,33.484,4136,138488.488,31,33.465,33.49,33.465,33.47,-0.02074312463428915,-0.019789227166276197,hog,20200129
2020-01-29,10:14,10:14 AM,33.5,33.5,33.5,100,3350.0,1,33.5,33.45,33.48,1200,40176.5,11,33.5,33.5,33.495,33.46,-0.019894675248683432,-0.019906323185011704,hog,20200129
2020-01-29,10:15,10:15 AM,33.535,33.47,33.512,201,6735.97,3,33.535,33.47,33.501,6163,206466.01,50,33.49,33.535,33.485,33.535,-0.019543592744294888,-0.019291569086651025,hog,20200129
2020-01-29,10:16,10:16 AM,33.565,33.55,33.557,1406,47180.86,14,33.57,33.53,33.556,12662,424882.43,106,33.55,33.555,33.535,33.54,-0.018227033352837846,-0.017681498829039792,hog,20200129
2020-01-29,10:17,10:17 AM,33.555,33.53,33.552,720,24157.29,10,33.564,33.53,33.549,6956,233369.94,48,33.555,33.55,33.555,33.54,-0.018373317729666477,-0.017886416861826616,hog,20200129
2020-01-29,10:18,10:18 AM,33.535,33.495,33.514,2541,85158.435,7,33.56,33.45,33.512,11214,375808.3625,44,33.535,33.495,33.545,33.46,-0.019485078993563394,-0.018969555035128694,hog,20200129
2020-01-29,10:19,10:19 AM,33.465,33.455,33.462,500,16731.0,5,33.49,33.44,33.46,8472,283471.06,54,33.465,33.465,33.46,33.45,-0.021006436512580353,-0.0204918032786884,hog,20200129
2020-01-29,10:20,10:20 AM,33.525,33.48,33.51,300,10053.0,2,33.525,33.45,33.491,3970,132959.7,35,33.48,33.525,33.45,33.525,-0.019602106495026382,-0.019584309133489373,hog,20200129
2020-01-29,10:21,10:21 AM,33.525,33.525,33.525,1800,60345.0,2,33.54,33.48,33.519,5952,199505.62,23,33.525,33.525,33.525,33.49,-0.0191632533645407,-0.01876463700234187,hog,20200129
2020-01-29,10:22,10:22 AM,33.57,33.505,33.569,10400,349114.0,6,33.57,33.49,33.561,20390,684312.31,52,33.505,33.57,33.49,33.57,-0.017875950848449302,-0.017535128805620512,hog,20200129
2020-01-29,10:23,10:23 AM,33.59,33.575,33.578,500,16789.0,4,33.595,33.56,33.578,2200,73871.5,18,33.59,33.575,33.59,33.575,-0.01761263897015789,-0.01703747072599513,hog,20200129
2020-01-29,10:24,10:24 AM,33.56,33.46,33.483,722,24174.82,8,33.56,33.46,33.515,4049,135703.44,34,33.56,33.46,33.56,33.46,-0.020392042129900607,-0.01888173302107717,hog,20200129
2020-01-29,10:25,10:25 AM,33.51,33.455,33.481,1725,57755.125,19,33.51,33.455,33.477,17972,601655.58,52,33.475,33.51,33.475,33.51,-0.020450555880631893,-0.01999414519906323,hog,20200129
2020-01-29,10:26,10:26 AM,33.51,33.5,33.508,2100,70367.0,6,33.53,33.48,33.503,4293,143830.5,26,33.51,33.5,33.53,33.495,-0.019660620245757668,-0.01923302107728327,hog,20200129
2020-01-29,10:27,10:27 AM,33.54,33.495,33.526,2000,67052.0,10,33.54,33.48,33.53,18843,631799.51,33,33.495,33.54,33.5,33.54,-0.01913399648917485,-0.01844262295081954,hog,20200129
2020-01-29,10:28,10:28 AM,33.555,33.48,33.55,307,10299.86,4,33.56,33.51,33.539,4700,157633.0,37,33.555,33.48,33.535,33.51,-0.018431831480397967,-0.018179156908664965,hog,20200129
2020-01-29,10:29,10:29 AM,33.53,33.495,33.504,500,16752.0,4,33.55,33.49,33.516,5513,184773.13,43,33.495,33.53,33.495,33.53,-0.019777647747220652,-0.018852459016393396,hog,20200129
2020-01-29,10:30,10:30 AM,33.53,33.53,33.53,826,27695.78,7,33.55,33.48,33.523,5264,176467.19,43,33.53,33.53,33.54,33.55,-0.01901696898771207,-0.018647540983606364,hog,20200129
2020-01-29,10:31,10:31 AM,33.7,33.56,33.611,1781,59861.58,16,33.7,33.55,33.627,14846,499227.42,108,33.56,33.7,33.56,33.66,-0.0166471620830896,-0.01560304449648695,hog,20200129
2020-01-29,10:32,10:32 AM,33.765,33.7,33.745,400,13498.0,3,33.78,33.65,33.72,2928,98732.76,26,33.7,33.765,33.65,33.78,-0.012726740784084327,-0.012880562060889864,hog,20200129
2020-01-29,10:33,10:33 AM,33.775,33.745,33.76,800,27008.0,5,33.775,33.71,33.75,4743,160077.745,35,33.775,33.745,33.775,33.71,-0.012287887653598647,-0.012002341920374608,hog,20200129
2020-01-29,10:34,10:34 AM,33.79,33.7,33.744,1610,54327.4,12,33.8,33.69,33.739,8688,293126.38,73,33.74,33.7,33.73,33.7,-0.012755997659449968,-0.012324355971896938,hog,20200129
2020-01-29,10:35,10:35 AM,33.77,33.7,33.722,600,20233.0,5,33.81,33.69,33.707,21702,731504.99,122,33.7,33.77,33.7,33.786,-0.013399648917495566,-0.01326112412177974,hog,20200129
2020-01-29,10:36,10:36 AM,33.785,33.695,33.755,2002,67578.57,15,33.81,33.69,33.729,11617,391825.98,87,33.785,33.695,33.785,33.695,-0.012434172030427067,-0.012617096018735287,hog,20200129
2020-01-29,10:37,10:37 AM,33.705,33.705,33.705,200,6741.0,1,33.71,33.68,33.694,1485,50036.3,12,33.705,33.705,33.68,33.705,-0.013897015798712739,-0.013641686182669614,hog,20200129
2020-01-29,10:38,10:38 AM,33.715,33.7,33.705,700,23593.5,6,33.74,33.7,33.708,2274,76651.28,19,33.7,33.715,33.7,33.74,-0.013897015798712739,-0.013231850117095966,hog,20200129
2020-01-29,10:39,10:39 AM,33.725,33.7,33.72,510,17197.0,6,33.74,33.7,33.722,3312,111688.3919,27,33.7,33.725,33.72,33.725,-0.013458162668227058,-0.01282201405152211,hog,20200129
2020-01-29,10:40,10:40 AM,33.785,33.74,33.771,800,27017.0,8,33.8,33.73,33.764,2586,87313.874,23,33.74,33.785,33.735,33.788,-0.011966062024575744,-0.011592505854800754,hog,20200129
2020-01-29,10:41,10:41 AM,33.78,33.77,33.773,700,23641.5,5,33.8,33.77,33.777,2929,98932.13,23,33.78,33.77,33.785,33.795,-0.01190754827384425,-0.011211943793910878,hog,20200129
2020-01-29,10:42,10:42 AM,33.815,33.795,33.802,1506,50905.33,12,33.82,33.79,33.803,9307,314603.14,74,33.795,33.815,33.795,33.815,-0.01105909888823874,-0.010450819672131129,hog,20200129
2020-01-29,10:43,10:43 AM,33.73,33.73,33.73,400,13492.0,2,33.785,33.73,33.751,3232,109081.882,14,33.73,33.73,33.785,33.75,-0.013165593914570008,-0.011973067915690836,hog,20200129
2020-01-29,10:44,10:44 AM,33.705,33.705,33.705,102,3437.91,1,33.74,33.67,33.706,4267,143823.21,30,33.705,33.705,33.73,33.67,-0.013897015798712739,-0.013290398126463512,hog,20200129
2020-01-29,10:45,10:45 AM,33.71,33.67,33.69,400,13476.0,4,33.73,33.67,33.697,3585,120803.52,33,33.67,33.71,33.67,33.705,-0.01433586892919842,-0.013553864168618089,hog,20200129
2020-01-29,10:46,10:46 AM,33.8,33.725,33.787,800,27029.5,8,33.81,33.725,33.766,2470,83402.93,23,33.725,33.8,33.73,33.8,-0.01149795201872442,-0.011533957845433209,hog,20200129
2020-01-29,10:47,10:47 AM,33.845,33.78,33.812,900,30430.5,7,33.845,33.77,33.804,5840,197414.61,37,33.8,33.845,33.8,33.835,-0.010766530134581688,-0.010421545667447149,hog,20200129
2020-01-29,10:48,10:48 AM,33.845,33.835,33.839,900,30455.0,5,33.87,33.835,33.847,2416,81775.1451,16,33.84,33.845,33.84,33.855,-0.009976594499707463,-0.009162763466042017,hog,20200129
2020-01-29,10:49,10:49 AM,33.895,33.855,33.873,800,27098.0,6,33.895,33.855,33.881,2820,95543.74,16,33.855,33.895,33.855,33.895,-0.008981860737273322,-0.008167447306791463,hog,20200129
2020-01-29,10:50,10:50 AM,33.915,33.915,33.915,300,10174.5,3,33.927,33.895,33.909,2860,96981.102,23,33.915,33.915,33.895,33.9,-0.007753071971913416,-0.00734777517564396,hog,20200129
2020-01-29,10:51,10:51 AM,33.895,33.895,33.895,200,6779.0,2,33.91,33.88,33.901,1900,64411.0,19,33.895,33.895,33.9,33.91,-0.008338209479227518,-0.007581967213114557,hog,20200129
2020-01-29,10:52,10:52 AM,33.94,33.94,33.94,100,3394.0,1,33.99,33.91,33.953,6094,206910.615,46,33.94,33.94,33.91,33.99,-0.007021650087770685,-0.006059718969554849,hog,20200129
2020-01-29,10:53,10:53 AM,34.01,34.01,34.01,300,10203.0,3,34.04,33.96,34.004,6183,210246.92,48,34.01,34.01,33.965,34.026,-0.00497366881217091,-0.004566744730679122,hog,20200129
2020-01-29,10:54,10:54 AM,33.98,33.98,33.98,200,6796.0,3,34.0,33.93,33.965,9975,338803.85,40,33.98,33.98,33.99,33.97,-0.0058513750731422716,-0.005708430913348747,hog,20200129
2020-01-29,10:55,10:55 AM,33.955,33.955,33.955,100,3395.5,1,33.99,33.94,33.969,2077,70553.19,19,33.955,33.955,33.97,33.945,-0.006582796957285004,-0.005591334894613449,hog,20200129
2020-01-29,10:56,10:56 AM,33.945,33.88,33.922,602,20420.79,8,33.945,33.87,33.886,8474,287151.56,29,33.945,33.9,33.945,33.885,-0.0075482738443535015,-0.008021077283372185,hog,20200129
2020-01-29,10:57,10:57 AM,33.94,33.9,33.928,513,17405.3,6,33.956,33.9,33.929,2204,74779.4,20,33.9,33.94,33.9,33.94,-0.007372732592159229,-0.0067622950819670544,hog,20200129
2020-01-29,10:58,10:58 AM,33.97,33.94,33.959,1309,44452.685,9,33.97,33.94,33.96,4827,163925.125,34,33.94,33.94,33.96,33.94,-0.006465769455822017,-0.005854800936768025,hog,20200129
2020-01-29,10:59,10:59 AM,33.965,33.955,33.958,306,10391.29,3,33.98,33.93,33.954,1538,52221.3596,14,33.955,33.965,33.938,33.965,-0.006495026331187867,-0.0060304449648710765,hog,20200129
2020-01-29,11:00,11 AM,34.005,33.96,33.989,700,23792.5,5,34.04,33.96,33.999,7880,267913.655,54,33.96,34.005,33.98,34.005,-0.005588063194850863,-0.004713114754098193,hog,20200129
2020-01-29,11:01,11:01 AM,33.995,33.975,33.975,401,13623.995,4,34.01,33.975,33.987,1700,57777.7,15,33.995,33.975,34.01,33.975,-0.005997659449970693,-0.005064402810304295,hog,20200129
2020-01-29,11:02,11:02 AM,34.005,33.98,33.989,501,17028.48,7,34.01,33.98,33.99,2203,74881.27,20,33.98,34.005,33.98,34.005,-0.005588063194850863,-0.00497658079625277,hog,20200129
2020-01-29,11:03,11:03 AM,34.03,34.005,34.016,400,13606.5,4,34.05,34.005,34.025,3313,112725.62,32,34.005,34.03,34.02,34.05,-0.004798127559976638,-0.003951990632318443,hog,20200129
2020-01-29,11:04,11:04 AM,34.025,34.0,34.009,600,20405.5,6,34.04,34.0,34.017,3078,104703.18,29,34.025,34.0,34.03,34.0,-0.005002925687536553,-0.004186182669789039,hog,20200129
2020-01-29,11:05,11:05 AM,,,,0,0.0,0,34.008,33.93,33.958,4570,155186.3,36,,,33.99,33.97,,-0.005913348946135779,hog,20200129
2020-01-29,11:06,11:06 AM,33.955,33.945,33.95,210,7129.45,2,33.97,33.94,33.955,1910,64853.95,19,33.945,33.955,33.97,33.955,-0.006729081334113425,-0.006001170960187304,hog,20200129
2020-01-29,11:07,11:07 AM,33.94,33.92,33.932,402,13640.84,5,33.96,33.92,33.936,2425,82295.375,23,33.94,33.925,33.955,33.925,-0.0072557050906962425,-0.006557377049180231,hog,20200129
2020-01-29,11:08,11:08 AM,33.97,33.925,33.946,405,13748.325,3,33.97,33.925,33.948,2807,95290.975,24,33.925,33.97,33.94,33.97,-0.006846108835576412,-0.006206088992974128,hog,20200129
2020-01-29,11:09,11:09 AM,34.0,33.955,33.97,592,20110.265,8,34.0,33.94,33.965,7224,245361.29,48,33.965,34.0,33.96,33.99,-0.006143943826799323,-0.005708430913348747,hog,20200129
2020-01-29,11:10,11:10 AM,34.01,34.0,34.003,700,23802.0,7,34.01,33.99,34.002,3237,110065.0,30,34.0,34.01,34.0,34.01,-0.005178466939730825,-0.004625292740046668,hog,20200129
2020-01-29,11:11,11:11 AM,34.03,34.0,34.025,600,20415.0,6,34.05,34.0,34.022,7723,262752.6229,45,34.0,34.03,34.01,34.01,-0.004534815681685229,-0.004039812646369969,hog,20200129
2020-01-29,11:12,11:12 AM,33.99,33.965,33.978,500,16989.0,5,34.0,33.96,33.979,2797,95040.09,25,33.975,33.99,34.0,33.99,-0.005909888823873557,-0.0052985948477750995,hog,20200129
2020-01-29,11:13,11:13 AM,34.03,34.02,34.021,330,11226.9,4,34.02,34.0,34.013,1200,40816.0,12,34.02,34.02,34.0,34.02,-0.004651843183148008,-0.004303278688524545,hog,20200129
2020-01-29,11:14,11:14 AM,34.06,34.03,34.047,701,23867.03,8,34.07,34.015,34.048,5616,191213.1457,52,34.06,34.03,34.03,34.015,-0.0038911644236396337,-0.0032786885245900113,hog,20200129
2020-01-29,11:15,11:15 AM,34.07,34.06,34.065,200,6813.0,2,34.08,34.039,34.067,3700,126047.41,27,34.06,34.07,34.039,34.08,-0.0033645406670568165,-0.0027224824355970853,hog,20200129
2020-01-29,11:16,11:16 AM,34.11,34.08,34.095,641,21854.69,7,34.12,34.08,34.1,4178,142468.77,37,34.08,34.11,34.08,34.1,-0.002486834406085455,-0.0017564402810303038,hog,20200129
2020-01-29,11:17,11:17 AM,34.09,34.06,34.073,306,10426.43,6,34.12,34.05,34.089,10024,341711.68,75,34.09,34.06,34.1,34.05,-0.003130485664131051,-0.0020784543325526334,hog,20200129
2020-01-29,11:18,11:18 AM,34.055,34.055,34.055,100,3405.5,1,34.1,34.055,34.075,2000,68149.07,16,34.055,34.055,34.07,34.085,-0.003657109420713868,-0.002488290398126281,hog,20200129
2020-01-29,11:19,11:19 AM,34.12,34.09,34.098,625,21311.2,8,34.13,34.08,34.102,4437,151310.56,34,34.095,34.12,34.08,34.13,-0.002399063779988319,-0.0016978922716627586,hog,20200129
2020-01-29,11:20,11:20 AM,34.12,34.09,34.107,300,10232.0,3,34.13,34.09,34.111,4332,147770.52,36,34.11,34.09,34.13,34.11,-0.0021357519016969102,-0.001434426229508182,hog,20200129
2020-01-29,11:21,11:21 AM,,,,0,0.0,0,34.13,34.11,34.116,800,27292.5,8,,,34.12,34.115,,-0.0012880562060889032,hog,20200129
2020-01-29,11:22,11:22 AM,34.135,34.09,34.104,901,30728.11,10,34.14,34.08,34.1,24178,824468.2,61,34.115,34.11,34.13,34.12,-0.0022235225277940467,-0.0017564402810303038,hog,20200129
2020-01-29,11:23,11:23 AM,34.115,34.095,34.095,501,17081.615,4,34.12,34.08,34.099,2000,68198.5,16,34.095,34.115,34.09,34.12,-0.002486834406085455,-0.0017857142857142841,hog,20200129
2020-01-29,11:24,11:24 AM,34.13,34.115,34.121,644,21974.22,8,34.14,34.1,34.123,2583,88139.8549,22,34.115,34.13,34.1,34.14,-0.0017261556465768724,-0.0010831381733020795,hog,20200129
2020-01-29,11:25,11:25 AM,34.14,34.14,34.14,500,17070.0,5,34.15,34.1,34.138,6826,233025.78,59,34.14,34.14,34.14,34.11,-0.0011702750146284128,-0.0006440281030444516,hog,20200129
2020-01-29,11:26,11:26 AM,34.13,34.1,34.117,500,17058.5,5,34.14,34.095,34.114,4267,145566.2,39,34.1,34.13,34.11,34.14,-0.0018431831480398592,-0.0013466042154566564,hog,20200129
2020-01-29,11:27,11:27 AM,34.16,34.16,34.16,400,13664.0,3,34.17,34.145,34.158,2600,88812.0,23,34.16,34.16,34.145,34.15,-0.0005851375073143104,-5.854800936754505e-05,hog,20200129
2020-01-29,11:28,11:28 AM,34.19,34.19,34.19,1813,61986.47,3,34.21,34.165,34.188,6328,216343.31,33,34.19,34.19,34.17,34.2,0.0002925687536570512,0.0008196721311477108,hog,20200129
2020-01-29,11:29,11:29 AM,34.21,34.19,34.2,400,13680.0,4,34.22,34.16,34.193,6331,216478.042,40,34.21,34.19,34.205,34.18,0.0005851375073143104,0.0009660421545667814,hog,20200129
2020-01-29,11:30,11:30 AM,34.19,34.18,34.186,500,17093.0,5,34.19,34.16,34.181,2100,71780.0,21,34.19,34.18,34.18,34.16,0.0001755412521942723,0.0006147540983606791,hog,20200129
2020-01-29,11:31,11:31 AM,34.17,34.145,34.157,600,20494.5,6,34.17,34.14,34.154,1400,47816.0,14,34.17,34.145,34.17,34.145,-0.0006729081334114464,-0.00017564402810284316,hog,20200129
2020-01-29,11:32,11:32 AM,34.14,34.135,34.138,300,10241.5,3,34.15,34.1,34.139,3872,132186.6008,35,34.14,34.14,34.15,34.1,-0.001228788765359906,-0.000614754098360471,hog,20200129
2020-01-29,11:33,11:33 AM,34.1,34.085,34.092,300,10227.5,3,34.1,34.07,34.086,2982,101645.06,26,34.09,34.1,34.09,34.1,-0.002574605032182591,-0.002166276346604159,hog,20200129
2020-01-29,11:34,11:34 AM,34.07,34.06,34.068,500,17034.0,5,34.09,34.06,34.072,4362,148623.72,38,34.07,34.07,34.09,34.07,-0.0032767700409596806,-0.0025761124121778064,hog,20200129
2020-01-29,11:35,11:35 AM,34.13,34.12,34.128,600,20477.0,4,34.14,34.07,34.106,3896,132875.71,32,34.12,34.13,34.07,34.13,-0.0015213575190169573,-0.0015807962529272525,hog,20200129
2020-01-29,11:36,11:36 AM,34.13,34.13,34.13,300,10239.0,2,34.15,34.11,34.128,2800,95559.5,26,34.13,34.13,34.13,34.125,-0.001462843768285464,-0.0009367681498828009,hog,20200129
2020-01-29,11:37,11:37 AM,34.13,34.11,34.124,500,17062.0,3,34.14,34.11,34.122,3669,125193.28,26,34.11,34.13,34.11,34.14,-0.0016383850204797362,-0.001112412177985852,hog,20200129
2020-01-29,11:38,11:38 AM,34.13,34.12,34.123,500,17061.5,5,34.13,34.11,34.118,4028,137428.72,38,34.13,34.12,34.13,34.13,-0.0016676418958455868,-0.0012295081967211503,hog,20200129
2020-01-29,11:39,11:39 AM,34.14,34.12,34.135,2700,92163.5,9,34.15,34.11,34.135,6100,208222.0,35,34.12,34.14,34.12,34.15,-0.0013165593914570423,-0.0007318501170959772,hog,20200129
2020-01-29,11:40,11:40 AM,34.14,34.07,34.113,302,10302.24,5,34.15,34.06,34.114,7156,244121.015,63,34.14,34.07,34.15,34.06,-0.0019602106495026383,-0.0013466042154566564,hog,20200129
2020-01-29,11:41,11:41 AM,34.07,34.07,34.07,424,14445.68,4,34.07,34.06,34.069,1924,65548.68,19,34.07,34.07,34.07,34.07,-0.003218256290228187,-0.002663934426229332,hog,20200129
2020-01-29,11:42,11:42 AM,34.07,34.04,34.055,200,6811.0,2,34.07,34.04,34.056,2374,80849.475,19,34.07,34.04,34.07,34.04,-0.003657109420713868,-0.003044496487119415,hog,20200129
2020-01-29,11:43,11:43 AM,34.04,34.025,34.032,600,20419.0,6,34.04,34.02,34.03,2277,77486.425,21,34.03,34.03,34.03,34.03,-0.0043300175541253145,-0.0038056206088991646,hog,20200129
2020-01-29,11:44,11:44 AM,34.04,34.0,34.019,600,20411.5,4,34.04,33.99,34.011,3858,131216.5,32,34.04,34.0,34.02,34.01,-0.004710356933879501,-0.0043618266978920905,hog,20200129
2020-01-29,11:45,11:45 AM,34.04,34.04,34.04,200,6808.0,2,34.05,34.02,34.042,10312,351037.62,86,34.04,34.04,34.02,34.05,-0.0040959625511995485,-0.0034543325526930624,hog,20200129
2020-01-29,11:46,11:46 AM,34.08,34.06,34.076,500,17038.0,5,34.09,34.05,34.067,3700,126049.0,34,34.06,34.08,34.05,34.09,-0.0030427150380339146,-0.0027224824355970853,hog,20200129
2020-01-29,11:47,11:47 AM,34.1,34.08,34.1,102,3478.17,3,34.1,34.08,34.09,3600,122722.5,31,34.1,34.08,34.1,34.085,-0.0023405500292568255,-0.002049180327868653,hog,20200129
2020-01-29,11:48,11:48 AM,,,,0,0.0,0,34.12,34.09,34.096,2250,76716.5,11,,,34.09,34.11,,-0.00187353629976581,hog,20200129
2020-01-29,11:49,11:49 AM,34.125,34.12,34.122,501,17095.12,7,34.15,34.11,34.124,2828,96502.36,26,34.125,34.12,34.12,34.11,-0.0016968987712112297,-0.001053864168618099,hog,20200129
2020-01-29,11:50,11:50 AM,34.075,34.075,34.075,200,6815.0,2,34.075,34.055,34.061,1900,64716.0,15,34.075,34.075,34.075,34.055,-0.0030719719133995575,-0.0028981264637001364,hog,20200129
2020-01-29,11:51,11:51 AM,34.08,34.06,34.066,700,23846.0,5,34.09,34.05,34.065,15289,520825.97,77,34.06,34.08,34.06,34.09,-0.003335283791690966,-0.0027810304449648383,hog,20200129
2020-01-29,11:52,11:52 AM,34.095,34.095,34.095,100,3409.5,1,34.095,34.08,34.091,2300,78409.95,9,34.095,34.095,34.095,34.095,-0.002486834406085455,-0.0020199063231848805,hog,20200129
2020-01-29,11:53,11:53 AM,34.09,34.07,34.09,101,3443.07,2,34.09,34.01,34.058,6501,221413.11,52,34.09,34.07,34.09,34.01,-0.002633118782913877,-0.002985948477751662,hog,20200129
2020-01-29,11:54,11:54 AM,34.04,34.04,34.04,100,3404.0,1,34.05,34.005,34.028,2700,91875.1,23,34.04,34.04,34.02,34.03,-0.0040959625511995485,-0.0038641686182669176,hog,20200129
2020-01-29,11:55,11:55 AM,34.02,34.02,34.02,200,6804.0,2,34.03,34.01,34.021,1600,54434.0,16,34.02,34.02,34.03,34.01,-0.004681100058513651,-0.004069086651053742,hog,20200129
2020-01-29,11:56,11:56 AM,34.04,34.03,34.033,300,10210.0,3,34.045,34.0,34.026,7671,261010.58,64,34.03,34.04,34.01,34.04,-0.004300760678759463,-0.003922716627634463,hog,20200129
2020-01-29,11:57,11:57 AM,34.025,34.025,34.025,100,3402.5,1,34.04,34.025,34.031,700,23821.5,6,34.025,34.025,34.025,34.03,-0.004534815681685229,-0.003776346604215392,hog,20200129
2020-01-29,11:58,11:58 AM,34.055,34.03,34.036,403,13716.65,4,34.07,34.03,34.049,2900,98742.8,21,34.03,34.055,34.03,34.07,-0.004212990052662327,-0.0032494145199062387,hog,20200129
2020-01-29,11:59,11:59 AM,,,,0,0.0,0,34.085,34.06,34.07,3313,112874.04,24,,,34.07,34.085,,-0.0026346604215455594,hog,20200129
2020-01-29,12:00,12 PM,34.1,34.08,34.09,200,6818.0,2,34.1,34.06,34.076,5000,170380.5,36,34.1,34.08,34.085,34.06,-0.002633118782913877,-0.0024590163934425082,hog,20200129
2020-01-29,12:01,12:01 PM,34.065,34.06,34.063,420,14306.7,4,34.065,34.05,34.053,3036,103386.66,25,34.065,34.06,34.065,34.055,-0.003423054417788102,-0.0031323185011709405,hog,20200129
2020-01-29,12:02,12:02 PM,34.055,34.05,34.054,480,16345.9,2,34.06,34.0,34.029,5029,171133.38,44,34.055,34.05,34.06,34.01,-0.0036863662960795107,-0.003834894613582937,hog,20200129
2020-01-29,12:03,12:03 PM,34.03,34.03,34.03,100,3403.0,1,34.06,34.0,34.027,3077,104701.05,26,34.03,34.03,34.01,34.06,-0.004388531304856599,-0.00389344262295069,hog,20200129
2020-01-29,12:04,12:04 PM,34.06,34.05,34.054,487,16584.22,5,34.08,34.05,34.056,4396,149712.26,38,34.05,34.05,34.05,34.05,-0.0036863662960795107,-0.003044496487119415,hog,20200129
2020-01-29,12:05,12:05 PM,34.07,34.06,34.065,200,6813.0,2,34.07,34.05,34.061,1500,51092.0,13,34.07,34.06,34.05,34.06,-0.0033645406670568165,-0.0028981264637001364,hog,20200129
2020-01-29,12:06,12:06 PM,34.06,34.06,34.06,100,3406.0,1,34.06,34.06,34.06,200,6812.0,2,34.06,34.06,34.06,34.06,-0.0035108250438852383,-0.0029274004683839086,hog,20200129
2020-01-29,12:07,12:07 PM,34.06,34.06,34.06,100,3406.0,1,34.07,34.055,34.058,1439,49009.2366,10,34.06,34.06,34.061,34.056,-0.0035108250438852383,-0.002985948477751662,hog,20200129
2020-01-29,12:08,12:08 PM,34.06,34.03,34.045,300,10213.5,3,34.06,34.03,34.043,5067,172495.015,36,34.06,34.03,34.05,34.04,-0.003949678174370919,-0.0034250585480092898,hog,20200129
2020-01-29,12:09,12:09 PM,34.02,34.01,34.01,101,3435.02,2,34.04,34.01,34.023,4800,163312.5,43,34.02,34.01,34.03,34.01,-0.00497366881217091,-0.004010538641685988,hog,20200129
2020-01-29,12:10,12:10 PM,,,,0,0.0,0,34.04,33.98,34.018,7814,265813.93,67,,,34.02,34.03,,-0.004156908665105267,hog,20200129
2020-01-29,12:11,12:11 PM,34.03,34.03,34.03,2100,71463.0,2,34.04,34.02,34.03,3406,115907.71,13,34.03,34.03,34.04,34.04,-0.004388531304856599,-0.0038056206088991646,hog,20200129
2020-01-29,12:12,12:12 PM,,,,0,0.0,0,34.035,34.0,34.02,1200,40824.0,12,,,34.035,34.02,,-0.004098360655737514,hog,20200129
2020-01-29,12:13,12:13 PM,34.01,34.01,34.01,200,6802.0,2,34.02,33.99,34.0,1942,66028.64,18,34.01,34.01,34.0,34.0,-0.00497366881217091,-0.00468384074941442,hog,20200129
2020-01-29,12:14,12:14 PM,34.0,34.0,34.0,200,6800.0,2,34.01,34.0,34.006,1300,44208.0,9,34.0,34.0,34.01,34.0,-0.005266237565827961,-0.004508196721311369,hog,20200129
2020-01-29,12:15,12:15 PM,34.02,34.01,34.015,200,6803.0,3,34.03,33.99,34.011,3926,133528.634,29,34.01,34.02,33.99,34.03,-0.00482738443534228,-0.0043618266978920905,hog,20200129
2020-01-29,12:16,12:16 PM,34.03,34.025,34.028,200,6805.5,2,34.04,34.02,34.03,1800,61254.0,18,34.025,34.03,34.025,34.03,-0.004447045055588093,-0.0038056206088991646,hog,20200129
2020-01-29,12:17,12:17 PM,,,,0,0.0,0,34.05,34.025,34.037,4184,142411.6,35,,,34.035,34.025,,-0.003600702576112341,hog,20200129
2020-01-29,12:18,12:18 PM,34.065,34.035,34.056,500,17028.0,5,34.07,34.02,34.047,2974,101255.96,27,34.035,34.065,34.02,34.07,-0.003627852545348225,-0.0033079625292739916,hog,20200129
2020-01-29,12:19,12:19 PM,34.05,34.05,34.05,200,6810.0,2,34.065,34.04,34.056,2100,71517.5,21,34.05,34.05,34.065,34.05,-0.0038033937975424973,-0.003044496487119415,hog,20200129
2020-01-29,12:20,12:20 PM,34.04,34.0,34.039,204,6944.0,3,34.04,33.99,34.018,2300,78241.0,21,34.04,34.0,34.04,34.01,-0.0041252194265651914,-0.004156908665105267,hog,20200129
2020-01-29,12:21,12:21 PM,34.01,34.0,34.005,200,6801.0,2,34.02,33.99,34.005,3222,109564.282,26,34.0,34.01,34.0,33.99,-0.005119953188999332,-0.004537470725995142,hog,20200129
2020-01-29,12:22,12:22 PM,33.99,33.99,33.99,200,6798.0,3,34.015,33.99,33.999,2233,75919.47,19,33.99,33.99,34.0,34.01,-0.005558806319485013,-0.004713114754098193,hog,20200129
2020-01-29,12:23,12:23 PM,34.03,34.02,34.027,500,17013.5,5,34.04,34.01,34.023,4221,143609.9,41,34.02,34.03,34.01,34.03,-0.004476301930953736,-0.004010538641685988,hog,20200129
2020-01-29,12:24,12:24 PM,34.03,34.015,34.019,400,13607.5,3,34.03,33.995,34.012,2083,70846.2604,18,34.03,34.015,34.03,33.995,-0.004710356933879501,-0.004332552693208318,hog,20200129
2020-01-29,12:25,12:25 PM,33.98,33.97,33.97,101,3430.98,2,34.0,33.96,33.989,3305,112334.889,22,33.98,33.97,33.99,33.96,-0.006143943826799323,-0.005005854800936751,hog,20200129
2020-01-29,12:26,12:26 PM,33.985,33.965,33.975,200,6795.0,2,34.01,33.965,33.986,3653,124150.94,35,33.965,33.985,33.965,34.01,-0.005997659449970693,-0.005093676814988276,hog,20200129
2020-01-29,12:27,12:27 PM,33.995,33.995,33.995,100,3399.5,1,34.01,33.995,34.002,1800,61203.5,11,33.995,33.995,34.0,34.0,-0.005412521942656591,-0.004625292740046668,hog,20200129
2020-01-29,12:28,12:28 PM,34.04,34.015,34.029,1835,62444.205,7,34.04,34.01,34.025,16839,572946.93,44,34.015,34.04,34.01,34.04,-0.004417788180222242,-0.003951990632318443,hog,20200129
2020-01-29,12:29,12:29 PM,34.06,34.055,34.056,2942,100193.31,7,34.07,34.04,34.057,7079,241087.03,40,34.06,34.055,34.04,34.06,-0.003627852545348225,-0.0030152224824354346,hog,20200129
2020-01-29,12:30,12:30 PM,34.08,34.07,34.074,481,16389.67,2,34.1,34.065,34.082,4982,169796.25,39,34.07,34.08,34.065,34.08,-0.003101228788765408,-0.002283372365339457,hog,20200129
2020-01-29,12:31,12:31 PM,,,,0,0.0,0,34.12,34.085,34.103,2880,98218.0,17,,,34.085,34.12,,-0.001668618266978778,hog,20200129
2020-01-29,12:32,12:32 PM,34.125,34.11,34.117,603,20572.375,3,34.13,34.11,34.122,4078,139148.175,30,34.125,34.11,34.125,34.12,-0.0018431831480398592,-0.001112412177985852,hog,20200129
2020-01-29,12:33,12:33 PM,34.115,34.1,34.103,463,15789.8,3,34.117,34.1,34.107,2814,95978.25,21,34.115,34.1,34.11,34.1,-0.0022527794031596896,-0.00155152224824348,hog,20200129
2020-01-29,12:34,12:34 PM,34.09,34.09,34.09,76,2590.84,3,34.1,34.09,34.097,700,23868.0,7,34.09,34.09,34.1,34.09,-0.002633118782913877,-0.0018442622950818294,hog,20200129
2020-01-29,12:35,12:35 PM,,,,0,0.0,0,34.087,34.085,34.086,634,21610.315,3,,,34.085,34.087,,-0.002166276346604159,hog,20200129
2020-01-29,12:36,12:36 PM,,,,0,0.0,0,34.09,34.08,34.085,1456,49627.76,9,,,34.08,34.085,,-0.0021955503512879316,hog,20200129
2020-01-29,12:37,12:37 PM,34.085,34.075,34.08,400,13632.0,3,34.1,34.075,34.084,4943,168479.41,45,34.085,34.075,34.085,34.085,-0.0029256875365711358,-0.002224824355971704,hog,20200129
2020-01-29,12:38,12:38 PM,34.115,34.115,34.115,100,3411.5,1,34.12,34.08,34.102,6377,217467.9086,39,34.115,34.115,34.081,34.095,-0.0019016968987711448,-0.0016978922716627586,hog,20200129
2020-01-29,12:39,12:39 PM,34.095,34.09,34.093,200,6818.5,2,34.1,34.08,34.093,2192,74730.776,17,34.095,34.09,34.095,34.09,-0.0025453481568167404,-0.0019613583138171275,hog,20200129
2020-01-29,12:40,12:40 PM,34.08,34.08,34.08,101,3442.08,2,34.08,34.07,34.076,1000,34076.0,8,34.08,34.08,34.08,34.07,-0.0029256875365711358,-0.0024590163934425082,hog,20200129
2020-01-29,12:41,12:41 PM,34.06,34.06,34.06,203,6914.18,3,34.09,34.055,34.066,5080,173055.39,37,34.06,34.06,34.075,34.06,-0.0035108250438852383,-0.0027517564402808575,hog,20200129
2020-01-29,12:42,12:42 PM,34.06,34.06,34.06,100,3406.0,1,34.06,34.06,34.06,697,23739.82,6,34.06,34.06,34.06,34.06,-0.0035108250438852383,-0.0029274004683839086,hog,20200129
2020-01-29,12:43,12:43 PM,,,,0,0.0,0,34.06,34.05,34.057,300,10217.0,3,,,34.06,34.06,,-0.0030152224824354346,hog,20200129
2020-01-29,12:44,12:44 PM,34.075,34.06,34.068,425,14478.75,5,34.09,34.06,34.075,4821,164277.18,38,34.06,34.075,34.06,34.08,-0.0032767700409596806,-0.002488290398126281,hog,20200129
2020-01-29,12:45,12:45 PM,34.1,34.1,34.1,1700,57970.0,2,34.11,34.08,34.097,3768,128477.0574,18,34.1,34.1,34.08,34.1,-0.0023405500292568255,-0.0018442622950818294,hog,20200129
2020-01-29,12:46,12:46 PM,34.13,34.12,34.125,600,20475.0,3,34.14,34.1,34.125,6288,214578.558,41,34.12,34.125,34.11,34.125,-0.0016091281451140935,-0.0010245901639343265,hog,20200129
2020-01-29,12:47,12:47 PM,34.11,34.1,34.1,101,3444.11,2,34.12,34.1,34.109,2613,89126.78,14,34.11,34.1,34.12,34.1,-0.0023405500292568255,-0.001492974238875727,hog,20200129
2020-01-29,12:48,12:48 PM,,,,0,0.0,0,34.1,34.1,34.1,200,6820.0,2,,,34.1,34.1,,-0.0017564402810303038,hog,20200129
2020-01-29,12:49,12:49 PM,34.09,34.09,34.09,39,1329.51,1,34.1,34.09,34.095,200,6819.0,2,34.09,34.09,34.1,34.09,-0.002633118782913877,-0.0019028103044495823,hog,20200129
2020-01-29,12:50,12:50 PM,,,,0,0.0,0,34.1,34.07,34.085,1783,60772.945,14,,,34.09,34.07,,-0.0021955503512879316,hog,20200129
2020-01-29,12:51,12:51 PM,34.08,34.07,34.075,200,6815.0,2,34.095,34.07,34.081,8953,305132.295,27,34.07,34.08,34.08,34.08,-0.0030719719133995575,-0.0023126463700232297,hog,20200129
2020-01-29,12:52,12:52 PM,,,,0,0.0,0,34.085,34.07,34.079,600,20447.5,6,,,34.08,34.08,,-0.0023711943793909827,hog,20200129
2020-01-29,12:53,12:53 PM,,,,0,0.0,0,34.08,34.08,34.08,300,10224.0,3,,,34.08,34.08,,-0.00234192037470721,hog,20200129
2020-01-29,12:54,12:54 PM,,,,0,0.0,0,34.08,34.06,34.07,2336,79587.02,21,,,34.08,34.075,,-0.0026346604215455594,hog,20200129
2020-01-29,12:55,12:55 PM,34.075,34.065,34.07,200,6814.0,2,34.075,34.055,34.063,2165,73747.075,17,34.075,34.065,34.075,34.07,-0.003218256290228187,-0.002839578454332383,hog,20200129
2020-01-29,12:56,12:56 PM,,,,0,0.0,0,34.07,34.05,34.063,1200,40875.5,8,,,34.05,34.07,,-0.002839578454332383,hog,20200129
2020-01-29,12:57,12:57 PM,34.08,34.075,34.078,300,10223.5,3,34.08,34.065,34.071,2316,78908.12,17,34.075,34.08,34.065,34.08,-0.002984201287302421,-0.002605386416861787,hog,20200129
2020-01-29,12:58,12:58 PM,34.08,34.08,34.08,100,3408.0,1,34.08,34.065,34.072,1737,59183.96,14,34.08,34.08,34.07,34.08,-0.0029256875365711358,-0.0025761124121778064,hog,20200129
2020-01-29,12:59,12:59 PM,34.08,34.08,34.08,100,3408.0,1,34.08,34.07,34.078,968,32987.26,6,34.08,34.08,34.075,34.07,-0.0029256875365711358,-0.0024004683840747553,hog,20200129
2020-01-29,13:00,1 PM,34.08,34.08,34.08,100,3408.0,1,34.087,34.08,34.082,1685,57428.45,14,34.08,34.08,34.08,34.087,-0.0029256875365711358,-0.002283372365339457,hog,20200129
2020-01-29,13:01,1:01 PM,34.09,34.08,34.08,101,3442.09,2,34.085,34.07,34.079,4677,159388.265,32,34.09,34.08,34.08,34.07,-0.0029256875365711358,-0.0023711943793909827,hog,20200129
2020-01-29,13:02,1:02 PM,,,,0,0.0,0,34.08,34.07,34.078,649,22116.92,6,,,34.08,34.08,,-0.0024004683840747553,hog,20200129
2020-01-29,13:03,1:03 PM,34.08,34.08,34.08,100,3408.0,1,34.085,34.07,34.079,1400,47710.68,13,34.08,34.08,34.08,34.08,-0.0029256875365711358,-0.0023711943793909827,hog,20200129
2020-01-29,13:04,1:04 PM,,,,0,0.0,0,34.085,34.08,34.083,200,6816.5,2,,,34.08,34.085,,-0.0022540983606556845,hog,20200129
2020-01-29,13:05,1:05 PM,34.085,34.075,34.077,1540,52478.4,6,34.09,34.07,34.078,3805,129665.9,19,34.085,34.08,34.08,34.07,-0.0030134581626682718,-0.0024004683840747553,hog,20200129
2020-01-29,13:06,1:06 PM,34.075,34.065,34.07,400,13628.0,4,34.075,34.065,34.068,2724,92801.36,11,34.075,34.065,34.07,34.065,-0.003218256290228187,-0.0026932084309133127,hog,20200129
2020-01-29,13:07,1:07 PM,34.08,34.08,34.08,200,6816.0,2,34.085,34.07,34.078,2783,94838.2398,24,34.08,34.08,34.07,34.077,-0.0029256875365711358,-0.0024004683840747553,hog,20200129
2020-01-29,13:08,1:08 PM,34.08,34.08,34.08,400,13632.0,3,34.09,34.07,34.08,5101,173842.747,16,34.08,34.08,34.07,34.08,-0.0029256875365711358,-0.00234192037470721,hog,20200129
2020-01-29,13:09,1:09 PM,34.09,34.07,34.081,600,20448.5,7,34.09,34.07,34.077,1879,64030.03,16,34.08,34.07,34.08,34.07,-0.002896430661205285,-0.002429742388758736,hog,20200129
2020-01-29,13:10,1:10 PM,,,,0,0.0,0,34.07,34.07,34.07,100,3407.0,1,,,34.07,34.07,,-0.0026346604215455594,hog,20200129
2020-01-29,13:11,1:11 PM,34.13,34.085,34.113,501,17090.585,4,34.13,34.07,34.101,13802,470657.16,68,34.085,34.13,34.07,34.13,-0.0019602106495026383,-0.0017271662763465312,hog,20200129
2020-01-29,13:12,1:12 PM,34.13,34.1,34.119,2001,68272.03,11,34.14,34.1,34.118,10695,364891.6052,51,34.13,34.11,34.13,34.11,-0.001784669397308366,-0.0012295081967211503,hog,20200129
2020-01-29,13:13,1:13 PM,34.115,34.115,34.115,300,10234.5,2,34.115,34.1,34.114,2081,70990.515,8,34.115,34.115,34.112,34.115,-0.0019016968987711448,-0.0013466042154566564,hog,20200129
2020-01-29,13:14,1:14 PM,34.11,34.11,34.11,100,3411.0,1,34.12,34.1,34.108,2000,68216.5,16,34.11,34.11,34.12,34.1,-0.0020479812755997743,-0.0015222482435597075,hog,20200129
2020-01-29,13:15,1:15 PM,34.15,34.12,34.144,500,17072.0,3,34.17,34.09,34.13,9298,317336.935,53,34.12,34.15,34.1,34.17,-0.001053247513165634,-0.0008782201405150478,hog,20200129
2020-01-29,13:16,1:16 PM,34.155,34.155,34.155,1297,44299.035,4,34.18,34.155,34.163,10206,348668.045,49,34.155,34.155,34.17,34.16,-0.000731421884142732,8.782201405152558e-05,hog,20200129
2020-01-29,13:17,1:17 PM,34.15,34.12,34.134,500,17067.0,5,34.17,34.11,34.133,8821,301088.02,48,34.15,34.12,34.16,34.14,-0.0013458162668226852,-0.0007903981264635223,hog,20200129
2020-01-29,13:18,1:18 PM,,,,0,0.0,0,34.16,34.14,34.148,2128,72667.2728,15,,,34.14,34.16,,-0.0003512880562058943,hog,20200129
2020-01-29,13:19,1:19 PM,34.16,34.15,34.159,1101,37609.16,5,34.18,34.15,34.163,7873,268964.46,48,34.16,34.15,34.17,34.15,-0.000614394382679953,8.782201405152558e-05,hog,20200129
2020-01-29,13:20,1:20 PM,,,,0,0.0,0,34.18,34.13,34.154,6711,229209.82,40,,,34.14,34.18,,-0.00017564402810284316,hog,20200129
2020-01-29,13:21,1:21 PM,,,,0,0.0,0,34.17,34.16,34.162,500,17081.0,4,,,34.17,34.16,,5.8548009367753056e-05,hog,20200129
2020-01-29,13:22,1:22 PM,34.175,34.16,34.175,106,3622.505,3,34.175,34.153,34.17,1778,60753.9564,12,34.16,34.175,34.153,34.175,-0.00014628437682862955,0.0002927400468385573,hog,20200129
2020-01-29,13:23,1:23 PM,34.18,34.18,34.18,100,3418.0,1,34.192,34.17,34.182,2295,78448.3075,15,34.18,34.18,34.17,34.192,0.0,0.0006440281030446597,hog,20200129
2020-01-29,13:24,1:24 PM,34.185,34.18,34.181,700,23927.0,6,34.2,34.16,34.182,8377,286344.535,59,34.18,34.18,34.19,34.17,2.9256875365642757e-05,0.0006440281030446597,hog,20200129
2020-01-29,13:25,1:25 PM,34.18,34.175,34.178,200,6835.5,2,34.185,34.17,34.178,7278,248744.595,37,34.18,34.175,34.17,34.179,-5.8513750731493396e-05,0.0005269320843091535,hog,20200129
2020-01-29,13:26,1:26 PM,,,,0,0.0,0,34.17,34.17,34.17,1299,44386.83,10,,,34.17,34.17,,0.0002927400468385573,hog,20200129
2020-01-29,13:27,1:27 PM,34.175,34.175,34.175,100,3417.5,1,34.18,34.17,34.176,1374,46957.32,10,34.175,34.175,34.18,34.175,-0.00014628437682862955,0.00046838407494160844,hog,20200129
2020-01-29,13:28,1:28 PM,34.21,34.17,34.196,719,24587.25,8,34.22,34.175,34.198,5139,175745.47,32,34.175,34.2,34.175,34.2,0.00046811000585132354,0.00111241217798606,hog,20200129
2020-01-29,13:29,1:29 PM,,,,0,0.0,0,34.23,34.2,34.215,200,6843.0,2,,,34.2,34.23,,0.001610070257611441,hog,20200129
2020-01-29,13:30,1:30 PM,34.24,34.24,34.24,300,10272.0,3,34.25,34.225,34.236,3483,119244.1836,23,34.24,34.24,34.23,34.24,0.001755412521942723,0.0022248243559719123,hog,20200129
2020-01-29,13:31,1:31 PM,,,,0,0.0,0,34.25,34.23,34.234,2201,75348.5431,19,,,34.25,34.235,,0.002166276346604367,hog,20200129
2020-01-29,13:32,1:32 PM,,,,0,0.0,0,34.25,34.224,34.232,3764,128849.569,23,,,34.24,34.224,,0.002107728337236614,hog,20200129
2020-01-29,13:33,1:33 PM,34.225,34.21,34.218,304,10402.38,5,34.225,34.21,34.22,1901,65051.71,18,34.225,34.21,34.225,34.21,0.0011117612638971272,0.0017564402810305118,hog,20200129
2020-01-29,13:34,1:34 PM,34.2,34.18,34.187,300,10256.0,3,34.2,34.18,34.189,1300,44446.0,13,34.2,34.18,34.2,34.18,0.00020479812755991506,0.0008489461358314834,hog,20200129
2020-01-29,13:35,1:35 PM,34.16,34.16,34.16,1,34.16,1,34.18,34.15,34.165,1157,39529.18,9,34.16,34.16,34.18,34.16,-0.0005851375073143104,0.00014637002341927864,hog,20200129
2020-01-29,13:36,1:36 PM,34.17,34.17,34.17,80,2733.6,1,34.17,34.15,34.157,1828,62439.755,15,34.17,34.17,34.155,34.17,-0.0002925687536570512,-8.782201405152558e-05,hog,20200129
2020-01-29,13:37,1:37 PM,34.145,34.145,34.145,44,1502.38,1,34.16,34.14,34.15,2100,71714.49,19,34.145,34.145,34.16,34.14,-0.0010239906377997833,-0.00029274004683834927,hog,20200129
2020-01-29,13:38,1:38 PM,34.12,34.105,34.115,200,6822.95,3,34.14,34.1,34.115,3209,109475.09,27,34.12,34.115,34.12,34.12,-0.0019016968987711448,-0.0013173302107726758,hog,20200129
2020-01-29,13:39,1:39 PM,34.12,34.12,34.12,4,136.48,1,34.15,34.115,34.129,2262,77199.11,18,34.12,34.12,34.115,34.14,-0.001755412521942723,-0.0009074941451990284,hog,20200129
2020-01-29,13:40,1:40 PM,34.145,34.14,34.143,300,10243.0,3,34.15,34.14,34.142,6006,205059.945,24,34.145,34.14,34.142,34.14,-0.0010825043885312766,-0.0005269320843089455,hog,20200129
2020-01-29,13:41,1:41 PM,34.14,34.14,34.14,100,3414.0,1,34.14,34.13,34.137,1079,36833.452,10,34.14,34.14,34.13,34.14,-0.0011702750146284128,-0.0006733021077282241,hog,20200129
2020-01-29,13:42,1:42 PM,34.155,34.15,34.153,200,6830.5,2,34.155,34.14,34.149,2791,95310.65,25,34.15,34.155,34.15,34.15,-0.0007899356348742254,-0.0003220140515221218,hog,20200129
2020-01-29,13:43,1:43 PM,34.19,34.155,34.172,200,6834.5,2,34.19,34.15,34.173,4204,143663.68,31,34.155,34.19,34.15,34.19,-0.0002340550029257657,0.0003805620608900829,hog,20200129
2020-01-29,13:44,1:44 PM,34.195,34.17,34.179,900,30761.51,8,34.21,34.153,34.18,8536,291762.353,60,34.19,34.195,34.19,34.2,-2.9256875365642757e-05,0.0005854800936769066,hog,20200129
2020-01-29,13:45,1:45 PM,34.2,34.2,34.2,100,3420.0,1,34.21,34.19,34.201,1100,37621.0,11,34.2,34.2,34.205,34.19,0.0005851375073143104,0.0012002341920375856,hog,20200129
2020-01-29,13:46,1:46 PM,34.205,34.195,34.201,500,17100.5,5,34.21,34.195,34.203,3577,122345.2683,21,34.195,34.205,34.2,34.21,0.000614394382679953,0.0012587822014053388,hog,20200129
2020-01-29,13:47,1:47 PM,34.23,34.22,34.223,300,10267.0,3,34.26,34.205,34.23,22492,769912.1166,108,34.22,34.23,34.205,34.223,0.001258045640725549,0.002049180327868861,hog,20200129
2020-01-29,13:48,1:48 PM,34.225,34.21,34.218,200,6843.5,2,34.225,34.21,34.212,800,27369.5,8,34.225,34.21,34.225,34.21,0.0011117612638971272,0.0015222482435599154,hog,20200129
2020-01-29,13:49,1:49 PM,34.18,34.18,34.18,2,68.36,1,34.2,34.16,34.186,1300,44442.0,12,34.18,34.18,34.2,34.16,0.0,0.0007611241217799577,hog,20200129
2020-01-29,13:50,1:50 PM,34.145,34.12,34.128,300,10238.5,3,34.16,34.12,34.134,3669,125236.97,30,34.12,34.145,34.13,34.16,-0.0015213575190169573,-0.0007611241217797498,hog,20200129
2020-01-29,13:51,1:51 PM,34.16,34.16,34.16,100,3416.0,1,34.16,34.154,34.159,1030,35183.455,9,34.16,34.16,34.16,34.16,-0.0005851375073143104,-2.9274004683772526e-05,hog,20200129
2020-01-29,13:52,1:52 PM,34.155,34.155,34.155,200,6831.0,2,34.155,34.13,34.148,1596,54499.5676,14,34.155,34.155,34.155,34.15,-0.000731421884142732,-0.0003512880562058943,hog,20200129
2020-01-29,13:53,1:53 PM,34.145,34.145,34.145,200,6829.0,2,34.15,34.14,34.145,700,23901.5,7,34.145,34.145,34.15,34.145,-0.0010239906377997833,-0.00043911007025741993,hog,20200129
2020-01-29,13:54,1:54 PM,34.13,34.13,34.13,100,3413.0,1,34.14,34.122,34.133,3683,125712.524,32,34.13,34.13,34.14,34.13,-0.001462843768285464,-0.0007903981264635223,hog,20200129
2020-01-29,13:55,1:55 PM,34.15,34.14,34.15,103,3517.42,2,34.16,34.13,34.14,1056,36051.495,9,34.14,34.15,34.13,34.16,-0.0008777062609713615,-0.0005854800936766985,hog,20200129
2020-01-29,13:56,1:56 PM,34.18,34.165,34.179,104,3554.66,3,34.19,34.15,34.17,3862,131963.21,25,34.165,34.18,34.15,34.17,-2.9256875365642757e-05,0.0002927400468385573,hog,20200129
2020-01-29,13:57,1:57 PM,,,,0,0.0,0,34.2,34.16,34.173,2427,82938.995,21,,,34.17,34.2,,0.0003805620608900829,hog,20200129
2020-01-29,13:58,1:58 PM,34.19,34.19,34.19,100,3419.0,1,34.195,34.17,34.185,2503,85565.01,19,34.19,34.19,34.19,34.18,0.0002925687536570512,0.0007318501170961852,hog,20200129
2020-01-29,13:59,1:59 PM,34.22,34.17,34.201,372,12722.84,8,34.23,34.16,34.186,2980,101873.35,28,34.17,34.22,34.16,34.23,0.000614394382679953,0.0007611241217799577,hog,20200129
2020-01-29,14:00,2 PM,34.23,34.2,34.21,400,13684.0,4,34.26,34.19,34.212,3292,112624.3,26,34.2,34.23,34.25,34.25,0.0008777062609713615,0.0015222482435599154,hog,20200129
2020-01-29,14:01,2:01 PM,34.23,34.23,34.23,100,3423.0,1,34.24,34.19,34.223,3175,108657.225,25,34.23,34.23,34.24,34.19,0.001462843768285464,0.0018442622950820373,hog,20200129
2020-01-29,14:02,2:02 PM,,,,0,0.0,0,34.195,34.18,34.185,300,10255.5,3,,,34.18,34.195,,0.0007318501170961852,hog,20200129
2020-01-29,14:03,2:03 PM,,,,0,0.0,0,34.2,34.18,34.194,700,23936.0,7,,,34.18,34.19,,0.0009953161592507619,hog,20200129
2020-01-29,14:04,2:04 PM,34.2,34.2,34.2,100,3420.0,1,34.245,34.2,34.214,3750,128304.305,28,34.2,34.2,34.2,34.245,0.0005851375073143104,0.0015807962529274604,hog,20200129
2020-01-29,14:05,2:05 PM,34.24,34.24,34.24,100,3424.0,1,34.25,34.215,34.239,2616,89569.18,22,34.24,34.24,34.25,34.215,0.001755412521942723,0.002312646370023438,hog,20200129
2020-01-29,14:06,2:06 PM,,,,0,0.0,0,34.25,34.219,34.239,2019,69129.31,18,,,34.22,34.25,,0.002312646370023438,hog,20200129
2020-01-29,14:07,2:07 PM,34.24,34.24,34.24,100,3424.0,2,34.25,34.2,34.229,1826,62501.59,18,34.24,34.24,34.25,34.2,0.001755412521942723,0.0020199063231850886,hog,20200129
2020-01-29,14:08,2:08 PM,,,,0,0.0,0,34.23,34.205,34.214,900,30792.5,9,,,34.205,34.23,,0.0015807962529274604,hog,20200129
2020-01-29,14:09,2:09 PM,,,,0,0.0,0,34.21,34.16,34.194,2306,78851.08,20,,,34.2,34.17,,0.0009953161592507619,hog,20200129
2020-01-29,14:10,2:10 PM,34.165,34.165,34.165,500,17082.5,5,34.205,34.16,34.174,6050,206752.0,52,34.165,34.165,34.16,34.205,-0.00043885313048568075,0.0004098360655738554,hog,20200129
2020-01-29,14:11,2:11 PM,34.205,34.205,34.205,100,3420.5,1,34.215,34.2,34.207,1665,56954.825,16,34.205,34.205,34.205,34.2,0.000731421884142732,0.001375878220140637,hog,20200129
2020-01-29,14:12,2:12 PM,,,,0,0.0,0,34.2,34.18,34.194,1800,61549.0,16,,,34.2,34.18,,0.0009953161592507619,hog,20200129
2020-01-29,14:13,2:13 PM,,,,0,0.0,0,34.19,34.17,34.177,2765,94499.05,26,,,34.17,34.175,,0.0004976580796253809,hog,20200129
2020-01-29,14:14,2:14 PM,,,,0,0.0,0,34.175,34.16,34.172,464,15855.7,4,,,34.175,34.16,,0.00035128805620610233,hog,20200129
2020-01-29,14:15,2:15 PM,34.17,34.165,34.167,200,6833.5,2,34.18,34.155,34.167,4302,146985.86,33,34.17,34.165,34.18,34.17,-0.00038033937975418734,0.0002049180327870317,hog,20200129
2020-01-29,14:16,2:16 PM,,,,0,0.0,0,34.18,34.16,34.168,2347,80192.19,16,,,34.16,34.16,,0.00023419203747080422,hog,20200129
2020-01-29,14:17,2:17 PM,34.15,34.13,34.142,300,10242.5,3,34.19,34.11,34.145,8700,297063.61,57,34.15,34.145,34.16,34.19,-0.0011117612638969192,-0.00043911007025741993,hog,20200129
2020-01-29,14:18,2:18 PM,34.17,34.17,34.17,100,3417.0,1,34.19,34.17,34.177,4703,160734.35,33,34.17,34.17,34.17,34.19,-0.0002925687536570512,0.0004976580796253809,hog,20200129
2020-01-29,14:19,2:19 PM,34.2,34.2,34.2,100,3420.0,1,34.21,34.2,34.206,2213,75698.23,20,34.2,34.2,34.2,34.2,0.0005851375073143104,0.0013466042154568643,hog,20200129
2020-01-29,14:20,2:20 PM,34.195,34.19,34.193,200,6838.5,2,34.205,34.18,34.195,4890,167212.0,33,34.19,34.195,34.205,34.19,0.00038033937975418734,0.0010245901639345345,hog,20200129
2020-01-29,14:21,2:21 PM,34.17,34.17,34.17,100,3417.0,1,34.185,34.16,34.171,3060,104564.095,27,34.17,34.17,34.185,34.165,-0.0002925687536570512,0.00032201405152232983,hog,20200129
2020-01-29,14:22,2:22 PM,34.2,34.19,34.195,200,6839.0,2,34.2,34.165,34.184,5438,185891.785,46,34.2,34.19,34.17,34.18,0.00043885313048568075,0.0007025761124122047,hog,20200129
2020-01-29,14:23,2:23 PM,34.185,34.185,34.185,100,3418.5,1,34.201,34.185,34.197,3298,112783.02,17,34.185,34.185,34.19,34.201,0.00014628437682862955,0.0010831381733022877,hog,20200129
2020-01-29,14:24,2:24 PM,34.195,34.195,34.195,100,3419.5,1,34.195,34.18,34.188,900,30769.5,9,34.195,34.195,34.19,34.18,0.00043885313048568075,0.0008196721311477108,hog,20200129
2020-01-29,14:25,2:25 PM,,,,0,0.0,0,34.18,34.17,34.175,600,20504.72,5,,,34.18,34.174,,0.00043911007025762794,hog,20200129
2020-01-29,14:26,2:26 PM,34.13,34.11,34.121,543,18527.81,23,34.18,34.1,34.129,17431,594901.119,115,34.13,34.115,34.18,34.12,-0.0017261556465768724,-0.0009074941451990284,hog,20200129
2020-01-29,14:27,2:27 PM,34.11,34.06,34.084,415,14145.05,4,34.125,34.04,34.086,15539,529664.7376,101,34.11,34.06,34.12,34.06,-0.002808660035108149,-0.002166276346604159,hog,20200129
2020-01-29,14:28,2:28 PM,34.08,34.055,34.066,700,23846.5,5,34.11,34.05,34.065,6806,231847.1,56,34.055,34.08,34.065,34.1,-0.003335283791690966,-0.0027810304449648383,hog,20200129
2020-01-29,14:29,2:29 PM,34.09,34.07,34.08,400,13632.0,2,34.1,34.055,34.08,3753,127901.24,32,34.09,34.07,34.09,34.07,-0.0029256875365711358,-0.00234192037470721,hog,20200129
2020-01-29,14:30,2:30 PM,34.08,34.08,34.08,100,3408.0,1,34.09,34.07,34.085,3464,118071.705,26,34.08,34.08,34.08,34.085,-0.0029256875365711358,-0.0021955503512879316,hog,20200129
2020-01-29,14:31,2:31 PM,,,,0,0.0,0,34.105,34.08,34.091,4701,160264.055,35,,,34.1,34.1,,-0.0020199063231848805,hog,20200129
2020-01-29,14:32,2:32 PM,34.1,34.09,34.097,400,13639.0,5,34.103,34.09,34.098,6297,214715.868,51,34.1,34.1,34.1,34.1,-0.0024283206553539615,-0.0018149882903980567,hog,20200129
2020-01-29,14:33,2:33 PM,34.095,34.095,34.095,180,6137.1,2,34.1,34.08,34.088,3422,116650.72,30,34.095,34.095,34.095,34.095,-0.002486834406085455,-0.002107728337236406,hog,20200129
2020-01-29,14:34,2:34 PM,34.11,34.11,34.11,200,6822.0,2,34.11,34.1,34.106,5413,184615.35,40,34.11,34.11,34.1,34.105,-0.0020479812755997743,-0.0015807962529272525,hog,20200129
2020-01-29,14:35,2:35 PM,34.09,34.09,34.09,100,3409.0,1,34.1,34.08,34.092,7100,242054.0,58,34.09,34.09,34.1,34.09,-0.002633118782913877,-0.001990632318501108,hog,20200129
2020-01-29,14:36,2:36 PM,34.09,34.09,34.09,100,3409.0,1,34.12,34.085,34.1,2200,75021.0,19,34.09,34.09,34.09,34.12,-0.002633118782913877,-0.0017564402810303038,hog,20200129
2020-01-29,14:37,2:37 PM,34.1,34.1,34.1,200,6820.0,3,34.11,34.055,34.09,5183,176689.94,31,34.1,34.1,34.105,34.055,-0.0023405500292568255,-0.002049180327868653,hog,20200129
2020-01-29,14:38,2:38 PM,,,,0,0.0,0,34.08,34.04,34.063,4471,152298.22,36,,,34.06,34.04,,-0.002839578454332383,hog,20200129
2020-01-29,14:39,2:39 PM,34.05,34.05,34.05,100,3405.0,1,34.05,34.04,34.044,1061,36120.44,10,34.05,34.05,34.05,34.04,-0.0038033937975424973,-0.003395784543325517,hog,20200129
2020-01-29,14:40,2:40 PM,34.03,34.03,34.03,101,3437.03,2,34.04,34.02,34.027,4175,142063.22,35,34.03,34.03,34.03,34.02,-0.004388531304856599,-0.00389344262295069,hog,20200129
2020-01-29,14:41,2:41 PM,34.0,34.0,34.0,300,10200.0,2,34.02,33.99,34.008,7805,265433.4945,65,34.0,34.0,34.01,33.99,-0.005266237565827961,-0.0044496487119436165,hog,20200129
2020-01-29,14:42,2:42 PM,34.01,34.01,34.01,300,10203.0,3,34.02,33.98,33.995,8908,302831.85,58,34.01,34.01,33.98,33.98,-0.00497366881217091,-0.0048302107728336995,hog,20200129
2020-01-29,14:43,2:43 PM,33.965,33.92,33.945,300,10183.5,3,33.97,33.91,33.928,9497,322209.76,51,33.965,33.92,33.97,33.91,-0.006875365710942055,-0.006791569086651034,hog,20200129
2020-01-29,14:44,2:44 PM,33.94,33.89,33.912,600,20347.0,6,33.94,33.88,33.905,10336,350441.8909,68,33.91,33.94,33.91,33.93,-0.007840842598010553,-0.007464871194379259,hog,20200129
2020-01-29,14:45,2:45 PM,33.92,33.905,33.914,240,8139.3,4,33.92,33.9,33.909,3341,113289.11,30,33.92,33.905,33.92,33.91,-0.007782328847279059,-0.00734777517564396,hog,20200129
2020-01-29,14:46,2:46 PM,33.92,33.905,33.913,200,6782.5,2,33.93,33.89,33.912,3917,132835.05,35,33.905,33.92,33.89,33.93,-0.007811585722644909,-0.007259953161592435,hog,20200129
2020-01-29,14:47,2:47 PM,,,,0,0.0,0,33.925,33.89,33.915,2810,95300.195,22,,,33.925,33.91,,-0.007172131147540909,hog,20200129
2020-01-29,14:48,2:48 PM,33.92,33.915,33.919,400,13567.5,4,33.93,33.89,33.914,3568,121006.04,32,33.915,33.92,33.89,33.92,-0.0076360444704506375,-0.007201405152224682,hog,20200129
2020-01-29,14:49,2:49 PM,33.9,33.88,33.88,101,3421.9,2,33.91,33.88,33.894,1376,46638.5975,13,33.9,33.88,33.91,33.88,-0.008777062609713199,-0.0077868852459015885,hog,20200129
2020-01-29,14:50,2:50 PM,33.89,33.87,33.88,200,6776.0,3,33.9,33.865,33.881,4286,145213.07,35,33.89,33.87,33.88,33.9,-0.008777062609713199,-0.008167447306791463,hog,20200129
2020-01-29,14:51,2:51 PM,33.91,33.905,33.906,707,23971.835,4,33.92,33.899,33.901,9008,305381.135,21,33.905,33.91,33.9,33.899,-0.008016383850204825,-0.007581967213114557,hog,20200129
2020-01-29,14:52,2:52 PM,33.9,33.88,33.887,296,10030.48,4,33.9,33.87,33.884,2453,83118.14,15,33.9,33.88,33.89,33.87,-0.008572264482153284,-0.008079625292739938,hog,20200129
2020-01-29,14:53,2:53 PM,33.89,33.875,33.883,200,6776.5,2,33.89,33.87,33.881,2861,96932.68,25,33.89,33.875,33.88,33.87,-0.008689291983616064,-0.008167447306791463,hog,20200129
2020-01-29,14:54,2:54 PM,33.88,33.87,33.871,2000,67743.0,5,33.88,33.86,33.874,5746,194642.705,26,33.87,33.88,33.87,33.88,-0.009040374488004608,-0.008372365339578287,hog,20200129
2020-01-29,14:55,2:55 PM,33.89,33.875,33.879,709,24019.92,8,33.89,33.875,33.88,3176,107604.065,27,33.875,33.875,33.875,33.88,-0.00880631948507905,-0.008196721311475237,hog,20200129
2020-01-29,14:56,2:56 PM,33.88,33.875,33.877,300,10163.0,4,33.89,33.87,33.877,3576,121143.32,28,33.875,33.88,33.87,33.885,-0.008864833235810336,-0.008284543325526762,hog,20200129
2020-01-29,14:57,2:57 PM,,,,0,0.0,0,33.88,33.87,33.878,1100,37266.0,11,,,33.88,33.875,,-0.008255269320842988,hog,20200129
2020-01-29,14:58,2:58 PM,,,,0,0.0,0,33.88,33.86,33.872,4795,162416.289,28,,,33.87,33.865,,-0.00843091334894604,hog,20200129
2020-01-29,14:59,2:59 PM,33.875,33.865,33.87,759,25707.035,8,33.88,33.86,33.871,4161,140935.57,33,33.87,33.865,33.87,33.86,-0.009069631363370459,-0.008460187353629812,hog,20200129
2020-01-29,15:00,3 PM,33.865,33.84,33.854,158,5348.92,4,33.865,33.83,33.847,2626,88883.49,20,33.865,33.84,33.865,33.83,-0.009537741369221782,-0.009162763466042017,hog,20200129
2020-01-29,15:01,3:01 PM,33.835,33.835,33.835,280,9473.8,4,33.84,33.82,33.831,2097,70943.556,19,33.835,33.835,33.837,33.82,-0.010093622001170241,-0.009631147540983417,hog,20200129
2020-01-29,15:02,3:02 PM,33.815,33.795,33.81,600,20286.0,8,33.825,33.795,33.814,3530,119362.8,31,33.815,33.795,33.82,33.8,-0.010825043885312973,-0.010128805620608798,hog,20200129
2020-01-29,15:03,3:03 PM,33.78,33.775,33.776,200,6755.19,3,33.8,33.77,33.787,8769,296279.43,36,33.78,33.775,33.8,33.775,-0.011819777647747115,-0.01091920374707253,hog,20200129
2020-01-29,15:04,3:04 PM,33.8,33.78,33.793,300,10138.0,5,33.805,33.77,33.788,5302,179142.16,41,33.78,33.8,33.77,33.8,-0.011322410766530148,-0.010889929742388756,hog,20200129
2020-01-29,15:05,3:05 PM,33.825,33.81,33.819,501,16943.31,8,33.83,33.8,33.818,2993,101216.83,24,33.81,33.825,33.805,33.825,-0.010561732007021565,-0.010011709601873501,hog,20200129
2020-01-29,15:06,3:06 PM,33.825,33.805,33.807,1813,61292.225,5,33.825,33.8,33.814,6656,225065.58,42,33.825,33.805,33.825,33.81,-0.01091281451141011,-0.010128805620608798,hog,20200129
2020-01-29,15:07,3:07 PM,33.815,33.8,33.805,300,10141.55,4,33.816,33.8,33.803,2620,88564.718,22,33.815,33.8,33.815,33.8,-0.010971328262141603,-0.010450819672131129,hog,20200129
2020-01-29,15:08,3:08 PM,33.815,33.8,33.811,1260,42602.3,7,33.82,33.8,33.808,5203,175903.745,35,33.8,33.815,33.802,33.816,-0.01079578700994733,-0.01030444964871185,hog,20200129
2020-01-29,15:09,3:09 PM,33.845,33.825,33.838,794,26867.73,6,33.85,33.82,33.835,6205,209944.18,37,33.825,33.83,33.82,33.83,-0.010005851375073106,-0.00951405152224812,hog,20200129
2020-01-29,15:10,3:10 PM,33.825,33.825,33.825,80,2706.0,1,33.85,33.8,33.831,4019,135966.59,34,33.825,33.825,33.84,33.8,-0.010386190754827293,-0.009631147540983417,hog,20200129
2020-01-29,15:11,3:11 PM,33.82,33.795,33.816,400,13526.6,6,33.82,33.8,33.806,1203,40668.9,11,33.795,33.82,33.8,33.82,-0.010649502633118701,-0.010362997658079603,hog,20200129
2020-01-29,15:12,3:12 PM,33.835,33.825,33.826,1300,43973.5,7,33.84,33.825,33.828,3302,111700.66,21,33.825,33.825,33.825,33.825,-0.01035693387946165,-0.009718969555034944,hog,20200129
2020-01-29,15:13,3:13 PM,33.815,33.75,33.767,733,24751.395,8,33.82,33.75,33.786,3150,106427.32,28,33.815,33.75,33.82,33.75,-0.012083089526038523,-0.010948477751756301,hog,20200129
2020-01-29,15:14,3:14 PM,33.75,33.75,33.75,500,16875.0,5,33.775,33.75,33.76,4529,152899.25,38,33.75,33.75,33.76,33.75,-0.012580456407255696,-0.011709601873536259,hog,20200129
2020-01-29,15:15,3:15 PM,33.755,33.75,33.75,1202,40568.01,9,33.76,33.75,33.754,5384,181729.96,38,33.755,33.755,33.755,33.755,-0.012580456407255696,-0.011885245901639311,hog,20200129
2020-01-29,15:16,3:16 PM,33.795,33.7,33.75,982,33142.645,9,33.8,33.69,33.737,18126,611522.34,118,33.77,33.7,33.77,33.74,-0.012580456407255696,-0.012382903981264484,hog,20200129
2020-01-29,15:17,3:17 PM,33.74,33.74,33.74,3,101.22,2,33.79,33.74,33.768,4361,147261.8,32,33.74,33.74,33.74,33.78,-0.012873025160912748,-0.011475409836065455,hog,20200129
2020-01-29,15:18,3:18 PM,33.77,33.77,33.77,200,6754.0,3,33.777,33.75,33.775,8434,284855.34,18,33.77,33.77,33.77,33.77,-0.011995318899941387,-0.011270491803278632,hog,20200129
2020-01-29,15:19,3:19 PM,33.785,33.775,33.78,301,10167.775,5,33.79,33.77,33.781,2830,95599.4,23,33.775,33.785,33.77,33.785,-0.011702750146284335,-0.01109484777517558,hog,20200129
2020-01-29,15:20,3:20 PM,33.77,33.765,33.765,20,675.305,2,33.785,33.75,33.768,2454,82866.08,17,33.765,33.77,33.78,33.75,-0.012141603276770016,-0.011475409836065455,hog,20200129
2020-01-29,15:21,3:21 PM,33.735,33.735,33.735,44,1484.34,1,33.741,33.725,33.735,3808,128462.205,31,33.735,33.735,33.74,33.735,-0.013019309537741377,-0.012441451990632237,hog,20200129
2020-01-29,15:22,3:22 PM,33.75,33.74,33.745,200,6749.0,3,33.76,33.73,33.741,3920,132264.02,32,33.74,33.75,33.74,33.74,-0.012726740784084327,-0.012265807962529185,hog,20200129
2020-01-29,15:23,3:23 PM,33.72,33.72,33.72,100,3372.0,1,33.74,33.707,33.724,2538,85591.53,14,33.72,33.72,33.74,33.707,-0.013458162668227058,-0.012763466042154566,hog,20200129
2020-01-29,15:24,3:24 PM,33.78,33.71,33.758,303,10228.63,5,33.79,33.71,33.746,4713,159043.34,33,33.71,33.78,33.71,33.785,-0.01234640140432993,-0.012119437939109906,hog,20200129
2020-01-29,15:25,3:25 PM,33.8,33.795,33.797,200,6759.5,2,33.805,33.78,33.787,3422,115620.38,26,33.8,33.795,33.78,33.8,-0.011205383265067368,-0.01091920374707253,hog,20200129
2020-01-29,15:26,3:26 PM,33.805,33.79,33.79,101,3412.805,2,33.83,33.79,33.81,3360,113602.985,24,33.79,33.805,33.79,33.825,-0.011410181392627285,-0.010245901639344097,hog,20200129
2020-01-29,15:27,3:27 PM,33.82,33.82,33.82,200,6764.0,2,33.82,33.8,33.812,3332,112662.68,29,33.82,33.82,33.82,33.82,-0.010532475131655922,-0.010187353629976552,hog,20200129
2020-01-29,15:28,3:28 PM,33.88,33.85,33.858,400,13543.0,3,33.9,33.82,33.848,7372,249525.88,56,33.85,33.88,33.82,33.9,-0.009420713867759003,-0.009133489461358245,hog,20200129
2020-01-29,15:29,3:29 PM,33.875,33.875,33.875,100,3387.5,1,33.9,33.865,33.877,5638,190999.62,42,33.875,33.875,33.9,33.87,-0.00892334698654183,-0.008284543325526762,hog,20200129
2020-01-29,15:30,3:30 PM,33.89,33.89,33.89,100,3389.0,1,33.89,33.865,33.884,1900,64380.5,19,33.89,33.89,33.865,33.89,-0.008484493856056149,-0.008079625292739938,hog,20200129
2020-01-29,15:31,3:31 PM,33.88,33.88,33.88,100,3388.0,1,33.89,33.87,33.881,3350,113500.5,25,33.88,33.88,33.89,33.88,-0.008777062609713199,-0.008167447306791463,hog,20200129
2020-01-29,15:32,3:32 PM,33.87,33.86,33.865,200,6773.0,2,33.89,33.86,33.874,4264,144437.68,37,33.87,33.86,33.89,33.86,-0.00921591574019888,-0.008372365339578287,hog,20200129
2020-01-29,15:33,3:33 PM,33.85,33.85,33.85,100,3385.0,1,33.88,33.84,33.863,6356,215231.94,54,33.85,33.85,33.86,33.84,-0.00965476887068456,-0.008694379391100618,hog,20200129
2020-01-29,15:34,3:34 PM,33.84,33.815,33.827,500,16913.5,5,33.84,33.81,33.828,9404,318114.78,74,33.835,33.84,33.84,33.84,-0.010327677004096007,-0.009718969555034944,hog,20200129
2020-01-29,15:35,3:35 PM,33.87,33.85,33.863,730,24720.15,6,33.88,33.83,33.859,8442,285838.88,66,33.85,33.855,33.845,33.855,-0.009274429490930373,-0.008811475409835914,hog,20200129
2020-01-29,15:36,3:36 PM,33.83,33.825,33.829,424,14343.42,4,33.85,33.82,33.83,5188,175512.04,38,33.83,33.825,33.85,33.83,-0.010269163253364515,-0.009660421545667399,hog,20200129
2020-01-29,15:37,3:37 PM,33.84,33.84,33.84,200,6768.0,3,33.87,33.83,33.85,4500,152325.06,36,33.84,33.84,33.84,33.84,-0.009947337624341612,-0.009074941451990491,hog,20200129
2020-01-29,15:38,3:38 PM,33.825,33.82,33.823,500,16911.5,5,33.84,33.81,33.827,6566,222108.35,56,33.82,33.825,33.84,33.825,-0.010444704505558787,-0.009748243559718924,hog,20200129
2020-01-29,15:39,3:39 PM,33.835,33.815,33.824,308,10417.64,4,33.84,33.815,33.827,4016,135849.625,34,33.83,33.815,33.825,33.82,-0.010415447630193144,-0.009748243559718924,hog,20200129
2020-01-29,15:40,3:40 PM,33.8,33.795,33.797,200,6759.5,2,33.82,33.79,33.804,3145,106312.411,23,33.795,33.8,33.82,33.79,-0.011205383265067368,-0.010421545667447149,hog,20200129
2020-01-29,15:41,3:41 PM,33.77,33.77,33.77,100,3377.0,1,33.79,33.76,33.785,9240,312178.64,48,33.77,33.77,33.785,33.76,-0.011995318899941387,-0.010977751756440283,hog,20200129
2020-01-29,15:42,3:42 PM,33.8,33.755,33.77,484,16344.45,7,33.81,33.76,33.786,7945,268427.16,59,33.755,33.8,33.76,33.81,-0.011995318899941387,-0.010948477751756301,hog,20200129
2020-01-29,15:43,3:43 PM,33.83,33.8,33.819,600,20291.55,9,33.825,33.8,33.811,6021,203574.45,40,33.82,33.8,33.82,33.805,-0.010561732007021565,-0.010216627634660325,hog,20200129
2020-01-29,15:44,3:44 PM,33.83,33.83,33.83,100,3383.0,1,33.85,33.805,33.831,3655,123653.6,32,33.83,33.83,33.805,33.84,-0.010239906377998872,-0.009631147540983417,hog,20200129
2020-01-29,15:45,3:45 PM,,,,0,0.0,0,33.84,33.79,33.824,3140,106208.3106,28,,,33.84,33.79,,-0.00983606557377045,hog,20200129
2020-01-29,15:46,3:46 PM,33.8,33.8,33.8,116,3920.8,2,33.84,33.79,33.815,11407,385724.733,80,33.8,33.8,33.79,33.84,-0.011117612638970233,-0.010099531615925026,hog,20200129
2020-01-29,15:47,3:47 PM,33.83,33.81,33.82,640,21644.76,7,33.83,33.805,33.821,5891,199237.48,48,33.83,33.81,33.83,33.81,-0.010532475131655922,-0.009923887587821974,hog,20200129
2020-01-29,15:48,3:48 PM,33.81,33.795,33.802,257,8687.15,5,33.84,33.79,33.808,6160,208256.384,51,33.795,33.81,33.815,33.84,-0.01105909888823874,-0.01030444964871185,hog,20200129
2020-01-29,15:49,3:49 PM,33.85,33.84,33.847,222,7513.98,3,33.85,33.83,33.841,4801,162469.255,32,33.84,33.845,33.83,33.845,-0.009742539496781697,-0.009338407494145069,hog,20200129
2020-01-29,15:50,3:50 PM,33.89,33.845,33.88,464,15720.48,9,33.9,33.835,33.868,14181,480280.3254,95,33.845,33.86,33.84,33.868,-0.008777062609713199,-0.008548009367681339,hog,20200129
2020-01-29,15:51,3:51 PM,33.86,33.835,33.846,250,8461.49,5,33.86,33.83,33.848,4347,147138.0804,40,33.86,33.835,33.85,33.835,-0.009771796372147548,-0.009133489461358245,hog,20200129
2020-01-29,15:52,3:52 PM,33.855,33.84,33.851,281,9512.04,3,33.88,33.83,33.857,12277,415666.925,87,33.84,33.855,33.83,33.88,-0.009625511995318919,-0.008870023419203668,hog,20200129
2020-01-29,15:53,3:53 PM,33.88,33.87,33.877,401,13584.88,5,33.89,33.87,33.878,7087,240092.945,52,33.88,33.87,33.89,33.88,-0.008864833235810336,-0.008255269320842988,hog,20200129
2020-01-29,15:54,3:54 PM,33.91,33.87,33.895,433,14676.7,5,33.91,33.86,33.896,14661,496943.775,109,33.91,33.87,33.88,33.86,-0.008338209479227518,-0.007728337236533835,hog,20200129
2020-01-29,15:55,3:55 PM,33.92,33.88,33.901,602,20408.76,8,33.92,33.87,33.895,10408,352778.28,67,33.88,33.92,33.88,33.915,-0.008162668227033246,-0.007757611241217608,hog,20200129
2020-01-29,15:56,3:56 PM,33.91,33.86,33.887,387,13114.45,8,33.91,33.86,33.881,17594,596104.555,110,33.91,33.87,33.91,33.865,-0.008572264482153284,-0.008167447306791463,hog,20200129
2020-01-29,15:57,3:57 PM,33.86,33.83,33.842,941,31845.46,12,33.865,33.82,33.846,12653,428249.12,78,33.86,33.83,33.865,33.84,-0.009888823873610326,-0.009192037470725998,hog,20200129
2020-01-29,15:58,3:58 PM,33.835,33.825,33.829,950,32138.0,12,33.84,33.82,33.83,19018,643380.3,129,33.835,33.825,33.83,33.825,-0.010269163253364515,-0.009660421545667399,hog,20200129
2020-01-29,15:59,3:59 PM,33.85,33.82,33.835,715,24192.0,8,33.85,33.82,33.837,38099,1289154.771,194,33.82,33.84,33.83,33.82,-0.010093622001170241,-0.009455503512880367,hog,20200129
