date,minute,label,high,low,average,volume,notional,numberOfTrades,marketHigh,marketLow,marketAverage,marketVolume,marketNotional,marketNumberOfTrades,open,close,marketOpen,marketClose,changeOverTime,marketChangeOverTime,tickerName,tickerDate
2019-12-04,09:30,09:30 AM,36.2,36.2,36.2,100,3620.0,1,36.3,36.05,36.286,20224,733854.95,3,36.2,36.2,36.3,36.2,0.0,0.0,hog,20191204
2019-12-04,09:31,09:31 AM,36.15,36.0,36.075,200,7215.0,2,36.15,36.0,36.069,1800,64925.0,14,36.15,36.0,36.15,36.09,-0.003453038674033149,-0.005980267871906485,hog,20191204
2019-12-04,09:32,09:32 AM,,,,0,0.0,0,36.13,36.086,36.109,552,19932.34,5,,,36.13,36.11,,-0.0048779143471311135,hog,20191204
2019-12-04,09:33,09:33 AM,36.1,36.1,36.1,100,3610.0,1,36.19,36.07,36.138,2400,86732.07,23,36.1,36.1,36.091,36.13,-0.0027624309392265583,-0.004078708041669052,hog,20191204
2019-12-04,09:34,09:34 AM,36.19,36.17,36.183,300,10855.0,3,36.21,36.14,36.177,2440,88271.5,23,36.19,36.17,36.18,36.16,-0.0004696132596685915,-0.003003913355013001,hog,20191204
2019-12-04,09:35,09:35 AM,,,,0,0.0,0,36.32,36.16,36.222,2871,103992.7,18,,,36.16,36.32,,-0.0017637656396406343,hog,20191204
2019-12-04,09:36,09:36 AM,36.29,36.29,36.29,200,7258.0,1,36.35,36.25,36.295,4294,155851.62,34,36.29,36.29,36.3,36.29,0.0024861878453037653,0.0002480295430744734,hog,20191204
2019-12-04,09:37,09:37 AM,36.31,36.285,36.29,500,18145.0,2,36.34,36.28,36.3,3760,136489.96,26,36.285,36.31,36.29,36.31,0.0024861878453037653,0.0003858237336712725,hog,20191204
2019-12-04,09:38,09:38 AM,36.37,36.28,36.33,500,18165.0,7,36.37,36.28,36.32,23212,843065.37,43,36.3,36.37,36.285,36.36,0.003591160220994349,0.0009370004960590564,hog,20191204
2019-12-04,09:39,09:39 AM,36.36,36.33,36.358,105,3817.65,2,36.38,36.34,36.361,2374,86320.08,20,36.36,36.33,36.365,36.34,0.004364640883977739,0.002066912858953749,hog,20191204
2019-12-04,09:40,09:40 AM,,,,0,0.0,0,36.43,36.34,36.375,829,30154.86,8,,,36.34,36.395,,0.002452736592625217,hog,20191204
2019-12-04,09:41,09:41 AM,36.395,36.37,36.387,156,5676.37,3,36.412,36.31,36.369,2629,95613.2,21,36.37,36.395,36.4,36.395,0.005165745856353525,0.002287383563908902,hog,20191204
2019-12-04,09:42,09:42 AM,36.43,36.43,36.43,100,3643.0,1,36.435,36.41,36.429,800,29143.08,5,36.43,36.43,36.41,36.435,0.006353591160220907,0.003940913851072057,hog,20191204
2019-12-04,09:43,09:43 AM,,,,0,0.0,0,36.48,36.43,36.446,4900,178585.0,32,,,36.45,36.45,,0.004409414099101488,hog,20191204
2019-12-04,09:44,09:44 AM,36.43,36.42,36.425,200,7285.0,2,36.47,36.4,36.44,3446,125570.78,16,36.43,36.42,36.447,36.4,0.006215469613259511,0.004244061070385172,hog,20191204
2019-12-04,09:45,09:45 AM,36.435,36.395,36.411,400,14564.5,4,36.435,36.38,36.412,3205,116699.975,26,36.405,36.41,36.405,36.41,0.005828729281767915,0.0034724136030424312,hog,20191204
2019-12-04,09:46,09:46 AM,36.41,36.4,36.405,400,14562.0,5,36.42,36.39,36.404,11884,432621.26,19,36.4,36.41,36.39,36.41,0.005662983425414317,0.0032519428980874745,hog,20191204
2019-12-04,09:47,09:47 AM,36.45,36.41,36.43,200,7286.0,2,36.45,36.41,36.424,1443,52559.99,12,36.41,36.45,36.41,36.445,0.006353591160220907,0.0038031196604750624,hog,20191204
2019-12-04,09:48,09:48 AM,36.43,36.415,36.422,200,7284.5,3,36.46,36.415,36.44,4438,161718.74,33,36.43,36.415,36.43,36.46,0.0061325966850827125,0.004244061070385172,hog,20191204
2019-12-04,09:49,09:49 AM,36.495,36.495,36.495,100,3649.5,1,36.495,36.495,36.495,100,3649.5,1,36.495,36.495,36.495,36.495,0.008149171270718082,0.005759797166951333,hog,20191204
2019-12-04,09:50,09:50 AM,36.5,36.5,36.5,100,3650.0,1,36.51,36.5,36.502,1560,56943.5,14,36.5,36.5,36.5,36.5,0.00828729281767948,0.005952709033787165,hog,20191204
2019-12-04,09:51,09:51 AM,,,,0,0.0,0,36.49,36.47,36.48,21200,773374.5,9,,,36.49,36.47,,0.005346414595160544,hog,20191204
2019-12-04,09:52,09:52 AM,36.5,36.5,36.5,2,73.0,1,36.5,36.49,36.498,2308,84238.0,16,36.5,36.5,36.5,36.49,0.00828729281767948,0.0058424736813094905,hog,20191204
2019-12-04,09:53,09:53 AM,36.52,36.52,36.52,200,7304.0,2,36.526,36.47,36.514,7702,281233.61,18,36.52,36.52,36.48,36.52,0.00883977900552487,0.006283415091219796,hog,20191204
2019-12-04,09:54,09:54 AM,36.525,36.52,36.522,300,10956.5,3,36.53,36.5,36.519,1977,72197.3,14,36.52,36.52,36.52,36.52,0.00889502762430927,0.006421209281816595,hog,20191204
2019-12-04,09:55,09:55 AM,36.51,36.51,36.51,100,3651.0,1,36.53,36.51,36.521,1024,37397.7,7,36.51,36.51,36.51,36.525,0.008563535911602076,0.006476326958055433,hog,20191204
2019-12-04,09:56,09:56 AM,,,,0,0.0,0,36.52,36.51,36.513,389,14203.39,2,,,36.52,36.51,,0.00625585625310028,hog,20191204
2019-12-04,09:57,09:57 AM,,,,0,0.0,0,36.52,36.51,36.513,600,21908.0,5,,,36.51,36.51,,0.00625585625310028,hog,20191204
2019-12-04,09:58,09:58 AM,36.52,36.515,36.517,200,7303.5,2,36.55,36.51,36.542,4008,146459.39,20,36.515,36.52,36.51,36.55,0.00875690607734807,0.007055062558562537,hog,20191204
2019-12-04,09:59,09:59 AM,36.56,36.54,36.545,135,4933.6,2,36.55,36.54,36.549,6000,219295.0,11,36.54,36.56,36.54,36.55,0.00953038674033146,0.007247974425398173,hog,20191204
2019-12-04,10:00,10 AM,36.55,36.55,36.55,100,3655.0,2,36.56,36.53,36.543,4651,169962.25,41,36.55,36.55,36.55,36.56,0.00966850828729266,0.007082621396681857,hog,20191204
2019-12-04,10:01,10:01 AM,36.61,36.56,36.575,572,20921.19,9,36.61,36.537,36.563,6762,247235.6289,48,36.61,36.56,36.555,36.56,0.010359116022099447,0.007633798159069642,hog,20191204
2019-12-04,10:02,10:02 AM,36.59,36.54,36.564,588,21499.59,9,36.59,36.52,36.545,6148,224676.79,28,36.56,36.58,36.55,36.58,0.010055248618784454,0.007137739072920694,hog,20191204
2019-12-04,10:03,10:03 AM,36.59,36.59,36.59,86,3146.74,2,36.6,36.575,36.585,800,29268.0059,6,36.59,36.59,36.59,36.577,0.010773480662983441,0.008240092597696067,hog,20191204
2019-12-04,10:04,10:04 AM,,,,0,0.0,0,36.57,36.57,36.57,200,7314.0,2,,,36.57,36.57,,0.007826710025905279,hog,20191204
2019-12-04,10:05,10:05 AM,36.555,36.55,36.552,250,9138.0,3,36.57,36.55,36.561,2041,74621.01,18,36.555,36.55,36.56,36.565,0.009723756906077258,0.007578680482830805,hog,20191204
2019-12-04,10:06,10:06 AM,,,,0,0.0,0,36.56,36.55,36.553,948,34652.4,4,,,36.56,36.55,,0.007358209777875652,hog,20191204
2019-12-04,10:07,10:07 AM,36.56,36.56,36.56,100,3656.0,1,36.56,36.53,36.549,1500,54823.0,14,36.56,36.56,36.53,36.56,0.009944751381215453,0.007247974425398173,hog,20191204
2019-12-04,10:08,10:08 AM,,,,0,0.0,0,36.55,36.53,36.542,510,18636.5,3,,,36.55,36.53,,0.007055062558562537,hog,20191204
2019-12-04,10:09,10:09 AM,36.575,36.52,36.547,400,14619.0,4,36.59,36.515,36.547,5155,188398.525,37,36.52,36.575,36.52,36.59,0.00958563535911586,0.007192856749159336,hog,20191204
2019-12-04,10:10,10:10 AM,36.61,36.61,36.61,77,2818.97,1,36.63,36.58,36.598,1696,62071.04,13,36.61,36.61,36.59,36.615,0.011325966850828635,0.008598357493248018,hog,20191204
2019-12-04,10:11,10:11 AM,36.62,36.62,36.62,200,7324.0,2,36.63,36.62,36.624,2700,98885.5,25,36.62,36.62,36.63,36.62,0.01160220994475123,0.009314887284352117,hog,20191204
2019-12-04,10:12,10:12 AM,36.61,36.61,36.61,100,3661.0,1,36.61,36.57,36.58,1936,70819.02,13,36.61,36.61,36.6,36.57,0.011325966850828635,0.008102298407099072,hog,20191204
2019-12-04,10:13,10:13 AM,36.62,36.62,36.62,100,3662.0,1,36.62,36.585,36.6,2486,90987.37,20,36.62,36.62,36.59,36.585,0.01160220994475123,0.008653475169486856,hog,20191204
2019-12-04,10:14,10:14 AM,36.6,36.6,36.6,100,3660.0,1,36.6,36.56,36.569,1676,61289.44,10,36.6,36.6,36.59,36.57,0.011049723756906037,0.007799151187785957,hog,20191204
2019-12-04,10:15,10:15 AM,36.59,36.55,36.564,801,29287.56,9,36.59,36.54,36.563,7380,269831.33,58,36.56,36.59,36.57,36.59,0.010055248618784454,0.007633798159069642,hog,20191204
2019-12-04,10:16,10:16 AM,36.61,36.59,36.606,124,4539.16,2,36.61,36.58,36.591,1051,38457.09,8,36.61,36.59,36.59,36.59,0.011215469613259635,0.008405445626412383,hog,20191204
2019-12-04,10:17,10:17 AM,36.595,36.57,36.575,410,14995.6,5,36.59,36.54,36.568,2692,98440.35,25,36.595,36.57,36.59,36.55,0.010359116022099447,0.007771592349666441,hog,20191204
2019-12-04,10:18,10:18 AM,36.57,36.57,36.57,166,6070.62,2,36.57,36.57,36.57,300,10971.0,3,36.57,36.57,36.57,36.57,0.01022099447513805,0.007826710025905279,hog,20191204
2019-12-04,10:19,10:19 AM,36.57,36.555,36.563,200,7312.5,2,36.57,36.54,36.559,500,18279.5,5,36.57,36.555,36.57,36.54,0.010027624309392252,0.007523562806591967,hog,20191204
2019-12-04,10:20,10:20 AM,,,,0,0.0,0,36.59,36.56,36.578,1795,65658.15,14,,,36.56,36.59,,0.00804718073086043,hog,20191204
2019-12-04,10:21,10:21 AM,36.58,36.575,36.578,232,8486.06,3,36.595,36.575,36.584,1400,51217.5,11,36.58,36.58,36.59,36.58,0.010441988950276246,0.008212533759576746,hog,20191204
2019-12-04,10:22,10:22 AM,36.58,36.58,36.58,34,1243.72,1,36.595,36.59,36.591,757,27699.55,5,36.58,36.58,36.59,36.595,0.010497237569060647,0.008405445626412383,hog,20191204
2019-12-04,10:23,10:23 AM,36.58,36.58,36.58,34,1243.72,1,36.62,36.59,36.609,915,33497.3,8,36.58,36.58,36.59,36.62,0.010497237569060647,0.008901504712561329,hog,20191204
2019-12-04,10:24,10:24 AM,,,,0,0.0,0,36.62,36.605,36.615,3951,144666.25,30,,,36.62,36.605,,0.009066857741277645,hog,20191204
2019-12-04,10:25,10:25 AM,36.61,36.57,36.58,600,21948.0,4,36.61,36.56,36.58,6572,240405.93,32,36.61,36.58,36.61,36.56,0.010497237569060647,0.008102298407099072,hog,20191204
2019-12-04,10:26,10:26 AM,36.58,36.58,36.58,300,10974.0,3,36.58,36.56,36.566,1600,58506.0,14,36.58,36.58,36.58,36.58,0.010497237569060647,0.0077164746734278,hog,20191204
2019-12-04,10:27,10:27 AM,36.57,36.55,36.558,310,11333.05,4,36.56,36.55,36.553,616,22516.35,6,36.55,36.555,36.56,36.555,0.009889502762430856,0.007358209777875652,hog,20191204
2019-12-04,10:28,10:28 AM,36.58,36.57,36.57,203,7423.74,3,36.59,36.555,36.557,5786,211519.52,8,36.57,36.58,36.57,36.59,0.01022099447513805,0.007468445130353326,hog,20191204
2019-12-04,10:29,10:29 AM,36.605,36.6,36.602,289,10577.845,4,36.615,36.575,36.601,2814,102995.92,21,36.605,36.6,36.58,36.595,0.011104972375690438,0.008681034007606177,hog,20191204
2019-12-04,10:30,10:30 AM,36.61,36.61,36.61,50,1830.5,1,36.62,36.61,36.613,300,10984.0,2,36.61,36.61,36.61,36.62,0.011325966850828635,0.009011740065038807,hog,20191204
2019-12-04,10:31,10:31 AM,36.58,36.58,36.58,9,329.22,1,36.59,36.565,36.577,2106,77031.5,14,36.58,36.58,36.59,36.575,0.010497237569060647,0.008019621892740914,hog,20191204
2019-12-04,10:32,10:32 AM,36.595,36.585,36.588,703,25721.285,6,36.595,36.58,36.586,9705,355065.49,28,36.595,36.585,36.58,36.58,0.010718232044198842,0.008267651435815388,hog,20191204
2019-12-04,10:33,10:33 AM,36.58,36.58,36.58,100,3658.0,1,36.59,36.57,36.581,4722,172735.815,29,36.58,36.58,36.58,36.58,0.010497237569060647,0.008129857245218588,hog,20191204
2019-12-04,10:34,10:34 AM,,,,0,0.0,0,36.585,36.57,36.578,200,7315.5,2,,,36.585,36.57,,0.00804718073086043,hog,20191204
2019-12-04,10:35,10:35 AM,36.57,36.56,36.57,102,3730.12,2,36.57,36.52,36.553,2748,100448.42,17,36.57,36.56,36.56,36.52,0.01022099447513805,0.007358209777875652,hog,20191204
2019-12-04,10:36,10:36 AM,36.53,36.52,36.521,27,986.08,4,36.53,36.52,36.524,500,18262.0,5,36.53,36.52,36.52,36.53,0.00886740331491707,0.00655900347241359,hog,20191204
2019-12-04,10:37,10:37 AM,,,,0,0.0,0,36.51,36.51,36.51,100,3651.0,1,,,36.51,36.51,,0.006173179738742122,hog,20191204
2019-12-04,10:38,10:38 AM,36.49,36.49,36.49,31,1131.19,2,36.48,36.48,36.48,328,11965.44,3,36.49,36.49,36.48,36.48,0.008011049723756882,0.005346414595160544,hog,20191204
2019-12-04,10:39,10:39 AM,36.46,36.43,36.439,1100,40083.02,10,36.47,36.43,36.442,5376,195914.73,43,36.43,36.44,36.47,36.44,0.006602209944751304,0.004299178746624009,hog,20191204
2019-12-04,10:40,10:40 AM,36.49,36.44,36.454,950,34631.36,9,36.49,36.44,36.455,4289,156355.82,25,36.44,36.49,36.45,36.47,0.0070165745856352974,0.004657443642175961,hog,20191204
2019-12-04,10:41,10:41 AM,,,,0,0.0,0,36.49,36.48,36.483,1107,40386.93,9,,,36.48,36.49,,0.005429091109518702,hog,20191204
2019-12-04,10:42,10:42 AM,,,,0,0.0,0,36.49,36.44,36.463,2249,82004.53,14,,,36.48,36.45,,0.0048779143471311135,hog,20191204
2019-12-04,10:43,10:43 AM,,,,0,0.0,0,36.46,36.455,36.458,200,7291.5,2,,,36.46,36.455,,0.004740120156534119,hog,20191204
2019-12-04,10:44,10:44 AM,,,,0,0.0,0,36.475,36.47,36.471,411,14989.725,4,,,36.47,36.47,,0.005098385052086071,hog,20191204
2019-12-04,10:45,10:45 AM,36.45,36.44,36.45,105,3827.2,3,36.45,36.44,36.447,1311,47781.45,12,36.45,36.44,36.45,36.445,0.006906077348066298,0.004436972937221004,hog,20191204
2019-12-04,10:46,10:46 AM,,,,0,0.0,0,36.47,36.45,36.459,1617,58953.425,13,,,36.45,36.465,,0.0047676789946536355,hog,20191204
2019-12-04,10:47,10:47 AM,36.48,36.435,36.449,210,7654.3,3,36.47,36.435,36.453,1000,36453.0,9,36.46,36.435,36.46,36.435,0.0068784530386739005,0.00460232596593732,hog,20191204
2019-12-04,10:48,10:48 AM,36.42,36.42,36.42,106,3860.52,2,36.435,36.415,36.429,6837,249067.475,18,36.42,36.42,36.435,36.43,0.00607734806629831,0.003940913851072057,hog,20191204
2019-12-04,10:49,10:49 AM,,,,0,0.0,0,36.43,36.41,36.419,2900,105615.14,24,,,36.42,36.41,,0.0036653254698780675,hog,20191204
2019-12-04,10:50,10:50 AM,36.41,36.4,36.402,129,4695.89,2,36.42,36.39,36.399,3314,120625.73,28,36.41,36.4,36.405,36.42,0.005580110497237519,0.0031141487074904796,hog,20191204
2019-12-04,10:51,10:51 AM,,,,0,0.0,0,36.42,36.39,36.408,908,33058.2,6,,,36.42,36.39,,0.003362178250564953,hog,20191204
2019-12-04,10:52,10:52 AM,,,,0,0.0,0,36.42,36.4,36.413,500,18206.5,5,,,36.4,36.42,,0.003499972441161752,hog,20191204
2019-12-04,10:53,10:53 AM,36.43,36.43,36.43,28,1020.04,1,36.45,36.42,36.442,3066,111732.34,12,36.43,36.43,36.42,36.44,0.006353591160220907,0.004299178746624009,hog,20191204
2019-12-04,10:54,10:54 AM,36.43,36.43,36.43,422,15373.46,4,36.44,36.42,36.431,2225,81058.75,18,36.43,36.43,36.43,36.43,0.006353591160220907,0.003996031527310699,hog,20191204
2019-12-04,10:55,10:55 AM,36.42,36.41,36.417,298,10852.18,3,36.428,36.4,36.409,4022,146437.985,35,36.42,36.42,36.42,36.42,0.005994475138121512,0.0033897370886842738,hog,20191204
2019-12-04,10:56,10:56 AM,36.425,36.425,36.425,100,3642.5,1,36.425,36.41,36.414,600,21848.5,5,36.425,36.425,36.41,36.425,0.006215469613259511,0.0035275312792812687,hog,20191204
2019-12-04,10:57,10:57 AM,,,,0,0.0,0,36.425,36.425,36.425,100,3642.5,1,,,36.425,36.425,,0.0038306784985943833,hog,20191204
2019-12-04,10:58,10:58 AM,,,,0,0.0,0,36.435,36.4,36.419,2800,101974.0,23,,,36.43,36.4,,0.0036653254698780675,hog,20191204
2019-12-04,10:59,10:59 AM,36.405,36.405,36.405,100,3640.5,1,36.405,36.4,36.402,300,10920.5,3,36.405,36.405,36.4,36.405,0.005662983425414317,0.0031968252218486375,hog,20191204
2019-12-04,11:00,11 AM,,,,0,0.0,0,36.43,36.41,36.422,1175,42795.72,9,,,36.41,36.425,,0.0037480019842362254,hog,20191204
2019-12-04,11:01,11:01 AM,36.44,36.42,36.422,111,4042.825,3,36.44,36.415,36.427,1970,71760.8,16,36.44,36.42,36.44,36.415,0.0061325966850827125,0.0038857961748332203,hog,20191204
2019-12-04,11:02,11:02 AM,36.405,36.405,36.405,101,3676.905,2,36.415,36.404,36.409,1921,69942.365,13,36.405,36.405,36.415,36.415,0.005662983425414317,0.0033897370886842738,hog,20191204
2019-12-04,11:03,11:03 AM,36.435,36.435,36.435,100,3643.5,1,36.435,36.43,36.433,327,11913.61,3,36.435,36.435,36.43,36.435,0.006491712707182304,0.004051149203549536,hog,20191204
2019-12-04,11:04,11:04 AM,36.42,36.415,36.415,101,3677.92,2,36.43,36.4,36.415,3223,117364.91,28,36.42,36.415,36.43,36.41,0.005939226519336914,0.003555090117400589,hog,20191204
2019-12-04,11:05,11:05 AM,,,,0,0.0,0,36.415,36.41,36.411,1200,43693.0,8,,,36.415,36.41,,0.0034448547649231108,hog,20191204
2019-12-04,11:06,11:06 AM,36.405,36.405,36.405,100,3640.5,1,36.405,36.4,36.401,921,33525.45,6,36.405,36.405,36.405,36.4,0.005662983425414317,0.0031692663837293166,hog,20191204
2019-12-04,11:07,11:07 AM,,,,0,0.0,0,36.4,36.375,36.396,4729,172115.56,21,,,36.4,36.375,,0.0030314721931323217,hog,20191204
2019-12-04,11:08,11:08 AM,36.385,36.385,36.385,3,109.155,1,36.4,36.37,36.389,2317,84312.525,23,36.385,36.385,36.375,36.4,0.005110497237568927,0.0028385603262966854,hog,20191204
2019-12-04,11:09,11:09 AM,36.405,36.405,36.405,100,3640.5,1,36.41,36.37,36.391,2838,103277.21,19,36.405,36.405,36.41,36.37,0.005662983425414317,0.0028936780025353268,hog,20191204
2019-12-04,11:10,11:10 AM,36.37,36.37,36.37,3,109.11,1,36.369,36.358,36.365,1570,57093.76,5,36.37,36.37,36.36,36.36,0.004696132596684934,0.002177148211431423,hog,20191204
2019-12-04,11:11,11:11 AM,,,,0,0.0,0,36.35,36.35,36.35,100,3635.0,1,,,36.35,36.35,,0.0017637656396406343,hog,20191204
2019-12-04,11:12,11:12 AM,36.33,36.32,36.325,195,7083.4,2,36.34,36.32,36.33,2184,79344.04,15,36.32,36.33,36.34,36.33,0.003453038674033149,0.0012125888772528503,hog,20191204
2019-12-04,11:13,11:13 AM,36.345,36.33,36.33,103,3742.035,2,36.35,36.33,36.334,3148,114381.005,25,36.33,36.345,36.33,36.34,0.003591160220994349,0.0013228242297305245,hog,20191204
2019-12-04,11:14,11:14 AM,,,,0,0.0,0,36.36,36.35,36.355,400,14542.0,4,,,36.35,36.355,,0.0019015598302374334,hog,20191204
2019-12-04,11:15,11:15 AM,,,,0,0.0,0,36.365,36.355,36.36,3326,120933.04,25,,,36.36,36.36,,0.002039354020834428,hog,20191204
2019-12-04,11:16,11:16 AM,36.335,36.335,36.335,3,109.005,1,36.35,36.335,36.343,3857,140173.95,17,36.335,36.335,36.35,36.335,0.003729281767955746,0.001570853772804998,hog,20191204
2019-12-04,11:17,11:17 AM,36.345,36.33,36.34,152,5523.66,2,36.35,36.33,36.341,732,26601.4,7,36.33,36.345,36.33,36.35,0.0038674033149171424,0.0015157360965661608,hog,20191204
2019-12-04,11:18,11:18 AM,,,,0,0.0,0,36.363,36.335,36.35,2502,90947.728,13,,,36.35,36.363,,0.0017637656396406343,hog,20191204
2019-12-04,11:19,11:19 AM,36.33,36.33,36.33,48,1743.84,1,36.35,36.32,36.338,4237,153963.4592,15,36.33,36.33,36.35,36.33,0.003591160220994349,0.0014330595822080031,hog,20191204
2019-12-04,11:20,11:20 AM,36.33,36.33,36.33,200,7266.0,2,36.33,36.325,36.33,2042,74185.2567,11,36.33,36.33,36.33,36.33,0.003591160220994349,0.0012125888772528503,hog,20191204
2019-12-04,11:21,11:21 AM,36.35,36.34,36.349,110,3998.4,2,36.36,36.335,36.35,1621,58923.495,13,36.34,36.35,36.335,36.355,0.004116022099447342,0.0017637656396406343,hog,20191204
2019-12-04,11:22,11:22 AM,,,,0,0.0,0,36.4,36.355,36.358,85705,3116075.95,32,,,36.355,36.4,,0.001984236344595591,hog,20191204
2019-12-04,11:23,11:23 AM,36.365,36.365,36.365,1,36.365,1,36.38,36.33,36.359,3958,143908.91,31,36.365,36.365,36.38,36.33,0.004558011049723733,0.0020117951827151076,hog,20191204
2019-12-04,11:24,11:24 AM,36.33,36.33,36.33,100,3633.0,1,36.335,36.31,36.328,2645,96086.49,22,36.33,36.33,36.33,36.31,0.003591160220994349,0.0011574712010142092,hog,20191204
2019-12-04,11:25,11:25 AM,36.28,36.28,36.28,50,1814.0,1,36.31,36.27,36.287,2794,101386.625,23,36.28,36.28,36.31,36.285,0.0022099447513811684,2.755883811932066e-05,hog,20191204
2019-12-04,11:26,11:26 AM,36.285,36.285,36.285,100,3628.5,1,36.285,36.27,36.279,4514,163761.1649,13,36.285,36.285,36.285,36.275,0.0023480662983423684,-0.00019291186683563624,hog,20191204
2019-12-04,11:27,11:27 AM,,,,0,0.0,0,36.275,36.27,36.273,300,10882.0,3,,,36.275,36.275,,-0.00035826489555195183,hog,20191204
2019-12-04,11:28,11:28 AM,,,,0,0.0,0,36.33,36.27,36.296,3083,111899.5,23,,,36.27,36.33,,0.00027558838119379404,hog,20191204
2019-12-04,11:29,11:29 AM,,,,0,0.0,0,36.33,36.32,36.324,1023,37159.31,7,,,36.325,36.32,,0.0010472358485365347,hog,20191204
2019-12-04,11:30,11:30 AM,,,,0,0.0,0,36.33,36.32,36.326,575,20887.375,5,,,36.33,36.32,,0.001102353524775372,hog,20191204
2019-12-04,11:31,11:31 AM,,,,0,0.0,0,36.34,36.325,36.33,1798,65321.045,16,,,36.325,36.33,,0.0012125888772528503,hog,20191204
2019-12-04,11:32,11:32 AM,,,,0,0.0,0,36.37,36.335,36.35,900,32715.5,9,,,36.335,36.37,,0.0017637656396406343,hog,20191204
2019-12-04,11:33,11:33 AM,36.34,36.34,36.34,33,1199.22,1,36.37,36.335,36.357,2239,81403.34,17,36.34,36.34,36.37,36.335,0.0038674033149171424,0.0019566775064762706,hog,20191204
2019-12-04,11:34,11:34 AM,36.36,36.335,36.346,267,9704.28,3,36.36,36.335,36.352,1121,40750.64,10,36.335,36.36,36.335,36.36,0.0040331491712705435,0.0018188833158792755,hog,20191204
2019-12-04,11:35,11:35 AM,,,,0,0.0,0,36.375,36.345,36.362,2008,73014.46,8,,,36.366,36.375,,0.0020944716970732655,hog,20191204
2019-12-04,11:36,11:36 AM,,,,0,0.0,0,36.38,36.38,36.38,400,14552.0,4,,,36.38,36.38,,0.002590530783222212,hog,20191204
2019-12-04,11:37,11:37 AM,36.39,36.39,36.39,200,7278.0,2,36.39,36.38,36.386,1250,45483.0,7,36.39,36.39,36.39,36.38,0.0052486187845303236,0.002755883811938528,hog,20191204
2019-12-04,11:38,11:38 AM,,,,0,0.0,0,36.39,36.385,36.388,600,21833.0,5,,,36.385,36.39,,0.002811001488177169,hog,20191204
2019-12-04,11:39,11:39 AM,36.39,36.37,36.371,213,7747.13,6,36.4,36.37,36.382,4311,156844.54,19,36.39,36.37,36.39,36.38,0.00472375690607733,0.0026456484594608535,hog,20191204
2019-12-04,11:40,11:40 AM,,,,0,0.0,0,36.41,36.38,36.397,1344,48917.1964,10,,,36.38,36.41,,0.0030590310312516426,hog,20191204
2019-12-04,11:41,11:41 AM,,,,0,0.0,0,36.41,36.405,36.41,1479,53849.89,13,,,36.41,36.41,,0.0034172959268035943,hog,20191204
2019-12-04,11:42,11:42 AM,36.42,36.42,36.42,210,7648.2,4,36.425,36.4,36.414,2150,78289.55,14,36.42,36.42,36.42,36.4,0.00607734806629831,0.0035275312792812687,hog,20191204
2019-12-04,11:43,11:43 AM,36.405,36.405,36.405,100,3640.5,1,36.41,36.4,36.403,819,29814.1593,8,36.405,36.405,36.4,36.405,0.005662983425414317,0.003224384059967958,hog,20191204
2019-12-04,11:44,11:44 AM,,,,0,0.0,0,36.4,36.4,36.4,300,10920.0,2,,,36.4,36.4,,0.0031417075456098,hog,20191204
2019-12-04,11:45,11:45 AM,,,,0,0.0,0,36.415,36.395,36.406,950,34585.44,7,,,36.395,36.41,,0.003307060574326116,hog,20191204
2019-12-04,11:46,11:46 AM,,,,0,0.0,0,36.41,36.4,36.403,1396,50817.9,11,,,36.4,36.41,,0.003224384059967958,hog,20191204
2019-12-04,11:47,11:47 AM,,,,0,0.0,0,36.405,36.4,36.402,637,23188.305,5,,,36.4,36.405,,0.0031968252218486375,hog,20191204
2019-12-04,11:48,11:48 AM,,,,0,0.0,0,36.404,36.404,36.404,100,3640.39,1,,,36.404,36.404,,0.0032519428980874745,hog,20191204
2019-12-04,11:49,11:49 AM,36.405,36.405,36.405,100,3640.5,1,36.42,36.4,36.408,2107,76711.37,14,36.405,36.405,36.41,36.405,0.005662983425414317,0.003362178250564953,hog,20191204
2019-12-04,11:50,11:50 AM,,,,0,0.0,0,36.405,36.4,36.402,888,32324.7,7,,,36.405,36.4,,0.0031968252218486375,hog,20191204
2019-12-04,11:51,11:51 AM,,,,0,0.0,0,,,,0,0.0,0,,,,,,,hog,20191204
2019-12-04,11:52,11:52 AM,,,,0,0.0,0,36.395,36.39,36.392,200,7278.5,2,,,36.395,36.39,,0.0029212368406548433,hog,20191204
2019-12-04,11:53,11:53 AM,36.38,36.38,36.38,2,72.76,1,36.4,36.37,36.384,2007,73022.61,13,36.38,36.38,36.4,36.375,0.004972375690607727,0.0027007661356996905,hog,20191204
2019-12-04,11:54,11:54 AM,36.38,36.38,36.38,200,7276.0,2,36.38,36.375,36.379,1948,70867.24,17,36.38,36.38,36.38,36.375,0.004972375690607727,0.0025629719451026956,hog,20191204
2019-12-04,11:55,11:55 AM,,,,0,0.0,0,36.38,36.365,36.373,1545,56197.15,12,,,36.37,36.38,,0.00239761891638638,hog,20191204
2019-12-04,11:56,11:56 AM,,,,0,0.0,0,36.385,36.37,36.377,1316,47871.8996,9,,,36.38,36.385,,0.002507854268864054,hog,20191204
2019-12-04,11:57,11:57 AM,,,,0,0.0,0,36.38,36.37,36.377,334,12149.92,2,,,36.38,36.37,,0.002507854268864054,hog,20191204
2019-12-04,11:58,11:58 AM,36.36,36.36,36.36,2,72.72,1,36.37,36.36,36.369,993,36114.41,5,36.36,36.36,36.37,36.36,0.004419889502762337,0.002287383563908902,hog,20191204
2019-12-04,11:59,11:59 AM,36.37,36.37,36.37,100,3637.0,1,36.385,36.36,36.374,2898,105413.03,24,36.37,36.37,36.36,36.375,0.004696132596684934,0.0024251777545058967,hog,20191204
2019-12-04,12:00,12 PM,36.37,36.37,36.37,100,3637.0,1,36.38,36.37,36.371,1187,43172.19,10,36.37,36.37,36.37,36.37,0.004696132596684934,0.002342501240147739,hog,20191204
2019-12-04,12:01,12:01 PM,36.36,36.33,36.35,225,8178.69,3,36.36,36.335,36.35,1543,56088.48,10,36.36,36.33,36.36,36.335,0.00414364640883974,0.0017637656396406343,hog,20191204
2019-12-04,12:02,12:02 PM,,,,0,0.0,0,36.34,36.32,36.33,3432,124685.945,18,,,36.32,36.34,,0.0012125888772528503,hog,20191204
2019-12-04,12:03,12:03 PM,,,,0,0.0,0,36.34,36.3,36.319,2722,98859.26,15,,,36.34,36.3,,0.0009094416579397357,hog,20191204
2019-12-04,12:04,12:04 PM,36.3,36.295,36.297,200,7259.5,2,36.3,36.293,36.298,2443,88676.03,16,36.295,36.3,36.3,36.3,0.0026795580110495635,0.00033070605743263113,hog,20191204
2019-12-04,12:05,12:05 PM,,,,0,0.0,0,36.31,36.305,36.308,300,10892.5,3,,,36.31,36.305,,0.0006062944386264252,hog,20191204
2019-12-04,12:06,12:06 PM,36.29,36.29,36.29,100,3629.0,1,36.3,36.283,36.294,1638,59448.9,13,36.29,36.29,36.3,36.29,0.0024861878453037653,0.00022047070495495689,hog,20191204
2019-12-04,12:07,12:07 PM,,,,0,0.0,0,36.29,36.285,36.286,1488,53994.415,4,,,36.29,36.286,,0.0,hog,20191204
2019-12-04,12:08,12:08 PM,,,,0,0.0,0,36.29,36.28,36.282,500,18141.0,5,,,36.28,36.28,,-0.00011023535247767426,hog,20191204
2019-12-04,12:09,12:09 PM,,,,0,0.0,0,36.28,36.28,36.28,100,3628.0,1,,,36.28,36.28,,-0.00016535302871631557,hog,20191204
2019-12-04,12:10,12:10 PM,36.27,36.27,36.27,100,3627.0,1,36.28,36.25,36.264,1502,54469.04,11,36.27,36.27,36.28,36.255,0.0019337016574585712,-0.0006062944386264252,hog,20191204
2019-12-04,12:11,12:11 PM,36.27,36.26,36.27,105,3808.3,3,36.27,36.25,36.26,2529,91702.54,18,36.27,36.26,36.25,36.26,0.0019337016574585712,-0.0007165297911040995,hog,20191204
2019-12-04,12:12,12:12 PM,36.265,36.265,36.265,100,3626.5,1,36.266,36.265,36.266,605,21940.685,4,36.265,36.265,36.265,36.265,0.0017955801104971745,-0.0005511767623877839,hog,20191204
2019-12-04,12:13,12:13 PM,,,,0,0.0,0,36.29,36.265,36.278,2000,72556.5,15,,,36.265,36.29,,-0.00022047070495515272,hog,20191204
2019-12-04,12:14,12:14 PM,36.29,36.29,36.29,100,3629.0,1,36.3,36.285,36.292,1457,52876.98,11,36.29,36.29,36.29,36.3,0.0024861878453037653,0.00016535302871631557,hog,20191204
2019-12-04,12:15,12:15 PM,,,,0,0.0,0,36.29,36.26,36.276,1701,61705.36,12,,,36.29,36.265,,-0.00027558838119379404,hog,20191204
2019-12-04,12:16,12:16 PM,36.265,36.265,36.265,33,1196.745,1,36.27,36.26,36.263,2151,78000.66,15,36.265,36.265,36.267,36.27,0.0017955801104971745,-0.0006338532767459417,hog,20191204
2019-12-04,12:17,12:17 PM,,,,0,0.0,0,36.27,36.268,36.27,578,20963.9,5,,,36.268,36.27,,-0.00044094140991010963,hog,20191204
2019-12-04,12:18,12:18 PM,,,,0,0.0,0,36.27,36.265,36.268,300,10880.5,3,,,36.265,36.27,,-0.0004960590861489468,hog,20191204
2019-12-04,12:19,12:19 PM,36.28,36.28,36.28,110,3990.8,2,36.285,36.27,36.276,793,28766.53,7,36.28,36.28,36.27,36.285,0.0022099447513811684,-0.00027558838119379404,hog,20191204
2019-12-04,12:20,12:20 PM,36.29,36.29,36.29,1,36.29,1,36.29,36.28,36.281,1800,65306.5,14,36.29,36.29,36.29,36.29,0.0024861878453037653,-0.00013779419059699492,hog,20191204
2019-12-04,12:21,12:21 PM,36.315,36.315,36.315,100,3631.5,1,36.325,36.29,36.311,9137,331770.4452,50,36.315,36.315,36.29,36.3,0.0031767955801103556,0.000688970952984583,hog,20191204
2019-12-04,12:22,12:22 PM,,,,0,0.0,0,,,,0,0.0,0,,,,,,,hog,20191204
2019-12-04,12:23,12:23 PM,36.305,36.285,36.299,359,13031.495,3,36.31,36.285,36.299,1582,57424.495,12,36.305,36.285,36.31,36.29,0.002734806629834161,0.00035826489555195183,hog,20191204
2019-12-04,12:24,12:24 PM,36.275,36.275,36.275,100,3627.5,1,36.285,36.275,36.281,1158,42013.24,9,36.275,36.275,36.28,36.275,0.0020718232044197715,-0.00013779419059699492,hog,20191204
2019-12-04,12:25,12:25 PM,,,,0,0.0,0,36.28,36.27,36.272,1241,45013.98,12,,,36.27,36.28,,-0.0003858237336714683,hog,20191204
2019-12-04,12:26,12:26 PM,,,,0,0.0,0,36.275,36.275,36.275,101,3663.775,1,,,36.275,36.275,,-0.0003031472193133105,hog,20191204
2019-12-04,12:27,12:27 PM,,,,0,0.0,0,36.27,36.27,36.27,400,14508.0,3,,,36.27,36.27,,-0.00044094140991010963,hog,20191204
2019-12-04,12:28,12:28 PM,,,,0,0.0,0,36.275,36.26,36.27,1258,45627.66,12,,,36.27,36.27,,-0.00044094140991010963,hog,20191204
2019-12-04,12:29,12:29 PM,,,,0,0.0,0,36.28,36.28,36.28,100,3628.0,1,,,36.28,36.28,,-0.00016535302871631557,hog,20191204
2019-12-04,12:30,12:30 PM,36.28,36.28,36.28,100,3628.0,1,36.29,36.275,36.281,1414,51301.35,12,36.28,36.28,36.275,36.29,0.0022099447513811684,-0.00013779419059699492,hog,20191204
2019-12-04,12:31,12:31 PM,,,,0,0.0,0,,,,0,0.0,0,,,,,,,hog,20191204
2019-12-04,12:32,12:32 PM,,,,0,0.0,0,36.31,36.29,36.302,3072,111520.96,17,,,36.29,36.3,,0.00044094140991010963,hog,20191204
2019-12-04,12:33,12:33 PM,36.305,36.305,36.305,100,3630.5,1,36.305,36.305,36.305,100,3630.5,1,36.305,36.305,36.305,36.305,0.0029005524861877587,0.0005236179242682674,hog,20191204
2019-12-04,12:34,12:34 PM,,,,0,0.0,0,36.31,36.295,36.301,1328,48208.165,10,,,36.31,36.295,,0.00041338257179078893,hog,20191204
2019-12-04,12:35,12:35 PM,,,,0,0.0,0,36.291,36.29,36.291,600,21774.3,2,,,36.291,36.29,,0.00013779419059679912,hog,20191204
2019-12-04,12:36,12:36 PM,36.295,36.295,36.295,100,3629.5,1,36.295,36.29,36.293,400,14517.18,4,36.295,36.295,36.29,36.295,0.0026243093922651618,0.00019291186683563624,hog,20191204
2019-12-04,12:37,12:37 PM,36.28,36.28,36.28,100,3628.0,1,36.29,36.27,36.278,2904,105351.84,18,36.28,36.28,36.29,36.28,0.0022099447513811684,-0.00022047070495515272,hog,20191204
2019-12-04,12:38,12:38 PM,,,,0,0.0,0,36.29,36.27,36.281,929,33705.38,9,,,36.27,36.29,,-0.00013779419059699492,hog,20191204
2019-12-04,12:39,12:39 PM,36.29,36.29,36.29,27,979.83,1,36.29,36.27,36.281,676,24526.28,6,36.29,36.29,36.28,36.29,0.0024861878453037653,-0.00013779419059699492,hog,20191204
2019-12-04,12:40,12:40 PM,,,,0,0.0,0,36.295,36.29,36.293,315,11432.215,2,,,36.29,36.295,,0.00019291186683563624,hog,20191204
2019-12-04,12:41,12:41 PM,,,,0,0.0,0,36.295,36.29,36.291,700,25403.5,5,,,36.29,36.295,,0.00013779419059679912,hog,20191204
2019-12-04,12:42,12:42 PM,,,,0,0.0,0,36.295,36.29,36.292,258,9363.32,2,,,36.295,36.29,,0.00016535302871631557,hog,20191204
2019-12-04,12:43,12:43 PM,,,,0,0.0,0,36.29,36.29,36.29,600,21774.0,3,,,36.29,36.29,,0.00011023535247747844,hog,20191204
2019-12-04,12:44,12:44 PM,36.29,36.29,36.29,100,3629.0,1,36.29,36.285,36.289,2274,82522.46,19,36.29,36.29,36.285,36.29,0.0024861878453037653,8.267651435815778e-05,hog,20191204
2019-12-04,12:45,12:45 PM,,,,0,0.0,0,36.32,36.29,36.31,1300,47203.0,12,,,36.29,36.32,,0.0006614121148652623,hog,20191204
2019-12-04,12:46,12:46 PM,36.32,36.32,36.32,2,72.64,1,36.32,36.32,36.32,200,7264.0,2,36.32,36.32,36.32,36.32,0.003314917127071752,0.0009370004960590564,hog,20191204
2019-12-04,12:47,12:47 PM,36.35,36.34,36.34,216,7849.5,3,36.355,36.315,36.33,781,28373.3467,6,36.34,36.35,36.318,36.355,0.0038674033149171424,0.0012125888772528503,hog,20191204
2019-12-04,12:48,12:48 PM,,,,0,0.0,0,36.36,36.34,36.344,2225,80865.18,14,,,36.35,36.36,,0.0015984126109243187,hog,20191204
2019-12-04,12:49,12:49 PM,,,,0,0.0,0,,,,0,0.0,0,,,,,,,hog,20191204
2019-12-04,12:50,12:50 PM,,,,0,0.0,0,36.365,36.365,36.365,100,3636.5,1,,,36.365,36.365,,0.002177148211431423,hog,20191204
2019-12-04,12:51,12:51 PM,,,,0,0.0,0,,,,0,0.0,0,,,,,,,hog,20191204
2019-12-04,12:52,12:52 PM,,,,0,0.0,0,36.38,36.37,36.375,400,14550.0,4,,,36.37,36.37,,0.002452736592625217,hog,20191204
2019-12-04,12:53,12:53 PM,36.38,36.37,36.378,353,12841.61,5,36.38,36.37,36.378,1896,68973.48,15,36.38,36.37,36.38,36.37,0.0049171270718231285,0.002535413106983375,hog,20191204
2019-12-04,12:54,12:54 PM,36.37,36.37,36.37,3,109.11,1,36.375,36.36,36.37,1886,68594.9069,14,36.37,36.37,36.375,36.37,0.004696132596684934,0.0023149424020282223,hog,20191204
2019-12-04,12:55,12:55 PM,36.375,36.365,36.365,101,3672.875,2,36.375,36.365,36.37,1703,61939.125,16,36.375,36.365,36.37,36.375,0.004558011049723733,0.0023149424020282223,hog,20191204
2019-12-04,12:56,12:56 PM,,,,0,0.0,0,36.375,36.375,36.375,155,5638.125,1,,,36.375,36.375,,0.002452736592625217,hog,20191204
2019-12-04,12:57,12:57 PM,36.375,36.375,36.375,101,3673.875,2,36.375,36.375,36.375,300,10912.5,3,36.375,36.375,36.375,36.375,0.00483425414364633,0.002452736592625217,hog,20191204
2019-12-04,12:58,12:58 PM,36.375,36.375,36.375,2,72.75,1,36.375,36.375,36.375,200,7275.0,2,36.375,36.375,36.375,36.375,0.00483425414364633,0.002452736592625217,hog,20191204
2019-12-04,12:59,12:59 PM,,,,0,0.0,0,36.375,36.375,36.375,500,18187.5,4,,,36.375,36.375,,0.002452736592625217,hog,20191204
2019-12-04,13:00,1 PM,,,,0,0.0,0,36.39,36.365,36.378,2839,103278.2,18,,,36.375,36.389,,0.002535413106983375,hog,20191204
2019-12-04,13:01,1:01 PM,36.375,36.375,36.375,1,36.375,1,36.385,36.375,36.378,1200,43653.5,10,36.375,36.375,36.38,36.375,0.00483425414364633,0.002535413106983375,hog,20191204
2019-12-04,13:02,1:02 PM,,,,0,0.0,0,36.37,36.365,36.368,332,12074.34,3,,,36.37,36.365,,0.002259824725789581,hog,20191204
2019-12-04,13:03,1:03 PM,36.375,36.37,36.374,228,8293.36,3,36.375,36.37,36.373,321,11675.77,3,36.37,36.375,36.37,36.375,0.004806629834254129,0.00239761891638638,hog,20191204
2019-12-04,13:04,1:04 PM,,,,0,0.0,0,36.385,36.385,36.385,250,9096.25,2,,,36.385,36.385,,0.0027283249738190114,hog,20191204
2019-12-04,13:05,1:05 PM,36.39,36.39,36.39,9,327.51,2,36.41,36.385,36.398,1415,51503.1696,13,36.39,36.39,36.385,36.39,0.0052486187845303236,0.003086589869371159,hog,20191204
2019-12-04,13:06,1:06 PM,,,,0,0.0,0,36.4,36.395,36.399,800,29119.5,8,,,36.395,36.4,,0.0031141487074904796,hog,20191204
2019-12-04,13:07,1:07 PM,36.405,36.405,36.405,200,7281.0,2,36.405,36.395,36.403,900,32763.0,5,36.405,36.405,36.395,36.405,0.005662983425414317,0.003224384059967958,hog,20191204
2019-12-04,13:08,1:08 PM,36.405,36.395,36.4,215,7825.94,5,36.41,36.395,36.404,2505,91191.085,15,36.395,36.4,36.4,36.405,0.0055248618784529205,0.0032519428980874745,hog,20191204
2019-12-04,13:09,1:09 PM,36.405,36.405,36.405,1,36.405,1,36.405,36.405,36.405,200,7281.0,2,36.405,36.405,36.405,36.405,0.005662983425414317,0.003279501736206795,hog,20191204
2019-12-04,13:10,1:10 PM,36.405,36.405,36.405,101,3676.905,2,36.405,36.405,36.405,100,3640.5,1,36.405,36.405,36.405,36.405,0.005662983425414317,0.003279501736206795,hog,20191204
2019-12-04,13:11,1:11 PM,,,,0,0.0,0,36.405,36.4,36.403,300,10921.0,3,,,36.405,36.4,,0.003224384059967958,hog,20191204
2019-12-04,13:12,1:12 PM,36.405,36.405,36.405,1,36.405,1,36.4,36.39,36.399,888,32322.2,4,36.405,36.405,36.4,36.39,0.005662983425414317,0.0031141487074904796,hog,20191204
2019-12-04,13:13,1:13 PM,36.395,36.395,36.395,1,36.395,1,36.395,36.39,36.392,200,7278.5,2,36.395,36.395,36.395,36.39,0.0053867403314917205,0.0029212368406548433,hog,20191204
2019-12-04,13:14,1:14 PM,36.405,36.38,36.404,106,3858.86,5,36.405,36.38,36.392,3218,117109.69,22,36.385,36.405,36.39,36.405,0.005635359116022116,0.0029212368406548433,hog,20191204
2019-12-04,13:15,1:15 PM,36.4,36.4,36.4,1,36.4,1,36.41,36.395,36.404,1556,56644.62,6,36.4,36.4,36.405,36.4,0.0055248618784529205,0.0032519428980874745,hog,20191204
2019-12-04,13:16,1:16 PM,36.405,36.405,36.405,100,3640.5,1,36.41,36.4,36.404,1393,50710.63,10,36.405,36.405,36.4,36.405,0.005662983425414317,0.0032519428980874745,hog,20191204
2019-12-04,13:17,1:17 PM,36.415,36.415,36.415,5,182.075,2,36.415,36.4,36.411,2076,75588.565,15,36.415,36.415,36.415,36.405,0.005939226519336914,0.0034448547649231108,hog,20191204
2019-12-04,13:18,1:18 PM,36.4,36.4,36.4,2,72.8,1,36.405,36.405,36.405,900,32764.5,4,36.4,36.4,36.405,36.405,0.0055248618784529205,0.003279501736206795,hog,20191204
2019-12-04,13:19,1:19 PM,36.39,36.38,36.39,102,3711.77,3,36.41,36.38,36.402,6211,226090.65,47,36.38,36.39,36.41,36.405,0.0052486187845303236,0.0031968252218486375,hog,20191204
2019-12-04,13:20,1:20 PM,36.395,36.385,36.39,6,218.34,2,36.405,36.38,36.394,1100,40033.5,10,36.395,36.385,36.405,36.39,0.0052486187845303236,0.0029763545168934847,hog,20191204
2019-12-04,13:21,1:21 PM,36.405,36.395,36.398,210,7643.55,4,36.41,36.385,36.399,3920,142683.8326,22,36.395,36.4,36.385,36.4,0.005469613259668519,0.0031141487074904796,hog,20191204
2019-12-04,13:22,1:22 PM,36.405,36.405,36.405,2,72.81,1,36.41,36.405,36.406,500,18203.0,4,36.405,36.405,36.41,36.405,0.005662983425414317,0.003307060574326116,hog,20191204
2019-12-04,13:23,1:23 PM,36.405,36.405,36.405,1,36.405,1,,,,0,0.0,0,36.405,36.405,,,0.005662983425414317,0.003279501736206795,hog,20191204
2019-12-04,13:24,1:24 PM,,,,0,0.0,0,36.405,36.405,36.405,100,3640.5,1,,,36.405,36.405,,0.003279501736206795,hog,20191204
2019-12-04,13:25,1:25 PM,36.405,36.39,36.395,207,7533.805,7,36.41,36.38,36.398,8548,311127.3143,58,36.405,36.405,36.409,36.385,0.0053867403314917205,0.003086589869371159,hog,20191204
2019-12-04,13:26,1:26 PM,,,,0,0.0,0,36.39,36.384,36.385,1226,44608.2224,6,,,36.385,36.384,,0.0027283249738190114,hog,20191204
2019-12-04,13:27,1:27 PM,36.38,36.375,36.376,112,4074.06,5,36.39,36.375,36.382,5338,194207.1325,37,36.38,36.375,36.39,36.38,0.00486187845303853,0.0026456484594608535,hog,20191204
2019-12-04,13:28,1:28 PM,36.385,36.385,36.385,100,3638.5,1,36.39,36.385,36.389,500,18194.5,5,36.385,36.385,36.39,36.39,0.005110497237568927,0.0028385603262966854,hog,20191204
2019-12-04,13:29,1:29 PM,,,,0,0.0,0,36.395,36.39,36.39,1100,40029.5,10,,,36.39,36.395,,0.0028661191644160063,hog,20191204
2019-12-04,13:30,1:30 PM,36.405,36.405,36.405,104,3786.12,2,36.405,36.395,36.401,2300,83723.0,13,36.405,36.405,36.4,36.405,0.005662983425414317,0.0031692663837293166,hog,20191204
2019-12-04,13:31,1:31 PM,36.4,36.4,36.4,14,509.6,1,36.41,36.39,36.402,1999,72768.56,11,36.4,36.4,36.41,36.4,0.0055248618784529205,0.0031968252218486375,hog,20191204
2019-12-04,13:32,1:32 PM,,,,0,0.0,0,36.4,36.395,36.396,396,14412.92,3,,,36.4,36.395,,0.0030314721931323217,hog,20191204
2019-12-04,13:33,1:33 PM,36.395,36.38,36.381,111,4038.305,5,36.4,36.38,36.391,2930,106625.2,17,36.38,36.395,36.4,36.39,0.004999999999999927,0.0028936780025353268,hog,20191204
2019-12-04,13:34,1:34 PM,,,,0,0.0,0,36.39,36.385,36.387,909,33076.01,8,,,36.385,36.385,,0.0027834426500578484,hog,20191204
2019-12-04,13:35,1:35 PM,36.38,36.38,36.38,100,3638.0,1,36.39,36.38,36.381,1903,69233.14,17,36.38,36.38,36.38,36.39,0.004972375690607727,0.002618089621341533,hog,20191204
2019-12-04,13:36,1:36 PM,,,,0,0.0,0,,,,0,0.0,0,,,,,,,hog,20191204
2019-12-04,13:37,1:37 PM,,,,0,0.0,0,36.39,36.38,36.384,614,22339.82,6,,,36.39,36.38,,0.0027007661356996905,hog,20191204
2019-12-04,13:38,1:38 PM,36.385,36.385,36.385,100,3638.5,1,36.39,36.38,36.386,1351,49156.88,13,36.385,36.385,36.38,36.39,0.005110497237568927,0.002755883811938528,hog,20191204
2019-12-04,13:39,1:39 PM,,,,0,0.0,0,36.39,36.38,36.385,798,29035.23,7,,,36.38,36.39,,0.0027283249738190114,hog,20191204
2019-12-04,13:40,1:40 PM,36.39,36.39,36.39,1,36.39,1,36.4,36.39,36.391,808,29404.12,7,36.39,36.39,36.39,36.4,0.0052486187845303236,0.0028936780025353268,hog,20191204
2019-12-04,13:41,1:41 PM,,,,0,0.0,0,36.4,36.39,36.398,1200,43677.5,8,,,36.4,36.39,,0.003086589869371159,hog,20191204
2019-12-04,13:42,1:42 PM,,,,0,0.0,0,36.4,36.4,36.4,200,7280.0,1,,,36.4,36.4,,0.0031417075456098,hog,20191204
2019-12-04,13:43,1:43 PM,36.405,36.4,36.402,208,7571.7,3,36.405,36.4,36.401,1342,48849.8,11,36.4,36.405,36.4,36.405,0.005580110497237519,0.0031692663837293166,hog,20191204
2019-12-04,13:44,1:44 PM,36.4,36.39,36.395,199,7242.6,4,36.41,36.39,36.402,2022,73604.735,13,36.4,36.39,36.405,36.4,0.0053867403314917205,0.0031968252218486375,hog,20191204
2019-12-04,13:45,1:45 PM,36.395,36.395,36.395,4,145.58,1,36.4,36.4,36.4,300,10920.0,3,36.395,36.395,36.4,36.4,0.0053867403314917205,0.0031417075456098,hog,20191204
2019-12-04,13:46,1:46 PM,36.405,36.395,36.405,106,3858.905,5,36.405,36.391,36.4,2731,99407.29,18,36.405,36.395,36.4,36.4,0.005662983425414317,0.0031417075456098,hog,20191204
2019-12-04,13:47,1:47 PM,36.395,36.38,36.382,158,5748.315,5,36.39,36.38,36.389,2276,82821.47,15,36.395,36.38,36.39,36.385,0.005027624309392128,0.0028385603262966854,hog,20191204
2019-12-04,13:48,1:48 PM,36.39,36.385,36.385,101,3674.89,2,36.4,36.385,36.393,2535,92256.65,22,36.385,36.39,36.39,36.4,0.005110497237568927,0.0029487956787741638,hog,20191204
2019-12-04,13:49,1:49 PM,36.395,36.395,36.395,6,218.37,2,36.4,36.39,36.397,700,25478.0,6,36.395,36.395,36.4,36.395,0.0053867403314917205,0.0030590310312516426,hog,20191204
2019-12-04,13:50,1:50 PM,36.4,36.4,36.4,1,36.4,1,36.405,36.39,36.398,1500,54597.5,15,36.4,36.4,36.39,36.4,0.0055248618784529205,0.003086589869371159,hog,20191204
2019-12-04,13:51,1:51 PM,36.405,36.405,36.405,100,3640.5,1,36.405,36.403,36.404,595,21660.575,4,36.405,36.405,36.405,36.405,0.005662983425414317,0.0032519428980874745,hog,20191204
2019-12-04,13:52,1:52 PM,,,,0,0.0,0,,,,0,0.0,0,,,,,,,hog,20191204
2019-12-04,13:53,1:53 PM,36.41,36.4,36.407,211,7681.945,6,36.41,36.39,36.403,6151,223916.39,29,36.405,36.405,36.4,36.39,0.005718232044198719,0.003224384059967958,hog,20191204
2019-12-04,13:54,1:54 PM,36.39,36.385,36.39,100,3638.99,3,36.395,36.385,36.39,1243,45233.155,6,36.39,36.39,36.395,36.385,0.0052486187845303236,0.0028661191644160063,hog,20191204
2019-12-04,13:55,1:55 PM,36.38,36.38,36.38,195,7094.1,2,36.38,36.37,36.379,1291,46965.08,6,36.38,36.38,36.38,36.375,0.004972375690607727,0.0025629719451026956,hog,20191204
2019-12-04,13:56,1:56 PM,36.37,36.37,36.37,200,7274.0,2,36.38,36.345,36.363,4797,174434.9626,27,36.37,36.37,36.38,36.345,0.004696132596684934,0.002122030535192586,hog,20191204
2019-12-04,13:57,1:57 PM,36.325,36.31,36.322,1151,41807.07,8,36.34,36.31,36.324,23488,853189.03,115,36.31,36.325,36.34,36.32,0.0033701657458563503,0.0010472358485365347,hog,20191204
2019-12-04,13:58,1:58 PM,36.33,36.325,36.328,204,7410.82,3,36.35,36.325,36.338,4527,164501.045,31,36.325,36.33,36.325,36.335,0.003535911602209948,0.0014330595822080031,hog,20191204
2019-12-04,13:59,1:59 PM,36.33,36.325,36.328,200,7265.5,2,36.33,36.32,36.326,800,29061.0,8,36.33,36.325,36.33,36.33,0.003535911602209948,0.001102353524775372,hog,20191204
2019-12-04,14:00,2 PM,36.325,36.325,36.325,300,10897.5,3,36.34,36.325,36.329,2211,80323.13,21,36.325,36.325,36.325,36.34,0.003453038674033149,0.0011850300391335296,hog,20191204
2019-12-04,14:01,2:01 PM,,,,0,0.0,0,36.34,36.335,36.339,551,20022.84,5,,,36.34,36.34,,0.0014606184203273238,hog,20191204
2019-12-04,14:02,2:02 PM,36.345,36.345,36.345,100,3634.5,1,36.345,36.345,36.345,700,25441.5,7,36.345,36.345,36.345,36.345,0.004005524861878343,0.0016259714490436392,hog,20191204
2019-12-04,14:03,2:03 PM,36.335,36.335,36.335,100,3633.5,1,36.345,36.335,36.339,1278,46441.1,10,36.335,36.335,36.345,36.335,0.003729281767955746,0.0014606184203273238,hog,20191204
2019-12-04,14:04,2:04 PM,,,,0,0.0,0,36.34,36.335,36.337,1000,36337.0,4,,,36.34,36.335,,0.0014055007440886824,hog,20191204
2019-12-04,14:05,2:05 PM,36.315,36.315,36.315,100,3631.5,1,36.33,36.315,36.323,3627,131743.0684,18,36.315,36.315,36.33,36.315,0.0031767955801103556,0.001019677010417214,hog,20191204
2019-12-04,14:06,2:06 PM,36.315,36.315,36.315,100,3631.5,1,36.32,36.315,36.318,646,23461.22,5,36.315,36.315,36.32,36.32,0.0031767955801103556,0.0008818828198202193,hog,20191204
2019-12-04,14:07,2:07 PM,36.295,36.29,36.292,284,10306.86,6,36.31,36.28,36.3,3553,128974.23,28,36.295,36.29,36.31,36.295,0.002541436464088363,0.0003858237336712725,hog,20191204
2019-12-04,14:08,2:08 PM,,,,0,0.0,0,36.29,36.285,36.288,700,25402.0,6,,,36.29,36.285,,5.511767623864132e-05,hog,20191204
2019-12-04,14:09,2:09 PM,36.29,36.29,36.29,100,3629.0,1,36.29,36.285,36.288,1211,43944.19,8,36.29,36.29,36.29,36.285,0.0024861878453037653,5.511767623864132e-05,hog,20191204
2019-12-04,14:10,2:10 PM,36.295,36.295,36.295,100,3629.5,1,36.297,36.29,36.294,400,14517.75,4,36.295,36.295,36.295,36.29,0.0026243093922651618,0.00022047070495495689,hog,20191204
2019-12-04,14:11,2:11 PM,36.295,36.295,36.295,100,3629.5,1,36.295,36.27,36.287,3134,113722.97,21,36.295,36.295,36.295,36.275,0.0026243093922651618,2.755883811932066e-05,hog,20191204
2019-12-04,14:12,2:12 PM,,,,0,0.0,0,36.27,36.26,36.266,1100,39893.0,9,,,36.27,36.26,,-0.0005511767623877839,hog,20191204
2019-12-04,14:13,2:13 PM,,,,0,0.0,0,36.27,36.265,36.266,400,14506.5,4,,,36.265,36.265,,-0.0005511767623877839,hog,20191204
2019-12-04,14:14,2:14 PM,36.265,36.265,36.265,100,3626.5,1,36.295,36.265,36.282,3780,137144.19,32,36.265,36.265,36.265,36.285,0.0017955801104971745,-0.00011023535247767426,hog,20191204
2019-12-04,14:15,2:15 PM,36.295,36.29,36.292,200,7258.5,2,36.295,36.285,36.289,1100,39918.0,10,36.295,36.29,36.285,36.285,0.002541436464088363,8.267651435815778e-05,hog,20191204
2019-12-04,14:16,2:16 PM,36.28,36.28,36.28,21,761.88,3,36.285,36.265,36.276,2206,80025.62,16,36.28,36.28,36.285,36.265,0.0022099447513811684,-0.00027558838119379404,hog,20191204
2019-12-04,14:17,2:17 PM,36.265,36.265,36.265,1,36.265,1,36.275,36.26,36.268,2009,72863.36,13,36.265,36.265,36.27,36.26,0.0017955801104971745,-0.0004960590861489468,hog,20191204
2019-12-04,14:18,2:18 PM,,,,0,0.0,0,36.27,36.26,36.263,640,23208.42,6,,,36.26,36.27,,-0.0006338532767459417,hog,20191204
2019-12-04,14:19,2:19 PM,,,,0,0.0,0,36.26,36.25,36.257,1767,64066.42,13,,,36.26,36.25,,-0.0007992063054622573,hog,20191204
2019-12-04,14:20,2:20 PM,,,,0,0.0,0,36.25,36.245,36.249,1115,40418.25,11,,,36.25,36.25,,-0.001019677010417214,hog,20191204
2019-12-04,14:21,2:21 PM,,,,0,0.0,0,36.25,36.24,36.246,1088,39436.17,9,,,36.245,36.24,,-0.001102353524775372,hog,20191204
2019-12-04,14:22,2:22 PM,,,,0,0.0,0,36.24,36.23,36.237,1991,72148.095,15,,,36.24,36.235,,-0.0013503830678498452,hog,20191204
2019-12-04,14:23,2:23 PM,,,,0,0.0,0,36.235,36.235,36.235,100,3623.5,1,,,36.235,36.235,,-0.0014055007440886824,hog,20191204
2019-12-04,14:24,2:24 PM,36.215,36.215,36.215,100,3621.5,1,36.23,36.215,36.224,2271,82264.485,14,36.215,36.215,36.23,36.215,0.00041436464088399357,-0.001708647963401993,hog,20191204
2019-12-04,14:25,2:25 PM,36.21,36.21,36.21,3,108.63,1,36.22,36.21,36.218,1300,47083.7,4,36.21,36.21,36.22,36.21,0.00027624309392259693,-0.0018740009921181127,hog,20191204
2019-12-04,14:26,2:26 PM,36.225,36.225,36.225,100,3622.5,1,36.23,36.21,36.22,3897,141150.25,20,36.225,36.225,36.215,36.21,0.0006906077348065906,-0.0018188833158794713,hog,20191204
2019-12-04,14:27,2:27 PM,36.2,36.2,36.2,2,72.4,1,36.21,36.19,36.2,1609,58246.255,13,36.2,36.2,36.21,36.19,0.0,-0.0023700600782670593,hog,20191204
2019-12-04,14:28,2:28 PM,,,,0,0.0,0,36.2,36.19,36.194,900,32574.5,8,,,36.19,36.195,,-0.002535413106983375,hog,20191204
2019-12-04,14:29,2:29 PM,36.2,36.2,36.2,36,1303.2,1,36.2,36.195,36.197,300,10859.0,3,36.2,36.2,36.2,36.195,0.0,-0.002452736592625217,hog,20191204
2019-12-04,14:30,2:30 PM,,,,0,0.0,0,36.2,36.19,36.197,600,21718.5,6,,,36.2,36.19,,-0.002452736592625217,hog,20191204
2019-12-04,14:31,2:31 PM,36.19,36.19,36.19,100,3619.0,1,36.2,36.19,36.195,900,32575.5,5,36.19,36.19,36.195,36.195,-0.0002762430939227932,-0.002507854268864054,hog,20191204
2019-12-04,14:32,2:32 PM,36.23,36.195,36.205,462,16726.9,5,36.245,36.19,36.218,10260,371600.04,77,36.195,36.23,36.195,36.225,0.00013812154696120035,-0.0018740009921181127,hog,20191204
2019-12-04,14:33,2:33 PM,,,,0,0.0,0,36.225,36.185,36.206,4456,161332.077,30,,,36.221,36.19,,-0.002204707049550744,hog,20191204
2019-12-04,14:34,2:34 PM,36.19,36.19,36.19,200,7238.0,2,36.215,36.187,36.196,3179,115065.8681,22,36.19,36.19,36.19,36.215,-0.0002762430939227932,-0.0024802954307447337,hog,20191204
2019-12-04,14:35,2:35 PM,36.21,36.21,36.21,100,3621.0,1,36.22,36.2,36.208,1406,50907.76,12,36.21,36.21,36.22,36.21,0.00027624309392259693,-0.0021495893733121025,hog,20191204
2019-12-04,14:36,2:36 PM,,,,0,0.0,0,36.21,36.205,36.209,500,18104.5,5,,,36.21,36.205,,-0.002122030535192586,hog,20191204
2019-12-04,14:37,2:37 PM,36.21,36.21,36.21,100,3621.0,1,36.21,36.21,36.21,487,17634.27,4,36.21,36.21,36.21,36.21,0.00027624309392259693,-0.0020944716970732655,hog,20191204
2019-12-04,14:38,2:38 PM,36.19,36.185,36.187,207,7490.795,3,36.2,36.18,36.197,13772,498506.705,26,36.185,36.19,36.2,36.18,-0.00035911602209959194,-0.002452736592625217,hog,20191204
2019-12-04,14:39,2:39 PM,36.175,36.175,36.175,2,72.35,1,36.17,36.17,36.17,100,3617.0,1,36.175,36.175,36.17,36.17,-0.0006906077348067868,-0.0031968252218486375,hog,20191204
2019-12-04,14:40,2:40 PM,36.175,36.175,36.175,1,36.175,1,36.18,36.17,36.173,682,24669.85,6,36.175,36.175,36.17,36.17,-0.0006906077348067868,-0.0031141487074904796,hog,20191204
2019-12-04,14:41,2:41 PM,36.175,36.175,36.175,102,3689.85,3,36.176,36.17,36.175,1312,47462.1785,6,36.175,36.175,36.175,36.17,-0.0006906077348067868,-0.003059031031251838,hog,20191204
2019-12-04,14:42,2:42 PM,36.175,36.175,36.175,1,36.175,1,36.175,36.175,36.175,270,9767.169,1,36.175,36.175,36.175,36.175,-0.0006906077348067868,-0.003059031031251838,hog,20191204
2019-12-04,14:43,2:43 PM,,,,0,0.0,0,36.17,36.155,36.166,2282,82529.94,10,,,36.17,36.155,,-0.0033070605743263115,hog,20191204
2019-12-04,14:44,2:44 PM,36.155,36.155,36.155,4,144.62,2,36.16,36.15,36.154,400,14461.5,4,36.155,36.155,36.16,36.15,-0.0012430939226519807,-0.003637766631758747,hog,20191204
2019-12-04,14:45,2:45 PM,36.16,36.16,36.16,1,36.16,1,36.165,36.155,36.16,2739,99043.265,17,36.16,36.16,36.155,36.165,-0.0011049723756907804,-0.0034724136030426273,hog,20191204
2019-12-04,14:46,2:46 PM,36.17,36.165,36.166,114,4122.88,2,36.17,36.165,36.167,958,34648.495,7,36.165,36.17,36.165,36.165,-0.000939226519337183,-0.003279501736206795,hog,20191204
2019-12-04,14:47,2:47 PM,36.175,36.17,36.172,186,6728.01,5,36.18,36.17,36.172,1230,44491.1,11,36.17,36.175,36.17,36.175,-0.0007734806629835856,-0.003141707545609996,hog,20191204
2019-12-04,14:48,2:48 PM,36.165,36.165,36.165,100,3616.5,1,36.175,36.165,36.17,992,35880.64,7,36.165,36.165,36.17,36.17,-0.0009668508287293837,-0.0031968252218486375,hog,20191204
2019-12-04,14:49,2:49 PM,,,,0,0.0,0,36.16,36.155,36.158,1158,41870.855,7,,,36.16,36.155,,-0.0035275312792812687,hog,20191204
2019-12-04,14:50,2:50 PM,36.18,36.16,36.16,104,3760.7,4,36.19,36.16,36.172,2472,89418.6,21,36.16,36.18,36.16,36.185,-0.0011049723756907804,-0.003141707545609996,hog,20191204
2019-12-04,14:51,2:51 PM,36.185,36.185,36.185,1,36.185,1,36.19,36.185,36.188,300,10856.5,3,36.185,36.185,36.19,36.19,-0.00041436464088399357,-0.0027007661356996905,hog,20191204
2019-12-04,14:52,2:52 PM,36.185,36.185,36.185,8,289.48,1,36.185,36.175,36.18,1217,44031.06,7,36.185,36.185,36.185,36.18,-0.00041436464088399357,-0.0029212368406548433,hog,20191204
2019-12-04,14:53,2:53 PM,,,,0,0.0,0,36.175,36.175,36.175,100,3617.5,1,,,36.175,36.175,,-0.003059031031251838,hog,20191204
2019-12-04,14:54,2:54 PM,36.175,36.175,36.175,101,3653.675,2,36.175,36.155,36.167,1576,56998.64,10,36.175,36.175,36.175,36.155,-0.0006906077348067868,-0.003279501736206795,hog,20191204
2019-12-04,14:55,2:55 PM,36.155,36.15,36.151,101,3651.22,5,36.155,36.15,36.153,4499,162652.55,5,36.155,36.155,36.153,36.155,-0.0013535911602209803,-0.0036653254698782636,hog,20191204
2019-12-04,14:56,2:56 PM,,,,0,0.0,0,36.155,36.155,36.155,200,7231.0,2,,,36.155,36.155,,-0.003610207793639426,hog,20191204
2019-12-04,14:57,2:57 PM,,,,0,0.0,0,36.16,36.155,36.156,426,15402.5276,4,,,36.16,36.155,,-0.0035826489555201057,hog,20191204
2019-12-04,14:58,2:58 PM,36.155,36.14,36.148,314,11350.46,4,36.155,36.14,36.148,3802,137436.78,26,36.155,36.145,36.155,36.145,-0.001436464088397779,-0.0038031196604750624,hog,20191204
2019-12-04,14:59,2:59 PM,36.155,36.145,36.145,409,14783.395,6,36.155,36.14,36.148,3962,143219.68,28,36.145,36.155,36.14,36.155,-0.0015193370165745776,-0.0038031196604750624,hog,20191204
2019-12-04,15:00,3 PM,36.155,36.145,36.15,191,6904.605,3,36.155,36.145,36.15,2838,102594.2,20,36.155,36.145,36.155,36.145,-0.0013812154696133774,-0.003748001984236421,hog,20191204
2019-12-04,15:01,3:01 PM,36.145,36.145,36.145,200,7229.0,2,36.145,36.145,36.145,1079,39000.455,9,36.145,36.145,36.145,36.145,-0.0015193370165745776,-0.0038857961748332203,hog,20191204
2019-12-04,15:02,3:02 PM,,,,0,0.0,0,36.145,36.14,36.142,405,14637.725,4,,,36.145,36.14,,-0.003968472689191378,hog,20191204
2019-12-04,15:03,3:03 PM,36.14,36.14,36.14,2,72.28,1,36.155,36.14,36.146,1752,63328.4615,15,36.14,36.14,36.14,36.145,-0.0016574585635359743,-0.0038582373367139,hog,20191204
2019-12-04,15:04,3:04 PM,,,,0,0.0,0,36.15,36.14,36.145,792,28626.84,7,,,36.14,36.145,,-0.0038857961748332203,hog,20191204
2019-12-04,15:05,3:05 PM,,,,0,0.0,0,36.15,36.145,36.146,400,14458.5,4,,,36.15,36.145,,-0.0038582373367139,hog,20191204
2019-12-04,15:06,3:06 PM,,,,0,0.0,0,36.15,36.14,36.145,900,32530.5,9,,,36.14,36.15,,-0.0038857961748332203,hog,20191204
2019-12-04,15:07,3:07 PM,,,,0,0.0,0,36.15,36.14,36.146,400,14458.5,4,,,36.14,36.15,,-0.0038582373367139,hog,20191204
2019-12-04,15:08,3:08 PM,36.145,36.145,36.145,200,7229.0,2,36.15,36.145,36.148,758,27399.91,7,36.145,36.145,36.15,36.15,-0.0015193370165745776,-0.0038031196604750624,hog,20191204
2019-12-04,15:09,3:09 PM,,,,0,0.0,0,36.15,36.145,36.149,1483,53608.45,11,,,36.145,36.15,,-0.003775560822355742,hog,20191204
2019-12-04,15:10,3:10 PM,36.15,36.145,36.148,600,21688.5,5,36.15,36.14,36.145,1449,52374.86,13,36.145,36.15,36.145,36.15,-0.001436464088397779,-0.0038857961748332203,hog,20191204
2019-12-04,15:11,3:11 PM,36.145,36.145,36.145,100,3614.5,1,36.145,36.145,36.145,1084,39181.18,8,36.145,36.145,36.145,36.145,-0.0015193370165745776,-0.0038857961748332203,hog,20191204
2019-12-04,15:12,3:12 PM,,,,0,0.0,0,36.15,36.13,36.136,4036,145847.155,17,,,36.15,36.135,,-0.004133825717907694,hog,20191204
2019-12-04,15:13,3:13 PM,36.135,36.13,36.135,103,3721.89,2,36.14,36.13,36.135,3900,140927.5,9,36.135,36.13,36.14,36.14,-0.001795580110497371,-0.00416138455602721,hog,20191204
2019-12-04,15:14,3:14 PM,36.13,36.13,36.13,197,7117.61,2,36.14,36.12,36.131,2961,106985.105,22,36.13,36.13,36.135,36.125,-0.0019337016574585712,-0.004271619908504689,hog,20191204
2019-12-04,15:15,3:15 PM,36.135,36.135,36.135,9,325.215,1,36.14,36.12,36.13,6000,216783.47,40,36.135,36.135,36.12,36.13,-0.001795580110497371,-0.004299178746624009,hog,20191204
2019-12-04,15:16,3:16 PM,36.12,36.12,36.12,200,7224.0,4,36.13,36.12,36.124,4414,159450.76,29,36.12,36.12,36.13,36.12,-0.0022099447513813644,-0.004464531775340325,hog,20191204
2019-12-04,15:17,3:17 PM,36.115,36.115,36.115,200,7223.0,2,36.12,36.11,36.115,2600,93900.0,14,36.115,36.115,36.115,36.115,-0.002348066298342565,-0.0047125613184147985,hog,20191204
2019-12-04,15:18,3:18 PM,36.12,36.115,36.116,542,19574.83,7,36.12,36.114,36.116,1148,41461.3949,10,36.12,36.115,36.12,36.115,-0.002320441988950364,-0.004685002480295478,hog,20191204
2019-12-04,15:19,3:19 PM,36.12,36.115,36.117,200,7223.5,2,36.12,36.115,36.118,1100,39729.5,11,36.115,36.12,36.115,36.12,-0.002292817679558163,-0.004629884804056641,hog,20191204
2019-12-04,15:20,3:20 PM,36.115,36.11,36.112,200,7222.5,2,36.12,36.11,36.117,1400,50563.5,14,36.115,36.11,36.115,36.115,-0.0024309392265193636,-0.004657443642176157,hog,20191204
2019-12-04,15:21,3:21 PM,36.115,36.115,36.115,100,3611.5,1,36.12,36.115,36.117,918,33155.66,8,36.115,36.115,36.115,36.12,-0.002348066298342565,-0.004657443642176157,hog,20191204
2019-12-04,15:22,3:22 PM,36.12,36.115,36.117,200,7223.5,2,36.12,36.11,36.117,2408,86970.42,21,36.12,36.115,36.12,36.12,-0.002292817679558163,-0.004657443642176157,hog,20191204
2019-12-04,15:23,3:23 PM,,,,0,0.0,0,36.12,36.11,36.117,1097,39620.655,10,,,36.115,36.115,,-0.004657443642176157,hog,20191204
2019-12-04,15:24,3:24 PM,36.115,36.115,36.115,100,3611.5,1,36.12,36.11,36.115,3602,130084.9898,13,36.115,36.115,36.115,36.115,-0.002348066298342565,-0.0047125613184147985,hog,20191204
2019-12-04,15:25,3:25 PM,,,,0,0.0,0,36.12,36.11,36.114,1300,46948.0,12,,,36.12,36.115,,-0.004740120156534315,hog,20191204
2019-12-04,15:26,3:26 PM,36.11,36.1,36.106,500,18053.0,5,36.11,36.1,36.107,3862,139445.045,28,36.1,36.105,36.11,36.105,-0.002596685082872961,-0.004933032023369951,hog,20191204
2019-12-04,15:27,3:27 PM,36.105,36.105,36.105,54,1949.67,1,36.11,36.1,36.107,1008,36395.82,9,36.105,36.105,36.11,36.105,-0.0026243093922653582,-0.004933032023369951,hog,20191204
2019-12-04,15:28,3:28 PM,36.105,36.1,36.103,34,1227.52,2,36.11,36.1,36.105,3100,111924.9,21,36.105,36.1,36.105,36.1,-0.0026795580110497595,-0.004988149699608788,hog,20191204
2019-12-04,15:29,3:29 PM,36.11,36.105,36.106,602,21736.01,14,36.12,36.1,36.109,10066,363470.665,80,36.105,36.11,36.105,36.11,-0.002596685082872961,-0.0048779143471311135,hog,20191204
2019-12-04,15:30,3:30 PM,36.12,36.065,36.069,105,3787.235,5,36.12,36.065,36.09,13148,474518.57,76,36.12,36.065,36.12,36.065,-0.003618784530386746,-0.005401532271399381,hog,20191204
2019-12-04,15:31,3:31 PM,,,,0,0.0,0,36.07,36.04,36.056,4126,148767.09,28,,,36.065,36.04,,-0.006338532767458633,hog,20191204
2019-12-04,15:32,3:32 PM,36.045,36.045,36.045,100,3604.5,1,36.05,36.04,36.045,1000,36045.0,10,36.045,36.045,36.045,36.045,-0.004281767955801136,-0.006641679986771748,hog,20191204
2019-12-04,15:33,3:33 PM,36.04,36.04,36.04,100,3604.0,1,36.05,36.04,36.042,1200,43251.0,12,36.04,36.04,36.04,36.045,-0.004419889502762533,-0.006724356501129906,hog,20191204
2019-12-04,15:34,3:34 PM,36.045,36.045,36.045,100,3604.5,1,36.05,36.04,36.043,1300,46856.5,12,36.045,36.045,36.04,36.04,-0.004281767955801136,-0.006696797663010585,hog,20191204
2019-12-04,15:35,3:35 PM,36.045,36.01,36.026,826,29757.635,8,36.045,36.01,36.022,9067,326614.9485,67,36.045,36.01,36.045,36.01,-0.004806629834254129,-0.00727553326351769,hog,20191204
2019-12-04,15:36,3:36 PM,,,,0,0.0,0,36.015,36.01,36.011,1046,37668.0,9,,,36.01,36.01,,-0.007578680482830805,hog,20191204
2019-12-04,15:37,3:37 PM,,,,0,0.0,0,36.02,36.0,36.01,4562,164275.88,27,,,36.015,36.005,,-0.007606239320950321,hog,20191204
2019-12-04,15:38,3:38 PM,36.005,35.995,35.998,600,21598.5,6,36.01,35.99,35.998,3715,133732.47,30,36.0,35.995,36.01,35.995,-0.005580110497237715,-0.007936945378382953,hog,20191204
2019-12-04,15:39,3:39 PM,35.99,35.985,35.987,400,14395.0,3,36.0,35.98,35.988,5275,189838.88,41,35.985,35.99,35.99,35.985,-0.005883977900552512,-0.008212533759576746,hog,20191204
2019-12-04,15:40,3:40 PM,35.99,35.985,35.987,300,10796.0,3,35.99,35.98,35.985,6687,240632.335,52,35.985,35.99,35.98,35.985,-0.005883977900552512,-0.008295210273934903,hog,20191204
2019-12-04,15:41,3:41 PM,35.97,35.97,35.97,100,3597.0,1,35.985,35.97,35.978,2419,87031.085,21,35.97,35.97,35.985,35.97,-0.006353591160221104,-0.00848812214077054,hog,20191204
2019-12-04,15:42,3:42 PM,,,,0,0.0,0,35.97,35.95,35.959,2728,98095.065,21,,,35.97,35.95,,-0.009011740065038807,hog,20191204
2019-12-04,15:43,3:43 PM,35.955,35.955,35.955,304,10930.32,5,35.96,35.95,35.954,2582,92832.196,22,35.955,35.955,35.95,35.95,-0.006767955801105097,-0.009149534255635802,hog,20191204
2019-12-04,15:44,3:44 PM,35.955,35.95,35.955,96,3451.665,2,35.955,35.95,35.953,2710,97431.88,17,35.95,35.955,35.955,35.95,-0.006767955801105097,-0.009177093093755122,hog,20191204
2019-12-04,15:45,3:45 PM,35.955,35.955,35.955,305,10966.275,6,35.96,35.95,35.954,3979,143059.445,31,35.955,35.955,35.95,35.955,-0.006767955801105097,-0.009149534255635802,hog,20191204
2019-12-04,15:46,3:46 PM,35.965,35.955,35.959,512,18411.05,8,35.97,35.95,35.959,9298,334346.71,69,35.955,35.955,35.955,35.955,-0.006657458563535902,-0.009011740065038807,hog,20191204
2019-12-04,15:47,3:47 PM,35.955,35.955,35.955,3,107.865,1,35.96,35.95,35.953,1811,65111.285,12,35.955,35.955,35.955,35.95,-0.006767955801105097,-0.009177093093755122,hog,20191204
2019-12-04,15:48,3:48 PM,35.955,35.95,35.951,11,395.465,6,35.96,35.95,35.955,2914,104773.3,25,35.955,35.95,35.95,35.96,-0.0068784530386740966,-0.009121975417516482,hog,20191204
2019-12-04,15:49,3:49 PM,35.96,35.955,35.959,579,20820.31,14,35.96,35.95,35.959,10410,374333.984,83,35.955,35.955,35.955,35.955,-0.006657458563535902,-0.009011740065038807,hog,20191204
2019-12-04,15:50,3:50 PM,35.965,35.955,35.956,1516,54508.83,19,35.965,35.95,35.957,9720,349502.82,73,35.955,35.955,35.96,35.95,-0.0067403314917127005,-0.009066857741277645,hog,20191204
2019-12-04,15:51,3:51 PM,35.95,35.93,35.938,414,14878.135,6,35.96,35.93,35.943,9038,324850.95,67,35.95,35.93,35.955,35.93,-0.007237569060773492,-0.009452681474949112,hog,20191204
2019-12-04,15:52,3:52 PM,35.935,35.895,35.909,800,28727.09,9,35.94,35.895,35.917,12629,453602.1,84,35.935,35.895,35.935,35.895,-0.00803867403314928,-0.010169211266053017,hog,20191204
2019-12-04,15:53,3:53 PM,35.885,35.885,35.885,103,3696.155,2,35.89,35.88,35.885,3823,137187.77,25,35.885,35.885,35.89,35.88,-0.00870165745856367,-0.01105109408587343,hog,20191204
2019-12-04,15:54,3:54 PM,35.885,35.865,35.866,106,3801.785,5,35.885,35.845,35.864,11172,400678.58,73,35.885,35.865,35.885,35.845,-0.009226519337016662,-0.011629829686380535,hog,20191204
2019-12-04,15:55,3:55 PM,35.935,35.84,35.884,3005,107830.32,30,35.945,35.84,35.881,51801,1858653.255,326,35.845,35.935,35.84,35.94,-0.00872928176795587,-0.01116132943835091,hog,20191204
2019-12-04,15:56,3:56 PM,35.935,35.935,35.935,200,7187.0,3,35.945,35.93,35.932,19025,683606.185,100,35.935,35.935,35.94,35.93,-0.007320441988950291,-0.009755828694262227,hog,20191204
2019-12-04,15:57,3:57 PM,35.95,35.925,35.93,1016,36504.59,11,35.96,35.92,35.933,37204,1336860.615,203,35.925,35.95,35.93,35.96,-0.007458563535911688,-0.009728269856142908,hog,20191204
2019-12-04,15:58,3:58 PM,36.01,35.975,35.998,1000,35998.5,10,36.01,35.96,35.989,58464,2104081.683,331,35.975,36.005,35.96,36.005,-0.005580110497237715,-0.008184974921457425,hog,20191204
2019-12-04,15:59,3:59 PM,36.01,35.975,36.002,2955,106387.01,32,36.02,35.97,36.005,99051,3566301.535,425,36.005,35.975,36.005,35.97,-0.005469613259668519,-0.00774403351154712,hog,20191204
