date,minute,label,high,low,average,volume,notional,numberOfTrades,marketHigh,marketLow,marketAverage,marketVolume,marketNotional,marketNumberOfTrades,open,close,marketOpen,marketClose,changeOverTime,marketChangeOverTime,tickerName,tickerDate
2020-01-13,09:30,09:30 AM,,,,0,0.0,0,34.99,34.88,34.886,16267,567498.69,12,,,34.88,34.94,,0.0,hog,20200113
2020-01-13,09:31,09:31 AM,,,,0,0.0,0,34.92,34.88,34.894,1900,66298.0,14,,,34.9,34.89,,0.00022931835120092774,hog,20200113
2020-01-13,09:32,09:32 AM,,,,0,0.0,0,35.05,34.84,34.919,3915,136707.92,27,,,34.88,35.04,,0.0009459381987041834,hog,20200113
2020-01-13,09:33,09:33 AM,,,,0,0.0,0,35.08,34.926,35.023,1871,65528.19,16,,,35.08,34.926,,0.003927076764318077,hog,20200113
2020-01-13,09:34,09:34 AM,,,,0,0.0,0,35.0,34.91,34.994,3000,104981.8,9,,,35.0,34.98,,0.0030957977412141542,hog,20200113
2020-01-13,09:35,09:35 AM,,,,0,0.0,0,35.0,34.945,34.979,918,32110.51,9,,,34.945,35.0,,0.0026658258327121598,hog,20200113
2020-01-13,09:36,09:36 AM,,,,0,0.0,0,35.02,35.02,35.02,100,3502.0,1,,,35.02,35.02,,0.0038410823826176784,hog,20200113
2020-01-13,09:37,09:37 AM,34.97,34.97,34.97,4,139.88,1,35.01,34.97,34.994,500,17497.0,4,34.97,34.97,35.01,34.97,,0.0030957977412141542,hog,20200113
2020-01-13,09:38,09:38 AM,34.95,34.95,34.95,1,34.95,1,34.945,34.94,34.944,500,17472.0,3,34.95,34.95,34.94,34.945,,0.0016625580462076427,hog,20200113
2020-01-13,09:39,09:39 AM,,,,0,0.0,0,35.01,34.945,34.971,600,20982.5,6,,,34.945,34.97,,0.0024365074815110286,hog,20200113
2020-01-13,09:40,09:40 AM,34.93,34.93,34.93,100,3493.0,1,34.95,34.87,34.916,1400,48882.36,7,34.93,34.93,34.93,34.87,,0.0008599438170037846,hog,20200113
2020-01-13,09:41,09:41 AM,34.895,34.895,34.895,28,977.06,1,34.87,34.73,34.791,11396,396476.8,26,34.895,34.895,34.87,34.74,,-0.0027231554205126973,hog,20200113
2020-01-13,09:42,09:42 AM,,,,0,0.0,0,34.84,34.77,34.798,1600,55677.0,13,,,34.77,34.84,,-0.002522501863211631,hog,20200113
2020-01-13,09:43,09:43 AM,,,,0,0.0,0,34.85,34.811,34.819,481,16748.1434,2,,,34.85,34.811,,-0.0019205411913088392,hog,20200113
2020-01-13,09:44,09:44 AM,,,,0,0.0,0,34.8,34.79,34.798,522,18164.42,3,,,34.8,34.79,,-0.002522501863211631,hog,20200113
2020-01-13,09:45,09:45 AM,34.805,34.805,34.805,100,3480.5,1,34.805,34.805,34.805,900,31324.5,2,34.805,34.805,34.805,34.805,,-0.002321848305910768,hog,20200113
2020-01-13,09:46,09:46 AM,34.8,34.72,34.76,301,10462.8,4,34.82,34.72,34.757,12445,432551.25,62,34.8,34.72,34.82,34.81,,-0.0036977584131171496,hog,20200113
2020-01-13,09:47,09:47 AM,34.81,34.81,34.81,2,69.62,1,34.86,34.8,34.831,1000,34831.0,10,34.81,34.81,34.83,34.8,,-0.001576563664507244,hog,20200113
2020-01-13,09:48,09:48 AM,,,,0,0.0,0,34.83,34.827,34.827,1199,41757.97,2,,,34.827,34.83,,-0.0016912228401079114,hog,20200113
2020-01-13,09:49,09:49 AM,,,,0,0.0,0,34.8,34.8,34.8,100,3480.0,1,,,34.8,34.8,,-0.0024651722754115007,hog,20200113
2020-01-13,09:50,09:50 AM,,,,0,0.0,0,34.84,34.8,34.813,400,13925.0,4,,,34.84,34.81,,-0.002092529954709637,hog,20200113
2020-01-13,09:51,09:51 AM,,,,0,0.0,0,34.84,34.79,34.818,1000,34817.92,7,,,34.79,34.829,,-0.001949205985209108,hog,20200113
2020-01-13,09:52,09:52 AM,,,,0,0.0,0,34.84,34.765,34.804,1611,56070.16,15,,,34.84,34.775,,-0.0023505130998108335,hog,20200113
2020-01-13,09:53,09:53 AM,,,,0,0.0,0,34.77,34.75,34.758,600,20855.0,6,,,34.76,34.75,,-0.003669093619216881,hog,20200113
2020-01-13,09:54,09:54 AM,,,,0,0.0,0,34.74,34.66,34.698,4171,144727.44,30,,,34.73,34.687,,-0.005388981253224857,hog,20200113
2020-01-13,09:55,09:55 AM,,,,0,0.0,0,34.69,34.69,34.69,100,3469.0,1,,,34.69,34.69,,-0.005618299604425989,hog,20200113
2020-01-13,09:56,09:56 AM,,,,0,0.0,0,34.74,34.67,34.697,1403,48680.04,11,,,34.68,34.74,,-0.005417646047124922,hog,20200113
2020-01-13,09:57,09:57 AM,34.75,34.73,34.74,200,6948.0,2,34.77,34.73,34.747,700,24323.0,7,34.75,34.73,34.74,34.73,,-0.003984406352118411,hog,20200113
2020-01-13,09:58,09:58 AM,,,,0,0.0,0,34.74,34.74,34.74,100,3474.0,1,,,34.74,34.74,,-0.004185059909419274,hog,20200113
2020-01-13,09:59,09:59 AM,,,,0,0.0,0,34.77,34.74,34.755,200,6951.0,2,,,34.74,34.77,,-0.0037550880009172794,hog,20200113
2020-01-13,10:00,10 AM,,,,0,0.0,0,34.8,34.76,34.78,2700,93906.5,20,,,34.77,34.775,,-0.003038468153414024,hog,20200113
2020-01-13,10:01,10:01 AM,,,,0,0.0,0,34.76,34.7,34.739,1757,61035.82,13,,,34.76,34.7,,-0.004213724703319543,hog,20200113
2020-01-13,10:02,10:02 AM,,,,0,0.0,0,34.71,34.71,34.71,1600,55536.0,1,,,34.71,34.71,,-0.005045003726423262,hog,20200113
2020-01-13,10:03,10:03 AM,34.695,34.695,34.695,100,3469.5,1,34.71,34.66,34.684,2106,73045.46,18,34.695,34.695,34.705,34.68,,-0.005790288367826787,hog,20200113
2020-01-13,10:04,10:04 AM,34.685,34.685,34.685,1,34.685,1,34.72,34.69,34.709,1300,45121.95,8,34.685,34.685,34.69,34.72,,-0.005073668520323327,hog,20200113
2020-01-13,10:05,10:05 AM,,,,0,0.0,0,34.71,34.705,34.708,800,27766.0,4,,,34.71,34.705,,-0.005102333314223596,hog,20200113
2020-01-13,10:06,10:06 AM,34.725,34.725,34.725,100,3472.5,1,34.75,34.7,34.722,2550,88540.09,21,34.725,34.725,34.7,34.745,,-0.004701026199621667,hog,20200113
2020-01-13,10:07,10:07 AM,,,,0,0.0,0,34.82,34.79,34.809,1809,62970.5188,8,,,34.8,34.813,,-0.0022071891303103042,hog,20200113
2020-01-13,10:08,10:08 AM,,,,0,0.0,0,34.84,34.79,34.797,1505,52369.95,12,,,34.84,34.79,,-0.0025511666571118997,hog,20200113
2020-01-13,10:09,10:09 AM,34.815,34.78,34.815,169,5883.7,2,34.815,34.76,34.79,968,33676.92,7,34.815,34.78,34.81,34.76,,-0.0027518202144127626,hog,20200113
2020-01-13,10:10,10:10 AM,,,,0,0.0,0,34.81,34.78,34.786,500,17393.0,4,,,34.81,34.78,,-0.0028664793900132265,hog,20200113
2020-01-13,10:11,10:11 AM,34.775,34.775,34.775,100,3477.5,1,34.79,34.76,34.786,2369,82407.475,19,34.775,34.775,34.78,34.79,,-0.0028664793900132265,hog,20200113
2020-01-13,10:12,10:12 AM,,,,0,0.0,0,34.83,34.81,34.82,300,10446.0,3,,,34.82,34.83,,-0.001891876397408774,hog,20200113
2020-01-13,10:13,10:13 AM,34.825,34.825,34.825,100,3482.5,1,34.83,34.79,34.821,800,27856.5,6,34.825,34.825,34.825,34.79,,-0.0018632116035087092,hog,20200113
2020-01-13,10:14,10:14 AM,,,,0,0.0,0,34.76,34.76,34.76,200,6952.02,2,,,34.76,34.76,,-0.0036117640314167507,hog,20200113
2020-01-13,10:15,10:15 AM,34.765,34.75,34.75,101,3509.765,2,34.785,34.74,34.756,2599,90330.74,23,34.75,34.765,34.76,34.785,,-0.0037264232070172145,hog,20200113
2020-01-13,10:16,10:16 AM,,,,0,0.0,0,34.84,34.8,34.811,1455,50650.63,12,,,34.8,34.836,,-0.0021498595425099706,hog,20200113
2020-01-13,10:17,10:17 AM,,,,0,0.0,0,34.82,34.79,34.809,800,27847.0,7,,,34.82,34.8,,-0.0022071891303103042,hog,20200113
2020-01-13,10:18,10:18 AM,,,,0,0.0,0,34.76,34.76,34.76,100,3476.0,1,,,34.76,34.76,,-0.0036117640314167507,hog,20200113
2020-01-13,10:19,10:19 AM,,,,0,0.0,0,34.8,34.78,34.79,200,6958.0,2,,,34.8,34.78,,-0.0027518202144127626,hog,20200113
2020-01-13,10:20,10:20 AM,34.76,34.76,34.76,100,3476.0,1,34.77,34.74,34.752,1700,59079.08,15,34.76,34.76,34.77,34.74,,-0.0038410823826176784,hog,20200113
2020-01-13,10:21,10:21 AM,,,,0,0.0,0,34.77,34.745,34.754,1801,62591.26,18,,,34.745,34.76,,-0.003783752794817548,hog,20200113
2020-01-13,10:22,10:22 AM,34.78,34.78,34.78,100,3478.0,1,34.79,34.78,34.783,300,10435.0,3,34.78,34.78,34.78,34.79,,-0.002952473771713625,hog,20200113
2020-01-13,10:23,10:23 AM,34.8,34.8,34.8,1,34.8,1,34.78,34.78,34.78,400,13912.0,3,34.8,34.8,34.78,34.78,,-0.003038468153414024,hog,20200113
2020-01-13,10:24,10:24 AM,34.815,34.815,34.815,100,3481.5,1,34.815,34.79,34.805,300,10441.5,3,34.815,34.815,34.79,34.815,,-0.002321848305910768,hog,20200113
2020-01-13,10:25,10:25 AM,,,,0,0.0,0,34.84,34.84,34.84,100,3484.0,1,,,34.84,34.84,,-0.0013185805194060474,hog,20200113
2020-01-13,10:26,10:26 AM,,,,0,0.0,0,34.84,34.8,34.826,440,15323.564,3,,,34.84,34.826,,-0.0017198876340079766,hog,20200113
2020-01-13,10:27,10:27 AM,,,,0,0.0,0,34.83,34.82,34.822,500,17411.0,5,,,34.83,34.82,,-0.0018345468096084405,hog,20200113
2020-01-13,10:28,10:28 AM,34.805,34.805,34.805,1,34.805,1,34.81,34.8,34.806,2039,70968.59,20,34.805,34.805,34.81,34.81,,-0.0022931835120107032,hog,20200113
2020-01-13,10:29,10:29 AM,34.8,34.8,34.8,64,2227.2,2,34.825,34.8,34.81,2035,70838.81,18,34.8,34.8,34.81,34.8,,-0.0021785243364100355,hog,20200113
2020-01-13,10:30,10:30 AM,,,,0,0.0,0,34.81,34.8,34.803,800,27842.0,6,,,34.81,34.8,,-0.002379177893711102,hog,20200113
2020-01-13,10:31,10:31 AM,34.79,34.79,34.79,200,6958.0,2,34.8,34.78,34.789,1909,66413.2,19,34.79,34.79,34.79,34.78,,-0.0027804850083128275,hog,20200113
2020-01-13,10:32,10:32 AM,34.77,34.77,34.77,100,3477.0,1,34.77,34.77,34.77,400,13908.0,4,34.77,34.77,34.77,34.77,,-0.0033251160924152854,hog,20200113
2020-01-13,10:33,10:33 AM,,,,0,0.0,0,34.78,34.77,34.774,500,17387.0,5,,,34.78,34.77,,-0.0032104569168148215,hog,20200113
2020-01-13,10:34,10:34 AM,34.81,34.775,34.797,1304,45374.685,9,34.81,34.76,34.795,14934,519635.13,79,34.795,34.795,34.77,34.8,,-0.00260849624491203,hog,20200113
2020-01-13,10:35,10:35 AM,34.805,34.805,34.805,1,34.805,1,34.835,34.78,34.809,4428,154133.4,27,34.805,34.805,34.8,34.82,,-0.0022071891303103042,hog,20200113
2020-01-13,10:36,10:36 AM,34.82,34.82,34.82,2,69.64,1,34.84,34.83,34.832,600,20899.0,6,34.82,34.82,34.83,34.83,,-0.0015478988706071788,hog,20200113
2020-01-13,10:37,10:37 AM,34.84,34.84,34.84,100,3484.0,1,34.84,34.83,34.837,859,29924.985,8,34.84,34.84,34.84,34.83,,-0.0014045749011064462,hog,20200113
2020-01-13,10:38,10:38 AM,34.845,34.845,34.845,100,3484.5,1,34.85,34.84,34.845,1701,59271.06,16,34.845,34.845,34.84,34.845,,-0.0011752565499055184,hog,20200113
2020-01-13,10:39,10:39 AM,34.865,34.865,34.865,1,34.865,1,34.87,34.85,34.862,800,27890.0,8,34.865,34.865,34.85,34.87,,-0.0006879550536031906,hog,20200113
2020-01-13,10:40,10:40 AM,,,,0,0.0,0,34.876,34.86,34.868,1792,62483.914,13,,,34.87,34.869,,-0.0005159662902023929,hog,20200113
2020-01-13,10:41,10:41 AM,34.9,34.885,34.892,2,69.785,2,34.9,34.885,34.895,1000,34895.5,9,34.885,34.9,34.885,34.89,,0.00025798314510119645,hog,20200113
2020-01-13,10:42,10:42 AM,34.89,34.89,34.89,100,3489.0,1,34.9,34.88,34.89,600,20934.0,5,34.89,34.89,34.89,34.9,,0.00011465917560046387,hog,20200113
2020-01-13,10:43,10:43 AM,34.885,34.885,34.885,100,3488.5,1,34.91,34.88,34.893,1203,41976.17,12,34.885,34.885,34.91,34.88,,0.0002006535573008627,hog,20200113
2020-01-13,10:44,10:44 AM,,,,0,0.0,0,34.89,34.87,34.882,552,19254.716,5,,,34.89,34.89,,-0.00011465917560066755,hog,20200113
2020-01-13,10:45,10:45 AM,34.915,34.9,34.907,200,6981.5,2,34.93,34.9,34.918,1800,62852.5,14,34.9,34.915,34.9,34.92,,0.0009172734048041183,hog,20200113
2020-01-13,10:46,10:46 AM,,,,0,0.0,0,34.94,34.91,34.921,1000,34921.0,9,,,34.92,34.94,,0.0010032677865045173,hog,20200113
2020-01-13,10:47,10:47 AM,34.95,34.95,34.95,100,3495.0,1,34.95,34.94,34.943,300,10483.0,3,34.95,34.95,34.94,34.95,,0.001633893252307374,hog,20200113
2020-01-13,10:48,10:48 AM,34.97,34.95,34.96,202,7061.92,3,34.97,34.95,34.96,300,10488.0,3,34.95,34.97,34.95,34.97,,0.002121194748609702,hog,20200113
2020-01-13,10:49,10:49 AM,34.99,34.98,34.985,300,10495.5,3,35.002,34.976,34.988,2329,81487.6152,20,34.985,34.98,34.976,34.985,,0.0029238089778133563,hog,20200113
2020-01-13,10:50,10:50 AM,,,,0,0.0,0,35.01,34.971,34.996,500,17498.05,5,,,34.971,35.01,,0.003153127329014488,hog,20200113
2020-01-13,10:51,10:51 AM,35.025,35.025,35.025,100,3502.5,1,35.025,35.02,35.021,400,14008.5,3,35.025,35.025,35.02,35.025,,0.0038697471765177433,hog,20200113
2020-01-13,10:52,10:52 AM,35.03,35.01,35.022,404,14149.04,5,35.04,35.02,35.025,1759,61608.86,16,35.02,35.01,35.04,35.03,,0.003984406352118207,hog,20200113
2020-01-13,10:53,10:53 AM,,,,0,0.0,0,35.02,35.0,35.009,1600,56014.0,16,,,35.02,35.005,,0.0035257696497161483,hog,20200113
2020-01-13,10:54,10:54 AM,,,,0,0.0,0,35.02,35.005,35.01,1400,49014.5,13,,,35.01,35.02,,0.003554434443616213,hog,20200113
2020-01-13,10:55,10:55 AM,,,,0,0.0,0,,,,0,0.0,0,,,,,,,hog,20200113
2020-01-13,10:56,10:56 AM,35.03,35.03,35.03,200,7006.0,2,35.03,35.03,35.03,500,17515.0,5,35.03,35.03,35.03,35.03,,0.00412773032161894,hog,20200113
2020-01-13,10:57,10:57 AM,35.03,35.01,35.02,301,10541.02,4,35.03,35.01,35.018,1301,45559.02,12,35.03,35.01,35.03,35.01,,0.003783752794817345,hog,20200113
2020-01-13,10:58,10:58 AM,34.985,34.98,34.982,201,7031.48,3,35.01,34.98,34.99,2611,91359.61,16,34.985,34.98,35.0,34.98,,0.0029811385656136904,hog,20200113
2020-01-13,10:59,10:59 AM,34.98,34.98,34.98,100,3498.0,1,34.98,34.98,34.98,300,10494.0,3,34.98,34.98,34.98,34.98,,0.002694490626612225,hog,20200113
2020-01-13,11:00,11 AM,35.005,34.98,34.996,303,10603.945,5,35.005,34.977,34.992,2629,91993.8,23,34.985,34.985,34.99,34.99,,0.00303846815341382,hog,20200113
2020-01-13,11:01,11:01 AM,,,,0,0.0,0,34.99,34.99,34.99,400,13996.0,4,,,34.99,34.99,,0.0029811385656136904,hog,20200113
2020-01-13,11:02,11:02 AM,35.005,34.99,35.003,118,4130.32,2,35.005,34.99,34.991,1643,57490.57,7,34.99,35.005,34.99,35.005,,0.0030098033595137553,hog,20200113
2020-01-13,11:03,11:03 AM,35.015,35.01,35.012,201,7037.51,3,35.015,35.01,35.011,400,14004.5,4,35.015,35.01,35.01,35.01,,0.003583099237516482,hog,20200113
2020-01-13,11:04,11:04 AM,,,,0,0.0,0,35.02,35.01,35.016,600,21009.5,6,,,35.01,35.02,,0.0037264232070170107,hog,20200113
2020-01-13,11:05,11:05 AM,35.015,35.015,35.015,500,17507.5,4,35.02,35.01,35.013,1473,51573.73,13,35.015,35.015,35.015,35.01,,0.003640428825316612,hog,20200113
2020-01-13,11:06,11:06 AM,35.005,35.005,35.005,300,10501.5,3,35.01,35.005,35.008,900,31507.5,8,35.005,35.005,35.005,35.01,,0.003497104855816083,hog,20200113
2020-01-13,11:07,11:07 AM,35.03,35.02,35.03,104,3643.09,3,35.04,35.02,35.025,602,21085.04,5,35.03,35.02,35.02,35.04,,0.003984406352118207,hog,20200113
2020-01-13,11:08,11:08 AM,35.035,35.035,35.035,12,420.42,1,35.04,35.03,35.035,1400,49049.5,14,35.035,35.035,35.035,35.035,,0.004271054291119469,hog,20200113
2020-01-13,11:09,11:09 AM,35.045,35.035,35.04,202,7078.09,3,35.06,35.03,35.042,3114,109120.06,24,35.045,35.035,35.045,35.06,,0.004471707848420535,hog,20200113
2020-01-13,11:10,11:10 AM,,,,0,0.0,0,35.073,35.06,35.07,500,17534.99,3,,,35.06,35.073,,0.00527432207762419,hog,20200113
2020-01-13,11:11,11:11 AM,35.11,35.095,35.107,301,10567.095,4,35.12,35.075,35.096,11861,416280.41,73,35.095,35.105,35.08,35.11,,0.0060196067190275105,hog,20200113
2020-01-13,11:12,11:12 AM,35.105,35.105,35.105,100,3510.5,1,35.11,35.105,35.109,500,17554.5,5,35.105,35.105,35.11,35.11,,0.006392249039729374,hog,20200113
2020-01-13,11:13,11:13 AM,,,,0,0.0,0,35.11,35.11,35.11,300,10533.0,3,,,35.11,35.11,,0.006420913833629439,hog,20200113
2020-01-13,11:14,11:14 AM,35.145,35.12,35.122,12,421.465,3,35.16,35.1,35.126,5010,175979.478,21,35.12,35.145,35.1,35.16,,0.006879550536031499,hog,20200113
2020-01-13,11:15,11:15 AM,35.215,35.17,35.194,506,17808.26,6,35.215,35.16,35.196,3062,107771.5,23,35.17,35.21,35.16,35.195,,0.008886086109040736,hog,20200113
2020-01-13,11:16,11:16 AM,35.23,35.23,35.23,2,70.46,1,35.23,35.21,35.215,2211,77860.52,11,35.23,35.23,35.21,35.23,,0.009430717193143399,hog,20200113
2020-01-13,11:17,11:17 AM,,,,0,0.0,0,35.23,35.22,35.226,1962,69114.26,16,,,35.23,35.23,,0.009746029926044725,hog,20200113
2020-01-13,11:18,11:18 AM,35.21,35.205,35.208,200,7041.5,2,35.22,35.2,35.213,3007,105884.346,20,35.205,35.21,35.22,35.215,,0.009373387605343064,hog,20200113
2020-01-13,11:19,11:19 AM,,,,0,0.0,0,35.22,35.208,35.21,665,23414.8325,3,,,35.209,35.22,,0.009287393223642667,hog,20200113
2020-01-13,11:20,11:20 AM,35.21,35.21,35.21,100,3521.0,1,35.23,35.21,35.219,924,32542.028,9,35.21,35.21,35.21,35.222,,0.009545376368743863,hog,20200113
2020-01-13,11:21,11:21 AM,35.255,35.22,35.233,300,10570.0,3,35.26,35.21,35.236,5927,208845.23,33,35.225,35.22,35.22,35.22,,0.010032677865045986,hog,20200113
2020-01-13,11:22,11:22 AM,35.215,35.205,35.205,201,7076.215,3,35.22,35.18,35.205,1300,45766.0,13,35.205,35.215,35.21,35.18,,0.009144069254141933,hog,20200113
2020-01-13,11:23,11:23 AM,,,,0,0.0,0,35.185,35.133,35.144,3916,137624.055,9,,,35.182,35.133,,0.007395516826233892,hog,20200113
2020-01-13,11:24,11:24 AM,35.16,35.15,35.155,200,7031.0,2,35.17,35.15,35.157,1961,68943.65,17,35.15,35.16,35.15,35.15,,0.0077681591469355524,hog,20200113
2020-01-13,11:25,11:25 AM,35.16,35.15,35.158,232,8156.58,4,35.16,35.155,35.156,800,28125.0,8,35.16,35.16,35.155,35.155,,0.007739494353035487,hog,20200113
2020-01-13,11:26,11:26 AM,35.205,35.155,35.188,600,21113.0,6,35.209,35.155,35.192,6423,226041.16,30,35.155,35.205,35.155,35.209,,0.008771426933440274,hog,20200113
2020-01-13,11:27,11:27 AM,35.255,35.205,35.223,800,28178.5,6,35.26,35.205,35.238,3443,121324.25,26,35.205,35.255,35.205,35.26,,0.010090007452846321,hog,20200113
2020-01-13,11:28,11:28 AM,35.31,35.26,35.277,257,9066.15,7,35.3,35.24,35.281,3902,137666.52,29,35.275,35.26,35.26,35.24,,0.011322593590551969,hog,20200113
2020-01-13,11:29,11:29 AM,35.245,35.245,35.245,1,35.245,1,35.31,35.24,35.273,1089,38412.78,10,35.245,35.245,35.24,35.29,,0.01109327523935104,hog,20200113
2020-01-13,11:30,11:30 AM,35.29,35.25,35.27,200,7054.0,2,35.29,35.24,35.271,1700,59961.5,17,35.29,35.25,35.29,35.27,,0.011035945651550708,hog,20200113
2020-01-13,11:31,11:31 AM,35.32,35.285,35.301,349,12320.18,4,35.33,35.285,35.304,1200,42365.5,11,35.285,35.32,35.285,35.32,,0.011981883850255094,hog,20200113
2020-01-13,11:32,11:32 AM,35.34,35.33,35.335,200,7067.0,2,35.35,35.325,35.338,4211,148807.13,29,35.34,35.33,35.33,35.33,,0.012956486842859547,hog,20200113
2020-01-13,11:33,11:33 AM,35.33,35.33,35.33,100,3533.0,1,35.36,35.33,35.34,3515,124219.8385,9,35.33,35.33,35.33,35.35,,0.01301381643065988,hog,20200113
2020-01-13,11:34,11:34 AM,35.36,35.36,35.36,100,3536.0,1,35.37,35.345,35.355,1600,56568.7,15,35.36,35.36,35.35,35.36,,0.013443788339161671,hog,20200113
2020-01-13,11:35,11:35 AM,35.39,35.365,35.381,402,14223.23,6,35.395,35.365,35.384,4610,163120.63,37,35.365,35.375,35.365,35.375,,0.014275067362265595,hog,20200113
2020-01-13,11:36,11:36 AM,35.37,35.37,35.37,200,7074.0,2,35.37,35.365,35.369,1000,35369.0,10,35.37,35.37,35.37,35.37,,0.0138450954537636,hog,20200113
2020-01-13,11:37,11:37 AM,35.375,35.375,35.375,200,7075.0,2,35.38,35.37,35.374,2637,93281.26,23,35.375,35.375,35.38,35.37,,0.013988419423264332,hog,20200113
2020-01-13,11:38,11:38 AM,35.375,35.365,35.37,200,7074.0,2,35.375,35.36,35.368,1899,67164.13,14,35.375,35.365,35.375,35.365,,0.013816430659863535,hog,20200113
2020-01-13,11:39,11:39 AM,35.36,35.345,35.357,1466,51833.76,6,35.37,35.345,35.356,6350,224512.075,29,35.36,35.36,35.37,35.36,,0.013472453133061939,hog,20200113
2020-01-13,11:40,11:40 AM,35.365,35.36,35.363,300,10609.0,3,35.365,35.36,35.364,400,14145.5,4,35.365,35.365,35.365,35.365,,0.013701771484262867,hog,20200113
2020-01-13,11:41,11:41 AM,35.385,35.37,35.373,12,424.47,2,35.4,35.37,35.382,3527,124790.776,28,35.37,35.385,35.37,35.38,,0.01421773777446526,hog,20200113
2020-01-13,11:42,11:42 AM,35.415,35.385,35.395,300,10618.5,3,35.415,35.385,35.4,5081,179865.6,18,35.385,35.415,35.39,35.41,,0.014733704064667653,hog,20200113
2020-01-13,11:43,11:43 AM,35.375,35.36,35.36,101,3571.375,2,35.41,35.36,35.389,3171,112217.49,24,35.375,35.36,35.41,35.38,,0.014418391331766327,hog,20200113
2020-01-13,11:44,11:44 AM,35.385,35.375,35.38,200,7076.0,2,35.385,35.375,35.382,600,21229.03,6,35.375,35.385,35.375,35.385,,0.01421773777446526,hog,20200113
2020-01-13,11:45,11:45 AM,35.405,35.385,35.392,202,7149.305,4,35.41,35.385,35.394,5554,196580.84,41,35.385,35.4,35.39,35.39,,0.014561715301266856,hog,20200113
2020-01-13,11:46,11:46 AM,35.39,35.375,35.385,273,9659.97,2,35.39,35.33,35.371,3023,106926.745,25,35.39,35.375,35.39,35.33,,0.013902425041563934,hog,20200113
2020-01-13,11:47,11:47 AM,35.33,35.32,35.33,101,3568.32,2,35.33,35.32,35.323,2140,75592.2,19,35.32,35.33,35.32,35.32,,0.012526514934357552,hog,20200113
2020-01-13,11:48,11:48 AM,,,,0,0.0,0,35.32,35.32,35.32,200,7064.0,2,,,35.32,35.32,,0.012440520552657154,hog,20200113
2020-01-13,11:49,11:49 AM,35.31,35.3,35.305,400,14122.0,4,35.32,35.29,35.306,2292,80922.6,15,35.31,35.3,35.32,35.3,,0.012039213438055224,hog,20200113
2020-01-13,11:50,11:50 AM,,,,0,0.0,0,35.295,35.27,35.288,4198,148138.4372,21,,,35.295,35.27,,0.011523247147852831,hog,20200113
2020-01-13,11:51,11:51 AM,35.285,35.285,35.285,100,3528.5,1,35.285,35.27,35.277,4428,156207.71,38,35.285,35.285,35.28,35.275,,0.011207934414951505,hog,20200113
2020-01-13,11:52,11:52 AM,,,,0,0.0,0,35.285,35.28,35.282,500,17641.0,4,,,35.28,35.28,,0.011351258384452034,hog,20200113
2020-01-13,11:53,11:53 AM,,,,0,0.0,0,35.3,35.27,35.286,3134,110586.34,27,,,35.27,35.3,,0.011465917560052701,hog,20200113
2020-01-13,11:54,11:54 AM,35.3,35.29,35.29,143,5046.48,2,35.305,35.29,35.293,2817,99420.43,19,35.3,35.29,35.3,35.29,,0.011666571117353565,hog,20200113
2020-01-13,11:55,11:55 AM,35.31,35.29,35.29,1302,45947.62,11,35.36,35.29,35.309,6961,245789.0452,44,35.29,35.31,35.29,35.36,,0.012125207819755623,hog,20200113
2020-01-13,11:56,11:56 AM,35.37,35.335,35.337,966,34135.72,5,35.37,35.335,35.351,3892,137585.31,27,35.355,35.335,35.355,35.335,,0.013329129163561207,hog,20200113
2020-01-13,11:57,11:57 AM,35.33,35.315,35.319,394,13915.7,6,35.34,35.315,35.328,1879,66380.4,17,35.33,35.33,35.33,35.33,,0.012669838903858284,hog,20200113
2020-01-13,11:58,11:58 AM,,,,0,0.0,0,35.335,35.326,35.329,2324,82104.6309,9,,,35.326,35.33,,0.012698503697758351,hog,20200113
2020-01-13,11:59,11:59 AM,35.335,35.305,35.334,106,3745.44,4,35.335,35.3,35.323,2713,95831.29,19,35.335,35.305,35.335,35.3,,0.012526514934357552,hog,20200113
2020-01-13,12:00,12 PM,35.315,35.315,35.315,100,3531.5,1,35.33,35.31,35.316,991,34998.62,9,35.315,35.315,35.31,35.33,,0.01232586137705669,hog,20200113
2020-01-13,12:01,12:01 PM,35.36,35.335,35.347,200,7069.5,2,35.36,35.335,35.344,800,28275.0,8,35.335,35.36,35.335,35.36,,0.013128475606260345,hog,20200113
2020-01-13,12:02,12:02 PM,35.37,35.37,35.37,200,7074.0,2,35.37,35.369,35.37,650,22990.35,6,35.37,35.37,35.37,35.37,,0.013873760247663664,hog,20200113
2020-01-13,12:03,12:03 PM,35.385,35.385,35.385,101,3573.885,2,35.385,35.37,35.378,985,34847.8,9,35.385,35.385,35.375,35.385,,0.014103078598864796,hog,20200113
2020-01-13,12:04,12:04 PM,35.38,35.37,35.377,333,11780.42,5,35.39,35.36,35.377,2706,95728.9,21,35.38,35.37,35.39,35.365,,0.014074413804964731,hog,20200113
2020-01-13,12:05,12:05 PM,35.36,35.36,35.36,100,3536.0,1,35.37,35.349,35.358,2700,95465.8,16,35.36,35.36,35.37,35.36,,0.01352978272086207,hog,20200113
2020-01-13,12:06,12:06 PM,35.345,35.345,35.345,1,35.345,1,35.34,35.32,35.334,1200,42401.0,9,35.345,35.345,35.34,35.32,,0.012841827667259083,hog,20200113
2020-01-13,12:07,12:07 PM,35.335,35.325,35.325,102,3603.16,3,35.34,35.32,35.327,1493,52743.76,13,35.325,35.335,35.325,35.34,,0.012641174109958016,hog,20200113
2020-01-13,12:08,12:08 PM,35.335,35.335,35.335,201,7102.335,2,35.335,35.335,35.335,700,24734.5,6,35.335,35.335,35.335,35.335,,0.012870492461159148,hog,20200113
2020-01-13,12:09,12:09 PM,35.34,35.34,35.34,12,424.08,1,35.355,35.335,35.343,1500,53015.0,15,35.34,35.34,35.34,35.35,,0.01309981081236028,hog,20200113
2020-01-13,12:10,12:10 PM,35.33,35.32,35.326,152,5369.505,4,35.355,35.32,35.337,4825,170503.27,33,35.33,35.32,35.355,35.34,,0.01292782204895948,hog,20200113
2020-01-13,12:11,12:11 PM,35.34,35.34,35.34,1,35.34,1,35.365,35.35,35.356,398,14071.8,3,35.34,35.34,35.35,35.365,,0.013472453133061939,hog,20200113
2020-01-13,12:12,12:12 PM,35.37,35.365,35.365,104,3677.98,5,35.39,35.365,35.371,2791,98722.01,19,35.37,35.37,35.37,35.39,,0.013902425041563934,hog,20200113
2020-01-13,12:13,12:13 PM,35.42,35.39,35.406,700,24784.5,6,35.42,35.39,35.404,3762,133189.8,28,35.39,35.4,35.39,35.4,,0.01484836324026832,hog,20200113
2020-01-13,12:14,12:14 PM,,,,0,0.0,0,35.42,35.4,35.414,400,14165.5,4,,,35.4,35.42,,0.015135011179269582,hog,20200113
2020-01-13,12:15,12:15 PM,,,,0,0.0,0,35.44,35.41,35.415,2412,85421.108,19,,,35.414,35.44,,0.015163675973169647,hog,20200113
2020-01-13,12:16,12:16 PM,35.46,35.445,35.455,500,17727.5,5,35.47,35.44,35.452,3500,124080.75,26,35.445,35.455,35.44,35.455,,0.016224273347474498,hog,20200113
2020-01-13,12:17,12:17 PM,35.455,35.455,35.455,100,3545.5,1,35.47,35.44,35.455,3301,117038.46,27,35.455,35.455,35.45,35.44,,0.016310267729174897,hog,20200113
2020-01-13,12:18,12:18 PM,35.455,35.45,35.453,200,7090.5,2,35.455,35.435,35.445,2385,84536.57,11,35.455,35.45,35.435,35.44,,0.016023619790173634,hog,20200113
2020-01-13,12:19,12:19 PM,35.46,35.46,35.46,40,1418.4,1,35.478,35.45,35.457,2602,92259.6,10,35.46,35.46,35.46,35.478,,0.016367597316975232,hog,20200113
2020-01-13,12:20,12:20 PM,35.47,35.47,35.47,100,3547.0,1,35.48,35.44,35.459,1100,39005.0,10,35.47,35.47,35.47,35.46,,0.016424926904775566,hog,20200113
2020-01-13,12:21,12:21 PM,35.45,35.45,35.45,101,3580.45,2,35.46,35.44,35.452,1800,63813.48,10,35.45,35.45,35.45,35.456,,0.016224273347474498,hog,20200113
2020-01-13,12:22,12:22 PM,,,,0,0.0,0,35.45,35.45,35.45,100,3545.0,1,,,35.45,35.45,,0.016166943759674368,hog,20200113
2020-01-13,12:23,12:23 PM,35.455,35.445,35.45,200,7090.0,2,35.455,35.44,35.45,900,31905.0,9,35.455,35.445,35.45,35.445,,0.016166943759674368,hog,20200113
2020-01-13,12:24,12:24 PM,,,,0,0.0,0,35.449,35.449,35.449,400,14179.76,1,,,35.449,35.449,,0.0161382789657741,hog,20200113
2020-01-13,12:25,12:25 PM,35.445,35.445,35.445,101,3579.945,2,35.445,35.44,35.443,900,31898.5,6,35.445,35.445,35.445,35.445,,0.015966290202373303,hog,20200113
2020-01-13,12:26,12:26 PM,35.435,35.425,35.425,107,3790.505,7,35.44,35.42,35.432,2000,70865.0,13,35.435,35.425,35.44,35.42,,0.015650977469471975,hog,20200113
2020-01-13,12:27,12:27 PM,35.425,35.425,35.425,6,212.55,2,35.424,35.42,35.422,872,30887.9452,4,35.425,35.425,35.42,35.42,,0.01536432953047051,hog,20200113
2020-01-13,12:28,12:28 PM,35.425,35.42,35.422,205,7261.625,3,35.425,35.42,35.424,1200,42508.5,7,35.42,35.425,35.425,35.42,,0.015421659118270844,hog,20200113
2020-01-13,12:29,12:29 PM,35.425,35.4,35.413,411,14554.605,14,35.425,35.395,35.412,4530,160416.89,34,35.425,35.425,35.425,35.42,,0.01507768159146925,hog,20200113
2020-01-13,12:30,12:30 PM,35.435,35.41,35.422,319,11299.585,8,35.44,35.4,35.422,3200,113349.79,20,35.43,35.415,35.43,35.42,,0.01536432953047051,hog,20200113
2020-01-13,12:31,12:31 PM,35.455,35.45,35.45,104,3686.81,4,35.45,35.42,35.445,2817,99848.41,23,35.455,35.45,35.42,35.45,,0.016023619790173634,hog,20200113
2020-01-13,12:32,12:32 PM,35.455,35.455,35.455,100,3545.5,1,35.46,35.45,35.457,800,28365.5,7,35.455,35.455,35.46,35.455,,0.016367597316975232,hog,20200113
2020-01-13,12:33,12:33 PM,35.465,35.455,35.46,200,7092.0,2,35.465,35.45,35.458,800,28366.0,8,35.455,35.465,35.455,35.45,,0.016396262110875297,hog,20200113
2020-01-13,12:34,12:34 PM,35.46,35.45,35.46,99,3510.53,2,35.455,35.45,35.453,200,7090.5,2,35.45,35.46,35.45,35.455,,0.016252938141374768,hog,20200113
2020-01-13,12:35,12:35 PM,35.435,35.425,35.43,4,141.72,2,35.45,35.415,35.433,1312,46488.04,11,35.435,35.425,35.45,35.43,,0.01567964226337204,hog,20200113
2020-01-13,12:36,12:36 PM,35.425,35.425,35.425,100,3542.5,1,35.44,35.425,35.431,500,17715.5,5,35.425,35.425,35.44,35.425,,0.015622312675571707,hog,20200113
2020-01-13,12:37,12:37 PM,35.445,35.425,35.438,300,10631.5,3,35.445,35.425,35.434,700,24803.5,7,35.425,35.445,35.425,35.445,,0.015708307057272105,hog,20200113
2020-01-13,12:38,12:38 PM,,,,0,0.0,0,35.44,35.43,35.439,858,30406.52,6,,,35.44,35.44,,0.01585163102677284,hog,20200113
2020-01-13,12:39,12:39 PM,,,,0,0.0,0,35.43,35.41,35.423,765,27098.79,7,,,35.43,35.416,,0.015392994324370779,hog,20200113
2020-01-13,12:40,12:40 PM,35.42,35.39,35.406,107,3788.41,3,35.413,35.39,35.406,1008,35689.07,8,35.42,35.39,35.413,35.39,,0.01490569282806845,hog,20200113
2020-01-13,12:41,12:41 PM,35.38,35.315,35.364,400,14145.5,5,35.38,35.315,35.366,5400,190975.0,33,35.38,35.315,35.38,35.315,,0.013759101072063202,hog,20200113
2020-01-13,12:42,12:42 PM,,,,0,0.0,0,35.315,35.31,35.31,900,31779.5,7,,,35.315,35.31,,0.012153872613655891,hog,20200113
2020-01-13,12:43,12:43 PM,35.28,35.28,35.28,500,17640.0,4,35.29,35.27,35.278,3407,120192.96,26,35.28,35.28,35.28,35.28,,0.01123659920885157,hog,20200113
2020-01-13,12:44,12:44 PM,35.285,35.285,35.285,900,31756.5,9,35.29,35.285,35.287,2100,74102.0,18,35.285,35.285,35.285,35.285,,0.011494582353952766,hog,20200113
2020-01-13,12:45,12:45 PM,35.295,35.285,35.295,104,3670.66,3,35.31,35.29,35.297,1822,64310.6,16,35.285,35.295,35.29,35.31,,0.011781230292954028,hog,20200113
2020-01-13,12:46,12:46 PM,35.335,35.325,35.328,310,10951.8,4,35.34,35.32,35.327,1199,42357.18,11,35.325,35.335,35.32,35.335,,0.012641174109958016,hog,20200113
2020-01-13,12:47,12:47 PM,35.33,35.33,35.33,100,3533.0,1,35.33,35.33,35.33,900,31797.0,9,35.33,35.33,35.33,35.33,,0.012727168491658416,hog,20200113
2020-01-13,12:48,12:48 PM,,,,0,0.0,0,35.37,35.35,35.355,2202,77851.7,18,,,35.35,35.36,,0.013443788339161671,hog,20200113
2020-01-13,12:49,12:49 PM,35.34,35.34,35.34,200,7068.0,2,35.35,35.33,35.344,806,28487.1,8,35.34,35.34,35.35,35.33,,0.013128475606260345,hog,20200113
2020-01-13,12:50,12:50 PM,35.34,35.34,35.34,100,3534.0,1,35.34,35.34,35.34,200,7068.0,2,35.34,35.34,35.34,35.34,,0.01301381643065988,hog,20200113
2020-01-13,12:51,12:51 PM,35.34,35.34,35.34,100,3534.0,1,35.34,35.33,35.339,700,24737.0,6,35.34,35.34,35.34,35.33,,0.012985151636759612,hog,20200113
2020-01-13,12:52,12:52 PM,35.325,35.325,35.325,100,3532.5,1,35.33,35.325,35.329,526,18583.08,4,35.325,35.325,35.33,35.325,,0.012698503697758351,hog,20200113
2020-01-13,12:53,12:53 PM,35.335,35.325,35.332,500,17666.0,5,35.34,35.325,35.331,2521,89069.5336,20,35.325,35.335,35.33,35.335,,0.012755833285558684,hog,20200113
2020-01-13,12:54,12:54 PM,35.29,35.29,35.29,100,3529.0,1,35.33,35.29,35.308,1795,63378.1685,13,35.29,35.29,35.33,35.29,,0.012096543025855559,hog,20200113
2020-01-13,12:55,12:55 PM,35.345,35.285,35.316,303,10700.92,6,35.345,35.28,35.313,2933,103573.078,23,35.285,35.345,35.285,35.345,,0.01223986699535629,hog,20200113
2020-01-13,12:56,12:56 PM,35.345,35.34,35.34,201,7103.345,3,35.35,35.34,35.348,1300,45952.0,10,35.345,35.34,35.34,35.35,,0.013243134781860809,hog,20200113
2020-01-13,12:57,12:57 PM,35.345,35.345,35.345,100,3534.5,1,35.36,35.34,35.349,1395,49312.5,11,35.345,35.345,35.35,35.36,,0.013271799575760874,hog,20200113
2020-01-13,12:58,12:58 PM,,,,0,0.0,0,35.36,35.36,35.36,200,7072.0,2,,,35.36,35.36,,0.013587112308662403,hog,20200113
2020-01-13,12:59,12:59 PM,35.375,35.375,35.375,100,3537.5,1,35.38,35.37,35.373,700,24761.0,7,35.375,35.375,35.37,35.38,,0.013959754629364064,hog,20200113
2020-01-13,13:00,1 PM,35.38,35.375,35.375,102,3608.26,2,35.375,35.375,35.375,100,3537.5,1,35.38,35.375,35.375,35.375,,0.014017084217164398,hog,20200113
2020-01-13,13:01,1:01 PM,,,,0,0.0,0,35.38,35.375,35.379,400,14151.5,3,,,35.375,35.38,,0.014131743392764861,hog,20200113
2020-01-13,13:02,1:02 PM,35.37,35.335,35.352,200,7070.5,2,35.37,35.33,35.359,2600,91933.5,16,35.37,35.335,35.37,35.33,,0.013558447514762338,hog,20200113
2020-01-13,13:03,1:03 PM,35.335,35.335,35.335,200,7067.0,2,35.36,35.33,35.345,6700,236814.0,36,35.335,35.335,35.335,35.36,,0.01315714040016041,hog,20200113
2020-01-13,13:04,1:04 PM,35.37,35.36,35.365,2,70.73,2,35.37,35.36,35.363,1500,53044.0,10,35.36,35.37,35.36,35.37,,0.013673106690362802,hog,20200113
2020-01-13,13:05,1:05 PM,35.385,35.37,35.374,400,14149.5,3,35.39,35.36,35.373,4100,145027.5,27,35.37,35.37,35.365,35.36,,0.013959754629364064,hog,20200113
2020-01-13,13:06,1:06 PM,,,,0,0.0,0,35.36,35.35,35.355,400,14142.01,4,,,35.36,35.35,,0.013443788339161671,hog,20200113
2020-01-13,13:07,1:07 PM,35.35,35.34,35.345,400,14138.0,4,35.35,35.335,35.343,1005,35520.25,9,35.34,35.345,35.35,35.345,,0.01309981081236028,hog,20200113
2020-01-13,13:08,1:08 PM,35.35,35.35,35.35,100,3535.0,1,35.35,35.345,35.349,1200,42419.5,7,35.35,35.35,35.35,35.345,,0.013271799575760874,hog,20200113
2020-01-13,13:09,1:09 PM,35.36,35.34,35.347,400,14139.0,3,35.36,35.33,35.346,7497,264988.54,59,35.34,35.36,35.35,35.36,,0.013185805194060474,hog,20200113
2020-01-13,13:10,1:10 PM,,,,0,0.0,0,35.355,35.35,35.352,208,7353.34,2,,,35.355,35.35,,0.013357793957461271,hog,20200113
2020-01-13,13:11,1:11 PM,,,,0,0.0,0,35.35,35.34,35.347,1200,42417.0,10,,,35.345,35.34,,0.013214469987960744,hog,20200113
2020-01-13,13:12,1:12 PM,35.35,35.345,35.347,302,10674.69,4,35.355,35.345,35.35,1800,63629.5,12,35.345,35.345,35.35,35.355,,0.013300464369661142,hog,20200113
2020-01-13,13:13,1:13 PM,35.34,35.34,35.34,100,3534.0,1,35.35,35.324,35.337,754,26643.819,7,35.34,35.34,35.35,35.324,,0.01292782204895948,hog,20200113
2020-01-13,13:14,1:14 PM,,,,0,0.0,0,35.325,35.316,35.32,3636,128423.093,12,,,35.32,35.316,,0.012440520552657154,hog,20200113
2020-01-13,13:15,1:15 PM,35.32,35.315,35.319,781,27584.265,11,35.32,35.31,35.318,1425,50328.5,13,35.32,35.315,35.32,35.32,,0.01238319096485682,hog,20200113
2020-01-13,13:16,1:16 PM,,,,0,0.0,0,35.33,35.31,35.322,901,31824.82,9,,,35.315,35.33,,0.012497850140457487,hog,20200113
2020-01-13,13:17,1:17 PM,35.335,35.335,35.335,200,7067.0,2,35.34,35.335,35.338,500,17669.0,5,35.335,35.335,35.335,35.335,,0.012956486842859547,hog,20200113
2020-01-13,13:18,1:18 PM,35.335,35.335,35.335,100,3533.5,1,35.35,35.33,35.341,1000,35341.0,10,35.335,35.335,35.34,35.35,,0.013042481224559945,hog,20200113
2020-01-13,13:19,1:19 PM,35.345,35.345,35.345,100,3534.5,1,35.348,35.345,35.347,200,7069.32,2,35.345,35.345,35.345,35.348,,0.013214469987960744,hog,20200113
2020-01-13,13:20,1:20 PM,35.36,35.35,35.357,302,10677.72,4,35.37,35.35,35.359,2806,99218.925,23,35.35,35.36,35.35,35.36,,0.013558447514762338,hog,20200113
2020-01-13,13:21,1:21 PM,35.37,35.36,35.367,300,10610.0,3,35.37,35.36,35.368,500,17684.0,5,35.36,35.37,35.36,35.37,,0.013816430659863535,hog,20200113
2020-01-13,13:22,1:22 PM,35.365,35.36,35.362,200,7072.5,3,35.365,35.35,35.36,1470,51979.7,11,35.365,35.36,35.365,35.36,,0.013587112308662403,hog,20200113
2020-01-13,13:23,1:23 PM,35.35,35.335,35.343,200,7068.5,2,35.35,35.33,35.338,1000,35338.0,10,35.35,35.335,35.35,35.335,,0.012956486842859547,hog,20200113
2020-01-13,13:24,1:24 PM,,,,0,0.0,0,,,,0,0.0,0,,,,,,,hog,20200113
2020-01-13,13:25,1:25 PM,35.335,35.32,35.335,101,3568.82,2,35.335,35.315,35.328,1106,39072.48,8,35.335,35.32,35.335,35.315,,0.012669838903858284,hog,20200113
2020-01-13,13:26,1:26 PM,35.31,35.31,35.31,236,8333.16,3,35.31,35.31,35.31,801,28283.31,8,35.31,35.31,35.31,35.31,,0.012153872613655891,hog,20200113
2020-01-13,13:27,1:27 PM,,,,0,0.0,0,,,,0,0.0,0,,,,,,,hog,20200113
2020-01-13,13:28,1:28 PM,35.31,35.31,35.31,99,3495.69,1,35.313,35.31,35.312,200,7062.3,2,35.31,35.31,35.313,35.31,,0.012211202201456023,hog,20200113
2020-01-13,13:29,1:29 PM,35.31,35.31,35.31,1,35.31,1,35.315,35.31,35.314,800,28251.5,4,35.31,35.31,35.31,35.315,,0.012268531789256356,hog,20200113
2020-01-13,13:30,1:30 PM,35.32,35.305,35.306,265,9356.16,6,35.33,35.305,35.316,3243,114530.76,25,35.305,35.32,35.315,35.31,,0.01232586137705669,hog,20200113
2020-01-13,13:31,1:31 PM,35.34,35.34,35.34,200,7068.0,2,35.34,35.315,35.33,2833,100089.89,13,35.34,35.34,35.32,35.34,,0.012727168491658416,hog,20200113
2020-01-13,13:32,1:32 PM,35.34,35.335,35.337,5,176.685,2,35.34,35.335,35.339,983,34738.22,7,35.335,35.34,35.34,35.335,,0.012985151636759612,hog,20200113
2020-01-13,13:33,1:33 PM,35.335,35.3,35.333,106,3745.3,2,35.34,35.3,35.328,3341,118032.71,27,35.335,35.3,35.34,35.3,,0.012669838903858284,hog,20200113
2020-01-13,13:34,1:34 PM,35.29,35.29,35.29,301,10622.29,5,35.31,35.26,35.284,1700,59983.0,15,35.29,35.29,35.31,35.26,,0.011408587972252368,hog,20200113
2020-01-13,13:35,1:35 PM,35.255,35.255,35.255,101,3560.755,2,35.29,35.255,35.267,2620,92400.39,22,35.255,35.255,35.255,35.28,,0.010921286475950243,hog,20200113
2020-01-13,13:36,1:36 PM,,,,0,0.0,0,35.28,35.26,35.27,899,31708.22,8,,,35.27,35.265,,0.011007280857650643,hog,20200113
2020-01-13,13:37,1:37 PM,35.28,35.28,35.28,100,3528.0,1,35.28,35.28,35.28,200,7056.0,2,35.28,35.28,35.28,35.28,,0.011293928796651904,hog,20200113
2020-01-13,13:38,1:38 PM,35.285,35.285,35.285,200,7057.0,2,35.285,35.28,35.282,400,14113.0,4,35.285,35.285,35.28,35.285,,0.011351258384452034,hog,20200113
2020-01-13,13:39,1:39 PM,35.29,35.28,35.284,319,11255.51,4,35.285,35.28,35.282,600,21169.54,5,35.285,35.29,35.285,35.285,,0.011351258384452034,hog,20200113
2020-01-13,13:40,1:40 PM,35.305,35.285,35.296,486,17153.84,8,35.31,35.28,35.296,2352,83015.68,23,35.29,35.285,35.29,35.28,,0.011752565499053963,hog,20200113
2020-01-13,13:41,1:41 PM,,,,0,0.0,0,35.29,35.29,35.29,300,10587.0,2,,,35.29,35.29,,0.011580576735653166,hog,20200113
2020-01-13,13:42,1:42 PM,35.295,35.285,35.292,300,10587.5,3,35.295,35.285,35.29,700,24703.0,7,35.285,35.295,35.285,35.295,,0.011580576735653166,hog,20200113
2020-01-13,13:43,1:43 PM,35.3,35.3,35.3,100,3530.0,1,35.3,35.3,35.3,400,14120.0,4,35.3,35.3,35.3,35.3,,0.011867224674654427,hog,20200113
2020-01-13,13:44,1:44 PM,35.305,35.305,35.305,300,10591.5,3,35.31,35.305,35.306,500,17653.0,5,35.305,35.305,35.31,35.305,,0.012039213438055224,hog,20200113
2020-01-13,13:45,1:45 PM,35.305,35.275,35.288,327,11539.045,7,35.31,35.275,35.291,1750,61759.0,15,35.305,35.275,35.31,35.28,,0.01160924152955323,hog,20200113
2020-01-13,13:46,1:46 PM,35.29,35.275,35.279,600,21167.5,6,35.29,35.275,35.282,2900,102317.5,24,35.28,35.29,35.28,35.29,,0.011351258384452034,hog,20200113
2020-01-13,13:47,1:47 PM,35.285,35.285,35.285,100,3528.5,1,35.29,35.285,35.288,200,7057.5,2,35.285,35.285,35.285,35.29,,0.011523247147852831,hog,20200113
2020-01-13,13:48,1:48 PM,35.285,35.285,35.285,200,7057.0,2,35.29,35.282,35.286,780,27523.1,6,35.285,35.285,35.29,35.285,,0.011465917560052701,hog,20200113
2020-01-13,13:49,1:49 PM,35.27,35.26,35.263,301,10614.27,5,35.29,35.26,35.271,3526,124365.22,30,35.27,35.26,35.29,35.26,,0.011035945651550708,hog,20200113
2020-01-13,13:50,1:50 PM,35.295,35.295,35.295,100,3529.5,1,35.3,35.262,35.278,2506,88407.31,23,35.295,35.295,35.27,35.28,,0.01123659920885157,hog,20200113
2020-01-13,13:51,1:51 PM,35.315,35.29,35.303,200,7060.5,2,35.32,35.29,35.304,800,28243.5,7,35.29,35.315,35.29,35.32,,0.011981883850255094,hog,20200113
2020-01-13,13:52,1:52 PM,35.31,35.31,35.31,37,1306.47,1,35.35,35.324,35.333,1200,42399.7,9,35.31,35.31,35.324,35.35,,0.012813162873358814,hog,20200113
2020-01-13,13:53,1:53 PM,35.35,35.35,35.35,101,3570.35,2,35.36,35.33,35.351,1800,63632.0,16,35.35,35.35,35.35,35.33,,0.013329129163561207,hog,20200113
2020-01-13,13:54,1:54 PM,35.34,35.335,35.336,507,17915.38,6,35.34,35.33,35.336,700,24735.0,6,35.335,35.34,35.33,35.34,,0.012899157255059213,hog,20200113
2020-01-13,13:55,1:55 PM,35.34,35.34,35.34,100,3534.0,1,35.34,35.332,35.337,300,10601.2,3,35.34,35.34,35.34,35.332,,0.01292782204895948,hog,20200113
2020-01-13,13:56,1:56 PM,35.34,35.34,35.34,101,3569.34,2,35.34,35.34,35.34,1103,38980.02,10,35.34,35.34,35.34,35.34,,0.01301381643065988,hog,20200113
2020-01-13,13:57,1:57 PM,35.335,35.325,35.328,231,8160.75,4,35.33,35.325,35.329,500,17664.5,5,35.33,35.325,35.33,35.325,,0.012698503697758351,hog,20200113
2020-01-13,13:58,1:58 PM,35.32,35.32,35.32,100,3532.0,1,35.32,35.31,35.319,1000,35319.0,8,35.32,35.32,35.32,35.31,,0.012411855758757088,hog,20200113
2020-01-13,13:59,1:59 PM,35.31,35.305,35.305,205,7237.55,3,35.32,35.305,35.313,4646,164061.947,26,35.31,35.305,35.31,35.305,,0.01223986699535629,hog,20200113
2020-01-13,14:00,2 PM,,,,0,0.0,0,35.31,35.3,35.303,300,10591.0,3,,,35.31,35.3,,0.011953219056354826,hog,20200113
2020-01-13,14:01,2:01 PM,35.3,35.3,35.3,3,105.9,1,35.3,35.3,35.3,1061,37453.3,7,35.3,35.3,35.3,35.3,,0.011867224674654427,hog,20200113
2020-01-13,14:02,2:02 PM,35.315,35.31,35.313,55,1942.2,4,35.31,35.295,35.305,3364,118766.6428,22,35.31,35.315,35.3,35.303,,0.012010548644155159,hog,20200113
2020-01-13,14:03,2:03 PM,35.305,35.305,35.305,127,4483.735,4,35.305,35.3,35.303,460,16239.256,3,35.305,35.305,35.304,35.305,,0.011953219056354826,hog,20200113
2020-01-13,14:04,2:04 PM,35.305,35.305,35.305,206,7272.83,3,35.31,35.3,35.305,2400,84732.4,15,35.305,35.305,35.305,35.3,,0.012010548644155159,hog,20200113
2020-01-13,14:05,2:05 PM,35.315,35.305,35.305,105,3707.075,3,35.316,35.305,35.31,1059,37393.8958,6,35.305,35.315,35.31,35.316,,0.012153872613655891,hog,20200113
2020-01-13,14:06,2:06 PM,35.335,35.315,35.322,315,11126.515,6,35.34,35.31,35.322,2100,74177.0,18,35.315,35.335,35.31,35.34,,0.012497850140457487,hog,20200113
2020-01-13,14:07,2:07 PM,35.365,35.335,35.343,202,7139.23,3,35.39,35.335,35.369,6510,230249.78,38,35.335,35.365,35.34,35.39,,0.0138450954537636,hog,20200113
2020-01-13,14:08,2:08 PM,35.395,35.395,35.395,2,70.79,2,35.4,35.386,35.391,1000,35391.02,8,35.395,35.395,35.39,35.4,,0.014475720919566457,hog,20200113
2020-01-13,14:09,2:09 PM,,,,0,0.0,0,35.415,35.4,35.408,1500,53111.5,14,,,35.4,35.415,,0.014963022415868785,hog,20200113
2020-01-13,14:10,2:10 PM,35.42,35.385,35.408,508,17987.195,11,35.42,35.36,35.395,3855,136446.875,31,35.42,35.385,35.42,35.365,,0.014590380095167124,hog,20200113
2020-01-13,14:11,2:11 PM,35.37,35.37,35.37,100,3537.0,1,35.38,35.37,35.374,700,24762.16,5,35.37,35.37,35.37,35.37,,0.013988419423264332,hog,20200113
2020-01-13,14:12,2:12 PM,35.38,35.37,35.38,136,4811.67,3,35.385,35.375,35.38,1000,35380.0,8,35.37,35.38,35.38,35.385,,0.01416040818666513,hog,20200113
2020-01-13,14:13,2:13 PM,35.385,35.385,35.385,200,7077.0,2,35.39,35.385,35.389,1074,38007.86,9,35.385,35.385,35.385,35.385,,0.014418391331766327,hog,20200113
2020-01-13,14:14,2:14 PM,35.385,35.38,35.38,203,7182.155,3,35.385,35.37,35.379,1875,66335.0,12,35.385,35.38,35.38,35.37,,0.014131743392764861,hog,20200113
2020-01-13,14:15,2:15 PM,35.37,35.37,35.37,1,35.37,1,35.37,35.36,35.369,2100,74274.5,16,35.37,35.37,35.365,35.37,,0.0138450954537636,hog,20200113
2020-01-13,14:16,2:16 PM,,,,0,0.0,0,35.37,35.365,35.369,400,14147.5,4,,,35.37,35.365,,0.0138450954537636,hog,20200113
2020-01-13,14:17,2:17 PM,35.365,35.355,35.356,109,3853.785,4,35.365,35.355,35.36,1804,63789.94,18,35.365,35.365,35.36,35.36,,0.013587112308662403,hog,20200113
2020-01-13,14:18,2:18 PM,,,,0,0.0,0,,,,0,0.0,0,,,,,,,hog,20200113
2020-01-13,14:19,2:19 PM,35.355,35.345,35.353,5,176.765,2,35.355,35.35,35.353,1100,38888.0,6,35.355,35.345,35.355,35.35,,0.013386458751361541,hog,20200113
2020-01-13,14:20,2:20 PM,35.345,35.335,35.335,102,3604.19,2,35.345,35.335,35.34,400,14136.0,4,35.345,35.335,35.345,35.335,,0.01301381643065988,hog,20200113
2020-01-13,14:21,2:21 PM,35.335,35.325,35.333,328,11589.11,6,35.335,35.32,35.329,1500,52994.0,13,35.335,35.325,35.335,35.32,,0.012698503697758351,hog,20200113
2020-01-13,14:22,2:22 PM,35.335,35.32,35.321,220,7770.6,7,35.335,35.315,35.326,5279,186486.11,41,35.32,35.33,35.32,35.33,,0.012612509316057952,hog,20200113
2020-01-13,14:23,2:23 PM,35.315,35.3,35.309,400,14123.5,3,35.315,35.3,35.307,1100,38837.5,9,35.315,35.3,35.315,35.3,,0.012067878231955494,hog,20200113
2020-01-13,14:24,2:24 PM,35.3,35.29,35.29,104,3670.2,2,35.301,35.28,35.291,3327,117412.8478,13,35.3,35.29,35.29,35.285,,0.01160924152955323,hog,20200113
2020-01-13,14:25,2:25 PM,35.275,35.26,35.265,300,10579.5,3,35.285,35.26,35.269,2768,97625.18,21,35.275,35.26,35.285,35.26,,0.010978616063750373,hog,20200113
2020-01-13,14:26,2:26 PM,35.28,35.27,35.27,175,6172.27,3,35.285,35.265,35.276,2940,103710.3,22,35.27,35.28,35.27,35.275,,0.01117926962105144,hog,20200113
2020-01-13,14:27,2:27 PM,35.275,35.275,35.275,100,3527.5,1,35.29,35.275,35.28,1522,53696.3848,10,35.275,35.275,35.277,35.285,,0.011293928796651904,hog,20200113
2020-01-13,14:28,2:28 PM,35.28,35.275,35.278,300,10583.5,3,35.28,35.275,35.279,1688,59551.28,12,35.28,35.28,35.28,35.28,,0.01126526400275184,hog,20200113
2020-01-13,14:29,2:29 PM,35.27,35.27,35.27,101,3562.27,2,35.28,35.265,35.276,2494,87977.165,20,35.27,35.27,35.28,35.265,,0.01117926962105144,hog,20200113
2020-01-13,14:30,2:30 PM,35.265,35.265,35.265,1,35.265,1,35.28,35.27,35.276,1700,59970.0,13,35.265,35.265,35.27,35.28,,0.01117926962105144,hog,20200113
2020-01-13,14:31,2:31 PM,35.295,35.295,35.295,100,3529.5,1,35.3,35.285,35.295,3096,109272.34,20,35.295,35.295,35.29,35.285,,0.011723900705153898,hog,20200113
2020-01-13,14:32,2:32 PM,35.285,35.285,35.285,100,3528.5,1,35.285,35.285,35.285,100,3528.5,1,35.285,35.285,35.285,35.285,,0.011437252766152433,hog,20200113
2020-01-13,14:33,2:33 PM,35.28,35.265,35.273,200,7054.5,2,35.284,35.265,35.278,1289,45473.08,11,35.28,35.265,35.284,35.265,,0.01123659920885157,hog,20200113
2020-01-13,14:34,2:34 PM,,,,0,0.0,0,35.26,35.255,35.26,1168,41183.18,7,,,35.26,35.255,,0.010720632918649177,hog,20200113
2020-01-13,14:35,2:35 PM,35.265,35.265,35.265,100,3526.5,1,35.27,35.265,35.267,1539,54275.335,10,35.265,35.265,35.265,35.265,,0.010921286475950243,hog,20200113
2020-01-13,14:36,2:36 PM,35.265,35.25,35.258,400,14103.0,4,35.265,35.25,35.259,2600,91672.61,16,35.265,35.25,35.261,35.251,,0.010691968124749112,hog,20200113
2020-01-13,14:37,2:37 PM,35.26,35.255,35.259,6,211.555,2,35.26,35.25,35.255,970,34197.5,7,35.255,35.26,35.25,35.26,,0.010577308949148649,hog,20200113
2020-01-13,14:38,2:38 PM,,,,0,0.0,0,35.255,35.255,35.255,400,14102.0,4,,,35.255,35.255,,0.010577308949148649,hog,20200113
2020-01-13,14:39,2:39 PM,35.26,35.255,35.257,191,6734.16,2,35.255,35.25,35.254,500,17627.0,5,35.26,35.255,35.25,35.255,,0.01054864415524838,hog,20200113
2020-01-13,14:40,2:40 PM,35.26,35.255,35.259,18,634.67,2,35.255,35.25,35.252,200,7050.5,2,35.255,35.26,35.25,35.255,,0.01049131456744825,hog,20200113
2020-01-13,14:41,2:41 PM,35.255,35.255,35.255,300,10576.5,3,35.26,35.255,35.256,400,14102.5,4,35.255,35.255,35.255,35.26,,0.010605973743048714,hog,20200113
2020-01-13,14:42,2:42 PM,35.265,35.21,35.24,504,17761.03,8,35.265,35.21,35.248,5804,204581.66,41,35.26,35.21,35.255,35.21,,0.010376655391847582,hog,20200113
2020-01-13,14:43,2:43 PM,35.225,35.215,35.217,130,4578.25,4,35.24,35.21,35.221,2464,86783.8384,19,35.215,35.225,35.21,35.24,,0.009602705956543993,hog,20200113
2020-01-13,14:44,2:44 PM,35.29,35.265,35.288,1165,41110.35,2,35.3,35.235,35.282,8965,316302.35,36,35.265,35.29,35.235,35.3,,0.011351258384452034,hog,20200113
2020-01-13,14:45,2:45 PM,35.315,35.315,35.315,100,3531.5,1,35.32,35.31,35.318,3500,123614.5,26,35.315,35.315,35.32,35.315,,0.01238319096485682,hog,20200113
2020-01-13,14:46,2:46 PM,35.34,35.34,35.34,68,2403.12,1,35.35,35.32,35.332,4458,157509.21,34,35.34,35.34,35.32,35.32,,0.012784498079458749,hog,20200113
2020-01-13,14:47,2:47 PM,35.33,35.33,35.33,200,7066.0,2,35.33,35.32,35.324,800,28259.5,6,35.33,35.33,35.32,35.33,,0.012555179728257617,hog,20200113
2020-01-13,14:48,2:48 PM,35.33,35.33,35.33,200,7066.0,2,35.33,35.329,35.329,1400,49460.9,5,35.33,35.33,35.33,35.33,,0.012698503697758351,hog,20200113
2020-01-13,14:49,2:49 PM,35.34,35.335,35.337,200,7067.5,2,35.34,35.335,35.34,1300,45941.5,10,35.335,35.34,35.34,35.34,,0.01301381643065988,hog,20200113
2020-01-13,14:50,2:50 PM,35.34,35.34,35.34,100,3534.0,1,35.35,35.34,35.342,700,24739.5,7,35.34,35.34,35.34,35.34,,0.01307114601846001,hog,20200113
2020-01-13,14:51,2:51 PM,35.335,35.33,35.335,101,3568.83,2,35.335,35.32,35.327,1000,35327.0,9,35.335,35.33,35.335,35.32,,0.012641174109958016,hog,20200113
2020-01-13,14:52,2:52 PM,35.315,35.315,35.315,100,3531.5,1,35.32,35.31,35.318,607,21437.7235,5,35.315,35.315,35.32,35.31,,0.01238319096485682,hog,20200113
2020-01-13,14:53,2:53 PM,35.315,35.31,35.313,470,16597.245,5,35.32,35.29,35.313,3437,121370.32,23,35.315,35.31,35.315,35.29,,0.01223986699535629,hog,20200113
2020-01-13,14:54,2:54 PM,,,,0,0.0,0,35.305,35.285,35.296,1800,63532.5,17,,,35.285,35.3,,0.011752565499053963,hog,20200113
2020-01-13,14:55,2:55 PM,35.305,35.305,35.305,100,3530.5,1,35.305,35.3,35.303,300,10591.0,3,35.305,35.305,35.305,35.305,,0.011953219056354826,hog,20200113
2020-01-13,14:56,2:56 PM,35.305,35.305,35.305,300,10591.5,3,35.31,35.305,35.307,600,21184.0,6,35.305,35.305,35.31,35.31,,0.012067878231955494,hog,20200113
2020-01-13,14:57,2:57 PM,35.33,35.32,35.325,202,7135.66,4,35.33,35.31,35.32,2039,72017.785,18,35.32,35.33,35.31,35.325,,0.012440520552657154,hog,20200113
2020-01-13,14:58,2:58 PM,35.33,35.33,35.33,101,3568.33,2,35.33,35.33,35.33,1435,50698.55,13,35.33,35.33,35.33,35.33,,0.012727168491658416,hog,20200113
2020-01-13,14:59,2:59 PM,35.34,35.33,35.334,322,11377.48,4,35.335,35.33,35.332,600,21199.0,6,35.335,35.34,35.335,35.335,,0.012784498079458749,hog,20200113
2020-01-13,15:00,3 PM,35.335,35.33,35.333,501,17701.83,6,35.34,35.33,35.332,1600,56531.0,11,35.335,35.33,35.335,35.33,,0.012784498079458749,hog,20200113
2020-01-13,15:01,3:01 PM,35.32,35.315,35.319,377,13315.14,4,35.325,35.315,35.32,2579,91089.28,24,35.32,35.32,35.32,35.32,,0.012440520552657154,hog,20200113
2020-01-13,15:02,3:02 PM,35.315,35.315,35.315,100,3531.5,1,35.325,35.315,35.32,1217,42984.94,8,35.315,35.315,35.32,35.325,,0.012440520552657154,hog,20200113
2020-01-13,15:03,3:03 PM,35.345,35.325,35.335,400,14134.0,4,35.35,35.325,35.334,2261,79890.4098,18,35.325,35.345,35.325,35.343,,0.012841827667259083,hog,20200113
2020-01-13,15:04,3:04 PM,35.345,35.335,35.337,600,21202.5,6,35.345,35.335,35.339,2152,76050.18,16,35.345,35.335,35.345,35.34,,0.012985151636759612,hog,20200113
2020-01-13,15:05,3:05 PM,35.335,35.335,35.335,3,106.005,2,35.34,35.33,35.335,1504,53143.29,13,35.335,35.335,35.34,35.34,,0.012870492461159148,hog,20200113
2020-01-13,15:06,3:06 PM,35.34,35.34,35.34,101,3569.34,2,35.343,35.33,35.336,2422,85584.1344,10,35.34,35.34,35.34,35.33,,0.012899157255059213,hog,20200113
2020-01-13,15:07,3:07 PM,35.345,35.335,35.335,401,14169.345,5,35.345,35.335,35.338,803,28376.79,7,35.335,35.345,35.34,35.345,,0.012956486842859547,hog,20200113
2020-01-13,15:08,3:08 PM,35.34,35.34,35.34,100,3534.0,1,35.34,35.34,35.34,513,18129.42,4,35.34,35.34,35.34,35.34,,0.01301381643065988,hog,20200113
2020-01-13,15:09,3:09 PM,35.345,35.335,35.338,300,10601.5,3,35.345,35.33,35.339,1301,45976.34,13,35.345,35.335,35.34,35.33,,0.012985151636759612,hog,20200113
2020-01-13,15:10,3:10 PM,,,,0,0.0,0,35.33,35.33,35.33,100,3533.0,1,,,35.33,35.33,,0.012727168491658416,hog,20200113
2020-01-13,15:11,3:11 PM,35.345,35.335,35.339,605,21380.205,11,35.345,35.335,35.34,2778,98173.52,24,35.34,35.34,35.34,35.34,,0.01301381643065988,hog,20200113
2020-01-13,15:12,3:12 PM,35.345,35.34,35.345,201,7104.34,3,35.345,35.34,35.342,627,22159.5991,6,35.345,35.34,35.34,35.34,,0.01307114601846001,hog,20200113
2020-01-13,15:13,3:13 PM,35.335,35.325,35.33,300,10599.0,3,35.34,35.325,35.331,2646,93487.38,19,35.335,35.33,35.335,35.33,,0.012755833285558684,hog,20200113
2020-01-13,15:14,3:14 PM,35.335,35.33,35.333,200,7066.5,2,35.335,35.32,35.329,1308,46210.14,11,35.335,35.33,35.335,35.32,,0.012698503697758351,hog,20200113
2020-01-13,15:15,3:15 PM,35.325,35.305,35.319,504,17800.785,8,35.33,35.305,35.318,3132,110615.79,22,35.32,35.325,35.32,35.325,,0.01238319096485682,hog,20200113
2020-01-13,15:16,3:16 PM,35.33,35.33,35.33,100,3533.0,2,35.335,35.325,35.329,2734,96589.3202,15,35.33,35.33,35.325,35.329,,0.012698503697758351,hog,20200113
2020-01-13,15:17,3:17 PM,35.33,35.325,35.326,236,8336.875,4,35.33,35.32,35.326,2641,93294.98,11,35.325,35.33,35.325,35.32,,0.012612509316057952,hog,20200113
2020-01-13,15:18,3:18 PM,35.325,35.315,35.316,702,24792.13,8,35.325,35.315,35.318,1902,67175.64,18,35.325,35.315,35.325,35.315,,0.01238319096485682,hog,20200113
2020-01-13,15:19,3:19 PM,35.325,35.31,35.315,493,17410.33,4,35.325,35.31,35.318,2507,88543.31,18,35.325,35.31,35.32,35.315,,0.01238319096485682,hog,20200113
2020-01-13,15:20,3:20 PM,35.31,35.305,35.306,136,4801.64,6,35.31,35.3,35.309,1548,54657.88,10,35.31,35.305,35.31,35.305,,0.012125207819755623,hog,20200113
2020-01-13,15:21,3:21 PM,,,,0,0.0,0,35.309,35.305,35.307,400,14122.72,3,,,35.309,35.305,,0.012067878231955494,hog,20200113
2020-01-13,15:22,3:22 PM,35.305,35.305,35.305,300,10591.5,3,35.305,35.305,35.305,500,17652.5,5,35.305,35.305,35.305,35.305,,0.012010548644155159,hog,20200113
2020-01-13,15:23,3:23 PM,35.32,35.305,35.311,1020,36017.695,13,35.315,35.29,35.304,6733,237705.05,41,35.305,35.31,35.305,35.295,,0.011981883850255094,hog,20200113
2020-01-13,15:24,3:24 PM,35.29,35.29,35.29,501,17680.29,4,35.296,35.285,35.292,3522,124299.8992,14,35.29,35.29,35.29,35.285,,0.0116379063234535,hog,20200113
2020-01-13,15:25,3:25 PM,35.3,35.29,35.295,419,14788.51,6,35.33,35.285,35.299,7980,281685.64,57,35.29,35.3,35.285,35.325,,0.011838559880754362,hog,20200113
2020-01-13,15:26,3:26 PM,35.36,35.345,35.352,634,22413.4,9,35.36,35.33,35.349,3690,130438.4,30,35.355,35.345,35.33,35.34,,0.013271799575760874,hog,20200113
2020-01-13,15:27,3:27 PM,,,,0,0.0,0,35.345,35.34,35.343,500,17671.42,5,,,35.345,35.34,,0.01309981081236028,hog,20200113
2020-01-13,15:28,3:28 PM,35.345,35.32,35.335,300,10600.5,3,35.35,35.315,35.329,4613,162971.42,41,35.345,35.32,35.34,35.315,,0.012698503697758351,hog,20200113
2020-01-13,15:29,3:29 PM,,,,0,0.0,0,35.315,35.31,35.312,500,17656.0,5,,,35.31,35.315,,0.012211202201456023,hog,20200113
2020-01-13,15:30,3:30 PM,35.31,35.3,35.305,916,32339.63,9,35.315,35.3,35.306,3400,120039.0,23,35.31,35.3,35.31,35.305,,0.012039213438055224,hog,20200113
2020-01-13,15:31,3:31 PM,35.31,35.305,35.306,501,17688.31,4,35.31,35.3,35.306,1900,67081.0,15,35.305,35.31,35.305,35.305,,0.012039213438055224,hog,20200113
2020-01-13,15:32,3:32 PM,35.305,35.3,35.303,402,14191.61,6,35.305,35.3,35.304,3072,108453.1,19,35.305,35.3,35.305,35.3,,0.011981883850255094,hog,20200113
2020-01-13,15:33,3:33 PM,35.305,35.295,35.3,767,27075.1,9,35.305,35.295,35.3,7120,251334.96,48,35.3,35.305,35.3,35.305,,0.011867224674654427,hog,20200113
2020-01-13,15:34,3:34 PM,35.305,35.3,35.304,600,21182.5,4,35.305,35.3,35.302,5000,176509.76,15,35.305,35.305,35.305,35.305,,0.011924554262454761,hog,20200113
2020-01-13,15:35,3:35 PM,35.33,35.3,35.313,1303,46013.435,12,35.34,35.3,35.314,10424,368111.575,69,35.305,35.33,35.305,35.34,,0.012268531789256356,hog,20200113
2020-01-13,15:36,3:36 PM,35.345,35.34,35.343,200,7068.5,2,35.35,35.335,35.342,6150,217353.0,35,35.345,35.34,35.34,35.34,,0.01307114601846001,hog,20200113
2020-01-13,15:37,3:37 PM,35.345,35.305,35.321,471,16636.075,7,35.345,35.305,35.326,4149,146566.09,36,35.345,35.305,35.345,35.305,,0.012612509316057952,hog,20200113
2020-01-13,15:38,3:38 PM,35.305,35.305,35.305,200,7061.0,2,35.31,35.305,35.306,500,17653.0,5,35.305,35.305,35.305,35.305,,0.012039213438055224,hog,20200113
2020-01-13,15:39,3:39 PM,35.305,35.29,35.293,902,31834.61,7,35.31,35.29,35.298,7655,270208.82,52,35.305,35.305,35.3,35.305,,0.011809895086854297,hog,20200113
2020-01-13,15:40,3:40 PM,35.34,35.305,35.324,516,18227.2,7,35.34,35.305,35.318,2854,100796.74,23,35.305,35.34,35.305,35.34,,0.01238319096485682,hog,20200113
2020-01-13,15:41,3:41 PM,35.355,35.345,35.348,331,11700.35,4,35.355,35.34,35.349,2898,102440.14,22,35.355,35.345,35.355,35.345,,0.013271799575760874,hog,20200113
2020-01-13,15:42,3:42 PM,35.345,35.345,35.345,200,7069.0,2,35.345,35.34,35.343,672,23750.324,6,35.345,35.345,35.345,35.34,,0.01309981081236028,hog,20200113
2020-01-13,15:43,3:43 PM,35.35,35.345,35.345,1070,37819.495,13,35.355,35.34,35.348,6460,228348.5,50,35.345,35.35,35.34,35.34,,0.013243134781860809,hog,20200113
2020-01-13,15:44,3:44 PM,35.345,35.345,35.345,100,3534.5,1,35.345,35.34,35.341,731,25834.04,6,35.345,35.345,35.345,35.34,,0.013042481224559945,hog,20200113
2020-01-13,15:45,3:45 PM,35.345,35.33,35.344,116,4099.935,7,35.345,35.33,35.337,3789,133892.59,19,35.345,35.33,35.34,35.33,,0.01292782204895948,hog,20200113
2020-01-13,15:46,3:46 PM,35.325,35.31,35.321,1319,46588.9,14,35.33,35.3,35.317,11922,421050.62,88,35.325,35.325,35.325,35.325,,0.012354526170956755,hog,20200113
2020-01-13,15:47,3:47 PM,35.35,35.345,35.35,25,883.745,2,35.35,35.325,35.338,2400,84810.5,18,35.35,35.345,35.33,35.35,,0.012956486842859547,hog,20200113
2020-01-13,15:48,3:48 PM,35.355,35.345,35.347,791,27959.855,12,35.36,35.34,35.344,5348,189019.49,37,35.345,35.355,35.345,35.35,,0.013128475606260345,hog,20200113
2020-01-13,15:49,3:49 PM,35.355,35.355,35.355,200,7071.0,2,35.36,35.35,35.356,986,34861.03,9,35.355,35.355,35.35,35.355,,0.013472453133061939,hog,20200113
2020-01-13,15:50,3:50 PM,35.37,35.355,35.359,323,11420.84,7,35.37,35.35,35.359,8059,284958.04,67,35.355,35.36,35.36,35.36,,0.013558447514762338,hog,20200113
2020-01-13,15:51,3:51 PM,35.355,35.315,35.319,113,3991.055,4,35.35,35.315,35.33,8426,297686.49,58,35.355,35.315,35.35,35.32,,0.012727168491658416,hog,20200113
2020-01-13,15:52,3:52 PM,35.34,35.325,35.329,405,14308.155,6,35.35,35.325,35.332,5331,188354.08,43,35.325,35.34,35.33,35.35,,0.012784498079458749,hog,20200113
2020-01-13,15:53,3:53 PM,35.355,35.345,35.351,365,12903.25,6,35.36,35.345,35.35,2111,74623.35,18,35.345,35.355,35.35,35.35,,0.013300464369661142,hog,20200113
2020-01-13,15:54,3:54 PM,35.35,35.325,35.338,576,20354.975,11,35.36,35.32,35.336,14069,497145.31,96,35.35,35.335,35.36,35.34,,0.012899157255059213,hog,20200113
2020-01-13,15:55,3:55 PM,35.335,35.305,35.318,1104,38990.755,13,35.34,35.305,35.322,16263,574438.54,127,35.335,35.325,35.34,35.325,,0.012497850140457487,hog,20200113
2020-01-13,15:56,3:56 PM,35.325,35.32,35.324,727,25680.69,12,35.33,35.32,35.325,9394,331846.13,56,35.325,35.32,35.325,35.32,,0.012583844522157887,hog,20200113
2020-01-13,15:57,3:57 PM,35.32,35.305,35.307,1785,63023.685,18,35.33,35.305,35.313,20233,714494.865,113,35.32,35.305,35.325,35.32,,0.01223986699535629,hog,20200113
2020-01-13,15:58,3:58 PM,35.335,35.315,35.323,623,22006.355,12,35.34,35.31,35.323,17220,608259.54,110,35.315,35.335,35.32,35.34,,0.012526514934357552,hog,20200113
2020-01-13,15:59,3:59 PM,35.36,35.335,35.351,572,20220.73,9,35.37,35.33,35.349,15810,558874.8505,90,35.335,35.36,35.335,35.37,,0.013271799575760874,hog,20200113
