date,minute,label,high,low,average,volume,notional,numberOfTrades,marketHigh,marketLow,marketAverage,marketVolume,marketNotional,marketNumberOfTrades,open,close,marketOpen,marketClose,changeOverTime,marketChangeOverTime,tickerName,tickerDate
2020-01-10,09:30,09:30 AM,,,,0,0.0,0,36.35,36.21,36.261,10932,396402.92,4,,,36.26,36.35,,0.0,hog,20200110
2020-01-10,09:31,09:31 AM,,,,0,0.0,0,36.4,36.295,36.386,7998,291017.5452,41,,,36.35,36.347,,0.0034472298061277956,hog,20200110
2020-01-10,09:32,09:32 AM,,,,0,0.0,0,36.33,36.33,36.33,200,7266.0,1,,,36.33,36.33,,0.0019028708529824192,hog,20200110
2020-01-10,09:33,09:33 AM,36.4,36.4,36.4,1,36.4,1,,,,0,0.0,0,36.4,36.4,,,,0.0038333195444139926,hog,20200110
2020-01-10,09:34,09:34 AM,,,,0,0.0,0,36.34,36.32,36.328,500,18164.0,5,,,36.34,36.33,,0.001847715176084503,hog,20200110
2020-01-10,09:35,09:35 AM,,,,0,0.0,0,36.31,36.2,36.268,2226,80733.06,21,,,36.31,36.21,,0.00019304486914309855,hog,20200110
2020-01-10,09:36,09:36 AM,36.1,36.1,36.1,100,3610.0,1,36.21,36.1,36.174,2603,94160.63,25,36.1,36.1,36.17,36.18,,-0.0023992719450650363,hog,20200110
2020-01-10,09:37,09:37 AM,36.1,36.09,36.093,303,10936.3,4,36.15,36.06,36.1,6000,216601.0,51,36.1,36.09,36.14,36.06,,-0.004440031990292638,hog,20200110
2020-01-10,09:38,09:38 AM,36.14,36.14,36.14,5,180.7,1,36.1,36.075,36.084,300,10825.1,2,36.14,36.14,36.1,36.075,,-0.004881277405476947,hog,20200110
2020-01-10,09:39,09:39 AM,36.075,36.075,36.075,100,3607.5,1,36.08,36.05,36.061,1337,48213.72,10,36.075,36.075,36.06,36.08,,-0.005515567689804551,hog,20200110
2020-01-10,09:40,09:40 AM,36.06,36.05,36.055,200,7211.0,2,36.08,36.03,36.054,3000,108162.76,18,36.05,36.06,36.06,36.06,,-0.0057086125589476495,hog,20200110
2020-01-10,09:41,09:41 AM,,,,0,0.0,0,,,,0,0.0,0,,,,,,,hog,20200110
2020-01-10,09:42,09:42 AM,,,,0,0.0,0,36.065,36.03,36.062,5900,212766.0,9,,,36.065,36.04,,-0.005487989851355593,hog,20200110
2020-01-10,09:43,09:43 AM,36.06,36.045,36.051,5,180.255,2,36.08,36.05,36.053,7109,256302.04,20,36.045,36.06,36.06,36.06,,-0.005736190397396803,hog,20200110
2020-01-10,09:44,09:44 AM,36.09,36.06,36.075,200,7215.0,2,36.09,36.04,36.061,1400,50486.0,12,36.09,36.06,36.07,36.06,,-0.005515567689804551,hog,20200110
2020-01-10,09:45,09:45 AM,36.02,36.02,36.02,100,3602.0,1,36.04,36.0,36.023,1702,61312.06,17,36.02,36.02,36.03,36.0,,-0.00656352555086731,hog,20200110
2020-01-10,09:46,09:46 AM,,,,0,0.0,0,36.05,35.98,36.037,1673,60290.19,13,,,35.98,36.05,,-0.006177435812581113,hog,20200110
2020-01-10,09:47,09:47 AM,36.03,36.03,36.03,3,108.09,1,36.07,36.03,36.045,2726,98258.8,20,36.03,36.03,36.05,36.03,,-0.0059568131049888605,hog,20200110
2020-01-10,09:48,09:48 AM,36.0,36.0,36.0,95,3420.0,1,36.03,35.98,36.003,300,10801.0,3,36.0,36.0,36.03,35.98,,-0.0071150823198478435,hog,20200110
2020-01-10,09:49,09:49 AM,,,,0,0.0,0,36.05,36.02,36.034,1563,56321.26,14,,,36.03,36.05,,-0.006260169327928183,hog,20200110
2020-01-10,09:50,09:50 AM,36.05,36.05,36.05,100,3605.0,1,36.05,35.971,36.03,1908,68744.51,14,36.05,36.05,36.05,35.971,,-0.006370480681724211,hog,20200110
2020-01-10,09:51,09:51 AM,,,,0,0.0,0,36.02,35.963,35.99,1103,39697.232,9,,,35.97,36.02,,-0.007473594219685083,hog,20200110
2020-01-10,09:52,09:52 AM,,,,0,0.0,0,36.07,36.02,36.045,1488,53635.544,8,,,36.02,36.07,,-0.0059568131049888605,hog,20200110
2020-01-10,09:53,09:53 AM,,,,0,0.0,0,36.06,36.06,36.06,100,3606.0,1,,,36.06,36.06,,-0.005543145528253509,hog,20200110
2020-01-10,09:54,09:54 AM,,,,0,0.0,0,,,,0,0.0,0,,,,,,,hog,20200110
2020-01-10,09:55,09:55 AM,,,,0,0.0,0,36.07,36.07,36.07,100,3607.0,1,,,36.07,36.07,,-0.00526736714376334,hog,20200110
2020-01-10,09:56,09:56 AM,,,,0,0.0,0,36.05,36.05,36.05,989,35653.45,6,,,36.05,36.05,,-0.005818923912743874,hog,20200110
2020-01-10,09:57,09:57 AM,,,,0,0.0,0,36.16,36.07,36.112,900,32500.5,9,,,36.07,36.11,,-0.004109097928904357,hog,20200110
2020-01-10,09:58,09:58 AM,,,,0,0.0,0,,,,0,0.0,0,,,,,,,hog,20200110
2020-01-10,09:59,09:59 AM,,,,0,0.0,0,36.12,36.1,36.116,5081,183504.98,15,,,36.11,36.11,,-0.003998786575108329,hog,20200110
2020-01-10,10:00,10 AM,36.12,36.12,36.12,100,3612.0,1,36.12,36.08,36.102,4175,150725.17,34,36.12,36.12,36.1,36.08,,-0.004384876313394722,hog,20200110
2020-01-10,10:01,10:01 AM,36.08,36.065,36.08,205,7396.385,4,36.1,36.06,36.077,18660,673191.94,29,36.08,36.065,36.1,36.08,,-0.0050743222746202415,hog,20200110
2020-01-10,10:02,10:02 AM,36.205,36.15,36.18,402,14544.36,5,36.21,36.08,36.111,23037,831902.64,62,36.15,36.205,36.08,36.18,,-0.004136675767353512,hog,20200110
2020-01-10,10:03,10:03 AM,36.18,36.18,36.18,100,3618.0,1,36.18,36.15,36.167,3226,116675.42,25,36.18,36.18,36.18,36.15,,-0.0025923168142081353,hog,20200110
2020-01-10,10:04,10:04 AM,36.13,36.12,36.12,87,3142.45,3,36.14,36.14,36.14,5700,205998.0,3,36.13,36.12,36.14,36.14,,-0.003336918452331767,hog,20200110
2020-01-10,10:05,10:05 AM,36.17,36.14,36.169,102,3689.28,3,36.17,36.15,36.162,6103,220695.83,49,36.14,36.17,36.16,36.16,,-0.0027302060064533173,hog,20200110
2020-01-10,10:06,10:06 AM,,,,0,0.0,0,36.16,36.14,36.152,2610,94356.5,22,,,36.16,36.16,,-0.003005984390943486,hog,20200110
2020-01-10,10:07,10:07 AM,36.17,36.17,36.17,201,7270.17,3,36.17,36.15,36.16,14855,537164.92,26,36.17,36.17,36.16,36.155,,-0.0027853616833514298,hog,20200110
2020-01-10,10:08,10:08 AM,36.16,36.16,36.16,600,21696.0,6,36.16,36.15,36.156,3938,142383.88,36,36.16,36.16,36.16,36.16,,-0.002895673037147458,hog,20200110
2020-01-10,10:09,10:09 AM,36.19,36.19,36.19,1,36.19,1,36.2,36.16,36.174,1853,67030.34,14,36.19,36.19,36.16,36.2,,-0.0023992719450650363,hog,20200110
2020-01-10,10:10,10:10 AM,36.24,36.24,36.24,100,3624.0,1,36.255,36.22,36.234,604,21885.39,6,36.24,36.24,36.22,36.24,,-0.0007446016381236321,hog,20200110
2020-01-10,10:11,10:11 AM,36.265,36.25,36.265,101,3662.75,2,36.28,36.24,36.255,2180,79035.46,9,36.25,36.265,36.26,36.28,,-0.00016546703069414046,hog,20200110
2020-01-10,10:12,10:12 AM,36.26,36.26,36.26,200,7252.0,2,36.273,36.221,36.255,3972,144003.71,29,36.26,36.26,36.26,36.221,,-0.00016546703069414046,hog,20200110
2020-01-10,10:13,10:13 AM,36.22,36.22,36.22,1,36.22,1,36.21,36.17,36.196,1794,64935.9,13,36.22,36.22,36.21,36.17,,-0.0017925594991865868,hog,20200110
2020-01-10,10:14,10:14 AM,36.17,36.17,36.17,3,108.51,1,36.21,36.17,36.191,2095,75821.19,18,36.17,36.17,36.17,36.2,,-0.0019304486914315732,hog,20200110
2020-01-10,10:15,10:15 AM,36.26,36.255,36.26,101,3662.255,2,36.26,36.23,36.243,300,10873.0,3,36.255,36.26,36.23,36.26,,-0.0004964010920824214,hog,20200110
2020-01-10,10:16,10:16 AM,36.25,36.23,36.249,103,3733.69,2,36.26,36.25,36.256,1574,57066.71,13,36.25,36.23,36.26,36.25,,-0.00013788919224518237,hog,20200110
2020-01-10,10:17,10:17 AM,36.24,36.24,36.24,1,36.24,1,,,,0,0.0,0,36.24,36.24,,,,-0.0005791346074294916,hog,20200110
2020-01-10,10:18,10:18 AM,36.24,36.24,36.24,1,36.24,1,36.24,36.2,36.219,2025,73343.23,18,36.24,36.24,36.24,36.211,,-0.0011582692148589832,hog,20200110
2020-01-10,10:19,10:19 AM,,,,0,0.0,0,36.24,36.21,36.219,2200,79681.68,18,,,36.213,36.21,,-0.0011582692148589832,hog,20200110
2020-01-10,10:20,10:20 AM,36.21,36.21,36.21,1,36.21,1,36.21,36.21,36.21,100,3621.0,1,36.21,36.21,36.21,36.21,,-0.0014064697609001938,hog,20200110
2020-01-10,10:21,10:21 AM,36.195,36.19,36.19,101,3655.195,2,36.2,36.13,36.175,3494,126396.8,31,36.195,36.19,36.2,36.13,,-0.0023716941066160785,hog,20200110
2020-01-10,10:22,10:22 AM,36.11,36.045,36.074,400,14429.56,4,36.14,36.01,36.087,7942,286601.25,56,36.11,36.045,36.12,36.01,,-0.0047985438901298775,hog,20200110
2020-01-10,10:23,10:23 AM,36.025,36.025,36.025,100,3602.5,1,36.05,36.0,36.024,3566,128462.14,27,36.025,36.025,36.025,36.01,,-0.006535947712418352,hog,20200110
2020-01-10,10:24,10:24 AM,36.01,35.925,35.937,1000,35937.0,5,36.01,35.91,35.963,17582,632302.82,111,36.01,35.955,36.01,35.93,,-0.008218195857808714,hog,20200110
2020-01-10,10:25,10:25 AM,36.0,35.955,35.977,200,7195.5,2,36.02,35.95,35.995,3983,143369.05,35,35.955,36.0,35.955,36.0,,-0.007335705027440096,hog,20200110
2020-01-10,10:26,10:26 AM,35.975,35.96,35.97,606,21797.85,5,36.0,35.955,35.98,2857,102794.242,22,35.975,35.96,36.0,35.96,,-0.0077493726041754476,hog,20200110
2020-01-10,10:27,10:27 AM,35.97,35.96,35.965,200,7193.0,2,35.98,35.92,35.958,6500,233726.5,51,35.96,35.97,35.96,35.92,,-0.008356085050053896,hog,20200110
2020-01-10,10:28,10:28 AM,35.9,35.85,35.86,501,17965.9,6,35.93,35.82,35.872,9870,354055.6,74,35.9,35.85,35.92,35.83,,-0.01072777915666978,hog,20200110
2020-01-10,10:29,10:29 AM,35.815,35.77,35.794,1192,42666.34,8,35.85,35.76,35.805,29439,1054054.62,210,35.78,35.805,35.82,35.805,,-0.012575494332754282,hog,20200110
2020-01-10,10:30,10:30 AM,35.835,35.775,35.809,1404,50275.81,13,35.835,35.76,35.816,5261,188425.35,40,35.805,35.775,35.805,35.78,,-0.01227213810981496,hog,20200110
2020-01-10,10:31,10:31 AM,35.765,35.745,35.751,700,25026.0,7,35.8,35.73,35.77,5968,213477.37,38,35.765,35.75,35.76,35.8,,-0.013540718678469971,hog,20200110
2020-01-10,10:32,10:32 AM,35.79,35.79,35.79,300,10737.0,3,35.8,35.78,35.785,3600,128825.23,32,35.79,35.79,35.79,35.785,,-0.013127051101734816,hog,20200110
2020-01-10,10:33,10:33 AM,35.785,35.74,35.754,687,24562.745,8,35.79,35.72,35.761,10352,370193.355,70,35.785,35.74,35.785,35.72,,-0.013788919224511182,hog,20200110
2020-01-10,10:34,10:34 AM,35.75,35.73,35.736,1000,35735.5,6,35.77,35.72,35.745,5598,200098.36,43,35.73,35.73,35.736,35.76,,-0.014230164639695687,hog,20200110
2020-01-10,10:35,10:35 AM,35.715,35.715,35.715,200,7143.0,2,35.76,35.68,35.712,5592,199703.92,36,35.715,35.715,35.76,35.695,,-0.015140233308513263,hog,20200110
2020-01-10,10:36,10:36 AM,35.72,35.68,35.715,2107,75251.8,10,35.73,35.67,35.711,17658,630580.695,87,35.695,35.68,35.695,35.68,,-0.015167811146962418,hog,20200110
2020-01-10,10:37,10:37 AM,35.68,35.64,35.648,400,14259.16,4,35.68,35.64,35.658,4496,160318.41,38,35.68,35.64,35.67,35.66,,-0.01662943658476053,hog,20200110
2020-01-10,10:38,10:38 AM,35.7,35.665,35.682,201,7172.2,3,35.71,35.66,35.688,5336,190429.105,44,35.665,35.7,35.665,35.69,,-0.015802101431289826,hog,20200110
2020-01-10,10:39,10:39 AM,35.65,35.65,35.65,401,14295.65,2,35.68,35.65,35.664,4283,152748.81,24,35.65,35.65,35.68,35.664,,-0.01646396955406639,hog,20200110
2020-01-10,10:40,10:40 AM,35.66,35.66,35.66,200,7132.0,2,35.67,35.655,35.664,2900,103427.25,23,35.66,35.66,35.66,35.66,,-0.01646396955406639,hog,20200110
2020-01-10,10:41,10:41 AM,35.655,35.645,35.653,1212,43211.795,11,35.665,35.64,35.647,6718,239476.24,49,35.65,35.645,35.65,35.645,,-0.01693279280769985,hog,20200110
2020-01-10,10:42,10:42 AM,35.67,35.645,35.662,1114,39727.715,13,35.67,35.64,35.658,8216,292967.66,67,35.645,35.65,35.64,35.66,,-0.01662943658476053,hog,20200110
2020-01-10,10:43,10:43 AM,35.66,35.655,35.658,300,10697.5,3,35.68,35.655,35.664,2258,80530.11,22,35.66,35.655,35.66,35.655,,-0.01646396955406639,hog,20200110
2020-01-10,10:44,10:44 AM,35.66,35.655,35.66,101,3601.655,2,35.665,35.655,35.659,3599,128335.81,28,35.655,35.66,35.655,35.66,,-0.01660185874631157,hog,20200110
2020-01-10,10:45,10:45 AM,35.66,35.66,35.66,200,7132.0,2,35.66,35.64,35.651,7757,276547.82,52,35.66,35.66,35.65,35.65,,-0.016822481453903627,hog,20200110
2020-01-10,10:46,10:46 AM,,,,0,0.0,0,35.655,35.64,35.649,700,24954.5,7,,,35.65,35.65,,-0.01687763713080174,hog,20200110
2020-01-10,10:47,10:47 AM,35.65,35.65,35.65,202,7201.3,4,35.65,35.64,35.647,765,27269.7925,6,35.65,35.65,35.65,35.65,,-0.01693279280769985,hog,20200110
2020-01-10,10:48,10:48 AM,,,,0,0.0,0,35.65,35.64,35.645,1842,65657.21,16,,,35.65,35.65,,-0.016987948484597767,hog,20200110
2020-01-10,10:49,10:49 AM,35.64,35.625,35.635,300,10690.5,2,35.65,35.61,35.632,4703,167577.48,35,35.64,35.625,35.65,35.61,,-0.0173464603844352,hog,20200110
2020-01-10,10:50,10:50 AM,35.605,35.595,35.6,205,7298.015,4,35.61,35.59,35.603,4582,163132.975,39,35.605,35.595,35.61,35.605,,-0.01814621769945675,hog,20200110
2020-01-10,10:51,10:51 AM,35.62,35.62,35.62,100,3562.0,1,35.63,35.59,35.619,5176,184365.79,39,35.62,35.62,35.59,35.625,,-0.017704972284272442,hog,20200110
2020-01-10,10:52,10:52 AM,35.63,35.625,35.626,791,28179.825,9,35.63,35.62,35.626,3000,106877.5,27,35.625,35.63,35.63,35.625,,-0.01751192741512934,hog,20200110
2020-01-10,10:53,10:53 AM,35.62,35.61,35.62,207,7373.27,2,35.62,35.59,35.617,1529,54457.98,12,35.62,35.61,35.62,35.59,,-0.017760127961170553,hog,20200110
2020-01-10,10:54,10:54 AM,35.64,35.625,35.64,101,3599.625,2,35.647,35.6,35.629,4218,150283.332,35,35.625,35.64,35.61,35.641,,-0.017429193899782272,hog,20200110
2020-01-10,10:55,10:55 AM,35.665,35.63,35.642,1400,49899.5,14,35.68,35.63,35.652,7000,249564.0,65,35.64,35.665,35.64,35.66,,-0.016794903615454666,hog,20200110
2020-01-10,10:56,10:56 AM,35.64,35.54,35.541,101,3589.64,2,35.65,35.54,35.581,4485,159580.17,34,35.64,35.54,35.65,35.55,,-0.0187529301453352,hog,20200110
2020-01-10,10:57,10:57 AM,35.56,35.55,35.551,900,31996.0,2,35.56,35.54,35.548,5713,203088.36,34,35.55,35.56,35.55,35.56,,-0.01966299881415297,hog,20200110
2020-01-10,10:58,10:58 AM,,,,0,0.0,0,35.58,35.57,35.573,2175,77371.9344,18,,,35.57,35.575,,-0.018973552852927452,hog,20200110
2020-01-10,10:59,10:59 AM,35.575,35.55,35.575,738,26254.325,3,35.578,35.53,35.56,4403,156570.645,28,35.575,35.55,35.575,35.54,,-0.01933206475276469,hog,20200110
2020-01-10,11:00,11 AM,35.535,35.51,35.531,501,17801.01,6,35.54,35.52,35.532,4049,143869.48,30,35.53,35.51,35.53,35.52,,-0.020104244229337476,hog,20200110
2020-01-10,11:01,11:01 AM,35.49,35.44,35.456,2008,71196.84,20,35.501,35.44,35.472,5996,212688.3595,44,35.49,35.46,35.5,35.48,,-0.021758914536278685,hog,20200110
2020-01-10,11:02,11:02 AM,35.525,35.485,35.508,531,18855.035,9,35.529,35.48,35.504,2385,84677.45,21,35.485,35.525,35.48,35.525,,-0.020876423705910068,hog,20200110
2020-01-10,11:03,11:03 AM,,,,0,0.0,0,35.52,35.47,35.508,3154,111991.5967,21,,,35.52,35.51,,-0.02076611235211384,hog,20200110
2020-01-10,11:04,11:04 AM,35.51,35.51,35.51,297,10546.47,2,35.51,35.51,35.51,297,10546.47,2,35.51,35.51,35.51,35.51,,-0.020710956675215927,hog,20200110
2020-01-10,11:05,11:05 AM,35.545,35.51,35.541,907,32235.585,11,35.55,35.51,35.529,3751,133271.5,31,35.51,35.545,35.51,35.545,,-0.02018697774468435,hog,20200110
2020-01-10,11:06,11:06 AM,35.55,35.54,35.544,612,21753.025,9,35.55,35.53,35.544,17605,625758.7,26,35.545,35.54,35.545,35.54,,-0.019773310167949195,hog,20200110
2020-01-10,11:07,11:07 AM,35.55,35.55,35.55,200,7110.0,2,35.553,35.55,35.552,1678,59656.0,7,35.55,35.55,35.55,35.55,,-0.019552687460356943,hog,20200110
2020-01-10,11:08,11:08 AM,35.56,35.56,35.56,169,6009.64,1,35.56,35.54,35.551,1874,66622.34,15,35.56,35.56,35.54,35.56,,-0.019580265298805903,hog,20200110
2020-01-10,11:09,11:09 AM,,,,0,0.0,0,35.585,35.559,35.564,2800,99578.64,8,,,35.559,35.585,,-0.01922175339896866,hog,20200110
2020-01-10,11:10,11:10 AM,35.58,35.58,35.58,103,3664.74,3,35.59,35.58,35.581,1200,42697.0,9,35.58,35.58,35.58,35.59,,-0.0187529301453352,hog,20200110
2020-01-10,11:11,11:11 AM,35.575,35.575,35.575,400,14230.0,1,35.58,35.54,35.556,6840,243200.51,32,35.575,35.575,35.58,35.55,,-0.019442376106560914,hog,20200110
2020-01-10,11:12,11:12 AM,35.555,35.555,35.555,500,17777.5,5,35.555,35.55,35.553,900,31997.5,9,35.555,35.555,35.55,35.555,,-0.019525109621907986,hog,20200110
2020-01-10,11:13,11:13 AM,35.58,35.55,35.563,1208,42960.55,14,35.585,35.55,35.571,5973,212465.54,42,35.555,35.55,35.56,35.55,,-0.019028708529825564,hog,20200110
2020-01-10,11:14,11:14 AM,35.565,35.555,35.562,553,19665.675,7,35.565,35.55,35.559,1000,35558.5,9,35.56,35.555,35.56,35.555,,-0.019359642591213845,hog,20200110
2020-01-10,11:15,11:15 AM,35.555,35.545,35.549,603,21436.145,8,35.555,35.54,35.55,2431,86423.205,16,35.555,35.545,35.555,35.545,,-0.019607843137255054,hog,20200110
2020-01-10,11:16,11:16 AM,35.545,35.545,35.545,200,7109.0,2,35.545,35.54,35.544,400,14217.5,4,35.545,35.545,35.545,35.545,,-0.019773310167949195,hog,20200110
2020-01-10,11:17,11:17 AM,35.545,35.53,35.54,507,18018.745,6,35.545,35.52,35.537,1810,64321.748,15,35.545,35.53,35.545,35.52,,-0.019966355037092296,hog,20200110
2020-01-10,11:18,11:18 AM,35.525,35.525,35.525,400,14210.0,3,35.525,35.52,35.524,700,24867.0,6,35.525,35.525,35.525,35.525,,-0.020324866936929534,hog,20200110
2020-01-10,11:19,11:19 AM,35.55,35.53,35.54,1302,46273.08,17,35.56,35.525,35.541,5866,208482.0778,43,35.53,35.545,35.53,35.55,,-0.019856043683296267,hog,20200110
2020-01-10,11:20,11:20 AM,35.545,35.5,35.518,113,4013.55,4,35.55,35.5,35.524,4533,161031.85,28,35.545,35.52,35.55,35.52,,-0.020324866936929534,hog,20200110
2020-01-10,11:21,11:21 AM,35.525,35.525,35.525,200,7105.0,1,35.525,35.465,35.516,2900,102995.34,16,35.525,35.525,35.525,35.465,,-0.020545489644521787,hog,20200110
2020-01-10,11:22,11:22 AM,35.455,35.455,35.455,200,7091.0,1,35.46,35.45,35.453,600,21272.0,5,35.455,35.455,35.45,35.46,,-0.022282893466810064,hog,20200110
2020-01-10,11:23,11:23 AM,35.46,35.45,35.454,805,28540.78,8,35.455,35.45,35.455,1003,35560.865,7,35.45,35.455,35.455,35.455,,-0.02222773778991215,hog,20200110
2020-01-10,11:24,11:24 AM,35.455,35.435,35.444,726,25732.06,7,35.455,35.43,35.443,2081,73757.325,17,35.455,35.435,35.455,35.435,,-0.02255867185130043,hog,20200110
2020-01-10,11:25,11:25 AM,35.44,35.435,35.435,837,29659.275,9,35.45,35.435,35.44,2885,102244.4,23,35.435,35.44,35.435,35.44,,-0.0226414053666475,hog,20200110
2020-01-10,11:26,11:26 AM,35.455,35.445,35.45,600,21270.0,6,35.455,35.445,35.45,2421,85824.2068,19,35.45,35.445,35.45,35.445,,-0.022365626982157136,hog,20200110
2020-01-10,11:27,11:27 AM,35.45,35.445,35.449,401,14214.95,6,35.45,35.44,35.448,2264,80255.3,20,35.445,35.45,35.45,35.45,,-0.022420782659055248,hog,20200110
2020-01-10,11:28,11:28 AM,35.43,35.35,35.355,803,28389.79,9,35.45,35.33,35.389,14258,504572.12,83,35.43,35.36,35.45,35.33,,-0.024047875127547497,hog,20200110
2020-01-10,11:29,11:29 AM,35.33,35.32,35.325,700,24727.5,7,35.34,35.31,35.325,4120,145539.22,34,35.325,35.33,35.33,35.33,,-0.02581285678828493,hog,20200110
2020-01-10,11:30,11:30 AM,35.35,35.31,35.329,1635,57762.385,18,35.37,35.3,35.335,9582,338582.88,88,35.325,35.325,35.325,35.33,,-0.025537078403794763,hog,20200110
2020-01-10,11:31,11:31 AM,35.33,35.245,35.296,401,14153.745,5,35.33,35.23,35.28,9961,351420.63,58,35.33,35.245,35.33,35.23,,-0.027053859518490982,hog,20200110
2020-01-10,11:32,11:32 AM,35.25,35.235,35.246,700,24672.0,7,35.29,35.22,35.25,6680,235468.95,46,35.235,35.25,35.22,35.27,,-0.027881194671961686,hog,20200110
2020-01-10,11:33,11:33 AM,35.32,35.245,35.281,1227,43290.4,12,35.32,35.23,35.283,32378,1142402.5429,71,35.285,35.245,35.28,35.23,,-0.026971126003143914,hog,20200110
2020-01-10,11:34,11:34 AM,35.26,35.23,35.243,400,14097.31,6,35.26,35.23,35.246,3914,137953.0,32,35.245,35.23,35.25,35.24,,-0.027991506025757715,hog,20200110
2020-01-10,11:35,11:35 AM,35.25,35.195,35.211,602,21196.95,8,35.26,35.18,35.224,10200,359290.2,66,35.25,35.205,35.25,35.19,,-0.02859821847163636,hog,20200110
2020-01-10,11:36,11:36 AM,35.22,35.19,35.206,749,26369.28,7,35.22,35.19,35.2,4156,146289.18,39,35.195,35.21,35.19,35.21,,-0.029260086594412725,hog,20200110
2020-01-10,11:37,11:37 AM,35.3,35.21,35.245,1001,35280.22,11,35.31,35.21,35.264,4961,174942.75,40,35.21,35.3,35.21,35.29,,-0.027495104933675293,hog,20200110
2020-01-10,11:38,11:38 AM,35.3,35.195,35.255,1951,68782.3,12,35.3,35.19,35.261,17023,600242.33,76,35.3,35.21,35.3,35.25,,-0.027577838449022365,hog,20200110
2020-01-10,11:39,11:39 AM,35.24,35.14,35.184,2900,102033.5,22,35.25,35.13,35.193,22479,791106.74,129,35.235,35.175,35.24,35.175,,-0.02945313146355602,hog,20200110
2020-01-10,11:40,11:40 AM,35.185,35.15,35.169,2001,70373.185,8,35.19,35.15,35.173,6790,238826.92,45,35.17,35.17,35.17,35.17,,-0.03000468823253636,hog,20200110
2020-01-10,11:41,11:41 AM,35.16,35.15,35.159,2900,101962.0,9,35.17,35.14,35.161,10288,361734.66,48,35.155,35.16,35.17,35.16,,-0.030335622293924638,hog,20200110
2020-01-10,11:42,11:42 AM,35.15,35.11,35.139,620,21786.1,8,35.16,35.11,35.136,4146,145674.03,37,35.15,35.11,35.15,35.111,,-0.031025068255150157,hog,20200110
2020-01-10,11:43,11:43 AM,35.105,35.085,35.092,801,28108.59,9,35.11,35.08,35.094,7278,255414.36,49,35.085,35.1,35.1,35.1,,-0.03218333747000914,hog,20200110
2020-01-10,11:44,11:44 AM,35.07,35.055,35.063,200,7012.5,2,35.08,35.055,35.068,3601,126280.47,28,35.07,35.055,35.08,35.07,,-0.03290036126968381,hog,20200110
2020-01-10,11:45,11:45 AM,35.08,35.055,35.07,301,10556.055,4,35.08,35.05,35.074,3790,132930.3,26,35.08,35.055,35.08,35.05,,-0.032734894238989676,hog,20200110
2020-01-10,11:46,11:46 AM,35.075,35.065,35.07,300,10521.0,4,35.08,35.065,35.074,2301,80704.57,20,35.065,35.075,35.07,35.075,,-0.032734894238989676,hog,20200110
2020-01-10,11:47,11:47 AM,35.025,35.02,35.023,200,7004.5,2,35.075,35.01,35.037,7726,270698.82,45,35.025,35.02,35.075,35.01,,-0.03375527426160348,hog,20200110
2020-01-10,11:48,11:48 AM,34.99,34.945,34.954,745,26040.95,9,35.01,34.92,34.974,16994,594344.52,97,34.96,34.955,35.01,34.98,,-0.03549267808389195,hog,20200110
2020-01-10,11:49,11:49 AM,34.995,34.99,34.994,400,13997.5,4,35.0,34.97,34.99,2860,100072.39,22,34.995,34.995,34.97,34.995,,-0.035051432668707444,hog,20200110
2020-01-10,11:50,11:50 AM,34.995,34.97,34.979,396,13851.645,5,35.01,34.95,34.986,5549,194135.5,39,34.995,34.97,34.995,34.97,,-0.03516174402250367,hog,20200110
2020-01-10,11:51,11:51 AM,35.0,34.99,34.99,4209,147274.91,7,35.02,34.985,34.993,5835,204186.875,20,34.99,35.0,34.985,35.02,,-0.03496869915336038,hog,20200110
2020-01-10,11:52,11:52 AM,35.01,35.0,35.002,402,14071.01,6,35.01,35.0,35.004,2758,96541.0,21,35.01,35.0,35.01,35.0,,-0.03466534293042125,hog,20200110
2020-01-10,11:53,11:53 AM,35.0,35.0,35.0,100,3500.0,1,35.005,35.0,35.0,1337,46795.5,13,35.0,35.0,35.0,35.005,,-0.03477565428421728,hog,20200110
2020-01-10,11:54,11:54 AM,35.005,34.99,35.001,478,16730.42,4,35.005,34.975,34.995,4767,166822.53,39,35.005,35.0,35.0,34.99,,-0.03491354347646246,hog,20200110
2020-01-10,11:55,11:55 AM,34.97,34.925,34.959,480,16780.1,4,34.995,34.925,34.962,7751,270993.766,54,34.97,34.925,34.995,34.94,,-0.035823612145280036,hog,20200110
2020-01-10,11:56,11:56 AM,34.935,34.92,34.928,200,6985.5,2,34.96,34.92,34.94,4310,150592.8,30,34.92,34.935,34.936,34.935,,-0.036430324591158685,hog,20200110
2020-01-10,11:57,11:57 AM,34.92,34.92,34.92,100,3492.0,1,34.93,34.91,34.923,3666,128026.88,32,34.92,34.92,34.93,34.915,,-0.03689914784479195,hog,20200110
2020-01-10,11:58,11:58 AM,34.905,34.9,34.901,400,13960.5,4,34.915,34.9,34.906,8402,293277.31,45,34.9,34.9,34.91,34.902,,-0.037367971098425413,hog,20200110
2020-01-10,11:59,11:59 AM,34.905,34.83,34.889,1300,45356.0,9,34.91,34.82,34.886,14377,501558.755,100,34.905,34.835,34.905,34.83,,-0.03791952786740575,hog,20200110
2020-01-10,12:00,12 PM,34.85,34.815,34.827,2512,87485.615,26,34.845,34.81,34.827,20413,710914.54,138,34.83,34.845,34.83,34.84,,-0.039546620335898196,hog,20200110
2020-01-10,12:01,12:01 PM,34.83,34.805,34.814,391,13612.21,4,34.84,34.8,34.819,6916,240810.695,53,34.83,34.81,34.84,34.82,,-0.039767243043490254,hog,20200110
2020-01-10,12:02,12:02 PM,34.83,34.795,34.806,747,25999.905,8,34.83,34.775,34.8,7599,264442.405,60,34.82,34.8,34.82,34.8,,-0.04029122197402183,hog,20200110
2020-01-10,12:03,12:03 PM,,,,0,0.0,0,34.82,34.8,34.812,5060,176147.73,42,,,34.805,34.81,,-0.03996028791263355,hog,20200110
2020-01-10,12:04,12:04 PM,34.9,34.9,34.9,100,3490.0,1,34.909,34.815,34.85,8097,282181.81,61,34.9,34.9,34.82,34.9,,-0.03891233005157059,hog,20200110
2020-01-10,12:05,12:05 PM,34.91,34.895,34.901,808,28200.24,4,34.91,34.89,34.899,8316,290220.825,55,34.895,34.905,34.9,34.905,,-0.03756101596756851,hog,20200110
2020-01-10,12:06,12:06 PM,34.87,34.87,34.87,102,3556.74,2,34.91,34.855,34.891,8755,305473.34,52,34.87,34.87,34.91,34.86,,-0.03778163867516076,hog,20200110
2020-01-10,12:07,12:07 PM,34.85,34.85,34.85,800,27880.0,4,34.908,34.845,34.869,4928,171836.43,39,34.85,34.85,34.85,34.89,,-0.038388351121039214,hog,20200110
2020-01-10,12:08,12:08 PM,34.91,34.91,34.91,203,7086.73,2,34.91,34.89,34.899,1856,64773.43,18,34.91,34.91,34.89,34.9,,-0.03756101596756851,hog,20200110
2020-01-10,12:09,12:09 PM,34.91,34.91,34.91,100,3491.0,1,34.92,34.9,34.909,5696,198843.79,51,34.91,34.91,34.9,34.91,,-0.03728523758307834,hog,20200110
2020-01-10,12:10,12:10 PM,34.88,34.88,34.88,100,3488.0,1,34.905,34.865,34.89,3386,118138.51,23,34.88,34.88,34.9,34.87,,-0.037809216513609724,hog,20200110
2020-01-10,12:11,12:11 PM,,,,0,0.0,0,34.94,34.88,34.912,4386,153123.39,38,,,34.89,34.92,,-0.03720250406773127,hog,20200110
2020-01-10,12:12,12:12 PM,34.895,34.885,34.89,200,6978.0,2,34.92,34.87,34.9,4069,142006.375,30,34.895,34.885,34.915,34.87,,-0.03753343812911955,hog,20200110
2020-01-10,12:13,12:13 PM,,,,0,0.0,0,34.875,34.82,34.856,7585,264381.65,44,,,34.87,34.86,,-0.03874686302087645,hog,20200110
2020-01-10,12:14,12:14 PM,34.86,34.83,34.845,200,6969.0,2,34.87,34.82,34.846,1643,57251.59,14,34.86,34.83,34.85,34.82,,-0.03902264140536682,hog,20200110
2020-01-10,12:15,12:15 PM,34.825,34.825,34.825,100,3482.5,1,34.835,34.82,34.831,10037,349603.83,36,34.825,34.825,34.83,34.82,,-0.03943630898210197,hog,20200110
2020-01-10,12:16,12:16 PM,34.835,34.83,34.832,900,31348.5,2,34.84,34.82,34.829,2012,70076.34,11,34.83,34.835,34.84,34.835,,-0.03949146465900009,hog,20200110
2020-01-10,12:17,12:17 PM,34.87,34.86,34.865,200,6973.0,2,34.88,34.83,34.855,5111,178143.58,41,34.87,34.86,34.83,34.87,,-0.038774440859325604,hog,20200110
2020-01-10,12:18,12:18 PM,,,,0,0.0,0,34.865,34.85,34.86,400,13944.0,4,,,34.865,34.85,,-0.038636551667080424,hog,20200110
2020-01-10,12:19,12:19 PM,34.86,34.855,34.857,441,15372.055,4,34.87,34.85,34.865,3251,113346.755,29,34.86,34.86,34.865,34.87,,-0.038498662474835244,hog,20200110
2020-01-10,12:20,12:20 PM,34.885,34.87,34.879,342,11928.76,5,34.89,34.86,34.879,2728,95150.23,22,34.87,34.885,34.86,34.885,,-0.03811257273654904,hog,20200110
2020-01-10,12:21,12:21 PM,34.895,34.885,34.887,500,17443.5,5,34.895,34.88,34.888,2623,91510.97,22,34.885,34.895,34.89,34.89,,-0.03786437219050783,hog,20200110
2020-01-10,12:22,12:22 PM,34.895,34.885,34.89,200,6978.0,2,34.91,34.88,34.895,5622,196180.5708,42,34.895,34.885,34.892,34.9,,-0.03767132732136454,hog,20200110
2020-01-10,12:23,12:23 PM,34.9,34.885,34.893,500,17446.5,5,34.905,34.88,34.893,5667,197737.75,45,34.9,34.9,34.9,34.905,,-0.03772648299826265,hog,20200110
2020-01-10,12:24,12:24 PM,,,,0,0.0,0,34.91,34.88,34.904,7348,256470.971,63,,,34.91,34.89,,-0.03742312677532333,hog,20200110
2020-01-10,12:25,12:25 PM,34.875,34.875,34.875,300,10462.5,3,34.9,34.86,34.887,6228,217277.91,55,34.875,34.875,34.89,34.875,,-0.03789195002895679,hog,20200110
2020-01-10,12:26,12:26 PM,34.875,34.815,34.846,704,24531.975,8,34.875,34.815,34.845,9375,326674.505,70,34.875,34.86,34.875,34.87,,-0.03905021924381578,hog,20200110
2020-01-10,12:27,12:27 PM,34.905,34.88,34.896,360,12562.5,4,34.91,34.87,34.899,9077,316777.9,67,34.88,34.905,34.87,34.89,,-0.03756101596756851,hog,20200110
2020-01-10,12:28,12:28 PM,34.895,34.88,34.886,800,27908.5,6,34.9,34.87,34.884,7060,246282.4,42,34.885,34.895,34.9,34.895,,-0.03797468354430386,hog,20200110
2020-01-10,12:29,12:29 PM,34.9,34.895,34.9,5200,181479.5,10,34.91,34.89,34.9,14904,520147.37,71,34.895,34.9,34.9,34.89,,-0.03753343812911955,hog,20200110
2020-01-10,12:30,12:30 PM,34.91,34.89,34.899,816,28477.9,8,34.91,34.88,34.9,13419,468317.265,94,34.895,34.89,34.895,34.89,,-0.03753343812911955,hog,20200110
2020-01-10,12:31,12:31 PM,34.9,34.885,34.895,500,17447.5,5,34.91,34.88,34.898,13617,475213.87,101,34.885,34.895,34.895,34.9,,-0.03758859380601747,hog,20200110
2020-01-10,12:32,12:32 PM,34.985,34.895,34.915,1615,56387.705,18,34.99,34.89,34.915,44705,1560893.7999,297,34.895,34.985,34.89,34.98,,-0.037119770552384204,hog,20200110
2020-01-10,12:33,12:33 PM,34.97,34.94,34.962,510,17830.4,6,34.97,34.93,34.953,25469,890229.39,161,34.97,34.96,34.97,34.95,,-0.036071812691321245,hog,20200110
2020-01-10,12:34,12:34 PM,34.96,34.955,34.958,300,10487.5,3,34.98,34.95,34.962,14469,505867.72,88,34.955,34.96,34.96,34.96,,-0.035823612145280036,hog,20200110
2020-01-10,12:35,12:35 PM,34.955,34.945,34.948,300,10484.5,3,34.98,34.945,34.956,19315,675169.1702,146,34.955,34.945,34.955,34.95,,-0.03598907917597418,hog,20200110
2020-01-10,12:36,12:36 PM,34.945,34.945,34.945,200,6989.0,2,34.96,34.945,34.951,4179,146059.21,32,34.945,34.945,34.95,34.95,,-0.03612696836821936,hog,20200110
2020-01-10,12:37,12:37 PM,34.95,34.95,34.95,100,3495.0,1,34.951,34.93,34.944,6848,239293.54,51,34.95,34.95,34.95,34.93,,-0.036320013237362454,hog,20200110
2020-01-10,12:38,12:38 PM,34.915,34.915,34.915,200,6983.0,2,34.93,34.9,34.918,10319,360320.04,81,34.915,34.915,34.93,34.905,,-0.03703703703703713,hog,20200110
2020-01-10,12:39,12:39 PM,34.9,34.895,34.896,554,19332.6,6,34.91,34.88,34.896,4870,169944.365,40,34.895,34.9,34.905,34.88,,-0.03764374948291558,hog,20200110
2020-01-10,12:40,12:40 PM,34.905,34.86,34.874,564,19668.905,8,34.92,34.86,34.882,6965,242951.45,42,34.86,34.89,34.88,34.905,,-0.038029839221201976,hog,20200110
2020-01-10,12:41,12:41 PM,,,,0,0.0,0,,,,0,0.0,0,,,,,,,hog,20200110
2020-01-10,12:42,12:42 PM,34.895,34.875,34.891,700,24423.5,7,34.9,34.87,34.89,5193,181183.565,42,34.895,34.875,34.9,34.87,,-0.037809216513609724,hog,20200110
2020-01-10,12:43,12:43 PM,34.88,34.855,34.864,500,17432.0,5,34.88,34.85,34.862,3979,138715.52,31,34.865,34.855,34.865,34.86,,-0.03858139599018231,hog,20200110
2020-01-10,12:44,12:44 PM,,,,0,0.0,0,34.85,34.83,34.838,2100,73159.91,13,,,34.85,34.83,,-0.03924326411295887,hog,20200110
2020-01-10,12:45,12:45 PM,34.845,34.835,34.842,551,19197.84,5,34.86,34.83,34.839,4573,159318.66,32,34.835,34.845,34.835,34.86,,-0.039215686274509914,hog,20200110
2020-01-10,12:46,12:46 PM,34.87,34.87,34.87,100,3487.0,1,34.87,34.87,34.87,1003,34974.8275,3,34.87,34.87,34.87,34.87,,-0.03836077328259026,hog,20200110
2020-01-10,12:47,12:47 PM,34.895,34.89,34.892,200,6978.5,2,34.91,34.872,34.884,1400,48837.95,10,34.89,34.895,34.872,34.895,,-0.03797468354430386,hog,20200110
2020-01-10,12:48,12:48 PM,,,,0,0.0,0,34.96,34.9,34.922,5300,185085.6,23,,,34.9,34.96,,-0.0369267256832411,hog,20200110
2020-01-10,12:49,12:49 PM,34.925,34.915,34.92,200,6984.0,2,34.955,34.91,34.941,4484,156674.12,31,34.925,34.915,34.952,34.91,,-0.036402746752709526,hog,20200110
2020-01-10,12:50,12:50 PM,,,,0,0.0,0,34.91,34.91,34.91,100,3491.0,1,,,34.91,34.91,,-0.037257659744629384,hog,20200110
2020-01-10,12:51,12:51 PM,34.905,34.89,34.898,600,20938.5,4,34.925,34.89,34.91,5150,179784.05,37,34.905,34.89,34.91,34.925,,-0.037257659744629384,hog,20200110
2020-01-10,12:52,12:52 PM,34.895,34.89,34.892,204,7118.06,2,34.93,34.89,34.909,1519,53026.21,14,34.89,34.895,34.925,34.895,,-0.03728523758307834,hog,20200110
2020-01-10,12:53,12:53 PM,34.895,34.875,34.885,900,31396.5,8,34.9,34.87,34.888,2213,77206.07,20,34.895,34.875,34.9,34.87,,-0.03786437219050783,hog,20200110
2020-01-10,12:54,12:54 PM,34.88,34.875,34.876,377,13148.38,4,34.88,34.86,34.875,1848,64449.69,15,34.875,34.88,34.878,34.86,,-0.03822288409034507,hog,20200110
2020-01-10,12:55,12:55 PM,34.86,34.855,34.858,200,6971.5,2,34.868,34.855,34.865,900,31379.03,3,34.855,34.86,34.855,34.868,,-0.038498662474835244,hog,20200110
2020-01-10,12:56,12:56 PM,34.865,34.855,34.86,400,13944.0,4,34.87,34.855,34.863,1861,64880.58,15,34.865,34.855,34.865,34.855,,-0.03855381815173335,hog,20200110
2020-01-10,12:57,12:57 PM,34.865,34.865,34.865,100,3486.5,1,34.865,34.86,34.863,2095,73037.38,10,34.865,34.865,34.86,34.865,,-0.03855381815173335,hog,20200110
2020-01-10,12:58,12:58 PM,34.855,34.855,34.855,100,3485.5,1,34.87,34.855,34.861,1863,64946.26,11,34.855,34.855,34.86,34.856,,-0.03860897382863147,hog,20200110
2020-01-10,12:59,12:59 PM,34.865,34.865,34.865,200,6973.0,2,34.87,34.86,34.863,1005,35037.3,8,34.865,34.865,34.86,34.865,,-0.03855381815173335,hog,20200110
2020-01-10,13:00,1 PM,,,,0,0.0,0,34.865,34.855,34.858,2942,102551.47,16,,,34.86,34.855,,-0.03869170734397854,hog,20200110
2020-01-10,13:01,1:01 PM,34.865,34.865,34.865,200,6973.0,2,34.865,34.855,34.859,1358,47338.38,8,34.865,34.865,34.855,34.865,,-0.03866412950552938,hog,20200110
2020-01-10,13:02,1:02 PM,34.865,34.865,34.865,300,10459.5,3,34.87,34.86,34.866,2752,95950.77,14,34.865,34.865,34.87,34.865,,-0.03847108463638629,hog,20200110
2020-01-10,13:03,1:03 PM,34.87,34.865,34.865,110,3835.2,2,34.87,34.865,34.868,3200,111576.5,22,34.87,34.865,34.87,34.87,,-0.03841592895948817,hog,20200110
2020-01-10,13:04,1:04 PM,34.865,34.865,34.865,300,10459.5,3,34.867,34.865,34.865,500,17432.75,5,34.865,34.865,34.865,34.865,,-0.038498662474835244,hog,20200110
2020-01-10,13:05,1:05 PM,34.855,34.835,34.845,203,7073.52,3,34.86,34.83,34.85,5701,198677.85,33,34.855,34.835,34.86,34.83,,-0.03891233005157059,hog,20200110
2020-01-10,13:06,1:06 PM,34.855,34.835,34.836,1500,52254.5,15,34.87,34.83,34.84,7214,251338.05,53,34.835,34.855,34.835,34.86,,-0.03918810843606076,hog,20200110
2020-01-10,13:07,1:07 PM,,,,0,0.0,0,34.89,34.875,34.879,2236,77988.4844,16,,,34.875,34.888,,-0.03811257273654904,hog,20200110
2020-01-10,13:08,1:08 PM,,,,0,0.0,0,34.9,34.875,34.885,2479,86478.81,18,,,34.88,34.875,,-0.037947105705854904,hog,20200110
2020-01-10,13:09,1:09 PM,34.875,34.875,34.875,100,3487.5,1,34.88,34.875,34.878,2300,80219.0,17,34.875,34.875,34.88,34.875,,-0.038140150574998005,hog,20200110
2020-01-10,13:10,1:10 PM,34.855,34.855,34.855,200,6971.0,2,34.875,34.855,34.865,2673,93194.51,19,34.855,34.855,34.875,34.86,,-0.038498662474835244,hog,20200110
2020-01-10,13:11,1:11 PM,,,,0,0.0,0,34.86,34.86,34.86,100,3486.0,1,,,34.86,34.86,,-0.038636551667080424,hog,20200110
2020-01-10,13:12,1:12 PM,34.865,34.865,34.865,300,10459.5,3,34.88,34.865,34.869,2690,93798.3,22,34.865,34.865,34.87,34.87,,-0.038388351121039214,hog,20200110
2020-01-10,13:13,1:13 PM,,,,0,0.0,0,34.875,34.87,34.873,300,10462.0,2,,,34.875,34.87,,-0.038278039767243185,hog,20200110
2020-01-10,13:14,1:14 PM,34.875,34.845,34.867,1600,55786.5,16,34.875,34.845,34.865,4561,159019.375,36,34.875,34.85,34.875,34.86,,-0.038498662474835244,hog,20200110
2020-01-10,13:15,1:15 PM,34.885,34.87,34.876,700,24413.5,7,34.89,34.87,34.878,1501,52351.87,15,34.87,34.885,34.87,34.89,,-0.038140150574998005,hog,20200110
2020-01-10,13:16,1:16 PM,34.945,34.895,34.928,800,27942.0,8,34.95,34.89,34.922,2664,93031.96,25,34.895,34.945,34.89,34.945,,-0.0369267256832411,hog,20200110
2020-01-10,13:17,1:17 PM,34.965,34.945,34.954,600,20972.5,6,34.965,34.945,34.956,1341,46875.3725,11,34.945,34.965,34.95,34.965,,-0.03598907917597418,hog,20200110
2020-01-10,13:18,1:18 PM,34.975,34.925,34.962,1201,41989.44,13,34.975,34.925,34.959,6368,222621.31,43,34.965,34.925,34.965,34.925,,-0.03590634566062711,hog,20200110
2020-01-10,13:19,1:19 PM,34.93,34.93,34.93,607,21202.51,2,34.93,34.93,34.93,1207,42160.51,7,34.93,34.93,34.93,34.93,,-0.03670610297564885,hog,20200110
2020-01-10,13:20,1:20 PM,,,,0,0.0,0,,,,0,0.0,0,,,,,,,hog,20200110
2020-01-10,13:21,1:21 PM,34.93,34.915,34.927,812,28360.66,9,34.93,34.915,34.928,4890,170797.2,40,34.915,34.93,34.92,34.93,,-0.036761258652546966,hog,20200110
2020-01-10,13:22,1:22 PM,34.93,34.925,34.926,400,13970.5,4,34.93,34.92,34.927,2315,80856.95,19,34.925,34.93,34.925,34.93,,-0.03678883649099592,hog,20200110
2020-01-10,13:23,1:23 PM,34.93,34.925,34.926,500,17463.0,5,34.93,34.925,34.928,1404,49039.72,12,34.925,34.925,34.925,34.925,,-0.036761258652546966,hog,20200110
2020-01-10,13:24,1:24 PM,34.93,34.915,34.922,599,20918.08,6,34.93,34.91,34.921,3429,119743.68,31,34.925,34.92,34.925,34.92,,-0.03695430352169006,hog,20200110
2020-01-10,13:25,1:25 PM,34.94,34.915,34.929,1585,55361.9,14,34.94,34.915,34.93,58119,2030090.22,33,34.915,34.925,34.915,34.93,,-0.03670610297564885,hog,20200110
2020-01-10,13:26,1:26 PM,34.93,34.93,34.93,300,10479.0,3,34.93,34.93,34.93,1905,66541.65,18,34.93,34.93,34.93,34.93,,-0.03670610297564885,hog,20200110
2020-01-10,13:27,1:27 PM,34.925,34.925,34.925,100,3492.5,1,34.93,34.925,34.929,1174,41007.32,8,34.925,34.925,34.93,34.925,,-0.03673368081409781,hog,20200110
2020-01-10,13:28,1:28 PM,34.935,34.925,34.93,420,14670.6,5,34.94,34.92,34.93,3626,126657.2737,29,34.925,34.935,34.925,34.935,,-0.03670610297564885,hog,20200110
2020-01-10,13:29,1:29 PM,34.97,34.935,34.95,1000,34949.5,10,34.98,34.935,34.952,3492,122052.03,29,34.935,34.97,34.935,34.98,,-0.0360993905297704,hog,20200110
2020-01-10,13:30,1:30 PM,35.06,35.0,35.042,1611,56453.22,20,35.065,35.0,35.037,8682,304195.415,54,35.0,35.035,35.0,35.035,,-0.03375527426160348,hog,20200110
2020-01-10,13:31,1:31 PM,35.035,35.025,35.032,600,21019.0,6,35.035,35.02,35.029,2000,70059.13,19,35.035,35.03,35.035,35.02,,-0.033975896969195535,hog,20200110
2020-01-10,13:32,1:32 PM,35.07,35.04,35.058,500,17529.0,5,35.09,35.04,35.059,2247,78776.9,15,35.04,35.07,35.04,35.09,,-0.03314856181572503,hog,20200110
2020-01-10,13:33,1:33 PM,35.125,35.095,35.107,401,14078.105,5,35.13,35.095,35.111,1302,45714.22,11,35.095,35.125,35.095,35.13,,-0.031714514216375875,hog,20200110
2020-01-10,13:34,1:34 PM,35.125,35.09,35.117,804,28234.385,9,35.125,35.09,35.112,6204,217835.195,43,35.125,35.09,35.12,35.1,,-0.031686936377926724,hog,20200110
2020-01-10,13:35,1:35 PM,35.11,35.075,35.099,1837,64476.755,17,35.11,35.08,35.099,15185,532972.39,87,35.1,35.075,35.11,35.08,,-0.032045448277764156,hog,20200110
2020-01-10,13:36,1:36 PM,35.085,35.085,35.085,148,5192.58,5,35.09,35.075,35.085,3210,112621.74,21,35.085,35.085,35.075,35.085,,-0.03243153801605035,hog,20200110
2020-01-10,13:37,1:37 PM,35.085,35.06,35.068,278,9748.92,11,35.09,35.06,35.074,4728,165828.62,42,35.085,35.06,35.085,35.065,,-0.032734894238989676,hog,20200110
2020-01-10,13:38,1:38 PM,35.095,35.055,35.063,490,17181.11,11,35.11,35.05,35.069,6243,218938.67,35,35.06,35.09,35.06,35.09,,-0.03287278343123466,hog,20200110
2020-01-10,13:39,1:39 PM,35.095,35.065,35.075,1005,35249.965,11,35.1,35.065,35.086,12150,426289.875,78,35.085,35.08,35.085,35.095,,-0.032403960177601394,hog,20200110
2020-01-10,13:40,1:40 PM,35.115,35.105,35.108,307,10778.235,4,35.115,35.09,35.106,6450,226437.05,55,35.105,35.115,35.095,35.115,,-0.03185240340862086,hog,20200110
2020-01-10,13:41,1:41 PM,35.105,35.09,35.098,506,17759.63,7,35.11,35.09,35.102,2500,87755.51,21,35.105,35.09,35.11,35.09,,-0.031962714762417084,hog,20200110
2020-01-10,13:42,1:42 PM,35.085,35.085,35.085,200,7017.0,2,35.09,35.08,35.087,2764,96981.76,21,35.085,35.085,35.09,35.09,,-0.03237638233915224,hog,20200110
2020-01-10,13:43,1:43 PM,35.095,35.065,35.075,301,10557.575,4,35.095,35.06,35.08,4400,154352.02,35,35.095,35.075,35.095,35.07,,-0.03256942720829554,hog,20200110
2020-01-10,13:44,1:44 PM,35.065,35.055,35.055,306,10726.89,2,35.075,35.055,35.062,1662,58273.72,12,35.065,35.055,35.07,35.06,,-0.03306582830037796,hog,20200110
2020-01-10,13:45,1:45 PM,35.075,35.065,35.068,300,10520.5,3,35.08,35.06,35.069,6250,219184.04,37,35.065,35.065,35.06,35.06,,-0.03287278343123466,hog,20200110
2020-01-10,13:46,1:46 PM,35.065,35.065,35.065,100,3506.5,1,35.065,35.06,35.061,1099,38532.44,9,35.065,35.065,35.06,35.06,,-0.033093406138826914,hog,20200110
2020-01-10,13:47,1:47 PM,,,,0,0.0,0,35.065,35.06,35.062,300,10518.5,3,,,35.06,35.065,,-0.03306582830037796,hog,20200110
2020-01-10,13:48,1:48 PM,35.065,35.065,35.065,500,17532.5,5,35.065,35.06,35.063,800,28050.5,8,35.065,35.065,35.065,35.065,,-0.033038250461928806,hog,20200110
2020-01-10,13:49,1:49 PM,35.1,35.065,35.093,901,31618.575,8,35.12,35.065,35.084,12431,436133.01,75,35.065,35.1,35.07,35.075,,-0.03245911585449931,hog,20200110
2020-01-10,13:50,1:50 PM,35.1,35.085,35.095,1001,35130.585,9,35.115,35.08,35.099,5343,187534.92,42,35.085,35.1,35.08,35.115,,-0.032045448277764156,hog,20200110
2020-01-10,13:51,1:51 PM,35.115,35.115,35.115,1,35.115,1,35.115,35.11,35.112,200,7022.5,2,35.115,35.115,35.11,35.115,,-0.031686936377926724,hog,20200110
2020-01-10,13:52,1:52 PM,35.12,35.105,35.109,1600,56174.0,15,35.12,35.1,35.108,7286,255797.285,51,35.12,35.105,35.12,35.1,,-0.03179724773172295,hog,20200110
2020-01-10,13:53,1:53 PM,35.1,35.1,35.1,1,35.1,1,35.105,35.1,35.101,400,14040.5,3,35.1,35.1,35.1,35.105,,-0.03199029260086604,hog,20200110
2020-01-10,13:54,1:54 PM,35.095,35.075,35.082,300,10524.5,3,35.11,35.07,35.092,3415,119840.44,29,35.095,35.075,35.1,35.075,,-0.03223849314690726,hog,20200110
2020-01-10,13:55,1:55 PM,35.075,35.075,35.075,300,10522.5,3,35.08,35.075,35.078,1271,44584.68,9,35.075,35.075,35.08,35.075,,-0.03262458288519345,hog,20200110
2020-01-10,13:56,1:56 PM,,,,0,0.0,0,,,,0,0.0,0,,,,,,,hog,20200110
2020-01-10,13:57,1:57 PM,35.075,35.065,35.068,602,21111.15,8,35.08,35.06,35.071,3427,120186.9098,32,35.065,35.075,35.07,35.08,,-0.03281762775433675,hog,20200110
2020-01-10,13:58,1:58 PM,,,,0,0.0,0,35.099,35.075,35.088,1663,58351.9253,9,,,35.075,35.099,,-0.03234880450070328,hog,20200110
2020-01-10,13:59,1:59 PM,35.09,35.065,35.074,700,24552.0,6,35.09,35.065,35.073,5096,178733.4,26,35.09,35.065,35.09,35.065,,-0.03276247207743863,hog,20200110
2020-01-10,14:00,2 PM,35.095,35.065,35.085,1101,38628.565,10,35.095,35.065,35.082,4631,162464.46,33,35.065,35.075,35.065,35.075,,-0.03251427153139742,hog,20200110
2020-01-10,14:01,2:01 PM,35.075,35.075,35.075,500,17537.5,3,35.075,35.07,35.074,600,21044.5,4,35.075,35.075,35.07,35.075,,-0.032734894238989676,hog,20200110
2020-01-10,14:02,2:02 PM,35.095,35.075,35.085,201,7052.075,3,35.1,35.075,35.087,1370,48068.6,11,35.075,35.095,35.075,35.095,,-0.03237638233915224,hog,20200110
2020-01-10,14:03,2:03 PM,35.085,35.075,35.078,301,10558.585,4,35.09,35.075,35.085,2255,79117.4958,16,35.085,35.075,35.09,35.075,,-0.03243153801605035,hog,20200110
2020-01-10,14:04,2:04 PM,,,,0,0.0,0,35.08,35.07,35.077,1260,44196.8,11,,,35.075,35.07,,-0.032652160723642604,hog,20200110
2020-01-10,14:05,2:05 PM,35.075,35.065,35.07,658,23076.34,7,35.075,35.06,35.069,2849,99913.215,21,35.075,35.065,35.075,35.06,,-0.03287278343123466,hog,20200110
2020-01-10,14:06,2:06 PM,35.065,35.065,35.065,500,17532.5,5,35.07,35.06,35.066,3000,105199.57,19,35.065,35.065,35.065,35.07,,-0.032955516946581734,hog,20200110
2020-01-10,14:07,2:07 PM,35.065,35.065,35.065,301,10554.565,4,35.07,35.06,35.066,672,23564.54,6,35.065,35.065,35.07,35.065,,-0.032955516946581734,hog,20200110
2020-01-10,14:08,2:08 PM,35.065,35.055,35.06,400,14024.0,4,35.08,35.055,35.065,5532,193978.68,38,35.065,35.055,35.065,35.08,,-0.032983094785030885,hog,20200110
2020-01-10,14:09,2:09 PM,35.1,35.095,35.097,200,7019.5,2,35.1,35.08,35.098,5725,200936.5,37,35.095,35.1,35.08,35.1,,-0.03207302611621311,hog,20200110
2020-01-10,14:10,2:10 PM,35.095,35.07,35.082,501,17576.075,6,35.1,35.07,35.081,3828,134288.28,23,35.095,35.07,35.095,35.07,,-0.03254184936984638,hog,20200110
2020-01-10,14:11,2:11 PM,35.06,35.055,35.057,300,10517.0,4,35.07,35.05,35.062,2504,87794.805,18,35.06,35.055,35.07,35.05,,-0.03306582830037796,hog,20200110
2020-01-10,14:12,2:12 PM,35.055,35.04,35.05,1001,35084.55,12,35.055,35.03,35.045,4457,156197.9,33,35.055,35.04,35.055,35.039,,-0.033534651554011224,hog,20200110
2020-01-10,14:13,2:13 PM,35.045,35.035,35.043,600,21026.0,4,35.045,35.035,35.04,2727,95553.58,19,35.035,35.045,35.035,35.045,,-0.033672540746256405,hog,20200110
2020-01-10,14:14,2:14 PM,35.035,35.035,35.035,200,7007.0,2,35.045,35.03,35.039,2557,89593.78,22,35.035,35.035,35.045,35.03,,-0.03370011858470536,hog,20200110
2020-01-10,14:15,2:15 PM,35.035,35.035,35.035,101,3538.535,2,35.05,35.03,35.039,2285,80065.165,15,35.035,35.035,35.037,35.05,,-0.03370011858470536,hog,20200110
2020-01-10,14:16,2:16 PM,35.065,35.05,35.057,801,28081.06,8,35.065,35.05,35.058,3085,108155.04,22,35.055,35.05,35.055,35.06,,-0.033176139654173986,hog,20200110
2020-01-10,14:17,2:17 PM,35.06,35.06,35.06,101,3541.06,2,35.06,35.05,35.057,300,10517.0,3,35.06,35.06,35.05,35.06,,-0.03320371749262294,hog,20200110
2020-01-10,14:18,2:18 PM,35.055,35.055,35.055,600,21033.0,4,35.06,35.05,35.055,900,31549.5,7,35.055,35.055,35.055,35.055,,-0.03325887316952106,hog,20200110
2020-01-10,14:19,2:19 PM,35.08,35.055,35.068,601,21075.575,8,35.09,35.055,35.077,5948,208636.94,40,35.055,35.08,35.055,35.08,,-0.032652160723642604,hog,20200110
2020-01-10,14:20,2:20 PM,35.08,35.08,35.08,201,7051.08,2,35.08,35.07,35.075,400,14030.0,3,35.08,35.08,35.07,35.08,,-0.032707316400540525,hog,20200110
2020-01-10,14:21,2:21 PM,35.08,35.08,35.08,100,3508.0,1,35.08,35.08,35.08,400,14032.0,4,35.08,35.08,35.08,35.08,,-0.03256942720829554,hog,20200110
2020-01-10,14:22,2:22 PM,35.09,35.07,35.076,262,9189.99,5,35.09,35.07,35.081,1000,35081.0,10,35.08,35.08,35.08,35.08,,-0.03254184936984638,hog,20200110
2020-01-10,14:23,2:23 PM,35.08,35.065,35.073,803,28163.695,9,35.09,35.06,35.071,10708,375539.71,63,35.08,35.065,35.09,35.08,,-0.03281762775433675,hog,20200110
2020-01-10,14:24,2:24 PM,35.075,35.075,35.075,401,14065.075,5,35.08,35.07,35.075,1848,64818.2112,13,35.075,35.075,35.075,35.07,,-0.032707316400540525,hog,20200110
2020-01-10,14:25,2:25 PM,35.07,35.055,35.057,406,14233.37,7,35.07,35.055,35.065,2874,100777.61,21,35.07,35.055,35.07,35.055,,-0.032983094785030885,hog,20200110
2020-01-10,14:26,2:26 PM,35.055,35.045,35.05,405,14195.245,7,35.06,35.045,35.051,3400,119173.0,29,35.055,35.05,35.055,35.05,,-0.03336918452331708,hog,20200110
2020-01-10,14:27,2:27 PM,35.05,35.05,35.05,100,3505.0,1,35.05,35.04,35.048,500,17524.0,5,35.05,35.05,35.04,35.05,,-0.03345191803866415,hog,20200110
2020-01-10,14:28,2:28 PM,35.045,35.045,35.045,402,14088.09,5,35.05,35.04,35.047,1000,35046.5,9,35.045,35.045,35.05,35.04,,-0.03347949587711331,hog,20200110
2020-01-10,14:29,2:29 PM,35.05,35.045,35.046,503,17628.135,8,35.08,35.04,35.059,4498,157694.58,34,35.045,35.05,35.05,35.08,,-0.03314856181572503,hog,20200110
2020-01-10,14:30,2:30 PM,35.105,35.065,35.074,949,33284.88,12,35.11,35.065,35.089,8216,288294.155,46,35.105,35.07,35.09,35.07,,-0.03232122666225432,hog,20200110
2020-01-10,14:31,2:31 PM,35.085,35.075,35.078,400,14031.0,4,35.085,35.075,35.078,1542,54090.86,14,35.075,35.085,35.075,35.08,,-0.03262458288519345,hog,20200110
2020-01-10,14:32,2:32 PM,35.085,35.065,35.071,700,24549.5,6,35.09,35.065,35.077,4298,150762.09,28,35.08,35.065,35.09,35.065,,-0.032652160723642604,hog,20200110
2020-01-10,14:33,2:33 PM,35.065,35.055,35.057,403,14128.185,7,35.065,35.04,35.055,3513,123149.13,28,35.065,35.055,35.065,35.055,,-0.03325887316952106,hog,20200110
2020-01-10,14:34,2:34 PM,35.055,35.055,35.055,300,10516.5,1,35.06,35.055,35.056,400,14022.5,2,35.055,35.055,35.055,35.06,,-0.033231295331072094,hog,20200110
2020-01-10,14:35,2:35 PM,35.08,35.06,35.067,304,10660.3,5,35.07,35.06,35.064,3894,136538.64,13,35.07,35.07,35.06,35.07,,-0.03301067262347984,hog,20200110
2020-01-10,14:36,2:36 PM,35.07,35.055,35.067,901,31595.555,9,35.07,35.055,35.063,2637,92461.26,21,35.07,35.065,35.07,35.065,,-0.033038250461928806,hog,20200110
2020-01-10,14:37,2:37 PM,35.07,35.065,35.068,851,29843.07,12,35.07,35.06,35.069,1884,66069.38,16,35.065,35.07,35.065,35.07,,-0.03287278343123466,hog,20200110
2020-01-10,14:38,2:38 PM,35.07,35.07,35.07,300,10521.0,3,35.08,35.06,35.072,800,28058.0,8,35.07,35.07,35.07,35.08,,-0.03279004991588759,hog,20200110
2020-01-10,14:39,2:39 PM,35.07,35.055,35.065,204,7153.235,5,35.065,35.04,35.056,5059,177350.2,33,35.07,35.055,35.06,35.05,,-0.033231295331072094,hog,20200110
2020-01-10,14:40,2:40 PM,35.065,35.065,35.065,100,3506.5,1,35.07,35.05,35.065,2854,100075.49,23,35.065,35.065,35.05,35.07,,-0.032983094785030885,hog,20200110
2020-01-10,14:41,2:41 PM,35.075,35.07,35.072,300,10521.5,3,35.075,35.06,35.07,2800,98195.0,18,35.07,35.075,35.07,35.06,,-0.032845205592785705,hog,20200110
2020-01-10,14:42,2:42 PM,35.055,35.055,35.055,400,14022.0,4,35.06,35.05,35.057,2529,88659.12,17,35.055,35.055,35.06,35.06,,-0.03320371749262294,hog,20200110
2020-01-10,14:43,2:43 PM,35.055,35.055,35.055,400,14022.0,4,35.06,35.05,35.056,1070,37510.095,9,35.055,35.055,35.05,35.06,,-0.033231295331072094,hog,20200110
2020-01-10,14:44,2:44 PM,35.065,35.055,35.056,716,25100.46,7,35.09,35.055,35.069,4110,144134.2,34,35.055,35.065,35.055,35.085,,-0.03287278343123466,hog,20200110
2020-01-10,14:45,2:45 PM,35.08,35.07,35.078,400,14031.0,2,35.09,35.07,35.081,4440,155759.217,27,35.08,35.07,35.08,35.07,,-0.03254184936984638,hog,20200110
2020-01-10,14:46,2:46 PM,35.065,35.055,35.058,604,21175.22,7,35.07,35.05,35.066,4200,147275.5,25,35.065,35.055,35.07,35.05,,-0.032955516946581734,hog,20200110
2020-01-10,14:47,2:47 PM,35.06,35.055,35.056,505,17703.3,6,35.06,35.05,35.058,3075,107804.5,27,35.055,35.055,35.055,35.06,,-0.033176139654173986,hog,20200110
2020-01-10,14:48,2:48 PM,35.055,35.055,35.055,301,10551.555,4,35.06,35.055,35.059,2000,70118.5,17,35.055,35.055,35.06,35.055,,-0.03314856181572503,hog,20200110
2020-01-10,14:49,2:49 PM,35.055,35.05,35.053,200,7010.5,2,35.055,35.05,35.053,200,7010.5,2,35.055,35.05,35.055,35.05,,-0.033314028846419166,hog,20200110
2020-01-10,14:50,2:50 PM,35.055,35.04,35.05,1301,45600.555,9,35.06,35.04,35.05,8166,286220.22,49,35.055,35.04,35.055,35.04,,-0.03339676236176624,hog,20200110
2020-01-10,14:51,2:51 PM,35.03,35.005,35.018,1301,45558.005,14,35.04,34.99,35.018,8971,314147.34,57,35.03,35.005,35.03,34.99,,-0.03427925319213486,hog,20200110
2020-01-10,14:52,2:52 PM,,,,0,0.0,0,34.99,34.985,34.989,965,33764.35,5,,,34.99,34.985,,-0.0350790105071566,hog,20200110
2020-01-10,14:53,2:53 PM,34.985,34.98,34.984,138,4827.74,2,34.985,34.98,34.982,845,29559.85,6,34.985,34.98,34.985,34.98,,-0.035272055376299696,hog,20200110
2020-01-10,14:54,2:54 PM,34.995,34.985,34.987,1184,41424.16,13,35.0,34.98,34.992,3554,124360.67,28,34.985,34.995,34.985,35.0,,-0.03499627699180953,hog,20200110
2020-01-10,14:55,2:55 PM,35.005,35.005,35.005,400,14002.0,4,35.01,35.0,35.006,700,24504.0,7,35.005,35.005,35.0,35.01,,-0.034610187253523134,hog,20200110
2020-01-10,14:56,2:56 PM,35.005,34.98,34.994,360,12597.8,4,35.005,34.98,34.994,4051,141761.52,27,35.005,34.98,35.005,34.98,,-0.034941121314911415,hog,20200110
2020-01-10,14:57,2:57 PM,34.985,34.98,34.982,302,10564.46,4,34.99,34.98,34.982,795,27810.6,7,34.98,34.985,34.98,34.98,,-0.035272055376299696,hog,20200110
2020-01-10,14:58,2:58 PM,34.995,34.985,34.99,200,6998.0,2,35.0,34.98,34.986,2602,91034.09,21,34.985,34.995,34.98,34.995,,-0.03516174402250367,hog,20200110
2020-01-10,14:59,2:59 PM,35.01,35.005,35.007,304,10642.035,5,35.01,35.0,35.004,1373,48060.45,11,35.01,35.005,35.0,35.005,,-0.03466534293042125,hog,20200110
2020-01-10,15:00,3 PM,35.025,35.01,35.016,1136,39778.32,13,35.038,35.01,35.023,4321,151332.62,35,35.01,35.025,35.01,35.035,,-0.03414136399988967,hog,20200110
2020-01-10,15:01,3:01 PM,35.04,35.0,35.022,703,24620.53,7,35.04,34.99,35.016,6349,222315.23,46,35.04,35.0,35.04,34.99,,-0.03433440886903297,hog,20200110
2020-01-10,15:02,3:02 PM,35.035,35.005,35.02,201,7039.02,3,35.035,35.0,35.013,2449,85747.53,19,35.005,35.035,35.0,35.03,,-0.03441714238438004,hog,20200110
2020-01-10,15:03,3:03 PM,35.045,35.025,35.035,201,7042.025,3,35.05,35.02,35.032,1365,47818.81,12,35.025,35.045,35.03,35.045,,-0.03389316345384866,hog,20200110
2020-01-10,15:04,3:04 PM,35.045,35.04,35.042,300,10512.5,3,35.05,35.02,35.037,10608,371668.63,74,35.04,35.045,35.04,35.03,,-0.03375527426160348,hog,20200110
2020-01-10,15:05,3:05 PM,35.005,35.0,35.004,500,17502.0,2,35.02,35.0,35.007,1081,37842.62,7,35.005,35.0,35.02,35.0,,-0.03458260941507418,hog,20200110
2020-01-10,15:06,3:06 PM,34.995,34.975,34.979,2000,69958.0,15,35.0,34.975,34.983,10333,361475.46,61,34.995,34.975,35.0,34.98,,-0.03524447753785074,hog,20200110
2020-01-10,15:07,3:07 PM,34.995,34.985,34.987,1002,35056.99,12,34.995,34.98,34.989,5509,192757.58,44,34.985,34.985,34.985,34.99,,-0.0350790105071566,hog,20200110
2020-01-10,15:08,3:08 PM,35.015,34.98,34.991,1413,49442.755,12,35.015,34.98,35.005,14586,510580.6111,85,34.985,35.005,34.985,35.01,,-0.0346377650919721,hog,20200110
2020-01-10,15:09,3:09 PM,35.04,35.015,35.028,400,14011.0,4,35.04,35.01,35.026,1907,66793.71,18,35.015,35.04,35.015,35.03,,-0.0340586304845426,hog,20200110
2020-01-10,15:10,3:10 PM,35.045,35.04,35.041,1501,52596.04,6,35.06,35.03,35.046,11454,401415.72,72,35.04,35.045,35.04,35.059,,-0.03350707371556227,hog,20200110
2020-01-10,15:11,3:11 PM,35.055,35.05,35.053,300,10516.0,3,35.055,35.05,35.052,1000,35052.0,8,35.05,35.055,35.055,35.055,,-0.03334160668486812,hog,20200110
2020-01-10,15:12,3:12 PM,35.055,35.05,35.053,301,10551.055,4,35.06,35.05,35.054,5889,206430.95,44,35.055,35.05,35.06,35.055,,-0.033286451007970015,hog,20200110
2020-01-10,15:13,3:13 PM,35.06,35.05,35.054,900,31549.0,8,35.06,35.04,35.058,13599,476750.985,70,35.055,35.05,35.055,35.05,,-0.033176139654173986,hog,20200110
2020-01-10,15:14,3:14 PM,35.045,35.045,35.045,702,24601.59,8,35.055,35.04,35.047,4156,145657.27,31,35.045,35.045,35.05,35.045,,-0.03347949587711331,hog,20200110
2020-01-10,15:15,3:15 PM,35.045,35.045,35.045,600,21027.0,4,35.05,35.04,35.046,1321,46295.445,10,35.045,35.045,35.05,35.045,,-0.03350707371556227,hog,20200110
2020-01-10,15:16,3:16 PM,35.06,35.05,35.055,201,7046.06,3,35.07,35.045,35.056,2718,95281.58,26,35.06,35.05,35.045,35.05,,-0.033231295331072094,hog,20200110
2020-01-10,15:17,3:17 PM,35.055,35.05,35.054,700,24538.0,5,35.06,35.05,35.058,2864,100405.84,21,35.055,35.055,35.055,35.055,,-0.033176139654173986,hog,20200110
2020-01-10,15:18,3:18 PM,35.06,35.055,35.056,801,28079.555,8,35.065,35.055,35.059,4686,164287.37,36,35.055,35.055,35.06,35.06,,-0.03314856181572503,hog,20200110
2020-01-10,15:19,3:19 PM,35.055,35.045,35.053,1702,59659.605,18,35.06,35.045,35.053,10263,359746.6562,70,35.055,35.055,35.055,35.055,,-0.033314028846419166,hog,20200110
2020-01-10,15:20,3:20 PM,35.055,35.055,35.055,300,10516.5,3,35.06,35.055,35.058,1000,35058.0,7,35.055,35.055,35.055,35.06,,-0.033176139654173986,hog,20200110
2020-01-10,15:21,3:21 PM,35.045,35.04,35.045,403,14123.12,5,35.06,35.04,35.045,6430,225343.05,50,35.045,35.04,35.06,35.04,,-0.033534651554011224,hog,20200110
2020-01-10,15:22,3:22 PM,35.045,35.045,35.045,300,10513.5,3,35.07,35.04,35.05,2753,96491.35,22,35.045,35.045,35.045,35.06,,-0.03339676236176624,hog,20200110
2020-01-10,15:23,3:23 PM,35.06,35.06,35.06,200,7012.0,2,35.06,35.05,35.055,6600,231361.8,42,35.06,35.06,35.06,35.06,,-0.03325887316952106,hog,20200110
2020-01-10,15:24,3:24 PM,35.055,35.055,35.055,322,11287.71,2,35.055,35.055,35.055,722,25309.71,5,35.055,35.055,35.055,35.055,,-0.03325887316952106,hog,20200110
2020-01-10,15:25,3:25 PM,35.055,35.045,35.052,613,21486.805,7,35.06,35.04,35.053,6019,210985.425,39,35.055,35.045,35.055,35.045,,-0.033314028846419166,hog,20200110
2020-01-10,15:26,3:26 PM,35.065,35.035,35.047,2008,70373.515,9,35.07,35.035,35.052,10499,368008.52,62,35.035,35.06,35.04,35.065,,-0.03334160668486812,hog,20200110
2020-01-10,15:27,3:27 PM,35.06,35.045,35.052,799,28006.94,11,35.06,35.04,35.055,3802,133280.1,29,35.06,35.045,35.06,35.045,,-0.03325887316952106,hog,20200110
2020-01-10,15:28,3:28 PM,35.045,35.045,35.045,500,17522.5,1,35.045,35.04,35.044,800,28035.0,4,35.045,35.045,35.045,35.04,,-0.033562229392460376,hog,20200110
2020-01-10,15:29,3:29 PM,35.03,35.03,35.03,19,665.57,1,35.045,35.02,35.03,2893,101342.15,21,35.03,35.03,35.045,35.02,,-0.03394831913074658,hog,20200110
2020-01-10,15:30,3:30 PM,35.015,34.985,35.006,1700,59510.5,12,35.015,34.98,35.002,4932,172630.355,33,35.015,34.985,35.015,34.99,,-0.03472049860731916,hog,20200110
2020-01-10,15:31,3:31 PM,34.995,34.985,34.991,1200,41989.5,12,35.0,34.98,34.99,6035,211163.0525,46,34.985,34.985,34.98,34.985,,-0.035051432668707444,hog,20200110
2020-01-10,15:32,3:32 PM,34.99,34.965,34.978,919,32144.43,21,34.99,34.96,34.976,6998,244762.79,50,34.98,34.965,34.983,34.96,,-0.03543752240699384,hog,20200110
2020-01-10,15:33,3:33 PM,34.965,34.925,34.949,1169,40855.285,26,34.965,34.925,34.948,8788,307126.3875,65,34.965,34.925,34.965,34.925,,-0.03620970188356643,hog,20200110
2020-01-10,15:34,3:34 PM,34.925,34.915,34.919,738,25770.505,16,34.93,34.9,34.916,4150,144903.64,33,34.925,34.92,34.93,34.91,,-0.03709219271393524,hog,20200110
2020-01-10,15:35,3:35 PM,34.915,34.895,34.896,441,15388.985,13,34.91,34.89,34.9,4419,154225.1,30,34.915,34.895,34.91,34.895,,-0.03753343812911955,hog,20200110
2020-01-10,15:36,3:36 PM,34.895,34.885,34.894,502,17516.57,6,34.9,34.89,34.892,1800,62805.0,16,34.895,34.885,34.89,34.89,,-0.03775406083671161,hog,20200110
2020-01-10,15:37,3:37 PM,34.885,34.885,34.885,700,24419.5,7,34.886,34.87,34.88,3040,106035.216,26,34.885,34.885,34.885,34.87,,-0.03808499489809989,hog,20200110
2020-01-10,15:38,3:38 PM,34.875,34.87,34.874,1449,50532.63,12,34.88,34.87,34.873,3900,136003.0,32,34.875,34.875,34.875,34.88,,-0.038278039767243185,hog,20200110
2020-01-10,15:39,3:39 PM,34.865,34.83,34.847,2021,70426.83,10,34.87,34.825,34.846,16975,591519.01,108,34.865,34.85,34.87,34.86,,-0.03902264140536682,hog,20200110
2020-01-10,15:40,3:40 PM,34.855,34.85,34.851,500,17425.5,5,34.855,34.84,34.852,1200,41821.94,11,34.85,34.855,34.85,34.855,,-0.038857174374672676,hog,20200110
2020-01-10,15:41,3:41 PM,34.855,34.84,34.847,700,24393.0,7,34.855,34.84,34.847,3997,139282.75,36,34.85,34.84,34.85,34.84,,-0.03899506356691766,hog,20200110
2020-01-10,15:42,3:42 PM,34.845,34.805,34.826,1751,60979.915,12,34.848,34.8,34.836,10955,381628.745,43,34.845,34.805,34.845,34.805,,-0.039298419789856986,hog,20200110
2020-01-10,15:43,3:43 PM,34.805,34.8,34.805,3300,114855.5,14,34.81,34.8,34.804,5200,180981.5,31,34.805,34.8,34.8,34.8,,-0.04018091062022561,hog,20200110
2020-01-10,15:44,3:44 PM,34.805,34.8,34.803,300,10441.0,3,34.81,34.8,34.807,6304,219422.55,47,34.8,34.805,34.8,34.8,,-0.040098177104878535,hog,20200110
2020-01-10,15:45,3:45 PM,34.805,34.775,34.791,3782,131580.62,35,34.81,34.77,34.791,28181,980434.0805,99,34.805,34.785,34.805,34.785,,-0.04053942252006304,hog,20200110
2020-01-10,15:46,3:46 PM,34.79,34.755,34.771,1703,59215.795,16,34.79,34.75,34.775,12254,426126.7522,93,34.785,34.76,34.785,34.765,,-0.04098066793524735,hog,20200110
2020-01-10,15:47,3:47 PM,34.815,34.735,34.752,3704,128723.46,33,34.82,34.73,34.755,30967,1076256.995,202,34.76,34.815,34.76,34.82,,-0.04153222470422768,hog,20200110
2020-01-10,15:48,3:48 PM,34.825,34.82,34.824,1600,55719.0,14,34.83,34.82,34.825,4067,141633.686,35,34.82,34.825,34.82,34.83,,-0.03960177601279611,hog,20200110
2020-01-10,15:49,3:49 PM,34.825,34.805,34.819,1345,46831.55,8,34.83,34.79,34.806,28323,985801.215,70,34.825,34.805,34.825,34.79,,-0.040125754943327686,hog,20200110
2020-01-10,15:50,3:50 PM,34.845,34.785,34.803,2700,93967.5,19,34.85,34.78,34.809,20835,725243.635,122,34.79,34.845,34.79,34.845,,-0.040043021427980614,hog,20200110
2020-01-10,15:51,3:51 PM,34.845,34.84,34.845,2900,101050.0,17,34.85,34.84,34.846,6355,221444.6858,43,34.845,34.845,34.85,34.84,,-0.03902264140536682,hog,20200110
2020-01-10,15:52,3:52 PM,34.845,34.84,34.845,3145,109587.025,21,34.85,34.84,34.846,10228,356401.54,62,34.845,34.845,34.845,34.845,,-0.03902264140536682,hog,20200110
2020-01-10,15:53,3:53 PM,34.88,34.845,34.869,2557,89160.235,24,34.88,34.84,34.864,12846,447865.495,85,34.845,34.875,34.845,34.875,,-0.038526240313284395,hog,20200110
2020-01-10,15:54,3:54 PM,34.88,34.86,34.869,2606,90867.805,32,34.88,34.855,34.869,13377,466448.2265,105,34.875,34.865,34.875,34.865,,-0.038388351121039214,hog,20200110
2020-01-10,15:55,3:55 PM,34.865,34.865,34.865,3089,107697.985,26,34.87,34.86,34.865,9342,325713.6137,72,34.865,34.865,34.86,34.865,,-0.038498662474835244,hog,20200110
2020-01-10,15:56,3:56 PM,34.89,34.86,34.878,2777,96855.62,28,34.89,34.86,34.875,16309,568780.0424,107,34.865,34.885,34.865,34.88,,-0.03822288409034507,hog,20200110
2020-01-10,15:57,3:57 PM,34.905,34.88,34.886,3229,112647.565,30,34.91,34.88,34.891,30844,1076176.6453,196,34.885,34.9,34.89,34.905,,-0.03778163867516076,hog,20200110
2020-01-10,15:58,3:58 PM,34.9,34.885,34.892,2077,72470.12,20,34.9,34.885,34.893,19613,684354.36,138,34.895,34.89,34.9,34.89,,-0.03772648299826265,hog,20200110
2020-01-10,15:59,3:59 PM,34.9,34.85,34.892,4669,162913.065,29,34.9,34.84,34.883,59150,2063356.2438,319,34.895,34.85,34.89,34.84,,-0.03800226138275282,hog,20200110
