date,minute,label,high,low,average,volume,notional,numberOfTrades,marketHigh,marketLow,marketAverage,marketVolume,marketNotional,marketNumberOfTrades,open,close,marketOpen,marketClose,changeOverTime,marketChangeOverTime,tickerName,tickerDate
2020-01-16,09:30,09:30 AM,,,,0,0.0,0,35.77,35.64,35.65,15099,538286.46,4,,,35.64,35.68,,0.0,hog,20200116
2020-01-16,09:31,09:31 AM,,,,0,0.0,0,35.72,35.72,35.72,100,3572.0,1,,,35.72,35.72,,0.0019635343618513404,hog,20200116
2020-01-16,09:32,09:32 AM,,,,0,0.0,0,35.76,35.73,35.743,1357,48503.451,7,,,35.74,35.73,,0.002608695652174012,hog,20200116
2020-01-16,09:33,09:33 AM,,,,0,0.0,0,35.9,35.78,35.861,2309,82803.5161,23,,,35.78,35.85,,0.005918653576437546,hog,20200116
2020-01-16,09:34,09:34 AM,35.82,35.81,35.82,103,3689.43,2,35.87,35.8,35.839,6307,226033.89,39,35.82,35.81,35.82,35.8,,0.005301542776998599,hog,20200116
2020-01-16,09:35,09:35 AM,,,,0,0.0,0,35.84,35.763,35.812,2672,95690.6,19,,,35.785,35.84,,0.004544179523141628,hog,20200116
2020-01-16,09:36,09:36 AM,,,,0,0.0,0,35.85,35.83,35.84,400,14336.0,4,,,35.85,35.83,,0.005329593267882324,hog,20200116
2020-01-16,09:37,09:37 AM,,,,0,0.0,0,35.795,35.795,35.795,100,3579.5,1,,,35.795,35.795,,0.004067321178120705,hog,20200116
2020-01-16,09:38,09:38 AM,35.77,35.77,35.77,100,3577.0,1,35.8,35.77,35.784,1000,35784.18,8,35.77,35.77,35.78,35.786,,0.0037587657784011316,hog,20200116
2020-01-16,09:39,09:39 AM,35.785,35.785,35.785,100,3578.5,1,35.785,35.76,35.776,400,14310.5,4,35.785,35.785,35.785,35.775,,0.0035343618513325324,hog,20200116
2020-01-16,09:40,09:40 AM,,,,0,0.0,0,35.9,35.8,35.861,1800,64549.0,18,,,35.8,35.88,,0.005918653576437546,hog,20200116
2020-01-16,09:41,09:41 AM,,,,0,0.0,0,35.89,35.87,35.88,1000,35880.0,10,,,35.87,35.89,,0.006451612903225918,hog,20200116
2020-01-16,09:42,09:42 AM,,,,0,0.0,0,35.97,35.87,35.929,2867,103009.31,17,,,35.87,35.94,,0.007826086956521837,hog,20200116
2020-01-16,09:43,09:43 AM,35.91,35.91,35.91,100,3591.0,1,35.94,35.89,35.903,8685,311818.5,25,35.91,35.91,35.91,35.93,,0.007096774193548391,hog,20200116
2020-01-16,09:44,09:44 AM,,,,0,0.0,0,36.09,35.94,35.991,3250,116972.3552,19,,,35.94,36.09,,0.009565217391304379,hog,20200116
2020-01-16,09:45,09:45 AM,,,,0,0.0,0,36.09,36.03,36.082,1728,62349.7324,14,,,36.09,36.076,,0.012117812061711142,hog,20200116
2020-01-16,09:46,09:46 AM,,,,0,0.0,0,36.04,35.98,36.004,2220,79928.0,19,,,36.04,35.98,,0.009929873772791002,hog,20200116
2020-01-16,09:47,09:47 AM,,,,0,0.0,0,35.927,35.91,35.915,500,17957.69,5,,,35.927,35.91,,0.007433380084151489,hog,20200116
2020-01-16,09:48,09:48 AM,,,,0,0.0,0,,,,0,0.0,0,,,,,,,hog,20200116
2020-01-16,09:49,09:49 AM,,,,0,0.0,0,35.89,35.89,35.89,200,7178.0,2,,,35.89,35.89,,0.006732117812061767,hog,20200116
2020-01-16,09:50,09:50 AM,,,,0,0.0,0,,,,0,0.0,0,,,,,,,hog,20200116
2020-01-16,09:51,09:51 AM,35.95,35.95,35.95,100,3595.0,1,35.95,35.93,35.937,300,10781.0,3,35.95,35.95,35.93,35.95,,0.008050490883590436,hog,20200116
2020-01-16,09:52,09:52 AM,,,,0,0.0,0,,,,0,0.0,0,,,,,,,hog,20200116
2020-01-16,09:53,09:53 AM,35.94,35.94,35.94,200,7188.0,2,35.94,35.94,35.94,200,7188.0,2,35.94,35.94,35.94,35.94,,0.008134642356241211,hog,20200116
2020-01-16,09:54,09:54 AM,36.01,35.99,36.008,110,3960.9,2,36.04,35.98,36.001,3800,136805.0,10,35.99,36.01,35.98,36.01,,0.009845722300140228,hog,20200116
2020-01-16,09:55,09:55 AM,,,,0,0.0,0,36.0,35.95,35.98,648,23315.39,6,,,35.983,35.95,,0.009256661991584805,hog,20200116
2020-01-16,09:56,09:56 AM,,,,0,0.0,0,35.95,35.93,35.94,300,10782.0,3,,,35.95,35.93,,0.008134642356241211,hog,20200116
2020-01-16,09:57,09:57 AM,,,,0,0.0,0,35.95,35.95,35.95,100,3595.0,1,,,35.95,35.95,,0.008415147265077258,hog,20200116
2020-01-16,09:58,09:58 AM,,,,0,0.0,0,,,,0,0.0,0,,,,,,,hog,20200116
2020-01-16,09:59,09:59 AM,35.855,35.855,35.855,100,3585.5,1,35.93,35.855,35.884,1200,43060.5,10,35.855,35.855,35.93,35.855,,0.006563814866760218,hog,20200116
2020-01-16,10:00,10 AM,,,,0,0.0,0,35.9,35.877,35.888,211,7572.3359,2,,,35.9,35.877,,0.006676016830294518,hog,20200116
2020-01-16,10:01,10:01 AM,,,,0,0.0,0,35.91,35.86,35.885,200,7177.0,2,,,35.86,35.91,,0.006591865357643743,hog,20200116
2020-01-16,10:02,10:02 AM,,,,0,0.0,0,35.89,35.83,35.867,1100,39454.0,10,,,35.88,35.83,,0.006086956521739096,hog,20200116
2020-01-16,10:03,10:03 AM,,,,0,0.0,0,35.85,35.79,35.83,980,35113.0,6,,,35.83,35.836,,0.0050490883590462755,hog,20200116
2020-01-16,10:04,10:04 AM,,,,0,0.0,0,35.8,35.79,35.797,300,10739.0,3,,,35.8,35.79,,0.004123422159887755,hog,20200116
2020-01-16,10:05,10:05 AM,35.78,35.78,35.78,100,3578.0,1,35.79,35.78,35.785,800,28628.0,8,35.78,35.78,35.78,35.785,,0.0037868162692846568,hog,20200116
2020-01-16,10:06,10:06 AM,,,,0,0.0,0,35.78,35.76,35.77,300,10731.0,3,,,35.77,35.76,,0.003366058906030983,hog,20200116
2020-01-16,10:07,10:07 AM,,,,0,0.0,0,35.81,35.79,35.803,502,17973.08,5,,,35.79,35.81,,0.004291725105189304,hog,20200116
2020-01-16,10:08,10:08 AM,,,,0,0.0,0,35.83,35.803,35.818,600,21490.75,6,,,35.803,35.83,,0.004712482468443177,hog,20200116
2020-01-16,10:09,10:09 AM,,,,0,0.0,0,35.81,35.79,35.803,276,9881.56,2,,,35.81,35.79,,0.004291725105189304,hog,20200116
2020-01-16,10:10,10:10 AM,35.805,35.805,35.805,300,10741.5,2,35.805,35.76,35.789,800,28631.5,7,35.805,35.805,35.805,35.78,,0.0038990182328191556,hog,20200116
2020-01-16,10:11,10:11 AM,,,,0,0.0,0,35.78,35.77,35.773,300,10732.0,3,,,35.78,35.77,,0.003450210378681758,hog,20200116
2020-01-16,10:12,10:12 AM,35.84,35.795,35.825,308,11034.18,5,35.85,35.79,35.82,3456,123793.7311,20,35.795,35.84,35.79,35.83,,0.004768583450210427,hog,20200116
2020-01-16,10:13,10:13 AM,,,,0,0.0,0,35.85,35.85,35.85,200,7170.0,2,,,35.85,35.85,,0.005610098176718172,hog,20200116
2020-01-16,10:14,10:14 AM,,,,0,0.0,0,35.83,35.83,35.83,114,4084.62,1,,,35.83,35.83,,0.0050490883590462755,hog,20200116
2020-01-16,10:15,10:15 AM,35.835,35.83,35.835,304,10893.82,4,35.835,35.82,35.828,1598,57252.36,14,35.835,35.83,35.83,35.82,,0.004992987377279225,hog,20200116
2020-01-16,10:16,10:16 AM,35.87,35.865,35.87,101,3622.865,2,35.87,35.84,35.85,300,10755.0,3,35.865,35.87,35.84,35.87,,0.005610098176718172,hog,20200116
2020-01-16,10:17,10:17 AM,35.845,35.845,35.845,100,3584.5,1,35.845,35.83,35.837,200,7167.5,2,35.845,35.845,35.845,35.83,,0.005245441795231549,hog,20200116
2020-01-16,10:18,10:18 AM,,,,0,0.0,0,35.83,35.8,35.816,700,25071.0,6,,,35.83,35.82,,0.004656381486676127,hog,20200116
2020-01-16,10:19,10:19 AM,,,,0,0.0,0,35.83,35.77,35.807,300,10742.0,3,,,35.83,35.77,,0.004403927068723803,hog,20200116
2020-01-16,10:20,10:20 AM,,,,0,0.0,0,35.81,35.79,35.8,200,7160.0,2,,,35.79,35.81,,0.004207573632538529,hog,20200116
2020-01-16,10:21,10:21 AM,35.84,35.79,35.82,300,10746.0,3,35.84,35.79,35.826,1138,40769.78,11,35.79,35.84,35.79,35.84,,0.004936886395511976,hog,20200116
2020-01-16,10:22,10:22 AM,,,,0,0.0,0,35.83,35.82,35.827,647,23180.0386,5,,,35.83,35.82,,0.004964936886395501,hog,20200116
2020-01-16,10:23,10:23 AM,,,,0,0.0,0,35.82,35.81,35.813,300,10744.0,3,,,35.82,35.81,,0.004572230014025352,hog,20200116
2020-01-16,10:24,10:24 AM,,,,0,0.0,0,35.78,35.78,35.78,200,7156.0,2,,,35.78,35.78,,0.0036465638148668322,hog,20200116
2020-01-16,10:25,10:25 AM,,,,0,0.0,0,35.76,35.74,35.745,400,14298.0,3,,,35.76,35.74,,0.002664796633941062,hog,20200116
2020-01-16,10:26,10:26 AM,,,,0,0.0,0,,,,0,0.0,0,,,,,,,hog,20200116
2020-01-16,10:27,10:27 AM,,,,0,0.0,0,35.75,35.72,35.74,500,17870.0,5,,,35.74,35.745,,0.0025245441795232375,hog,20200116
2020-01-16,10:28,10:28 AM,,,,0,0.0,0,35.75,35.74,35.743,766,27378.84,6,,,35.74,35.74,,0.002608695652174012,hog,20200116
2020-01-16,10:29,10:29 AM,,,,0,0.0,0,35.735,35.73,35.733,500,17866.5,3,,,35.735,35.73,,0.002328190743337964,hog,20200116
2020-01-16,10:30,10:30 AM,,,,0,0.0,0,35.73,35.67,35.705,1817,64876.4,17,,,35.73,35.7,,0.0015427769985974676,hog,20200116
2020-01-16,10:31,10:31 AM,,,,0,0.0,0,35.7,35.7,35.7,100,3570.0,1,,,35.7,35.7,,0.0014025245441796428,hog,20200116
2020-01-16,10:32,10:32 AM,35.73,35.73,35.73,100,3573.0,1,35.73,35.7,35.718,400,14287.0,4,35.73,35.73,35.7,35.73,,0.0019074333800842903,hog,20200116
2020-01-16,10:33,10:33 AM,35.725,35.725,35.725,1,35.725,1,35.72,35.71,35.714,701,25035.71,5,35.725,35.725,35.72,35.71,,0.0017952314165497912,hog,20200116
2020-01-16,10:34,10:34 AM,35.75,35.75,35.75,1,35.75,1,35.75,35.74,35.742,542,19372.08,5,35.75,35.75,35.75,35.74,,0.0025806451612902875,hog,20200116
2020-01-16,10:35,10:35 AM,35.73,35.73,35.73,201,7181.73,2,35.745,35.71,35.731,700,25011.5,6,35.73,35.73,35.745,35.71,,0.0022720897615709137,hog,20200116
2020-01-16,10:36,10:36 AM,,,,0,0.0,0,35.74,35.71,35.73,300,10719.0,3,,,35.74,35.71,,0.0022440392706871894,hog,20200116
2020-01-16,10:37,10:37 AM,35.725,35.72,35.725,72,2572.195,2,35.74,35.725,35.731,400,14292.5,4,35.72,35.725,35.73,35.73,,0.0022720897615709137,hog,20200116
2020-01-16,10:38,10:38 AM,35.7,35.7,35.7,100,3570.0,1,35.71,35.64,35.657,18673,665820.95,61,35.7,35.7,35.7,35.71,,0.00019635343618507425,hog,20200116
2020-01-16,10:39,10:39 AM,35.715,35.715,35.715,400,14286.0,2,35.73,35.71,35.719,3800,135732.72,11,35.715,35.715,35.71,35.73,,0.0019354838709678154,hog,20200116
2020-01-16,10:40,10:40 AM,35.805,35.78,35.795,170,6085.1,2,35.805,35.76,35.781,1876,67124.78,18,35.78,35.805,35.76,35.805,,0.003674614305750357,hog,20200116
2020-01-16,10:41,10:41 AM,35.795,35.795,35.795,94,3364.73,1,35.8,35.79,35.798,502,17970.58,3,35.795,35.795,35.8,35.8,,0.00415147265077148,hog,20200116
2020-01-16,10:42,10:42 AM,,,,0,0.0,0,35.8,35.77,35.785,200,7157.0,2,,,35.77,35.8,,0.0037868162692846568,hog,20200116
2020-01-16,10:43,10:43 AM,,,,0,0.0,0,35.77,35.75,35.756,1121,40082.88,10,,,35.77,35.751,,0.0029733520336606353,hog,20200116
2020-01-16,10:44,10:44 AM,,,,0,0.0,0,,,,0,0.0,0,,,,,,,hog,20200116
2020-01-16,10:45,10:45 AM,35.75,35.75,35.75,100,3575.0,1,35.775,35.75,35.762,300,10728.5,3,35.75,35.75,35.75,35.775,,0.0031416549789621846,hog,20200116
2020-01-16,10:46,10:46 AM,,,,0,0.0,0,35.78,35.76,35.772,601,21499.18,5,,,35.76,35.78,,0.0034221598877980336,hog,20200116
2020-01-16,10:47,10:47 AM,,,,0,0.0,0,35.81,35.76,35.79,600,21474.0,5,,,35.76,35.8,,0.003927068723702681,hog,20200116
2020-01-16,10:48,10:48 AM,,,,0,0.0,0,35.83,35.8,35.815,1247,44661.55,11,,,35.8,35.82,,0.0046283309957924025,hog,20200116
2020-01-16,10:49,10:49 AM,,,,0,0.0,0,35.82,35.8,35.809,1207,43221.74,7,,,35.82,35.8,,0.004460028050490853,hog,20200116
2020-01-16,10:50,10:50 AM,,,,0,0.0,0,35.8,35.79,35.793,300,10738.0,3,,,35.79,35.79,,0.004011220196353455,hog,20200116
2020-01-16,10:51,10:51 AM,,,,0,0.0,0,,,,0,0.0,0,,,,,,,hog,20200116
2020-01-16,10:52,10:52 AM,35.81,35.81,35.81,48,1718.88,1,35.81,35.8,35.803,300,10741.0,3,35.81,35.81,35.8,35.81,,0.004291725105189304,hog,20200116
2020-01-16,10:53,10:53 AM,,,,0,0.0,0,35.8,35.77,35.79,400,14316.0,4,,,35.8,35.77,,0.003927068723702681,hog,20200116
2020-01-16,10:54,10:54 AM,35.785,35.785,35.785,100,3578.5,1,35.8,35.785,35.791,700,25053.58,6,35.785,35.785,35.785,35.785,,0.003955119214586206,hog,20200116
2020-01-16,10:55,10:55 AM,,,,0,0.0,0,35.78,35.78,35.78,400,14312.0,3,,,35.78,35.78,,0.0036465638148668322,hog,20200116
2020-01-16,10:56,10:56 AM,,,,0,0.0,0,35.835,35.835,35.835,226,8098.71,2,,,35.835,35.835,,0.0051893408134643,hog,20200116
2020-01-16,10:57,10:57 AM,,,,0,0.0,0,35.83,35.8,35.815,16133,577796.895,7,,,35.82,35.8,,0.0046283309957924025,hog,20200116
2020-01-16,10:58,10:58 AM,35.785,35.785,35.785,100,3578.5,1,35.79,35.78,35.788,687,24586.23,5,35.785,35.785,35.79,35.785,,0.0038709677419354314,hog,20200116
2020-01-16,10:59,10:59 AM,,,,0,0.0,0,35.77,35.77,35.77,701,25074.77,5,,,35.77,35.77,,0.003366058906030983,hog,20200116
2020-01-16,11:00,11 AM,35.77,35.77,35.77,22,786.94,1,35.78,35.77,35.777,700,25044.0,6,35.77,35.77,35.78,35.78,,0.0035624123422160576,hog,20200116
2020-01-16,11:01,11:01 AM,35.775,35.775,35.775,100,3577.5,1,35.78,35.75,35.769,912,32621.74,7,35.775,35.775,35.77,35.75,,0.003338008415147259,hog,20200116
2020-01-16,11:02,11:02 AM,,,,0,0.0,0,35.735,35.72,35.727,444,15862.62,4,,,35.735,35.72,,0.002159887798036415,hog,20200116
2020-01-16,11:03,11:03 AM,35.715,35.715,35.715,200,7143.0,2,35.72,35.715,35.719,800,28575.0,6,35.715,35.715,35.72,35.715,,0.0019354838709678154,hog,20200116
2020-01-16,11:04,11:04 AM,35.745,35.745,35.745,100,3574.5,1,35.745,35.73,35.737,1581,56500.945,12,35.745,35.745,35.73,35.745,,0.002440392706872463,hog,20200116
2020-01-16,11:05,11:05 AM,,,,0,0.0,0,35.758,35.73,35.754,700,25027.68,2,,,35.758,35.73,,0.002917251051893386,hog,20200116
2020-01-16,11:06,11:06 AM,35.72,35.72,35.72,49,1750.28,1,35.74,35.71,35.725,2157,77059.1675,18,35.72,35.72,35.74,35.74,,0.0021037868162693645,hog,20200116
2020-01-16,11:07,11:07 AM,,,,0,0.0,0,35.73,35.71,35.717,1000,35717.0,10,,,35.73,35.71,,0.0018793828892005658,hog,20200116
2020-01-16,11:08,11:08 AM,35.695,35.695,35.695,100,3569.5,1,35.7,35.695,35.697,200,7139.5,2,35.695,35.695,35.695,35.7,,0.0013183730715288682,hog,20200116
2020-01-16,11:09,11:09 AM,,,,0,0.0,0,35.69,35.675,35.682,700,24977.5,6,,,35.69,35.68,,0.0008976157082749953,hog,20200116
2020-01-16,11:10,11:10 AM,35.71,35.695,35.7,202,7211.42,4,35.71,35.69,35.703,1000,35703.0,10,35.695,35.71,35.69,35.71,,0.0014866760168304174,hog,20200116
2020-01-16,11:11,11:11 AM,,,,0,0.0,0,35.7,35.7,35.7,200,7140.0,2,,,35.7,35.7,,0.0014025245441796428,hog,20200116
2020-01-16,11:12,11:12 AM,,,,0,0.0,0,35.67,35.636,35.652,1585,56508.57,13,,,35.67,35.65,,5.610098176724949e-05,hog,20200116
2020-01-16,11:13,11:13 AM,,,,0,0.0,0,35.655,35.64,35.648,300,10694.5,3,,,35.655,35.64,,-5.610098176705018e-05,hog,20200116
2020-01-16,11:14,11:14 AM,35.66,35.66,35.66,100,3566.0,1,35.66,35.64,35.648,900,32083.0,5,35.66,35.66,35.65,35.66,,-5.610098176705018e-05,hog,20200116
2020-01-16,11:15,11:15 AM,35.67,35.66,35.665,200,7133.0,2,35.67,35.65,35.663,501,17867.165,5,35.66,35.67,35.65,35.67,,0.0003646563814866234,hog,20200116
2020-01-16,11:16,11:16 AM,,,,0,0.0,0,35.66,35.65,35.653,750,26739.5,7,,,35.65,35.65,,8.415147265077459e-05,hog,20200116
2020-01-16,11:17,11:17 AM,,,,0,0.0,0,35.685,35.675,35.68,200,7136.0,2,,,35.685,35.675,,0.0008415147265077458,hog,20200116
2020-01-16,11:18,11:18 AM,35.695,35.695,35.695,200,7139.0,2,35.695,35.672,35.678,691,24653.8538,3,35.695,35.695,35.672,35.695,,0.0007854137447404963,hog,20200116
2020-01-16,11:19,11:19 AM,35.7,35.7,35.7,200,7140.0,2,35.701,35.67,35.69,2301,82121.8313,18,35.7,35.7,35.7,35.67,,0.0011220196353435947,hog,20200116
2020-01-16,11:20,11:20 AM,,,,0,0.0,0,35.66,35.66,35.66,510,18186.6,1,,,35.66,35.66,,0.0002805049088358488,hog,20200116
2020-01-16,11:21,11:21 AM,,,,0,0.0,0,35.68,35.64,35.656,1092,38936.12,10,,,35.68,35.64,,0.00016830294530154917,hog,20200116
2020-01-16,11:22,11:22 AM,35.66,35.65,35.655,200,7131.0,2,35.67,35.65,35.658,2803,99949.8388,20,35.66,35.65,35.65,35.65,,0.00022440392706879865,hog,20200116
2020-01-16,11:23,11:23 AM,35.65,35.645,35.647,300,10694.0,3,35.65,35.64,35.644,1456,51898.198,8,35.645,35.65,35.64,35.645,,-0.00016830294530154917,hog,20200116
2020-01-16,11:24,11:24 AM,35.69,35.67,35.68,200,7136.0,2,35.695,35.62,35.648,9267,330348.035,44,35.67,35.69,35.65,35.65,,-5.610098176705018e-05,hog,20200116
2020-01-16,11:25,11:25 AM,35.69,35.69,35.69,100,3569.0,1,35.7,35.64,35.676,1182,42168.74,9,35.69,35.69,35.64,35.7,,0.0007293127629734461,hog,20200116
2020-01-16,11:26,11:26 AM,,,,0,0.0,0,35.7,35.69,35.698,621,22168.49,5,,,35.7,35.7,,0.0013464235624123934,hog,20200116
2020-01-16,11:27,11:27 AM,,,,0,0.0,0,35.7,35.64,35.67,2546,90817.24,22,,,35.7,35.66,,0.000561009817671897,hog,20200116
2020-01-16,11:28,11:28 AM,,,,0,0.0,0,35.695,35.64,35.668,800,28534.5,8,,,35.65,35.695,,0.0005049088359046475,hog,20200116
2020-01-16,11:29,11:29 AM,,,,0,0.0,0,35.71,35.7,35.707,643,22959.672,5,,,35.704,35.71,,0.001598877980364717,hog,20200116
2020-01-16,11:30,11:30 AM,,,,0,0.0,0,35.75,35.71,35.736,1000,35736.54,8,,,35.71,35.73,,0.0024123422159887387,hog,20200116
2020-01-16,11:31,11:31 AM,35.735,35.735,35.735,1,35.735,1,35.75,35.735,35.74,1808,64618.49,17,35.735,35.735,35.74,35.735,,0.0025245441795232375,hog,20200116
2020-01-16,11:32,11:32 AM,35.72,35.72,35.72,1,35.72,1,35.74,35.71,35.729,1597,57058.81,11,35.72,35.72,35.74,35.71,,0.0022159887798036642,hog,20200116
2020-01-16,11:33,11:33 AM,35.73,35.71,35.71,181,6463.59,5,35.73,35.71,35.714,673,24035.83,5,35.72,35.73,35.71,35.73,,0.0017952314165497912,hog,20200116
2020-01-16,11:34,11:34 AM,,,,0,0.0,0,35.77,35.755,35.76,1200,42912.5,10,,,35.755,35.76,,0.003085553997194935,hog,20200116
2020-01-16,11:35,11:35 AM,,,,0,0.0,0,35.755,35.74,35.748,300,10724.5,3,,,35.74,35.75,,0.0027489481065918367,hog,20200116
2020-01-16,11:36,11:36 AM,35.74,35.74,35.74,85,3037.9,1,35.76,35.74,35.751,1600,57202.0,14,35.74,35.74,35.74,35.76,,0.0028330995792426113,hog,20200116
2020-01-16,11:37,11:37 AM,,,,0,0.0,0,35.775,35.775,35.775,100,3577.5,1,,,35.775,35.775,,0.003506311360448808,hog,20200116
2020-01-16,11:38,11:38 AM,,,,0,0.0,0,35.78,35.77,35.773,900,32196.0,6,,,35.77,35.78,,0.003450210378681758,hog,20200116
2020-01-16,11:39,11:39 AM,,,,0,0.0,0,35.785,35.785,35.785,100,3578.5,1,,,35.785,35.785,,0.0037868162692846568,hog,20200116
2020-01-16,11:40,11:40 AM,,,,0,0.0,0,35.79,35.785,35.788,200,7157.5,2,,,35.785,35.79,,0.0038709677419354314,hog,20200116
2020-01-16,11:41,11:41 AM,35.79,35.78,35.789,115,4115.7,2,35.8,35.78,35.79,2051,73405.084,10,35.78,35.79,35.796,35.79,,0.003927068723702681,hog,20200116
2020-01-16,11:42,11:42 AM,35.79,35.78,35.789,220,7873.6,3,35.79,35.75,35.776,2400,85862.16,20,35.78,35.79,35.79,35.75,,0.0035343618513325324,hog,20200116
2020-01-16,11:43,11:43 AM,35.75,35.745,35.75,201,7185.745,3,35.76,35.75,35.752,1617,57810.75,14,35.745,35.75,35.75,35.75,,0.0028611500701263355,hog,20200116
2020-01-16,11:44,11:44 AM,,,,0,0.0,0,35.75,35.74,35.745,200,7149.0,2,,,35.74,35.75,,0.002664796633941062,hog,20200116
2020-01-16,11:45,11:45 AM,,,,0,0.0,0,35.76,35.73,35.744,1042,37245.5,9,,,35.76,35.75,,0.0026367461430575373,hog,20200116
2020-01-16,11:46,11:46 AM,,,,0,0.0,0,35.755,35.74,35.741,1100,39315.5,10,,,35.755,35.74,,0.0025525946704067627,hog,20200116
2020-01-16,11:47,11:47 AM,,,,0,0.0,0,35.75,35.75,35.75,200,7150.0,2,,,35.75,35.75,,0.002805049088359086,hog,20200116
2020-01-16,11:48,11:48 AM,,,,0,0.0,0,35.75,35.75,35.75,200,7150.0,2,,,35.75,35.75,,0.002805049088359086,hog,20200116
2020-01-16,11:49,11:49 AM,,,,0,0.0,0,,,,0,0.0,0,,,,,,,hog,20200116
2020-01-16,11:50,11:50 AM,35.765,35.755,35.763,120,4291.61,3,35.77,35.75,35.761,2381,85147.28,16,35.755,35.765,35.75,35.765,,0.0031136044880786594,hog,20200116
2020-01-16,11:51,11:51 AM,,,,0,0.0,0,35.77,35.77,35.77,113,4042.01,1,,,35.77,35.77,,0.003366058906030983,hog,20200116
2020-01-16,11:52,11:52 AM,35.755,35.755,35.755,100,3575.5,1,35.77,35.73,35.749,3773,134881.64,26,35.755,35.755,35.76,35.73,,0.0027769985974755614,hog,20200116
2020-01-16,11:53,11:53 AM,35.73,35.73,35.73,100,3573.0,1,35.73,35.72,35.727,1000,35727.0,5,35.73,35.73,35.73,35.73,,0.002159887798036415,hog,20200116
2020-01-16,11:54,11:54 AM,,,,0,0.0,0,35.74,35.72,35.73,300,10719.0,3,,,35.72,35.74,,0.0022440392706871894,hog,20200116
2020-01-16,11:55,11:55 AM,,,,0,0.0,0,35.74,35.71,35.724,1600,57159.0,12,,,35.72,35.74,,0.00207573632538564,hog,20200116
2020-01-16,11:56,11:56 AM,35.75,35.75,35.75,1,35.75,1,35.75,35.74,35.743,1000,35743.0,10,35.75,35.75,35.75,35.75,,0.002608695652174012,hog,20200116
2020-01-16,11:57,11:57 AM,,,,0,0.0,0,35.75,35.73,35.738,1172,41884.78,9,,,35.75,35.735,,0.002468443197755988,hog,20200116
2020-01-16,11:58,11:58 AM,,,,0,0.0,0,35.73,35.72,35.728,1200,42874.0,11,,,35.73,35.73,,0.002187938288920139,hog,20200116
2020-01-16,11:59,11:59 AM,35.73,35.73,35.73,22,786.06,1,35.73,35.725,35.728,896,32012.58,8,35.73,35.73,35.73,35.725,,0.002187938288920139,hog,20200116
2020-01-16,12:00,12 PM,35.725,35.725,35.725,100,3572.5,1,35.73,35.71,35.721,3060,109306.2,26,35.725,35.725,35.725,35.73,,0.0019915848527348656,hog,20200116
2020-01-16,12:01,12:01 PM,,,,0,0.0,0,35.73,35.73,35.73,300,10719.0,3,,,35.73,35.73,,0.0022440392706871894,hog,20200116
2020-01-16,12:02,12:02 PM,,,,0,0.0,0,35.738,35.73,35.736,1133,40489.554,3,,,35.73,35.73,,0.0024123422159887387,hog,20200116
2020-01-16,12:03,12:03 PM,35.73,35.66,35.692,300,10707.5,3,35.73,35.64,35.693,8002,285612.9,62,35.73,35.66,35.73,35.64,,0.0012061711079943693,hog,20200116
2020-01-16,12:04,12:04 PM,35.65,35.65,35.65,100,3565.0,1,35.67,35.64,35.654,1565,55798.5355,13,35.65,35.65,35.64,35.67,,0.00011220196353449898,hog,20200116
2020-01-16,12:05,12:05 PM,,,,0,0.0,0,35.7,35.675,35.683,820,29260.1,7,,,35.675,35.7,,0.0009256661991585204,hog,20200116
2020-01-16,12:06,12:06 PM,35.705,35.7,35.703,200,7140.5,2,35.72,35.695,35.713,2800,99995.5,9,35.705,35.7,35.705,35.72,,0.0017671809256662662,hog,20200116
2020-01-16,12:07,12:07 PM,35.71,35.71,35.71,22,785.62,1,35.72,35.705,35.712,1100,39283.5,10,35.71,35.71,35.72,35.71,,0.001739130434782741,hog,20200116
2020-01-16,12:08,12:08 PM,35.7,35.7,35.7,100,3570.0,1,35.705,35.68,35.697,2219,79210.8,18,35.7,35.7,35.7,35.68,,0.0013183730715288682,hog,20200116
2020-01-16,12:09,12:09 PM,,,,0,0.0,0,35.69,35.67,35.677,300,10703.0,2,,,35.69,35.67,,0.0007573632538569712,hog,20200116
2020-01-16,12:10,12:10 PM,35.66,35.66,35.66,18,641.88,1,35.67,35.655,35.665,1440,51358.3,11,35.66,35.66,35.67,35.655,,0.0004207573632538729,hog,20200116
2020-01-16,12:11,12:11 PM,,,,0,0.0,0,35.65,35.65,35.65,600,21390.0,5,,,35.65,35.65,,0.0,hog,20200116
2020-01-16,12:12,12:12 PM,,,,0,0.0,0,35.66,35.65,35.652,500,17826.0,5,,,35.65,35.65,,5.610098176724949e-05,hog,20200116
2020-01-16,12:13,12:13 PM,35.645,35.635,35.642,3,106.925,2,35.65,35.64,35.648,1249,44524.85,12,35.645,35.635,35.65,35.64,,-5.610098176705018e-05,hog,20200116
2020-01-16,12:14,12:14 PM,35.675,35.67,35.672,10,356.72,8,35.68,35.65,35.665,2500,89162.0,22,35.675,35.675,35.65,35.67,,0.0004207573632538729,hog,20200116
2020-01-16,12:15,12:15 PM,35.675,35.67,35.67,99,3531.335,5,35.675,35.675,35.675,100,3567.5,1,35.675,35.67,35.675,35.675,,0.0007012622720897218,hog,20200116
2020-01-16,12:16,12:16 PM,35.665,35.665,35.665,1,35.665,1,35.675,35.67,35.67,1392,49653.14,9,35.665,35.665,35.675,35.67,,0.000561009817671897,hog,20200116
2020-01-16,12:17,12:17 PM,35.705,35.7,35.702,45,1606.61,8,35.719,35.68,35.703,3373,120427.9444,22,35.7,35.705,35.68,35.705,,0.0014866760168304174,hog,20200116
2020-01-16,12:18,12:18 PM,,,,0,0.0,0,35.7,35.7,35.7,300,10710.0,3,,,35.7,35.7,,0.0014025245441796428,hog,20200116
2020-01-16,12:19,12:19 PM,35.695,35.685,35.694,115,4104.775,2,35.695,35.69,35.691,1876,66955.94,14,35.695,35.685,35.695,35.69,,0.001150070126227319,hog,20200116
2020-01-16,12:20,12:20 PM,35.7,35.685,35.692,201,7174.185,3,35.7,35.685,35.695,700,24986.5,6,35.685,35.7,35.685,35.7,,0.0012622720897616188,hog,20200116
2020-01-16,12:21,12:21 PM,35.7,35.7,35.7,15,535.5,1,35.71,35.69,35.693,3166,113002.58,18,35.7,35.7,35.71,35.695,,0.0012061711079943693,hog,20200116
2020-01-16,12:22,12:22 PM,,,,0,0.0,0,35.7,35.69,35.697,1800,64254.5,15,,,35.695,35.7,,0.0013183730715288682,hog,20200116
2020-01-16,12:23,12:23 PM,,,,0,0.0,0,35.735,35.71,35.719,1330,47506.8,6,,,35.71,35.735,,0.0019354838709678154,hog,20200116
2020-01-16,12:24,12:24 PM,35.77,35.75,35.763,7,250.34,3,35.77,35.745,35.752,4278,152946.0,29,35.75,35.77,35.75,35.77,,0.0028611500701263355,hog,20200116
2020-01-16,12:25,12:25 PM,35.82,35.78,35.803,180,6444.62,17,35.82,35.78,35.796,5113,183026.28,38,35.78,35.82,35.78,35.81,,0.00409537166900423,hog,20200116
2020-01-16,12:26,12:26 PM,35.82,35.795,35.819,141,5050.47,9,35.83,35.79,35.813,5055,181033.24,32,35.82,35.795,35.826,35.79,,0.004572230014025352,hog,20200116
2020-01-16,12:27,12:27 PM,35.79,35.785,35.787,207,7407.995,3,35.79,35.785,35.789,1100,39367.5,11,35.785,35.785,35.785,35.79,,0.0038990182328191556,hog,20200116
2020-01-16,12:28,12:28 PM,35.85,35.81,35.84,201,7203.81,3,35.855,35.79,35.822,8381,300222.04,47,35.81,35.85,35.8,35.855,,0.004824684431977676,hog,20200116
2020-01-16,12:29,12:29 PM,,,,0,0.0,0,35.85,35.84,35.849,1981,71016.85,14,,,35.85,35.85,,0.005582047685834448,hog,20200116
2020-01-16,12:30,12:30 PM,,,,0,0.0,0,35.86,35.85,35.852,500,17926.0,5,,,35.85,35.86,,0.005666199158485223,hog,20200116
2020-01-16,12:31,12:31 PM,35.875,35.875,35.875,100,3587.5,1,35.88,35.87,35.875,500,17937.5,5,35.875,35.875,35.87,35.875,,0.006311360448807894,hog,20200116
2020-01-16,12:32,12:32 PM,,,,0,0.0,0,35.89,35.88,35.883,600,21529.5,6,,,35.88,35.89,,0.006535764375876693,hog,20200116
2020-01-16,12:33,12:33 PM,35.885,35.885,35.885,100,3588.5,1,35.89,35.88,35.883,1050,37677.245,8,35.885,35.885,35.88,35.885,,0.006535764375876693,hog,20200116
2020-01-16,12:34,12:34 PM,35.88,35.88,35.88,1,35.88,1,35.895,35.88,35.887,617,22142.13,6,35.88,35.88,35.88,35.895,,0.006647966339410992,hog,20200116
2020-01-16,12:35,12:35 PM,35.87,35.87,35.87,31,1111.97,1,35.9,35.85,35.88,3612,129600.0115,23,35.87,35.87,35.9,35.85,,0.006451612903225918,hog,20200116
2020-01-16,12:36,12:36 PM,35.84,35.84,35.84,1,35.84,1,35.855,35.829,35.843,942,33764.2249,8,35.84,35.84,35.855,35.829,,0.005413744740533098,hog,20200116
2020-01-16,12:37,12:37 PM,35.805,35.805,35.805,100,3580.5,1,35.82,35.77,35.806,1300,46548.0,13,35.805,35.805,35.82,35.77,,0.004375876577840079,hog,20200116
2020-01-16,12:38,12:38 PM,,,,0,0.0,0,35.785,35.76,35.771,503,17992.855,4,,,35.785,35.77,,0.0033941093969145084,hog,20200116
2020-01-16,12:39,12:39 PM,35.79,35.79,35.79,100,3579.0,1,35.79,35.77,35.783,1200,42940.0,11,35.79,35.79,35.77,35.78,,0.003730715287517607,hog,20200116
2020-01-16,12:40,12:40 PM,,,,0,0.0,0,35.785,35.78,35.781,782,27980.46,6,,,35.78,35.78,,0.003674614305750357,hog,20200116
2020-01-16,12:41,12:41 PM,35.78,35.78,35.78,1,35.78,1,35.775,35.775,35.775,100,3577.5,1,35.78,35.78,35.775,35.775,,0.003506311360448808,hog,20200116
2020-01-16,12:42,12:42 PM,,,,0,0.0,0,35.79,35.775,35.781,700,25046.5,7,,,35.775,35.79,,0.003674614305750357,hog,20200116
2020-01-16,12:43,12:43 PM,35.785,35.785,35.785,100,3578.5,1,35.8,35.78,35.794,939,33610.7,8,35.785,35.785,35.8,35.78,,0.00403927068723698,hog,20200116
2020-01-16,12:44,12:44 PM,,,,0,0.0,0,,,,0,0.0,0,,,,,,,hog,20200116
2020-01-16,12:45,12:45 PM,,,,0,0.0,0,35.8,35.78,35.788,1001,35824.285,9,,,35.78,35.795,,0.0038709677419354314,hog,20200116
2020-01-16,12:46,12:46 PM,35.795,35.795,35.795,100,3579.5,1,35.8,35.79,35.793,808,28920.82,6,35.795,35.795,35.79,35.8,,0.004011220196353455,hog,20200116
2020-01-16,12:47,12:47 PM,,,,0,0.0,0,35.81,35.81,35.81,100,3581.0,1,,,35.81,35.81,,0.0044880785413745775,hog,20200116
2020-01-16,12:48,12:48 PM,,,,0,0.0,0,35.815,35.81,35.811,685,24530.35,5,,,35.81,35.81,,0.004516129032258103,hog,20200116
2020-01-16,12:49,12:49 PM,,,,0,0.0,0,35.81,35.8,35.803,400,14321.0,4,,,35.81,35.8,,0.004291725105189304,hog,20200116
2020-01-16,12:50,12:50 PM,35.795,35.795,35.795,32,1145.44,2,35.8,35.785,35.796,639,22873.7,6,35.795,35.795,35.8,35.785,,0.00409537166900423,hog,20200116
2020-01-16,12:51,12:51 PM,,,,0,0.0,0,35.795,35.78,35.788,300,10736.5,3,,,35.78,35.795,,0.0038709677419354314,hog,20200116
2020-01-16,12:52,12:52 PM,,,,0,0.0,0,35.79,35.79,35.79,300,10737.0,3,,,35.79,35.79,,0.003927068723702681,hog,20200116
2020-01-16,12:53,12:53 PM,35.785,35.785,35.785,100,3578.5,1,35.785,35.785,35.785,100,3578.5,1,35.785,35.785,35.785,35.785,,0.0037868162692846568,hog,20200116
2020-01-16,12:54,12:54 PM,,,,0,0.0,0,35.79,35.784,35.786,443,15853.0606,3,,,35.79,35.784,,0.003814866760168381,hog,20200116
2020-01-16,12:55,12:55 PM,,,,0,0.0,0,35.79,35.79,35.79,500,17895.0,5,,,35.79,35.79,,0.003927068723702681,hog,20200116
2020-01-16,12:56,12:56 PM,,,,0,0.0,0,35.805,35.799,35.8,1025,36695.4,9,,,35.8,35.799,,0.004207573632538529,hog,20200116
2020-01-16,12:57,12:57 PM,,,,0,0.0,0,35.82,35.81,35.813,800,28650.5,8,,,35.81,35.81,,0.004572230014025352,hog,20200116
2020-01-16,12:58,12:58 PM,,,,0,0.0,0,35.815,35.804,35.809,976,34949.92,8,,,35.815,35.804,,0.004460028050490853,hog,20200116
2020-01-16,12:59,12:59 PM,,,,0,0.0,0,35.8,35.79,35.797,944,33792.395,7,,,35.8,35.79,,0.004123422159887755,hog,20200116
2020-01-16,13:00,1 PM,35.79,35.785,35.789,400,14315.5,4,35.79,35.775,35.782,1372,49093.66,13,35.785,35.79,35.785,35.775,,0.003702664796633882,hog,20200116
2020-01-16,13:01,1:01 PM,35.785,35.785,35.785,2,71.57,1,35.78,35.78,35.78,301,10769.78,3,35.785,35.785,35.78,35.78,,0.0036465638148668322,hog,20200116
2020-01-16,13:02,1:02 PM,35.79,35.775,35.783,390,13955.595,4,35.79,35.77,35.782,2086,74640.44,14,35.79,35.785,35.79,35.77,,0.003702664796633882,hog,20200116
2020-01-16,13:03,1:03 PM,35.825,35.795,35.815,13,465.595,11,35.815,35.79,35.796,400,14318.5,3,35.795,35.825,35.79,35.815,,0.00409537166900423,hog,20200116
2020-01-16,13:04,1:04 PM,35.825,35.815,35.82,210,7522.24,12,35.825,35.81,35.816,1790,64109.8,13,35.825,35.815,35.82,35.81,,0.004656381486676127,hog,20200116
2020-01-16,13:05,1:05 PM,35.835,35.825,35.835,101,3619.325,2,35.835,35.83,35.831,320,11466.1,3,35.825,35.835,35.83,35.835,,0.00507713884993,hog,20200116
2020-01-16,13:06,1:06 PM,,,,0,0.0,0,35.83,35.83,35.83,100,3583.0,1,,,35.83,35.83,,0.0050490883590462755,hog,20200116
2020-01-16,13:07,1:07 PM,35.845,35.845,35.845,300,10753.5,3,35.86,35.84,35.846,901,32297.34,9,35.845,35.845,35.84,35.86,,0.005497896213183673,hog,20200116
2020-01-16,13:08,1:08 PM,,,,0,0.0,0,,,,0,0.0,0,,,,,,,hog,20200116
2020-01-16,13:09,1:09 PM,,,,0,0.0,0,35.88,35.88,35.88,100,3588.0,1,,,35.88,35.88,,0.006451612903225918,hog,20200116
2020-01-16,13:10,1:10 PM,35.865,35.865,35.865,13,466.245,2,35.87,35.86,35.862,1687,60499.82,12,35.865,35.865,35.87,35.86,,0.005946704067321271,hog,20200116
2020-01-16,13:11,1:11 PM,35.86,35.84,35.843,37,1326.21,3,35.855,35.84,35.849,1062,38071.7,10,35.86,35.84,35.855,35.84,,0.005582047685834448,hog,20200116
2020-01-16,13:12,1:12 PM,35.82,35.82,35.82,80,2865.6,1,35.83,35.82,35.822,1240,44419.93,12,35.82,35.82,35.83,35.82,,0.004824684431977676,hog,20200116
2020-01-16,13:13,1:13 PM,,,,0,0.0,0,35.83,35.83,35.83,100,3583.0,1,,,35.83,35.83,,0.0050490883590462755,hog,20200116
2020-01-16,13:14,1:14 PM,,,,0,0.0,0,35.82,35.81,35.818,400,14327.0,4,,,35.82,35.82,,0.004712482468443177,hog,20200116
2020-01-16,13:15,1:15 PM,,,,0,0.0,0,35.825,35.82,35.822,301,10782.32,3,,,35.82,35.825,,0.004824684431977676,hog,20200116
2020-01-16,13:16,1:16 PM,,,,0,0.0,0,35.835,35.83,35.832,1531,54858.3714,10,,,35.83,35.834,,0.005105189340813525,hog,20200116
2020-01-16,13:17,1:17 PM,,,,0,0.0,0,35.825,35.82,35.822,600,21493.35,6,,,35.824,35.82,,0.004824684431977676,hog,20200116
2020-01-16,13:18,1:18 PM,35.825,35.825,35.825,2,71.65,1,35.825,35.82,35.824,425,15225.125,2,35.825,35.825,35.825,35.82,,0.004880785413744726,hog,20200116
2020-01-16,13:19,1:19 PM,35.825,35.825,35.825,101,3618.325,2,35.825,35.825,35.825,100,3582.5,1,35.825,35.825,35.825,35.825,,0.0049088359046284506,hog,20200116
2020-01-16,13:20,1:20 PM,35.835,35.825,35.835,101,3619.325,2,35.835,35.82,35.829,900,32246.0,8,35.825,35.835,35.82,35.835,,0.005021037868162751,hog,20200116
2020-01-16,13:21,1:21 PM,35.835,35.835,35.835,23,824.205,2,35.83,35.825,35.829,1118,40056.44,9,35.835,35.835,35.83,35.825,,0.005021037868162751,hog,20200116
2020-01-16,13:22,1:22 PM,,,,0,0.0,0,35.83,35.83,35.83,500,17915.0,5,,,35.83,35.83,,0.0050490883590462755,hog,20200116
2020-01-16,13:23,1:23 PM,35.86,35.84,35.86,102,3657.68,2,35.86,35.835,35.849,1200,43018.5,11,35.84,35.86,35.835,35.86,,0.005582047685834448,hog,20200116
2020-01-16,13:24,1:24 PM,,,,0,0.0,0,,,,0,0.0,0,,,,,,,hog,20200116
2020-01-16,13:25,1:25 PM,35.86,35.86,35.86,19,681.34,1,,,,0,0.0,0,35.86,35.86,,,,0.005890603085554022,hog,20200116
2020-01-16,13:26,1:26 PM,35.875,35.86,35.872,202,7246.215,5,35.875,35.86,35.868,500,17934.0,5,35.86,35.875,35.86,35.875,,0.00611500701262282,hog,20200116
2020-01-16,13:27,1:27 PM,35.89,35.875,35.881,17,609.98,5,35.88,35.88,35.88,312,11194.56,2,35.875,35.89,35.88,35.88,,0.006451612903225918,hog,20200116
2020-01-16,13:28,1:28 PM,35.9,35.89,35.899,29,1041.075,3,35.91,35.89,35.901,3307,118723.59,15,35.895,35.9,35.89,35.9,,0.007040673211781341,hog,20200116
2020-01-16,13:29,1:29 PM,35.9,35.9,35.9,125,4487.5,2,35.9,35.895,35.898,200,7179.5,2,35.9,35.9,35.9,35.895,,0.006956521739130566,hog,20200116
2020-01-16,13:30,1:30 PM,35.9,35.9,35.9,2,71.8,2,35.89,35.89,35.89,2220,79675.8,16,35.9,35.9,35.89,35.89,,0.006732117812061767,hog,20200116
2020-01-16,13:31,1:31 PM,35.89,35.89,35.89,100,3589.0,1,35.89,35.889,35.889,600,21533.55,2,35.89,35.89,35.889,35.89,,0.006704067321178242,hog,20200116
2020-01-16,13:32,1:32 PM,,,,0,0.0,0,35.885,35.87,35.878,2250,80726.0,15,,,35.88,35.885,,0.0063955119214586685,hog,20200116
2020-01-16,13:33,1:33 PM,35.925,35.92,35.922,200,7184.5,2,35.94,35.91,35.917,1400,50283.5,10,35.92,35.925,35.91,35.93,,0.0074894810659187384,hog,20200116
2020-01-16,13:34,1:34 PM,35.92,35.92,35.92,1,35.92,1,35.95,35.93,35.938,2234,80285.46,20,35.92,35.92,35.95,35.93,,0.00807854137447416,hog,20200116
2020-01-16,13:35,1:35 PM,35.88,35.88,35.88,100,3588.0,1,35.9,35.88,35.884,700,25119.0,7,35.88,35.88,35.9,35.88,,0.006563814866760218,hog,20200116
2020-01-16,13:36,1:36 PM,,,,0,0.0,0,35.923,35.91,35.919,446,16019.8432,3,,,35.91,35.919,,0.007545582047685789,hog,20200116
2020-01-16,13:37,1:37 PM,,,,0,0.0,0,35.92,35.92,35.92,200,7184.0,2,,,35.92,35.92,,0.007573632538569513,hog,20200116
2020-01-16,13:38,1:38 PM,,,,0,0.0,0,35.93,35.93,35.93,100,3593.0,1,,,35.93,35.93,,0.007854137447405362,hog,20200116
2020-01-16,13:39,1:39 PM,,,,0,0.0,0,35.93,35.93,35.93,100,3593.0,1,,,35.93,35.93,,0.007854137447405362,hog,20200116
2020-01-16,13:40,1:40 PM,35.93,35.92,35.925,85,3053.62,2,35.94,35.92,35.932,3343,120119.73,26,35.92,35.93,35.92,35.93,,0.00791023842917261,hog,20200116
2020-01-16,13:41,1:41 PM,,,,0,0.0,0,35.935,35.93,35.931,987,35463.91,9,,,35.93,35.93,,0.007882187938288886,hog,20200116
2020-01-16,13:42,1:42 PM,,,,0,0.0,0,35.92,35.92,35.92,300,10776.0,3,,,35.92,35.92,,0.007573632538569513,hog,20200116
2020-01-16,13:43,1:43 PM,35.91,35.91,35.91,100,3591.0,1,35.91,35.89,35.905,1823,65454.3342,15,35.91,35.91,35.91,35.91,,0.00715287517531564,hog,20200116
2020-01-16,13:44,1:44 PM,,,,0,0.0,0,35.92,35.92,35.92,100,3592.0,1,,,35.92,35.92,,0.007573632538569513,hog,20200116
2020-01-16,13:45,1:45 PM,,,,0,0.0,0,35.91,35.91,35.91,1183,42481.53,8,,,35.91,35.91,,0.007293127629733465,hog,20200116
2020-01-16,13:46,1:46 PM,,,,0,0.0,0,35.91,35.91,35.91,100,3591.0,1,,,35.91,35.91,,0.007293127629733465,hog,20200116
2020-01-16,13:47,1:47 PM,35.935,35.935,35.935,1,35.935,1,35.94,35.92,35.925,738,26512.46,6,35.935,35.935,35.92,35.94,,0.007713884992987338,hog,20200116
2020-01-16,13:48,1:48 PM,35.955,35.95,35.953,6,215.715,5,35.96,35.94,35.948,735,26421.9,7,35.95,35.955,35.94,35.955,,0.00835904628331001,hog,20200116
2020-01-16,13:49,1:49 PM,35.955,35.94,35.952,408,14668.56,7,35.955,35.94,35.95,1534,55146.765,11,35.955,35.94,35.95,35.945,,0.008415147265077258,hog,20200116
2020-01-16,13:50,1:50 PM,,,,0,0.0,0,35.945,35.94,35.943,214,7691.73,2,,,35.945,35.94,,0.008218793828891985,hog,20200116
2020-01-16,13:51,1:51 PM,35.94,35.94,35.94,100,3594.0,1,35.95,35.94,35.944,1690,60744.9,7,35.94,35.94,35.945,35.94,,0.008246844319775709,hog,20200116
2020-01-16,13:52,1:52 PM,,,,0,0.0,0,35.93,35.93,35.93,200,7186.0,2,,,35.93,35.93,,0.007854137447405362,hog,20200116
2020-01-16,13:53,1:53 PM,35.925,35.925,35.925,2,71.85,2,35.93,35.91,35.926,991,35602.52,9,35.925,35.925,35.93,35.91,,0.007741935483871062,hog,20200116
2020-01-16,13:54,1:54 PM,,,,0,0.0,0,35.905,35.9,35.901,526,18884.1748,5,,,35.902,35.9,,0.007040673211781341,hog,20200116
2020-01-16,13:55,1:55 PM,,,,0,0.0,0,,,,0,0.0,0,,,,,,,hog,20200116
2020-01-16,13:56,1:56 PM,35.885,35.885,35.885,37,1327.745,2,35.881,35.88,35.881,350,12558.275,2,35.885,35.885,35.88,35.881,,0.006479663394109443,hog,20200116
2020-01-16,13:57,1:57 PM,35.885,35.885,35.885,100,3588.5,1,35.885,35.865,35.878,1380,49511.4,10,35.885,35.885,35.885,35.865,,0.0063955119214586685,hog,20200116
2020-01-16,13:58,1:58 PM,,,,0,0.0,0,35.865,35.865,35.865,200,7173.0,2,,,35.865,35.865,,0.006030855539972045,hog,20200116
2020-01-16,13:59,1:59 PM,,,,0,0.0,0,35.87,35.87,35.87,100,3587.0,1,,,35.87,35.87,,0.00617110799438987,hog,20200116
2020-01-16,14:00,2 PM,35.87,35.865,35.868,7,251.08,2,35.86,35.86,35.86,980,35142.8,7,35.865,35.87,35.86,35.86,,0.005890603085554022,hog,20200116
2020-01-16,14:01,2:01 PM,,,,0,0.0,0,35.85,35.845,35.848,600,21509.0,5,,,35.85,35.845,,0.005553997194950923,hog,20200116
2020-01-16,14:02,2:02 PM,35.85,35.85,35.85,3,107.55,1,35.86,35.84,35.852,1414,50694.4,12,35.85,35.85,35.84,35.86,,0.005666199158485223,hog,20200116
2020-01-16,14:03,2:03 PM,35.86,35.85,35.85,188,6739.825,4,35.86,35.85,35.855,600,21513.0,3,35.85,35.855,35.85,35.85,,0.005750350631135997,hog,20200116
2020-01-16,14:04,2:04 PM,35.855,35.855,35.855,11,394.405,2,35.855,35.85,35.852,300,10755.5,3,35.855,35.855,35.85,35.855,,0.005666199158485223,hog,20200116
2020-01-16,14:05,2:05 PM,,,,0,0.0,0,35.87,35.86,35.862,500,17931.0,5,,,35.86,35.87,,0.005946704067321271,hog,20200116
2020-01-16,14:06,2:06 PM,35.865,35.865,35.865,1,35.865,1,,,,0,0.0,0,35.865,35.865,,,,0.006030855539972045,hog,20200116
2020-01-16,14:07,2:07 PM,35.855,35.855,35.855,1,35.855,1,35.86,35.835,35.848,3236,116003.53,18,35.855,35.855,35.86,35.835,,0.005553997194950923,hog,20200116
2020-01-16,14:08,2:08 PM,35.8,35.79,35.798,636,22767.8,6,35.82,35.79,35.805,5021,179777.335,35,35.8,35.79,35.82,35.799,,0.004347826086956554,hog,20200116
2020-01-16,14:09,2:09 PM,35.78,35.78,35.78,100,3578.0,1,35.79,35.77,35.783,2080,74428.2,20,35.78,35.78,35.79,35.79,,0.003730715287517607,hog,20200116
2020-01-16,14:10,2:10 PM,35.775,35.765,35.775,206,7369.59,4,35.78,35.77,35.771,1099,39312.72,9,35.775,35.775,35.775,35.77,,0.0033941093969145084,hog,20200116
2020-01-16,14:11,2:11 PM,35.78,35.775,35.777,246,8801.15,5,35.789,35.77,35.782,1743,62368.525,13,35.775,35.78,35.77,35.785,,0.003702664796633882,hog,20200116
2020-01-16,14:12,2:12 PM,35.785,35.775,35.777,26,930.21,3,35.79,35.77,35.78,3100,110918.3386,18,35.775,35.785,35.79,35.78,,0.0036465638148668322,hog,20200116
2020-01-16,14:13,2:13 PM,,,,0,0.0,0,35.79,35.78,35.782,607,21719.46,5,,,35.79,35.78,,0.003702664796633882,hog,20200116
2020-01-16,14:14,2:14 PM,35.785,35.785,35.785,2,71.57,1,35.795,35.775,35.787,1507,53931.065,12,35.785,35.785,35.775,35.795,,0.003842917251051906,hog,20200116
2020-01-16,14:15,2:15 PM,,,,0,0.0,0,35.81,35.795,35.803,400,14321.0,4,,,35.8,35.81,,0.004291725105189304,hog,20200116
2020-01-16,14:16,2:16 PM,35.815,35.815,35.815,100,3581.5,1,35.815,35.815,35.815,400,14326.0,4,35.815,35.815,35.815,35.815,,0.0046283309957924025,hog,20200116
2020-01-16,14:17,2:17 PM,,,,0,0.0,0,35.813,35.81,35.81,664,23778.09,3,,,35.81,35.813,,0.0044880785413745775,hog,20200116
2020-01-16,14:18,2:18 PM,,,,0,0.0,0,35.81,35.78,35.803,2314,82849.34,16,,,35.81,35.79,,0.004291725105189304,hog,20200116
2020-01-16,14:19,2:19 PM,,,,0,0.0,0,35.795,35.79,35.791,1437,51431.73,12,,,35.79,35.79,,0.003955119214586206,hog,20200116
2020-01-16,14:20,2:20 PM,,,,0,0.0,0,35.79,35.79,35.79,400,14316.0,4,,,35.79,35.79,,0.003927068723702681,hog,20200116
2020-01-16,14:21,2:21 PM,,,,0,0.0,0,35.785,35.77,35.775,2080,74412.5,11,,,35.781,35.77,,0.003506311360448808,hog,20200116
2020-01-16,14:22,2:22 PM,,,,0,0.0,0,35.77,35.76,35.765,400,14306.0,4,,,35.77,35.76,,0.003225806451612959,hog,20200116
2020-01-16,14:23,2:23 PM,35.755,35.755,35.755,1,35.755,1,35.76,35.75,35.758,2668,95403.18,15,35.755,35.755,35.76,35.75,,0.0030294530154278848,hog,20200116
2020-01-16,14:24,2:24 PM,,,,0,0.0,0,35.755,35.72,35.743,1174,41962.5,11,,,35.755,35.73,,0.002608695652174012,hog,20200116
2020-01-16,14:25,2:25 PM,,,,0,0.0,0,35.73,35.72,35.725,200,7144.99,2,,,35.72,35.73,,0.0021037868162693645,hog,20200116
2020-01-16,14:26,2:26 PM,35.75,35.725,35.749,54,1930.475,2,35.76,35.72,35.747,3531,126224.297,17,35.725,35.75,35.725,35.76,,0.0027208976157083115,hog,20200116
2020-01-16,14:27,2:27 PM,,,,0,0.0,0,35.77,35.76,35.768,649,23213.73,6,,,35.76,35.77,,0.0033099579242637338,hog,20200116
2020-01-16,14:28,2:28 PM,,,,0,0.0,0,35.76,35.74,35.75,3303,118083.405,28,,,35.76,35.74,,0.002805049088359086,hog,20200116
2020-01-16,14:29,2:29 PM,35.725,35.725,35.725,104,3715.4,3,35.733,35.72,35.731,2325,83075.17,10,35.725,35.725,35.73,35.725,,0.0022720897615709137,hog,20200116
2020-01-16,14:30,2:30 PM,35.72,35.72,35.72,1,35.72,1,35.725,35.71,35.718,1300,46433.0,12,35.72,35.72,35.72,35.71,,0.0019074333800842903,hog,20200116
2020-01-16,14:31,2:31 PM,,,,0,0.0,0,35.708,35.7,35.702,635,22670.526,2,,,35.7,35.708,,0.001458625525946693,hog,20200116
2020-01-16,14:32,2:32 PM,,,,0,0.0,0,35.705,35.7,35.703,700,24992.16,6,,,35.7,35.7,,0.0014866760168304174,hog,20200116
2020-01-16,14:33,2:33 PM,,,,0,0.0,0,35.7,35.68,35.694,1365,48722.5,11,,,35.7,35.69,,0.0012342215988780936,hog,20200116
2020-01-16,14:34,2:34 PM,,,,0,0.0,0,35.69,35.69,35.69,200,7138.0,2,,,35.69,35.69,,0.0011220196353435947,hog,20200116
2020-01-16,14:35,2:35 PM,,,,0,0.0,0,35.695,35.69,35.691,544,19415.86,3,,,35.69,35.695,,0.001150070126227319,hog,20200116
2020-01-16,14:36,2:36 PM,35.705,35.7,35.7,205,7318.525,3,35.705,35.69,35.7,1400,49979.5,14,35.705,35.7,35.69,35.7,,0.0014025245441796428,hog,20200116
2020-01-16,14:37,2:37 PM,35.71,35.69,35.691,29,1035.05,3,35.73,35.69,35.699,5366,191558.74,23,35.69,35.71,35.697,35.73,,0.0013744740532959183,hog,20200116
2020-01-16,14:38,2:38 PM,35.72,35.72,35.72,5,178.6,1,35.73,35.72,35.722,1198,42795.56,9,35.72,35.72,35.73,35.72,,0.00201963534361859,hog,20200116
2020-01-16,14:39,2:39 PM,,,,0,0.0,0,35.715,35.69,35.708,1700,60703.5,12,,,35.715,35.69,,0.0016269284712482422,hog,20200116
2020-01-16,14:40,2:40 PM,,,,0,0.0,0,35.71,35.7,35.706,1300,46418.0,12,,,35.7,35.71,,0.001570827489481192,hog,20200116
2020-01-16,14:41,2:41 PM,,,,0,0.0,0,35.73,35.715,35.72,600,21432.0,6,,,35.715,35.72,,0.0019635343618513404,hog,20200116
2020-01-16,14:42,2:42 PM,,,,0,0.0,0,35.71,35.71,35.71,1716,61278.36,13,,,35.71,35.71,,0.0016830294530154916,hog,20200116
2020-01-16,14:43,2:43 PM,35.71,35.71,35.71,100,3571.0,1,35.715,35.71,35.711,875,31247.2975,5,35.71,35.71,35.71,35.71,,0.0017110799438990168,hog,20200116
2020-01-16,14:44,2:44 PM,,,,0,0.0,0,35.71,35.69,35.707,4012,143257.1847,20,,,35.71,35.69,,0.001598877980364717,hog,20200116
2020-01-16,14:45,2:45 PM,,,,0,0.0,0,35.71,35.68,35.699,1185,42303.0,10,,,35.7,35.69,,0.0013744740532959183,hog,20200116
2020-01-16,14:46,2:46 PM,,,,0,0.0,0,35.69,35.69,35.69,100,3569.0,1,,,35.69,35.69,,0.0011220196353435947,hog,20200116
2020-01-16,14:47,2:47 PM,,,,0,0.0,0,35.7,35.695,35.697,200,7139.5,2,,,35.695,35.7,,0.0013183730715288682,hog,20200116
2020-01-16,14:48,2:48 PM,,,,0,0.0,0,35.7,35.695,35.697,200,7139.5,2,,,35.695,35.7,,0.0013183730715288682,hog,20200116
2020-01-16,14:49,2:49 PM,,,,0,0.0,0,,,,0,0.0,0,,,,,,,hog,20200116
2020-01-16,14:50,2:50 PM,35.695,35.695,35.695,1,35.695,1,35.7,35.7,35.7,306,10924.2,3,35.695,35.695,35.7,35.7,,0.0014025245441796428,hog,20200116
2020-01-16,14:51,2:51 PM,,,,0,0.0,0,35.705,35.7,35.704,499,17816.295,4,,,35.705,35.705,,0.0015147265077139424,hog,20200116
2020-01-16,14:52,2:52 PM,,,,0,0.0,0,,,,0,0.0,0,,,,,,,hog,20200116
2020-01-16,14:53,2:53 PM,35.705,35.705,35.705,100,3570.5,1,35.705,35.705,35.705,100,3570.5,1,35.705,35.705,35.705,35.705,,0.0015427769985974676,hog,20200116
2020-01-16,14:54,2:54 PM,35.705,35.705,35.705,200,7141.0,2,35.71,35.7,35.702,2100,74974.5,20,35.705,35.705,35.7,35.7,,0.001458625525946693,hog,20200116
2020-01-16,14:55,2:55 PM,,,,0,0.0,0,35.707,35.707,35.707,109,3892.0521,1,,,35.707,35.707,,0.001598877980364717,hog,20200116
2020-01-16,14:56,2:56 PM,35.725,35.72,35.721,254,9073.15,4,35.73,35.71,35.717,1375,49111.25,13,35.725,35.72,35.71,35.72,,0.0018793828892005658,hog,20200116
2020-01-16,14:57,2:57 PM,,,,0,0.0,0,35.73,35.725,35.727,600,21436.5,5,,,35.725,35.73,,0.002159887798036415,hog,20200116
2020-01-16,14:58,2:58 PM,35.74,35.74,35.74,199,7112.26,2,35.74,35.74,35.74,100,3574.0,1,35.74,35.74,35.74,35.74,,0.0025245441795232375,hog,20200116
2020-01-16,14:59,2:59 PM,35.725,35.725,35.725,60,2143.5,3,35.74,35.72,35.729,4333,154814.54,30,35.725,35.725,35.74,35.725,,0.0022159887798036642,hog,20200116
2020-01-16,15:00,3 PM,,,,0,0.0,0,35.76,35.72,35.727,1768,63164.875,16,,,35.72,35.76,,0.002159887798036415,hog,20200116
2020-01-16,15:01,3:01 PM,,,,0,0.0,0,35.765,35.76,35.762,1000,35762.0,9,,,35.76,35.765,,0.0031416549789621846,hog,20200116
2020-01-16,15:02,3:02 PM,,,,0,0.0,0,35.77,35.77,35.77,100,3577.0,1,,,35.77,35.77,,0.003366058906030983,hog,20200116
2020-01-16,15:03,3:03 PM,35.775,35.775,35.775,100,3577.5,1,35.78,35.764,35.77,1558,55729.7622,13,35.775,35.775,35.77,35.775,,0.003366058906030983,hog,20200116
2020-01-16,15:04,3:04 PM,,,,0,0.0,0,35.78,35.775,35.778,300,10733.49,3,,,35.78,35.78,,0.0035904628330995824,hog,20200116
2020-01-16,15:05,3:05 PM,,,,0,0.0,0,35.78,35.77,35.777,929,33236.9266,5,,,35.775,35.77,,0.0035624123422160576,hog,20200116
2020-01-16,15:06,3:06 PM,35.77,35.77,35.77,4,143.08,2,35.78,35.76,35.77,3307,118293.21,22,35.77,35.77,35.775,35.775,,0.003366058906030983,hog,20200116
2020-01-16,15:07,3:07 PM,35.775,35.775,35.775,1,35.775,1,35.78,35.77,35.776,1124,40212.748,4,35.775,35.775,35.77,35.777,,0.0035343618513325324,hog,20200116
2020-01-16,15:08,3:08 PM,35.775,35.775,35.775,4,143.1,3,,,,0,0.0,0,35.775,35.775,,,,0.003506311360448808,hog,20200116
2020-01-16,15:09,3:09 PM,35.775,35.775,35.775,26,930.15,26,35.77,35.77,35.77,100,3577.0,1,35.775,35.775,35.77,35.77,,0.003366058906030983,hog,20200116
2020-01-16,15:10,3:10 PM,,,,0,0.0,0,35.775,35.77,35.773,483,17278.41,4,,,35.775,35.775,,0.003450210378681758,hog,20200116
2020-01-16,15:11,3:11 PM,35.765,35.76,35.76,105,3754.82,5,35.77,35.75,35.761,1787,63904.49,15,35.765,35.76,35.77,35.755,,0.0031136044880786594,hog,20200116
2020-01-16,15:12,3:12 PM,35.75,35.75,35.75,3,107.25,1,35.755,35.75,35.754,400,14301.5,4,35.75,35.75,35.755,35.755,,0.002917251051893386,hog,20200116
2020-01-16,15:13,3:13 PM,35.755,35.755,35.755,100,3575.5,1,35.755,35.75,35.752,200,7150.5,2,35.755,35.755,35.75,35.755,,0.0028611500701263355,hog,20200116
2020-01-16,15:14,3:14 PM,35.75,35.735,35.747,201,7185.24,4,35.755,35.73,35.746,4218,150778.625,27,35.75,35.74,35.755,35.74,,0.0026928471248247867,hog,20200116
2020-01-16,15:15,3:15 PM,,,,0,0.0,0,35.74,35.735,35.737,200,7147.5,2,,,35.74,35.735,,0.002440392706872463,hog,20200116
2020-01-16,15:16,3:16 PM,,,,0,0.0,0,35.735,35.73,35.733,200,7146.5,2,,,35.735,35.73,,0.002328190743337964,hog,20200116
2020-01-16,15:17,3:17 PM,,,,0,0.0,0,35.74,35.73,35.735,638,22799.22,6,,,35.74,35.735,,0.0023842917251052135,hog,20200116
2020-01-16,15:18,3:18 PM,35.755,35.755,35.755,44,1573.22,1,35.76,35.74,35.748,2587,92480.02,20,35.755,35.755,35.74,35.76,,0.0027489481065918367,hog,20200116
2020-01-16,15:19,3:19 PM,35.755,35.755,35.755,100,3575.5,1,35.76,35.755,35.757,309,11049.0348,3,35.755,35.755,35.757,35.755,,0.0030014025245441605,hog,20200116
2020-01-16,15:20,3:20 PM,35.745,35.74,35.74,102,3645.49,2,35.755,35.71,35.74,4039,144356.19,36,35.745,35.74,35.75,35.72,,0.0025245441795232375,hog,20200116
2020-01-16,15:21,3:21 PM,,,,0,0.0,0,35.72,35.72,35.72,100,3572.0,1,,,35.72,35.72,,0.0019635343618513404,hog,20200116
2020-01-16,15:22,3:22 PM,,,,0,0.0,0,35.72,35.72,35.72,686,24503.92,6,,,35.72,35.72,,0.0019635343618513404,hog,20200116
2020-01-16,15:23,3:23 PM,,,,0,0.0,0,35.73,35.72,35.722,400,14289.0,4,,,35.73,35.72,,0.00201963534361859,hog,20200116
2020-01-16,15:24,3:24 PM,35.72,35.72,35.72,3,107.16,1,35.72,35.72,35.72,100,3572.0,1,35.72,35.72,35.72,35.72,,0.0019635343618513404,hog,20200116
2020-01-16,15:25,3:25 PM,35.715,35.715,35.715,1,35.715,1,35.725,35.71,35.719,799,28539.78,6,35.715,35.715,35.725,35.71,,0.0019354838709678154,hog,20200116
2020-01-16,15:26,3:26 PM,35.705,35.705,35.705,1,35.705,1,35.725,35.71,35.713,975,34820.25,8,35.705,35.705,35.71,35.725,,0.0017671809256662662,hog,20200116
2020-01-16,15:27,3:27 PM,,,,0,0.0,0,35.726,35.72,35.724,400,14289.6,4,,,35.725,35.72,,0.00207573632538564,hog,20200116
2020-01-16,15:28,3:28 PM,,,,0,0.0,0,35.725,35.72,35.723,581,20755.145,4,,,35.725,35.72,,0.002047685834502115,hog,20200116
2020-01-16,15:29,3:29 PM,35.72,35.715,35.72,202,7215.39,2,35.725,35.71,35.719,2203,78688.389,18,35.72,35.715,35.72,35.725,,0.0019354838709678154,hog,20200116
2020-01-16,15:30,3:30 PM,,,,0,0.0,0,35.725,35.72,35.721,1085,38757.7,8,,,35.72,35.725,,0.0019915848527348656,hog,20200116
2020-01-16,15:31,3:31 PM,35.75,35.74,35.742,6,214.45,2,35.755,35.73,35.739,1883,67295.96,17,35.74,35.75,35.73,35.75,,0.002496493688639513,hog,20200116
2020-01-16,15:32,3:32 PM,35.74,35.74,35.74,1,35.74,1,35.75,35.74,35.745,800,28596.0,7,35.74,35.74,35.75,35.745,,0.002664796633941062,hog,20200116
2020-01-16,15:33,3:33 PM,35.775,35.765,35.765,101,3612.275,2,35.775,35.745,35.76,1500,53640.0,14,35.765,35.775,35.745,35.775,,0.003085553997194935,hog,20200116
2020-01-16,15:34,3:34 PM,,,,0,0.0,0,35.775,35.76,35.765,9940,355503.4,35,,,35.77,35.765,,0.003225806451612959,hog,20200116
2020-01-16,15:35,3:35 PM,,,,0,0.0,0,35.77,35.76,35.765,1890,67595.3,16,,,35.76,35.77,,0.003225806451612959,hog,20200116
2020-01-16,15:36,3:36 PM,35.77,35.77,35.77,15,536.55,1,35.775,35.76,35.768,3102,110951.88,22,35.77,35.77,35.77,35.76,,0.0033099579242637338,hog,20200116
2020-01-16,15:37,3:37 PM,,,,0,0.0,0,35.765,35.75,35.757,1658,59284.736,15,,,35.765,35.75,,0.0030014025245441605,hog,20200116
2020-01-16,15:38,3:38 PM,35.75,35.75,35.75,17,607.75,2,35.76,35.75,35.754,717,25635.835,7,35.75,35.75,35.755,35.76,,0.002917251051893386,hog,20200116
2020-01-16,15:39,3:39 PM,,,,0,0.0,0,35.755,35.74,35.75,623,22272.365,6,,,35.75,35.75,,0.002805049088359086,hog,20200116
2020-01-16,15:40,3:40 PM,,,,0,0.0,0,35.75,35.74,35.744,706,25235.47,7,,,35.74,35.74,,0.0026367461430575373,hog,20200116
2020-01-16,15:41,3:41 PM,35.755,35.755,35.755,200,7151.0,2,35.755,35.745,35.75,3773,134884.75,28,35.755,35.755,35.745,35.75,,0.002805049088359086,hog,20200116
2020-01-16,15:42,3:42 PM,,,,0,0.0,0,35.745,35.74,35.742,400,14297.0,4,,,35.745,35.74,,0.0025806451612902875,hog,20200116
2020-01-16,15:43,3:43 PM,35.745,35.745,35.745,101,3610.245,2,35.745,35.74,35.744,500,17872.0,5,35.745,35.745,35.745,35.745,,0.0026367461430575373,hog,20200116
2020-01-16,15:44,3:44 PM,35.74,35.74,35.74,9,321.66,1,35.745,35.74,35.744,454,16227.73,4,35.74,35.74,35.745,35.745,,0.0026367461430575373,hog,20200116
2020-01-16,15:45,3:45 PM,35.735,35.725,35.73,206,7360.41,4,35.74,35.725,35.734,3757,134251.93,29,35.735,35.725,35.74,35.74,,0.0023562412342216883,hog,20200116
2020-01-16,15:46,3:46 PM,35.755,35.74,35.74,201,7183.755,3,35.76,35.74,35.749,3131,111929.828,29,35.74,35.755,35.74,35.755,,0.0027769985974755614,hog,20200116
2020-01-16,15:47,3:47 PM,35.745,35.745,35.745,1,35.745,1,35.76,35.72,35.743,3696,132105.4896,32,35.745,35.745,35.76,35.72,,0.002608695652174012,hog,20200116
2020-01-16,15:48,3:48 PM,35.72,35.7,35.717,300,10714.95,6,35.72,35.68,35.697,4773,170383.9166,39,35.72,35.7,35.72,35.69,,0.0013183730715288682,hog,20200116
2020-01-16,15:49,3:49 PM,,,,0,0.0,0,35.71,35.69,35.699,1263,45088.2137,12,,,35.69,35.71,,0.0013744740532959183,hog,20200116
2020-01-16,15:50,3:50 PM,35.725,35.725,35.725,312,11146.2,4,35.73,35.705,35.72,4093,146203.0834,33,35.725,35.725,35.71,35.725,,0.0019635343618513404,hog,20200116
2020-01-16,15:51,3:51 PM,35.725,35.72,35.722,285,10180.715,7,35.73,35.71,35.721,7686,274550.0311,60,35.725,35.72,35.725,35.725,,0.0019915848527348656,hog,20200116
2020-01-16,15:52,3:52 PM,35.72,35.7,35.712,420,14999.25,4,35.73,35.68,35.706,19337,690442.8231,131,35.72,35.71,35.725,35.71,,0.001570827489481192,hog,20200116
2020-01-16,15:53,3:53 PM,35.72,35.72,35.72,265,9465.8,3,35.73,35.71,35.722,6170,220404.4066,39,35.72,35.72,35.71,35.725,,0.00201963534361859,hog,20200116
2020-01-16,15:54,3:54 PM,35.76,35.76,35.76,100,3576.0,1,35.77,35.725,35.747,6477,231534.2136,44,35.76,35.76,35.726,35.75,,0.0027208976157083115,hog,20200116
2020-01-16,15:55,3:55 PM,35.76,35.735,35.748,393,14049.05,3,35.77,35.735,35.748,6512,232794.076,55,35.76,35.735,35.76,35.74,,0.0027489481065918367,hog,20200116
2020-01-16,15:56,3:56 PM,35.735,35.73,35.732,707,25262.61,4,35.75,35.73,35.736,7528,269019.9965,57,35.735,35.735,35.74,35.74,,0.0024123422159887387,hog,20200116
2020-01-16,15:57,3:57 PM,35.755,35.745,35.75,211,7543.195,3,35.76,35.735,35.75,13513,483088.9598,90,35.745,35.755,35.735,35.75,,0.002805049088359086,hog,20200116
2020-01-16,15:58,3:58 PM,35.78,35.755,35.774,211,7548.395,4,35.78,35.74,35.762,10922,390595.2131,81,35.755,35.77,35.75,35.77,,0.0031416549789621846,hog,20200116
2020-01-16,15:59,3:59 PM,35.775,35.74,35.754,755,26994.165,10,35.78,35.73,35.753,22907,819005.394,144,35.775,35.755,35.776,35.76,,0.0028892005610098607,hog,20200116
