date,minute,label,high,low,average,volume,notional,numberOfTrades,marketHigh,marketLow,marketAverage,marketVolume,marketNotional,marketNumberOfTrades,open,close,marketOpen,marketClose,changeOverTime,marketChangeOverTime,tickerName,tickerDate
2019-12-17,09:30,09:30 AM,,,,0,0.0,0,36.81,36.61,36.75,16445,604356.26,8,,,36.76,36.723,,0.0,hog,20191217
2019-12-17,09:31,09:31 AM,36.695,36.695,36.695,94,3449.33,1,36.72,36.66,36.706,800,29364.5,7,36.695,36.695,36.72,36.66,,-0.0011972789115645424,hog,20191217
2019-12-17,09:32,09:32 AM,,,,0,0.0,0,36.792,36.72,36.743,3452,126835.9,29,,,36.76,36.792,,-0.00019047619047613324,hog,20191217
2019-12-17,09:33,09:33 AM,,,,0,0.0,0,36.865,36.78,36.825,2400,88381.0,20,,,36.79,36.78,,0.0020408163265306896,hog,20191217
2019-12-17,09:34,09:34 AM,36.76,36.76,36.76,100,3676.0,1,36.855,36.76,36.82,2200,81005.0,21,36.76,36.76,36.85,36.76,,0.0019047619047619126,hog,20191217
2019-12-17,09:35,09:35 AM,,,,0,0.0,0,36.84,36.74,36.776,1900,69875.5,13,,,36.74,36.84,,0.0007074829931973702,hog,20191217
2019-12-17,09:36,09:36 AM,36.88,36.87,36.875,2,73.75,2,36.9,36.855,36.891,900,33201.5,5,36.88,36.87,36.855,36.88,,0.0038367346938775033,hog,20191217
2019-12-17,09:37,09:37 AM,36.9,36.87,36.894,5,184.47,2,36.93,36.86,36.896,4282,157987.94,40,36.87,36.9,36.86,36.9,,0.00397278911564628,hog,20191217
2019-12-17,09:38,09:38 AM,,,,0,0.0,0,36.911,36.888,36.898,1100,40587.4,7,,,36.91,36.888,,0.00402721088435383,hog,20191217
2019-12-17,09:39,09:39 AM,37.02,36.91,36.998,18,665.97,3,37.02,36.89,36.944,7564,279448.16,37,36.91,37.01,36.89,36.99,,0.005278911564625921,hog,20191217
2019-12-17,09:40,09:40 AM,36.975,36.975,36.975,1,36.975,1,37.0,36.915,36.945,1509,55749.67,11,36.975,36.975,37.0,36.95,,0.0053061224489796,hog,20191217
2019-12-17,09:41,09:41 AM,,,,0,0.0,0,36.992,36.96,36.988,2735,101163.2795,7,,,36.98,36.96,,0.0064761904761904635,hog,20191217
2019-12-17,09:42,09:42 AM,36.975,36.945,36.96,4,147.84,2,36.99,36.93,36.963,3225,119204.4,23,36.975,36.945,36.99,36.958,,0.005795918367346965,hog,20191217
2019-12-17,09:43,09:43 AM,,,,0,0.0,0,37.1,36.98,37.018,1100,40719.5,8,,,36.98,37.1,,0.00729251700680274,hog,20191217
2019-12-17,09:44,09:44 AM,37.055,37.04,37.048,3,111.145,3,37.06,37.01,37.035,4800,177767.76,24,37.055,37.04,37.06,37.03,,0.007755102040816234,hog,20191217
2019-12-17,09:45,09:45 AM,37.095,37.09,37.09,103,3820.285,2,37.09,37.06,37.068,1034,38328.71,9,37.09,37.095,37.06,37.09,,0.008653061224489738,hog,20191217
2019-12-17,09:46,09:46 AM,,,,0,0.0,0,37.07,37.02,37.044,1450,53714.54,9,,,37.06,37.03,,0.007999999999999917,hog,20191217
2019-12-17,09:47,09:47 AM,37.095,37.095,37.095,1,37.095,1,37.08,37.065,37.072,200,7414.5,2,37.095,37.095,37.065,37.08,,0.008761904761904837,hog,20191217
2019-12-17,09:48,09:48 AM,37.07,37.07,37.07,100,3707.0,1,37.09,37.04,37.078,7231,268114.44,28,37.07,37.07,37.09,37.07,,0.008925170068027292,hog,20191217
2019-12-17,09:49,09:49 AM,,,,0,0.0,0,37.1,37.05,37.08,1257,46609.56,9,,,37.1,37.05,,0.008979591836734647,hog,20191217
2019-12-17,09:50,09:50 AM,,,,0,0.0,0,37.09,37.07,37.081,400,14832.5,4,,,37.07,37.075,,0.009006802721088518,hog,20191217
2019-12-17,09:51,09:51 AM,37.08,37.08,37.08,100,3708.0,1,37.13,37.08,37.102,900,33392.06,9,37.08,37.08,37.09,37.13,,0.009578231292516918,hog,20191217
2019-12-17,09:52,09:52 AM,,,,0,0.0,0,37.16,37.14,37.153,1619,60150.04,10,,,37.16,37.16,,0.010965986394557788,hog,20191217
2019-12-17,09:53,09:53 AM,,,,0,0.0,0,37.14,37.06,37.098,2218,82282.48,17,,,37.135,37.14,,0.009469387755102013,hog,20191217
2019-12-17,09:54,09:54 AM,37.08,37.08,37.08,100,3708.0,1,37.12,37.075,37.093,2500,92732.88,20,37.08,37.08,37.12,37.075,,0.00933333333333343,hog,20191217
2019-12-17,09:55,09:55 AM,37.08,37.08,37.08,100,3708.0,1,37.08,37.08,37.08,100,3708.0,1,37.08,37.08,37.08,37.08,,0.008979591836734647,hog,20191217
2019-12-17,09:56,09:56 AM,37.06,37.06,37.06,100,3706.0,1,37.09,37.03,37.062,1516,56185.28,13,37.06,37.06,37.08,37.03,,0.008489795918367281,hog,20191217
2019-12-17,09:57,09:57 AM,,,,0,0.0,0,37.02,37.01,37.015,700,25910.5,6,,,37.01,37.02,,0.007210884353741512,hog,20191217
2019-12-17,09:58,09:58 AM,37.08,37.04,37.041,76,2815.08,2,37.07,37.02,37.046,1714,63496.32,13,37.04,37.08,37.02,37.07,,0.008054421768707467,hog,20191217
2019-12-17,09:59,09:59 AM,,,,0,0.0,0,37.11,37.08,37.093,800,29674.0,8,,,37.08,37.1,,0.00933333333333343,hog,20191217
2019-12-17,10:00,10 AM,,,,0,0.0,0,37.14,37.09,37.113,1818,67471.66,16,,,37.09,37.14,,0.009877551020408151,hog,20191217
2019-12-17,10:01,10:01 AM,,,,0,0.0,0,37.155,37.14,37.144,695,25814.8,5,,,37.155,37.15,,0.010721088435374105,hog,20191217
2019-12-17,10:02,10:02 AM,37.145,37.145,37.145,100,3714.5,1,37.16,37.12,37.138,3119,115832.4,19,37.145,37.145,37.145,37.12,,0.01055782312925165,hog,20191217
2019-12-17,10:03,10:03 AM,,,,0,0.0,0,37.16,37.12,37.137,2261,83966.11,15,,,37.12,37.14,,0.010530612244897972,hog,20191217
2019-12-17,10:04,10:04 AM,37.2,37.16,37.187,3,111.56,2,37.2,37.14,37.167,6558,243738.64,29,37.16,37.2,37.14,37.19,,0.011346938775510247,hog,20191217
2019-12-17,10:05,10:05 AM,37.185,37.185,37.185,100,3718.5,1,37.2,37.17,37.182,1600,59491.5,9,37.185,37.185,37.185,37.17,,0.011755102040816385,hog,20191217
2019-12-17,10:06,10:06 AM,,,,0,0.0,0,37.2,37.16,37.18,300,11154.0,3,,,37.16,37.2,,0.011700680272108835,hog,20191217
2019-12-17,10:07,10:07 AM,,,,0,0.0,0,37.2,37.18,37.19,200,7438.0,2,,,37.2,37.18,,0.011972789115646197,hog,20191217
2019-12-17,10:08,10:08 AM,,,,0,0.0,0,37.21,37.18,37.202,1800,66963.0,16,,,37.18,37.21,,0.012299319727891106,hog,20191217
2019-12-17,10:09,10:09 AM,,,,0,0.0,0,37.22,37.18,37.198,2075,77186.25,15,,,37.21,37.19,,0.012190476190476201,hog,20191217
2019-12-17,10:10,10:10 AM,,,,0,0.0,0,37.2,37.19,37.193,356,13240.64,2,,,37.2,37.19,,0.012054421768707425,hog,20191217
2019-12-17,10:11,10:11 AM,,,,0,0.0,0,37.19,37.18,37.188,500,18594.0,5,,,37.19,37.18,,0.01191836734693884,hog,20191217
2019-12-17,10:12,10:12 AM,,,,0,0.0,0,37.18,37.165,37.175,701,26059.48,4,,,37.18,37.175,,0.011564625850340059,hog,20191217
2019-12-17,10:13,10:13 AM,,,,0,0.0,0,37.18,37.17,37.177,300,11153.0,3,,,37.17,37.18,,0.011619047619047609,hog,20191217
2019-12-17,10:14,10:14 AM,,,,0,0.0,0,37.21,37.165,37.182,2218,82469.88,18,,,37.17,37.21,,0.011755102040816385,hog,20191217
2019-12-17,10:15,10:15 AM,,,,0,0.0,0,37.23,37.21,37.219,1290,48012.8,9,,,37.23,37.22,,0.012761904761904794,hog,20191217
2019-12-17,10:16,10:16 AM,37.225,37.225,37.225,100,3722.5,1,37.225,37.2,37.209,1100,40929.5,10,37.225,37.225,37.225,37.2,,0.012489795918367434,hog,20191217
2019-12-17,10:17,10:17 AM,,,,0,0.0,0,37.2,37.19,37.199,1036,38537.96,6,,,37.19,37.2,,0.01221768707482988,hog,20191217
2019-12-17,10:18,10:18 AM,37.225,37.225,37.225,1,37.225,1,37.23,37.202,37.215,2438,90729.41,12,37.225,37.225,37.21,37.22,,0.012653061224489889,hog,20191217
2019-12-17,10:19,10:19 AM,37.215,37.215,37.215,1,37.215,1,37.22,37.205,37.214,772,28729.34,6,37.215,37.215,37.21,37.205,,0.012625850340136018,hog,20191217
2019-12-17,10:20,10:20 AM,37.205,37.19,37.193,8,297.545,5,37.2,37.19,37.198,2658,98872.0168,17,37.205,37.19,37.2,37.193,,0.012190476190476201,hog,20191217
2019-12-17,10:21,10:21 AM,37.18,37.18,37.18,100,3718.0,1,37.18,37.18,37.18,200,7436.0,2,37.18,37.18,37.18,37.18,,0.011700680272108835,hog,20191217
2019-12-17,10:22,10:22 AM,37.17,37.16,37.163,3,111.49,3,37.18,37.15,37.164,2800,104060.0,24,37.16,37.17,37.17,37.17,,0.01126530612244902,hog,20191217
2019-12-17,10:23,10:23 AM,37.17,37.17,37.17,200,7434.0,2,37.17,37.15,37.164,1009,37498.44,8,37.17,37.17,37.17,37.15,,0.01126530612244902,hog,20191217
2019-12-17,10:24,10:24 AM,,,,0,0.0,0,37.19,37.16,37.169,1901,70658.16,12,,,37.16,37.19,,0.011401360544217604,hog,20191217
2019-12-17,10:25,10:25 AM,37.195,37.195,37.195,2,74.39,1,37.2,37.19,37.194,718,26705.42,7,37.195,37.195,37.19,37.19,,0.012081632653061296,hog,20191217
2019-12-17,10:26,10:26 AM,37.205,37.2,37.202,3,111.605,3,37.21,37.2,37.208,500,18604.0,4,37.2,37.205,37.2,37.21,,0.012462585034013563,hog,20191217
2019-12-17,10:27,10:27 AM,,,,0,0.0,0,37.21,37.21,37.21,700,26047.0,5,,,37.21,37.21,,0.012517006802721112,hog,20191217
2019-12-17,10:28,10:28 AM,37.265,37.22,37.242,2,74.485,2,37.26,37.21,37.229,1922,71554.67,18,37.22,37.265,37.21,37.26,,0.013034013605442155,hog,20191217
2019-12-17,10:29,10:29 AM,37.25,37.23,37.23,101,3760.25,2,37.25,37.23,37.239,800,29791.0,6,37.25,37.23,37.25,37.23,,0.013306122448979517,hog,20191217
2019-12-17,10:30,10:30 AM,,,,0,0.0,0,37.21,37.17,37.194,1400,52072.0,13,,,37.21,37.19,,0.012081632653061296,hog,20191217
2019-12-17,10:31,10:31 AM,37.19,37.18,37.183,3,111.55,2,37.19,37.17,37.181,1700,63208.0,15,37.18,37.19,37.18,37.18,,0.011727891156462514,hog,20191217
2019-12-17,10:32,10:32 AM,,,,0,0.0,0,37.2,37.19,37.193,1000,37192.5,10,,,37.19,37.19,,0.012054421768707425,hog,20191217
2019-12-17,10:33,10:33 AM,,,,0,0.0,0,37.17,37.17,37.17,398,14793.66,3,,,37.17,37.17,,0.011428571428571475,hog,20191217
2019-12-17,10:34,10:34 AM,,,,0,0.0,0,37.17,37.17,37.17,222,8251.74,2,,,37.17,37.17,,0.011428571428571475,hog,20191217
2019-12-17,10:35,10:35 AM,,,,0,0.0,0,37.16,37.12,37.144,1302,48361.32,11,,,37.16,37.13,,0.010721088435374105,hog,20191217
2019-12-17,10:36,10:36 AM,,,,0,0.0,0,37.12,37.12,37.12,200,7424.0,2,,,37.12,37.12,,0.010068027210884284,hog,20191217
2019-12-17,10:37,10:37 AM,37.135,37.125,37.125,102,3786.77,2,37.14,37.12,37.126,2727,101243.77,23,37.125,37.135,37.12,37.14,,0.010231292517006739,hog,20191217
2019-12-17,10:38,10:38 AM,37.14,37.14,37.14,100,3714.0,1,37.15,37.14,37.144,1682,62475.6572,14,37.14,37.14,37.14,37.14,,0.010721088435374105,hog,20191217
2019-12-17,10:39,10:39 AM,37.14,37.14,37.14,100,3714.0,1,37.14,37.139,37.139,406,15078.5988,3,37.14,37.14,37.139,37.14,,0.010585034013605521,hog,20191217
2019-12-17,10:40,10:40 AM,37.165,37.145,37.155,2,74.31,2,37.16,37.14,37.149,1140,42350.0,10,37.145,37.165,37.14,37.16,,0.010857142857142881,hog,20191217
2019-12-17,10:41,10:41 AM,37.14,37.14,37.14,100,3714.0,1,37.16,37.14,37.152,1269,47146.04,10,37.14,37.14,37.16,37.14,,0.01093877551020411,hog,20191217
2019-12-17,10:42,10:42 AM,37.145,37.145,37.145,1,37.145,1,,,,0,0.0,0,37.145,37.145,,,,0.010748299319727976,hog,20191217
2019-12-17,10:43,10:43 AM,37.145,37.145,37.145,100,3714.5,1,37.15,37.145,37.148,200,7429.5,2,37.145,37.145,37.145,37.15,,0.010829931972789204,hog,20191217
2019-12-17,10:44,10:44 AM,37.155,37.145,37.15,2,74.3,2,37.16,37.14,37.15,1099,40827.85,7,37.155,37.145,37.16,37.15,,0.01088435374149656,hog,20191217
2019-12-17,10:45,10:45 AM,37.145,37.145,37.145,1,37.145,1,37.14,37.14,37.14,200,7428.0,2,37.145,37.145,37.14,37.14,,0.0106122448979592,hog,20191217
2019-12-17,10:46,10:46 AM,37.135,37.135,37.135,101,3750.635,2,37.14,37.135,37.139,1131,42004.84,10,37.135,37.135,37.14,37.135,,0.010585034013605521,hog,20191217
2019-12-17,10:47,10:47 AM,37.145,37.125,37.125,204,7573.565,5,37.14,37.125,37.132,1649,61230.37,15,37.135,37.145,37.13,37.14,,0.010394557823129194,hog,20191217
2019-12-17,10:48,10:48 AM,37.14,37.125,37.133,2,74.265,2,37.14,37.13,37.135,1730,64242.89,13,37.125,37.14,37.14,37.14,,0.010476190476190422,hog,20191217
2019-12-17,10:49,10:49 AM,37.125,37.125,37.125,1,37.125,1,37.14,37.13,37.136,891,33087.83,7,37.125,37.125,37.14,37.13,,0.010503401360544293,hog,20191217
2019-12-17,10:50,10:50 AM,37.125,37.125,37.125,1,37.125,1,37.12,37.12,37.12,288,10690.56,2,37.125,37.125,37.12,37.12,,0.010068027210884284,hog,20191217
2019-12-17,10:51,10:51 AM,37.125,37.12,37.123,2,74.245,2,37.135,37.12,37.129,944,35050.22,7,37.12,37.125,37.135,37.13,,0.010312925170067967,hog,20191217
2019-12-17,10:52,10:52 AM,37.12,37.12,37.12,101,3749.12,2,37.12,37.12,37.12,300,11136.0,3,37.12,37.12,37.12,37.12,,0.010068027210884284,hog,20191217
2019-12-17,10:53,10:53 AM,,,,0,0.0,0,,,,0,0.0,0,,,,,,,hog,20191217
2019-12-17,10:54,10:54 AM,37.115,37.095,37.095,104,3857.91,5,37.12,37.09,37.108,2406,89280.66,20,37.115,37.095,37.12,37.09,,0.009741496598639373,hog,20191217
2019-12-17,10:55,10:55 AM,37.035,37.015,37.02,102,3776.05,3,37.06,37.02,37.041,1486,55043.79,13,37.035,37.02,37.06,37.02,,0.007918367346938689,hog,20191217
2019-12-17,10:56,10:56 AM,,,,0,0.0,0,37.013,37.01,37.011,300,11103.26,3,,,37.01,37.013,,0.007102040816326607,hog,20191217
2019-12-17,10:57,10:57 AM,37.025,37.025,37.025,1,37.025,1,37.02,37.02,37.02,700,25914.0,7,37.025,37.025,37.02,37.02,,0.00734693877551029,hog,20191217
2019-12-17,10:58,10:58 AM,37.055,37.005,37.037,231,8555.475,9,37.05,37.0,37.023,3831,141833.9,29,37.015,37.04,37.02,37.04,,0.007428571428571517,hog,20191217
2019-12-17,10:59,10:59 AM,37.025,37.025,37.025,1,37.025,1,37.055,37.01,37.029,1068,39547.1248,10,37.025,37.025,37.055,37.01,,0.007591836734693972,hog,20191217
2019-12-17,11:00,11 AM,37.015,37.01,37.012,3,111.035,3,37.02,37.0,37.012,1998,73950.49,16,37.01,37.01,37.02,37.02,,0.007129251700680284,hog,20191217
2019-12-17,11:01,11:01 AM,37.005,37.005,37.005,1,37.005,1,37.03,37.005,37.02,900,33318.46,8,37.005,37.005,37.02,37.005,,0.00734693877551029,hog,20191217
2019-12-17,11:02,11:02 AM,,,,0,0.0,0,37.015,37.0,37.009,500,18504.5,5,,,37.0,37.015,,0.007047619047619057,hog,20191217
2019-12-17,11:03,11:03 AM,37.01,37.01,37.01,1,37.01,1,37.01,36.981,36.991,1200,44388.9,5,37.01,37.01,37.01,36.981,,0.006557823129251692,hog,20191217
2019-12-17,11:04,11:04 AM,36.985,36.98,36.983,2,73.965,2,36.99,36.98,36.988,500,18494.0,5,36.98,36.985,36.99,36.99,,0.0064761904761904635,hog,20191217
2019-12-17,11:05,11:05 AM,36.975,36.95,36.958,6,221.745,5,36.99,36.94,36.962,4883,180484.6655,29,36.975,36.95,36.985,36.94,,0.005768707482993287,hog,20191217
2019-12-17,11:06,11:06 AM,36.945,36.945,36.945,100,3694.5,1,36.96,36.945,36.955,900,33259.5,8,36.945,36.945,36.95,36.96,,0.005578231292516961,hog,20191217
2019-12-17,11:07,11:07 AM,,,,0,0.0,0,36.97,36.94,36.953,1102,40722.712,9,,,36.96,36.97,,0.005523809523809604,hog,20191217
2019-12-17,11:08,11:08 AM,,,,0,0.0,0,36.96,36.95,36.959,800,29567.0,6,,,36.96,36.96,,0.005687074829932059,hog,20191217
2019-12-17,11:09,11:09 AM,,,,0,0.0,0,36.955,36.955,36.955,250,9238.85,1,,,36.955,36.955,,0.005578231292516961,hog,20191217
2019-12-17,11:10,11:10 AM,36.995,36.995,36.995,100,3699.5,1,37.0,36.965,36.983,3300,122042.5,23,36.995,36.995,36.965,36.97,,0.0063401360544216865,hog,20191217
2019-12-17,11:11,11:11 AM,,,,0,0.0,0,36.98,36.97,36.977,500,18488.5,5,,,36.98,36.97,,0.006176870748299232,hog,20191217
2019-12-17,11:12,11:12 AM,36.995,36.99,36.992,2,73.985,2,37.0,36.98,36.995,1394,51570.75,12,36.99,36.995,36.98,37.0,,0.006666666666666597,hog,20191217
2019-12-17,11:13,11:13 AM,37.03,37.005,37.017,4,148.07,2,37.03,37.01,37.015,400,14806.0,4,37.005,37.03,37.01,37.03,,0.007210884353741512,hog,20191217
2019-12-17,11:14,11:14 AM,37.015,37.015,37.015,2,74.03,1,37.025,37.01,37.022,1188,43981.56,8,37.015,37.015,37.025,37.01,,0.007401360544217645,hog,20191217
2019-12-17,11:15,11:15 AM,37.075,37.04,37.043,585,21669.945,4,37.06,37.01,37.042,2682,99347.53,19,37.04,37.045,37.02,37.04,,0.00794557823129256,hog,20191217
2019-12-17,11:16,11:16 AM,37.04,37.01,37.028,3,111.085,3,37.04,37.0,37.026,2352,87084.528,17,37.035,37.01,37.04,37.01,,0.007510204081632744,hog,20191217
2019-12-17,11:17,11:17 AM,37.02,37.01,37.016,4,148.065,4,37.02,37.0,37.015,1974,73067.48,13,37.015,37.01,37.01,37.0,,0.007210884353741512,hog,20191217
2019-12-17,11:18,11:18 AM,37.04,37.04,37.04,1,37.04,1,37.03,37.01,37.021,1100,40722.96,7,37.04,37.04,37.02,37.03,,0.007374149659863967,hog,20191217
2019-12-17,11:19,11:19 AM,37.04,37.04,37.04,2,74.08,2,37.04,37.02,37.039,1630,60373.2,3,37.04,37.04,37.04,37.04,,0.007863945578231333,hog,20191217
2019-12-17,11:20,11:20 AM,,,,0,0.0,0,37.04,37.03,37.035,200,7407.0,2,,,37.04,37.03,,0.007755102040816234,hog,20191217
2019-12-17,11:21,11:21 AM,37.025,37.025,37.025,1,37.025,1,37.03,37.025,37.029,549,20328.97,4,37.025,37.025,37.03,37.025,,0.007591836734693972,hog,20191217
2019-12-17,11:22,11:22 AM,37.055,37.045,37.055,101,3742.545,2,37.055,37.03,37.042,1200,44450.5,9,37.055,37.045,37.03,37.05,,0.00794557823129256,hog,20191217
2019-12-17,11:23,11:23 AM,37.035,37.035,37.035,35,1296.225,2,37.04,37.035,37.038,200,7407.5,2,37.035,37.035,37.04,37.035,,0.007836734693877462,hog,20191217
2019-12-17,11:24,11:24 AM,,,,0,0.0,0,37.04,37.04,37.04,500,18520.0,4,,,37.04,37.04,,0.00789115646258501,hog,20191217
2019-12-17,11:25,11:25 AM,37.04,37.04,37.04,1,37.04,1,37.04,37.04,37.04,200,7408.0,2,37.04,37.04,37.04,37.04,,0.00789115646258501,hog,20191217
2019-12-17,11:26,11:26 AM,37.035,37.035,37.035,2,74.07,1,37.06,37.035,37.048,2971,110070.05,18,37.035,37.035,37.06,37.06,,0.008108843537415016,hog,20191217
2019-12-17,11:27,11:27 AM,37.065,37.05,37.057,3,111.17,3,37.06,37.05,37.056,743,27532.58,7,37.065,37.05,37.06,37.05,,0.008326530612244826,hog,20191217
2019-12-17,11:28,11:28 AM,37.065,37.065,37.065,1,37.065,1,37.06,37.05,37.058,895,33167.2,7,37.065,37.065,37.06,37.055,,0.008380952380952376,hog,20191217
2019-12-17,11:29,11:29 AM,37.05,37.045,37.045,101,3741.55,2,37.05,37.04,37.047,899,33305.45,8,37.045,37.05,37.05,37.05,,0.008081632653061143,hog,20191217
2019-12-17,11:30,11:30 AM,37.055,37.055,37.055,1,37.055,1,37.05,37.05,37.05,300,11115.0,3,37.055,37.055,37.05,37.05,,0.008163265306122372,hog,20191217
2019-12-17,11:31,11:31 AM,37.07,37.065,37.068,2,74.135,2,37.075,37.05,37.062,3338,123713.7444,29,37.07,37.065,37.05,37.075,,0.008489795918367281,hog,20191217
2019-12-17,11:32,11:32 AM,37.085,37.085,37.085,1,37.085,1,37.08,37.08,37.08,200,7416.0,2,37.085,37.085,37.08,37.08,,0.008979591836734647,hog,20191217
2019-12-17,11:33,11:33 AM,37.09,37.085,37.09,102,3783.175,3,37.09,37.08,37.089,1700,63052.0,15,37.09,37.09,37.09,37.09,,0.00922448979591833,hog,20191217
2019-12-17,11:34,11:34 AM,37.09,37.09,37.09,2,74.18,2,37.1,37.1,37.1,619,22964.9,1,37.09,37.09,37.1,37.1,,0.009523809523809563,hog,20191217
2019-12-17,11:35,11:35 AM,37.105,37.095,37.1,2,74.2,2,37.11,37.09,37.099,1600,59358.0,14,37.105,37.095,37.09,37.095,,0.009496598639455692,hog,20191217
2019-12-17,11:36,11:36 AM,37.105,37.105,37.105,1,37.105,1,37.1,37.1,37.1,300,11130.0,3,37.105,37.105,37.1,37.1,,0.009523809523809563,hog,20191217
2019-12-17,11:37,11:37 AM,,,,0,0.0,0,,,,0,0.0,0,,,,,,,hog,20191217
2019-12-17,11:38,11:38 AM,37.125,37.105,37.105,103,3821.865,4,37.12,37.105,37.114,2331,86513.38,21,37.105,37.115,37.105,37.115,,0.00990476190476183,hog,20191217
2019-12-17,11:39,11:39 AM,37.125,37.125,37.125,1,37.125,1,37.13,37.115,37.12,500,18560.0,5,37.125,37.125,37.115,37.12,,0.010068027210884284,hog,20191217
2019-12-17,11:40,11:40 AM,37.14,37.14,37.14,1,37.14,1,37.14,37.13,37.132,1003,37243.39,10,37.14,37.14,37.13,37.14,,0.010394557823129194,hog,20191217
2019-12-17,11:41,11:41 AM,37.125,37.115,37.12,4,148.48,3,37.14,37.115,37.126,2712,100685.06,21,37.125,37.115,37.13,37.115,,0.010231292517006739,hog,20191217
2019-12-17,11:42,11:42 AM,37.115,37.115,37.115,101,3748.615,2,37.12,37.115,37.119,700,25983.5,6,37.115,37.115,37.115,37.12,,0.010040816326530606,hog,20191217
2019-12-17,11:43,11:43 AM,37.105,37.105,37.105,1,37.105,1,37.12,37.1,37.109,1049,38927.89,7,37.105,37.105,37.12,37.1,,0.009768707482993246,hog,20191217
2019-12-17,11:44,11:44 AM,37.105,37.1,37.101,4,148.405,3,37.11,37.1,37.108,900,33397.5,6,37.105,37.1,37.1,37.11,,0.009741496598639373,hog,20191217
2019-12-17,11:45,11:45 AM,37.115,37.115,37.115,100,3711.5,1,37.12,37.115,37.118,743,27579.07,7,37.115,37.115,37.12,37.115,,0.010013605442176929,hog,20191217
2019-12-17,11:46,11:46 AM,,,,0,0.0,0,37.13,37.11,37.121,1600,59394.5,12,,,37.13,37.11,,0.010095238095238155,hog,20191217
2019-12-17,11:47,11:47 AM,,,,0,0.0,0,37.115,37.11,37.112,200,7422.5,2,,,37.11,37.115,,0.009850340136054472,hog,20191217
2019-12-17,11:48,11:48 AM,,,,0,0.0,0,37.11,37.105,37.109,601,22302.605,4,,,37.11,37.105,,0.009768707482993246,hog,20191217
2019-12-17,11:49,11:49 AM,37.105,37.105,37.105,100,3710.5,1,37.11,37.105,37.108,600,22265.0,6,37.105,37.105,37.105,37.105,,0.009741496598639373,hog,20191217
2019-12-17,11:50,11:50 AM,,,,0,0.0,0,37.11,37.1,37.105,200,7421.0,2,,,37.1,37.11,,0.009659863945578146,hog,20191217
2019-12-17,11:51,11:51 AM,,,,0,0.0,0,,,,0,0.0,0,,,,,,,hog,20191217
2019-12-17,11:52,11:52 AM,37.15,37.14,37.145,200,7429.0,2,37.15,37.09,37.145,29685,1102636.94,51,37.15,37.14,37.1,37.145,,0.010748299319727976,hog,20191217
2019-12-17,11:53,11:53 AM,,,,0,0.0,0,37.15,37.143,37.145,430,15972.256,2,,,37.143,37.15,,0.010748299319727976,hog,20191217
2019-12-17,11:54,11:54 AM,,,,0,0.0,0,37.17,37.146,37.156,1598,59375.1579,14,,,37.146,37.17,,0.011047619047619014,hog,20191217
2019-12-17,11:55,11:55 AM,37.175,37.17,37.175,109,4052.03,2,37.175,37.17,37.173,2200,81781.46,8,37.17,37.175,37.17,37.175,,0.011510204081632702,hog,20191217
2019-12-17,11:56,11:56 AM,,,,0,0.0,0,37.2,37.18,37.191,1847,68692.04,16,,,37.18,37.195,,0.012000000000000068,hog,20191217
2019-12-17,11:57,11:57 AM,,,,0,0.0,0,37.23,37.2,37.207,700,26045.0,6,,,37.2,37.22,,0.012435374149659884,hog,20191217
2019-12-17,11:58,11:58 AM,37.23,37.23,37.23,1,37.23,1,37.22,37.205,37.213,3187,118597.77,24,37.23,37.23,37.22,37.22,,0.012598639455782339,hog,20191217
2019-12-17,11:59,11:59 AM,,,,0,0.0,0,37.225,37.22,37.22,1800,66996.61,14,,,37.225,37.22,,0.012789115646258472,hog,20191217
2019-12-17,12:00,12 PM,,,,0,0.0,0,37.23,37.22,37.224,701,26094.22,6,,,37.22,37.23,,0.012897959183673377,hog,20191217
2019-12-17,12:01,12:01 PM,,,,0,0.0,0,37.234,37.23,37.233,350,13031.4,2,,,37.23,37.234,,0.01314285714285706,hog,20191217
2019-12-17,12:02,12:02 PM,,,,0,0.0,0,37.237,37.21,37.224,1235,45971.8096,9,,,37.237,37.21,,0.012897959183673377,hog,20191217
2019-12-17,12:03,12:03 PM,,,,0,0.0,0,37.23,37.22,37.221,800,29777.0,7,,,37.22,37.23,,0.01281632653061215,hog,20191217
2019-12-17,12:04,12:04 PM,37.23,37.225,37.227,200,7445.5,2,37.23,37.222,37.226,730,27174.826,5,37.225,37.23,37.222,37.23,,0.012952380952380927,hog,20191217
2019-12-17,12:05,12:05 PM,,,,0,0.0,0,37.24,37.23,37.235,1781,66315.9508,10,,,37.23,37.235,,0.01319727891156461,hog,20191217
2019-12-17,12:06,12:06 PM,,,,0,0.0,0,37.23,37.21,37.225,896,33354.08,6,,,37.23,37.21,,0.01292517006802725,hog,20191217
2019-12-17,12:07,12:07 PM,,,,0,0.0,0,37.22,37.182,37.202,1399,52045.3175,10,,,37.22,37.2,,0.012299319727891106,hog,20191217
2019-12-17,12:08,12:08 PM,,,,0,0.0,0,37.19,37.19,37.19,800,29752.0,5,,,37.19,37.19,,0.011972789115646197,hog,20191217
2019-12-17,12:09,12:09 PM,,,,0,0.0,0,,,,0,0.0,0,,,,,,,hog,20191217
2019-12-17,12:10,12:10 PM,,,,0,0.0,0,37.18,37.175,37.179,1205,44801.4,10,,,37.18,37.18,,0.011673469387755158,hog,20191217
2019-12-17,12:11,12:11 PM,,,,0,0.0,0,37.18,37.16,37.174,1271,47247.78,9,,,37.18,37.16,,0.01153741496598638,hog,20191217
2019-12-17,12:12,12:12 PM,,,,0,0.0,0,37.17,37.16,37.163,900,33446.5,7,,,37.16,37.165,,0.011238095238095148,hog,20191217
2019-12-17,12:13,12:13 PM,,,,0,0.0,0,37.17,37.17,37.17,300,11151.0,3,,,37.17,37.17,,0.011428571428571475,hog,20191217
2019-12-17,12:14,12:14 PM,37.18,37.18,37.18,1,37.18,1,37.18,37.17,37.175,996,37026.28,7,37.18,37.18,37.17,37.18,,0.011564625850340059,hog,20191217
2019-12-17,12:15,12:15 PM,,,,0,0.0,0,37.18,37.18,37.18,1246,46326.28,11,,,37.18,37.18,,0.011700680272108835,hog,20191217
2019-12-17,12:16,12:16 PM,,,,0,0.0,0,37.18,37.18,37.18,600,22308.0,6,,,37.18,37.18,,0.011700680272108835,hog,20191217
2019-12-17,12:17,12:17 PM,,,,0,0.0,0,37.18,37.17,37.174,800,29739.0,8,,,37.18,37.17,,0.01153741496598638,hog,20191217
2019-12-17,12:18,12:18 PM,,,,0,0.0,0,37.18,37.17,37.176,433,16097.11,4,,,37.17,37.18,,0.01159183673469393,hog,20191217
2019-12-17,12:19,12:19 PM,,,,0,0.0,0,37.19,37.17,37.177,1198,44538.64,11,,,37.18,37.18,,0.011619047619047609,hog,20191217
2019-12-17,12:20,12:20 PM,,,,0,0.0,0,37.18,37.18,37.18,1000,37180.0,10,,,37.18,37.18,,0.011700680272108835,hog,20191217
2019-12-17,12:21,12:21 PM,37.185,37.185,37.185,100,3718.5,1,37.185,37.18,37.182,200,7436.5,2,37.185,37.185,37.185,37.18,,0.011755102040816385,hog,20191217
2019-12-17,12:22,12:22 PM,,,,0,0.0,0,37.18,37.18,37.18,700,26026.0,6,,,37.18,37.18,,0.011700680272108835,hog,20191217
2019-12-17,12:23,12:23 PM,,,,0,0.0,0,37.184,37.18,37.181,1367,50825.9,12,,,37.184,37.18,,0.011727891156462514,hog,20191217
2019-12-17,12:24,12:24 PM,37.19,37.19,37.19,87,3235.53,1,37.18,37.18,37.18,300,11154.0,2,37.19,37.19,37.18,37.18,,0.011700680272108835,hog,20191217
2019-12-17,12:25,12:25 PM,,,,0,0.0,0,37.19,37.19,37.19,801,29789.19,8,,,37.19,37.19,,0.011972789115646197,hog,20191217
2019-12-17,12:26,12:26 PM,37.19,37.19,37.19,100,3719.0,1,37.19,37.18,37.189,890,33098.1,7,37.19,37.19,37.19,37.19,,0.011945578231292518,hog,20191217
2019-12-17,12:27,12:27 PM,,,,0,0.0,0,37.21,37.18,37.197,1005,37383.5,10,,,37.18,37.21,,0.012163265306122523,hog,20191217
2019-12-17,12:28,12:28 PM,,,,0,0.0,0,37.25,37.21,37.228,4435,165105.05,10,,,37.21,37.25,,0.013006802721088477,hog,20191217
2019-12-17,12:29,12:29 PM,,,,0,0.0,0,37.25,37.25,37.25,100,3725.0,1,,,37.25,37.25,,0.013605442176870748,hog,20191217
2019-12-17,12:30,12:30 PM,37.24,37.235,37.237,200,7447.5,2,37.24,37.235,37.24,1892,70457.58,14,37.24,37.235,37.24,37.24,,0.013333333333333388,hog,20191217
2019-12-17,12:31,12:31 PM,,,,0,0.0,0,37.235,37.225,37.23,798,29709.54,6,,,37.23,37.225,,0.013061224489795834,hog,20191217
2019-12-17,12:32,12:32 PM,37.22,37.22,37.22,100,3722.0,1,37.225,37.22,37.222,600,22333.44,6,37.22,37.22,37.225,37.225,,0.012843537414966022,hog,20191217
2019-12-17,12:33,12:33 PM,,,,0,0.0,0,37.225,37.22,37.221,411,15297.92,3,,,37.22,37.22,,0.01281632653061215,hog,20191217
2019-12-17,12:34,12:34 PM,,,,0,0.0,0,37.235,37.23,37.23,1100,40953.5,11,,,37.23,37.235,,0.013061224489795834,hog,20191217
2019-12-17,12:35,12:35 PM,,,,0,0.0,0,37.25,37.23,37.235,2853,106230.39,21,,,37.23,37.25,,0.01319727891156461,hog,20191217
2019-12-17,12:36,12:36 PM,37.24,37.24,37.24,100,3724.0,1,37.268,37.24,37.253,2036,75847.08,16,37.24,37.24,37.25,37.268,,0.013687074829931976,hog,20191217
2019-12-17,12:37,12:37 PM,,,,0,0.0,0,37.29,37.26,37.283,2964,110507.56,20,,,37.26,37.28,,0.014503401360544252,hog,20191217
2019-12-17,12:38,12:38 PM,37.27,37.27,37.27,100,3727.0,1,37.28,37.26,37.272,1100,40999.5,9,37.27,37.27,37.28,37.26,,0.014204081632653019,hog,20191217
2019-12-17,12:39,12:39 PM,,,,0,0.0,0,37.27,37.27,37.27,1500,55905.0,10,,,37.27,37.27,,0.014149659863945663,hog,20191217
2019-12-17,12:40,12:40 PM,,,,0,0.0,0,37.28,37.28,37.28,700,26096.0,7,,,37.28,37.28,,0.014421768707483023,hog,20191217
2019-12-17,12:41,12:41 PM,,,,0,0.0,0,37.28,37.28,37.28,500,18640.0,5,,,37.28,37.28,,0.014421768707483023,hog,20191217
2019-12-17,12:42,12:42 PM,,,,0,0.0,0,37.28,37.28,37.28,200,7456.0,2,,,37.28,37.28,,0.014421768707483023,hog,20191217
2019-12-17,12:43,12:43 PM,,,,0,0.0,0,37.29,37.28,37.285,600,22371.0,6,,,37.28,37.29,,0.014557823129251609,hog,20191217
2019-12-17,12:44,12:44 PM,,,,0,0.0,0,37.295,37.295,37.295,274,10218.83,2,,,37.295,37.295,,0.014829931972789163,hog,20191217
2019-12-17,12:45,12:45 PM,,,,0,0.0,0,37.29,37.28,37.289,1893,70587.97,13,,,37.29,37.29,,0.014666666666666706,hog,20191217
2019-12-17,12:46,12:46 PM,37.3,37.3,37.3,5,186.5,1,37.3,37.29,37.299,800,29839.0,7,37.3,37.3,37.29,37.3,,0.014938775510204068,hog,20191217
2019-12-17,12:47,12:47 PM,,,,0,0.0,0,37.3,37.3,37.3,200,7460.0,2,,,37.3,37.3,,0.014965986394557746,hog,20191217
2019-12-17,12:48,12:48 PM,37.305,37.305,37.305,100,3730.5,1,37.32,37.29,37.3,2545,94927.25,22,37.305,37.305,37.305,37.32,,0.014965986394557746,hog,20191217
2019-12-17,12:49,12:49 PM,,,,0,0.0,0,37.33,37.31,37.321,800,29857.0,7,,,37.32,37.31,,0.015537414965986339,hog,20191217
2019-12-17,12:50,12:50 PM,,,,0,0.0,0,37.32,37.31,37.313,298,11119.38,2,,,37.32,37.31,,0.015319727891156527,hog,20191217
2019-12-17,12:51,12:51 PM,,,,0,0.0,0,37.32,37.31,37.311,800,29849.0,8,,,37.31,37.31,,0.015265306122448977,hog,20191217
2019-12-17,12:52,12:52 PM,,,,0,0.0,0,37.32,37.31,37.312,500,18656.0,5,,,37.32,37.31,,0.015292517006802656,hog,20191217
2019-12-17,12:53,12:53 PM,,,,0,0.0,0,37.31,37.3,37.307,1838,68570.78,18,,,37.3,37.31,,0.015156462585034072,hog,20191217
2019-12-17,12:54,12:54 PM,,,,0,0.0,0,37.32,37.31,37.313,300,11194.0,3,,,37.32,37.31,,0.015319727891156527,hog,20191217
2019-12-17,12:55,12:55 PM,37.32,37.32,37.32,2,74.64,1,37.33,37.31,37.319,1124,41946.17,10,37.32,37.32,37.31,37.32,,0.015482993197278984,hog,20191217
2019-12-17,12:56,12:56 PM,,,,0,0.0,0,37.32,37.32,37.32,953,35565.96,8,,,37.32,37.32,,0.01551020408163266,hog,20191217
2019-12-17,12:57,12:57 PM,37.335,37.335,37.335,100,3733.5,1,37.34,37.33,37.335,1159,43271.8156,10,37.335,37.335,37.33,37.33,,0.0159183673469388,hog,20191217
2019-12-17,12:58,12:58 PM,,,,0,0.0,0,37.33,37.33,37.33,900,33597.0,9,,,37.33,37.33,,0.01578231292517002,hog,20191217
2019-12-17,12:59,12:59 PM,,,,0,0.0,0,37.34,37.33,37.332,557,20793.83,5,,,37.34,37.33,,0.01583673469387757,hog,20191217
2019-12-17,13:00,1 PM,,,,0,0.0,0,37.34,37.33,37.332,4365,162953.937,3,,,37.33,37.332,,0.01583673469387757,hog,20191217
2019-12-17,13:01,1:01 PM,,,,0,0.0,0,37.33,37.33,37.33,1101,41100.33,9,,,37.33,37.33,,0.01578231292517002,hog,20191217
2019-12-17,13:02,1:02 PM,,,,0,0.0,0,37.32,37.3,37.307,1100,41038.0,10,,,37.32,37.3,,0.015156462585034072,hog,20191217
2019-12-17,13:03,1:03 PM,,,,0,0.0,0,37.31,37.305,37.309,1012,37757.22,10,,,37.31,37.31,,0.015210884353741428,hog,20191217
2019-12-17,13:04,1:04 PM,,,,0,0.0,0,37.31,37.31,37.31,300,11193.0,3,,,37.31,37.31,,0.0152380952380953,hog,20191217
2019-12-17,13:05,1:05 PM,,,,0,0.0,0,37.31,37.305,37.307,200,7461.5,2,,,37.31,37.305,,0.015156462585034072,hog,20191217
2019-12-17,13:06,1:06 PM,37.305,37.305,37.305,100,3730.5,1,37.31,37.305,37.308,600,22385.0,6,37.305,37.305,37.31,37.305,,0.01518367346938775,hog,20191217
2019-12-17,13:07,1:07 PM,,,,0,0.0,0,,,,0,0.0,0,,,,,,,hog,20191217
2019-12-17,13:08,1:08 PM,,,,0,0.0,0,37.31,37.3,37.307,865,32270.5016,7,,,37.3,37.304,,0.015156462585034072,hog,20191217
2019-12-17,13:09,1:09 PM,,,,0,0.0,0,37.35,37.31,37.322,7302,272527.06,26,,,37.31,37.35,,0.01556462585034021,hog,20191217
2019-12-17,13:10,1:10 PM,37.35,37.35,37.35,100,3735.0,1,37.36,37.35,37.352,1266,47287.6,10,37.35,37.35,37.36,37.35,,0.01638095238095229,hog,20191217
2019-12-17,13:11,1:11 PM,,,,0,0.0,0,37.369,37.36,37.361,900,33624.89,9,,,37.36,37.369,,0.016625850340135976,hog,20191217
2019-12-17,13:12,1:12 PM,37.36,37.36,37.36,1,37.36,1,37.366,37.366,37.366,100,3736.56,1,37.36,37.36,37.366,37.366,,0.016761904761904752,hog,20191217
2019-12-17,13:13,1:13 PM,,,,0,0.0,0,37.37,37.36,37.366,475,17748.87,3,,,37.367,37.37,,0.016761904761904752,hog,20191217
2019-12-17,13:14,1:14 PM,,,,0,0.0,0,37.36,37.36,37.36,233,8704.88,2,,,37.36,37.36,,0.0165986394557823,hog,20191217
2019-12-17,13:15,1:15 PM,,,,0,0.0,0,37.365,37.365,37.365,200,7473.0,2,,,37.365,37.365,,0.016734693877551075,hog,20191217
2019-12-17,13:16,1:16 PM,37.375,37.375,37.375,100,3737.5,1,37.375,37.355,37.364,1751,65423.86,14,37.375,37.375,37.37,37.355,,0.016707482993197204,hog,20191217
2019-12-17,13:17,1:17 PM,,,,0,0.0,0,37.35,37.345,37.349,650,24277.0,6,,,37.35,37.345,,0.016299319727891066,hog,20191217
2019-12-17,13:18,1:18 PM,,,,0,0.0,0,37.37,37.34,37.354,2976,111165.06,24,,,37.34,37.37,,0.016435374149659843,hog,20191217
2019-12-17,13:19,1:19 PM,,,,0,0.0,0,37.377,37.377,37.377,100,3737.67,1,,,37.377,37.377,,0.017061224489795985,hog,20191217
2019-12-17,13:20,1:20 PM,,,,0,0.0,0,37.37,37.36,37.364,2600,97146.5,22,,,37.37,37.365,,0.016707482993197204,hog,20191217
2019-12-17,13:21,1:21 PM,37.36,37.36,37.36,100,3736.0,2,37.36,37.35,37.359,900,33623.0,8,37.36,37.36,37.36,37.35,,0.01657142857142862,hog,20191217
2019-12-17,13:22,1:22 PM,37.355,37.355,37.355,100,3735.5,1,37.355,37.355,37.355,100,3735.5,1,37.355,37.355,37.355,37.355,,0.01646258503401352,hog,20191217
2019-12-17,13:23,1:23 PM,,,,0,0.0,0,37.355,37.35,37.352,200,7470.5,2,,,37.35,37.355,,0.01638095238095229,hog,20191217
2019-12-17,13:24,1:24 PM,,,,0,0.0,0,37.36,37.34,37.354,2375,88716.5,23,,,37.35,37.35,,0.016435374149659843,hog,20191217
2019-12-17,13:25,1:25 PM,,,,0,0.0,0,,,,0,0.0,0,,,,,,,hog,20191217
2019-12-17,13:26,1:26 PM,,,,0,0.0,0,37.34,37.34,37.34,1429,53358.86,7,,,37.34,37.34,,0.016054421768707576,hog,20191217
2019-12-17,13:27,1:27 PM,,,,0,0.0,0,37.34,37.33,37.334,700,26134.0,7,,,37.33,37.335,,0.01589115646258512,hog,20191217
2019-12-17,13:28,1:28 PM,,,,0,0.0,0,37.34,37.34,37.34,700,26138.0,7,,,37.34,37.34,,0.016054421768707576,hog,20191217
2019-12-17,13:29,1:29 PM,,,,0,0.0,0,37.35,37.34,37.348,1400,52287.0,12,,,37.34,37.345,,0.016272108843537386,hog,20191217
2019-12-17,13:30,1:30 PM,37.345,37.345,37.345,100,3734.5,1,37.347,37.34,37.344,300,11203.25,3,37.345,37.345,37.34,37.347,,0.01616326530612248,hog,20191217
2019-12-17,13:31,1:31 PM,,,,0,0.0,0,,,,0,0.0,0,,,,,,,hog,20191217
2019-12-17,13:32,1:32 PM,,,,0,0.0,0,37.34,37.34,37.34,300,11202.0,3,,,37.34,37.34,,0.016054421768707576,hog,20191217
2019-12-17,13:33,1:33 PM,,,,0,0.0,0,37.35,37.34,37.342,742,27707.8,6,,,37.35,37.34,,0.016108843537414933,hog,20191217
2019-12-17,13:34,1:34 PM,,,,0,0.0,0,37.345,37.335,37.341,4295,160378.0085,36,,,37.34,37.337,,0.016081632653061253,hog,20191217
2019-12-17,13:35,1:35 PM,37.33,37.33,37.33,62,2314.46,1,37.334,37.33,37.331,942,35165.9772,5,37.33,37.33,37.33,37.33,,0.015809523809523895,hog,20191217
2019-12-17,13:36,1:36 PM,37.345,37.315,37.332,800,29865.5,7,37.36,37.3,37.321,47484,1772168.01,81,37.315,37.345,37.33,37.335,,0.015537414965986339,hog,20191217
2019-12-17,13:37,1:37 PM,,,,0,0.0,0,37.35,37.335,37.341,1300,48543.5,10,,,37.34,37.335,,0.016081632653061253,hog,20191217
2019-12-17,13:38,1:38 PM,37.33,37.33,37.33,100,3733.0,1,37.34,37.33,37.334,1700,63467.0,10,37.33,37.33,37.34,37.33,,0.01589115646258512,hog,20191217
2019-12-17,13:39,1:39 PM,,,,0,0.0,0,37.33,37.32,37.328,700,26130.0,5,,,37.33,37.33,,0.015727891156462667,hog,20191217
2019-12-17,13:40,1:40 PM,37.325,37.325,37.325,100,3732.5,1,37.37,37.325,37.34,3455,129009.5964,30,37.325,37.325,37.33,37.37,,0.016054421768707576,hog,20191217
2019-12-17,13:41,1:41 PM,,,,0,0.0,0,37.37,37.36,37.362,1650,61647.465,12,,,37.36,37.36,,0.016653061224489847,hog,20191217
2019-12-17,13:42,1:42 PM,,,,0,0.0,0,37.36,37.355,37.359,1100,41095.5,9,,,37.36,37.36,,0.01657142857142862,hog,20191217
2019-12-17,13:43,1:43 PM,,,,0,0.0,0,37.36,37.35,37.357,600,22414.0,5,,,37.35,37.355,,0.01651700680272107,hog,20191217
2019-12-17,13:44,1:44 PM,,,,0,0.0,0,37.38,37.34,37.363,1802,67327.7,18,,,37.35,37.38,,0.016680272108843524,hog,20191217
2019-12-17,13:45,1:45 PM,,,,0,0.0,0,37.4,37.37,37.388,500,18694.0,4,,,37.37,37.4,,0.017360544217687023,hog,20191217
2019-12-17,13:46,1:46 PM,,,,0,0.0,0,37.39,37.37,37.381,1648,61603.7848,13,,,37.39,37.37,,0.01717006802721089,hog,20191217
2019-12-17,13:47,1:47 PM,,,,0,0.0,0,37.37,37.355,37.366,1650,61654.0,15,,,37.37,37.365,,0.016761904761904752,hog,20191217
2019-12-17,13:48,1:48 PM,37.38,37.38,37.38,100,3738.0,1,37.395,37.36,37.379,3319,124060.37,28,37.38,37.38,37.38,37.36,,0.017115646258503342,hog,20191217
2019-12-17,13:49,1:49 PM,37.38,37.38,37.38,100,3738.0,1,37.38,37.36,37.373,1200,44848.0,12,37.38,37.38,37.36,37.38,,0.016952380952380885,hog,20191217
2019-12-17,13:50,1:50 PM,37.355,37.355,37.355,100,3735.5,1,37.375,37.355,37.366,926,34600.846,8,37.355,37.355,37.371,37.36,,0.016761904761904752,hog,20191217
2019-12-17,13:51,1:51 PM,,,,0,0.0,0,37.37,37.37,37.37,400,14948.0,4,,,37.37,37.37,,0.016870748299319657,hog,20191217
2019-12-17,13:52,1:52 PM,37.385,37.385,37.385,100,3738.5,1,37.385,37.38,37.381,701,26203.88,7,37.385,37.385,37.38,37.385,,0.01717006802721089,hog,20191217
2019-12-17,13:53,1:53 PM,,,,0,0.0,0,37.41,37.39,37.4,600,22440.0,6,,,37.39,37.41,,0.017687074829931933,hog,20191217
2019-12-17,13:54,1:54 PM,,,,0,0.0,0,37.41,37.4,37.406,1100,41147.0,11,,,37.41,37.41,,0.01785034013605439,hog,20191217
2019-12-17,13:55,1:55 PM,37.405,37.405,37.405,100,3740.5,1,37.415,37.405,37.409,1600,59855.0,12,37.405,37.405,37.41,37.41,,0.017931972789115617,hog,20191217
2019-12-17,13:56,1:56 PM,,,,0,0.0,0,37.41,37.4,37.408,1500,56112.5,13,,,37.41,37.41,,0.017904761904761937,hog,20191217
2019-12-17,13:57,1:57 PM,,,,0,0.0,0,37.41,37.4,37.406,500,18703.0,5,,,37.4,37.41,,0.01785034013605439,hog,20191217
2019-12-17,13:58,1:58 PM,37.41,37.41,37.41,13,486.33,1,37.415,37.41,37.413,200,7482.5,2,37.41,37.41,37.41,37.415,,0.018040816326530523,hog,20191217
2019-12-17,13:59,1:59 PM,,,,0,0.0,0,37.43,37.41,37.421,1902,71174.34,16,,,37.42,37.41,,0.018258503401360527,hog,20191217
2019-12-17,14:00,2 PM,37.415,37.415,37.415,100,3741.5,1,37.43,37.37,37.394,7781,290963.18,71,37.415,37.415,37.42,37.39,,0.01752380952380948,hog,20191217
2019-12-17,14:01,2:01 PM,,,,0,0.0,0,,,,0,0.0,0,,,,,,,hog,20191217
2019-12-17,14:02,2:02 PM,,,,0,0.0,0,37.395,37.36,37.381,1758,65716.12,16,,,37.395,37.36,,0.01717006802721089,hog,20191217
2019-12-17,14:03,2:03 PM,37.36,37.36,37.36,1,37.36,1,37.37,37.365,37.37,1014,37892.68,9,37.36,37.36,37.37,37.37,,0.016870748299319657,hog,20191217
2019-12-17,14:04,2:04 PM,,,,0,0.0,0,37.365,37.36,37.363,550,20549.635,5,,,37.365,37.365,,0.016680272108843524,hog,20191217
2019-12-17,14:05,2:05 PM,37.36,37.36,37.36,100,3736.0,1,37.37,37.36,37.361,1800,67249.0,17,37.36,37.36,37.36,37.36,,0.016625850340135976,hog,20191217
2019-12-17,14:06,2:06 PM,,,,0,0.0,0,37.36,37.33,37.347,1100,41082.0,10,,,37.36,37.335,,0.01624489795918371,hog,20191217
2019-12-17,14:07,2:07 PM,,,,0,0.0,0,37.33,37.33,37.33,100,3733.0,1,,,37.33,37.33,,0.01578231292517002,hog,20191217
2019-12-17,14:08,2:08 PM,37.36,37.345,37.345,101,3771.86,2,37.365,37.34,37.352,2722,101672.42,25,37.345,37.36,37.34,37.35,,0.01638095238095229,hog,20191217
2019-12-17,14:09,2:09 PM,,,,0,0.0,0,37.36,37.347,37.352,975,36417.791,8,,,37.35,37.35,,0.01638095238095229,hog,20191217
2019-12-17,14:10,2:10 PM,37.355,37.355,37.355,100,3735.5,1,37.36,37.355,37.359,700,26151.5,7,37.355,37.355,37.355,37.36,,0.01657142857142862,hog,20191217
2019-12-17,14:11,2:11 PM,37.4,37.37,37.397,1307,48877.8,5,37.42,37.36,37.397,23353,873324.9,67,37.37,37.4,37.36,37.405,,0.017605442176870708,hog,20191217
2019-12-17,14:12,2:12 PM,,,,0,0.0,0,37.44,37.41,37.427,2256,84435.605,20,,,37.41,37.435,,0.018421768707482983,hog,20191217
2019-12-17,14:13,2:13 PM,37.42,37.42,37.42,100,3742.0,1,37.43,37.414,37.425,3600,134729.93,21,37.42,37.42,37.43,37.42,,0.018367346938775432,hog,20191217
2019-12-17,14:14,2:14 PM,,,,0,0.0,0,37.43,37.41,37.419,700,26193.5,7,,,37.41,37.43,,0.01820408163265298,hog,20191217
2019-12-17,14:15,2:15 PM,,,,0,0.0,0,37.435,37.435,37.435,200,7487.0,2,,,37.435,37.435,,0.018639455782312988,hog,20191217
2019-12-17,14:16,2:16 PM,,,,0,0.0,0,37.43,37.42,37.426,1296,48504.28,11,,,37.43,37.42,,0.018394557823129303,hog,20191217
2019-12-17,14:17,2:17 PM,37.45,37.45,37.45,200,7490.0,2,37.45,37.42,37.435,12387,463712.9524,90,37.45,37.45,37.42,37.42,,0.018639455782312988,hog,20191217
2019-12-17,14:18,2:18 PM,,,,0,0.0,0,37.42,37.41,37.412,500,18706.0,5,,,37.41,37.42,,0.018013605442176846,hog,20191217
2019-12-17,14:19,2:19 PM,,,,0,0.0,0,37.4,37.4,37.4,200,7480.0,2,,,37.4,37.4,,0.017687074829931933,hog,20191217
2019-12-17,14:20,2:20 PM,,,,0,0.0,0,37.43,37.4,37.412,1584,59260.1,13,,,37.4,37.43,,0.018013605442176846,hog,20191217
2019-12-17,14:21,2:21 PM,,,,0,0.0,0,37.44,37.43,37.432,2000,74863.4,17,,,37.434,37.43,,0.01855782312925176,hog,20191217
2019-12-17,14:22,2:22 PM,37.445,37.445,37.445,49,1834.805,1,37.45,37.435,37.44,400,14976.0,3,37.445,37.445,37.44,37.45,,0.01877551020408157,hog,20191217
2019-12-17,14:23,2:23 PM,37.45,37.45,37.45,80,2996.0,1,37.46,37.45,37.454,2307,86406.35,17,37.45,37.45,37.45,37.45,,0.01915646258503403,hog,20191217
2019-12-17,14:24,2:24 PM,,,,0,0.0,0,37.45,37.43,37.44,1384,51817.3,13,,,37.45,37.44,,0.01877551020408157,hog,20191217
2019-12-17,14:25,2:25 PM,37.425,37.425,37.425,100,3742.5,1,37.44,37.425,37.433,800,29946.5,8,37.425,37.425,37.44,37.425,,0.018585034013605436,hog,20191217
2019-12-17,14:26,2:26 PM,37.425,37.425,37.425,100,3742.5,1,37.425,37.41,37.42,2450,91679.01,10,37.425,37.425,37.42,37.41,,0.01823129251700685,hog,20191217
2019-12-17,14:27,2:27 PM,,,,0,0.0,0,37.42,37.42,37.42,400,14968.0,3,,,37.42,37.42,,0.01823129251700685,hog,20191217
2019-12-17,14:28,2:28 PM,,,,0,0.0,0,37.426,37.42,37.421,1085,40602.182,7,,,37.42,37.42,,0.018258503401360527,hog,20191217
2019-12-17,14:29,2:29 PM,,,,0,0.0,0,37.43,37.425,37.428,400,14971.0,4,,,37.43,37.425,,0.01844897959183666,hog,20191217
2019-12-17,14:30,2:30 PM,37.44,37.43,37.43,106,3967.6,5,37.43,37.43,37.43,1000,37430.0,9,37.43,37.44,37.43,37.43,,0.018503401360544208,hog,20191217
2019-12-17,14:31,2:31 PM,,,,0,0.0,0,37.44,37.44,37.44,300,11232.0,3,,,37.44,37.44,,0.01877551020408157,hog,20191217
2019-12-17,14:32,2:32 PM,,,,0,0.0,0,37.445,37.445,37.445,100,3744.5,1,,,37.445,37.445,,0.01891156462585035,hog,20191217
2019-12-17,14:33,2:33 PM,,,,0,0.0,0,,,,0,0.0,0,,,,,,,hog,20191217
2019-12-17,14:34,2:34 PM,,,,0,0.0,0,37.46,37.45,37.452,4012,150255.9,25,,,37.45,37.45,,0.019102040816326483,hog,20191217
2019-12-17,14:35,2:35 PM,37.445,37.445,37.445,100,3744.5,1,37.445,37.44,37.443,400,14977.0,4,37.445,37.445,37.44,37.445,,0.018857142857142798,hog,20191217
2019-12-17,14:36,2:36 PM,,,,0,0.0,0,37.45,37.44,37.447,400,14979.0,4,,,37.45,37.45,,0.018965986394557897,hog,20191217
2019-12-17,14:37,2:37 PM,37.445,37.445,37.445,200,7489.0,2,37.45,37.44,37.448,900,33702.95,5,37.445,37.445,37.45,37.445,,0.018993197278911574,hog,20191217
2019-12-17,14:38,2:38 PM,37.45,37.45,37.45,1,37.45,1,37.46,37.44,37.454,1388,51985.63,12,37.45,37.45,37.44,37.46,,0.01915646258503403,hog,20191217
2019-12-17,14:39,2:39 PM,,,,0,0.0,0,37.47,37.46,37.463,600,22478.0,6,,,37.46,37.47,,0.019401360544217712,hog,20191217
2019-12-17,14:40,2:40 PM,37.485,37.485,37.485,48,1799.28,1,37.49,37.46,37.477,5656,211968.0,38,37.485,37.485,37.46,37.47,,0.01978231292516998,hog,20191217
2019-12-17,14:41,2:41 PM,,,,0,0.0,0,37.49,37.47,37.48,902,33806.96,9,,,37.47,37.48,,0.019863945578231207,hog,20191217
2019-12-17,14:42,2:42 PM,,,,0,0.0,0,37.483,37.48,37.481,672,25187.0244,6,,,37.483,37.48,,0.019891156462585078,hog,20191217
2019-12-17,14:43,2:43 PM,,,,0,0.0,0,37.49,37.48,37.489,4041,151493.59,31,,,37.49,37.485,,0.02010884353741489,hog,20191217
2019-12-17,14:44,2:44 PM,37.485,37.485,37.485,100,3748.5,1,37.485,37.485,37.485,782,29313.27,7,37.485,37.485,37.485,37.485,,0.019999999999999983,hog,20191217
2019-12-17,14:45,2:45 PM,37.485,37.485,37.485,200,7497.0,2,37.49,37.485,37.486,600,22491.5,6,37.485,37.485,37.485,37.485,,0.020027210884353663,hog,20191217
2019-12-17,14:46,2:46 PM,,,,0,0.0,0,37.5,37.485,37.49,5624,210844.94,16,,,37.49,37.495,,0.020136054421768763,hog,20191217
2019-12-17,14:47,2:47 PM,,,,0,0.0,0,37.51,37.49,37.495,5594,209747.0,19,,,37.5,37.51,,0.020272108843537345,hog,20191217
2019-12-17,14:48,2:48 PM,37.51,37.51,37.51,2,75.02,1,37.505,37.505,37.505,400,15002.0,4,37.51,37.51,37.505,37.505,,0.0205442176870749,hog,20191217
2019-12-17,14:49,2:49 PM,37.515,37.51,37.513,198,7427.48,2,37.52,37.51,37.513,3542,132869.59,27,37.51,37.515,37.51,37.52,,0.02076190476190471,hog,20191217
2019-12-17,14:50,2:50 PM,37.545,37.515,37.533,500,18766.5,3,37.55,37.51,37.525,17344,650826.37,59,37.515,37.545,37.515,37.535,,0.02108843537414962,hog,20191217
2019-12-17,14:51,2:51 PM,37.575,37.57,37.573,300,11272.0,3,37.58,37.53,37.561,6298,236558.92,42,37.57,37.575,37.535,37.58,,0.022068027210884352,hog,20191217
2019-12-17,14:52,2:52 PM,37.575,37.565,37.572,300,11271.5,3,37.58,37.56,37.567,6987,262483.105,46,37.575,37.565,37.575,37.58,,0.02223129251700681,hog,20191217
2019-12-17,14:53,2:53 PM,37.585,37.585,37.585,100,3758.5,1,37.59,37.575,37.581,2096,78769.61,18,37.585,37.585,37.575,37.585,,0.022612244897959266,hog,20191217
2019-12-17,14:54,2:54 PM,37.58,37.575,37.578,300,11273.5,3,37.585,37.57,37.579,5290,198792.57,33,37.58,37.575,37.58,37.57,,0.022557823129251718,hog,20191217
2019-12-17,14:55,2:55 PM,37.575,37.575,37.575,500,18787.5,2,37.58,37.575,37.575,1808,67936.1,12,37.575,37.575,37.575,37.575,,0.022448979591836813,hog,20191217
2019-12-17,14:56,2:56 PM,37.575,37.555,37.563,612,22988.84,7,37.575,37.55,37.569,8526,320309.77,55,37.575,37.555,37.575,37.555,,0.022285714285714357,hog,20191217
2019-12-17,14:57,2:57 PM,37.56,37.55,37.558,504,18929.23,7,37.57,37.54,37.558,8130,305344.9552,48,37.555,37.55,37.555,37.54,,0.021986394557823124,hog,20191217
2019-12-17,14:58,2:58 PM,,,,0,0.0,0,37.55,37.544,37.546,301,11301.4743,3,,,37.55,37.545,,0.021659863945578214,hog,20191217
2019-12-17,14:59,2:59 PM,,,,0,0.0,0,37.55,37.545,37.549,1321,49602.55,10,,,37.55,37.55,,0.021741496598639443,hog,20191217
2019-12-17,15:00,3 PM,37.535,37.535,37.535,232,8708.12,3,37.54,37.535,37.539,2910,109237.8,19,37.535,37.535,37.54,37.54,,0.02146938775510208,hog,20191217
2019-12-17,15:01,3:01 PM,37.535,37.53,37.535,104,3903.62,3,37.54,37.525,37.531,4714,176923.42,36,37.53,37.535,37.535,37.53,,0.021251700680272077,hog,20191217
2019-12-17,15:02,3:02 PM,37.525,37.525,37.525,100,3752.5,1,37.53,37.52,37.523,2393,89792.36,19,37.525,37.525,37.53,37.52,,0.021034013605442266,hog,20191217
2019-12-17,15:03,3:03 PM,,,,0,0.0,0,37.53,37.5,37.511,3436,128888.96,25,,,37.53,37.51,,0.020707482993197353,hog,20191217
2019-12-17,15:04,3:04 PM,37.505,37.505,37.505,6,225.03,1,37.51,37.5,37.505,1700,63759.0,16,37.505,37.505,37.5,37.51,,0.0205442176870749,hog,20191217
2019-12-17,15:05,3:05 PM,37.535,37.505,37.52,200,7504.0,2,37.54,37.503,37.522,5453,204609.94,43,37.505,37.535,37.503,37.53,,0.021006802721088392,hog,20191217
2019-12-17,15:06,3:06 PM,37.525,37.515,37.517,123,4614.575,2,37.535,37.51,37.522,3203,120182.99,23,37.525,37.515,37.535,37.515,,0.021006802721088392,hog,20191217
2019-12-17,15:07,3:07 PM,37.515,37.515,37.515,100,3751.5,1,37.52,37.515,37.519,900,33767.0,7,37.515,37.515,37.52,37.515,,0.020925170068027167,hog,20191217
2019-12-17,15:08,3:08 PM,37.515,37.515,37.515,100,3751.5,1,37.52,37.5,37.511,2499,93740.99,19,37.515,37.515,37.515,37.5,,0.020707482993197353,hog,20191217
2019-12-17,15:09,3:09 PM,,,,0,0.0,0,37.51,37.505,37.508,1920,72015.1,14,,,37.505,37.51,,0.02062585034013613,hog,20191217
2019-12-17,15:10,3:10 PM,37.505,37.505,37.505,500,18752.5,5,37.51,37.5,37.506,2200,82514.0,20,37.505,37.505,37.505,37.51,,0.020571428571428577,hog,20191217
2019-12-17,15:11,3:11 PM,37.505,37.505,37.505,200,7501.0,2,37.51,37.505,37.507,1775,66575.375,14,37.505,37.505,37.505,37.51,,0.020598639455782254,hog,20191217
2019-12-17,15:12,3:12 PM,37.505,37.505,37.505,202,7576.01,4,37.51,37.5,37.507,2100,78765.5,21,37.505,37.505,37.505,37.51,,0.020598639455782254,hog,20191217
2019-12-17,15:13,3:13 PM,37.505,37.505,37.505,300,11251.5,3,37.51,37.5,37.505,5119,191990.095,37,37.505,37.505,37.51,37.51,,0.0205442176870749,hog,20191217
2019-12-17,15:14,3:14 PM,37.51,37.505,37.506,123,4613.23,3,37.51,37.5,37.506,2100,78762.0,20,37.505,37.505,37.505,37.5,,0.020571428571428577,hog,20191217
2019-12-17,15:15,3:15 PM,37.54,37.505,37.537,128,4804.74,5,37.56,37.5,37.533,8292,311225.59,57,37.505,37.54,37.505,37.535,,0.021306122448979625,hog,20191217
2019-12-17,15:16,3:16 PM,37.535,37.535,37.535,2,75.07,1,37.54,37.53,37.535,900,33782.0,9,37.535,37.535,37.535,37.535,,0.02136054421768698,hog,20191217
2019-12-17,15:17,3:17 PM,37.55,37.55,37.55,4,150.2,1,37.59,37.54,37.574,16544,621631.03,61,37.55,37.55,37.54,37.565,,0.022421768707482942,hog,20191217
2019-12-17,15:18,3:18 PM,,,,0,0.0,0,37.565,37.5,37.543,5228,196275.3,34,,,37.565,37.51,,0.021578231292516986,hog,20191217
2019-12-17,15:19,3:19 PM,37.515,37.515,37.515,100,3751.5,1,37.52,37.505,37.513,1500,56269.0,13,37.515,37.515,37.505,37.52,,0.02076190476190471,hog,20191217
2019-12-17,15:20,3:20 PM,37.51,37.51,37.51,100,3751.0,1,37.515,37.5,37.507,5971,223955.21,25,37.51,37.51,37.51,37.505,,0.020598639455782254,hog,20191217
2019-12-17,15:21,3:21 PM,37.51,37.505,37.507,313,11739.63,8,37.54,37.5,37.513,7882,295675.035,62,37.505,37.51,37.505,37.54,,0.02076190476190471,hog,20191217
2019-12-17,15:22,3:22 PM,37.505,37.505,37.505,100,3750.5,1,37.54,37.5,37.52,5727,214877.8,42,37.505,37.505,37.54,37.5,,0.020952380952381038,hog,20191217
2019-12-17,15:23,3:23 PM,37.505,37.505,37.505,442,16577.21,6,37.505,37.5,37.504,1500,56256.5,15,37.505,37.505,37.505,37.505,,0.02051700680272103,hog,20191217
2019-12-17,15:24,3:24 PM,37.51,37.51,37.51,11,412.61,5,37.515,37.5,37.509,4043,151647.93,36,37.51,37.51,37.505,37.5,,0.020653061224489806,hog,20191217
2019-12-17,15:25,3:25 PM,,,,0,0.0,0,37.485,37.47,37.476,2105,78887.85,16,,,37.485,37.47,,0.019755102040816302,hog,20191217
2019-12-17,15:26,3:26 PM,37.475,37.475,37.475,200,7495.0,2,37.48,37.47,37.475,1700,63708.5,15,37.475,37.475,37.475,37.47,,0.019727891156462625,hog,20191217
2019-12-17,15:27,3:27 PM,37.475,37.475,37.475,300,11242.5,3,37.48,37.475,37.478,1443,54080.64,13,37.475,37.475,37.475,37.475,,0.01980952380952385,hog,20191217
2019-12-17,15:28,3:28 PM,37.475,37.475,37.475,100,3747.5,1,37.495,37.475,37.486,3445,129138.05,32,37.475,37.475,37.475,37.49,,0.020027210884353663,hog,20191217
2019-12-17,15:29,3:29 PM,37.485,37.485,37.485,200,7497.0,2,37.505,37.48,37.492,3970,148842.0,36,37.485,37.485,37.48,37.5,,0.020190476190476116,hog,20191217
2019-12-17,15:30,3:30 PM,37.505,37.5,37.505,205,7688.5,3,37.505,37.5,37.505,5306,199001.03,13,37.5,37.505,37.5,37.505,,0.0205442176870749,hog,20191217
2019-12-17,15:31,3:31 PM,37.49,37.46,37.486,185,6935.0,3,37.51,37.47,37.492,2906,108952.0,25,37.49,37.46,37.5,37.47,,0.020190476190476116,hog,20191217
2019-12-17,15:32,3:32 PM,37.47,37.445,37.451,413,15467.39,6,37.475,37.44,37.458,6522,244298.923,49,37.46,37.47,37.47,37.46,,0.019265306122448936,hog,20191217
2019-12-17,15:33,3:33 PM,,,,0,0.0,0,37.48,37.44,37.46,10670,399702.0764,55,,,37.46,37.44,,0.019319727891156487,hog,20191217
2019-12-17,15:34,3:34 PM,37.44,37.425,37.428,516,19312.74,5,37.45,37.42,37.44,11281,422359.64,56,37.44,37.425,37.44,37.425,,0.01877551020408157,hog,20191217
2019-12-17,15:35,3:35 PM,37.44,37.425,37.432,209,7823.37,7,37.45,37.42,37.434,2894,108335.23,25,37.425,37.44,37.43,37.45,,0.018612244897959117,hog,20191217
2019-12-17,15:36,3:36 PM,,,,0,0.0,0,37.465,37.46,37.462,714,26747.94,7,,,37.46,37.465,,0.019374149659864035,hog,20191217
2019-12-17,15:37,3:37 PM,37.495,37.465,37.48,315,11806.05,9,37.5,37.46,37.477,2984,111832.84,26,37.465,37.495,37.46,37.495,,0.01978231292516998,hog,20191217
2019-12-17,15:38,3:38 PM,37.525,37.505,37.515,200,7503.0,2,37.525,37.5,37.51,3643,136649.63,33,37.525,37.505,37.5,37.5,,0.020680272108843482,hog,20191217
2019-12-17,15:39,3:39 PM,,,,0,0.0,0,37.5,37.49,37.499,1831,68660.52,17,,,37.5,37.5,,0.020380952380952444,hog,20191217
2019-12-17,15:40,3:40 PM,,,,0,0.0,0,37.5,37.49,37.492,1100,41241.5,11,,,37.49,37.5,,0.020190476190476116,hog,20191217
2019-12-17,15:41,3:41 PM,37.48,37.475,37.478,225,8432.5,3,37.49,37.45,37.47,2518,94349.04,20,37.48,37.475,37.49,37.45,,0.019591836734693845,hog,20191217
2019-12-17,15:42,3:42 PM,37.47,37.46,37.46,105,3933.33,3,37.48,37.455,37.466,5602,209886.4617,44,37.46,37.465,37.46,37.48,,0.01948299319727894,hog,20191217
2019-12-17,15:43,3:43 PM,37.46,37.45,37.455,200,7491.0,3,37.47,37.45,37.458,1500,56186.52,13,37.45,37.46,37.47,37.45,,0.019265306122448936,hog,20191217
2019-12-17,15:44,3:44 PM,37.445,37.445,37.445,108,4044.06,2,37.453,37.42,37.44,3668,137331.619,24,37.445,37.445,37.453,37.42,,0.01877551020408157,hog,20191217
2019-12-17,15:45,3:45 PM,37.455,37.43,37.45,700,26214.905,4,37.46,37.42,37.443,4763,178341.97,30,37.43,37.455,37.42,37.455,,0.018857142857142798,hog,20191217
2019-12-17,15:46,3:46 PM,37.46,37.46,37.46,100,3746.0,1,37.465,37.452,37.461,3608,135160.1743,21,37.46,37.46,37.456,37.46,,0.019346938775510164,hog,20191217
2019-12-17,15:47,3:47 PM,37.465,37.465,37.465,100,3746.5,1,37.465,37.46,37.464,1526,57169.59,14,37.465,37.465,37.465,37.465,,0.019428571428571392,hog,20191217
2019-12-17,15:48,3:48 PM,37.48,37.465,37.474,1400,52464.0,7,37.48,37.46,37.474,10733,402209.685,58,37.465,37.48,37.465,37.475,,0.019700680272108754,hog,20191217
2019-12-17,15:49,3:49 PM,37.475,37.475,37.475,100,3747.5,1,37.48,37.47,37.473,4754,178148.3668,35,37.475,37.475,37.475,37.48,,0.019673469387755074,hog,20191217
2019-12-17,15:50,3:50 PM,37.48,37.475,37.475,121,4534.525,4,37.48,37.47,37.477,5056,189481.38,41,37.475,37.48,37.475,37.475,,0.01978231292516998,hog,20191217
2019-12-17,15:51,3:51 PM,37.475,37.475,37.475,20,749.5,1,37.475,37.425,37.459,7121,266743.148,61,37.475,37.475,37.475,37.425,,0.019292517006802807,hog,20191217
2019-12-17,15:52,3:52 PM,37.425,37.425,37.425,205,7672.125,3,37.43,37.42,37.425,4304,161078.495,42,37.425,37.425,37.43,37.42,,0.018367346938775432,hog,20191217
2019-12-17,15:53,3:53 PM,37.4,37.36,37.38,200,7476.0,4,37.425,37.35,37.385,6151,229955.13,50,37.4,37.36,37.425,37.37,,0.017278911564625795,hog,20191217
2019-12-17,15:54,3:54 PM,37.38,37.365,37.367,425,15881.14,6,37.39,37.355,37.371,6087,227479.015,50,37.365,37.38,37.37,37.39,,0.01689795918367353,hog,20191217
2019-12-17,15:55,3:55 PM,37.42,37.39,37.411,214,8005.99,8,37.435,37.38,37.411,9461,353948.01,71,37.39,37.42,37.385,37.425,,0.017986394557823165,hog,20191217
2019-12-17,15:56,3:56 PM,37.45,37.43,37.437,308,11530.6,4,37.46,37.41,37.439,15517,580946.04,117,37.43,37.45,37.425,37.42,,0.018748299319727893,hog,20191217
2019-12-17,15:57,3:57 PM,37.425,37.425,37.425,462,17290.35,5,37.44,37.42,37.428,8835,330672.905,69,37.425,37.425,37.43,37.425,,0.01844897959183666,hog,20191217
2019-12-17,15:58,3:58 PM,37.435,37.415,37.425,791,29603.625,9,37.435,37.41,37.422,15714,588058.18,130,37.425,37.42,37.42,37.42,,0.018285714285714204,hog,20191217
2019-12-17,15:59,3:59 PM,37.445,37.41,37.438,1257,47059.4,11,37.45,37.41,37.436,23559,881958.714,153,37.41,37.425,37.415,37.42,,0.018666666666666665,hog,20191217
