date,minute,label,high,low,average,volume,notional,numberOfTrades,marketHigh,marketLow,marketAverage,marketVolume,marketNotional,marketNumberOfTrades,open,close,marketOpen,marketClose,changeOverTime,marketChangeOverTime,tickerName,tickerDate
2020-02-04,09:30,09:30 AM,,,,0,0.0,0,34.85,34.65,34.799,34943,1215977.4152,19,,,34.8,34.79,,0.0,hog,20200204
2020-02-04,09:31,09:31 AM,,,,0,0.0,0,34.73,34.65,34.679,2338,81079.22,12,,,34.73,34.65,,-0.003448374953303182,hog,20200204
2020-02-04,09:32,09:32 AM,34.7,34.7,34.7,100,3470.0,1,34.711,34.65,34.694,3761,130483.71,14,34.7,34.7,34.7,34.65,,-0.003017328084140259,hog,20200204
2020-02-04,09:33,09:33 AM,34.665,34.665,34.665,110,3813.15,2,34.7,34.64,34.657,1072,37152.24,10,34.665,34.665,34.64,34.665,,-0.004080577028075606,hog,20200204
2020-02-04,09:34,09:34 AM,,,,0,0.0,0,34.67,34.57,34.599,753,26053.33,7,,,34.67,34.57,,-0.005747291588838841,hog,20200204
2020-02-04,09:35,09:35 AM,,,,0,0.0,0,34.65,34.52,34.566,4750,164187.0,39,,,34.54,34.57,,-0.006695594700997069,hog,20200204
2020-02-04,09:36,09:36 AM,,,,0,0.0,0,34.65,34.59,34.608,800,27686.0,8,,,34.59,34.65,,-0.005488663467341087,hog,20200204
2020-02-04,09:37,09:37 AM,34.66,34.65,34.655,200,6931.0,2,34.7,34.607,34.65,2440,84546.71,20,34.65,34.66,34.64,34.7,,-0.004281732233684902,hog,20200204
2020-02-04,09:38,09:38 AM,,,,0,0.0,0,34.69,34.55,34.62,1350,46737.21,11,,,34.69,34.59,,-0.005143825972010749,hog,20200204
2020-02-04,09:39,09:39 AM,,,,0,0.0,0,34.61,34.55,34.584,1821,62978.4399,12,,,34.56,34.595,,-0.0061783384580015605,hog,20200204
2020-02-04,09:40,09:40 AM,,,,0,0.0,0,34.69,34.63,34.657,1200,41588.0,10,,,34.63,34.64,,-0.004080577028075606,hog,20200204
2020-02-04,09:41,09:41 AM,,,,0,0.0,0,34.675,34.63,34.654,1791,62064.7271,7,,,34.675,34.63,,-0.0041667864019079865,hog,20200204
2020-02-04,09:42,09:42 AM,34.76,34.675,34.705,300,10411.5,3,34.77,34.65,34.696,10822,375481.8425,36,34.675,34.76,34.65,34.72,,-0.0029598551682520056,hog,20200204
2020-02-04,09:43,09:43 AM,34.655,34.655,34.655,100,3465.5,1,34.72,34.65,34.674,3174,110056.1054,22,34.655,34.655,34.72,34.66,,-0.003592057243024225,hog,20200204
2020-02-04,09:44,09:44 AM,,,,0,0.0,0,34.67,34.63,34.653,900,31188.0,6,,,34.63,34.67,,-0.004195522859852318,hog,20200204
2020-02-04,09:45,09:45 AM,,,,0,0.0,0,34.71,34.64,34.674,1895,65706.9339,11,,,34.66,34.67,,-0.003592057243024225,hog,20200204
2020-02-04,09:46,09:46 AM,,,,0,0.0,0,34.8,34.69,34.757,5633,195786.48,32,,,34.69,34.76,,-0.0012069312336561854,hog,20200204
2020-02-04,09:47,09:47 AM,,,,0,0.0,0,34.8,34.71,34.75,3927,136464.7453,11,,,34.71,34.8,,-0.0014080864392654814,hog,20200204
2020-02-04,09:48,09:48 AM,,,,0,0.0,0,34.796,34.77,34.78,1550,53908.9,12,,,34.796,34.78,,-0.0005459927009396348,hog,20200204
2020-02-04,09:49,09:49 AM,,,,0,0.0,0,34.82,34.78,34.812,1700,59180.0,7,,,34.78,34.8,,0.0003735739532744655,hog,20200204
2020-02-04,09:50,09:50 AM,34.835,34.835,34.835,66,2299.11,1,34.86,34.79,34.823,3298,114847.38,26,34.835,34.835,34.84,34.82,,0.0006896749906606773,hog,20200204
2020-02-04,09:51,09:51 AM,,,,0,0.0,0,34.82,34.755,34.794,2208,76824.9,19,,,34.8,34.755,,-0.0001436822897210425,hog,20200204
2020-02-04,09:52,09:52 AM,,,,0,0.0,0,34.78,34.72,34.737,900,31263.02,6,,,34.78,34.72,,-0.001781660392539947,hog,20200204
2020-02-04,09:53,09:53 AM,,,,0,0.0,0,34.8,34.74,34.766,7144,248369.38,41,,,34.77,34.77,,-0.0009483031121584313,hog,20200204
2020-02-04,09:54,09:54 AM,34.85,34.85,34.85,100,3485.0,1,34.85,34.79,34.812,1900,66143.0,17,34.85,34.85,34.81,34.85,,0.0003735739532744655,hog,20200204
2020-02-04,09:55,09:55 AM,,,,0,0.0,0,34.85,34.8,34.828,2566,89368.696,14,,,34.85,34.81,,0.0008333572803817199,hog,20200204
2020-02-04,09:56,09:56 AM,,,,0,0.0,0,34.81,34.8,34.805,200,6961.0,2,,,34.8,34.81,,0.00017241874766516933,hog,20200204
2020-02-04,09:57,09:57 AM,34.815,34.785,34.8,200,6960.0,2,34.85,34.785,34.826,3958,137839.9,18,34.785,34.815,34.805,34.85,,0.000775884364493262,hog,20200204
2020-02-04,09:58,09:58 AM,34.86,34.86,34.86,100,3486.0,1,34.88,34.86,34.866,1400,48812.0,13,34.86,34.86,34.86,34.88,,0.0019253426822609895,hog,20200204
2020-02-04,09:59,09:59 AM,,,,0,0.0,0,34.91,34.88,34.899,2050,71543.5,19,,,34.88,34.91,,0.0028736457944194206,hog,20200204
2020-02-04,10:00,10 AM,34.92,34.92,34.92,100,3492.0,1,34.96,34.9,34.92,8269,288756.46,77,34.92,34.92,34.9,34.96,,0.0034771114112475132,hog,20200204
2020-02-04,10:01,10:01 AM,34.96,34.96,34.96,100,3496.0,1,34.96,34.93,34.949,1500,52423.5,13,34.96,34.96,34.96,34.93,,0.004310468691629029,hog,20200204
2020-02-04,10:02,10:02 AM,34.91,34.91,34.91,50,1745.5,1,34.92,34.82,34.876,3300,115091.5,25,34.91,34.91,34.92,34.82,,0.0022127072617028703,hog,20200204
2020-02-04,10:03,10:03 AM,,,,0,0.0,0,34.835,34.75,34.776,5048,175550.06,24,,,34.835,34.75,,-0.0006609385327163463,hog,20200204
2020-02-04,10:04,10:04 AM,34.72,34.72,34.72,100,3472.0,1,34.77,34.72,34.748,2098,72900.56,16,34.72,34.72,34.75,34.72,,-0.0014655593551539392,hog,20200204
2020-02-04,10:05,10:05 AM,34.66,34.66,34.66,100,3466.0,1,34.72,34.65,34.684,3500,121396.0,30,34.66,34.66,34.72,34.66,,-0.003304692663582344,hog,20200204
2020-02-04,10:06,10:06 AM,34.68,34.62,34.65,200,6930.0,2,34.7,34.62,34.651,4441,153883.2,41,34.62,34.68,34.64,34.7,,-0.0042529957757405715,hog,20200204
2020-02-04,10:07,10:07 AM,,,,0,0.0,0,34.76,34.73,34.749,3400,118147.0,24,,,34.73,34.75,,-0.0014368228972096082,hog,20200204
2020-02-04,10:08,10:08 AM,34.745,34.74,34.742,200,6948.5,2,34.75,34.72,34.736,4104,142557.0,34,34.745,34.74,34.74,34.735,,-0.001810396850484278,hog,20200204
2020-02-04,10:09,10:09 AM,,,,0,0.0,0,34.72,34.7,34.712,3376,117188.6756,24,,,34.72,34.72,,-0.002500071841144751,hog,20200204
2020-02-04,10:10,10:10 AM,,,,0,0.0,0,34.765,34.7,34.751,7044,244783.65,49,,,34.73,34.7,,-0.0013793499813213547,hog,20200204
2020-02-04,10:11,10:11 AM,,,,0,0.0,0,34.72,34.69,34.698,1800,62457.0,15,,,34.71,34.72,,-0.0029023822523635474,hog,20200204
2020-02-04,10:12,10:12 AM,,,,0,0.0,0,34.74,34.71,34.717,1600,55547.0,15,,,34.72,34.71,,-0.0023563895514239126,hog,20200204
2020-02-04,10:13,10:13 AM,34.71,34.71,34.71,100,3471.0,1,34.72,34.69,34.709,1500,52063.5,10,34.71,34.71,34.72,34.69,,-0.0025862812149773356,hog,20200204
2020-02-04,10:14,10:14 AM,,,,0,0.0,0,34.73,34.7,34.713,900,31241.5,7,,,34.7,34.73,,-0.0024713353832006243,hog,20200204
2020-02-04,10:15,10:15 AM,,,,0,0.0,0,34.74,34.7,34.722,2150,74653.5,20,,,34.74,34.72,,-0.0022127072617028703,hog,20200204
2020-02-04,10:16,10:16 AM,,,,0,0.0,0,34.74,34.72,34.732,1300,45152.0,12,,,34.72,34.73,,-0.0019253426822609895,hog,20200204
2020-02-04,10:17,10:17 AM,,,,0,0.0,0,34.752,34.72,34.738,4286,148885.63,31,,,34.752,34.72,,-0.0017529239345958202,hog,20200204
2020-02-04,10:18,10:18 AM,,,,0,0.0,0,34.73,34.7,34.719,3400,118044.5,24,,,34.73,34.7,,-0.002298916635535455,hog,20200204
2020-02-04,10:19,10:19 AM,34.75,34.75,34.75,200,6950.0,3,34.75,34.7,34.728,5228,181560.74,42,34.75,34.75,34.7,34.73,,-0.0020402885140377008,hog,20200204
2020-02-04,10:20,10:20 AM,34.7,34.7,34.7,100,3470.0,1,34.76,34.7,34.744,3354,116530.26,26,34.7,34.7,34.74,34.7,,-0.0015805051869306507,hog,20200204
2020-02-04,10:21,10:21 AM,,,,0,0.0,0,34.76,34.697,34.726,1971,68444.48,16,,,34.7,34.75,,-0.002097761429926159,hog,20200204
2020-02-04,10:22,10:22 AM,,,,0,0.0,0,34.75,34.66,34.71,2970,103089.14,24,,,34.75,34.68,,-0.002557544757033209,hog,20200204
2020-02-04,10:23,10:23 AM,,,,0,0.0,0,34.68,34.65,34.67,1301,45105.66,11,,,34.655,34.68,,-0.0037070030748009362,hog,20200204
2020-02-04,10:24,10:24 AM,,,,0,0.0,0,34.77,34.71,34.734,1057,36713.49,8,,,34.71,34.75,,-0.0018678697663725317,hog,20200204
2020-02-04,10:25,10:25 AM,34.72,34.71,34.717,300,10415.0,3,34.77,34.71,34.734,3100,107675.0,28,34.71,34.72,34.77,34.73,,-0.0018678697663725317,hog,20200204
2020-02-04,10:26,10:26 AM,,,,0,0.0,0,34.72,34.68,34.696,1571,54506.78,12,,,34.72,34.68,,-0.0029598551682520056,hog,20200204
2020-02-04,10:27,10:27 AM,,,,0,0.0,0,34.7,34.68,34.686,1300,45091.48,9,,,34.68,34.7,,-0.0032472197476938864,hog,20200204
2020-02-04,10:28,10:28 AM,34.675,34.675,34.675,100,3467.5,1,34.7,34.66,34.68,2649,91867.07,17,34.675,34.675,34.7,34.675,,-0.0034196384953590554,hog,20200204
2020-02-04,10:29,10:29 AM,,,,0,0.0,0,34.68,34.655,34.667,2500,86668.5,24,,,34.67,34.68,,-0.003793212448633521,hog,20200204
2020-02-04,10:30,10:30 AM,34.665,34.665,34.665,100,3466.5,1,34.682,34.665,34.667,2770,96028.586,8,34.665,34.665,34.682,34.665,,-0.003793212448633521,hog,20200204
2020-02-04,10:31,10:31 AM,,,,0,0.0,0,34.685,34.64,34.669,2900,100539.5,22,,,34.68,34.64,,-0.0037357395327452672,hog,20200204
2020-02-04,10:32,10:32 AM,,,,0,0.0,0,34.665,34.66,34.662,846,29323.86,8,,,34.66,34.66,,-0.003936894738354564,hog,20200204
2020-02-04,10:33,10:33 AM,,,,0,0.0,0,34.67,34.625,34.647,2700,93546.5,19,,,34.67,34.63,,-0.004367941607517487,hog,20200204
2020-02-04,10:34,10:34 AM,34.61,34.61,34.61,100,3461.0,1,34.62,34.59,34.597,1860,64351.216,13,34.61,34.61,34.62,34.6,,-0.005804764504727095,hog,20200204
2020-02-04,10:35,10:35 AM,,,,0,0.0,0,34.61,34.6,34.606,845,29241.812,8,,,34.606,34.61,,-0.005546136383229341,hog,20200204
2020-02-04,10:36,10:36 AM,34.65,34.635,34.648,109,3776.635,3,34.65,34.61,34.633,3961,137182.3524,24,34.635,34.65,34.62,34.64,,-0.0047702520187360795,hog,20200204
2020-02-04,10:37,10:37 AM,34.64,34.64,34.64,10,346.4,1,34.65,34.635,34.645,700,24251.5,7,34.64,34.64,34.65,34.64,,-0.0044254145234057405,hog,20200204
2020-02-04,10:38,10:38 AM,34.61,34.6,34.609,105,3634.0,2,34.63,34.58,34.612,5510,190710.1,52,34.6,34.61,34.63,34.63,,-0.005373717635564172,hog,20200204
2020-02-04,10:39,10:39 AM,,,,0,0.0,0,34.63,34.609,34.614,1600,55382.72,13,,,34.62,34.61,,-0.005316244719675918,hog,20200204
2020-02-04,10:40,10:40 AM,,,,0,0.0,0,34.6,34.57,34.584,800,27667.0,6,,,34.6,34.58,,-0.0061783384580015605,hog,20200204
2020-02-04,10:41,10:41 AM,,,,0,0.0,0,34.56,34.53,34.543,300,10363.0,3,,,34.56,34.53,,-0.007356533233713619,hog,20200204
2020-02-04,10:42,10:42 AM,34.56,34.56,34.56,90,3110.4,1,34.57,34.525,34.546,2300,79456.0,21,34.56,34.56,34.55,34.545,,-0.007270323859881035,hog,20200204
2020-02-04,10:43,10:43 AM,34.57,34.57,34.57,198,6844.86,2,34.57,34.54,34.559,1719,59407.0922,12,34.57,34.57,34.55,34.558,,-0.006896749906606569,hog,20200204
2020-02-04,10:44,10:44 AM,,,,0,0.0,0,34.568,34.53,34.544,515,17790.3545,5,,,34.568,34.53,,-0.007327796775769492,hog,20200204
2020-02-04,10:45,10:45 AM,34.535,34.5,34.517,226,7800.76,3,34.535,34.49,34.51,1800,62118.0,16,34.535,34.51,34.535,34.49,,-0.008304836345872051,hog,20200204
2020-02-04,10:46,10:46 AM,34.52,34.52,34.52,113,3900.76,2,34.52,34.5,34.508,600,20704.5,6,34.52,34.52,34.5,34.5,,-0.008362309261760304,hog,20200204
2020-02-04,10:47,10:47 AM,34.515,34.515,34.515,100,3451.5,1,34.515,34.49,34.508,900,31057.36,6,34.515,34.515,34.515,34.51,,-0.008362309261760304,hog,20200204
2020-02-04,10:48,10:48 AM,,,,0,0.0,0,34.535,34.51,34.519,1400,48326.5,13,,,34.53,34.52,,-0.008046208224374296,hog,20200204
2020-02-04,10:49,10:49 AM,,,,0,0.0,0,34.52,34.49,34.501,900,31051.0,8,,,34.52,34.49,,-0.008563464467369804,hog,20200204
2020-02-04,10:50,10:50 AM,34.48,34.47,34.477,143,4930.21,2,34.48,34.45,34.465,1824,62863.54,16,34.47,34.48,34.47,34.48,,-0.009597976953360616,hog,20200204
2020-02-04,10:51,10:51 AM,,,,0,0.0,0,34.48,34.47,34.478,500,17239.0,5,,,34.48,34.48,,-0.00922440300008615,hog,20200204
2020-02-04,10:52,10:52 AM,34.475,34.475,34.475,11,379.225,1,34.48,34.455,34.464,600,20678.5,5,34.475,34.475,34.48,34.455,,-0.009626713411304947,hog,20200204
2020-02-04,10:53,10:53 AM,34.435,34.435,34.435,10,344.35,1,34.47,34.44,34.453,700,24117.0,5,34.435,34.435,34.47,34.44,,-0.009942814448690955,hog,20200204
2020-02-04,10:54,10:54 AM,34.44,34.44,34.44,11,378.84,1,34.45,34.44,34.445,1418,48842.8994,14,34.44,34.44,34.45,34.44,,-0.010172706112244582,hog,20200204
2020-02-04,10:55,10:55 AM,34.455,34.455,34.455,100,3445.5,1,34.49,34.44,34.468,2600,89618.0,21,34.455,34.455,34.44,34.485,,-0.009511767579528032,hog,20200204
2020-02-04,10:56,10:56 AM,,,,0,0.0,0,34.49,34.45,34.47,7261,250284.51,22,,,34.49,34.45,,-0.009454294663639777,hog,20200204
2020-02-04,10:57,10:57 AM,,,,0,0.0,0,34.44,34.42,34.434,8488,292273.4456,14,,,34.44,34.42,,-0.010488807149630793,hog,20200204
2020-02-04,10:58,10:58 AM,,,,0,0.0,0,34.415,34.377,34.403,1500,51604.62,12,,,34.415,34.377,,-0.011379637345900768,hog,20200204
2020-02-04,10:59,10:59 AM,,,,0,0.0,0,34.37,34.37,34.37,300,10311.0,2,,,34.37,34.37,,-0.012327940458059199,hog,20200204
2020-02-04,11:00,11 AM,,,,0,0.0,0,34.37,34.32,34.344,2499,85825.65,22,,,34.37,34.34,,-0.013075088364608129,hog,20200204
2020-02-04,11:01,11:01 AM,34.43,34.35,34.394,405,13929.65,4,34.44,34.34,34.397,9860,339152.98,75,34.35,34.43,34.35,34.44,,-0.011552056093565936,hog,20200204
2020-02-04,11:02,11:02 AM,34.45,34.45,34.45,100,3445.0,1,34.45,34.39,34.426,4100,141145.5,34,34.45,34.45,34.435,34.42,,-0.010718698813184217,hog,20200204
2020-02-04,11:03,11:03 AM,,,,0,0.0,0,34.423,34.41,34.417,621,21373.0089,2,,,34.41,34.423,,-0.010977326934681972,hog,20200204
2020-02-04,11:04,11:04 AM,34.39,34.39,34.39,100,3439.0,1,34.41,34.38,34.394,1399,48117.11,13,34.39,34.39,34.41,34.39,,-0.011638265467398521,hog,20200204
2020-02-04,11:05,11:05 AM,34.41,34.39,34.398,164,5641.24,2,34.48,34.39,34.449,2300,79232.0,14,34.39,34.41,34.39,34.45,,-0.01005776028046787,hog,20200204
2020-02-04,11:06,11:06 AM,34.435,34.4,34.434,104,3581.1,2,34.465,34.39,34.433,2882,99236.13,21,34.435,34.4,34.465,34.39,,-0.01051754360757492,hog,20200204
2020-02-04,11:07,11:07 AM,,,,0,0.0,0,34.39,34.37,34.38,627,21556.555,4,,,34.39,34.385,,-0.012040575878617114,hog,20200204
2020-02-04,11:08,11:08 AM,,,,0,0.0,0,34.37,34.34,34.346,900,30911.0,9,,,34.37,34.34,,-0.013017615448719875,hog,20200204
2020-02-04,11:09,11:09 AM,34.37,34.37,34.37,100,3437.0,1,34.37,34.35,34.357,904,31058.9,8,34.37,34.37,34.36,34.37,,-0.012701514411333664,hog,20200204
2020-02-04,11:10,11:10 AM,34.365,34.365,34.365,100,3436.5,1,34.37,34.365,34.369,501,17218.87,5,34.365,34.365,34.365,34.37,,-0.012356676916003326,hog,20200204
2020-02-04,11:11,11:11 AM,,,,0,0.0,0,34.39,34.35,34.372,2917,100264.13,12,,,34.35,34.385,,-0.01227046754217074,hog,20200204
2020-02-04,11:12,11:12 AM,34.365,34.365,34.365,300,10309.5,3,34.38,34.365,34.37,1000,34369.5,8,34.365,34.365,34.37,34.365,,-0.012327940458059199,hog,20200204
2020-02-04,11:13,11:13 AM,,,,0,0.0,0,34.4,34.37,34.389,1448,49795.4992,12,,,34.37,34.395,,-0.01178194775711936,hog,20200204
2020-02-04,11:14,11:14 AM,34.38,34.38,34.38,500,17190.0,4,34.39,34.36,34.379,1510,51912.8,14,34.38,34.38,34.39,34.38,,-0.012069312336561444,hog,20200204
2020-02-04,11:15,11:15 AM,34.395,34.395,34.395,100,3439.5,1,34.41,34.38,34.392,1401,48183.89,14,34.395,34.395,34.39,34.38,,-0.011695738383286775,hog,20200204
2020-02-04,11:16,11:16 AM,34.38,34.38,34.38,100,3438.0,1,34.39,34.38,34.387,792,27234.3216,5,34.38,34.38,34.38,34.385,,-0.011839420673007818,hog,20200204
2020-02-04,11:17,11:17 AM,34.38,34.38,34.38,100,3438.0,1,34.4,34.37,34.39,500,17195.0,4,34.38,34.38,34.38,34.4,,-0.011753211299175233,hog,20200204
2020-02-04,11:18,11:18 AM,34.38,34.375,34.377,144,4950.22,2,34.395,34.375,34.383,2969,102083.3624,28,34.38,34.375,34.38,34.395,,-0.01195436650478453,hog,20200204
2020-02-04,11:19,11:19 AM,,,,0,0.0,0,34.4,34.39,34.392,410,14100.9,3,,,34.39,34.39,,-0.011695738383286775,hog,20200204
2020-02-04,11:20,11:20 AM,34.45,34.41,34.427,300,10328.0,3,34.47,34.395,34.431,1700,58533.5,15,34.41,34.45,34.395,34.47,,-0.010575016523463378,hog,20200204
2020-02-04,11:21,11:21 AM,34.5,34.46,34.5,101,3484.46,2,34.5,34.455,34.477,2351,81054.92,19,34.5,34.46,34.47,34.46,,-0.009253139458030482,hog,20200204
2020-02-04,11:22,11:22 AM,,,,0,0.0,0,,,,0,0.0,0,,,,,,,hog,20200204
2020-02-04,11:23,11:23 AM,,,,0,0.0,0,34.48,34.46,34.473,1279,44090.9098,8,,,34.46,34.46,,-0.009368085289807194,hog,20200204
2020-02-04,11:24,11:24 AM,,,,0,0.0,0,34.46,34.44,34.451,1000,34451.28,10,,,34.46,34.44,,-0.010000287364579412,hog,20200204
2020-02-04,11:25,11:25 AM,34.44,34.44,34.44,200,6888.0,2,34.455,34.43,34.437,3200,110196.8,13,34.44,34.44,34.44,34.44,,-0.01040259777579821,hog,20200204
2020-02-04,11:26,11:26 AM,,,,0,0.0,0,34.45,34.44,34.446,648,22321.12,6,,,34.45,34.44,,-0.010143969654300455,hog,20200204
2020-02-04,11:27,11:27 AM,,,,0,0.0,0,34.44,34.412,34.428,1833,63106.3438,10,,,34.43,34.43,,-0.010661225897295963,hog,20200204
2020-02-04,11:28,11:28 AM,34.44,34.44,34.44,300,10332.0,2,34.45,34.42,34.442,1700,58551.63,14,34.44,34.44,34.42,34.44,,-0.010258915486077167,hog,20200204
2020-02-04,11:29,11:29 AM,34.445,34.445,34.445,100,3444.5,1,34.45,34.43,34.443,1503,51767.1993,13,34.445,34.445,34.45,34.437,,-0.01023017902813304,hog,20200204
2020-02-04,11:30,11:30 AM,34.45,34.45,34.45,100,3445.0,1,34.47,34.44,34.459,3853,132769.25,27,34.45,34.45,34.45,34.451,,-0.009770395701025785,hog,20200204
2020-02-04,11:31,11:31 AM,,,,0,0.0,0,34.45,34.43,34.437,1500,51655.14,8,,,34.45,34.43,,-0.01040259777579821,hog,20200204
2020-02-04,11:32,11:32 AM,34.47,34.455,34.462,500,17231.0,5,34.47,34.44,34.455,3700,127483.5,27,34.455,34.47,34.44,34.46,,-0.009885341532802702,hog,20200204
2020-02-04,11:33,11:33 AM,34.45,34.44,34.442,125,4305.25,2,34.45,34.44,34.444,2215,76293.175,19,34.45,34.44,34.45,34.44,,-0.010201442570188709,hog,20200204
2020-02-04,11:34,11:34 AM,34.45,34.45,34.45,17,585.65,1,34.43,34.43,34.43,800,27544.14,2,34.45,34.45,34.43,34.43,,-0.010603752981407505,hog,20200204
2020-02-04,11:35,11:35 AM,,,,0,0.0,0,34.43,34.41,34.421,4150,142847.875,37,,,34.43,34.422,,-0.01086238110290526,hog,20200204
2020-02-04,11:36,11:36 AM,34.42,34.42,34.42,100,3442.0,1,34.425,34.41,34.417,2400,82601.2,22,34.42,34.42,34.42,34.425,,-0.010977326934681972,hog,20200204
2020-02-04,11:37,11:37 AM,34.475,34.44,34.458,200,6891.5,2,34.48,34.43,34.456,3830,131967.74,27,34.44,34.475,34.43,34.48,,-0.00985660507485837,hog,20200204
2020-02-04,11:38,11:38 AM,34.495,34.485,34.49,200,6898.0,2,34.51,34.48,34.495,3600,124181.0,33,34.485,34.495,34.485,34.5,,-0.008735883215034974,hog,20200204
2020-02-04,11:39,11:39 AM,,,,0,0.0,0,34.5,34.47,34.484,3299,113763.1966,28,,,34.5,34.47,,-0.00905198425242098,hog,20200204
2020-02-04,11:40,11:40 AM,,,,0,0.0,0,34.45,34.43,34.448,3800,130902.0,23,,,34.45,34.45,,-0.010086496738411997,hog,20200204
2020-02-04,11:41,11:41 AM,34.45,34.43,34.445,260,8955.8,3,34.46,34.42,34.443,3900,134326.0,30,34.43,34.45,34.46,34.445,,-0.01023017902813304,hog,20200204
2020-02-04,11:42,11:42 AM,34.445,34.445,34.445,300,10333.5,3,34.455,34.445,34.449,1700,58563.0,15,34.445,34.445,34.45,34.45,,-0.01005776028046787,hog,20200204
2020-02-04,11:43,11:43 AM,34.445,34.445,34.445,100,3444.5,1,34.46,34.44,34.452,2000,68903.5,16,34.445,34.445,34.44,34.46,,-0.009971550906635285,hog,20200204
2020-02-04,11:44,11:44 AM,34.455,34.45,34.453,200,6890.5,2,34.47,34.45,34.454,7769,267671.8415,49,34.45,34.455,34.46,34.46,,-0.009914077990746829,hog,20200204
2020-02-04,11:45,11:45 AM,34.455,34.445,34.449,276,9507.82,3,34.455,34.445,34.45,1500,51675.5,12,34.455,34.445,34.455,34.45,,-0.01002902382252354,hog,20200204
2020-02-04,11:46,11:46 AM,34.455,34.45,34.453,200,6890.5,2,34.48,34.447,34.461,1600,55137.24,11,34.45,34.455,34.45,34.46,,-0.009712922785137532,hog,20200204
2020-02-04,11:47,11:47 AM,34.475,34.465,34.465,104,3584.4,2,34.529,34.465,34.513,10579,365117.0008,33,34.475,34.465,34.48,34.5,,-0.008218626972039466,hog,20200204
2020-02-04,11:48,11:48 AM,34.525,34.5,34.513,200,6902.5,2,34.54,34.498,34.515,1787,61677.7195,14,34.5,34.525,34.5,34.52,,-0.008161154056151008,hog,20200204
2020-02-04,11:49,11:49 AM,34.545,34.53,34.538,200,6907.5,2,34.58,34.53,34.555,1245,43020.75,10,34.53,34.545,34.53,34.58,,-0.007011695738383281,hog,20200204
2020-02-04,11:50,11:50 AM,34.565,34.56,34.564,136,4700.66,2,34.58,34.55,34.558,1300,44925.5,9,34.565,34.56,34.565,34.55,,-0.006925486364550696,hog,20200204
2020-02-04,11:51,11:51 AM,34.55,34.53,34.535,400,13814.0,4,34.55,34.51,34.535,2590,89445.46,20,34.55,34.53,34.55,34.51,,-0.007586424897267246,hog,20200204
2020-02-04,11:52,11:52 AM,34.515,34.51,34.513,200,6902.5,2,34.52,34.51,34.515,300,10354.5,3,34.51,34.515,34.51,34.515,,-0.008161154056151008,hog,20200204
2020-02-04,11:53,11:53 AM,34.585,34.585,34.585,100,3458.5,1,34.59,34.52,34.546,1500,51818.5,14,34.585,34.585,34.52,34.585,,-0.007270323859881035,hog,20200204
2020-02-04,11:54,11:54 AM,34.585,34.575,34.578,300,10373.5,2,34.6,34.57,34.58,1300,44954.0,9,34.585,34.575,34.585,34.57,,-0.006293284289778476,hog,20200204
2020-02-04,11:55,11:55 AM,34.55,34.545,34.547,500,17273.5,5,34.56,34.545,34.55,1410,48715.05,14,34.55,34.545,34.56,34.545,,-0.007155378028104323,hog,20200204
2020-02-04,11:56,11:56 AM,34.545,34.545,34.545,100,3454.5,1,34.56,34.545,34.549,1025,35412.75,10,34.545,34.545,34.55,34.545,,-0.00718411448604845,hog,20200204
2020-02-04,11:57,11:57 AM,,,,0,0.0,0,34.54,34.53,34.532,1700,58705.0,15,,,34.54,34.54,,-0.007672634271099831,hog,20200204
2020-02-04,11:58,11:58 AM,,,,0,0.0,0,34.54,34.54,34.54,100,3454.0,1,,,34.54,34.54,,-0.007442742607546204,hog,20200204
2020-02-04,11:59,11:59 AM,34.58,34.58,34.58,100,3458.0,1,34.58,34.56,34.57,400,13828.0,4,34.58,34.58,34.57,34.58,,-0.006580648869220357,hog,20200204
2020-02-04,12:00,12 PM,34.555,34.555,34.555,200,6911.0,2,34.57,34.552,34.558,1837,63483.1188,12,34.555,34.555,34.57,34.56,,-0.006925486364550696,hog,20200204
2020-02-04,12:01,12:01 PM,34.57,34.545,34.561,400,13824.5,4,34.57,34.545,34.561,2791,96458.97,26,34.565,34.545,34.555,34.545,,-0.006839276990718111,hog,20200204
2020-02-04,12:02,12:02 PM,34.54,34.54,34.54,100,3454.0,1,34.56,34.54,34.553,400,13821.0,3,34.54,34.54,34.56,34.54,,-0.007069168654271738,hog,20200204
2020-02-04,12:03,12:03 PM,34.53,34.53,34.53,200,6906.0,2,34.54,34.51,34.531,950,32804.25,7,34.53,34.53,34.54,34.51,,-0.007701370729043958,hog,20200204
2020-02-04,12:04,12:04 PM,,,,0,0.0,0,34.54,34.54,34.54,600,20724.0,6,,,34.54,34.54,,-0.007442742607546204,hog,20200204
2020-02-04,12:05,12:05 PM,34.53,34.515,34.525,300,10357.5,3,34.55,34.51,34.532,2529,87332.3964,20,34.53,34.515,34.55,34.52,,-0.007672634271099831,hog,20200204
2020-02-04,12:06,12:06 PM,,,,0,0.0,0,34.52,34.52,34.52,200,6904.0,2,,,34.52,34.52,,-0.008017471766429965,hog,20200204
2020-02-04,12:07,12:07 PM,,,,0,0.0,0,34.514,34.51,34.512,498,17187.1124,4,,,34.51,34.51,,-0.008247363429983593,hog,20200204
2020-02-04,12:08,12:08 PM,,,,0,0.0,0,34.505,34.49,34.498,300,10349.5,3,,,34.505,34.49,,-0.008649673841202389,hog,20200204
2020-02-04,12:09,12:09 PM,34.51,34.5,34.505,200,6901.0,2,34.52,34.5,34.507,1700,58662.0,16,34.51,34.5,34.5,34.51,,-0.008391045719704636,hog,20200204
2020-02-04,12:10,12:10 PM,,,,0,0.0,0,34.515,34.515,34.515,100,3451.5,1,,,34.515,34.515,,-0.008161154056151008,hog,20200204
2020-02-04,12:11,12:11 PM,,,,0,0.0,0,34.52,34.52,34.52,100,3452.0,1,,,34.52,34.52,,-0.008017471766429965,hog,20200204
2020-02-04,12:12,12:12 PM,34.51,34.505,34.507,300,10352.0,2,34.51,34.505,34.507,300,10352.0,2,34.505,34.51,34.505,34.51,,-0.008391045719704636,hog,20200204
2020-02-04,12:13,12:13 PM,34.5,34.5,34.5,100,3450.0,1,34.51,34.5,34.506,678,23394.92,4,34.5,34.5,34.51,34.508,,-0.008419782177648763,hog,20200204
2020-02-04,12:14,12:14 PM,34.495,34.495,34.495,100,3449.5,1,34.5,34.49,34.492,600,20695.5,5,34.495,34.495,34.5,34.495,,-0.008822092588867559,hog,20200204
2020-02-04,12:15,12:15 PM,34.5,34.495,34.498,200,6899.5,2,34.5,34.495,34.499,800,27599.5,7,34.5,34.495,34.5,34.5,,-0.008620937383258058,hog,20200204
2020-02-04,12:16,12:16 PM,,,,0,0.0,0,34.53,34.51,34.514,1929,66577.58,18,,,34.51,34.53,,-0.008189890514095135,hog,20200204
2020-02-04,12:17,12:17 PM,34.51,34.51,34.51,36,1242.36,1,34.51,34.48,34.498,800,27598.0,8,34.51,34.51,34.51,34.495,,-0.008649673841202389,hog,20200204
2020-02-04,12:18,12:18 PM,34.515,34.51,34.513,300,10354.0,2,34.515,34.48,34.502,1413,48750.74,13,34.51,34.515,34.49,34.515,,-0.008534728009425473,hog,20200204
2020-02-04,12:19,12:19 PM,,,,0,0.0,0,34.52,34.515,34.518,900,31065.9,6,,,34.52,34.515,,-0.008074944682318423,hog,20200204
2020-02-04,12:20,12:20 PM,34.51,34.51,34.51,200,6902.0,2,34.51,34.505,34.51,1199,41376.99,11,34.51,34.51,34.51,34.51,,-0.008304836345872051,hog,20200204
2020-02-04,12:21,12:21 PM,,,,0,0.0,0,,,,0,0.0,0,,,,,,,hog,20200204
2020-02-04,12:22,12:22 PM,34.5,34.5,34.5,200,6900.0,2,34.51,34.5,34.505,1309,45166.7315,11,34.5,34.5,34.5,34.51,,-0.00844851863559289,hog,20200204
2020-02-04,12:23,12:23 PM,,,,0,0.0,0,34.54,34.51,34.528,944,32594.1848,6,,,34.51,34.534,,-0.007787580102876542,hog,20200204
2020-02-04,12:24,12:24 PM,34.56,34.555,34.558,234,8086.54,3,34.56,34.54,34.552,1400,48372.5,11,34.555,34.56,34.54,34.55,,-0.007097905112215865,hog,20200204
2020-02-04,12:25,12:25 PM,34.55,34.55,34.55,100,3455.0,1,34.55,34.55,34.55,100,3455.0,1,34.55,34.55,34.55,34.55,,-0.007155378028104323,hog,20200204
2020-02-04,12:26,12:26 PM,34.54,34.54,34.54,400,13816.0,4,34.55,34.54,34.541,1604,55404.16,15,34.54,34.54,34.55,34.54,,-0.007414006149602077,hog,20200204
2020-02-04,12:27,12:27 PM,34.535,34.535,34.535,100,3453.5,1,34.54,34.535,34.539,400,13815.5,4,34.535,34.535,34.54,34.54,,-0.007471479065490331,hog,20200204
2020-02-04,12:28,12:28 PM,,,,0,0.0,0,34.53,34.525,34.528,300,10358.5,3,,,34.53,34.525,,-0.007787580102876542,hog,20200204
2020-02-04,12:29,12:29 PM,34.545,34.525,34.53,136,4696.12,2,34.54,34.52,34.526,1200,41431.5,12,34.525,34.545,34.52,34.54,,-0.007845053018764796,hog,20200204
2020-02-04,12:30,12:30 PM,34.55,34.55,34.55,100,3455.0,1,34.58,34.545,34.559,700,24191.5,7,34.55,34.55,34.545,34.58,,-0.006896749906606569,hog,20200204
2020-02-04,12:31,12:31 PM,34.56,34.56,34.56,100,3456.0,1,34.57,34.55,34.561,700,24193.0,7,34.56,34.56,34.57,34.55,,-0.006839276990718111,hog,20200204
2020-02-04,12:32,12:32 PM,34.55,34.55,34.55,1,34.55,1,,,,0,0.0,0,34.55,34.55,,,,-0.007155378028104323,hog,20200204
