date,minute,label,high,low,average,volume,notional,numberOfTrades,marketHigh,marketLow,marketAverage,marketVolume,marketNotional,marketNumberOfTrades,open,close,marketOpen,marketClose,changeOverTime,marketChangeOverTime,tickerName,tickerDate
2019-12-24,09:30,09:30 AM,,,,0,0.0,0,37.87,37.85,37.85,8448,319758.8,2,,,37.85,37.87,,0.0,hog,20191224
2019-12-24,09:31,09:31 AM,37.81,37.81,37.81,100,3781.0,1,37.81,37.74,37.801,1615,61049.15,4,37.81,37.81,37.74,37.81,,-0.0012945838837516376,hog,20191224
2019-12-24,09:32,09:32 AM,37.81,37.81,37.81,100,3781.0,1,37.81,37.81,37.81,100,3781.0,1,37.81,37.81,37.81,37.81,,-0.0010568031704094886,hog,20191224
2019-12-24,09:33,09:33 AM,,,,0,0.0,0,37.81,37.81,37.81,100,3781.0,1,,,37.81,37.81,,-0.0010568031704094886,hog,20191224
2019-12-24,09:34,09:34 AM,37.82,37.815,37.816,400,15126.5,4,37.83,37.81,37.814,1300,49158.0,7,37.82,37.815,37.82,37.81,,-0.0009511228533685962,hog,20191224
2019-12-24,09:35,09:35 AM,,,,0,0.0,0,37.84,37.76,37.801,6140,232097.64,47,,,37.84,37.8,,-0.0012945838837516376,hog,20191224
2019-12-24,09:36,09:36 AM,,,,0,0.0,0,37.9,37.8,37.847,1102,41707.66,10,,,37.8,37.9,,-7.926023778071634e-05,hog,20191224
2019-12-24,09:37,09:37 AM,,,,0,0.0,0,,,,0,0.0,0,,,,,,,hog,20191224
2019-12-24,09:38,09:38 AM,37.865,37.865,37.865,102,3862.23,3,37.89,37.86,37.876,400,15150.5,4,37.865,37.865,37.86,37.89,,0.0006869220607660831,hog,20191224
2019-12-24,09:39,09:39 AM,37.895,37.84,37.894,102,3865.18,2,37.9,37.84,37.876,2245,85030.95,19,37.895,37.84,37.89,37.873,,0.0006869220607660831,hog,20191224
2019-12-24,09:40,09:40 AM,37.865,37.865,37.865,100,3786.5,1,37.87,37.84,37.853,500,18926.5,4,37.865,37.865,37.84,37.865,,7.926023778071634e-05,hog,20191224
2019-12-24,09:41,09:41 AM,37.91,37.91,37.91,4,151.64,2,37.93,37.86,37.888,1900,71988.0,17,37.91,37.91,37.86,37.86,,0.0010039630118889485,hog,20191224
2019-12-24,09:42,09:42 AM,,,,0,0.0,0,37.85,37.789,37.825,1826,69067.882,17,,,37.85,37.82,,-0.0006605019815059069,hog,20191224
2019-12-24,09:43,09:43 AM,,,,0,0.0,0,37.86,37.8,37.85,10118,382963.1538,16,,,37.847,37.8,,0.0,hog,20191224
2019-12-24,09:44,09:44 AM,37.79,37.79,37.79,200,7558.0,2,37.82,37.73,37.781,2800,105787.5,24,37.79,37.79,37.82,37.78,,-0.001822985468956476,hog,20191224
2019-12-24,09:45,09:45 AM,37.785,37.785,37.785,100,3778.5,1,37.8,37.78,37.787,1200,45344.5,12,37.785,37.785,37.78,37.8,,-0.0016644649933950431,hog,20191224
2019-12-24,09:46,09:46 AM,37.82,37.81,37.815,200,7563.0,2,37.83,37.81,37.816,1800,68069.5,16,37.81,37.82,37.81,37.83,,-0.000898282694848056,hog,20191224
2019-12-24,09:47,09:47 AM,37.825,37.77,37.793,303,11451.34,5,37.84,37.77,37.8,2161,81686.19,21,37.78,37.825,37.79,37.84,,-0.0013210039630120016,hog,20191224
2019-12-24,09:48,09:48 AM,,,,0,0.0,0,37.85,37.84,37.848,443,16766.55,4,,,37.85,37.84,,-5.2840158520540135e-05,hog,20191224
2019-12-24,09:49,09:49 AM,,,,0,0.0,0,37.84,37.78,37.828,3742,141551.0158,11,,,37.84,37.79,,-0.0005812417437251906,hog,20191224
2019-12-24,09:50,09:50 AM,37.82,37.805,37.808,207,7826.24,3,37.82,37.78,37.798,2300,86936.5,18,37.805,37.82,37.78,37.81,,-0.001373844121532354,hog,20191224
2019-12-24,09:51,09:51 AM,,,,0,0.0,0,37.84,37.795,37.814,600,22688.5,3,,,37.84,37.82,,-0.0009511228533685962,hog,20191224
2019-12-24,09:52,09:52 AM,37.74,37.74,37.74,100,3774.0,1,37.77,37.72,37.744,1234,46576.5,8,37.74,37.74,37.77,37.72,,-0.002800528401585248,hog,20191224
2019-12-24,09:53,09:53 AM,37.765,37.72,37.746,4,150.985,3,37.78,37.72,37.739,2005,75667.21,17,37.72,37.765,37.74,37.78,,-0.0029326287978865048,hog,20191224
2019-12-24,09:54,09:54 AM,,,,0,0.0,0,37.79,37.77,37.781,960,36269.856,4,,,37.79,37.77,,-0.001822985468956476,hog,20191224
2019-12-24,09:55,09:55 AM,37.765,37.765,37.765,101,3814.265,2,37.765,37.765,37.765,500,18882.5,2,37.765,37.765,37.765,37.765,,-0.002245706737120234,hog,20191224
2019-12-24,09:56,09:56 AM,37.755,37.73,37.73,102,3848.51,3,37.77,37.73,37.742,1520,57368.3,11,37.755,37.73,37.77,37.73,,-0.0028533685601057884,hog,20191224
2019-12-24,09:57,09:57 AM,37.71,37.705,37.707,7,263.95,3,37.76,37.69,37.721,2600,98075.0,21,37.705,37.71,37.76,37.72,,-0.0034081902245708027,hog,20191224
2019-12-24,09:58,09:58 AM,37.71,37.68,37.71,101,3808.68,2,37.72,37.677,37.7,2682,101111.2322,24,37.68,37.71,37.69,37.72,,-0.00396301188903563,hog,20191224
2019-12-24,09:59,09:59 AM,37.73,37.73,37.73,2,75.46,2,,,,0,0.0,0,37.73,37.73,,,,-0.0031704095112286535,hog,20191224
2019-12-24,10:00,10 AM,37.76,37.76,37.76,1,37.76,1,37.77,37.72,37.74,900,33966.5,8,37.76,37.76,37.73,37.75,,-0.0029062087186261408,hog,20191224
2019-12-24,10:01,10:01 AM,37.74,37.74,37.74,1,37.74,1,37.78,37.75,37.774,900,33997.0,5,37.74,37.74,37.78,37.75,,-0.0020079260237780847,hog,20191224
2019-12-24,10:02,10:02 AM,37.77,37.77,37.77,1,37.77,1,37.77,37.73,37.742,2193,82767.75,19,37.77,37.77,37.73,37.77,,-0.0028533685601057884,hog,20191224
2019-12-24,10:03,10:03 AM,,,,0,0.0,0,37.75,37.74,37.745,200,7549.0,2,,,37.75,37.74,,-0.002774108322325072,hog,20191224
2019-12-24,10:04,10:04 AM,37.77,37.745,37.76,204,7703.01,5,37.77,37.75,37.763,2000,75525.5,16,37.745,37.77,37.75,37.77,,-0.002298546895640774,hog,20191224
2019-12-24,10:05,10:05 AM,,,,0,0.0,0,37.76,37.76,37.76,218,8231.68,1,,,37.76,37.76,,-0.0023778071334214904,hog,20191224
2019-12-24,10:06,10:06 AM,37.77,37.755,37.765,201,7590.755,3,37.77,37.76,37.766,500,18883.0,5,37.77,37.76,37.77,37.76,,-0.0022192866578600577,hog,20191224
2019-12-24,10:07,10:07 AM,37.74,37.725,37.732,202,7621.955,4,37.75,37.72,37.734,3650,137730.52,32,37.74,37.73,37.75,37.74,,-0.0030647291941875736,hog,20191224
2019-12-24,10:08,10:08 AM,37.72,37.71,37.717,202,7618.925,4,37.73,37.715,37.724,700,26406.5,7,37.715,37.72,37.73,37.72,,-0.0033289299867900863,hog,20191224
2019-12-24,10:09,10:09 AM,37.735,37.72,37.72,201,7581.735,3,37.73,37.7,37.727,3107,117218.0817,25,37.72,37.735,37.73,37.73,,-0.00324966974900937,hog,20191224
2019-12-24,10:10,10:10 AM,37.69,37.69,37.69,100,3769.0,1,37.73,37.68,37.691,6173,232669.7553,38,37.69,37.69,37.73,37.68,,-0.004200792602377779,hog,20191224
2019-12-24,10:11,10:11 AM,37.695,37.695,37.695,3,113.085,1,37.7,37.68,37.689,2344,88343.8,17,37.695,37.695,37.68,37.681,,-0.0042536327608983186,hog,20191224
2019-12-24,10:12,10:12 AM,37.68,37.66,37.676,1300,48979.0,5,37.68,37.65,37.674,2900,109256.0,18,37.66,37.68,37.68,37.68,,-0.0046499339498019005,hog,20191224
2019-12-24,10:13,10:13 AM,37.69,37.69,37.69,100,3769.0,1,37.72,37.68,37.694,1100,41463.0,9,37.69,37.69,37.69,37.72,,-0.004121532364597062,hog,20191224
2019-12-24,10:14,10:14 AM,37.77,37.75,37.76,211,7967.305,3,37.78,37.75,37.761,2218,83754.68,22,37.75,37.755,37.75,37.76,,-0.0023513870541611265,hog,20191224
2019-12-24,10:15,10:15 AM,37.76,37.76,37.76,200,7552.0,2,37.76,37.76,37.76,600,22656.0,6,37.76,37.76,37.76,37.76,,-0.0023778071334214904,hog,20191224
2019-12-24,10:16,10:16 AM,,,,0,0.0,0,37.77,37.75,37.757,1060,40022.6,9,,,37.76,37.75,,-0.002457067371202207,hog,20191224
2019-12-24,10:17,10:17 AM,,,,0,0.0,0,,,,0,0.0,0,,,,,,,hog,20191224
2019-12-24,10:18,10:18 AM,,,,0,0.0,0,37.73,37.699,37.72,700,26403.91,7,,,37.73,37.71,,-0.003434610303830979,hog,20191224
2019-12-24,10:19,10:19 AM,37.7,37.7,37.7,100,3770.0,1,37.72,37.7,37.711,1617,60978.79,11,37.7,37.7,37.709,37.71,,-0.003672391017173128,hog,20191224
2019-12-24,10:20,10:20 AM,37.7,37.7,37.7,100,3770.0,1,37.7,37.7,37.7,200,7540.0,2,37.7,37.7,37.7,37.7,,-0.00396301188903563,hog,20191224
2019-12-24,10:21,10:21 AM,37.675,37.67,37.672,200,7534.5,2,37.7,37.67,37.679,4427,166803.7501,30,37.675,37.67,37.693,37.68,,-0.0045178335535006435,hog,20191224
2019-12-24,10:22,10:22 AM,,,,0,0.0,0,37.67,37.66,37.668,600,22601.0,6,,,37.67,37.67,,-0.004808454425363333,hog,20191224
2019-12-24,10:23,10:23 AM,,,,0,0.0,0,37.68,37.66,37.668,1200,45201.68,12,,,37.68,37.67,,-0.004808454425363333,hog,20191224
2019-12-24,10:24,10:24 AM,,,,0,0.0,0,37.67,37.67,37.67,100,3767.0,1,,,37.67,37.67,,-0.004755614266842793,hog,20191224
2019-12-24,10:25,10:25 AM,,,,0,0.0,0,37.73,37.67,37.693,2307,86956.9,19,,,37.67,37.73,,-0.004147952443857426,hog,20191224
2019-12-24,10:26,10:26 AM,,,,0,0.0,0,37.74,37.73,37.734,929,35055.17,8,,,37.73,37.74,,-0.0030647291941875736,hog,20191224
2019-12-24,10:27,10:27 AM,37.78,37.77,37.773,140,5288.2,2,37.78,37.76,37.773,1600,60437.0,12,37.77,37.78,37.76,37.76,,-0.002034346103038261,hog,20191224
2019-12-24,10:28,10:28 AM,37.76,37.75,37.76,104,3927.01,3,37.76,37.75,37.757,1500,56635.0,13,37.76,37.75,37.76,37.755,,-0.002457067371202207,hog,20191224
2019-12-24,10:29,10:29 AM,37.72,37.72,37.72,100,3772.0,1,37.75,37.71,37.729,2263,85381.75,19,37.72,37.72,37.75,37.71,,-0.00319682959048883,hog,20191224
2019-12-24,10:30,10:30 AM,37.68,37.68,37.68,100,3768.0,1,37.69,37.675,37.682,1600,60292.0,14,37.68,37.68,37.68,37.685,,-0.004438573315719927,hog,20191224
2019-12-24,10:31,10:31 AM,37.685,37.68,37.682,200,7536.5,2,37.7,37.67,37.691,2308,86991.02,23,37.685,37.68,37.685,37.68,,-0.004200792602377779,hog,20191224
2019-12-24,10:32,10:32 AM,37.685,37.685,37.685,4,150.74,2,37.69,37.68,37.689,1200,45227.0,11,37.685,37.685,37.68,37.69,,-0.0042536327608983186,hog,20191224
2019-12-24,10:33,10:33 AM,37.685,37.685,37.685,1,37.685,1,37.72,37.69,37.704,1800,67867.0,17,37.685,37.685,37.69,37.7,,-0.003857331571994737,hog,20191224
2019-12-24,10:34,10:34 AM,37.69,37.685,37.69,104,3919.75,3,37.695,37.69,37.692,997,37578.93,9,37.69,37.69,37.69,37.69,,-0.004174372523117602,hog,20191224
2019-12-24,10:35,10:35 AM,37.71,37.685,37.71,203,7655.095,4,37.73,37.69,37.709,1995,75228.5,16,37.685,37.71,37.69,37.73,,-0.0037252311756934805,hog,20191224
2019-12-24,10:36,10:36 AM,37.71,37.71,37.71,1,37.71,1,37.72,37.69,37.707,2166,81672.86,14,37.71,37.71,37.72,37.69,,-0.0037780713342140206,hog,20191224
2019-12-24,10:37,10:37 AM,37.69,37.68,37.69,201,7575.68,2,37.69,37.69,37.69,400,15076.0,2,37.68,37.69,37.69,37.69,,-0.004227212681638143,hog,20191224
2019-12-24,10:38,10:38 AM,37.705,37.68,37.696,412,15530.835,6,37.709,37.69,37.706,10000,377063.0,21,37.68,37.695,37.69,37.695,,-0.003804491413474197,hog,20191224
2019-12-24,10:39,10:39 AM,37.71,37.695,37.696,213,8029.17,7,37.71,37.695,37.705,2099,79143.29,19,37.695,37.71,37.7,37.71,,-0.003830911492734561,hog,20191224
2019-12-24,10:40,10:40 AM,37.71,37.695,37.703,11,414.73,4,37.71,37.7,37.703,800,30162.0,5,37.695,37.71,37.7,37.71,,-0.0038837516512549132,hog,20191224
2019-12-24,10:41,10:41 AM,37.715,37.715,37.715,100,3771.5,1,37.715,37.71,37.711,600,22626.5,6,37.715,37.715,37.71,37.71,,-0.003672391017173128,hog,20191224
2019-12-24,10:42,10:42 AM,37.72,37.705,37.711,402,15159.925,6,37.72,37.705,37.715,700,26400.5,6,37.71,37.705,37.72,37.705,,-0.0035667107001320477,hog,20191224
2019-12-24,10:43,10:43 AM,37.71,37.7,37.7,101,3807.71,2,37.72,37.7,37.713,600,22627.6,6,37.7,37.71,37.7,37.716,,-0.003619550858652588,hog,20191224
2019-12-24,10:44,10:44 AM,37.7,37.685,37.697,204,7690.28,6,37.71,37.69,37.698,1933,72869.5767,17,37.695,37.7,37.71,37.7,,-0.004015852047556169,hog,20191224
2019-12-24,10:45,10:45 AM,37.69,37.685,37.69,404,15226.745,6,37.71,37.68,37.691,3599,135648.81,25,37.69,37.685,37.695,37.71,,-0.004200792602377779,hog,20191224
2019-12-24,10:46,10:46 AM,37.725,37.685,37.692,7,263.845,3,37.73,37.68,37.712,3785,142741.7,32,37.725,37.69,37.72,37.68,,-0.003645970937912764,hog,20191224
2019-12-24,10:47,10:47 AM,37.725,37.725,37.725,2,75.45,1,37.72,37.71,37.711,680,25643.8,6,37.725,37.725,37.71,37.72,,-0.003672391017173128,hog,20191224
2019-12-24,10:48,10:48 AM,37.74,37.74,37.74,100,3774.0,1,37.75,37.74,37.743,300,11323.0,3,37.74,37.74,37.74,37.74,,-0.0028269484808454244,hog,20191224
2019-12-24,10:49,10:49 AM,37.74,37.74,37.74,1,37.74,1,37.73,37.72,37.727,701,26446.38,7,37.74,37.74,37.73,37.73,,-0.00324966974900937,hog,20191224
2019-12-24,10:50,10:50 AM,37.755,37.74,37.745,380,14343.215,5,37.76,37.74,37.747,1950,73606.0,16,37.74,37.75,37.74,37.74,,-0.0027212681638045318,hog,20191224
2019-12-24,10:51,10:51 AM,37.735,37.72,37.722,16,603.55,3,37.74,37.7,37.72,700,26404.0,7,37.735,37.72,37.74,37.7,,-0.003434610303830979,hog,20191224
2019-12-24,10:52,10:52 AM,37.705,37.705,37.705,2,75.41,1,37.71,37.71,37.71,100,3771.0,1,37.705,37.705,37.71,37.71,,-0.0036988110964333042,hog,20191224
2019-12-24,10:53,10:53 AM,37.72,37.72,37.72,1,37.72,1,37.72,37.71,37.711,720,27152.16,6,37.72,37.72,37.71,37.71,,-0.003672391017173128,hog,20191224
2019-12-24,10:54,10:54 AM,37.725,37.725,37.725,98,3697.05,1,37.728,37.71,37.719,1000,37718.8,10,37.725,37.725,37.72,37.72,,-0.003461030383091155,hog,20191224
2019-12-24,10:55,10:55 AM,37.73,37.73,37.73,1,37.73,1,37.73,37.71,37.726,708,26709.84,7,37.73,37.73,37.72,37.73,,-0.003276089828269546,hog,20191224
2019-12-24,10:56,10:56 AM,,,,0,0.0,0,37.75,37.74,37.747,600,22648.0,6,,,37.74,37.75,,-0.0027212681638045318,hog,20191224
2019-12-24,10:57,10:57 AM,,,,0,0.0,0,37.75,37.735,37.743,600,22646.04,4,,,37.735,37.74,,-0.0028269484808454244,hog,20191224
2019-12-24,10:58,10:58 AM,37.735,37.735,37.735,100,3773.5,1,37.735,37.72,37.727,500,18863.5,5,37.735,37.735,37.735,37.72,,-0.00324966974900937,hog,20191224
2019-12-24,10:59,10:59 AM,37.715,37.715,37.715,100,3771.5,1,37.72,37.715,37.718,800,30174.5,7,37.715,37.715,37.715,37.72,,-0.0034874504623513313,hog,20191224
2019-12-24,11:00,11 AM,37.715,37.715,37.715,200,7543.0,1,37.73,37.715,37.719,1100,41491.03,9,37.715,37.715,37.72,37.715,,-0.003461030383091155,hog,20191224
2019-12-24,11:01,11:01 AM,37.7,37.7,37.7,7,263.9,2,37.71,37.69,37.702,2000,75404.73,14,37.7,37.7,37.71,37.71,,-0.003910171730515277,hog,20191224
2019-12-24,11:02,11:02 AM,37.715,37.685,37.696,7,263.875,3,37.71,37.685,37.698,1638,61749.5362,12,37.685,37.715,37.7,37.71,,-0.004015852047556169,hog,20191224
2019-12-24,11:03,11:03 AM,,,,0,0.0,0,37.73,37.72,37.721,800,30177.0,6,,,37.72,37.72,,-0.0034081902245708027,hog,20191224
2019-12-24,11:04,11:04 AM,37.735,37.72,37.734,107,4037.56,5,37.74,37.72,37.728,1300,49047.0,13,37.72,37.72,37.72,37.72,,-0.0032232496697490063,hog,20191224
2019-12-24,11:05,11:05 AM,37.715,37.71,37.71,200,7542.085,3,37.725,37.71,37.711,1293,48760.53,10,37.715,37.71,37.71,37.71,,-0.003672391017173128,hog,20191224
2019-12-24,11:06,11:06 AM,37.72,37.715,37.717,3,113.15,3,37.72,37.72,37.72,500,18860.0,3,37.72,37.715,37.72,37.72,,-0.003434610303830979,hog,20191224
2019-12-24,11:07,11:07 AM,37.72,37.72,37.72,100,3772.0,1,37.73,37.72,37.726,739,27879.2329,6,37.72,37.72,37.72,37.73,,-0.003276089828269546,hog,20191224
2019-12-24,11:08,11:08 AM,37.765,37.74,37.76,105,3964.765,5,37.765,37.75,37.757,1100,41532.3,8,37.74,37.76,37.75,37.756,,-0.002457067371202207,hog,20191224
2019-12-24,11:09,11:09 AM,37.76,37.76,37.76,101,3813.76,2,37.77,37.76,37.765,200,7553.0,2,37.76,37.76,37.76,37.77,,-0.002245706737120234,hog,20191224
2019-12-24,11:10,11:10 AM,37.775,37.76,37.77,300,11331.0,3,37.775,37.76,37.77,806,30442.62,7,37.76,37.775,37.76,37.77,,-0.0021136063408189773,hog,20191224
2019-12-24,11:11,11:11 AM,,,,0,0.0,0,37.79,37.78,37.782,500,18891.0,3,,,37.78,37.79,,-0.0017965653896962997,hog,20191224
2019-12-24,11:12,11:12 AM,,,,0,0.0,0,37.79,37.78,37.787,677,25581.6835,5,,,37.79,37.78,,-0.0016644649933950431,hog,20191224
2019-12-24,11:13,11:13 AM,37.795,37.785,37.79,209,7898.155,3,37.8,37.785,37.791,800,30233.0,8,37.785,37.795,37.785,37.795,,-0.0015587846763541505,hog,20191224
2019-12-24,11:14,11:14 AM,37.8,37.795,37.798,3,113.395,2,37.82,37.8,37.811,1100,41592.0,7,37.795,37.8,37.8,37.82,,-0.0010303830911493124,hog,20191224
2019-12-24,11:15,11:15 AM,,,,0,0.0,0,37.82,37.8,37.805,1012,38258.8616,9,,,37.82,37.8,,-0.0011889035667107452,hog,20191224
2019-12-24,11:16,11:16 AM,,,,0,0.0,0,37.8,37.785,37.791,2890,109214.93,25,,,37.8,37.788,,-0.0015587846763541505,hog,20191224
2019-12-24,11:17,11:17 AM,37.805,37.8,37.8,101,3817.805,2,37.8,37.79,37.796,1120,42332.0,11,37.805,37.8,37.79,37.8,,-0.0014266842800528942,hog,20191224
2019-12-24,11:18,11:18 AM,,,,0,0.0,0,37.81,37.8,37.808,635,24008.35,3,,,37.81,37.8,,-0.0011096433289300288,hog,20191224
2019-12-24,11:19,11:19 AM,,,,0,0.0,0,37.81,37.79,37.802,505,19090.05,5,,,37.79,37.81,,-0.0012681638044914614,hog,20191224
2019-12-24,11:20,11:20 AM,,,,0,0.0,0,37.81,37.8,37.805,407,15386.67,4,,,37.8,37.81,,-0.0011889035667107452,hog,20191224
2019-12-24,11:21,11:21 AM,,,,0,0.0,0,37.81,37.8,37.805,400,15122.0,4,,,37.81,37.8,,-0.0011889035667107452,hog,20191224
2019-12-24,11:22,11:22 AM,,,,0,0.0,0,37.79,37.79,37.79,300,11337.0,3,,,37.79,37.79,,-0.0015852047556143267,hog,20191224
2019-12-24,11:23,11:23 AM,37.79,37.785,37.787,325,12280.75,5,37.79,37.785,37.788,550,20783.5,5,37.79,37.785,37.79,37.79,,-0.001638044914134867,hog,20191224
2019-12-24,11:24,11:24 AM,37.82,37.795,37.805,312,11795.26,6,37.82,37.79,37.803,3000,113407.5,24,37.795,37.82,37.79,37.82,,-0.0012417437252312852,hog,20191224
2019-12-24,11:25,11:25 AM,37.82,37.82,37.82,204,7715.28,5,37.83,37.82,37.824,1143,43233.26,10,37.82,37.82,37.82,37.82,,-0.0006869220607662709,hog,20191224
2019-12-24,11:26,11:26 AM,37.83,37.83,37.83,2,75.66,1,37.84,37.83,37.835,600,22701.0,5,37.83,37.83,37.83,37.84,,-0.0003963011889035817,hog,20191224
2019-12-24,11:27,11:27 AM,37.82,37.82,37.82,100,3782.0,1,37.82,37.815,37.819,1278,48333.21,12,37.82,37.82,37.82,37.818,,-0.0008190224570673397,hog,20191224
2019-12-24,11:28,11:28 AM,37.825,37.815,37.82,8,302.56,4,37.83,37.82,37.829,2014,76188.24,11,37.825,37.825,37.82,37.83,,-0.0005548216644650144,hog,20191224
2019-12-24,11:29,11:29 AM,37.83,37.83,37.83,100,3783.0,1,37.84,37.82,37.831,500,18915.26,5,37.83,37.83,37.83,37.833,,-0.0005019815059444742,hog,20191224
2019-12-24,11:30,11:30 AM,37.83,37.83,37.83,103,3896.49,2,37.83,37.82,37.821,1911,72275.02,16,37.83,37.83,37.82,37.82,,-0.0007661822985469872,hog,20191224
2019-12-24,11:31,11:31 AM,37.82,37.815,37.817,300,11345.0,3,37.82,37.815,37.818,600,22690.5,6,37.815,37.82,37.815,37.82,,-0.0008454425363277036,hog,20191224
2019-12-24,11:32,11:32 AM,,,,0,0.0,0,37.82,37.818,37.819,400,15127.83,2,,,37.82,37.818,,-0.0008190224570673397,hog,20191224
2019-12-24,11:33,11:33 AM,37.825,37.815,37.825,102,3858.13,3,37.83,37.815,37.824,1372,51894.04,11,37.815,37.825,37.82,37.82,,-0.0006869220607662709,hog,20191224
2019-12-24,11:34,11:34 AM,37.835,37.815,37.815,103,3894.965,3,37.83,37.815,37.824,914,34571.0402,9,37.815,37.835,37.815,37.829,,-0.0006869220607662709,hog,20191224
2019-12-24,11:35,11:35 AM,,,,0,0.0,0,37.84,37.84,37.84,300,11352.0,2,,,37.84,37.84,,-0.0002642007926023252,hog,20191224
2019-12-24,11:36,11:36 AM,,,,0,0.0,0,37.84,37.83,37.834,600,22700.5,6,,,37.83,37.835,,-0.00042272126816375794,hog,20191224
2019-12-24,11:37,11:37 AM,37.835,37.825,37.828,3,113.485,2,37.84,37.82,37.832,1400,52964.5,14,37.835,37.825,37.84,37.82,,-0.0004755614266842981,hog,20191224
2019-12-24,11:38,11:38 AM,37.835,37.825,37.83,170,6431.1,5,37.835,37.83,37.831,830,31399.877,6,37.825,37.83,37.83,37.83,,-0.0005019815059444742,hog,20191224
2019-12-24,11:39,11:39 AM,37.84,37.835,37.84,101,3821.835,2,37.84,37.83,37.833,2015,76233.5885,9,37.84,37.835,37.84,37.83,,-0.0004491413474241219,hog,20191224
2019-12-24,11:40,11:40 AM,37.835,37.825,37.829,404,15282.83,6,37.84,37.825,37.83,2854,107965.9405,17,37.825,37.835,37.835,37.835,,-0.0005284015852048382,hog,20191224
2019-12-24,11:41,11:41 AM,37.83,37.83,37.83,5,189.15,1,37.83,37.805,37.826,1400,52956.0,11,37.83,37.83,37.83,37.805,,-0.0006340819022457307,hog,20191224
2019-12-24,11:42,11:42 AM,37.82,37.805,37.815,120,4537.8,5,37.82,37.805,37.812,2810,106252.6,21,37.805,37.815,37.81,37.82,,-0.0010039630118891362,hog,20191224
2019-12-24,11:43,11:43 AM,37.81,37.81,37.81,3,113.43,1,,,,0,0.0,0,37.81,37.81,,,,-0.0010568031704094886,hog,20191224
2019-12-24,11:44,11:44 AM,37.82,37.82,37.82,100,3782.0,1,37.83,37.82,37.822,400,15129.0,4,37.82,37.82,37.83,37.82,,-0.0007397622192866233,hog,20191224
2019-12-24,11:45,11:45 AM,37.825,37.815,37.819,4,151.275,4,37.83,37.81,37.823,1964,74284.306,14,37.825,37.82,37.824,37.82,,-0.0007133421400264471,hog,20191224
2019-12-24,11:46,11:46 AM,37.82,37.815,37.82,302,11421.635,5,37.83,37.81,37.819,1500,56728.03,11,37.82,37.82,37.82,37.83,,-0.0008190224570673397,hog,20191224
2019-12-24,11:47,11:47 AM,37.805,37.805,37.805,101,3818.305,2,37.81,37.805,37.808,942,35615.2833,7,37.805,37.805,37.81,37.805,,-0.0011096433289300288,hog,20191224
2019-12-24,11:48,11:48 AM,37.775,37.775,37.775,2,75.55,1,37.805,37.77,37.793,2600,98261.5,15,37.775,37.775,37.805,37.775,,-0.0015059445178336106,hog,20191224
2019-12-24,11:49,11:49 AM,37.77,37.765,37.77,201,7591.765,3,37.77,37.77,37.77,600,22662.0,5,37.77,37.765,37.77,37.77,,-0.0021136063408189773,hog,20191224
2019-12-24,11:50,11:50 AM,37.77,37.77,37.77,1,37.77,1,37.77,37.755,37.762,1100,41538.5,8,37.77,37.77,37.77,37.76,,-0.0023249669749009503,hog,20191224
2019-12-24,11:51,11:51 AM,37.76,37.76,37.76,400,15104.0,3,37.76,37.76,37.76,1000,37760.0,6,37.76,37.76,37.76,37.76,,-0.0023778071334214904,hog,20191224
2019-12-24,11:52,11:52 AM,37.76,37.755,37.76,103,3889.265,3,37.77,37.755,37.766,700,26436.0,4,37.76,37.755,37.76,37.755,,-0.0022192866578600577,hog,20191224
2019-12-24,11:53,11:53 AM,37.76,37.76,37.76,300,11328.0,2,37.76,37.76,37.76,300,11328.0,2,37.76,37.76,37.76,37.76,,-0.0023778071334214904,hog,20191224
2019-12-24,11:54,11:54 AM,37.76,37.76,37.76,201,7589.76,3,37.77,37.75,37.766,900,33989.0,6,37.76,37.76,37.77,37.76,,-0.0022192866578600577,hog,20191224
2019-12-24,11:55,11:55 AM,,,,0,0.0,0,37.76,37.75,37.756,300,11326.79,3,,,37.76,37.758,,-0.002483487450462383,hog,20191224
2019-12-24,11:56,11:56 AM,,,,0,0.0,0,37.76,37.75,37.758,1000,37758.5,8,,,37.76,37.76,,-0.002430647291941843,hog,20191224
2019-12-24,11:57,11:57 AM,37.77,37.765,37.77,108,4079.155,3,37.78,37.76,37.773,1000,37773.0,10,37.77,37.77,37.76,37.77,,-0.002034346103038261,hog,20191224
2019-12-24,11:58,11:58 AM,37.785,37.775,37.775,103,3890.835,3,37.79,37.775,37.781,702,26522.56,6,37.775,37.785,37.78,37.79,,-0.001822985468956476,hog,20191224
2019-12-24,11:59,11:59 AM,37.815,37.79,37.803,200,7560.5,2,37.83,37.79,37.804,2500,94509.5,19,37.79,37.815,37.79,37.81,,-0.0012153236459709214,hog,20191224
2019-12-24,12:00,12 PM,37.85,37.81,37.833,412,15587.39,8,37.85,37.81,37.821,9600,363084.5,43,37.81,37.85,37.81,37.85,,-0.0007661822985469872,hog,20191224
2019-12-24,12:01,12:01 PM,37.845,37.845,37.845,101,3822.345,2,37.85,37.83,37.842,7056,267015.54,26,37.845,37.845,37.85,37.83,,-0.0002113606340819728,hog,20191224
2019-12-24,12:02,12:02 PM,37.845,37.825,37.831,443,16759.055,8,37.85,37.825,37.835,2400,90804.3,12,37.825,37.84,37.825,37.845,,-0.0003963011889035817,hog,20191224
2019-12-24,12:03,12:03 PM,37.845,37.845,37.845,100,3784.5,1,37.845,37.845,37.845,200,7569.0,2,37.845,37.845,37.845,37.845,,-0.00013210039630125647,hog,20191224
2019-12-24,12:04,12:04 PM,,,,0,0.0,0,37.85,37.82,37.839,4397,166376.98,18,,,37.845,37.83,,-0.00029062087186268915,hog,20191224
2019-12-24,12:05,12:05 PM,,,,0,0.0,0,37.83,37.83,37.83,701,26518.83,6,,,37.83,37.83,,-0.0005284015852048382,hog,20191224
2019-12-24,12:06,12:06 PM,,,,0,0.0,0,37.84,37.82,37.829,525,19860.25,5,,,37.84,37.82,,-0.0005548216644650144,hog,20191224
2019-12-24,12:07,12:07 PM,37.825,37.825,37.825,100,3782.5,1,37.83,37.825,37.829,500,18914.5,5,37.825,37.825,37.83,37.825,,-0.0005548216644650144,hog,20191224
2019-12-24,12:08,12:08 PM,37.83,37.825,37.827,311,11764.075,6,37.84,37.824,37.831,2716,102749.5391,23,37.825,37.83,37.825,37.83,,-0.0005019815059444742,hog,20191224
2019-12-24,12:09,12:09 PM,37.825,37.825,37.825,100,3782.5,1,37.837,37.825,37.83,915,34614.7205,7,37.825,37.825,37.837,37.825,,-0.0005284015852048382,hog,20191224
2019-12-24,12:10,12:10 PM,37.83,37.83,37.83,100,3783.0,1,37.83,37.81,37.822,1309,49508.88,12,37.83,37.83,37.82,37.81,,-0.0007397622192866233,hog,20191224
2019-12-24,12:11,12:11 PM,37.82,37.815,37.818,200,7563.5,2,37.83,37.815,37.821,712,26928.34,5,37.815,37.82,37.815,37.82,,-0.0007661822985469872,hog,20191224
2019-12-24,12:12,12:12 PM,37.82,37.82,37.82,102,3857.64,2,37.823,37.82,37.82,1200,45384.29,11,37.82,37.82,37.82,37.82,,-0.0007926023778071634,hog,20191224
2019-12-24,12:13,12:13 PM,37.825,37.81,37.821,311,11762.41,5,37.825,37.787,37.808,2454,92780.38,18,37.825,37.81,37.825,37.79,,-0.0011096433289300288,hog,20191224
2019-12-24,12:14,12:14 PM,37.8,37.785,37.792,406,15343.71,5,37.8,37.785,37.797,2300,86932.0,17,37.785,37.8,37.785,37.8,,-0.001400264200792718,hog,20191224
2019-12-24,12:15,12:15 PM,37.8,37.8,37.8,9,340.2,2,37.805,37.785,37.798,2508,94796.9,16,37.8,37.8,37.8,37.785,,-0.001373844121532354,hog,20191224
2019-12-24,12:16,12:16 PM,37.8,37.795,37.797,205,7748.5,4,37.81,37.79,37.799,1782,67358.1,15,37.8,37.795,37.79,37.8,,-0.0013474240422721778,hog,20191224
2019-12-24,12:17,12:17 PM,,,,0,0.0,0,37.81,37.8,37.805,1000,37805.0,9,,,37.81,37.81,,-0.0011889035667107452,hog,20191224
2019-12-24,12:18,12:18 PM,,,,0,0.0,0,37.81,37.79,37.799,1300,49138.5,11,,,37.79,37.8,,-0.0013474240422721778,hog,20191224
2019-12-24,12:19,12:19 PM,,,,0,0.0,0,37.8,37.79,37.791,799,30195.21,6,,,37.79,37.8,,-0.0015587846763541505,hog,20191224
2019-12-24,12:20,12:20 PM,37.795,37.795,37.795,100,3779.5,1,37.8,37.79,37.795,1107,41839.6,10,37.795,37.795,37.8,37.79,,-0.0014531043593130704,hog,20191224
2019-12-24,12:21,12:21 PM,37.79,37.775,37.782,214,8085.475,4,37.79,37.775,37.784,1500,56676.5,14,37.78,37.79,37.78,37.775,,-0.0017437252311757595,hog,20191224
2019-12-24,12:22,12:22 PM,37.775,37.775,37.775,200,7555.0,2,37.8,37.775,37.786,1841,69563.48,15,37.775,37.775,37.78,37.8,,-0.0016908850726552193,hog,20191224
2019-12-24,12:23,12:23 PM,37.81,37.8,37.81,208,7864.4,3,37.815,37.8,37.809,1901,71875.81,17,37.8,37.81,37.8,37.81,,-0.0010832232496698526,hog,20191224
2019-12-24,12:24,12:24 PM,37.82,37.815,37.817,210,7941.65,3,37.85,37.81,37.822,2112,79880.34,20,37.815,37.82,37.82,37.85,,-0.0007397622192866233,hog,20191224
2019-12-24,12:25,12:25 PM,37.84,37.84,37.84,2,75.68,1,37.85,37.84,37.842,2188,82797.95,17,37.84,37.84,37.848,37.84,,-0.0002113606340819728,hog,20191224
2019-12-24,12:26,12:26 PM,37.87,37.855,37.863,306,11586.16,5,37.87,37.85,37.862,4285,162239.75,36,37.855,37.87,37.85,37.87,,0.00031704095112286535,hog,20191224
2019-12-24,12:27,12:27 PM,37.88,37.875,37.88,165,6250.18,3,37.88,37.87,37.877,1200,45452.5,10,37.88,37.875,37.87,37.88,,0.0007133421400264471,hog,20191224
2019-12-24,12:28,12:28 PM,37.89,37.875,37.882,302,11440.25,4,37.89,37.875,37.88,1586,60077.18,11,37.89,37.875,37.89,37.88,,0.0007926023778071634,hog,20191224
2019-12-24,12:29,12:29 PM,,,,0,0.0,0,37.88,37.87,37.872,534,20223.58,5,,,37.88,37.87,,0.0005812417437251906,hog,20191224
2019-12-24,12:30,12:30 PM,37.895,37.865,37.887,404,15306.47,5,37.895,37.87,37.884,7581,287199.29,43,37.88,37.895,37.88,37.89,,0.000898282694848056,hog,20191224
2019-12-24,12:31,12:31 PM,37.865,37.865,37.865,513,19424.745,6,37.883,37.86,37.872,2201,83355.86,19,37.865,37.865,37.88,37.865,,0.0005812417437251906,hog,20191224
2019-12-24,12:32,12:32 PM,,,,0,0.0,0,37.87,37.865,37.867,700,26507.0,5,,,37.865,37.865,,0.00044914134742393415,hog,20191224
2019-12-24,12:33,12:33 PM,37.85,37.845,37.845,105,3973.75,2,37.88,37.84,37.855,4109,155547.19,32,37.85,37.845,37.865,37.88,,0.00013210039630106874,hog,20191224
2019-12-24,12:34,12:34 PM,37.885,37.885,37.885,200,7577.0,2,37.885,37.88,37.881,700,26517.0,7,37.885,37.885,37.88,37.88,,0.0008190224570673397,hog,20191224
2019-12-24,12:35,12:35 PM,37.885,37.885,37.885,100,3788.5,1,37.89,37.88,37.882,1100,41670.5,11,37.885,37.885,37.885,37.88,,0.0008454425363275159,hog,20191224
2019-12-24,12:36,12:36 PM,37.88,37.875,37.877,300,11363.0,3,37.885,37.87,37.878,1400,53029.5,12,37.875,37.88,37.88,37.88,,0.0007397622192866233,hog,20191224
2019-12-24,12:37,12:37 PM,37.88,37.875,37.877,200,7575.5,2,37.885,37.87,37.878,1147,43446.35,11,37.875,37.88,37.875,37.885,,0.0007397622192866233,hog,20191224
2019-12-24,12:38,12:38 PM,37.895,37.885,37.89,400,15156.0,3,37.895,37.88,37.887,1800,68196.0,12,37.885,37.895,37.885,37.895,,0.0009775429326287723,hog,20191224
2019-12-24,12:39,12:39 PM,37.885,37.845,37.871,700,26510.0,7,37.89,37.84,37.869,3713,140607.14,35,37.885,37.845,37.89,37.845,,0.0005019815059444742,hog,20191224
2019-12-24,12:40,12:40 PM,37.84,37.84,37.84,600,22704.0,3,37.84,37.83,37.839,2190,82867.7,14,37.84,37.84,37.84,37.84,,-0.00029062087186268915,hog,20191224
2019-12-24,12:41,12:41 PM,37.845,37.84,37.842,300,11352.5,3,37.85,37.83,37.847,3515,133031.25,29,37.84,37.845,37.84,37.845,,-7.926023778071634e-05,hog,20191224
2019-12-24,12:42,12:42 PM,37.855,37.855,37.855,300,11356.5,3,37.86,37.84,37.852,1400,52992.5,13,37.855,37.855,37.84,37.855,,5.284015852035241e-05,hog,20191224
2019-12-24,12:43,12:43 PM,37.835,37.83,37.835,102,3859.16,2,37.86,37.825,37.839,2678,101332.0,23,37.835,37.83,37.86,37.825,,-0.00029062087186268915,hog,20191224
2019-12-24,12:44,12:44 PM,37.825,37.81,37.82,304,11497.24,4,37.825,37.8,37.813,1600,60501.5,16,37.825,37.81,37.825,37.81,,-0.0009775429326287723,hog,20191224
2019-12-24,12:45,12:45 PM,37.81,37.79,37.8,200,7560.0,2,37.81,37.78,37.799,1400,52918.67,11,37.81,37.79,37.81,37.795,,-0.0013474240422721778,hog,20191224
2019-12-24,12:46,12:46 PM,37.805,37.795,37.802,601,22719.3,7,37.81,37.79,37.803,6548,247534.1898,26,37.795,37.805,37.8,37.805,,-0.0012417437252312852,hog,20191224
2019-12-24,12:47,12:47 PM,37.81,37.805,37.806,500,18903.0,5,37.81,37.8,37.805,3666,138594.9018,23,37.805,37.81,37.804,37.805,,-0.0011889035667107452,hog,20191224
2019-12-24,12:48,12:48 PM,37.845,37.805,37.818,402,15202.66,5,37.86,37.805,37.825,5001,189160.82,38,37.805,37.845,37.805,37.84,,-0.0006605019815059069,hog,20191224
2019-12-24,12:49,12:49 PM,37.855,37.845,37.85,500,18925.0,5,37.855,37.845,37.85,3028,114611.2897,27,37.85,37.845,37.85,37.85,,0.0,hog,20191224
2019-12-24,12:50,12:50 PM,37.885,37.86,37.885,201,7614.86,3,37.89,37.85,37.87,4171,157957.02,28,37.86,37.885,37.85,37.89,,0.0005284015852046504,hog,20191224
2019-12-24,12:51,12:51 PM,37.88,37.88,37.88,200,7576.0,2,37.9,37.88,37.889,2878,109045.42,24,37.88,37.88,37.89,37.9,,0.0010303830911493124,hog,20191224
2019-12-24,12:52,12:52 PM,37.92,37.92,37.92,224,8494.08,2,37.92,37.91,37.918,1722,65294.26,14,37.92,37.92,37.91,37.92,,0.001796565389696112,hog,20191224
2019-12-24,12:53,12:53 PM,37.93,37.925,37.928,200,7585.5,2,37.93,37.91,37.928,2092,79345.56,14,37.93,37.925,37.93,37.925,,0.002060766182298437,hog,20191224
2019-12-24,12:54,12:54 PM,37.93,37.92,37.923,28,1061.86,7,37.93,37.92,37.924,4507,170921.91,35,37.93,37.92,37.93,37.93,,0.0019550858652575445,hog,20191224
2019-12-24,12:55,12:55 PM,37.93,37.92,37.925,322,12211.92,5,37.93,37.92,37.923,2294,86995.42,22,37.925,37.93,37.92,37.93,,0.0019286657859973685,hog,20191224
2019-12-24,12:56,12:56 PM,37.93,37.925,37.927,701,26586.93,13,37.93,37.92,37.927,5511,209017.73,41,37.925,37.93,37.93,37.93,,0.002034346103038261,hog,20191224
2019-12-24,12:57,12:57 PM,37.925,37.925,37.925,700,26547.5,7,37.93,37.92,37.928,4522,171510.96,33,37.925,37.925,37.93,37.925,,0.002060766182298437,hog,20191224
2019-12-24,12:58,12:58 PM,37.94,37.935,37.935,1100,41729.0,11,37.95,37.89,37.932,10023,380194.39,76,37.935,37.935,37.93,37.89,,0.0021664464993395175,hog,20191224
2019-12-24,12:59,12:59 PM,37.885,37.86,37.874,401,15187.36,5,37.9,37.85,37.88,9790,370842.39,71,37.885,37.87,37.87,37.89,,0.0007926023778071634,hog,20191224
