date,minute,label,high,low,average,volume,notional,numberOfTrades,marketHigh,marketLow,marketAverage,marketVolume,marketNotional,marketNumberOfTrades,open,close,marketOpen,marketClose,changeOverTime,marketChangeOverTime,tickerName,tickerDate
2020-02-06,09:30,09:30 AM,,,,0,0.0,0,0.7351,0.7311,0.7321,36605,26800.2597,11,,,0.7313,0.7311,,0.0,jcp,20200206
2020-02-06,09:31,09:31 AM,,,,0,0.0,0,0.735,0.735,0.735,200,147.0,2,,,0.735,0.735,,0.003961207485316232,jcp,20200206
2020-02-06,09:32,09:32 AM,,,,0,0.0,0,0.7348,0.731,0.7312,17212,12585.5988,16,,,0.7314,0.731,,-0.0012293402540636687,jcp,20200206
2020-02-06,09:33,09:33 AM,,,,0,0.0,0,0.7347,0.731,0.7341,13800,10131.53,10,,,0.731,0.7311,,0.0027318672312525638,jcp,20200206
2020-02-06,09:34,09:34 AM,,,,0,0.0,0,0.7339,0.7311,0.7333,6401,4694.1911,8,,,0.7311,0.7311,,0.001639120338751508,jcp,20200206
2020-02-06,09:35,09:35 AM,,,,0,0.0,0,0.7311,0.731,0.731,2700,1973.91,12,,,0.731,0.731,,-0.0015025269771888948,jcp,20200206
2020-02-06,09:36,09:36 AM,,,,0,0.0,0,0.7312,0.7251,0.7297,41685,30420.312,50,,,0.731,0.7298,,-0.003278240677503016,jcp,20200206
2020-02-06,09:37,09:37 AM,,,,0,0.0,0,0.7298,0.7256,0.727,12000,8724.12,16,,,0.7257,0.7256,,-0.006966261439694022,jcp,20200206
2020-02-06,09:38,09:38 AM,,,,0,0.0,0,0.7284,0.7256,0.7274,4500,3273.71,16,,,0.7256,0.7257,,-0.006419887993443419,jcp,20200206
2020-02-06,09:39,09:39 AM,,,,0,0.0,0,0.7268,0.7257,0.7265,2600,1889.02,7,,,0.7257,0.7268,,-0.007649228247507087,jcp,20200206
2020-02-06,09:40,09:40 AM,,,,0,0.0,0,0.7266,0.7251,0.7264,11800,8571.84,10,,,0.7257,0.7251,,-0.0077858216090697,jcp,20200206
2020-02-06,09:41,09:41 AM,,,,0,0.0,0,0.725,0.7202,0.7211,12408,8947.57,6,,,0.725,0.7202,,-0.0150252697718891,jcp,20200206
2020-02-06,09:42,09:42 AM,,,,0,0.0,0,0.7205,0.72,0.72,11838,8523.61,16,,,0.7203,0.7205,,-0.016527796749077995,jcp,20200206
2020-02-06,09:43,09:43 AM,,,,0,0.0,0,0.7247,0.72,0.7232,7748,5603.7016,12,,,0.7205,0.72,,-0.012156809179073923,jcp,20200206
2020-02-06,09:44,09:44 AM,,,,0,0.0,0,0.72,0.72,0.72,670,482.4,5,,,0.72,0.72,,-0.016527796749077995,jcp,20200206
2020-02-06,09:45,09:45 AM,0.7201,0.7201,0.7201,100,72.01,1,0.7243,0.7184,0.7202,23577,16980.555,24,0.7201,0.7201,0.7243,0.7184,,-0.01625461002595277,jcp,20200206
2020-02-06,09:46,09:46 AM,,,,0,0.0,0,0.7229,0.716,0.7198,44063,31718.2222,36,,,0.716,0.7167,,-0.01680098347220322,jcp,20200206
2020-02-06,09:47,09:47 AM,,,,0,0.0,0,0.7191,0.715,0.7164,15200,10890.68,16,,,0.7167,0.715,,-0.02144515776533252,jcp,20200206
2020-02-06,09:48,09:48 AM,,,,0,0.0,0,0.7178,0.715,0.717,8880,6367.226,10,,,0.7177,0.716,,-0.020625597595956842,jcp,20200206
2020-02-06,09:49,09:49 AM,,,,0,0.0,0,0.717,0.716,0.7163,2796,2002.886,20,,,0.716,0.716,,-0.021581751126895133,jcp,20200206
2020-02-06,09:50,09:50 AM,0.7161,0.716,0.716,3700,2649.23,3,0.7177,0.715,0.7162,21747,15576.6217,34,0.7161,0.716,0.7177,0.715,,-0.021718344488457896,jcp,20200206
2020-02-06,09:51,09:51 AM,0.714,0.7134,0.7138,400,285.54,2,0.716,0.7108,0.713,7695,5486.9565,25,0.714,0.7134,0.7141,0.7108,,-0.026089332058461968,jcp,20200206
2020-02-06,09:52,09:52 AM,0.7108,0.7108,0.7108,1200,852.96,1,0.713,0.71,0.7108,26097,18550.44,25,0.7108,0.7108,0.7108,0.7117,,-0.029094386012839757,jcp,20200206
2020-02-06,09:53,09:53 AM,,,,0,0.0,0,0.7117,0.71,0.7108,2100,1492.85,12,,,0.71,0.71,,-0.029094386012839757,jcp,20200206
2020-02-06,09:54,09:54 AM,0.7135,0.7111,0.7113,1800,1280.46,4,0.7144,0.71,0.7121,28480,20281.768,43,0.7111,0.7135,0.7116,0.7144,,-0.027318672312525636,jcp,20200206
2020-02-06,09:55,09:55 AM,,,,0,0.0,0,0.72,0.7124,0.7141,16738,11953.4712,61,,,0.714,0.7124,,-0.02458680508127307,jcp,20200206
2020-02-06,09:56,09:56 AM,,,,0,0.0,0,0.7129,0.7123,0.7125,23400,16673.36,23,,,0.7124,0.7129,,-0.026772298866275034,jcp,20200206
2020-02-06,09:57,09:57 AM,,,,0,0.0,0,0.7136,0.7126,0.713,9100,6489.16,17,,,0.713,0.7133,,-0.026089332058461968,jcp,20200206
2020-02-06,09:58,09:58 AM,,,,0,0.0,0,0.714,0.7134,0.7137,8700,6209.64,11,,,0.7134,0.7139,,-0.025133178527523524,jcp,20200206
2020-02-06,09:59,09:59 AM,,,,0,0.0,0,0.7162,0.7135,0.7152,16599,11871.8938,19,,,0.714,0.7161,,-0.02308427810408418,jcp,20200206
2020-02-06,10:00,10 AM,,,,0,0.0,0,0.7161,0.7138,0.7151,9700,6937.29,4,,,0.7161,0.7138,,-0.023220871465646793,jcp,20200206
2020-02-06,10:01,10:01 AM,,,,0,0.0,0,0.7174,0.7137,0.7159,10397,7443.5678,15,,,0.7148,0.7173,,-0.022128124573145735,jcp,20200206
2020-02-06,10:02,10:02 AM,,,,0,0.0,0,0.72,0.7172,0.7188,12593,9052.8905,39,,,0.7172,0.72,,-0.018166917087829502,jcp,20200206
2020-02-06,10:03,10:03 AM,,,,0,0.0,0,0.72,0.7199,0.7199,300,215.99,3,,,0.72,0.72,,-0.01666439011064061,jcp,20200206
2020-02-06,10:04,10:04 AM,,,,0,0.0,0,0.72,0.7191,0.7195,7550,5432.275,8,,,0.72,0.72,,-0.01721076355689106,jcp,20200206
2020-02-06,10:05,10:05 AM,0.7223,0.7223,0.7223,300,216.69,3,0.7223,0.7199,0.7207,9000,6486.5272,25,0.7223,0.7223,0.72,0.7223,,-0.015571643218139553,jcp,20200206
2020-02-06,10:06,10:06 AM,,,,0,0.0,0,0.7237,0.7237,0.7237,700,506.59,4,,,0.7237,0.7237,,-0.011473842371260706,jcp,20200206
2020-02-06,10:07,10:07 AM,0.7232,0.7215,0.7229,2044,1477.8043,4,0.7237,0.7215,0.7229,14184,10254.5943,38,0.7232,0.7215,0.7237,0.723,,-0.012566589263761762,jcp,20200206
2020-02-06,10:08,10:08 AM,,,,0,0.0,0,0.7224,0.7214,0.7215,2452,1769.3096,5,,,0.7224,0.7214,,-0.014478896325638497,jcp,20200206
2020-02-06,10:09,10:09 AM,,,,0,0.0,0,0.7232,0.7223,0.7229,350,253.015,3,,,0.7232,0.7231,,-0.012566589263761762,jcp,20200206
2020-02-06,10:10,10:10 AM,,,,0,0.0,0,0.7214,0.7214,0.7214,200,144.28,2,,,0.7214,0.7214,,-0.014615489687201109,jcp,20200206
2020-02-06,10:11,10:11 AM,0.7227,0.7223,0.7226,2600,1878.98,5,0.7232,0.7223,0.7229,8010,5791.203,9,0.7223,0.7227,0.7223,0.7231,,-0.012566589263761762,jcp,20200206
2020-02-06,10:12,10:12 AM,,,,0,0.0,0,0.723,0.7223,0.7229,5200,3759.53,3,,,0.723,0.723,,-0.012566589263761762,jcp,20200206
2020-02-06,10:13,10:13 AM,0.7231,0.7231,0.7231,100,72.31,1,0.7234,0.7228,0.7231,26399,19089.9568,33,0.7231,0.7231,0.7231,0.7234,,-0.012293402540636536,jcp,20200206
2020-02-06,10:14,10:14 AM,,,,0,0.0,0,0.7234,0.7233,0.7233,10477,7578.0417,9,,,0.7234,0.7233,,-0.012020215817511158,jcp,20200206
2020-02-06,10:15,10:15 AM,,,,0,0.0,0,0.7233,0.7233,0.7233,3400,2459.22,7,,,0.7233,0.7233,,-0.012020215817511158,jcp,20200206
2020-02-06,10:16,10:16 AM,0.7233,0.72,0.7232,7000,5062.47,6,0.7233,0.72,0.7214,39293,28348.1572,70,0.7233,0.72,0.7233,0.72,,-0.014615489687201109,jcp,20200206
2020-02-06,10:17,10:17 AM,,,,0,0.0,0,0.7227,0.72,0.7204,2500,1801.18,11,,,0.72,0.72,,-0.01598142330282739,jcp,20200206
2020-02-06,10:18,10:18 AM,0.7227,0.7227,0.7227,200,144.54,1,0.7227,0.7191,0.7204,1500,1080.61,12,0.7227,0.7227,0.72,0.7226,,-0.01598142330282739,jcp,20200206
2020-02-06,10:19,10:19 AM,,,,0,0.0,0,0.7191,0.7184,0.7187,580,416.882,4,,,0.7191,0.7184,,-0.018303510449392116,jcp,20200206
2020-02-06,10:20,10:20 AM,,,,0,0.0,0,0.7227,0.717,0.717,17679,12677.423,7,,,0.7184,0.7227,,-0.020625597595956842,jcp,20200206
2020-02-06,10:21,10:21 AM,0.7227,0.7227,0.7227,100,72.27,1,0.7227,0.7199,0.722,6905,4985.4695,13,0.7227,0.7227,0.7199,0.7199,,-0.013795929517825432,jcp,20200206
2020-02-06,10:22,10:22 AM,,,,0,0.0,0,0.7198,0.7171,0.7194,10871,7821.1278,17,,,0.7184,0.7192,,-0.017347356918453672,jcp,20200206
2020-02-06,10:23,10:23 AM,,,,0,0.0,0,0.7191,0.7171,0.7183,4200,3016.99,11,,,0.7185,0.7171,,-0.01884988389564257,jcp,20200206
2020-02-06,10:24,10:24 AM,,,,0,0.0,0,0.7188,0.7171,0.7173,700,502.14,7,,,0.7171,0.7171,,-0.02021581751126885,jcp,20200206
2020-02-06,10:25,10:25 AM,,,,0,0.0,0,0.7189,0.7181,0.7184,1950,1400.985,13,,,0.7181,0.7186,,-0.018713290534079954,jcp,20200206
2020-02-06,10:26,10:26 AM,0.7187,0.7186,0.7186,200,143.73,2,0.7188,0.7186,0.7186,1916,1376.9268,13,0.7186,0.7187,0.7186,0.7187,,-0.01844010381095473,jcp,20200206
2020-02-06,10:27,10:27 AM,,,,0,0.0,0,0.7188,0.7176,0.7181,300,215.43,3,,,0.7188,0.7179,,-0.019123070618767946,jcp,20200206
2020-02-06,10:28,10:28 AM,,,,0,0.0,0,0.7174,0.717,0.7173,1700,1219.5,3,,,0.717,0.7174,,-0.02021581751126885,jcp,20200206
2020-02-06,10:29,10:29 AM,,,,0,0.0,0,0.7176,0.7162,0.7164,600,429.86,6,,,0.7162,0.7176,,-0.02144515776533252,jcp,20200206
2020-02-06,10:30,10:30 AM,0.7169,0.7169,0.7169,100,71.69,1,0.7176,0.7162,0.7172,5900,4231.8,7,0.7169,0.7169,0.7162,0.717,,-0.020352410872831614,jcp,20200206
2020-02-06,10:31,10:31 AM,,,,0,0.0,0,0.7172,0.717,0.7171,200,143.42,2,,,0.717,0.7172,,-0.020489004234394228,jcp,20200206
2020-02-06,10:32,10:32 AM,,,,0,0.0,0,0.7171,0.7171,0.7171,3700,2653.27,6,,,0.7171,0.7171,,-0.020489004234394228,jcp,20200206
2020-02-06,10:33,10:33 AM,,,,0,0.0,0,0.7171,0.717,0.717,700,501.91,3,,,0.7171,0.717,,-0.020625597595956842,jcp,20200206
2020-02-06,10:34,10:34 AM,,,,0,0.0,0,0.7171,0.717,0.717,6701,4804.7371,7,,,0.7171,0.717,,-0.020625597595956842,jcp,20200206
2020-02-06,10:35,10:35 AM,,,,0,0.0,0,0.717,0.717,0.717,100,71.7,1,,,0.717,0.717,,-0.020625597595956842,jcp,20200206
2020-02-06,10:36,10:36 AM,0.717,0.717,0.717,600,430.2,2,0.717,0.717,0.717,2800,2007.6,13,0.717,0.717,0.717,0.717,,-0.020625597595956842,jcp,20200206
2020-02-06,10:37,10:37 AM,,,,0,0.0,0,0.7199,0.717,0.7178,31700,22755.7702,133,,,0.717,0.7199,,-0.019532850703455784,jcp,20200206
2020-02-06,10:38,10:38 AM,,,,0,0.0,0,0.7198,0.7194,0.7194,16300,11727.02,29,,,0.7195,0.7194,,-0.017347356918453672,jcp,20200206
2020-02-06,10:39,10:39 AM,,,,0,0.0,0,0.7195,0.7182,0.7189,19111,13740.6475,54,,,0.7195,0.7182,,-0.01803032372626689,jcp,20200206
2020-02-06,10:40,10:40 AM,,,,0,0.0,0,0.7182,0.7181,0.7181,900,646.31,7,,,0.7181,0.7182,,-0.019123070618767946,jcp,20200206
2020-02-06,10:41,10:41 AM,,,,0,0.0,0,0.7181,0.7181,0.7181,200,143.62,1,,,0.7181,0.7181,,-0.019123070618767946,jcp,20200206
2020-02-06,10:42,10:42 AM,,,,0,0.0,0,0.7182,0.718,0.7181,10690,7676.7095,14,,,0.7182,0.718,,-0.019123070618767946,jcp,20200206
2020-02-06,10:43,10:43 AM,,,,0,0.0,0,0.7181,0.7177,0.718,7305,5245.02,18,,,0.7181,0.7177,,-0.01925966398033056,jcp,20200206
2020-02-06,10:44,10:44 AM,0.7175,0.7175,0.7175,100,71.75,1,0.7177,0.7175,0.7176,1670,1198.489,8,0.7175,0.7175,0.7177,0.7175,,-0.019806037426581012,jcp,20200206
2020-02-06,10:45,10:45 AM,,,,0,0.0,0,0.7176,0.7176,0.7176,124,88.9824,1,,,0.7176,0.7176,,-0.019806037426581012,jcp,20200206
2020-02-06,10:46,10:46 AM,,,,0,0.0,0,0.7176,0.7175,0.7175,2700,1937.47,6,,,0.7175,0.7176,,-0.019942630788143623,jcp,20200206
2020-02-06,10:47,10:47 AM,0.7174,0.7174,0.7174,100,71.74,1,0.7175,0.7174,0.7174,1105,792.7875,11,0.7174,0.7174,0.7175,0.7174,,-0.020079224149706237,jcp,20200206
2020-02-06,10:48,10:48 AM,,,,0,0.0,0,0.7174,0.7173,0.7173,2600,1865.11,12,,,0.7174,0.7173,,-0.02021581751126885,jcp,20200206
2020-02-06,10:49,10:49 AM,0.7171,0.7171,0.7171,100,71.71,1,0.7172,0.7171,0.7171,3150,2258.945,21,0.7171,0.7171,0.7172,0.7171,,-0.020489004234394228,jcp,20200206
2020-02-06,10:50,10:50 AM,,,,0,0.0,0,0.7189,0.7168,0.7175,120645,86570.0535,122,,,0.717,0.7189,,-0.019942630788143623,jcp,20200206
2020-02-06,10:51,10:51 AM,0.7189,0.7181,0.7186,8401,6036.9787,9,0.7199,0.7179,0.7189,84214,60541.8022,151,0.7189,0.7181,0.7188,0.7179,,-0.01803032372626689,jcp,20200206
2020-02-06,10:52,10:52 AM,,,,0,0.0,0,0.718,0.7177,0.7179,6500,4666.41,22,,,0.718,0.7177,,-0.01939625734189317,jcp,20200206
2020-02-06,10:53,10:53 AM,,,,0,0.0,0,0.7183,0.7177,0.7178,23200,16653.6,86,,,0.7178,0.7183,,-0.019532850703455784,jcp,20200206
2020-02-06,10:54,10:54 AM,0.7186,0.7184,0.7185,300,215.55,3,0.7187,0.7183,0.7183,15080,10833.258,41,0.7184,0.7186,0.7183,0.7187,,-0.01884988389564257,jcp,20200206
2020-02-06,10:55,10:55 AM,,,,0,0.0,0,0.7187,0.7186,0.7186,400,287.46,4,,,0.7186,0.7187,,-0.01844010381095473,jcp,20200206
2020-02-06,10:56,10:56 AM,,,,0,0.0,0,0.7188,0.7187,0.7187,5000,3593.53,8,,,0.7187,0.7188,,-0.018303510449392116,jcp,20200206
2020-02-06,10:57,10:57 AM,,,,0,0.0,0,0.7188,0.7188,0.7188,3900,2803.32,6,,,0.7188,0.7188,,-0.018166917087829502,jcp,20200206
2020-02-06,10:58,10:58 AM,,,,0,0.0,0,0.7188,0.7187,0.7187,6270,4506.759,3,,,0.7188,0.7187,,-0.018303510449392116,jcp,20200206
2020-02-06,10:59,10:59 AM,,,,0,0.0,0,0.7188,0.7187,0.7187,4150,2982.865,27,,,0.7188,0.7187,,-0.018303510449392116,jcp,20200206
2020-02-06,11:00,11 AM,,,,0,0.0,0,0.7188,0.7188,0.7188,200,143.76,2,,,0.7188,0.7188,,-0.018166917087829502,jcp,20200206
2020-02-06,11:01,11:01 AM,,,,0,0.0,0,0.7187,0.7187,0.7187,400,287.48,1,,,0.7187,0.7187,,-0.018303510449392116,jcp,20200206
2020-02-06,11:02,11:02 AM,,,,0,0.0,0,0.7188,0.7188,0.7188,400,287.52,3,,,0.7188,0.7188,,-0.018166917087829502,jcp,20200206
2020-02-06,11:03,11:03 AM,0.7187,0.7187,0.7187,3700,2659.19,7,0.7188,0.7185,0.7186,56480,40590.71,130,0.7187,0.7187,0.7187,0.7186,,-0.01844010381095473,jcp,20200206
2020-02-06,11:04,11:04 AM,0.7186,0.7186,0.7186,100,71.86,1,0.7186,0.7186,0.7186,100,71.86,1,0.7186,0.7186,0.7186,0.7186,,-0.01844010381095473,jcp,20200206
2020-02-06,11:05,11:05 AM,,,,0,0.0,0,0.7188,0.7186,0.7186,8791,6317.9826,22,,,0.7186,0.7188,,-0.01844010381095473,jcp,20200206
2020-02-06,11:06,11:06 AM,0.7189,0.7189,0.7189,200,143.78,1,0.7195,0.7187,0.7188,37115,26681.2405,86,0.7189,0.7189,0.7188,0.7194,,-0.018166917087829502,jcp,20200206
2020-02-06,11:07,11:07 AM,,,,0,0.0,0,0.7197,0.7195,0.7195,1100,791.51,5,,,0.7195,0.7196,,-0.01721076355689106,jcp,20200206
2020-02-06,11:08,11:08 AM,,,,0,0.0,0,0.7236,0.7197,0.72,367992,264961.62,112,,,0.7197,0.72,,-0.016527796749077995,jcp,20200206
2020-02-06,11:09,11:09 AM,0.7254,0.7254,0.7254,100,72.54,1,0.7297,0.7199,0.7206,127776,92081.0404,40,0.7254,0.7254,0.7199,0.7291,,-0.015708236579702165,jcp,20200206
2020-02-06,11:10,11:10 AM,,,,0,0.0,0,0.7296,0.7269,0.7276,27385,19926.225,29,,,0.7291,0.727,,-0.006146701270318192,jcp,20200206
2020-02-06,11:11,11:11 AM,,,,0,0.0,0,0.728,0.7233,0.7266,22183,16119.821,24,,,0.7271,0.7237,,-0.007512634885944474,jcp,20200206
2020-02-06,11:12,11:12 AM,,,,0,0.0,0,0.724,0.7233,0.7234,2495,1804.943,7,,,0.7234,0.724,,-0.011883622455948546,jcp,20200206
2020-02-06,11:13,11:13 AM,,,,0,0.0,0,0.7233,0.7233,0.7233,100,72.33,1,,,0.7233,0.7233,,-0.012020215817511158,jcp,20200206
2020-02-06,11:14,11:14 AM,,,,0,0.0,0,0.7238,0.7233,0.7235,12521,9059.4163,20,,,0.7233,0.7236,,-0.011747029094385932,jcp,20200206
2020-02-06,11:15,11:15 AM,,,,0,0.0,0,0.7234,0.7234,0.7234,2000,1446.8,1,,,0.7234,0.7234,,-0.011883622455948546,jcp,20200206
2020-02-06,11:16,11:16 AM,,,,0,0.0,0,0.7236,0.7235,0.7235,200,144.71,2,,,0.7235,0.7236,,-0.011747029094385932,jcp,20200206
2020-02-06,11:17,11:17 AM,,,,0,0.0,0,0.7236,0.7233,0.7234,1700,1229.9,8,,,0.7233,0.7236,,-0.011883622455948546,jcp,20200206
2020-02-06,11:18,11:18 AM,,,,0,0.0,0,0.7283,0.7235,0.724,20444,14801.5559,91,,,0.7236,0.7283,,-0.011064062286572867,jcp,20200206
2020-02-06,11:19,11:19 AM,,,,0,0.0,0,0.7283,0.7243,0.7259,500,362.95,5,,,0.7283,0.7243,,-0.008468788416882917,jcp,20200206
2020-02-06,11:20,11:20 AM,,,,0,0.0,0,0.7247,0.7247,0.7247,100,72.47,1,,,0.7247,0.7247,,-0.010107908755634425,jcp,20200206
2020-02-06,11:21,11:21 AM,,,,0,0.0,0,0.7297,0.7248,0.7252,1363,988.5149,2,,,0.7297,0.7248,,-0.00942494194782136,jcp,20200206
2020-02-06,11:22,11:22 AM,,,,0,0.0,0,0.7296,0.7248,0.7265,3750,2724.72,3,,,0.7296,0.726,,-0.007649228247507087,jcp,20200206
2020-02-06,11:23,11:23 AM,0.7281,0.7281,0.7281,300,218.43,1,0.7299,0.7262,0.7262,25610,18600.512,12,0.7281,0.7281,0.7279,0.7262,,-0.008059008332195078,jcp,20200206
2020-02-06,11:24,11:24 AM,,,,0,0.0,0,0.73,0.7268,0.7273,2700,1963.75,3,,,0.7283,0.7268,,-0.006556481355006183,jcp,20200206
2020-02-06,11:25,11:25 AM,,,,0,0.0,0,0.73,0.7269,0.7284,5850,4261.565,17,,,0.73,0.73,,-0.005053954377817136,jcp,20200206
2020-02-06,11:26,11:26 AM,0.7285,0.7285,0.7285,400,291.4,2,0.73,0.7271,0.7286,1800,1311.62,10,0.7285,0.7285,0.7285,0.7271,,-0.004780767654691911,jcp,20200206
2020-02-06,11:27,11:27 AM,0.7273,0.7251,0.7272,5362,3899.3378,3,0.73,0.7247,0.7261,50881,36947.903,52,0.7273,0.7251,0.7271,0.7249,,-0.00819560169375769,jcp,20200206
2020-02-06,11:28,11:28 AM,,,,0,0.0,0,0.7273,0.725,0.7258,1700,1233.96,7,,,0.7273,0.727,,-0.00860538177844553,jcp,20200206
2020-02-06,11:29,11:29 AM,,,,0,0.0,0,0.7296,0.727,0.728,6000,4368.54,36,,,0.727,0.727,,-0.005600327824067741,jcp,20200206
2020-02-06,11:30,11:30 AM,,,,0,0.0,0,0.7296,0.727,0.7283,400,291.32,3,,,0.727,0.7296,,-0.005190547739379901,jcp,20200206
2020-02-06,11:31,11:31 AM,,,,0,0.0,0,0.7295,0.7249,0.7256,1371,994.8834,10,,,0.7254,0.7295,,-0.008878568501570755,jcp,20200206
2020-02-06,11:32,11:32 AM,,,,0,0.0,0,0.7253,0.7252,0.7252,1372,995.0416,7,,,0.7252,0.7252,,-0.00942494194782136,jcp,20200206
2020-02-06,11:33,11:33 AM,,,,0,0.0,0,0.7252,0.7252,0.7252,600,435.12,6,,,0.7252,0.7252,,-0.00942494194782136,jcp,20200206
2020-02-06,11:34,11:34 AM,,,,0,0.0,0,0.7253,0.7252,0.7252,4600,3336.32,7,,,0.7252,0.7252,,-0.00942494194782136,jcp,20200206
2020-02-06,11:35,11:35 AM,,,,0,0.0,0,0.7273,0.7252,0.7259,1871,1358.3192,15,,,0.7252,0.7252,,-0.008468788416882917,jcp,20200206
2020-02-06,11:36,11:36 AM,,,,0,0.0,0,0.7293,0.7252,0.7278,1700,1237.34,10,,,0.7252,0.7252,,-0.005873514547192966,jcp,20200206
2020-02-06,11:37,11:37 AM,0.7252,0.7252,0.7252,100,72.52,1,0.7291,0.7248,0.7252,2700,1958.09,22,0.7252,0.7252,0.7252,0.7248,,-0.00942494194782136,jcp,20200206
2020-02-06,11:38,11:38 AM,,,,0,0.0,0,0.7249,0.7249,0.7249,600,434.94,6,,,0.7249,0.7249,,-0.009834722032509199,jcp,20200206
2020-02-06,11:39,11:39 AM,,,,0,0.0,0,0.7291,0.7249,0.7283,5400,3932.9026,10,,,0.725,0.7249,,-0.005190547739379901,jcp,20200206
2020-02-06,11:40,11:40 AM,,,,0,0.0,0,0.7249,0.7249,0.7249,700,507.43,7,,,0.7249,0.7249,,-0.009834722032509199,jcp,20200206
2020-02-06,11:41,11:41 AM,,,,0,0.0,0,0.7289,0.7249,0.7254,820,594.898,8,,,0.7249,0.7249,,-0.009151755224695982,jcp,20200206
2020-02-06,11:42,11:42 AM,0.7249,0.7249,0.7249,365,264.5885,2,0.7287,0.7249,0.7279,8865,6453.2785,16,0.7249,0.7249,0.7249,0.7249,,-0.005736921185630353,jcp,20200206
2020-02-06,11:43,11:43 AM,0.7249,0.7249,0.7249,200,144.98,2,0.7286,0.7249,0.7261,4810,3492.911,17,0.7249,0.7249,0.7249,0.7285,,-0.00819560169375769,jcp,20200206
2020-02-06,11:44,11:44 AM,,,,0,0.0,0,0.7286,0.7249,0.7257,900,653.15,8,,,0.7249,0.7249,,-0.008741975140008143,jcp,20200206
2020-02-06,11:45,11:45 AM,,,,0,0.0,0,0.7286,0.7249,0.7255,1175,852.4975,10,,,0.7249,0.7249,,-0.00901516186313337,jcp,20200206
2020-02-06,11:46,11:46 AM,,,,0,0.0,0,0.7286,0.7249,0.7256,1000,725.62,10,,,0.7249,0.7249,,-0.008878568501570755,jcp,20200206
2020-02-06,11:47,11:47 AM,,,,0,0.0,0,0.7286,0.7249,0.728,11685,8507.7865,13,,,0.7286,0.7249,,-0.005600327824067741,jcp,20200206
2020-02-06,11:48,11:48 AM,,,,0,0.0,0,0.7286,0.7249,0.7265,2615,1899.815,12,,,0.7249,0.7249,,-0.007649228247507087,jcp,20200206
2020-02-06,11:49,11:49 AM,0.7267,0.7267,0.7267,200,145.34,2,0.7267,0.7249,0.7255,1900,1378.57,14,0.7267,0.7267,0.7267,0.7249,,-0.00901516186313337,jcp,20200206
2020-02-06,11:50,11:50 AM,,,,0,0.0,0,0.7267,0.7249,0.7252,600,435.12,6,,,0.7249,0.7249,,-0.00942494194782136,jcp,20200206
2020-02-06,11:51,11:51 AM,,,,0,0.0,0,0.7285,0.7249,0.7271,1600,1163.44,7,,,0.7249,0.7249,,-0.006829668078131409,jcp,20200206
2020-02-06,11:52,11:52 AM,,,,0,0.0,0,0.7249,0.7249,0.7249,700,507.43,7,,,0.7249,0.7249,,-0.009834722032509199,jcp,20200206
2020-02-06,11:53,11:53 AM,,,,0,0.0,0,0.7249,0.7249,0.7249,1305,945.9945,10,,,0.7249,0.7249,,-0.009834722032509199,jcp,20200206
2020-02-06,11:54,11:54 AM,,,,0,0.0,0,0.7284,0.7249,0.7254,2100,1523.52,19,,,0.7249,0.725,,-0.009151755224695982,jcp,20200206
2020-02-06,11:55,11:55 AM,,,,0,0.0,0,0.7282,0.725,0.7258,800,580.64,8,,,0.725,0.725,,-0.00860538177844553,jcp,20200206
2020-02-06,11:56,11:56 AM,0.7266,0.7266,0.7266,100,72.66,1,0.728,0.725,0.7255,800,580.46,8,0.7266,0.7266,0.725,0.725,,-0.00901516186313337,jcp,20200206
2020-02-06,11:57,11:57 AM,0.7264,0.7264,0.7264,100,72.64,1,0.7265,0.725,0.725,17101,12398.6665,20,0.7264,0.7264,0.725,0.725,,-0.009698128670946585,jcp,20200206
2020-02-06,11:58,11:58 AM,,,,0,0.0,0,0.7263,0.725,0.7257,1400,1016.04,12,,,0.725,0.725,,-0.008741975140008143,jcp,20200206
2020-02-06,11:59,11:59 AM,,,,0,0.0,0,0.7256,0.725,0.7251,1300,942.68,11,,,0.725,0.7256,,-0.009561535309383973,jcp,20200206
2020-02-06,12:00,12 PM,,,,0,0.0,0,0.7262,0.7252,0.7252,2600,1885.72,17,,,0.7252,0.7252,,-0.00942494194782136,jcp,20200206
2020-02-06,12:01,12:01 PM,,,,0,0.0,0,0.726,0.7252,0.7255,900,652.97,7,,,0.7252,0.7253,,-0.00901516186313337,jcp,20200206
2020-02-06,12:02,12:02 PM,,,,0,0.0,0,0.7258,0.7253,0.7254,3000,2176.4,18,,,0.7253,0.7253,,-0.009151755224695982,jcp,20200206
2020-02-06,12:03,12:03 PM,0.726,0.7259,0.7259,1900,1379.22,4,0.7262,0.7253,0.7259,16190,11753.139,25,0.726,0.7259,0.7253,0.7261,,-0.008468788416882917,jcp,20200206
2020-02-06,12:04,12:04 PM,,,,0,0.0,0,0.7261,0.7261,0.7261,1500,1089.15,8,,,0.7261,0.7261,,-0.00819560169375769,jcp,20200206
2020-02-06,12:05,12:05 PM,,,,0,0.0,0,0.7262,0.7261,0.7261,13100,9511.93,23,,,0.7261,0.7261,,-0.00819560169375769,jcp,20200206
2020-02-06,12:06,12:06 PM,0.7261,0.7261,0.7261,166,120.5326,1,0.7262,0.7261,0.7261,27969,20308.3009,48,0.7261,0.7261,0.7261,0.7261,,-0.00819560169375769,jcp,20200206
2020-02-06,12:07,12:07 PM,,,,0,0.0,0,0.7262,0.7261,0.7261,26100,18952.23,45,,,0.7261,0.7262,,-0.00819560169375769,jcp,20200206
2020-02-06,12:08,12:08 PM,,,,0,0.0,0,0.7262,0.7261,0.7261,712,517.0144,3,,,0.7262,0.7261,,-0.00819560169375769,jcp,20200206
2020-02-06,12:09,12:09 PM,,,,0,0.0,0,,,,0,0.0,0,,,,,,,jcp,20200206
2020-02-06,12:10,12:10 PM,,,,0,0.0,0,0.73,0.7261,0.7268,24699,17953.2437,77,,,0.7262,0.73,,-0.007239448162819248,jcp,20200206
2020-02-06,12:11,12:11 PM,,,,0,0.0,0,0.7312,0.7298,0.73,74075,54079.27,36,,,0.73,0.7312,,-0.0028684605928151765,jcp,20200206
2020-02-06,12:12,12:12 PM,,,,0,0.0,0,0.7348,0.7312,0.7328,25100,18394.4,32,,,0.7312,0.734,,0.0009561535309384428,jcp,20200206
2020-02-06,12:13,12:13 PM,,,,0,0.0,0,0.7345,0.7317,0.7326,9780,7165.3998,34,,,0.734,0.7317,,0.0006829668078132167,jcp,20200206
2020-02-06,12:14,12:14 PM,,,,0,0.0,0,0.7343,0.7317,0.7337,487,357.3254,3,,,0.7317,0.7342,,0.0021854937850021116,jcp,20200206
2020-02-06,12:15,12:15 PM,0.7317,0.7315,0.7316,4900,3585.2436,2,0.7328,0.7301,0.732,21668,15863.0104,34,0.7317,0.7315,0.7323,0.7317,,-0.000136593361562613,jcp,20200206
2020-02-06,12:16,12:16 PM,,,,0,0.0,0,0.7324,0.7301,0.7312,2850,2083.975,9,,,0.7301,0.7318,,-0.0012293402540636687,jcp,20200206
2020-02-06,12:17,12:17 PM,0.7317,0.7317,0.7317,1500,1097.55,7,0.732,0.729,0.7305,69190,50547.612,132,0.7317,0.7317,0.7318,0.7292,,-0.00218549378500196,jcp,20200206
2020-02-06,12:18,12:18 PM,,,,0,0.0,0,0.7322,0.7298,0.7303,12418,9069.23,32,,,0.7298,0.7322,,-0.0024586805081273375,jcp,20200206
2020-02-06,12:19,12:19 PM,,,,0,0.0,0,0.7314,0.7304,0.7306,1000,730.64,3,,,0.7308,0.7304,,-0.0020489004234393467,jcp,20200206
2020-02-06,12:20,12:20 PM,,,,0,0.0,0,0.7324,0.7309,0.732,18180,13308.698,32,,,0.7314,0.7323,,-0.000136593361562613,jcp,20200206
2020-02-06,12:21,12:21 PM,,,,0,0.0,0,0.733,0.7324,0.7326,9000,6594.27,35,,,0.7324,0.733,,0.0006829668078132167,jcp,20200206
2020-02-06,12:22,12:22 PM,0.7329,0.7329,0.7329,700,513.03,2,0.733,0.7328,0.7328,12980,9512.972,26,0.7329,0.7329,0.7328,0.7329,,0.0009561535309384428,jcp,20200206
2020-02-06,12:23,12:23 PM,,,,0,0.0,0,0.7334,0.7329,0.733,22910,16794.098,20,,,0.7329,0.7334,,0.0012293402540636687,jcp,20200206
2020-02-06,12:24,12:24 PM,0.7337,0.7337,0.7337,100,73.37,1,0.7347,0.7334,0.7338,21321,15645.6977,29,0.7337,0.7337,0.7336,0.7335,,0.002322087146564725,jcp,20200206
2020-02-06,12:25,12:25 PM,,,,0,0.0,0,0.7347,0.7335,0.734,9126,6698.9836,23,,,0.7336,0.7347,,0.0025952738696899506,jcp,20200206
2020-02-06,12:26,12:26 PM,,,,0,0.0,0,0.7367,0.7346,0.7351,2800,2058.54,20,,,0.7346,0.7367,,0.004097800846878845,jcp,20200206
2020-02-06,12:27,12:27 PM,,,,0,0.0,0,0.7384,0.7368,0.7368,10290,7582.632,13,,,0.7384,0.7368,,0.0064198879934435705,jcp,20200206
2020-02-06,12:28,12:28 PM,0.7368,0.7368,0.7368,15,11.052,1,0.7382,0.7352,0.7356,2600,1912.78,7,0.7368,0.7368,0.7382,0.7382,,0.004780767654692062,jcp,20200206
2020-02-06,12:29,12:29 PM,0.7369,0.7369,0.7369,2,1.4738,1,0.738,0.7355,0.7375,14859,10959.692,5,0.7369,0.7369,0.7355,0.7369,,0.0073760415243820125,jcp,20200206
2020-02-06,12:30,12:30 PM,,,,0,0.0,0,0.7381,0.7355,0.7368,14000,10316.16,6,,,0.7355,0.7355,,0.0064198879934435705,jcp,20200206
2020-02-06,12:31,12:31 PM,,,,0,0.0,0,0.7382,0.7355,0.7367,2755,2029.6395,10,,,0.7355,0.7369,,0.006283294631880957,jcp,20200206
2020-02-06,12:32,12:32 PM,,,,0,0.0,0,0.7382,0.7355,0.7372,880,648.736,6,,,0.7355,0.7382,,0.006966261439694022,jcp,20200206
2020-02-06,12:33,12:33 PM,0.7376,0.7376,0.7376,95,70.072,1,0.7376,0.736,0.737,4600,3390.24,21,0.7376,0.7376,0.7369,0.7361,,0.006693074716568796,jcp,20200206
2020-02-06,12:34,12:34 PM,0.7357,0.7357,0.7357,100,73.57,1,0.7369,0.7351,0.7354,39877,29328.6747,195,0.7357,0.7357,0.7369,0.7353,,0.0045075809315668364,jcp,20200206
2020-02-06,12:35,12:35 PM,0.7347,0.7336,0.7346,2300,1689.7,3,0.7353,0.7336,0.7342,23135,16985.7355,71,0.7347,0.7336,0.7353,0.7336,,0.0028684605928151765,jcp,20200206
2020-02-06,12:36,12:36 PM,0.7336,0.7304,0.7312,900,658.08,9,0.7338,0.7301,0.7312,28545,20872.3855,61,0.7336,0.731,0.7336,0.7303,,-0.0012293402540636687,jcp,20200206
2020-02-06,12:37,12:37 PM,0.7306,0.7306,0.7306,200,146.12,2,0.7309,0.7303,0.7308,4000,2923.26,21,0.7306,0.7306,0.7303,0.7309,,-0.0017757137003141209,jcp,20200206
2020-02-06,12:38,12:38 PM,0.7303,0.7303,0.7303,340,248.302,2,0.7306,0.73,0.7302,3050,2227.195,18,0.7303,0.7303,0.7303,0.7303,,-0.0025952738696899506,jcp,20200206
2020-02-06,12:39,12:39 PM,,,,0,0.0,0,0.7347,0.7304,0.7306,30983,22636.6677,105,,,0.7304,0.7347,,-0.0020489004234393467,jcp,20200206
2020-02-06,12:40,12:40 PM,,,,0,0.0,0,0.7346,0.7311,0.7318,2195,1606.4445,9,,,0.7346,0.7339,,-0.00040978008468783904,jcp,20200206
2020-02-06,12:41,12:41 PM,,,,0,0.0,0,0.734,0.7335,0.7338,500,366.9,3,,,0.734,0.7335,,0.002322087146564725,jcp,20200206
2020-02-06,12:42,12:42 PM,,,,0,0.0,0,,,,0,0.0,0,,,,,,,jcp,20200206
2020-02-06,12:43,12:43 PM,,,,0,0.0,0,,,,0,0.0,0,,,,,,,jcp,20200206
2020-02-06,12:44,12:44 PM,0.7325,0.7325,0.7325,700,512.75,3,0.7325,0.7325,0.7325,1100,805.75,7,0.7325,0.7325,0.7325,0.7325,,0.0005463734462506037,jcp,20200206
2020-02-06,12:45,12:45 PM,,,,0,0.0,0,0.7335,0.7325,0.7327,697,510.7425,3,,,0.7334,0.7335,,0.0008195601693758298,jcp,20200206
2020-02-06,12:46,12:46 PM,0.7325,0.7314,0.7318,800,585.47,3,0.733,0.7312,0.7322,11768,8617.254,36,0.7325,0.7314,0.7326,0.7324,,0.000136593361562613,jcp,20200206
2020-02-06,12:47,12:47 PM,,,,0,0.0,0,0.7333,0.7312,0.7318,700,512.26,3,,,0.7312,0.7333,,-0.00040978008468783904,jcp,20200206
2020-02-06,12:48,12:48 PM,,,,0,0.0,0,0.7333,0.7313,0.7316,2600,1902.35,7,,,0.7333,0.7322,,-0.000682966807813065,jcp,20200206
2020-02-06,12:49,12:49 PM,,,,0,0.0,0,0.7333,0.7311,0.7323,700,512.65,4,,,0.7333,0.7311,,0.000273186723125226,jcp,20200206
2020-02-06,12:50,12:50 PM,,,,0,0.0,0,0.7332,0.7311,0.7324,800,585.93,8,,,0.7311,0.7332,,0.0004097800846879907,jcp,20200206
2020-02-06,12:51,12:51 PM,0.7311,0.7311,0.7311,100,73.11,1,0.7321,0.7311,0.7313,1900,1389.59,11,0.7311,0.7311,0.7311,0.7311,,-0.0010927468925010558,jcp,20200206
2020-02-06,12:52,12:52 PM,0.7311,0.7311,0.7311,100,73.11,1,0.7317,0.7311,0.7315,4295,3141.8745,12,0.7311,0.7311,0.7311,0.7311,,-0.0008195601693756781,jcp,20200206
2020-02-06,12:53,12:53 PM,,,,0,0.0,0,0.7311,0.7311,0.7311,600,438.66,6,,,0.7311,0.7311,,-0.0013659336156262819,jcp,20200206
2020-02-06,12:54,12:54 PM,0.7315,0.7311,0.7311,1400,1023.66,3,0.7332,0.7311,0.7311,10600,7750.68,31,0.7315,0.7311,0.7332,0.7315,,-0.0013659336156262819,jcp,20200206
2020-02-06,12:55,12:55 PM,0.7311,0.7311,0.7311,100,73.11,1,0.7317,0.73,0.7306,18181,13283.4375,28,0.7311,0.7311,0.7311,0.7309,,-0.0020489004234393467,jcp,20200206
2020-02-06,12:56,12:56 PM,0.7304,0.7304,0.7304,200,146.08,2,0.7317,0.7302,0.7305,900,657.47,9,0.7304,0.7304,0.7302,0.7304,,-0.00218549378500196,jcp,20200206
2020-02-06,12:57,12:57 PM,0.7304,0.7304,0.7304,100,73.04,1,0.7317,0.7303,0.7305,1500,1095.86,14,0.7304,0.7304,0.7303,0.7303,,-0.00218549378500196,jcp,20200206
2020-02-06,12:58,12:58 PM,0.7304,0.7304,0.7304,100,73.04,1,0.7317,0.7303,0.7307,1100,803.86,11,0.7304,0.7304,0.7317,0.7303,,-0.0019123070618767338,jcp,20200206
2020-02-06,12:59,12:59 PM,0.7304,0.7304,0.7304,200,146.08,2,0.7317,0.7303,0.7307,1600,1169.16,16,0.7304,0.7304,0.7317,0.7303,,-0.0019123070618767338,jcp,20200206
2020-02-06,13:00,1 PM,,,,0,0.0,0,0.7316,0.73,0.7303,4580,3345.04,18,,,0.7303,0.7309,,-0.0024586805081273375,jcp,20200206
2020-02-06,13:01,1:01 PM,,,,0,0.0,0,0.7316,0.73,0.7303,7400,5404.83,31,,,0.7309,0.73,,-0.0024586805081273375,jcp,20200206
2020-02-06,13:02,1:02 PM,,,,0,0.0,0,0.7309,0.7308,0.7308,800,584.71,8,,,0.7309,0.7308,,-0.0017757137003141209,jcp,20200206
2020-02-06,13:03,1:03 PM,,,,0,0.0,0,0.7316,0.7308,0.7309,1500,1096.48,5,,,0.7309,0.7316,,-0.001639120338751508,jcp,20200206
2020-02-06,13:04,1:04 PM,,,,0,0.0,0,0.7315,0.7311,0.7311,3500,2558.97,14,,,0.7311,0.7315,,-0.0013659336156262819,jcp,20200206
2020-02-06,13:05,1:05 PM,0.7318,0.7318,0.7318,100,73.18,1,0.7334,0.7311,0.7318,17700,12954.5,64,0.7318,0.7318,0.7311,0.7332,,-0.00040978008468783904,jcp,20200206
2020-02-06,13:06,1:06 PM,,,,0,0.0,0,0.7379,0.7345,0.7358,18917,13919.2047,21,,,0.7345,0.7379,,0.005053954377817288,jcp,20200206
2020-02-06,13:07,1:07 PM,,,,0,0.0,0,0.7374,0.7365,0.7367,3288,2422.5812,12,,,0.7374,0.7366,,0.006283294631880957,jcp,20200206
2020-02-06,13:08,1:08 PM,,,,0,0.0,0,0.7365,0.7354,0.7359,16473,12123.9735,46,,,0.7365,0.7355,,0.005190547739379901,jcp,20200206
2020-02-06,13:09,1:09 PM,0.7355,0.7355,0.7355,200,147.1,2,0.7356,0.7355,0.7355,800,588.41,8,0.7355,0.7355,0.7355,0.7355,,0.00464417429312945,jcp,20200206
2020-02-06,13:10,1:10 PM,,,,0,0.0,0,0.7356,0.7355,0.7355,500,367.76,4,,,0.7355,0.7356,,0.00464417429312945,jcp,20200206
2020-02-06,13:11,1:11 PM,,,,0,0.0,0,,,,0,0.0,0,,,,,,,jcp,20200206
2020-02-06,13:12,1:12 PM,0.7355,0.7341,0.7354,2400,1765.06,6,0.7356,0.7341,0.7347,52190,38345.755,72,0.7355,0.7341,0.7356,0.7341,,0.0035514274006283935,jcp,20200206
2020-02-06,13:13,1:13 PM,,,,0,0.0,0,0.734,0.7321,0.7327,6790,4975.438,19,,,0.734,0.7325,,0.0008195601693758298,jcp,20200206
2020-02-06,13:14,1:14 PM,,,,0,0.0,0,0.7339,0.7321,0.7326,20288,14864.8936,52,,,0.7321,0.7339,,0.0006829668078132167,jcp,20200206
2020-02-06,13:15,1:15 PM,,,,0,0.0,0,0.7341,0.7325,0.734,13450,9872.4975,6,,,0.734,0.7325,,0.0025952738696899506,jcp,20200206
2020-02-06,13:16,1:16 PM,,,,0,0.0,0,0.734,0.734,0.734,100,73.4,1,,,0.734,0.734,,0.0025952738696899506,jcp,20200206
2020-02-06,13:17,1:17 PM,,,,0,0.0,0,0.734,0.7325,0.7328,10200,7475.38,7,,,0.734,0.7325,,0.0009561535309384428,jcp,20200206
2020-02-06,13:18,1:18 PM,,,,0,0.0,0,0.734,0.7325,0.733,300,219.91,3,,,0.734,0.7325,,0.0012293402540636687,jcp,20200206
2020-02-06,13:19,1:19 PM,0.7324,0.7324,0.7324,100,73.24,1,0.733,0.7323,0.7324,4600,3369.24,16,0.7324,0.7324,0.733,0.7323,,0.0004097800846879907,jcp,20200206
2020-02-06,13:20,1:20 PM,0.7322,0.731,0.732,1000,732.06,4,0.7322,0.731,0.7317,22414,16401.8322,45,0.7322,0.731,0.7322,0.7313,,-0.000546373446250452,jcp,20200206
2020-02-06,13:21,1:21 PM,,,,0,0.0,0,0.7313,0.731,0.7312,5100,3729.12,21,,,0.7312,0.7312,,-0.0012293402540636687,jcp,20200206
2020-02-06,13:22,1:22 PM,,,,0,0.0,0,0.7313,0.73,0.7306,12400,9059.85,49,,,0.7313,0.731,,-0.0020489004234393467,jcp,20200206
2020-02-06,13:23,1:23 PM,,,,0,0.0,0,0.7309,0.7301,0.7307,1500,1096.15,7,,,0.7301,0.7305,,-0.0019123070618767338,jcp,20200206
2020-02-06,13:24,1:24 PM,,,,0,0.0,0,0.7309,0.7304,0.7306,9400,6868.245,20,,,0.7309,0.7309,,-0.0020489004234393467,jcp,20200206
2020-02-06,13:25,1:25 PM,0.7316,0.7316,0.7316,200,146.32,2,0.732,0.7304,0.7311,8716,6372.4127,58,0.7316,0.7316,0.7308,0.7304,,-0.0013659336156262819,jcp,20200206
2020-02-06,13:26,1:26 PM,,,,0,0.0,0,,,,0,0.0,0,,,,,,,jcp,20200206
2020-02-06,13:27,1:27 PM,,,,0,0.0,0,0.7322,0.7321,0.7321,510,373.381,2,,,0.7322,0.7321,,0.0,jcp,20200206
2020-02-06,13:28,1:28 PM,,,,0,0.0,0,0.7322,0.7322,0.7322,200,146.44,2,,,0.7322,0.7322,,0.000136593361562613,jcp,20200206
2020-02-06,13:29,1:29 PM,0.7304,0.7304,0.7304,100,73.04,1,0.7322,0.7304,0.7316,4300,3146.01,20,0.7304,0.7304,0.7322,0.732,,-0.000682966807813065,jcp,20200206
2020-02-06,13:30,1:30 PM,,,,0,0.0,0,0.7322,0.7303,0.7304,4381,3200.2143,17,,,0.7303,0.7303,,-0.002322087146564573,jcp,20200206
2020-02-06,13:31,1:31 PM,,,,0,0.0,0,0.7319,0.7303,0.7308,3100,2265.73,6,,,0.7303,0.7309,,-0.0017757137003141209,jcp,20200206
2020-02-06,13:32,1:32 PM,,,,0,0.0,0,0.7311,0.7303,0.7308,900,657.76,6,,,0.7303,0.7311,,-0.0017757137003141209,jcp,20200206
2020-02-06,13:33,1:33 PM,,,,0,0.0,0,0.7303,0.7303,0.7303,300,219.09,3,,,0.7303,0.7303,,-0.0024586805081273375,jcp,20200206
2020-02-06,13:34,1:34 PM,,,,0,0.0,0,0.7317,0.7303,0.7311,1800,1316.01,10,,,0.7303,0.731,,-0.0013659336156262819,jcp,20200206
2020-02-06,13:35,1:35 PM,,,,0,0.0,0,0.7304,0.7303,0.7303,600,438.21,5,,,0.7303,0.7304,,-0.0024586805081273375,jcp,20200206
2020-02-06,13:36,1:36 PM,0.7305,0.7305,0.7305,200,146.1,2,0.7315,0.7304,0.7308,3800,2777.11,29,0.7305,0.7305,0.7304,0.7304,,-0.0017757137003141209,jcp,20200206
2020-02-06,13:37,1:37 PM,0.7343,0.7305,0.7308,1100,803.93,3,0.7344,0.7305,0.7322,23450,17172.025,93,0.7305,0.7343,0.7305,0.7343,,0.000136593361562613,jcp,20200206
2020-02-06,13:38,1:38 PM,,,,0,0.0,0,0.7354,0.7338,0.7349,33685,24755.1145,165,,,0.7344,0.7351,,0.0038246141237536194,jcp,20200206
2020-02-06,13:39,1:39 PM,,,,0,0.0,0,0.7351,0.7337,0.7345,1301,955.6651,7,,,0.7351,0.7337,,0.0032782406775031673,jcp,20200206
2020-02-06,13:40,1:40 PM,,,,0,0.0,0,0.7351,0.7341,0.7344,1078,791.7198,6,,,0.7344,0.7351,,0.0031416473159405546,jcp,20200206
2020-02-06,13:41,1:41 PM,0.7344,0.7344,0.7344,2100,1542.24,1,0.7344,0.7328,0.7342,4300,3157.19,9,0.7344,0.7344,0.7344,0.7328,,0.0028684605928151765,jcp,20200206
2020-02-06,13:42,1:42 PM,,,,0,0.0,0,0.734,0.7328,0.7332,300,219.96,3,,,0.734,0.7328,,0.0015025269771888948,jcp,20200206
2020-02-06,13:43,1:43 PM,,,,0,0.0,0,0.734,0.7328,0.7335,3700,2714.0,8,,,0.734,0.734,,0.0019123070618768856,jcp,20200206
2020-02-06,13:44,1:44 PM,,,,0,0.0,0,0.7328,0.7328,0.7328,100,73.28,1,,,0.7328,0.7328,,0.0009561535309384428,jcp,20200206
2020-02-06,13:45,1:45 PM,,,,0,0.0,0,0.734,0.7329,0.7331,2900,2126.06,7,,,0.734,0.7329,,0.0013659336156262819,jcp,20200206
2020-02-06,13:46,1:46 PM,0.7328,0.7328,0.7328,100,73.28,1,0.7338,0.7328,0.7333,515,377.667,4,0.7328,0.7328,0.7328,0.7328,,0.001639120338751508,jcp,20200206
2020-02-06,13:47,1:47 PM,0.7328,0.7328,0.7328,200,146.56,2,0.734,0.7318,0.7332,21606,15841.966,60,0.7328,0.7328,0.734,0.7336,,0.0015025269771888948,jcp,20200206
2020-02-06,13:48,1:48 PM,,,,0,0.0,0,0.7319,0.7317,0.7317,5000,3658.98,15,,,0.7318,0.7317,,-0.000546373446250452,jcp,20200206
2020-02-06,13:49,1:49 PM,0.7308,0.7306,0.7307,700,511.54,2,0.7315,0.7304,0.7307,3200,2338.31,21,0.7308,0.7306,0.7315,0.7305,,-0.0019123070618767338,jcp,20200206
2020-02-06,13:50,1:50 PM,,,,0,0.0,0,0.7317,0.7303,0.7306,21568,15759.6048,62,,,0.7305,0.7317,,-0.0020489004234393467,jcp,20200206
2020-02-06,13:51,1:51 PM,,,,0,0.0,0,0.7339,0.7321,0.7328,3700,2711.62,14,,,0.7321,0.7339,,0.0009561535309384428,jcp,20200206
2020-02-06,13:52,1:52 PM,,,,0,0.0,0,0.7337,0.733,0.7334,300,220.04,3,,,0.7337,0.733,,0.0017757137003142724,jcp,20200206
2020-02-06,13:53,1:53 PM,0.7328,0.7328,0.7328,600,439.68,1,0.7331,0.7328,0.7329,11381,8342.1737,25,0.7328,0.7328,0.7331,0.7331,,0.0010927468925010558,jcp,20200206
2020-02-06,13:54,1:54 PM,,,,0,0.0,0,0.7335,0.7329,0.7331,600,439.89,4,,,0.7332,0.7335,,0.0013659336156262819,jcp,20200206
2020-02-06,13:55,1:55 PM,,,,0,0.0,0,0.7332,0.7329,0.7329,10100,7402.32,2,,,0.7329,0.7332,,0.0010927468925010558,jcp,20200206
2020-02-06,13:56,1:56 PM,,,,0,0.0,0,0.7335,0.7329,0.7334,3400,2493.72,3,,,0.7335,0.7335,,0.0017757137003142724,jcp,20200206
2020-02-06,13:57,1:57 PM,,,,0,0.0,0,,,,0,0.0,0,,,,,,,jcp,20200206
2020-02-06,13:58,1:58 PM,,,,0,0.0,0,0.7335,0.7329,0.7331,411,301.3419,3,,,0.7329,0.7335,,0.0013659336156262819,jcp,20200206
2020-02-06,13:59,1:59 PM,,,,0,0.0,0,0.7335,0.7329,0.7329,3100,2272.14,5,,,0.7335,0.7329,,0.0010927468925010558,jcp,20200206
2020-02-06,14:00,2 PM,,,,0,0.0,0,0.7335,0.7329,0.7332,850,623.3,4,,,0.7335,0.7329,,0.0015025269771888948,jcp,20200206
2020-02-06,14:01,2:01 PM,,,,0,0.0,0,0.7331,0.7329,0.7329,1000,732.96,9,,,0.7329,0.7329,,0.0010927468925010558,jcp,20200206
2020-02-06,14:02,2:02 PM,,,,0,0.0,0,0.7332,0.7325,0.7331,2600,1906.12,7,,,0.7332,0.7325,,0.0013659336156262819,jcp,20200206
2020-02-06,14:03,2:03 PM,,,,0,0.0,0,0.7332,0.7324,0.7325,4825,3534.3625,5,,,0.7325,0.7324,,0.0005463734462506037,jcp,20200206
2020-02-06,14:04,2:04 PM,,,,0,0.0,0,0.7324,0.7324,0.7324,500,366.2,4,,,0.7324,0.7324,,0.0004097800846879907,jcp,20200206
2020-02-06,14:05,2:05 PM,0.7323,0.7316,0.7318,3415,2499.394,4,0.7332,0.7301,0.7315,17376,12711.5879,36,0.7323,0.7316,0.7324,0.7301,,-0.0008195601693756781,jcp,20200206
2020-02-06,14:06,2:06 PM,,,,0,0.0,0,0.7301,0.7301,0.7301,200,146.02,2,,,0.7301,0.7301,,-0.0027318672312525638,jcp,20200206
2020-02-06,14:07,2:07 PM,0.7302,0.7302,0.7302,100,73.02,1,0.7323,0.7301,0.731,4650,3399.235,31,0.7302,0.7302,0.7323,0.7312,,-0.0015025269771888948,jcp,20200206
2020-02-06,14:08,2:08 PM,,,,0,0.0,0,0.7321,0.7316,0.7317,300,219.53,3,,,0.7316,0.7321,,-0.000546373446250452,jcp,20200206
2020-02-06,14:09,2:09 PM,,,,0,0.0,0,0.7321,0.7312,0.7312,1000,731.29,7,,,0.7312,0.7321,,-0.0012293402540636687,jcp,20200206
2020-02-06,14:10,2:10 PM,,,,0,0.0,0,0.732,0.7301,0.7314,8400,6144.53,19,,,0.7312,0.7316,,-0.0009561535309382911,jcp,20200206
2020-02-06,14:11,2:11 PM,0.7318,0.7318,0.7318,200,146.36,2,0.7319,0.7312,0.7315,31140,22780.742,54,0.7318,0.7318,0.7318,0.7317,,-0.0008195601693756781,jcp,20200206
2020-02-06,14:12,2:12 PM,,,,0,0.0,0,0.7315,0.7313,0.7313,5300,3875.95,6,,,0.7313,0.7315,,-0.0010927468925010558,jcp,20200206
2020-02-06,14:13,2:13 PM,,,,0,0.0,0,0.7315,0.7314,0.7314,12924,9453.7936,12,,,0.7315,0.7314,,-0.0009561535309382911,jcp,20200206
2020-02-06,14:14,2:14 PM,,,,0,0.0,0,0.7315,0.7314,0.7314,400,292.58,4,,,0.7315,0.7314,,-0.0009561535309382911,jcp,20200206
2020-02-06,14:15,2:15 PM,,,,0,0.0,0,0.7314,0.7314,0.7314,100,73.14,1,,,0.7314,0.7314,,-0.0009561535309382911,jcp,20200206
2020-02-06,14:16,2:16 PM,0.7313,0.7313,0.7313,2300,1681.99,2,0.7314,0.7313,0.7313,18495,13526.583,36,0.7313,0.7313,0.7314,0.7313,,-0.0010927468925010558,jcp,20200206
2020-02-06,14:17,2:17 PM,0.7312,0.7312,0.7312,100,73.12,1,0.7313,0.7311,0.7311,2700,1974.1,12,0.7312,0.7312,0.7313,0.7311,,-0.0013659336156262819,jcp,20200206
2020-02-06,14:18,2:18 PM,0.7311,0.7311,0.7311,100,73.11,1,0.7312,0.7311,0.7311,6417,4692.0109,12,0.7311,0.7311,0.7312,0.7311,,-0.0013659336156262819,jcp,20200206
2020-02-06,14:19,2:19 PM,0.7311,0.7311,0.7311,100,73.11,1,0.7311,0.73,0.7306,35095,25642.6355,55,0.7311,0.7311,0.7311,0.7309,,-0.0020489004234393467,jcp,20200206
2020-02-06,14:20,2:20 PM,0.7305,0.7305,0.7305,500,365.25,1,0.7309,0.7301,0.7307,2900,2119.09,6,0.7305,0.7305,0.7301,0.7305,,-0.0019123070618767338,jcp,20200206
2020-02-06,14:21,2:21 PM,0.7305,0.7305,0.7305,600,438.3,1,0.7309,0.7301,0.7308,6572,4802.9148,19,0.7305,0.7305,0.7301,0.7305,,-0.0017757137003141209,jcp,20200206
2020-02-06,14:22,2:22 PM,,,,0,0.0,0,0.7309,0.7301,0.7307,3700,2703.69,8,,,0.7309,0.7309,,-0.0019123070618767338,jcp,20200206
2020-02-06,14:23,2:23 PM,,,,0,0.0,0,0.7301,0.7301,0.7301,300,219.03,2,,,0.7301,0.7301,,-0.0027318672312525638,jcp,20200206
2020-02-06,14:24,2:24 PM,,,,0,0.0,0,0.7315,0.7305,0.731,19000,13889.02,56,,,0.7305,0.7315,,-0.0015025269771888948,jcp,20200206
2020-02-06,14:25,2:25 PM,,,,0,0.0,0,0.7322,0.7316,0.732,11100,8125.28,23,,,0.7316,0.7322,,-0.000136593361562613,jcp,20200206
2020-02-06,14:26,2:26 PM,,,,0,0.0,0,0.735,0.7322,0.7337,14126,10365.5316,23,,,0.7322,0.7339,,0.0021854937850021116,jcp,20200206
2020-02-06,14:27,2:27 PM,,,,0,0.0,0,0.735,0.735,0.735,1010,742.35,3,,,0.735,0.735,,0.003961207485316232,jcp,20200206
2020-02-06,14:28,2:28 PM,,,,0,0.0,0,,,,0,0.0,0,,,,,,,jcp,20200206
2020-02-06,14:29,2:29 PM,,,,0,0.0,0,0.7349,0.7349,0.7349,200,146.98,2,,,0.7349,0.7349,,0.0038246141237536194,jcp,20200206
2020-02-06,14:30,2:30 PM,,,,0,0.0,0,0.735,0.7349,0.7349,1892,1390.5204,9,,,0.7349,0.7349,,0.0038246141237536194,jcp,20200206
2020-02-06,14:31,2:31 PM,,,,0,0.0,0,,,,0,0.0,0,,,,,,,jcp,20200206
2020-02-06,14:32,2:32 PM,0.7349,0.7339,0.7345,1200,881.5,6,0.735,0.7326,0.7344,30050,22070.465,79,0.7349,0.7339,0.735,0.7327,,0.0031416473159405546,jcp,20200206
2020-02-06,14:33,2:33 PM,,,,0,0.0,0,0.7342,0.7334,0.7336,18595,13641.8025,88,,,0.7334,0.7335,,0.0020489004234394985,jcp,20200206
2020-02-06,14:34,2:34 PM,,,,0,0.0,0,0.734,0.7335,0.7337,805,590.6426,5,,,0.734,0.7335,,0.0021854937850021116,jcp,20200206
2020-02-06,14:35,2:35 PM,,,,0,0.0,0,0.7339,0.7334,0.7335,4695,3444.233,29,,,0.7335,0.7338,,0.0019123070618768856,jcp,20200206
2020-02-06,14:36,2:36 PM,,,,0,0.0,0,0.7338,0.7336,0.7337,1000,733.7,6,,,0.7338,0.7336,,0.0021854937850021116,jcp,20200206
2020-02-06,14:37,2:37 PM,,,,0,0.0,0,0.7337,0.7334,0.7334,5700,4180.92,13,,,0.7336,0.7334,,0.0017757137003142724,jcp,20200206
2020-02-06,14:38,2:38 PM,0.7327,0.7327,0.7327,300,219.81,3,0.7334,0.7327,0.733,4630,3393.973,14,0.7327,0.7327,0.7334,0.7331,,0.0012293402540636687,jcp,20200206
2020-02-06,14:39,2:39 PM,0.7327,0.7327,0.7327,200,146.54,2,0.7332,0.7327,0.733,1900,1392.79,14,0.7327,0.7327,0.7332,0.7331,,0.0012293402540636687,jcp,20200206
2020-02-06,14:40,2:40 PM,0.7332,0.7332,0.7332,200,146.64,2,0.7332,0.7331,0.7331,3800,2786.05,27,0.7332,0.7332,0.7331,0.7332,,0.0013659336156262819,jcp,20200206
2020-02-06,14:41,2:41 PM,0.7333,0.7331,0.7332,500,366.61,4,0.7349,0.7331,0.7339,23000,16881.63,81,0.7331,0.7333,0.7332,0.7349,,0.0024586805081273375,jcp,20200206
2020-02-06,14:42,2:42 PM,,,,0,0.0,0,0.7382,0.735,0.736,5790,4261.5,24,,,0.735,0.7381,,0.005327141100942514,jcp,20200206
2020-02-06,14:43,2:43 PM,,,,0,0.0,0,0.7382,0.7371,0.7378,3590,2648.944,16,,,0.7381,0.7382,,0.007785821609069852,jcp,20200206
2020-02-06,14:44,2:44 PM,,,,0,0.0,0,0.7382,0.7375,0.7377,1100,811.57,3,,,0.738,0.7375,,0.007649228247507239,jcp,20200206
2020-02-06,14:45,2:45 PM,,,,0,0.0,0,0.7381,0.7376,0.738,1300,959.43,3,,,0.7376,0.7381,,0.008059008332195078,jcp,20200206
2020-02-06,14:46,2:46 PM,0.7371,0.7371,0.7371,600,442.26,6,0.738,0.736,0.7372,35295,26019.8145,96,0.7371,0.7371,0.738,0.7379,,0.006966261439694022,jcp,20200206
2020-02-06,14:47,2:47 PM,,,,0,0.0,0,0.7369,0.736,0.7365,900,662.85,5,,,0.736,0.736,,0.006010107908755731,jcp,20200206
2020-02-06,14:48,2:48 PM,,,,0,0.0,0,0.7379,0.736,0.7361,10900,8024.48,6,,,0.7379,0.736,,0.0054637344625051276,jcp,20200206
2020-02-06,14:49,2:49 PM,,,,0,0.0,0,0.7368,0.736,0.7363,3345,2462.96,15,,,0.736,0.7368,,0.005736921185630353,jcp,20200206
2020-02-06,14:50,2:50 PM,0.7359,0.7359,0.7359,200,147.18,1,0.7359,0.7359,0.7359,1000,735.9,5,0.7359,0.7359,0.7359,0.7359,,0.005190547739379901,jcp,20200206
2020-02-06,14:51,2:51 PM,0.7359,0.7359,0.7359,200,147.18,2,0.7359,0.7359,0.7359,2700,1986.93,16,0.7359,0.7359,0.7359,0.7359,,0.005190547739379901,jcp,20200206
2020-02-06,14:52,2:52 PM,0.7359,0.7359,0.7359,100,73.59,1,0.736,0.7359,0.7359,1500,1103.86,15,0.7359,0.7359,0.7359,0.7359,,0.005190547739379901,jcp,20200206
2020-02-06,14:53,2:53 PM,0.7355,0.7355,0.7355,200,147.1,2,0.736,0.7355,0.7355,15700,11548.1,26,0.7355,0.7355,0.7359,0.7355,,0.00464417429312945,jcp,20200206
2020-02-06,14:54,2:54 PM,0.7352,0.7352,0.7352,2800,2058.56,3,0.7355,0.7352,0.7352,4600,3382.15,14,0.7352,0.7352,0.7355,0.7352,,0.004234394208441458,jcp,20200206
2020-02-06,14:55,2:55 PM,,,,0,0.0,0,0.7353,0.7352,0.7352,900,661.72,8,,,0.7353,0.7352,,0.004234394208441458,jcp,20200206
2020-02-06,14:56,2:56 PM,,,,0,0.0,0,0.7353,0.7352,0.7352,800,588.18,7,,,0.7352,0.7352,,0.004234394208441458,jcp,20200206
2020-02-06,14:57,2:57 PM,,,,0,0.0,0,0.7352,0.7352,0.7352,500,367.6,5,,,0.7352,0.7352,,0.004234394208441458,jcp,20200206
2020-02-06,14:58,2:58 PM,0.7352,0.7352,0.7352,300,220.56,3,0.7352,0.7352,0.7352,3200,2352.64,13,0.7352,0.7352,0.7352,0.7352,,0.004234394208441458,jcp,20200206
2020-02-06,14:59,2:59 PM,,,,0,0.0,0,0.7353,0.7352,0.7352,2421,1779.9713,14,,,0.7352,0.7352,,0.004234394208441458,jcp,20200206
2020-02-06,15:00,3 PM,0.7352,0.7352,0.7352,800,588.16,2,0.7352,0.735,0.7351,7401,5440.5352,28,0.7352,0.7352,0.7352,0.735,,0.004097800846878845,jcp,20200206
2020-02-06,15:01,3:01 PM,,,,0,0.0,0,0.7351,0.735,0.735,1500,1102.51,6,,,0.735,0.7351,,0.003961207485316232,jcp,20200206
2020-02-06,15:02,3:02 PM,,,,0,0.0,0,0.7351,0.7338,0.7344,9400,6904.24,18,,,0.735,0.7338,,0.0031416473159405546,jcp,20200206
2020-02-06,15:03,3:03 PM,,,,0,0.0,0,0.7339,0.7337,0.7337,3400,2494.86,15,,,0.7338,0.7337,,0.0021854937850021116,jcp,20200206
2020-02-06,15:04,3:04 PM,0.7337,0.7337,0.7337,100,73.37,1,0.7338,0.7337,0.7337,2000,1467.41,11,0.7337,0.7337,0.7337,0.7337,,0.0021854937850021116,jcp,20200206
2020-02-06,15:05,3:05 PM,,,,0,0.0,0,0.7338,0.7337,0.7337,700,513.61,6,,,0.7337,0.7337,,0.0021854937850021116,jcp,20200206
2020-02-06,15:06,3:06 PM,0.7337,0.7337,0.7337,1000,733.7,2,0.7338,0.7337,0.7337,12445,9131.5015,26,0.7337,0.7337,0.7337,0.7337,,0.0021854937850021116,jcp,20200206
2020-02-06,15:07,3:07 PM,0.7338,0.7338,0.7338,100,73.38,1,0.7338,0.7337,0.7337,800,587.0,8,0.7338,0.7338,0.7337,0.7338,,0.0021854937850021116,jcp,20200206
2020-02-06,15:08,3:08 PM,,,,0,0.0,0,0.7338,0.7337,0.7337,14401,10566.4537,39,,,0.7337,0.7337,,0.0021854937850021116,jcp,20200206
2020-02-06,15:09,3:09 PM,0.7354,0.7352,0.7353,200,147.06,2,0.7385,0.7337,0.7345,40333,29627.7124,126,0.7352,0.7354,0.7337,0.7385,,0.0032782406775031673,jcp,20200206
2020-02-06,15:10,3:10 PM,,,,0,0.0,0,0.7385,0.7385,0.7385,100,73.85,1,,,0.7385,0.7385,,0.008741975140008294,jcp,20200206
2020-02-06,15:11,3:11 PM,0.7384,0.7384,0.7384,4,2.9536,1,0.7385,0.7368,0.738,3400,2509.37,22,0.7384,0.7384,0.7385,0.7385,,0.008059008332195078,jcp,20200206
2020-02-06,15:12,3:12 PM,0.7385,0.7385,0.7385,1100,812.35,11,0.7385,0.7368,0.7384,2800,2067.63,27,0.7385,0.7385,0.7385,0.7385,,0.00860538177844553,jcp,20200206
2020-02-06,15:13,3:13 PM,0.7385,0.7385,0.7385,400,295.4,4,0.7385,0.7368,0.7383,3300,2436.53,17,0.7385,0.7385,0.7385,0.7385,,0.008468788416882917,jcp,20200206
2020-02-06,15:14,3:14 PM,,,,0,0.0,0,0.7385,0.7375,0.7384,2800,2067.7,28,,,0.7385,0.7385,,0.00860538177844553,jcp,20200206
2020-02-06,15:15,3:15 PM,0.7385,0.7385,0.7385,500,369.25,5,0.7385,0.7367,0.7373,7700,5677.45,28,0.7385,0.7385,0.7385,0.7385,,0.007102854801256635,jcp,20200206
2020-02-06,15:16,3:16 PM,0.7385,0.7385,0.7385,500,369.25,5,0.7385,0.7375,0.7384,2700,1993.85,27,0.7385,0.7385,0.7385,0.7385,,0.00860538177844553,jcp,20200206
2020-02-06,15:17,3:17 PM,0.7385,0.7385,0.7385,300,221.55,3,0.739,0.7376,0.7382,13600,10039.857,48,0.7385,0.7385,0.7385,0.7383,,0.008332195055320304,jcp,20200206
2020-02-06,15:18,3:18 PM,,,,0,0.0,0,0.7399,0.739,0.7394,11064,8181.7001,30,,,0.739,0.7399,,0.009971315394071811,jcp,20200206
2020-02-06,15:19,3:19 PM,0.7399,0.7388,0.7395,600,443.72,6,0.7399,0.7388,0.7396,800,591.7,8,0.7388,0.7399,0.7388,0.7399,,0.01024450211719719,jcp,20200206
2020-02-06,15:20,3:20 PM,0.7399,0.7399,0.7399,500,369.95,5,0.7399,0.7399,0.7399,3000,2219.7,30,0.7399,0.7399,0.7399,0.7399,,0.010654282201885029,jcp,20200206
2020-02-06,15:21,3:21 PM,0.7397,0.7388,0.7388,616,455.1152,5,0.7399,0.7377,0.7393,13946,10311.6286,45,0.7388,0.7397,0.7399,0.7377,,0.009834722032509199,jcp,20200206
2020-02-06,15:22,3:22 PM,,,,0,0.0,0,0.7398,0.7398,0.7398,100,73.98,1,,,0.7398,0.7398,,0.010517688840322415,jcp,20200206
2020-02-06,15:23,3:23 PM,0.7387,0.7387,0.7387,300,221.61,2,0.7398,0.7377,0.7382,14808,10931.7096,56,0.7387,0.7387,0.7398,0.7378,,0.008332195055320304,jcp,20200206
2020-02-06,15:24,3:24 PM,0.7377,0.7377,0.7377,2600,1918.02,2,0.7378,0.7352,0.7362,32667,24050.0988,52,0.7377,0.7377,0.7377,0.7352,,0.005600327824067741,jcp,20200206
2020-02-06,15:25,3:25 PM,,,,0,0.0,0,0.7355,0.7351,0.7352,2900,2132.33,6,,,0.7353,0.7353,,0.004234394208441458,jcp,20200206
2020-02-06,15:26,3:26 PM,,,,0,0.0,0,0.7356,0.7353,0.7355,14600,10739.44,34,,,0.7353,0.7356,,0.00464417429312945,jcp,20200206
2020-02-06,15:27,3:27 PM,,,,0,0.0,0,0.7356,0.7353,0.7353,31500,23164.96,82,,,0.7356,0.7353,,0.0043709875700040715,jcp,20200206
2020-02-06,15:28,3:28 PM,0.7353,0.7353,0.7353,1700,1250.01,2,0.7353,0.7353,0.7353,8135,5981.6655,22,0.7353,0.7353,0.7353,0.7353,,0.0043709875700040715,jcp,20200206
2020-02-06,15:29,3:29 PM,0.7352,0.7352,0.7352,100,73.52,1,0.7353,0.7351,0.7351,5300,3896.4,21,0.7352,0.7352,0.7353,0.7351,,0.004097800846878845,jcp,20200206
2020-02-06,15:30,3:30 PM,0.7351,0.7351,0.7351,100,73.51,1,0.7352,0.7351,0.7351,4549,3343.9799,25,0.7351,0.7351,0.7352,0.7351,,0.004097800846878845,jcp,20200206
2020-02-06,15:31,3:31 PM,0.7353,0.7352,0.7352,180,132.344,2,0.7359,0.7351,0.7352,17054,12539.2447,82,0.7352,0.7353,0.7352,0.7359,,0.004234394208441458,jcp,20200206
2020-02-06,15:32,3:32 PM,0.7373,0.7373,0.7373,300,221.19,3,0.7373,0.7364,0.7372,14399,10615.6663,21,0.7373,0.7373,0.7373,0.7364,,0.006966261439694022,jcp,20200206
2020-02-06,15:33,3:33 PM,0.7388,0.7374,0.7376,700,516.34,7,0.7388,0.7364,0.7374,3149,2322.1936,30,0.7374,0.7388,0.7374,0.7388,,0.0072394481628194,jcp,20200206
2020-02-06,15:34,3:34 PM,0.7387,0.7371,0.7385,1609,1188.3439,16,0.7387,0.7369,0.7383,3309,2443.0439,32,0.7387,0.7384,0.7371,0.7369,,0.008468788416882917,jcp,20200206
2020-02-06,15:35,3:35 PM,0.7384,0.7384,0.7384,900,664.56,9,0.7384,0.7355,0.7382,3200,2362.44,32,0.7384,0.7384,0.7384,0.7384,,0.008332195055320304,jcp,20200206
2020-02-06,15:36,3:36 PM,0.7384,0.7384,0.7384,300,221.52,3,0.7384,0.7369,0.7382,3900,2879.19,38,0.7384,0.7384,0.7384,0.7384,,0.008332195055320304,jcp,20200206
2020-02-06,15:37,3:37 PM,0.7387,0.7372,0.7375,380,280.286,3,0.7388,0.7356,0.7382,4333,3198.912,40,0.7372,0.7387,0.7384,0.7387,,0.008332195055320304,jcp,20200206
2020-02-06,15:38,3:38 PM,0.7387,0.7381,0.7381,1900,1402.51,10,0.7387,0.7371,0.7379,17438,12868.0354,46,0.7387,0.7381,0.7387,0.7381,,0.007922414970632464,jcp,20200206
2020-02-06,15:39,3:39 PM,0.7378,0.7375,0.7376,300,221.28,3,0.7382,0.7374,0.7374,17971,13253.4786,59,0.7375,0.7375,0.7375,0.7375,,0.0072394481628194,jcp,20200206
2020-02-06,15:40,3:40 PM,0.7375,0.7371,0.7373,400,294.92,4,0.7377,0.7371,0.7373,5136,3787.0464,27,0.7375,0.7373,0.7375,0.7373,,0.007102854801256635,jcp,20200206
2020-02-06,15:41,3:41 PM,0.7376,0.7372,0.7375,400,295.0,4,0.7376,0.7369,0.7371,7340,5410.9482,19,0.7372,0.7376,0.7374,0.7376,,0.006829668078131409,jcp,20200206
2020-02-06,15:42,3:42 PM,0.7376,0.737,0.7373,293,216.031,3,0.7376,0.7369,0.7374,23640,17432.2995,85,0.7376,0.737,0.737,0.737,,0.0072394481628194,jcp,20200206
2020-02-06,15:43,3:43 PM,0.7368,0.7368,0.7368,100,73.68,1,0.737,0.7367,0.7368,5281,3891.1427,20,0.7368,0.7368,0.737,0.7367,,0.0064198879934435705,jcp,20200206
2020-02-06,15:44,3:44 PM,,,,0,0.0,0,0.7368,0.7367,0.7367,4900,3609.86,24,,,0.7367,0.7367,,0.006283294631880957,jcp,20200206
2020-02-06,15:45,3:45 PM,0.7363,0.7363,0.7363,700,515.41,7,0.7367,0.7359,0.7364,9072,6681.1708,61,0.7363,0.7363,0.7367,0.7363,,0.005873514547193118,jcp,20200206
2020-02-06,15:46,3:46 PM,0.7357,0.7357,0.7357,100,73.57,1,0.7362,0.7356,0.7358,12060,8874.4812,53,0.7357,0.7357,0.7362,0.7359,,0.005053954377817288,jcp,20200206
2020-02-06,15:47,3:47 PM,0.7357,0.7357,0.7357,100,73.57,1,0.7359,0.7349,0.7353,18333,13481.0414,55,0.7357,0.7357,0.7359,0.7349,,0.0043709875700040715,jcp,20200206
2020-02-06,15:48,3:48 PM,,,,0,0.0,0,0.7349,0.7347,0.7348,6472,4755.6954,28,,,0.7348,0.7347,,0.0036880207621910062,jcp,20200206
2020-02-06,15:49,3:49 PM,,,,0,0.0,0,0.7347,0.7343,0.7345,19684,14459.3226,40,,,0.7347,0.7343,,0.0032782406775031673,jcp,20200206
2020-02-06,15:50,3:50 PM,,,,0,0.0,0,0.7344,0.7343,0.7343,31398,23058.1213,97,,,0.7343,0.7344,,0.0030050539543777896,jcp,20200206
2020-02-06,15:51,3:51 PM,,,,0,0.0,0,0.7344,0.7343,0.7343,10375,7619.33,71,,,0.7344,0.7344,,0.0030050539543777896,jcp,20200206
2020-02-06,15:52,3:52 PM,0.7342,0.734,0.734,800,587.24,2,0.7344,0.7298,0.7326,70614,51732.0554,140,0.7342,0.734,0.7344,0.73,,0.0006829668078132167,jcp,20200206
2020-02-06,15:53,3:53 PM,0.7297,0.7297,0.7297,100,72.97,1,0.73,0.7297,0.7298,26749,19521.8051,80,0.7297,0.7297,0.7297,0.7299,,-0.0031416473159404028,jcp,20200206
2020-02-06,15:54,3:54 PM,,,,0,0.0,0,0.7299,0.7297,0.7298,12900,9414.46,94,,,0.7299,0.7298,,-0.0031416473159404028,jcp,20200206
2020-02-06,15:55,3:55 PM,0.733,0.7298,0.7313,1100,804.49,11,0.7332,0.7298,0.7308,58363,42654.6037,277,0.7298,0.7329,0.7298,0.7332,,-0.0017757137003141209,jcp,20200206
2020-02-06,15:56,3:56 PM,0.7341,0.7335,0.734,5631,4133.4371,55,0.7342,0.7329,0.7336,23931,17558.1371,194,0.7335,0.7337,0.7332,0.7341,,0.0020489004234394985,jcp,20200206
2020-02-06,15:57,3:57 PM,0.7342,0.7331,0.7335,6178,4531.882,38,0.7344,0.7321,0.7337,58083,42616.2185,257,0.7342,0.7339,0.7341,0.7342,,0.0021854937850021116,jcp,20200206
2020-02-06,15:58,3:58 PM,0.7346,0.7337,0.7339,1300,954.16,10,0.7346,0.7332,0.7341,23290,17097.738,163,0.7343,0.7346,0.7332,0.7346,,0.0027318672312525638,jcp,20200206
2020-02-06,15:59,3:59 PM,0.7392,0.7337,0.7362,2902,2136.6002,20,0.7392,0.7333,0.7349,43489,31962.9389,159,0.7348,0.7337,0.7346,0.734,,0.0038246141237536194,jcp,20200206
