date,minute,label,high,low,average,volume,notional,numberOfTrades,marketHigh,marketLow,marketAverage,marketVolume,marketNotional,marketNumberOfTrades,open,close,marketOpen,marketClose,changeOverTime,marketChangeOverTime,tickerName,tickerDate
2020-02-13,09:30,09:30 AM,,,,0,0.0,0,0.7459,0.74,0.7404,30321,22451.2673,9,,,0.74,0.7402,,0.0,jcp,20200213
2020-02-13,09:31,09:31 AM,,,,0,0.0,0,,,,0,0.0,0,,,,,,,jcp,20200213
2020-02-13,09:32,09:32 AM,,,,0,0.0,0,0.7403,0.7402,0.7402,4349,3219.4298,2,,,0.7403,0.7402,,-0.00027012425715826306,jcp,20200213
2020-02-13,09:33,09:33 AM,,,,0,0.0,0,0.7412,0.731,0.7353,11687,8594.5639,31,,,0.7412,0.731,,-0.006888168557536458,jcp,20200213
2020-02-13,09:34,09:34 AM,,,,0,0.0,0,0.7349,0.731,0.7313,4096,2995.4354,12,,,0.731,0.7312,,-0.01229065370070232,jcp,20200213
2020-02-13,09:35,09:35 AM,,,,0,0.0,0,0.7324,0.7312,0.7319,3500,2561.7,21,,,0.7312,0.7323,,-0.011480280929227381,jcp,20200213
2020-02-13,09:36,09:36 AM,0.7324,0.7324,0.7324,6,4.3944,1,0.7323,0.7323,0.7323,100,73.23,1,0.7324,0.7324,0.7323,0.7323,,-0.010940032414910855,jcp,20200213
2020-02-13,09:37,09:37 AM,0.733,0.7324,0.7329,3794,2780.6256,8,0.7387,0.7323,0.7347,29725,21841.3494,39,0.7324,0.733,0.7323,0.7387,,-0.007698541329011248,jcp,20200213
2020-02-13,09:38,09:38 AM,,,,0,0.0,0,0.7379,0.7379,0.7379,8200,6050.78,1,,,0.7379,0.7379,,-0.0033765532144785886,jcp,20200213
2020-02-13,09:39,09:39 AM,0.7362,0.7361,0.7361,2600,1914.07,4,0.7362,0.7329,0.736,110480,81323.171,16,0.7362,0.7361,0.7329,0.7361,,-0.0059427336574823875,jcp,20200213
2020-02-13,09:40,09:40 AM,,,,0,0.0,0,,,,0,0.0,0,,,,,,,jcp,20200213
2020-02-13,09:41,09:41 AM,,,,0,0.0,0,0.734,0.7329,0.7333,3580,2625.55,4,,,0.734,0.7329,,-0.00958941112911939,jcp,20200213
2020-02-13,09:42,09:42 AM,,,,0,0.0,0,0.7328,0.7326,0.7326,8001,5862.3128,30,,,0.7328,0.7327,,-0.01053484602917331,jcp,20200213
2020-02-13,09:43,09:43 AM,0.7328,0.7328,0.7328,500,366.4,3,0.7328,0.7326,0.7327,3000,2198.1,20,0.7328,0.7328,0.7327,0.7327,,-0.010399783900594178,jcp,20200213
2020-02-13,09:44,09:44 AM,,,,0,0.0,0,0.7327,0.7326,0.7326,2497,1829.5419,9,,,0.7326,0.7327,,-0.01053484602917331,jcp,20200213
2020-02-13,09:45,09:45 AM,,,,0,0.0,0,0.7342,0.732,0.7331,500,366.57,4,,,0.7336,0.7323,,-0.009859535386277651,jcp,20200213
2020-02-13,09:46,09:46 AM,0.7356,0.7345,0.7348,1700,1249.2,4,0.7366,0.7324,0.7351,21932,16122.7872,30,0.7345,0.7356,0.7344,0.7366,,-0.0071582928146947215,jcp,20200213
2020-02-13,09:47,09:47 AM,,,,0,0.0,0,0.7358,0.7325,0.7325,15100,11061.08,2,,,0.7358,0.7325,,-0.010669908157752442,jcp,20200213
2020-02-13,09:48,09:48 AM,0.7345,0.7345,0.7345,100,73.45,1,0.7351,0.7322,0.7323,10600,7763.0,4,0.7345,0.7345,0.7351,0.7322,,-0.010940032414910855,jcp,20200213
2020-02-13,09:49,09:49 AM,,,,0,0.0,0,0.7341,0.7322,0.7323,7400,5419.56,8,,,0.7322,0.734,,-0.010940032414910855,jcp,20200213
2020-02-13,09:50,09:50 AM,,,,0,0.0,0,0.7331,0.7325,0.7328,4300,3151.3,19,,,0.7331,0.7326,,-0.010264721772015047,jcp,20200213
2020-02-13,09:51,09:51 AM,0.732,0.732,0.732,100,73.2,1,0.7322,0.7313,0.7316,4288,3137.4032,20,0.732,0.732,0.7322,0.7313,,-0.011885467314964775,jcp,20200213
2020-02-13,09:52,09:52 AM,0.7313,0.7313,0.7313,400,292.52,1,0.7313,0.73,0.7303,33614,24550.542,58,0.7313,0.7313,0.7313,0.7303,,-0.013641274986493786,jcp,20200213
2020-02-13,09:53,09:53 AM,,,,0,0.0,0,,,,0,0.0,0,,,,,,,jcp,20200213
2020-02-13,09:54,09:54 AM,,,,0,0.0,0,0.7302,0.7302,0.7302,300,219.06,3,,,0.7302,0.7302,,-0.013776337115072916,jcp,20200213
2020-02-13,09:55,09:55 AM,,,,0,0.0,0,0.7303,0.7302,0.7302,3400,2483.0,8,,,0.7302,0.7303,,-0.013776337115072916,jcp,20200213
2020-02-13,09:56,09:56 AM,,,,0,0.0,0,0.7303,0.7302,0.7302,1100,803.3,5,,,0.7303,0.7303,,-0.013776337115072916,jcp,20200213
2020-02-13,09:57,09:57 AM,0.7303,0.7303,0.7303,5500,4016.65,2,0.7303,0.7302,0.7302,14250,10406.475,16,0.7303,0.7303,0.7303,0.7303,,-0.013776337115072916,jcp,20200213
2020-02-13,09:58,09:58 AM,,,,0,0.0,0,0.7303,0.7302,0.7302,7331,5353.5893,5,,,0.7303,0.7302,,-0.013776337115072916,jcp,20200213
2020-02-13,09:59,09:59 AM,,,,0,0.0,0,0.7303,0.7302,0.7302,5600,4089.61,7,,,0.7303,0.7302,,-0.013776337115072916,jcp,20200213
2020-02-13,10:00,10 AM,,,,0,0.0,0,0.7303,0.7302,0.7302,3000,2190.84,5,,,0.7303,0.7302,,-0.013776337115072916,jcp,20200213
2020-02-13,10:01,10:01 AM,,,,0,0.0,0,0.7303,0.7303,0.7303,400,292.12,2,,,0.7303,0.7303,,-0.013641274986493786,jcp,20200213
2020-02-13,10:02,10:02 AM,,,,0,0.0,0,0.7303,0.7303,0.7303,400,292.12,4,,,0.7303,0.7303,,-0.013641274986493786,jcp,20200213
2020-02-13,10:03,10:03 AM,,,,0,0.0,0,0.7303,0.7302,0.7302,4000,2920.84,7,,,0.7303,0.7302,,-0.013776337115072916,jcp,20200213
2020-02-13,10:04,10:04 AM,,,,0,0.0,0,0.7303,0.7302,0.7302,2130,1555.419,14,,,0.7303,0.7303,,-0.013776337115072916,jcp,20200213
2020-02-13,10:05,10:05 AM,0.7303,0.7291,0.7296,400,291.84,3,0.7303,0.722,0.7292,213237,155511.9458,132,0.7303,0.7291,0.7303,0.722,,-0.015126958400864383,jcp,20200213
2020-02-13,10:06,10:06 AM,0.7211,0.7211,0.7211,100,72.11,1,0.722,0.7211,0.7212,31299,22573.2589,50,0.7211,0.7211,0.722,0.7211,,-0.025931928687196105,jcp,20200213
2020-02-13,10:07,10:07 AM,0.7211,0.7211,0.7211,100,72.11,1,0.7212,0.721,0.721,8728,6293.7208,32,0.7211,0.7211,0.7211,0.721,,-0.02620205294435437,jcp,20200213
2020-02-13,10:08,10:08 AM,,,,0,0.0,0,0.7203,0.72,0.7202,31039,22354.7917,19,,,0.7203,0.72,,-0.027282549972987572,jcp,20200213
2020-02-13,10:09,10:09 AM,0.7201,0.7201,0.7201,100,72.01,1,0.7201,0.72,0.72,32848,23653.0948,34,0.7201,0.7201,0.72,0.7201,,-0.027552674230145832,jcp,20200213
2020-02-13,10:10,10:10 AM,,,,0,0.0,0,0.7201,0.72,0.72,1200,864.09,9,,,0.72,0.72,,-0.027552674230145832,jcp,20200213
2020-02-13,10:11,10:11 AM,,,,0,0.0,0,0.7201,0.7201,0.7201,3000,2160.3,1,,,0.7201,0.7201,,-0.0274176121015667,jcp,20200213
2020-02-13,10:12,10:12 AM,0.7201,0.7201,0.7201,1900,1368.19,5,0.7201,0.72,0.72,12294,8851.915,16,0.7201,0.7201,0.7201,0.72,,-0.027552674230145832,jcp,20200213
2020-02-13,10:13,10:13 AM,0.7201,0.7201,0.7201,100,72.01,1,0.7201,0.72,0.72,4350,3132.08,3,0.7201,0.7201,0.72,0.7201,,-0.027552674230145832,jcp,20200213
2020-02-13,10:14,10:14 AM,0.7201,0.7201,0.7201,590,424.859,4,0.7201,0.72,0.72,8273,5956.659,10,0.7201,0.7201,0.72,0.7201,,-0.027552674230145832,jcp,20200213
2020-02-13,10:15,10:15 AM,0.7201,0.7201,0.7201,10800,7777.08,7,0.7201,0.72,0.72,20132,14496.36,22,0.7201,0.7201,0.72,0.7201,,-0.027552674230145832,jcp,20200213
2020-02-13,10:16,10:16 AM,0.7201,0.72,0.72,287,206.65,3,0.7201,0.72,0.72,12513,9009.88,18,0.7201,0.72,0.7201,0.7201,,-0.027552674230145832,jcp,20200213
2020-02-13,10:17,10:17 AM,0.72,0.72,0.72,100,72.0,1,0.7201,0.72,0.72,1300,936.01,4,0.72,0.72,0.72,0.7201,,-0.027552674230145832,jcp,20200213
2020-02-13,10:18,10:18 AM,0.72,0.72,0.72,300,216.0,2,0.72,0.72,0.72,5095,3668.4,10,0.72,0.72,0.72,0.72,,-0.027552674230145832,jcp,20200213
2020-02-13,10:19,10:19 AM,,,,0,0.0,0,0.7201,0.72,0.72,14509,10447.8609,23,,,0.72,0.72,,-0.027552674230145832,jcp,20200213
2020-02-13,10:20,10:20 AM,,,,0,0.0,0,0.7201,0.72,0.72,2900,2088.01,3,,,0.7201,0.72,,-0.027552674230145832,jcp,20200213
2020-02-13,10:21,10:21 AM,0.7201,0.7201,0.7201,1000,720.1,5,0.7201,0.72,0.72,3700,2664.12,13,0.7201,0.7201,0.7201,0.72,,-0.027552674230145832,jcp,20200213
2020-02-13,10:22,10:22 AM,0.7201,0.7201,0.7201,100,72.01,1,0.7201,0.72,0.72,2850,2052.01,4,0.7201,0.7201,0.72,0.7201,,-0.027552674230145832,jcp,20200213
2020-02-13,10:23,10:23 AM,0.7201,0.7201,0.7201,100,72.01,1,0.7201,0.72,0.72,1041,749.53,3,0.7201,0.7201,0.72,0.7201,,-0.027552674230145832,jcp,20200213
2020-02-13,10:24,10:24 AM,0.7201,0.7201,0.7201,100,72.01,1,0.7201,0.72,0.72,9400,6768.02,4,0.7201,0.7201,0.72,0.7201,,-0.027552674230145832,jcp,20200213
2020-02-13,10:25,10:25 AM,0.7201,0.72,0.72,200,144.01,2,0.7201,0.72,0.72,500,360.01,4,0.7201,0.72,0.72,0.72,,-0.027552674230145832,jcp,20200213
2020-02-13,10:26,10:26 AM,,,,0,0.0,0,0.7201,0.72,0.72,1300,936.12,2,,,0.72,0.7201,,-0.027552674230145832,jcp,20200213
2020-02-13,10:27,10:27 AM,0.7201,0.72,0.72,400,288.01,4,0.7201,0.72,0.72,4300,3096.33,13,0.7201,0.72,0.72,0.72,,-0.027552674230145832,jcp,20200213
2020-02-13,10:28,10:28 AM,,,,0,0.0,0,0.72,0.72,0.72,978,704.16,8,,,0.72,0.72,,-0.027552674230145832,jcp,20200213
2020-02-13,10:29,10:29 AM,0.7201,0.72,0.72,1600,1152.15,3,0.7201,0.72,0.72,4000,2880.32,13,0.72,0.7201,0.72,0.72,,-0.027552674230145832,jcp,20200213
2020-02-13,10:30,10:30 AM,0.72,0.72,0.72,100,72.0,1,0.72,0.72,0.72,11700,8424.0,12,0.72,0.72,0.72,0.72,,-0.027552674230145832,jcp,20200213
2020-02-13,10:31,10:31 AM,,,,0,0.0,0,0.72,0.72,0.72,600,432.0,6,,,0.72,0.72,,-0.027552674230145832,jcp,20200213
2020-02-13,10:32,10:32 AM,0.72,0.72,0.72,200,144.0,2,0.7201,0.72,0.72,2650,1908.095,17,0.72,0.72,0.72,0.72,,-0.027552674230145832,jcp,20200213
2020-02-13,10:33,10:33 AM,0.72,0.72,0.72,200,144.0,2,0.7201,0.72,0.72,32308,23261.79,36,0.72,0.72,0.72,0.72,,-0.027552674230145832,jcp,20200213
2020-02-13,10:34,10:34 AM,0.7182,0.7182,0.7182,100,71.82,1,0.72,0.715,0.7187,26039,18715.47,45,0.7182,0.7182,0.72,0.716,,-0.029308481901674694,jcp,20200213
2020-02-13,10:35,10:35 AM,,,,0,0.0,0,0.7164,0.7155,0.7159,52984,37935.0979,110,,,0.716,0.7162,,-0.033090221501890824,jcp,20200213
2020-02-13,10:36,10:36 AM,0.7171,0.7171,0.7171,100,71.71,1,0.7194,0.7164,0.7172,23445,16815.9544,56,0.7171,0.7171,0.7164,0.7188,,-0.031334413830361965,jcp,20200213
2020-02-13,10:37,10:37 AM,0.7193,0.7193,0.7193,700,503.51,2,0.7193,0.7191,0.7192,2000,1438.58,11,0.7193,0.7193,0.7193,0.7193,,-0.028633171258779035,jcp,20200213
2020-02-13,10:38,10:38 AM,,,,0,0.0,0,0.7193,0.7192,0.7192,300,215.78,3,,,0.7193,0.7193,,-0.028633171258779035,jcp,20200213
2020-02-13,10:39,10:39 AM,0.719,0.719,0.719,1178,846.982,3,0.7193,0.7189,0.719,1945,1398.4983,9,0.719,0.719,0.7193,0.7189,,-0.0289032955159373,jcp,20200213
2020-02-13,10:40,10:40 AM,0.719,0.719,0.719,150,107.85,1,0.719,0.7189,0.7189,6950,4996.47,19,0.719,0.719,0.7189,0.719,,-0.02903835764451643,jcp,20200213
2020-02-13,10:41,10:41 AM,,,,0,0.0,0,0.719,0.7189,0.7189,400,287.58,4,,,0.719,0.7189,,-0.02903835764451643,jcp,20200213
2020-02-13,10:42,10:42 AM,,,,0,0.0,0,0.719,0.7189,0.7189,15296,10996.3544,16,,,0.719,0.719,,-0.02903835764451643,jcp,20200213
2020-02-13,10:43,10:43 AM,0.7189,0.7176,0.7187,5400,3881.25,17,0.719,0.7168,0.7185,77090,55396.865,121,0.7189,0.7176,0.719,0.7168,,-0.029578606158832958,jcp,20200213
2020-02-13,10:44,10:44 AM,0.7167,0.7167,0.7167,100,71.67,1,0.7175,0.7167,0.7169,4813,3450.4797,23,0.7167,0.7167,0.7175,0.7168,,-0.03173960021609936,jcp,20200213
2020-02-13,10:45,10:45 AM,,,,0,0.0,0,0.7167,0.7165,0.7166,4000,2866.46,9,,,0.7167,0.7166,,-0.032144786601836756,jcp,20200213
2020-02-13,10:46,10:46 AM,,,,0,0.0,0,0.7165,0.7165,0.7165,200,143.3,1,,,0.7165,0.7165,,-0.03227984873041589,jcp,20200213
2020-02-13,10:47,10:47 AM,0.7165,0.7165,0.7165,100,71.65,1,0.7166,0.7164,0.7165,27626,19795.448,20,0.7165,0.7165,0.7166,0.7164,,-0.03227984873041589,jcp,20200213
2020-02-13,10:48,10:48 AM,0.7165,0.7162,0.7164,5401,3869.7365,8,0.7165,0.7161,0.7164,113475,81294.3775,77,0.7165,0.7162,0.7164,0.7161,,-0.03241491085899502,jcp,20200213
2020-02-13,10:49,10:49 AM,,,,0,0.0,0,0.7162,0.715,0.7154,26249,18780.899,28,,,0.7162,0.715,,-0.03376553214478648,jcp,20200213
2020-02-13,10:50,10:50 AM,0.7151,0.7151,0.7151,490,350.399,3,0.7151,0.715,0.715,32065,22929.2102,39,0.7151,0.7151,0.7151,0.7151,,-0.03430578065910316,jcp,20200213
2020-02-13,10:51,10:51 AM,0.7155,0.7151,0.7151,24100,17234.07,12,0.7158,0.715,0.7152,72230,51659.6708,92,0.7151,0.7155,0.7151,0.7158,,-0.0340356564019449,jcp,20200213
2020-02-13,10:52,10:52 AM,0.717,0.7159,0.7168,1000,716.81,4,0.717,0.7157,0.7161,25629,18353.0445,75,0.7159,0.717,0.7158,0.717,,-0.03282009724473256,jcp,20200213
2020-02-13,10:53,10:53 AM,0.7181,0.7171,0.7176,200,143.52,2,0.7181,0.717,0.7177,7866,5645.8714,42,0.7171,0.7181,0.7171,0.7179,,-0.030659103187466157,jcp,20200213
2020-02-13,10:54,10:54 AM,,,,0,0.0,0,0.7181,0.718,0.718,700,502.66,6,,,0.718,0.7181,,-0.030253916801728765,jcp,20200213
2020-02-13,10:55,10:55 AM,0.718,0.7178,0.7179,200,143.58,2,0.7181,0.7177,0.7179,46600,33454.95,55,0.718,0.7178,0.7181,0.7179,,-0.030388978930307897,jcp,20200213
2020-02-13,10:56,10:56 AM,,,,0,0.0,0,,,,0,0.0,0,,,,,,,jcp,20200213
2020-02-13,10:57,10:57 AM,,,,0,0.0,0,0.718,0.7178,0.7178,15100,10840.17,14,,,0.7178,0.718,,-0.03052404105888703,jcp,20200213
2020-02-13,10:58,10:58 AM,,,,0,0.0,0,0.718,0.718,0.718,100,71.8,1,,,0.718,0.718,,-0.030253916801728765,jcp,20200213
2020-02-13,10:59,10:59 AM,,,,0,0.0,0,0.718,0.7179,0.7179,2880,2067.79,8,,,0.718,0.7179,,-0.030388978930307897,jcp,20200213
2020-02-13,11:00,11 AM,0.718,0.718,0.718,5800,4164.4,5,0.7181,0.718,0.718,18000,12924.03,23,0.718,0.718,0.718,0.7181,,-0.030253916801728765,jcp,20200213
2020-02-13,11:01,11:01 AM,0.7183,0.7181,0.7181,2489,1787.4787,5,0.7185,0.718,0.7182,33755,24242.9574,58,0.7181,0.7183,0.718,0.7185,,-0.029983792544570502,jcp,20200213
2020-02-13,11:02,11:02 AM,0.7196,0.7185,0.7194,1000,719.49,4,0.7198,0.7184,0.7192,19400,13953.08,54,0.7185,0.7196,0.7185,0.7197,,-0.028633171258779035,jcp,20200213
2020-02-13,11:03,11:03 AM,0.7198,0.7197,0.7197,700,503.8,3,0.7198,0.7196,0.7196,7668,5518.6196,21,0.7197,0.7198,0.7196,0.7197,,-0.02809292274446236,jcp,20200213
2020-02-13,11:04,11:04 AM,,,,0,0.0,0,0.7197,0.7197,0.7197,1180,849.246,2,,,0.7197,0.7197,,-0.027957860615883227,jcp,20200213
2020-02-13,11:05,11:05 AM,0.7198,0.7198,0.7198,229,164.8342,4,0.7198,0.7197,0.7197,4300,3095.12,3,0.7198,0.7198,0.7197,0.7198,,-0.027957860615883227,jcp,20200213
2020-02-13,11:06,11:06 AM,0.7199,0.7198,0.7198,1057,760.8986,6,0.7199,0.7198,0.7198,7354,5293.4992,22,0.7198,0.7199,0.7198,0.7199,,-0.027822798487304096,jcp,20200213
2020-02-13,11:07,11:07 AM,0.72,0.72,0.72,2028,1460.16,9,0.7292,0.7199,0.7219,22216,16039.7512,57,0.72,0.72,0.7199,0.7281,,-0.024986493787142034,jcp,20200213
2020-02-13,11:08,11:08 AM,,,,0,0.0,0,0.7291,0.7252,0.7268,68957,50123.1147,61,,,0.7252,0.7253,,-0.01836844948676384,jcp,20200213
2020-02-13,11:09,11:09 AM,,,,0,0.0,0,0.7271,0.7253,0.726,23900,17351.43,13,,,0.7253,0.7261,,-0.019448946515397043,jcp,20200213
2020-02-13,11:10,11:10 AM,,,,0,0.0,0,0.7268,0.7261,0.7261,5352,3886.4687,6,,,0.7268,0.7262,,-0.01931388438681791,jcp,20200213
2020-02-13,11:11,11:11 AM,,,,0,0.0,0,0.7265,0.7262,0.7264,2300,1670.92,4,,,0.7265,0.7265,,-0.018908698001080367,jcp,20200213
2020-02-13,11:12,11:12 AM,0.7264,0.7262,0.7263,2100,1525.37,4,0.7264,0.7244,0.7259,18685,13565.02,57,0.7264,0.7262,0.7263,0.7255,,-0.019584008643976174,jcp,20200213
2020-02-13,11:13,11:13 AM,,,,0,0.0,0,0.7249,0.7235,0.7241,2200,1593.06,10,,,0.7243,0.7235,,-0.02201512695840084,jcp,20200213
2020-02-13,11:14,11:14 AM,0.7229,0.7229,0.7229,100,72.29,1,0.7237,0.7226,0.7233,4300,3110.39,17,0.7229,0.7229,0.7237,0.7229,,-0.02309562398703389,jcp,20200213
2020-02-13,11:15,11:15 AM,,,,0,0.0,0,0.7231,0.7205,0.7207,1836,1323.3812,3,,,0.7231,0.7217,,-0.026607239330091764,jcp,20200213
2020-02-13,11:16,11:16 AM,0.7209,0.7209,0.7209,100,72.09,1,0.7217,0.7204,0.7209,750,540.695,6,0.7209,0.7209,0.7205,0.7209,,-0.0263371150729335,jcp,20200213
2020-02-13,11:17,11:17 AM,0.7206,0.7206,0.7206,200,144.12,2,0.7208,0.7203,0.7205,7200,5187.8,29,0.7206,0.7206,0.7204,0.7205,,-0.026877363587250024,jcp,20200213
2020-02-13,11:18,11:18 AM,0.7221,0.7211,0.7215,6400,4618.1,13,0.7228,0.7205,0.7213,40021,28870.6155,121,0.7211,0.7221,0.7206,0.7228,,-0.025796866558616825,jcp,20200213
2020-02-13,11:19,11:19 AM,0.7232,0.7231,0.7231,800,578.5,4,0.7234,0.7231,0.7231,2600,1880.25,11,0.7231,0.7232,0.7231,0.7233,,-0.023365748244192307,jcp,20200213
2020-02-13,11:20,11:20 AM,,,,0,0.0,0,0.7255,0.7255,0.7255,100,72.55,1,,,0.7255,0.7255,,-0.020124257158292698,jcp,20200213
2020-02-13,11:21,11:21 AM,0.7258,0.7255,0.7256,200,145.13,2,0.7261,0.7253,0.7256,3500,2539.6,12,0.7258,0.7255,0.7261,0.7253,,-0.019989195029713566,jcp,20200213
2020-02-13,11:22,11:22 AM,0.7256,0.7256,0.7256,200,145.12,2,0.7259,0.7255,0.7256,1000,725.65,8,0.7256,0.7256,0.7256,0.7256,,-0.019989195029713566,jcp,20200213
2020-02-13,11:23,11:23 AM,,,,0,0.0,0,0.7255,0.7255,0.7255,100,72.55,1,,,0.7255,0.7255,,-0.020124257158292698,jcp,20200213
2020-02-13,11:24,11:24 AM,0.7252,0.7252,0.7252,500,362.6,1,0.7256,0.725,0.7251,33100,24001.03,29,0.7252,0.7252,0.7256,0.7251,,-0.020664505672609374,jcp,20200213
2020-02-13,11:25,11:25 AM,0.725,0.725,0.725,100,72.5,1,0.7251,0.7249,0.725,5800,4205.12,20,0.725,0.725,0.7251,0.7249,,-0.020799567801188506,jcp,20200213
2020-02-13,11:26,11:26 AM,,,,0,0.0,0,0.7246,0.7246,0.7246,500,362.3,1,,,0.7246,0.7246,,-0.021339816315505033,jcp,20200213
2020-02-13,11:27,11:27 AM,,,,0,0.0,0,0.7247,0.7244,0.7245,4058,2940.1518,14,,,0.7247,0.7244,,-0.021474878444084165,jcp,20200213
2020-02-13,11:28,11:28 AM,,,,0,0.0,0,0.7244,0.724,0.7242,3600,2607.13,14,,,0.7244,0.724,,-0.02188006482982171,jcp,20200213
2020-02-13,11:29,11:29 AM,,,,0,0.0,0,0.7239,0.7235,0.7237,1316,952.3976,5,,,0.7239,0.7235,,-0.022555375472717368,jcp,20200213
2020-02-13,11:30,11:30 AM,0.7235,0.7235,0.7235,100,72.35,1,0.7236,0.7233,0.7234,3800,2749.25,16,0.7235,0.7235,0.7235,0.7233,,-0.022960561858454763,jcp,20200213
2020-02-13,11:31,11:31 AM,,,,0,0.0,0,0.7234,0.7233,0.7233,11005,7960.647,55,,,0.7234,0.7234,,-0.02309562398703389,jcp,20200213
2020-02-13,11:32,11:32 AM,,,,0,0.0,0,0.7234,0.7234,0.7234,902,652.5068,4,,,0.7234,0.7234,,-0.022960561858454763,jcp,20200213
2020-02-13,11:33,11:33 AM,0.7231,0.723,0.723,1000,723.09,5,0.7234,0.723,0.7231,7389,5343.6248,28,0.723,0.7231,0.7234,0.723,,-0.023365748244192307,jcp,20200213
2020-02-13,11:34,11:34 AM,,,,0,0.0,0,0.7229,0.7229,0.7229,100,72.29,1,,,0.7229,0.7229,,-0.023635872501350567,jcp,20200213
2020-02-13,11:35,11:35 AM,,,,0,0.0,0,0.7228,0.7228,0.7228,500,361.4,1,,,0.7228,0.7228,,-0.0237709346299297,jcp,20200213
2020-02-13,11:36,11:36 AM,,,,0,0.0,0,0.7228,0.7221,0.7225,3665,2648.2167,12,,,0.7228,0.7221,,-0.024176121015667094,jcp,20200213
2020-02-13,11:37,11:37 AM,,,,0,0.0,0,0.722,0.722,0.722,300,216.6,3,,,0.722,0.722,,-0.024851431658562902,jcp,20200213
2020-02-13,11:38,11:38 AM,0.7219,0.7214,0.7216,410,295.879,4,0.722,0.7212,0.7217,15470,11165.2465,26,0.7219,0.7214,0.7219,0.7214,,-0.025256618044300298,jcp,20200213
2020-02-13,11:39,11:39 AM,0.7209,0.7209,0.7209,700,504.63,2,0.721,0.7204,0.7207,2310,1664.984,9,0.7209,0.7209,0.7209,0.7204,,-0.026607239330091764,jcp,20200213
2020-02-13,11:40,11:40 AM,,,,0,0.0,0,0.7204,0.7201,0.7202,2900,2088.86,8,,,0.7204,0.7201,,-0.027282549972987572,jcp,20200213
2020-02-13,11:41,11:41 AM,,,,0,0.0,0,0.7202,0.7201,0.7201,400,288.05,2,,,0.7202,0.7201,,-0.0274176121015667,jcp,20200213
2020-02-13,11:42,11:42 AM,0.7192,0.7186,0.7188,1100,790.76,4,0.72,0.7186,0.7195,5027,3617.2,16,0.7192,0.7186,0.72,0.7186,,-0.02822798487304149,jcp,20200213
2020-02-13,11:43,11:43 AM,0.7184,0.7184,0.7184,1100,790.24,2,0.7191,0.7181,0.7185,17901,12863.2058,40,0.7184,0.7184,0.719,0.7182,,-0.029578606158832958,jcp,20200213
2020-02-13,11:44,11:44 AM,,,,0,0.0,0,0.7183,0.7181,0.7181,16361,11749.4241,22,,,0.7183,0.7181,,-0.030118854673149634,jcp,20200213
2020-02-13,11:45,11:45 AM,0.7186,0.7182,0.7182,17589,12633.9176,19,0.7188,0.718,0.7183,61700,44320.5578,103,0.7182,0.7186,0.718,0.7188,,-0.02984873041599122,jcp,20200213
2020-02-13,11:46,11:46 AM,0.7191,0.7188,0.7189,600,431.34,3,0.7191,0.7187,0.7189,7655,5503.3105,18,0.7188,0.7191,0.7188,0.719,,-0.02903835764451643,jcp,20200213
2020-02-13,11:47,11:47 AM,0.7201,0.7191,0.7193,900,647.39,6,0.7217,0.719,0.7199,20921,15062.9211,85,0.7191,0.7201,0.719,0.7217,,-0.027687736358724964,jcp,20200213
2020-02-13,11:48,11:48 AM,0.722,0.7218,0.7218,700,505.3,4,0.7243,0.7217,0.7223,5600,4045.42,21,0.7218,0.722,0.7218,0.7243,,-0.024446245272825358,jcp,20200213
2020-02-13,11:49,11:49 AM,0.7243,0.7243,0.7243,200,144.86,1,0.7251,0.7241,0.7247,45300,32831.55,49,0.7243,0.7243,0.7243,0.7242,,-0.0212047541869259,jcp,20200213
2020-02-13,11:50,11:50 AM,0.7223,0.7223,0.7223,2200,1589.06,3,0.7246,0.7219,0.7238,40298,29171.2217,76,0.7223,0.7223,0.7246,0.7219,,-0.022420313344138236,jcp,20200213
2020-02-13,11:51,11:51 AM,,,,0,0.0,0,0.7233,0.7218,0.722,5500,3971.38,7,,,0.7233,0.7223,,-0.024851431658562902,jcp,20200213
2020-02-13,11:52,11:52 AM,,,,0,0.0,0,0.7228,0.7218,0.7227,4177,3019.0356,9,,,0.7218,0.7228,,-0.02390599675850883,jcp,20200213
2020-02-13,11:53,11:53 AM,,,,0,0.0,0,0.7228,0.722,0.7225,2900,2095.27,20,,,0.7228,0.7223,,-0.024176121015667094,jcp,20200213
2020-02-13,11:54,11:54 AM,,,,0,0.0,0,0.7223,0.7218,0.7221,13700,9893.86,11,,,0.7218,0.7218,,-0.02471636952998377,jcp,20200213
2020-02-13,11:55,11:55 AM,0.7219,0.7218,0.7218,2000,1443.79,6,0.7223,0.7212,0.7218,9363,6758.6895,34,0.7218,0.7219,0.7219,0.7212,,-0.025121555915721166,jcp,20200213
2020-02-13,11:56,11:56 AM,0.721,0.7208,0.7208,1290,929.892,6,0.7213,0.7208,0.7209,3912,2820.2124,20,0.721,0.7208,0.7212,0.7209,,-0.0263371150729335,jcp,20200213
2020-02-13,11:57,11:57 AM,0.7207,0.7207,0.7207,200,144.14,1,0.7208,0.7206,0.7206,7725,5566.835,9,0.7207,0.7207,0.7208,0.7207,,-0.026742301458670896,jcp,20200213
2020-02-13,11:58,11:58 AM,,,,0,0.0,0,0.7207,0.7206,0.7206,988,711.9728,2,,,0.7206,0.7207,,-0.026742301458670896,jcp,20200213
2020-02-13,11:59,11:59 AM,,,,0,0.0,0,0.7207,0.7205,0.7206,4692,3381.1452,13,,,0.7206,0.7206,,-0.026742301458670896,jcp,20200213
2020-02-13,12:00,12 PM,0.7213,0.7207,0.7208,7400,5333.97,8,0.7228,0.7207,0.721,70108,50547.9188,135,0.7207,0.7213,0.7207,0.722,,-0.02620205294435437,jcp,20200213
2020-02-13,12:01,12:01 PM,0.7226,0.7226,0.7226,100,72.26,1,0.7228,0.7225,0.7226,3700,2673.63,13,0.7226,0.7226,0.7226,0.7227,,-0.024041058887087963,jcp,20200213
2020-02-13,12:02,12:02 PM,,,,0,0.0,0,0.7228,0.7226,0.7227,2200,1589.94,3,,,0.7228,0.7226,,-0.02390599675850883,jcp,20200213
2020-02-13,12:03,12:03 PM,,,,0,0.0,0,0.7227,0.7226,0.7226,2500,1806.61,13,,,0.7227,0.7226,,-0.024041058887087963,jcp,20200213
2020-02-13,12:04,12:04 PM,0.7226,0.7226,0.7226,4200,3034.92,7,0.7227,0.7226,0.7226,47000,33964.54,74,0.7226,0.7226,0.7227,0.7226,,-0.024041058887087963,jcp,20200213
2020-02-13,12:05,12:05 PM,0.7233,0.7228,0.7229,3504,2533.1324,4,0.7233,0.7227,0.7228,32803,23711.3056,48,0.7228,0.7233,0.7227,0.7233,,-0.0237709346299297,jcp,20200213
2020-02-13,12:06,12:06 PM,0.7234,0.7234,0.7234,700,506.38,4,0.7238,0.7233,0.7234,13284,9609.9972,51,0.7234,0.7234,0.7233,0.7237,,-0.022960561858454763,jcp,20200213
2020-02-13,12:07,12:07 PM,0.7251,0.725,0.725,700,507.56,2,0.7255,0.7238,0.7247,11867,8600.5985,42,0.725,0.7251,0.7239,0.7255,,-0.0212047541869259,jcp,20200213
2020-02-13,12:08,12:08 PM,,,,0,0.0,0,0.7275,0.726,0.7268,22885,16634.3916,31,,,0.726,0.7271,,-0.01836844948676384,jcp,20200213
2020-02-13,12:09,12:09 PM,0.7274,0.7274,0.7274,700,509.18,2,0.729,0.7271,0.7278,38590,28087.55,39,0.7274,0.7274,0.7271,0.7289,,-0.017017828200972373,jcp,20200213
2020-02-13,12:10,12:10 PM,0.7293,0.7293,0.7293,100,72.93,1,0.7294,0.7286,0.7287,48008,34986.9538,133,0.7293,0.7293,0.7294,0.7286,,-0.01580226904376004,jcp,20200213
2020-02-13,12:11,12:11 PM,0.7276,0.7276,0.7276,1800,1309.68,2,0.7287,0.7234,0.7273,38200,27784.9692,59,0.7276,0.7276,0.7287,0.7266,,-0.01769313884386818,jcp,20200213
2020-02-13,12:12,12:12 PM,,,,0,0.0,0,0.726,0.7215,0.7227,2400,1734.49,12,,,0.7215,0.7221,,-0.02390599675850883,jcp,20200213
2020-02-13,12:13,12:13 PM,,,,0,0.0,0,0.7247,0.7242,0.7242,4113,2978.8846,17,,,0.7247,0.7242,,-0.02188006482982171,jcp,20200213
2020-02-13,12:14,12:14 PM,0.7242,0.7242,0.7242,100,72.42,1,0.7242,0.7224,0.7233,3100,2242.5,12,0.7242,0.7242,0.7242,0.7224,,-0.02309562398703389,jcp,20200213
2020-02-13,12:15,12:15 PM,0.7224,0.7224,0.7224,100,72.24,1,0.7235,0.7224,0.7225,7000,5057.81,14,0.7224,0.7224,0.7235,0.7224,,-0.024176121015667094,jcp,20200213
2020-02-13,12:16,12:16 PM,0.7234,0.7234,0.7234,2100,1519.14,1,0.7236,0.7224,0.7227,31097,22474.4325,42,0.7234,0.7234,0.7224,0.7236,,-0.02390599675850883,jcp,20200213
2020-02-13,12:17,12:17 PM,0.7236,0.7236,0.7236,1900,1374.84,2,0.7236,0.7236,0.7236,3400,2460.24,7,0.7236,0.7236,0.7236,0.7236,,-0.0226904376012965,jcp,20200213
2020-02-13,12:18,12:18 PM,0.7237,0.7237,0.7237,700,506.59,1,0.7238,0.7232,0.7235,4154,3005.8152,15,0.7237,0.7237,0.7232,0.7238,,-0.02282549972987563,jcp,20200213
2020-02-13,12:19,12:19 PM,,,,0,0.0,0,0.7238,0.7238,0.7238,100,72.38,1,,,0.7238,0.7238,,-0.022420313344138236,jcp,20200213
2020-02-13,12:20,12:20 PM,0.7242,0.7242,0.7242,1600,1158.72,3,0.7243,0.7235,0.724,4864,3521.684,16,0.7242,0.7242,0.7238,0.7243,,-0.022150189086979973,jcp,20200213
2020-02-13,12:21,12:21 PM,0.7244,0.7244,0.7244,100,72.44,1,0.7246,0.7241,0.7242,5100,3693.46,32,0.7244,0.7244,0.7243,0.7244,,-0.02188006482982171,jcp,20200213
2020-02-13,12:22,12:22 PM,0.7244,0.7244,0.7244,900,651.96,1,0.7245,0.7244,0.7244,1000,724.41,2,0.7244,0.7244,0.7244,0.7245,,-0.021609940572663296,jcp,20200213
2020-02-13,12:23,12:23 PM,0.7248,0.7245,0.7246,200,144.93,2,0.7251,0.7245,0.7245,3960,2869.23,18,0.7245,0.7248,0.7245,0.7245,,-0.021474878444084165,jcp,20200213
2020-02-13,12:24,12:24 PM,,,,0,0.0,0,0.7267,0.7246,0.7261,1070,777.012,8,,,0.7267,0.7263,,-0.01931388438681791,jcp,20200213
2020-02-13,12:25,12:25 PM,0.7252,0.7244,0.7246,600,434.76,3,0.7252,0.7244,0.7245,20100,14563.02,29,0.7252,0.7246,0.7252,0.7248,,-0.021474878444084165,jcp,20200213
2020-02-13,12:26,12:26 PM,0.7255,0.7251,0.7251,3100,2248.1,6,0.7258,0.7248,0.7251,16512,11973.6902,51,0.7251,0.7255,0.7248,0.7258,,-0.020664505672609374,jcp,20200213
2020-02-13,12:27,12:27 PM,0.7267,0.7267,0.7267,100,72.67,1,0.7268,0.7257,0.7263,5000,3631.7352,26,0.7267,0.7267,0.7258,0.7268,,-0.019043760129659647,jcp,20200213
2020-02-13,12:28,12:28 PM,,,,0,0.0,0,0.7274,0.7267,0.7272,1704,1239.2746,9,,,0.7268,0.7274,,-0.017828200972447313,jcp,20200213
2020-02-13,12:29,12:29 PM,0.7272,0.7272,0.7272,400,290.88,2,0.7274,0.7267,0.7271,2400,1745.23,13,0.7272,0.7272,0.7274,0.7272,,-0.017963263101026444,jcp,20200213
2020-02-13,12:30,12:30 PM,0.7273,0.7273,0.7273,300,218.19,1,0.7273,0.7273,0.7273,1400,1018.22,8,0.7273,0.7273,0.7273,0.7273,,-0.01769313884386818,jcp,20200213
2020-02-13,12:31,12:31 PM,,,,0,0.0,0,0.7274,0.7273,0.7273,550,400.025,5,,,0.7273,0.7273,,-0.01769313884386818,jcp,20200213
2020-02-13,12:32,12:32 PM,0.7272,0.7272,0.7272,100,72.72,1,0.7274,0.7271,0.7272,16700,12144.58,26,0.7272,0.7272,0.7272,0.7274,,-0.017828200972447313,jcp,20200213
2020-02-13,12:33,12:33 PM,,,,0,0.0,0,0.7277,0.7273,0.7273,10800,7855.27,14,,,0.7273,0.7277,,-0.01769313884386818,jcp,20200213
2020-02-13,12:34,12:34 PM,,,,0,0.0,0,0.7282,0.7282,0.7282,1670,1216.094,4,,,0.7282,0.7282,,-0.016477579686655846,jcp,20200213
2020-02-13,12:35,12:35 PM,,,,0,0.0,0,0.7285,0.7282,0.7282,1100,801.09,9,,,0.7282,0.7285,,-0.016477579686655846,jcp,20200213
2020-02-13,12:36,12:36 PM,,,,0,0.0,0,0.7285,0.7285,0.7285,300,218.55,3,,,0.7285,0.7285,,-0.0160723933009183,jcp,20200213
2020-02-13,12:37,12:37 PM,,,,0,0.0,0,0.7286,0.7272,0.7273,2514,1828.5808,12,,,0.7272,0.7272,,-0.01769313884386818,jcp,20200213
2020-02-13,12:38,12:38 PM,,,,0,0.0,0,0.7284,0.7284,0.7284,1900,1383.96,5,,,0.7284,0.7284,,-0.016207455429497433,jcp,20200213
2020-02-13,12:39,12:39 PM,,,,0,0.0,0,0.7285,0.7281,0.7284,1800,1311.22,6,,,0.7281,0.7285,,-0.016207455429497433,jcp,20200213
2020-02-13,12:40,12:40 PM,0.7285,0.7285,0.7285,100,72.85,1,0.7285,0.7285,0.7285,400,291.4,4,0.7285,0.7285,0.7285,0.7285,,-0.0160723933009183,jcp,20200213
2020-02-13,12:41,12:41 PM,0.7286,0.7286,0.7286,400,291.44,2,0.7287,0.7285,0.7285,14314,10428.3518,23,0.7286,0.7286,0.7285,0.7286,,-0.0160723933009183,jcp,20200213
2020-02-13,12:42,12:42 PM,,,,0,0.0,0,0.7286,0.7286,0.7286,2500,1821.5,4,,,0.7286,0.7286,,-0.01593733117233917,jcp,20200213
2020-02-13,12:43,12:43 PM,0.7282,0.7282,0.7282,300,218.46,2,0.7285,0.7273,0.728,5731,4172.6262,23,0.7282,0.7282,0.7285,0.7276,,-0.01674770394381411,jcp,20200213
2020-02-13,12:44,12:44 PM,0.7274,0.7262,0.7273,3100,2254.67,10,0.7274,0.7255,0.7269,16560,12037.712,46,0.7274,0.7262,0.7274,0.7255,,-0.018233387358184708,jcp,20200213
2020-02-13,12:45,12:45 PM,0.7255,0.7255,0.7255,100,72.55,1,0.7261,0.7255,0.7258,400,290.32,4,0.7255,0.7255,0.7255,0.7261,,-0.019719070772555303,jcp,20200213
2020-02-13,12:46,12:46 PM,0.7258,0.7255,0.7256,200,145.13,2,0.7261,0.7255,0.7258,300,217.74,3,0.7258,0.7255,0.7261,0.7255,,-0.019719070772555303,jcp,20200213
2020-02-13,12:47,12:47 PM,,,,0,0.0,0,0.7261,0.7255,0.7257,300,217.71,3,,,0.7255,0.7255,,-0.019854132901134434,jcp,20200213
2020-02-13,12:48,12:48 PM,0.7258,0.7255,0.7255,1300,943.18,5,0.7261,0.7255,0.7258,5206,3778.5166,13,0.7258,0.7255,0.7258,0.7255,,-0.019719070772555303,jcp,20200213
2020-02-13,12:49,12:49 PM,,,,0,0.0,0,0.7258,0.7255,0.7255,2718,1971.939,2,,,0.7255,0.7258,,-0.020124257158292698,jcp,20200213
2020-02-13,12:50,12:50 PM,,,,0,0.0,0,0.726,0.7255,0.7259,9100,6606.1,3,,,0.726,0.7259,,-0.019584008643976174,jcp,20200213
2020-02-13,12:51,12:51 PM,,,,0,0.0,0,0.7261,0.7255,0.7258,5600,4064.72,8,,,0.7259,0.7258,,-0.019719070772555303,jcp,20200213
2020-02-13,12:52,12:52 PM,0.7255,0.7255,0.7255,350,253.925,3,0.7256,0.7255,0.7255,850,616.685,6,0.7255,0.7255,0.7255,0.7255,,-0.020124257158292698,jcp,20200213
2020-02-13,12:53,12:53 PM,0.7254,0.7254,0.7254,100,72.54,1,0.7256,0.7254,0.7255,2050,1487.345,11,0.7254,0.7254,0.7255,0.7255,,-0.020124257158292698,jcp,20200213
2020-02-13,12:54,12:54 PM,,,,0,0.0,0,0.7254,0.7254,0.7254,100,72.54,1,,,0.7254,0.7254,,-0.02025931928687183,jcp,20200213
2020-02-13,12:55,12:55 PM,,,,0,0.0,0,0.7255,0.7254,0.7254,200,145.09,2,,,0.7254,0.7255,,-0.02025931928687183,jcp,20200213
2020-02-13,12:56,12:56 PM,0.7249,0.7249,0.7249,100,72.49,1,0.7254,0.7246,0.7249,3984,2888.1564,18,0.7249,0.7249,0.7254,0.7246,,-0.020934629929767638,jcp,20200213
2020-02-13,12:57,12:57 PM,0.7245,0.7242,0.7243,200,144.87,2,0.7247,0.7242,0.7244,2900,2100.92,11,0.7245,0.7242,0.7247,0.7243,,-0.021609940572663296,jcp,20200213
2020-02-13,12:58,12:58 PM,0.7242,0.7242,0.7242,100,72.42,1,0.7244,0.724,0.7242,3600,2607.3298,9,0.7242,0.7242,0.7242,0.724,,-0.02188006482982171,jcp,20200213
2020-02-13,12:59,12:59 PM,0.7242,0.7242,0.7242,100,72.42,1,0.7244,0.7242,0.7243,200,144.86,2,0.7242,0.7242,0.7244,0.7242,,-0.021745002701242428,jcp,20200213
2020-02-13,13:00,1 PM,,,,0,0.0,0,0.7244,0.7244,0.7244,200,144.88,2,,,0.7244,0.7244,,-0.021609940572663296,jcp,20200213
2020-02-13,13:01,1:01 PM,0.7242,0.7234,0.7241,900,651.7,3,0.7242,0.723,0.7239,6225,4506.605,14,0.7242,0.7234,0.7242,0.7234,,-0.022285251215559104,jcp,20200213
2020-02-13,13:02,1:02 PM,0.7231,0.7218,0.7224,400,288.98,4,0.7232,0.7218,0.7227,1859,1343.6711,13,0.7231,0.7218,0.7229,0.7218,,-0.02390599675850883,jcp,20200213
2020-02-13,13:03,1:03 PM,0.721,0.721,0.721,100,72.1,1,0.7222,0.721,0.7215,10010,7222.5485,12,0.721,0.721,0.7211,0.721,,-0.02552674230145856,jcp,20200213
2020-02-13,13:04,1:04 PM,0.7215,0.7215,0.7215,300,216.45,1,0.7215,0.721,0.721,1719,1239.549,2,0.7215,0.7215,0.721,0.7215,,-0.02620205294435437,jcp,20200213
2020-02-13,13:05,1:05 PM,,,,0,0.0,0,0.7219,0.721,0.7214,200,144.29,2,,,0.721,0.7219,,-0.025661804430037693,jcp,20200213
2020-02-13,13:06,1:06 PM,,,,0,0.0,0,0.7219,0.721,0.7211,4250,3064.8,5,,,0.7218,0.721,,-0.026066990815775237,jcp,20200213
2020-02-13,13:07,1:07 PM,0.7214,0.7214,0.7214,300,216.42,1,0.7218,0.721,0.7213,2000,1442.68,5,0.7214,0.7214,0.721,0.7214,,-0.025796866558616825,jcp,20200213
2020-02-13,13:08,1:08 PM,0.7214,0.7214,0.7214,200,144.28,2,0.7218,0.721,0.7215,5400,3896.32,12,0.7214,0.7214,0.7218,0.7212,,-0.02552674230145856,jcp,20200213
2020-02-13,13:09,1:09 PM,,,,0,0.0,0,0.7212,0.7211,0.7211,473,341.0976,2,,,0.7212,0.7211,,-0.026066990815775237,jcp,20200213
2020-02-13,13:10,1:10 PM,0.721,0.721,0.721,100,72.1,1,0.721,0.721,0.721,200,144.2,2,0.721,0.721,0.721,0.721,,-0.02620205294435437,jcp,20200213
2020-02-13,13:11,1:11 PM,,,,0,0.0,0,0.7211,0.721,0.721,11200,8076.3,5,,,0.7211,0.7211,,-0.02620205294435437,jcp,20200213
2020-02-13,13:12,1:12 PM,0.7221,0.722,0.722,2500,1805.14,3,0.7222,0.721,0.7213,42182,30429.6511,131,0.722,0.7221,0.721,0.722,,-0.025796866558616825,jcp,20200213
2020-02-13,13:13,1:13 PM,,,,0,0.0,0,0.7222,0.7222,0.7222,100,72.22,1,,,0.7222,0.7222,,-0.02458130740140464,jcp,20200213
2020-02-13,13:14,1:14 PM,0.7222,0.7222,0.7222,325,234.715,3,0.7222,0.722,0.7221,3325,2401.025,11,0.7222,0.7222,0.7222,0.722,,-0.02471636952998377,jcp,20200213
2020-02-13,13:15,1:15 PM,,,,0,0.0,0,0.7219,0.7219,0.7219,1600,1155.04,3,,,0.7219,0.7219,,-0.024986493787142034,jcp,20200213
2020-02-13,13:16,1:16 PM,0.722,0.722,0.722,600,433.2,1,0.722,0.722,0.722,1500,1083.0,4,0.722,0.722,0.722,0.722,,-0.024851431658562902,jcp,20200213
2020-02-13,13:17,1:17 PM,,,,0,0.0,0,,,,0,0.0,0,,,,,,,jcp,20200213
2020-02-13,13:18,1:18 PM,0.7215,0.7205,0.721,3500,2523.75,5,0.7219,0.72,0.7207,44537,32098.7395,47,0.7215,0.7205,0.7219,0.7205,,-0.026607239330091764,jcp,20200213
2020-02-13,13:19,1:19 PM,,,,0,0.0,0,0.7208,0.7204,0.7206,300,216.2,3,,,0.7208,0.7208,,-0.026742301458670896,jcp,20200213
2020-02-13,13:20,1:20 PM,0.7204,0.7204,0.7204,1500,1080.6,1,0.7204,0.7204,0.7204,1500,1080.6,1,0.7204,0.7204,0.7204,0.7204,,-0.027012425715829156,jcp,20200213
2020-02-13,13:21,1:21 PM,,,,0,0.0,0,0.7209,0.7201,0.7206,1255,904.3655,5,,,0.7208,0.7209,,-0.026742301458670896,jcp,20200213
2020-02-13,13:22,1:22 PM,0.7205,0.7205,0.7205,100,72.05,1,0.7205,0.7201,0.7202,650,468.145,6,0.7205,0.7205,0.7205,0.7201,,-0.027282549972987572,jcp,20200213
2020-02-13,13:23,1:23 PM,,,,0,0.0,0,0.7209,0.7201,0.7201,1100,792.19,2,,,0.7209,0.7201,,-0.0274176121015667,jcp,20200213
2020-02-13,13:24,1:24 PM,0.7204,0.7204,0.7204,100,72.04,1,0.7207,0.7201,0.7204,400,288.16,4,0.7204,0.7204,0.7204,0.7204,,-0.027012425715829156,jcp,20200213
2020-02-13,13:25,1:25 PM,,,,0,0.0,0,0.7205,0.7202,0.7202,2750,1980.685,8,,,0.7202,0.7205,,-0.027282549972987572,jcp,20200213
2020-02-13,13:26,1:26 PM,0.7203,0.7203,0.7203,200,144.06,2,0.7205,0.7202,0.7204,1406,1012.953,7,0.7203,0.7203,0.7205,0.7202,,-0.027012425715829156,jcp,20200213
2020-02-13,13:27,1:27 PM,0.7203,0.7203,0.7203,200,144.06,1,0.7203,0.7203,0.7203,200,144.06,1,0.7203,0.7203,0.7203,0.7203,,-0.027147487844408288,jcp,20200213
2020-02-13,13:28,1:28 PM,0.7204,0.7203,0.7203,2800,2017.04,5,0.7204,0.7202,0.7203,6352,4575.5104,12,0.7204,0.7203,0.7203,0.7202,,-0.027147487844408288,jcp,20200213
2020-02-13,13:29,1:29 PM,0.7213,0.7203,0.7204,6000,4322.52,9,0.7214,0.7202,0.7204,38409,27672.5712,70,0.7203,0.7213,0.7202,0.7212,,-0.027012425715829156,jcp,20200213
2020-02-13,13:30,1:30 PM,0.727,0.7213,0.722,14660,10584.722,10,0.7285,0.7212,0.7246,82405,59712.9625,102,0.7213,0.727,0.7213,0.7284,,-0.021339816315505033,jcp,20200213
2020-02-13,13:31,1:31 PM,,,,0,0.0,0,0.7283,0.7264,0.7267,3244,2357.6408,6,,,0.7282,0.7268,,-0.01850351161534297,jcp,20200213
2020-02-13,13:32,1:32 PM,,,,0,0.0,0,0.7277,0.7261,0.727,40700,29590.4609,52,,,0.7272,0.7266,,-0.018098325229605576,jcp,20200213
2020-02-13,13:33,1:33 PM,0.7254,0.7254,0.7254,1300,943.02,3,0.7271,0.7232,0.7259,23394,16983.3992,40,0.7254,0.7254,0.7263,0.7233,,-0.019584008643976174,jcp,20200213
2020-02-13,13:34,1:34 PM,,,,0,0.0,0,0.7263,0.7259,0.7261,2000,1452.27,20,,,0.7263,0.7259,,-0.01931388438681791,jcp,20200213
2020-02-13,13:35,1:35 PM,0.7259,0.7259,0.7259,800,580.72,2,0.7259,0.7243,0.7256,3512,2548.4008,12,0.7259,0.7259,0.7259,0.7259,,-0.019989195029713566,jcp,20200213
2020-02-13,13:36,1:36 PM,0.7259,0.7259,0.7259,800,580.72,1,0.7259,0.7259,0.7259,1600,1161.44,5,0.7259,0.7259,0.7259,0.7259,,-0.019584008643976174,jcp,20200213
2020-02-13,13:37,1:37 PM,,,,0,0.0,0,0.726,0.725,0.7257,1600,1161.14,8,,,0.7256,0.726,,-0.019854132901134434,jcp,20200213
2020-02-13,13:38,1:38 PM,0.7255,0.7255,0.7255,300,217.65,2,0.726,0.725,0.7254,2600,1886.24,11,0.7255,0.7255,0.725,0.7255,,-0.02025931928687183,jcp,20200213
2020-02-13,13:39,1:39 PM,0.7255,0.7255,0.7255,100,72.55,1,0.726,0.725,0.7254,12110,8784.81,18,0.7255,0.7255,0.726,0.726,,-0.02025931928687183,jcp,20200213
2020-02-13,13:40,1:40 PM,0.7258,0.7258,0.7258,100,72.58,1,0.726,0.7258,0.7259,900,653.38,3,0.7258,0.7258,0.726,0.7258,,-0.019584008643976174,jcp,20200213
2020-02-13,13:41,1:41 PM,,,,0,0.0,0,0.7262,0.7257,0.726,800,580.86,5,,,0.7257,0.7262,,-0.019448946515397043,jcp,20200213
2020-02-13,13:42,1:42 PM,,,,0,0.0,0,0.7262,0.7262,0.7262,100,72.62,1,,,0.7262,0.7262,,-0.01917882225823878,jcp,20200213
2020-02-13,13:43,1:43 PM,,,,0,0.0,0,0.7262,0.7262,0.7262,2811,2041.3482,10,,,0.7262,0.7262,,-0.01917882225823878,jcp,20200213
2020-02-13,13:44,1:44 PM,,,,0,0.0,0,0.7262,0.7262,0.7262,100,72.62,1,,,0.7262,0.7262,,-0.01917882225823878,jcp,20200213
2020-02-13,13:45,1:45 PM,,,,0,0.0,0,0.7262,0.7262,0.7262,200,145.24,2,,,0.7262,0.7262,,-0.01917882225823878,jcp,20200213
2020-02-13,13:46,1:46 PM,,,,0,0.0,0,0.7262,0.7261,0.7261,463,336.2143,2,,,0.7261,0.7262,,-0.01931388438681791,jcp,20200213
2020-02-13,13:47,1:47 PM,,,,0,0.0,0,0.7262,0.7253,0.7256,1015,736.5315,5,,,0.7262,0.7253,,-0.019989195029713566,jcp,20200213
2020-02-13,13:48,1:48 PM,0.7263,0.7258,0.7261,300,217.84,2,0.7263,0.7253,0.7259,1583,1149.1199,9,0.7258,0.7263,0.7262,0.7263,,-0.019584008643976174,jcp,20200213
2020-02-13,13:49,1:49 PM,0.7263,0.7263,0.7263,100,72.63,1,0.7263,0.7262,0.7262,300,217.88,3,0.7263,0.7263,0.7263,0.7262,,-0.01917882225823878,jcp,20200213
2020-02-13,13:50,1:50 PM,0.7263,0.7263,0.7263,100,72.63,1,0.7263,0.7262,0.7262,500,363.14,5,0.7263,0.7263,0.7262,0.7263,,-0.01917882225823878,jcp,20200213
2020-02-13,13:51,1:51 PM,,,,0,0.0,0,0.7263,0.7261,0.7262,1850,1343.495,9,,,0.7263,0.7262,,-0.01917882225823878,jcp,20200213
2020-02-13,13:52,1:52 PM,0.7262,0.7262,0.7262,200,145.24,2,0.7263,0.7262,0.7262,1208,877.3361,7,0.7262,0.7262,0.7262,0.7263,,-0.01917882225823878,jcp,20200213
2020-02-13,13:53,1:53 PM,,,,0,0.0,0,,,,0,0.0,0,,,,,,,jcp,20200213
2020-02-13,13:54,1:54 PM,0.7261,0.7253,0.7256,3300,2394.69,5,0.7263,0.7252,0.7257,25826,18743.5846,58,0.7261,0.7253,0.7263,0.7252,,-0.019854132901134434,jcp,20200213
2020-02-13,13:55,1:55 PM,0.7252,0.7252,0.7252,1900,1377.88,7,0.7253,0.7238,0.7249,37590,27252.3395,111,0.7252,0.7252,0.7253,0.7239,,-0.020934629929767638,jcp,20200213
2020-02-13,13:56,1:56 PM,,,,0,0.0,0,0.7239,0.7238,0.7238,3300,2388.57,30,,,0.7238,0.7239,,-0.022420313344138236,jcp,20200213
2020-02-13,13:57,1:57 PM,,,,0,0.0,0,0.7239,0.7238,0.7238,300,217.15,2,,,0.7239,0.7238,,-0.022420313344138236,jcp,20200213
2020-02-13,13:58,1:58 PM,,,,0,0.0,0,0.7239,0.7236,0.7238,5300,3836.43,13,,,0.7239,0.7236,,-0.022420313344138236,jcp,20200213
2020-02-13,13:59,1:59 PM,,,,0,0.0,0,0.7234,0.7231,0.7232,800,578.62,6,,,0.7234,0.7232,,-0.023230686115613176,jcp,20200213
2020-02-13,14:00,2 PM,0.7231,0.7231,0.7231,300,216.93,1,0.7232,0.7227,0.7231,4700,3398.79,10,0.7231,0.7231,0.7232,0.7227,,-0.023365748244192307,jcp,20200213
2020-02-13,14:01,2:01 PM,0.7223,0.7222,0.7222,300,216.68,3,0.7224,0.7222,0.7223,400,288.92,4,0.7223,0.7222,0.7224,0.7222,,-0.024446245272825358,jcp,20200213
2020-02-13,14:02,2:02 PM,,,,0,0.0,0,0.7224,0.7224,0.7224,1000,722.4,1,,,0.7224,0.7224,,-0.024311183144246226,jcp,20200213
2020-02-13,14:03,2:03 PM,0.722,0.722,0.722,100,72.2,1,0.7223,0.722,0.7222,1700,1227.86,5,0.722,0.722,0.7223,0.7223,,-0.02458130740140464,jcp,20200213
2020-02-13,14:04,2:04 PM,,,,0,0.0,0,0.7223,0.7222,0.7222,2500,1805.74,6,,,0.7223,0.7223,,-0.02458130740140464,jcp,20200213
2020-02-13,14:05,2:05 PM,,,,0,0.0,0,0.7224,0.7223,0.7223,29365,21210.7895,42,,,0.7223,0.7224,,-0.024446245272825358,jcp,20200213
2020-02-13,14:06,2:06 PM,,,,0,0.0,0,0.7224,0.7223,0.7223,5313,3837.5999,10,,,0.7223,0.7224,,-0.024446245272825358,jcp,20200213
2020-02-13,14:07,2:07 PM,0.7226,0.7226,0.7226,1800,1300.68,4,0.7226,0.7224,0.7225,9100,6574.98,38,0.7226,0.7226,0.7224,0.7226,,-0.024176121015667094,jcp,20200213
2020-02-13,14:08,2:08 PM,,,,0,0.0,0,0.7226,0.7226,0.7226,400,289.04,2,,,0.7226,0.7226,,-0.024041058887087963,jcp,20200213
2020-02-13,14:09,2:09 PM,,,,0,0.0,0,0.7226,0.7225,0.7225,4717,3408.1025,9,,,0.7225,0.7226,,-0.024176121015667094,jcp,20200213
2020-02-13,14:10,2:10 PM,0.7226,0.7226,0.7226,333,240.6258,3,0.7226,0.7225,0.7225,866,625.7283,8,0.7226,0.7226,0.7226,0.7225,,-0.024176121015667094,jcp,20200213
2020-02-13,14:11,2:11 PM,,,,0,0.0,0,0.7226,0.7226,0.7226,300,216.78,3,,,0.7226,0.7226,,-0.024041058887087963,jcp,20200213
2020-02-13,14:12,2:12 PM,,,,0,0.0,0,0.7226,0.7226,0.7226,100,72.26,1,,,0.7226,0.7226,,-0.024041058887087963,jcp,20200213
2020-02-13,14:13,2:13 PM,,,,0,0.0,0,0.7226,0.7226,0.7226,200,144.52,2,,,0.7226,0.7226,,-0.024041058887087963,jcp,20200213
2020-02-13,14:14,2:14 PM,,,,0,0.0,0,0.7226,0.7225,0.7225,2402,1735.6752,15,,,0.7226,0.7226,,-0.024176121015667094,jcp,20200213
2020-02-13,14:15,2:15 PM,,,,0,0.0,0,0.7226,0.7226,0.7226,100,72.26,1,,,0.7226,0.7226,,-0.024041058887087963,jcp,20200213
2020-02-13,14:16,2:16 PM,0.723,0.723,0.723,2300,1662.9,7,0.723,0.7226,0.7228,10356,7486.2668,42,0.723,0.723,0.7226,0.7229,,-0.0237709346299297,jcp,20200213
2020-02-13,14:17,2:17 PM,,,,0,0.0,0,0.723,0.723,0.723,100,72.3,1,,,0.723,0.723,,-0.02350081037277144,jcp,20200213
2020-02-13,14:18,2:18 PM,,,,0,0.0,0,0.723,0.723,0.723,100,72.3,1,,,0.723,0.723,,-0.02350081037277144,jcp,20200213
2020-02-13,14:19,2:19 PM,0.723,0.723,0.723,8300,6000.9,3,0.723,0.723,0.723,10400,7519.2,11,0.723,0.723,0.723,0.723,,-0.02350081037277144,jcp,20200213
2020-02-13,14:20,2:20 PM,,,,0,0.0,0,,,,0,0.0,0,,,,,,,jcp,20200213
2020-02-13,14:21,2:21 PM,,,,0,0.0,0,0.723,0.7229,0.7229,7500,5422.0,8,,,0.723,0.723,,-0.023635872501350567,jcp,20200213
2020-02-13,14:22,2:22 PM,0.7229,0.7229,0.7229,100,72.29,1,0.7229,0.7229,0.7229,300,216.87,2,0.7229,0.7229,0.7229,0.7229,,-0.023635872501350567,jcp,20200213
2020-02-13,14:23,2:23 PM,,,,0,0.0,0,0.723,0.7229,0.7229,13100,9470.65,5,,,0.723,0.7229,,-0.023635872501350567,jcp,20200213
2020-02-13,14:24,2:24 PM,0.7229,0.7219,0.7225,4800,3468.2,12,0.723,0.7215,0.7222,37300,26940.658,127,0.7229,0.7219,0.7229,0.7215,,-0.02458130740140464,jcp,20200213
2020-02-13,14:25,2:25 PM,,,,0,0.0,0,0.7215,0.7215,0.7215,600,432.9,1,,,0.7215,0.7215,,-0.02552674230145856,jcp,20200213
2020-02-13,14:26,2:26 PM,0.7215,0.7215,0.7215,200,144.3,2,0.7216,0.7215,0.7215,1400,1010.12,9,0.7215,0.7215,0.7215,0.7216,,-0.02552674230145856,jcp,20200213
2020-02-13,14:27,2:27 PM,,,,0,0.0,0,0.7216,0.7215,0.7215,1700,1226.57,4,,,0.7215,0.7216,,-0.02552674230145856,jcp,20200213
2020-02-13,14:28,2:28 PM,,,,0,0.0,0,0.7216,0.7215,0.7215,10753,7758.6408,11,,,0.7215,0.7216,,-0.02552674230145856,jcp,20200213
2020-02-13,14:29,2:29 PM,,,,0,0.0,0,0.7215,0.7215,0.7215,100,72.15,1,,,0.7215,0.7215,,-0.02552674230145856,jcp,20200213
2020-02-13,14:30,2:30 PM,,,,0,0.0,0,0.7216,0.7215,0.7215,2500,1803.77,5,,,0.7216,0.7215,,-0.02552674230145856,jcp,20200213
2020-02-13,14:31,2:31 PM,,,,0,0.0,0,,,,0,0.0,0,,,,,,,jcp,20200213
2020-02-13,14:32,2:32 PM,,,,0,0.0,0,0.7215,0.7214,0.7214,2500,1803.73,6,,,0.7215,0.7214,,-0.025661804430037693,jcp,20200213
2020-02-13,14:33,2:33 PM,,,,0,0.0,0,0.7213,0.7211,0.7212,4500,3245.77,7,,,0.7213,0.7211,,-0.025931928687196105,jcp,20200213
2020-02-13,14:34,2:34 PM,,,,0,0.0,0,0.7211,0.721,0.721,888,640.313,7,,,0.7211,0.721,,-0.02620205294435437,jcp,20200213
2020-02-13,14:35,2:35 PM,,,,0,0.0,0,0.721,0.721,0.721,200,144.2,2,,,0.721,0.721,,-0.02620205294435437,jcp,20200213
2020-02-13,14:36,2:36 PM,,,,0,0.0,0,0.721,0.721,0.721,522,376.362,1,,,0.721,0.721,,-0.02620205294435437,jcp,20200213
2020-02-13,14:37,2:37 PM,0.721,0.721,0.721,100,72.1,1,0.7211,0.721,0.721,700,504.71,7,0.721,0.721,0.721,0.721,,-0.02620205294435437,jcp,20200213
2020-02-13,14:38,2:38 PM,,,,0,0.0,0,0.7211,0.7211,0.7211,300,216.33,2,,,0.7211,0.7211,,-0.026066990815775237,jcp,20200213
2020-02-13,14:39,2:39 PM,,,,0,0.0,0,0.7211,0.721,0.721,4763,3434.5533,22,,,0.7211,0.721,,-0.02620205294435437,jcp,20200213
2020-02-13,14:40,2:40 PM,0.7212,0.7211,0.7211,2000,1442.39,5,0.7212,0.7211,0.7211,13322,9607.0642,41,0.7212,0.7212,0.7211,0.7212,,-0.026066990815775237,jcp,20200213
2020-02-13,14:41,2:41 PM,,,,0,0.0,0,0.7212,0.7211,0.7211,9700,6994.84,10,,,0.7211,0.7212,,-0.026066990815775237,jcp,20200213
2020-02-13,14:42,2:42 PM,0.7212,0.7212,0.7212,2100,1514.52,7,0.7212,0.7211,0.7211,2600,1875.11,12,0.7212,0.7212,0.7211,0.7212,,-0.026066990815775237,jcp,20200213
2020-02-13,14:43,2:43 PM,,,,0,0.0,0,0.7212,0.7212,0.7212,300,216.36,2,,,0.7212,0.7212,,-0.025931928687196105,jcp,20200213
2020-02-13,14:44,2:44 PM,,,,0,0.0,0,0.7212,0.7211,0.7211,600,432.67,3,,,0.7212,0.7211,,-0.026066990815775237,jcp,20200213
2020-02-13,14:45,2:45 PM,0.7211,0.7211,0.7211,100,72.11,1,0.7212,0.72,0.7206,12600,9079.69,49,0.7211,0.7211,0.7211,0.7202,,-0.026742301458670896,jcp,20200213
2020-02-13,14:46,2:46 PM,,,,0,0.0,0,0.721,0.7201,0.7203,15300,11021.01,14,,,0.7201,0.721,,-0.027147487844408288,jcp,20200213
2020-02-13,14:47,2:47 PM,,,,0,0.0,0,0.721,0.7201,0.7208,1800,1297.44,6,,,0.721,0.721,,-0.026472177201512632,jcp,20200213
2020-02-13,14:48,2:48 PM,,,,0,0.0,0,0.721,0.7201,0.7205,200,144.11,2,,,0.7201,0.721,,-0.026877363587250024,jcp,20200213
2020-02-13,14:49,2:49 PM,,,,0,0.0,0,0.721,0.7201,0.7207,750,540.525,6,,,0.721,0.721,,-0.026607239330091764,jcp,20200213
2020-02-13,14:50,2:50 PM,,,,0,0.0,0,0.7201,0.7201,0.7201,200,144.02,2,,,0.7201,0.7201,,-0.0274176121015667,jcp,20200213
2020-02-13,14:51,2:51 PM,,,,0,0.0,0,0.721,0.721,0.721,200,144.2,2,,,0.721,0.721,,-0.02620205294435437,jcp,20200213
2020-02-13,14:52,2:52 PM,,,,0,0.0,0,0.721,0.7201,0.7202,2300,1656.46,9,,,0.721,0.7201,,-0.027282549972987572,jcp,20200213
2020-02-13,14:53,2:53 PM,,,,0,0.0,0,0.721,0.7201,0.7205,700,504.41,3,,,0.7201,0.7206,,-0.026877363587250024,jcp,20200213
2020-02-13,14:54,2:54 PM,,,,0,0.0,0,0.721,0.7201,0.7205,400,288.22,4,,,0.7201,0.721,,-0.026877363587250024,jcp,20200213
2020-02-13,14:55,2:55 PM,,,,0,0.0,0,0.721,0.7201,0.7204,700,504.34,5,,,0.7201,0.721,,-0.027012425715829156,jcp,20200213
2020-02-13,14:56,2:56 PM,,,,0,0.0,0,0.721,0.7205,0.7209,800,576.75,7,,,0.721,0.721,,-0.0263371150729335,jcp,20200213
2020-02-13,14:57,2:57 PM,,,,0,0.0,0,0.7211,0.721,0.721,5579,4022.6743,15,,,0.721,0.7211,,-0.02620205294435437,jcp,20200213
2020-02-13,14:58,2:58 PM,0.7212,0.7211,0.7211,6700,4831.52,13,0.7212,0.721,0.721,23000,16584.87,60,0.7211,0.7212,0.7211,0.7212,,-0.02620205294435437,jcp,20200213
2020-02-13,14:59,2:59 PM,0.7212,0.7212,0.7212,900,649.08,3,0.7212,0.7211,0.7211,1300,937.55,7,0.7212,0.7212,0.7212,0.7212,,-0.026066990815775237,jcp,20200213
2020-02-13,15:00,3 PM,,,,0,0.0,0,0.7212,0.7211,0.7211,6100,4398.92,10,,,0.7212,0.7211,,-0.026066990815775237,jcp,20200213
2020-02-13,15:01,3:01 PM,0.7211,0.7211,0.7211,3100,2235.41,6,0.7212,0.7208,0.721,21500,15503.45,41,0.7211,0.7211,0.7212,0.7209,,-0.02620205294435437,jcp,20200213
2020-02-13,15:02,3:02 PM,0.7208,0.7208,0.7208,700,504.56,3,0.7209,0.7201,0.7205,8820,6355.0995,38,0.7208,0.7208,0.7208,0.7201,,-0.026877363587250024,jcp,20200213
2020-02-13,15:03,3:03 PM,,,,0,0.0,0,0.7202,0.7201,0.7201,4177,3008.2254,13,,,0.7201,0.7202,,-0.0274176121015667,jcp,20200213
2020-02-13,15:04,3:04 PM,,,,0,0.0,0,0.7202,0.7202,0.7202,12000,8642.4,4,,,0.7202,0.7202,,-0.027282549972987572,jcp,20200213
2020-02-13,15:05,3:05 PM,,,,0,0.0,0,0.7203,0.7203,0.7203,400,288.12,3,,,0.7203,0.7203,,-0.027147487844408288,jcp,20200213
2020-02-13,15:06,3:06 PM,,,,0,0.0,0,0.7203,0.7202,0.7202,3200,2304.65,5,,,0.7202,0.7202,,-0.027282549972987572,jcp,20200213
2020-02-13,15:07,3:07 PM,0.7202,0.7183,0.7197,4900,3526.57,13,0.7202,0.718,0.7194,62863,45226.9183,137,0.7202,0.7183,0.7202,0.718,,-0.028363047001620623,jcp,20200213
2020-02-13,15:08,3:08 PM,0.718,0.7175,0.7176,1200,861.2,9,0.718,0.717,0.7179,199133,142975.806,26,0.718,0.7175,0.718,0.7173,,-0.030388978930307897,jcp,20200213
2020-02-13,15:09,3:09 PM,0.717,0.717,0.717,300,215.1,1,0.7171,0.717,0.717,7134,5115.658,10,0.717,0.717,0.7171,0.717,,-0.03160453808752023,jcp,20200213
2020-02-13,15:10,3:10 PM,,,,0,0.0,0,0.7171,0.717,0.717,7804,5596.118,12,,,0.717,0.717,,-0.03160453808752023,jcp,20200213
2020-02-13,15:11,3:11 PM,0.717,0.717,0.717,621,445.257,3,0.7171,0.717,0.717,23119,16576.8307,25,0.717,0.717,0.717,0.717,,-0.03160453808752023,jcp,20200213
2020-02-13,15:12,3:12 PM,0.7171,0.7171,0.7171,495,354.9645,1,0.7172,0.717,0.7171,23150,16601.475,22,0.7171,0.7171,0.7171,0.7172,,-0.0314694759589411,jcp,20200213
2020-02-13,15:13,3:13 PM,0.7172,0.7172,0.7172,200,143.44,2,0.7173,0.7171,0.7172,26114,18729.5308,75,0.7172,0.7172,0.7172,0.7173,,-0.031334413830361965,jcp,20200213
2020-02-13,15:14,3:14 PM,,,,0,0.0,0,0.7179,0.7173,0.7175,7663,5498.6239,47,,,0.7173,0.7179,,-0.03092922744462442,jcp,20200213
2020-02-13,15:15,3:15 PM,,,,0,0.0,0,0.7181,0.718,0.718,808,580.184,4,,,0.718,0.7181,,-0.030253916801728765,jcp,20200213
2020-02-13,15:16,3:16 PM,,,,0,0.0,0,0.7195,0.7185,0.7193,1600,1150.93,5,,,0.7185,0.7195,,-0.028498109130199754,jcp,20200213
2020-02-13,15:17,3:17 PM,,,,0,0.0,0,,,,0,0.0,0,,,,,,,jcp,20200213
2020-02-13,15:18,3:18 PM,0.7191,0.7191,0.7191,1100,791.01,2,0.7191,0.7186,0.7189,1500,1078.45,6,0.7191,0.7191,0.7186,0.7191,,-0.02903835764451643,jcp,20200213
2020-02-13,15:19,3:19 PM,0.719,0.719,0.719,1700,1222.3,2,0.7195,0.7189,0.7194,17100,12302.54,4,0.719,0.719,0.719,0.7189,,-0.028363047001620623,jcp,20200213
2020-02-13,15:20,3:20 PM,0.719,0.7188,0.7189,1400,1006.58,4,0.7191,0.7183,0.7188,13002,9346.859,25,0.719,0.7188,0.719,0.7189,,-0.029173419773095562,jcp,20200213
2020-02-13,15:21,3:21 PM,0.7183,0.7183,0.7183,600,430.98,1,0.7186,0.7183,0.7185,3255,2338.813,8,0.7183,0.7183,0.7183,0.7184,,-0.029578606158832958,jcp,20200213
2020-02-13,15:22,3:22 PM,,,,0,0.0,0,,,,0,0.0,0,,,,,,,jcp,20200213
2020-02-13,15:23,3:23 PM,,,,0,0.0,0,0.7186,0.7184,0.7184,1100,790.34,11,,,0.7186,0.7184,,-0.02971366828741209,jcp,20200213
2020-02-13,15:24,3:24 PM,,,,0,0.0,0,0.7185,0.7184,0.7184,2735,1964.884,8,,,0.7184,0.7184,,-0.02971366828741209,jcp,20200213
2020-02-13,15:25,3:25 PM,0.7184,0.7183,0.7183,1500,1077.53,6,0.7185,0.7183,0.7184,29000,20834.76,32,0.7184,0.7183,0.7184,0.7184,,-0.02971366828741209,jcp,20200213
2020-02-13,15:26,3:26 PM,,,,0,0.0,0,0.7185,0.7184,0.7184,4502,3234.2668,7,,,0.7184,0.7184,,-0.02971366828741209,jcp,20200213
2020-02-13,15:27,3:27 PM,0.7184,0.7183,0.7183,1300,933.85,6,0.7185,0.7182,0.7184,16332,11733.8483,21,0.7184,0.7183,0.7184,0.7183,,-0.02971366828741209,jcp,20200213
2020-02-13,15:28,3:28 PM,0.7183,0.7182,0.7182,3100,2226.7,7,0.7185,0.7182,0.7182,12533,9001.9706,19,0.7182,0.7183,0.7182,0.7184,,-0.029983792544570502,jcp,20200213
2020-02-13,15:29,3:29 PM,,,,0,0.0,0,0.7187,0.7185,0.7185,4868,3498.0448,22,,,0.7185,0.7187,,-0.029578606158832958,jcp,20200213
2020-02-13,15:30,3:30 PM,,,,0,0.0,0,0.7186,0.7186,0.7186,1000,718.6,1,,,0.7186,0.7186,,-0.029443544030253826,jcp,20200213
2020-02-13,15:31,3:31 PM,,,,0,0.0,0,0.7187,0.7186,0.7186,2100,1509.26,7,,,0.7186,0.7187,,-0.029443544030253826,jcp,20200213
2020-02-13,15:32,3:32 PM,0.7188,0.7188,0.7188,100,71.88,1,0.7189,0.7186,0.7187,7778,5590.6568,21,0.7188,0.7188,0.7186,0.7189,,-0.029308481901674694,jcp,20200213
2020-02-13,15:33,3:33 PM,0.7189,0.7189,0.7189,9950,7153.055,3,0.7189,0.7189,0.7189,11050,7943.845,7,0.7189,0.7189,0.7189,0.7189,,-0.02903835764451643,jcp,20200213
2020-02-13,15:34,3:34 PM,0.719,0.7189,0.7189,2100,1509.88,5,0.719,0.7189,0.7189,9575,6883.6975,26,0.719,0.7189,0.7189,0.7189,,-0.02903835764451643,jcp,20200213
2020-02-13,15:35,3:35 PM,0.7189,0.7188,0.7188,6100,4385.18,6,0.7189,0.7188,0.7188,14000,10064.2,20,0.7189,0.7188,0.7189,0.7188,,-0.029173419773095562,jcp,20200213
2020-02-13,15:36,3:36 PM,0.7188,0.7188,0.7188,200,143.76,1,0.7189,0.7188,0.7188,857,616.0573,5,0.7188,0.7188,0.7188,0.7189,,-0.029173419773095562,jcp,20200213
2020-02-13,15:37,3:37 PM,,,,0,0.0,0,0.7189,0.7188,0.7188,2800,2012.7,8,,,0.7188,0.7189,,-0.029173419773095562,jcp,20200213
2020-02-13,15:38,3:38 PM,0.7188,0.7188,0.7188,100,71.88,1,0.7189,0.7187,0.7187,2488,1788.3644,11,0.7188,0.7188,0.7189,0.7188,,-0.029308481901674694,jcp,20200213
2020-02-13,15:39,3:39 PM,0.7187,0.7187,0.7187,300,215.61,2,0.7187,0.7185,0.7186,15679,11267.6294,24,0.7187,0.7187,0.7187,0.7186,,-0.029443544030253826,jcp,20200213
2020-02-13,15:40,3:40 PM,0.7186,0.7186,0.7186,100,71.86,1,0.7187,0.7185,0.7185,6500,4670.83,12,0.7186,0.7186,0.7185,0.7187,,-0.029578606158832958,jcp,20200213
2020-02-13,15:41,3:41 PM,,,,0,0.0,0,0.7187,0.7186,0.7186,5436,3906.6532,10,,,0.7187,0.7187,,-0.029443544030253826,jcp,20200213
2020-02-13,15:42,3:42 PM,,,,0,0.0,0,0.7188,0.7187,0.7187,5250,3773.35,20,,,0.7187,0.7188,,-0.029308481901674694,jcp,20200213
2020-02-13,15:43,3:43 PM,,,,0,0.0,0,0.7193,0.7188,0.7189,8587,6173.6343,43,,,0.7188,0.7193,,-0.02903835764451643,jcp,20200213
2020-02-13,15:44,3:44 PM,,,,0,0.0,0,0.7194,0.7193,0.7193,2198,1581.1214,12,,,0.7193,0.7194,,-0.028498109130199754,jcp,20200213
2020-02-13,15:45,3:45 PM,0.7194,0.7194,0.7194,1000,719.4,3,0.7194,0.7194,0.7194,1742,1253.1948,6,0.7194,0.7194,0.7194,0.7194,,-0.028363047001620623,jcp,20200213
2020-02-13,15:46,3:46 PM,,,,0,0.0,0,0.7194,0.7194,0.7194,100,71.94,1,,,0.7194,0.7194,,-0.028363047001620623,jcp,20200213
2020-02-13,15:47,3:47 PM,0.7193,0.7193,0.7193,100,71.93,1,0.7194,0.7193,0.7193,3371,2425.0274,10,0.7193,0.7193,0.7193,0.7194,,-0.028498109130199754,jcp,20200213
2020-02-13,15:48,3:48 PM,0.7194,0.7194,0.7194,100,71.94,1,0.7195,0.7194,0.7194,671,482.7645,4,0.7194,0.7194,0.7194,0.7194,,-0.028363047001620623,jcp,20200213
2020-02-13,15:49,3:49 PM,0.7194,0.7194,0.7194,1900,1366.86,3,0.7195,0.7194,0.7194,9445,6795.153,12,0.7194,0.7194,0.7194,0.7194,,-0.028363047001620623,jcp,20200213
2020-02-13,15:50,3:50 PM,,,,0,0.0,0,0.7195,0.7193,0.7193,4659,3351.4956,18,,,0.7194,0.7193,,-0.028498109130199754,jcp,20200213
2020-02-13,15:51,3:51 PM,0.7192,0.719,0.7191,400,287.65,3,0.7192,0.7187,0.7189,7340,5277.0165,31,0.7192,0.719,0.7192,0.7187,,-0.02903835764451643,jcp,20200213
2020-02-13,15:52,3:52 PM,0.7185,0.7185,0.7185,200,143.7,2,0.7188,0.7185,0.7186,5389,3872.9004,20,0.7185,0.7185,0.7187,0.7185,,-0.029443544030253826,jcp,20200213
2020-02-13,15:53,3:53 PM,0.7185,0.7185,0.7185,1500,1077.75,15,0.7186,0.7185,0.7185,4184,3006.3074,25,0.7185,0.7185,0.7185,0.7185,,-0.029578606158832958,jcp,20200213
2020-02-13,15:54,3:54 PM,0.7185,0.7185,0.7185,1100,790.35,11,0.7185,0.718,0.7183,15259,10961.8507,67,0.7185,0.7185,0.7185,0.7181,,-0.02984873041599122,jcp,20200213
2020-02-13,15:55,3:55 PM,0.7161,0.716,0.716,3300,2362.84,20,0.7181,0.716,0.7174,43300,31066.4086,128,0.716,0.716,0.7181,0.716,,-0.031064289573203552,jcp,20200213
2020-02-13,15:56,3:56 PM,0.7153,0.7144,0.7147,604,431.7376,5,0.716,0.7136,0.7149,42919,30686.943,133,0.7153,0.7144,0.716,0.7136,,-0.034440842787682294,jcp,20200213
2020-02-13,15:57,3:57 PM,0.7115,0.7108,0.711,1000,711.03,8,0.7136,0.71,0.7108,29352,20864.802,128,0.7115,0.7108,0.7136,0.71,,-0.039978390059427285,jcp,20200213
2020-02-13,15:58,3:58 PM,0.7107,0.7105,0.7105,1100,781.57,9,0.711,0.71,0.7106,28180,20024.8925,134,0.7105,0.7107,0.71,0.7108,,-0.04024851431658555,jcp,20200213
2020-02-13,15:59,3:59 PM,0.7141,0.7109,0.7128,5191,3700.1791,6,0.7154,0.7108,0.7125,35973,25630.9934,98,0.7109,0.7137,0.7108,0.7127,,-0.03768233387358175,jcp,20200213
