date,minute,label,high,low,average,volume,notional,numberOfTrades,marketHigh,marketLow,marketAverage,marketVolume,marketNotional,marketNumberOfTrades,open,close,marketOpen,marketClose,changeOverTime,marketChangeOverTime,tickerName,tickerDate
2019-11-22,09:30,09:30 AM,,,,0,0.0,0,1.1,1.08,1.081,124398,134519.5,77,,,1.08,1.1,,0.0,jcp,20191122
2019-11-22,09:31,09:31 AM,1.105,1.105,1.105,2300,2541.5,5,1.106,1.105,1.105,16240,17948.896,22,1.105,1.105,1.105,1.106,,0.022201665124884386,jcp,20191122
2019-11-22,09:32,09:32 AM,1.11,1.11,1.11,100,111.0,1,1.12,1.1,1.115,118104,131637.729,47,1.11,1.11,1.109,1.103,,0.03145235892691955,jcp,20191122
2019-11-22,09:33,09:33 AM,1.105,1.105,1.105,200,221.0,2,1.11,1.105,1.109,3600,3992.1,5,1.105,1.105,1.105,1.11,,0.02590194264569845,jcp,20191122
2019-11-22,09:34,09:34 AM,,,,0,0.0,0,1.11,1.1,1.103,18998,20955.98,32,,,1.1,1.105,,0.020351526364477356,jcp,20191122
2019-11-22,09:35,09:35 AM,1.105,1.105,1.105,400,442.0,2,1.11,1.1,1.105,30115,33292.9346,50,1.105,1.105,1.105,1.1,,0.022201665124884386,jcp,20191122
2019-11-22,09:36,09:36 AM,,,,0,0.0,0,1.109,1.1,1.101,18878,20795.613,5,,,1.105,1.1,,0.018501387604070323,jcp,20191122
2019-11-22,09:37,09:37 AM,1.105,1.1,1.104,1128,1245.44,5,1.105,1.095,1.1,12399,13642.34,43,1.105,1.1,1.105,1.095,,0.017576318223866908,jcp,20191122
2019-11-22,09:38,09:38 AM,1.095,1.095,1.095,1475,1615.125,4,1.1,1.091,1.096,12075,13233.05,19,1.095,1.095,1.095,1.091,,0.013876040703052844,jcp,20191122
2019-11-22,09:39,09:39 AM,,,,0,0.0,0,1.1,1.09,1.092,49815,54392.8545,8,,,1.095,1.094,,0.01017576318223878,jcp,20191122
2019-11-22,09:40,09:40 AM,1.095,1.095,1.095,2600,2847.0,6,1.1,1.095,1.097,15000,16451.95,19,1.095,1.095,1.095,1.1,,0.014801110083256257,jcp,20191122
2019-11-22,09:41,09:41 AM,1.1,1.095,1.096,1415,1550.425,8,1.1,1.09,1.096,21114,23145.3347,32,1.095,1.095,1.095,1.095,,0.013876040703052844,jcp,20191122
2019-11-22,09:42,09:42 AM,,,,0,0.0,0,1.1,1.09,1.095,600,657.02,5,,,1.09,1.1,,0.012950971322849225,jcp,20191122
2019-11-22,09:43,09:43 AM,,,,0,0.0,0,1.1,1.095,1.098,2300,2526.12,6,,,1.095,1.095,,0.015726179463459878,jcp,20191122
2019-11-22,09:44,09:44 AM,1.095,1.095,1.095,100,109.5,1,1.1,1.09,1.099,3530,3878.396,12,1.095,1.095,1.1,1.095,,0.01665124884366329,jcp,20191122
2019-11-22,09:45,09:45 AM,,,,0,0.0,0,1.1,1.09,1.095,2082,2278.7602,8,,,1.09,1.09,,0.012950971322849225,jcp,20191122
2019-11-22,09:46,09:46 AM,,,,0,0.0,0,1.094,1.09,1.091,600,654.4,6,,,1.09,1.09,,0.009250693802035161,jcp,20191122
2019-11-22,09:47,09:47 AM,,,,0,0.0,0,1.1,1.09,1.093,1200,1312.0,11,,,1.1,1.09,,0.011100832562442193,jcp,20191122
2019-11-22,09:48,09:48 AM,1.08,1.08,1.08,100,108.0,2,1.1,1.08,1.085,56260,61068.8,70,1.08,1.08,1.09,1.08,,0.0037002775208140643,jcp,20191122
2019-11-22,09:49,09:49 AM,1.08,1.08,1.08,2300,2484.0,22,1.09,1.08,1.08,7490,8090.7,45,1.08,1.08,1.08,1.08,,-0.0009250693802034134,jcp,20191122
2019-11-22,09:50,09:50 AM,1.085,1.08,1.081,1500,1621.0,17,1.09,1.08,1.084,7389,8010.2978,27,1.08,1.085,1.08,1.085,,0.002775208140610651,jcp,20191122
2019-11-22,09:51,09:51 AM,1.085,1.08,1.08,502,542.17,7,1.09,1.08,1.086,7570,8222.88,31,1.085,1.08,1.085,1.08,,0.004625346901017683,jcp,20191122
2019-11-22,09:52,09:52 AM,1.09,1.08,1.084,1113,1206.105,7,1.09,1.08,1.083,9983,10807.7041,32,1.08,1.09,1.08,1.09,,0.0018501387604070321,jcp,20191122
2019-11-22,09:53,09:53 AM,1.09,1.085,1.085,1700,1845.0,7,1.09,1.08,1.086,13463,14625.659,46,1.09,1.085,1.085,1.09,,0.004625346901017683,jcp,20191122
2019-11-22,09:54,09:54 AM,1.08,1.08,1.08,300,324.0,3,1.09,1.08,1.083,1700,1841.0,15,1.08,1.08,1.08,1.08,,0.0018501387604070321,jcp,20191122
2019-11-22,09:55,09:55 AM,1.08,1.08,1.08,2000,2160.0,20,1.09,1.08,1.081,5300,5729.89,43,1.08,1.08,1.08,1.08,,0.0,jcp,20191122
2019-11-22,09:56,09:56 AM,1.08,1.075,1.077,1600,1724.0,6,1.085,1.07,1.077,53769,57912.075,107,1.075,1.075,1.08,1.075,,-0.0037002775208140643,jcp,20191122
2019-11-22,09:57,09:57 AM,,,,0,0.0,0,1.08,1.07,1.079,37951,40945.2109,11,,,1.08,1.07,,-0.0018501387604070321,jcp,20191122
2019-11-22,09:58,09:58 AM,,,,0,0.0,0,1.08,1.07,1.073,19850,21293.9,14,,,1.07,1.08,,-0.0074005550416281285,jcp,20191122
2019-11-22,09:59,09:59 AM,,,,0,0.0,0,1.08,1.07,1.071,1800,1928.0,18,,,1.075,1.07,,-0.009250693802035161,jcp,20191122
2019-11-22,10:00,10 AM,1.075,1.075,1.075,3400,3655.0,7,1.08,1.07,1.076,32582,35052.14,90,1.075,1.075,1.07,1.075,,-0.004625346901017478,jcp,20191122
2019-11-22,10:01,10:01 AM,1.085,1.08,1.081,1500,1622.0,6,1.09,1.08,1.081,36247,39202.23,90,1.08,1.085,1.08,1.085,,0.0,jcp,20191122
2019-11-22,10:02,10:02 AM,1.085,1.085,1.085,300,325.5,1,1.09,1.084,1.087,6100,6629.66,40,1.085,1.085,1.085,1.085,,0.005550416281221097,jcp,20191122
2019-11-22,10:03,10:03 AM,1.085,1.085,1.085,300,325.5,3,1.09,1.08,1.085,5000,5425.16,28,1.085,1.085,1.085,1.085,,0.0037002775208140643,jcp,20191122
2019-11-22,10:04,10:04 AM,1.09,1.085,1.088,1700,1850.0,5,1.09,1.085,1.089,32825,35739.245,83,1.085,1.085,1.09,1.09,,0.0074005550416281285,jcp,20191122
2019-11-22,10:05,10:05 AM,1.085,1.085,1.085,300,325.5,3,1.09,1.085,1.089,8700,9477.47,38,1.085,1.085,1.085,1.085,,0.0074005550416281285,jcp,20191122
2019-11-22,10:06,10:06 AM,1.085,1.085,1.085,400,434.0,4,1.09,1.085,1.088,3550,3863.65,13,1.085,1.085,1.085,1.085,,0.006475485661424716,jcp,20191122
2019-11-22,10:07,10:07 AM,1.085,1.085,1.085,100,108.5,1,1.09,1.085,1.09,11550,12588.5,14,1.085,1.085,1.09,1.09,,0.008325624421831749,jcp,20191122
2019-11-22,10:08,10:08 AM,1.085,1.085,1.085,250,271.25,1,1.09,1.085,1.088,617,671.2633,4,1.085,1.085,1.09,1.085,,0.006475485661424716,jcp,20191122
2019-11-22,10:09,10:09 AM,1.085,1.085,1.085,100,108.5,1,1.09,1.085,1.089,1211,1318.49,9,1.085,1.085,1.09,1.085,,0.0074005550416281285,jcp,20191122
2019-11-22,10:10,10:10 AM,,,,0,0.0,0,1.09,1.09,1.09,200,217.99,2,,,1.09,1.09,,0.008325624421831749,jcp,20191122
2019-11-22,10:11,10:11 AM,,,,0,0.0,0,1.09,1.083,1.083,1100,1191.5,2,,,1.083,1.09,,0.0018501387604070321,jcp,20191122
2019-11-22,10:12,10:12 AM,1.085,1.085,1.085,500,542.5,5,1.09,1.08,1.083,3900,4224.0,18,1.085,1.085,1.09,1.08,,0.0018501387604070321,jcp,20191122
2019-11-22,10:13,10:13 AM,,,,0,0.0,0,1.09,1.08,1.086,600,651.5,4,,,1.085,1.085,,0.004625346901017683,jcp,20191122
2019-11-22,10:14,10:14 AM,,,,0,0.0,0,1.09,1.08,1.089,7618,8292.5528,9,,,1.084,1.08,,0.0074005550416281285,jcp,20191122
2019-11-22,10:15,10:15 AM,1.085,1.085,1.085,6000,6510.0,5,1.09,1.08,1.083,47311,51253.583,71,1.085,1.085,1.082,1.085,,0.0018501387604070321,jcp,20191122
2019-11-22,10:16,10:16 AM,,,,0,0.0,0,1.09,1.085,1.089,16742,18233.73,55,,,1.085,1.085,,0.0074005550416281285,jcp,20191122
2019-11-22,10:17,10:17 AM,1.085,1.085,1.085,300,325.5,1,1.09,1.085,1.09,4200,4576.5,17,1.085,1.085,1.09,1.09,,0.008325624421831749,jcp,20191122
2019-11-22,10:18,10:18 AM,1.085,1.085,1.085,1300,1410.5,10,1.09,1.084,1.085,77071,83643.8182,22,1.085,1.085,1.085,1.085,,0.0037002775208140643,jcp,20191122
2019-11-22,10:19,10:19 AM,1.085,1.085,1.085,3200,3472.0,20,1.09,1.085,1.085,52313,56760.225,31,1.085,1.085,1.085,1.085,,0.0037002775208140643,jcp,20191122
2019-11-22,10:20,10:20 AM,1.085,1.085,1.085,2600,2821.0,25,1.09,1.082,1.084,5987,6490.4566,33,1.085,1.085,1.085,1.085,,0.002775208140610651,jcp,20191122
2019-11-22,10:21,10:21 AM,1.085,1.085,1.085,2800,3038.0,26,1.09,1.085,1.085,3100,3365.0,28,1.085,1.085,1.085,1.085,,0.0037002775208140643,jcp,20191122
2019-11-22,10:22,10:22 AM,1.085,1.085,1.085,2500,2712.5,25,1.085,1.08,1.085,2900,3145.5,29,1.085,1.085,1.085,1.085,,0.0037002775208140643,jcp,20191122
2019-11-22,10:23,10:23 AM,1.085,1.085,1.085,2900,3146.5,27,1.09,1.08,1.085,10900,11824.59,47,1.085,1.085,1.085,1.085,,0.0037002775208140643,jcp,20191122
2019-11-22,10:24,10:24 AM,1.085,1.085,1.085,1800,1953.0,18,1.09,1.08,1.085,13100,14220.6,45,1.085,1.085,1.085,1.09,,0.0037002775208140643,jcp,20191122
2019-11-22,10:25,10:25 AM,1.085,1.085,1.085,2300,2495.5,23,1.09,1.08,1.085,10600,11500.67,50,1.085,1.085,1.09,1.085,,0.0037002775208140643,jcp,20191122
2019-11-22,10:26,10:26 AM,1.085,1.085,1.085,2700,2929.5,27,1.09,1.08,1.084,4500,4880.09,45,1.085,1.085,1.085,1.085,,0.002775208140610651,jcp,20191122
2019-11-22,10:27,10:27 AM,1.085,1.085,1.085,3000,3255.0,30,1.09,1.08,1.085,12000,13015.26,55,1.085,1.085,1.085,1.09,,0.0037002775208140643,jcp,20191122
2019-11-22,10:28,10:28 AM,1.085,1.085,1.085,2300,2495.5,23,1.09,1.08,1.085,11720,12711.3,54,1.085,1.085,1.085,1.085,,0.0037002775208140643,jcp,20191122
2019-11-22,10:29,10:29 AM,1.085,1.085,1.085,2800,3038.0,28,1.09,1.08,1.085,5650,6129.09,52,1.085,1.085,1.085,1.09,,0.0037002775208140643,jcp,20191122
2019-11-22,10:30,10:30 AM,1.09,1.085,1.085,2700,2930.0,27,1.09,1.08,1.086,7100,7710.27,58,1.085,1.085,1.085,1.085,,0.004625346901017683,jcp,20191122
2019-11-22,10:31,10:31 AM,1.085,1.085,1.085,3000,3255.0,30,1.09,1.08,1.084,7200,7807.77,58,1.085,1.085,1.085,1.085,,0.002775208140610651,jcp,20191122
2019-11-22,10:32,10:32 AM,1.085,1.085,1.085,2800,3038.0,28,1.09,1.08,1.084,6304,6836.5498,57,1.085,1.085,1.09,1.085,,0.002775208140610651,jcp,20191122
2019-11-22,10:33,10:33 AM,1.085,1.085,1.085,2800,3038.0,28,1.09,1.08,1.085,3600,3906.5,36,1.085,1.085,1.09,1.085,,0.0037002775208140643,jcp,20191122
2019-11-22,10:34,10:34 AM,1.085,1.085,1.085,2300,2495.5,23,1.09,1.08,1.085,4800,5207.36,46,1.085,1.085,1.085,1.08,,0.0037002775208140643,jcp,20191122
2019-11-22,10:35,10:35 AM,1.085,1.085,1.085,2600,2821.0,26,1.09,1.08,1.085,12900,14000.27,70,1.085,1.085,1.085,1.085,,0.0037002775208140643,jcp,20191122
2019-11-22,10:36,10:36 AM,1.09,1.085,1.085,2900,3147.5,27,1.09,1.08,1.088,28716,31246.12,72,1.085,1.085,1.085,1.085,,0.006475485661424716,jcp,20191122
2019-11-22,10:37,10:37 AM,1.09,1.085,1.087,3700,4023.0,23,1.09,1.08,1.088,12300,13381.73,53,1.085,1.085,1.085,1.085,,0.006475485661424716,jcp,20191122
2019-11-22,10:38,10:38 AM,1.095,1.095,1.095,1000,1095.0,7,1.1,1.09,1.09,107305,116993.016,84,1.095,1.095,1.09,1.095,,0.008325624421831749,jcp,20191122
2019-11-22,10:39,10:39 AM,1.095,1.095,1.095,300,328.5,3,1.1,1.095,1.096,3257,3571.2,30,1.095,1.095,1.095,1.1,,0.013876040703052844,jcp,20191122
2019-11-22,10:40,10:40 AM,1.095,1.095,1.095,600,657.0,3,1.1,1.095,1.097,7200,7897.45,45,1.095,1.095,1.1,1.095,,0.014801110083256257,jcp,20191122
2019-11-22,10:41,10:41 AM,1.095,1.095,1.095,300,328.5,3,1.1,1.095,1.096,3000,3288.0,28,1.095,1.095,1.095,1.1,,0.013876040703052844,jcp,20191122
2019-11-22,10:42,10:42 AM,1.095,1.095,1.095,400,438.0,1,1.1,1.09,1.096,3400,3725.42,24,1.095,1.095,1.09,1.1,,0.013876040703052844,jcp,20191122
2019-11-22,10:43,10:43 AM,1.095,1.095,1.095,1000,1095.0,5,1.095,1.095,1.095,4300,4708.5,38,1.095,1.095,1.095,1.095,,0.012950971322849225,jcp,20191122
2019-11-22,10:44,10:44 AM,1.095,1.095,1.095,700,766.5,4,1.1,1.09,1.092,8496,9279.24,32,1.095,1.095,1.1,1.1,,0.01017576318223878,jcp,20191122
2019-11-22,10:45,10:45 AM,1.095,1.085,1.087,900,978.5,5,1.095,1.085,1.09,24026,26181.14,79,1.095,1.085,1.095,1.085,,0.008325624421831749,jcp,20191122
2019-11-22,10:46,10:46 AM,1.09,1.09,1.09,300,327.0,3,1.09,1.09,1.09,6097,6645.73,36,1.09,1.09,1.09,1.09,,0.008325624421831749,jcp,20191122
2019-11-22,10:47,10:47 AM,1.09,1.09,1.09,100,109.0,1,1.09,1.08,1.09,6010,6549.9,22,1.09,1.09,1.09,1.09,,0.008325624421831749,jcp,20191122
2019-11-22,10:48,10:48 AM,1.085,1.085,1.085,100,108.5,1,1.09,1.085,1.09,3576,3896.62,18,1.085,1.085,1.09,1.09,,0.008325624421831749,jcp,20191122
2019-11-22,10:49,10:49 AM,,,,0,0.0,0,1.09,1.09,1.09,1700,1853.0,10,,,1.09,1.09,,0.008325624421831749,jcp,20191122
2019-11-22,10:50,10:50 AM,1.09,1.09,1.09,100,109.0,1,1.09,1.083,1.086,2083,2262.719,8,1.09,1.09,1.09,1.09,,0.004625346901017683,jcp,20191122
2019-11-22,10:51,10:51 AM,1.09,1.085,1.087,157,170.63,2,1.09,1.085,1.09,18063,19688.17,5,1.09,1.085,1.09,1.09,,0.008325624421831749,jcp,20191122
2019-11-22,10:52,10:52 AM,1.09,1.09,1.09,200,218.0,2,1.09,1.09,1.09,1788,1948.92,9,1.09,1.09,1.09,1.09,,0.008325624421831749,jcp,20191122
2019-11-22,10:53,10:53 AM,1.09,1.09,1.09,100,109.0,1,1.09,1.08,1.088,2511,2732.915,16,1.09,1.09,1.09,1.09,,0.006475485661424716,jcp,20191122
2019-11-22,10:54,10:54 AM,1.085,1.085,1.085,100,108.5,1,1.09,1.085,1.09,1819,1982.19,9,1.085,1.085,1.09,1.09,,0.008325624421831749,jcp,20191122
2019-11-22,10:55,10:55 AM,,,,0,0.0,0,1.09,1.08,1.086,7800,8468.2,15,,,1.09,1.086,,0.004625346901017683,jcp,20191122
2019-11-22,10:56,10:56 AM,,,,0,0.0,0,1.09,1.08,1.085,4300,4664.18,41,,,1.09,1.085,,0.0037002775208140643,jcp,20191122
2019-11-22,10:57,10:57 AM,,,,0,0.0,0,1.09,1.08,1.085,5300,5751.69,51,,,1.085,1.085,,0.0037002775208140643,jcp,20191122
2019-11-22,10:58,10:58 AM,1.085,1.085,1.085,4300,4665.5,7,1.09,1.08,1.085,19996,21696.64,63,1.085,1.085,1.085,1.085,,0.0037002775208140643,jcp,20191122
2019-11-22,10:59,10:59 AM,1.085,1.085,1.085,100,108.5,1,1.09,1.085,1.089,5503,5992.02,24,1.085,1.085,1.09,1.087,,0.0074005550416281285,jcp,20191122
2019-11-22,11:00,11 AM,,,,0,0.0,0,1.09,1.085,1.088,600,653.0,5,,,1.085,1.09,,0.006475485661424716,jcp,20191122
2019-11-22,11:01,11:01 AM,1.095,1.09,1.095,1043,1141.87,4,1.1,1.09,1.091,35688,38934.46,64,1.09,1.095,1.09,1.095,,0.009250693802035161,jcp,20191122
2019-11-22,11:02,11:02 AM,1.095,1.095,1.095,300,328.5,3,1.1,1.09,1.095,4800,5258.55,32,1.095,1.095,1.095,1.095,,0.012950971322849225,jcp,20191122
2019-11-22,11:03,11:03 AM,1.095,1.095,1.095,600,657.0,3,1.1,1.09,1.093,6500,7105.5,39,1.095,1.095,1.1,1.095,,0.011100832562442193,jcp,20191122
2019-11-22,11:04,11:04 AM,1.095,1.095,1.095,3500,3832.5,5,1.1,1.09,1.094,10400,11378.1,26,1.095,1.095,1.095,1.098,,0.012025901942645812,jcp,20191122
2019-11-22,11:05,11:05 AM,,,,0,0.0,0,1.09,1.09,1.09,478,521.02,3,,,1.09,1.09,,0.008325624421831749,jcp,20191122
2019-11-22,11:06,11:06 AM,1.095,1.095,1.095,1344,1471.68,2,1.1,1.09,1.096,2001,2192.38,7,1.095,1.095,1.095,1.095,,0.013876040703052844,jcp,20191122
2019-11-22,11:07,11:07 AM,,,,0,0.0,0,1.1,1.09,1.095,2500,2738.0,7,,,1.095,1.1,,0.012950971322849225,jcp,20191122
2019-11-22,11:08,11:08 AM,,,,0,0.0,0,1.1,1.09,1.094,500,546.96,3,,,1.09,1.1,,0.012025901942645812,jcp,20191122
2019-11-22,11:09,11:09 AM,,,,0,0.0,0,1.1,1.098,1.099,700,769.56,5,,,1.1,1.098,,0.01665124884366329,jcp,20191122
2019-11-22,11:10,11:10 AM,,,,0,0.0,0,1.1,1.09,1.096,4501,4934.4376,12,,,1.1,1.092,,0.013876040703052844,jcp,20191122
2019-11-22,11:11,11:11 AM,1.095,1.095,1.095,600,657.0,1,1.1,1.095,1.096,1300,1425.0,8,1.095,1.095,1.095,1.095,,0.013876040703052844,jcp,20191122
2019-11-22,11:12,11:12 AM,,,,0,0.0,0,1.1,1.09,1.097,7100,7788.0,39,,,1.09,1.1,,0.014801110083256257,jcp,20191122
2019-11-22,11:13,11:13 AM,,,,0,0.0,0,1.1,1.095,1.096,400,438.5,3,,,1.095,1.1,,0.013876040703052844,jcp,20191122
2019-11-22,11:14,11:14 AM,,,,0,0.0,0,1.1,1.09,1.091,11904,12984.95,46,,,1.09,1.1,,0.009250693802035161,jcp,20191122
2019-11-22,11:15,11:15 AM,,,,0,0.0,0,1.1,1.09,1.092,3500,3823.65,27,,,1.09,1.095,,0.01017576318223878,jcp,20191122
2019-11-22,11:16,11:16 AM,,,,0,0.0,0,1.1,1.09,1.094,4700,5142.5,42,,,1.1,1.09,,0.012025901942645812,jcp,20191122
2019-11-22,11:17,11:17 AM,,,,0,0.0,0,1.1,1.09,1.092,2300,2510.92,12,,,1.09,1.095,,0.01017576318223878,jcp,20191122
2019-11-22,11:18,11:18 AM,,,,0,0.0,0,1.1,1.09,1.093,5061,5530.89,27,,,1.09,1.09,,0.011100832562442193,jcp,20191122
2019-11-22,11:19,11:19 AM,,,,0,0.0,0,1.1,1.09,1.091,2000,2181.5,20,,,1.09,1.09,,0.009250693802035161,jcp,20191122
2019-11-22,11:20,11:20 AM,,,,0,0.0,0,1.1,1.09,1.09,81900,89275.14,22,,,1.095,1.09,,0.008325624421831749,jcp,20191122
2019-11-22,11:21,11:21 AM,,,,0,0.0,0,1.095,1.09,1.09,2200,2399.0,20,,,1.095,1.09,,0.008325624421831749,jcp,20191122
2019-11-22,11:22,11:22 AM,,,,0,0.0,0,1.1,1.09,1.09,55100,60072.59,41,,,1.095,1.09,,0.008325624421831749,jcp,20191122
2019-11-22,11:23,11:23 AM,1.09,1.09,1.09,200,218.0,2,1.1,1.09,1.091,6150,6710.895,34,1.09,1.09,1.09,1.09,,0.009250693802035161,jcp,20191122
2019-11-22,11:24,11:24 AM,1.09,1.09,1.09,400,436.0,4,1.1,1.09,1.091,5100,5562.16,37,1.09,1.09,1.09,1.09,,0.009250693802035161,jcp,20191122
2019-11-22,11:25,11:25 AM,1.095,1.09,1.09,2047,2231.465,21,1.1,1.09,1.091,8050,8778.92,36,1.09,1.09,1.09,1.09,,0.009250693802035161,jcp,20191122
2019-11-22,11:26,11:26 AM,1.09,1.09,1.09,1400,1526.0,14,1.1,1.09,1.09,4211,4592.08,39,1.09,1.09,1.09,1.09,,0.008325624421831749,jcp,20191122
2019-11-22,11:27,11:27 AM,1.09,1.09,1.09,2100,2289.0,21,1.095,1.09,1.09,2500,2726.0,24,1.09,1.09,1.09,1.09,,0.008325624421831749,jcp,20191122
2019-11-22,11:28,11:28 AM,1.09,1.09,1.09,2000,2180.0,19,1.095,1.09,1.091,2800,3053.5,27,1.09,1.09,1.09,1.09,,0.009250693802035161,jcp,20191122
2019-11-22,11:29,11:29 AM,1.09,1.09,1.09,1900,2071.0,17,1.095,1.09,1.09,3000,3271.0,27,1.09,1.09,1.09,1.09,,0.008325624421831749,jcp,20191122
2019-11-22,11:30,11:30 AM,1.09,1.09,1.09,1900,2071.0,19,1.1,1.09,1.094,3785,4142.0,25,1.09,1.09,1.09,1.09,,0.012025901942645812,jcp,20191122
2019-11-22,11:31,11:31 AM,1.09,1.09,1.09,1900,2071.0,19,1.097,1.09,1.095,7738,8472.4612,28,1.09,1.09,1.09,1.09,,0.012950971322849225,jcp,20191122
2019-11-22,11:32,11:32 AM,1.09,1.09,1.09,2000,2180.0,20,1.095,1.09,1.091,3800,4146.01,35,1.09,1.09,1.09,1.095,,0.009250693802035161,jcp,20191122
2019-11-22,11:33,11:33 AM,1.09,1.09,1.09,2000,2180.0,20,1.096,1.09,1.09,2800,3053.09,28,1.09,1.09,1.09,1.095,,0.008325624421831749,jcp,20191122
2019-11-22,11:34,11:34 AM,1.09,1.09,1.09,2000,2180.0,20,1.096,1.09,1.09,108500,118268.35,38,1.09,1.09,1.09,1.09,,0.008325624421831749,jcp,20191122
2019-11-22,11:35,11:35 AM,1.095,1.09,1.093,5600,6123.0,25,1.095,1.09,1.094,16700,18275.5,66,1.09,1.095,1.09,1.09,,0.012025901942645812,jcp,20191122
2019-11-22,11:36,11:36 AM,1.095,1.095,1.095,100,109.5,1,1.1,1.09,1.095,14600,15981.5,34,1.095,1.095,1.095,1.1,,0.012950971322849225,jcp,20191122
2019-11-22,11:37,11:37 AM,,,,0,0.0,0,1.1,1.09,1.096,9984,10947.44,50,,,1.095,1.095,,0.013876040703052844,jcp,20191122
2019-11-22,11:38,11:38 AM,1.095,1.095,1.095,300,328.5,2,1.1,1.09,1.099,12300,13515.5,42,1.095,1.095,1.095,1.095,,0.01665124884366329,jcp,20191122
2019-11-22,11:39,11:39 AM,1.095,1.095,1.095,800,876.0,2,1.1,1.09,1.09,102746,112013.49,34,1.095,1.095,1.09,1.095,,0.008325624421831749,jcp,20191122
2019-11-22,11:40,11:40 AM,1.095,1.095,1.095,200,219.0,2,1.1,1.09,1.097,6700,7351.9,19,1.095,1.095,1.099,1.095,,0.014801110083256257,jcp,20191122
2019-11-22,11:41,11:41 AM,,,,0,0.0,0,1.1,1.09,1.095,1900,2081.0,12,,,1.1,1.1,,0.012950971322849225,jcp,20191122
2019-11-22,11:42,11:42 AM,1.095,1.095,1.095,900,985.5,3,1.1,1.095,1.095,4200,4601.5,33,1.095,1.095,1.1,1.095,,0.012950971322849225,jcp,20191122
2019-11-22,11:43,11:43 AM,1.095,1.095,1.095,200,219.0,2,1.1,1.09,1.095,2000,2191.0,18,1.095,1.095,1.095,1.1,,0.012950971322849225,jcp,20191122
2019-11-22,11:44,11:44 AM,1.095,1.095,1.095,200,219.0,2,1.1,1.09,1.097,10391,11397.67,31,1.095,1.095,1.1,1.095,,0.014801110083256257,jcp,20191122
2019-11-22,11:45,11:45 AM,1.095,1.095,1.095,600,657.0,3,1.1,1.09,1.095,3200,3504.5,17,1.095,1.095,1.1,1.095,,0.012950971322849225,jcp,20191122
2019-11-22,11:46,11:46 AM,1.095,1.095,1.095,400,438.0,2,1.1,1.095,1.095,3113,3410.0089,19,1.095,1.095,1.095,1.1,,0.012950971322849225,jcp,20191122
2019-11-22,11:47,11:47 AM,1.095,1.095,1.095,300,328.5,3,1.1,1.095,1.096,1400,1534.5,14,1.095,1.095,1.1,1.095,,0.013876040703052844,jcp,20191122
2019-11-22,11:48,11:48 AM,1.095,1.095,1.095,400,438.0,2,1.1,1.09,1.097,5500,6036.0,19,1.095,1.095,1.095,1.1,,0.014801110083256257,jcp,20191122
2019-11-22,11:49,11:49 AM,1.095,1.095,1.095,300,328.5,2,1.1,1.095,1.099,4400,4835.0,16,1.095,1.095,1.1,1.095,,0.01665124884366329,jcp,20191122
2019-11-22,11:50,11:50 AM,,,,0,0.0,0,1.1,1.09,1.098,7390,8114.0,23,,,1.095,1.1,,0.015726179463459878,jcp,20191122
2019-11-22,11:51,11:51 AM,1.095,1.095,1.095,800,876.0,2,1.1,1.09,1.095,2050,2244.53,10,1.095,1.095,1.095,1.095,,0.012950971322849225,jcp,20191122
2019-11-22,11:52,11:52 AM,1.095,1.095,1.095,300,328.5,1,1.1,1.095,1.098,5256,5769.9572,11,1.095,1.095,1.095,1.1,,0.015726179463459878,jcp,20191122
2019-11-22,11:53,11:53 AM,,,,0,0.0,0,1.1,1.09,1.097,525,575.875,5,,,1.1,1.095,,0.014801110083256257,jcp,20191122
2019-11-22,11:54,11:54 AM,,,,0,0.0,0,1.1,1.09,1.093,1800,1967.56,12,,,1.1,1.1,,0.011100832562442193,jcp,20191122
2019-11-22,11:55,11:55 AM,,,,0,0.0,0,1.1,1.09,1.095,1576,1726.525,10,,,1.1,1.1,,0.012950971322849225,jcp,20191122
2019-11-22,11:56,11:56 AM,,,,0,0.0,0,1.1,1.09,1.091,12891,14062.69,20,,,1.09,1.09,,0.009250693802035161,jcp,20191122
2019-11-22,11:57,11:57 AM,,,,0,0.0,0,1.095,1.09,1.09,2900,3161.5,22,,,1.09,1.09,,0.008325624421831749,jcp,20191122
2019-11-22,11:58,11:58 AM,1.09,1.09,1.09,400,436.0,4,1.098,1.09,1.093,4500,4920.2,26,1.09,1.09,1.09,1.09,,0.011100832562442193,jcp,20191122
2019-11-22,11:59,11:59 AM,1.09,1.085,1.087,3100,3369.5,14,1.095,1.085,1.09,124837,136061.9576,105,1.09,1.085,1.09,1.085,,0.008325624421831749,jcp,20191122
2019-11-22,12:00,12 PM,1.09,1.085,1.085,1100,1194.0,3,1.095,1.08,1.09,76521,83380.85,72,1.085,1.09,1.085,1.09,,0.008325624421831749,jcp,20191122
2019-11-22,12:01,12:01 PM,,,,0,0.0,0,1.095,1.09,1.09,10000,10902.14,11,,,1.095,1.09,,0.008325624421831749,jcp,20191122
2019-11-22,12:02,12:02 PM,,,,0,0.0,0,1.1,1.09,1.093,9070,9912.48,22,,,1.1,1.09,,0.011100832562442193,jcp,20191122
2019-11-22,12:03,12:03 PM,,,,0,0.0,0,1.095,1.09,1.09,3000,3270.82,11,,,1.09,1.09,,0.008325624421831749,jcp,20191122
2019-11-22,12:04,12:04 PM,1.095,1.095,1.095,3000,3285.0,7,1.095,1.09,1.093,24500,26788.5,82,1.095,1.095,1.09,1.09,,0.011100832562442193,jcp,20191122
2019-11-22,12:05,12:05 PM,1.095,1.095,1.095,500,547.5,5,1.1,1.09,1.097,30362,33295.69,98,1.095,1.095,1.09,1.095,,0.014801110083256257,jcp,20191122
2019-11-22,12:06,12:06 PM,,,,0,0.0,0,1.1,1.095,1.095,2000,2191.0,20,,,1.095,1.095,,0.012950971322849225,jcp,20191122
2019-11-22,12:07,12:07 PM,,,,0,0.0,0,1.1,1.09,1.098,7950,8732.5,28,,,1.095,1.095,,0.015726179463459878,jcp,20191122
2019-11-22,12:08,12:08 PM,,,,0,0.0,0,1.1,1.095,1.097,2700,2961.0,23,,,1.095,1.095,,0.014801110083256257,jcp,20191122
2019-11-22,12:09,12:09 PM,1.095,1.095,1.095,200,219.0,2,1.1,1.09,1.095,2700,2957.3,15,1.095,1.095,1.095,1.095,,0.012950971322849225,jcp,20191122
2019-11-22,12:10,12:10 PM,1.095,1.095,1.095,200,219.0,2,1.1,1.09,1.091,108600,118441.3,27,1.095,1.095,1.1,1.095,,0.009250693802035161,jcp,20191122
2019-11-22,12:11,12:11 PM,1.095,1.095,1.095,300,328.5,3,1.1,1.095,1.099,13300,14613.9,21,1.095,1.095,1.1,1.095,,0.01665124884366329,jcp,20191122
2019-11-22,12:12,12:12 PM,1.1,1.1,1.1,700,770.0,2,1.11,1.095,1.1,189441,208472.86,117,1.1,1.1,1.096,1.105,,0.017576318223866908,jcp,20191122
2019-11-22,12:13,12:13 PM,,,,0,0.0,0,1.11,1.105,1.106,4200,4645.3,24,,,1.105,1.105,,0.023126734505088006,jcp,20191122
2019-11-22,12:14,12:14 PM,,,,0,0.0,0,1.11,1.106,1.107,1400,1550.2,4,,,1.11,1.11,,0.02405180388529142,jcp,20191122
2019-11-22,12:15,12:15 PM,1.105,1.105,1.105,500,552.5,3,1.11,1.105,1.106,4000,4423.5,30,1.105,1.105,1.11,1.105,,0.023126734505088006,jcp,20191122
2019-11-22,12:16,12:16 PM,,,,0,0.0,0,1.11,1.105,1.105,7800,8623.0,23,,,1.105,1.105,,0.022201665124884386,jcp,20191122
2019-11-22,12:17,12:17 PM,1.105,1.105,1.105,400,442.0,3,1.11,1.105,1.105,2900,3205.5,19,1.105,1.105,1.105,1.105,,0.022201665124884386,jcp,20191122
2019-11-22,12:18,12:18 PM,1.105,1.105,1.105,500,552.5,3,1.11,1.105,1.105,9700,10721.01,30,1.105,1.105,1.105,1.11,,0.022201665124884386,jcp,20191122
2019-11-22,12:19,12:19 PM,,,,0,0.0,0,1.11,1.105,1.107,1100,1218.0,9,,,1.11,1.11,,0.02405180388529142,jcp,20191122
2019-11-22,12:20,12:20 PM,,,,0,0.0,0,1.11,1.105,1.106,1400,1548.9,3,,,1.11,1.11,,0.023126734505088006,jcp,20191122
2019-11-22,12:21,12:21 PM,,,,0,0.0,0,1.11,1.105,1.106,542,599.41,4,,,1.105,1.105,,0.023126734505088006,jcp,20191122
2019-11-22,12:22,12:22 PM,,,,0,0.0,0,1.11,1.11,1.11,300,333.0,3,,,1.11,1.11,,0.02682701202590207,jcp,20191122
2019-11-22,12:23,12:23 PM,1.105,1.105,1.105,1200,1326.0,2,1.11,1.095,1.1,117769,129561.63,52,1.105,1.105,1.105,1.1,,0.017576318223866908,jcp,20191122
2019-11-22,12:24,12:24 PM,1.095,1.095,1.095,1200,1314.0,2,1.1,1.09,1.098,22727,24954.1,45,1.095,1.095,1.1,1.1,,0.015726179463459878,jcp,20191122
2019-11-22,12:25,12:25 PM,1.095,1.095,1.095,100,109.5,1,1.1,1.095,1.098,4830,5304.16,17,1.095,1.095,1.1,1.1,,0.015726179463459878,jcp,20191122
2019-11-22,12:26,12:26 PM,,,,0,0.0,0,1.1,1.095,1.097,4500,4935.69,15,,,1.1,1.096,,0.014801110083256257,jcp,20191122
2019-11-22,12:27,12:27 PM,1.1,1.1,1.1,100,110.0,1,1.1,1.095,1.1,1600,1759.5,10,1.1,1.1,1.1,1.1,,0.017576318223866908,jcp,20191122
2019-11-22,12:28,12:28 PM,,,,0,0.0,0,1.1,1.09,1.1,6800,7478.62,18,,,1.1,1.1,,0.017576318223866908,jcp,20191122
2019-11-22,12:29,12:29 PM,1.1,1.1,1.1,100,110.0,1,1.1,1.098,1.099,6200,6816.15,14,1.1,1.1,1.1,1.1,,0.01665124884366329,jcp,20191122
2019-11-22,12:30,12:30 PM,,,,0,0.0,0,1.1,1.095,1.1,1800,1979.5,6,,,1.1,1.1,,0.017576318223866908,jcp,20191122
2019-11-22,12:31,12:31 PM,,,,0,0.0,0,1.1,1.1,1.1,2100,2310.0,9,,,1.1,1.1,,0.017576318223866908,jcp,20191122
2019-11-22,12:32,12:32 PM,1.1,1.095,1.095,1700,1862.5,5,1.1,1.095,1.097,5282,5792.51,17,1.1,1.095,1.1,1.1,,0.014801110083256257,jcp,20191122
2019-11-22,12:33,12:33 PM,1.1,1.1,1.1,100,110.0,1,1.1,1.09,1.1,2600,2859.0,11,1.1,1.1,1.1,1.1,,0.017576318223866908,jcp,20191122
2019-11-22,12:34,12:34 PM,,,,0,0.0,0,1.1,1.1,1.1,800,880.0,6,,,1.1,1.1,,0.017576318223866908,jcp,20191122
2019-11-22,12:35,12:35 PM,,,,0,0.0,0,1.1,1.09,1.097,12000,13166.0,15,,,1.1,1.1,,0.014801110083256257,jcp,20191122
2019-11-22,12:36,12:36 PM,,,,0,0.0,0,1.1,1.09,1.1,4400,4839.0,10,,,1.1,1.1,,0.017576318223866908,jcp,20191122
2019-11-22,12:37,12:37 PM,,,,0,0.0,0,1.1,1.099,1.099,2300,2527.6,4,,,1.099,1.1,,0.01665124884366329,jcp,20191122
2019-11-22,12:38,12:38 PM,1.1,1.1,1.1,100,110.0,1,1.1,1.1,1.1,200,220.0,2,1.1,1.1,1.1,1.1,,0.017576318223866908,jcp,20191122
2019-11-22,12:39,12:39 PM,1.095,1.095,1.095,1600,1752.0,4,1.1,1.09,1.097,9500,10417.3,30,1.095,1.095,1.095,1.09,,0.014801110083256257,jcp,20191122
2019-11-22,12:40,12:40 PM,1.095,1.095,1.095,100,109.5,1,1.1,1.095,1.098,300,329.5,3,1.095,1.095,1.1,1.095,,0.015726179463459878,jcp,20191122
2019-11-22,12:41,12:41 PM,,,,0,0.0,0,1.1,1.1,1.1,100,110.0,1,,,1.1,1.1,,0.017576318223866908,jcp,20191122
2019-11-22,12:42,12:42 PM,1.095,1.095,1.095,1200,1314.0,2,1.1,1.095,1.098,3900,4282.0,13,1.095,1.095,1.1,1.095,,0.015726179463459878,jcp,20191122
2019-11-22,12:43,12:43 PM,1.095,1.095,1.095,700,766.5,5,1.1,1.09,1.096,2400,2630.0,15,1.095,1.095,1.09,1.095,,0.013876040703052844,jcp,20191122
2019-11-22,12:44,12:44 PM,,,,0,0.0,0,1.1,1.095,1.098,494,542.4,4,,,1.095,1.1,,0.015726179463459878,jcp,20191122
2019-11-22,12:45,12:45 PM,,,,0,0.0,0,1.1,1.1,1.1,200,220.0,2,,,1.1,1.1,,0.017576318223866908,jcp,20191122
2019-11-22,12:46,12:46 PM,,,,0,0.0,0,1.1,1.09,1.097,1000,1097.0,6,,,1.09,1.1,,0.014801110083256257,jcp,20191122
2019-11-22,12:47,12:47 PM,,,,0,0.0,0,1.1,1.09,1.09,8188,8927.92,21,,,1.1,1.09,,0.008325624421831749,jcp,20191122
2019-11-22,12:48,12:48 PM,,,,0,0.0,0,1.1,1.09,1.09,16200,17659.5,34,,,1.1,1.09,,0.008325624421831749,jcp,20191122
2019-11-22,12:49,12:49 PM,,,,0,0.0,0,1.095,1.09,1.09,68099,74229.91,70,,,1.095,1.09,,0.008325624421831749,jcp,20191122
2019-11-22,12:50,12:50 PM,1.095,1.095,1.095,1500,1642.5,2,1.1,1.095,1.099,18821,20679.6,37,1.095,1.095,1.1,1.1,,0.01665124884366329,jcp,20191122
2019-11-22,12:51,12:51 PM,,,,0,0.0,0,1.1,1.1,1.1,100,110.0,1,,,1.1,1.1,,0.017576318223866908,jcp,20191122
2019-11-22,12:52,12:52 PM,1.095,1.095,1.095,200,219.0,2,1.1,1.09,1.098,4500,4942.25,20,1.095,1.095,1.1,1.095,,0.015726179463459878,jcp,20191122
2019-11-22,12:53,12:53 PM,,,,0,0.0,0,1.1,1.095,1.099,690,758.5,5,,,1.1,1.1,,0.01665124884366329,jcp,20191122
2019-11-22,12:54,12:54 PM,1.1,1.1,1.1,10,11.0,1,1.1,1.096,1.097,4247,4659.7776,11,1.1,1.1,1.096,1.1,,0.014801110083256257,jcp,20191122
2019-11-22,12:55,12:55 PM,1.105,1.1,1.103,690,761.0,4,1.11,1.095,1.101,58092,63942.75,52,1.1,1.105,1.096,1.11,,0.018501387604070323,jcp,20191122
2019-11-22,12:56,12:56 PM,1.105,1.105,1.105,100,110.5,1,1.11,1.104,1.105,4900,5415.8,23,1.105,1.105,1.105,1.105,,0.022201665124884386,jcp,20191122
2019-11-22,12:57,12:57 PM,,,,0,0.0,0,1.11,1.1,1.104,5020,5541.776,22,,,1.105,1.105,,0.021276595744680972,jcp,20191122
2019-11-22,12:58,12:58 PM,1.105,1.105,1.105,100,110.5,1,1.11,1.1,1.105,4200,4642.22,20,1.105,1.105,1.11,1.11,,0.022201665124884386,jcp,20191122
2019-11-22,12:59,12:59 PM,,,,0,0.0,0,1.11,1.104,1.105,3700,4089.0,18,,,1.105,1.11,,0.022201665124884386,jcp,20191122
2019-11-22,13:00,1 PM,,,,0,0.0,0,1.11,1.104,1.105,3700,4088.1,13,,,1.11,1.105,,0.022201665124884386,jcp,20191122
2019-11-22,13:01,1:01 PM,,,,0,0.0,0,1.11,1.104,1.107,6600,7307.2,22,,,1.105,1.11,,0.02405180388529142,jcp,20191122
2019-11-22,13:02,1:02 PM,1.105,1.105,1.105,100,110.5,1,1.11,1.105,1.106,1200,1327.5,11,1.105,1.105,1.105,1.11,,0.023126734505088006,jcp,20191122
2019-11-22,13:03,1:03 PM,1.105,1.105,1.105,200,221.0,2,1.11,1.105,1.105,4900,5416.0,26,1.105,1.105,1.11,1.105,,0.022201665124884386,jcp,20191122
2019-11-22,13:04,1:04 PM,1.105,1.105,1.105,100,110.5,1,1.11,1.105,1.105,4900,5415.5,17,1.105,1.105,1.105,1.11,,0.022201665124884386,jcp,20191122
2019-11-22,13:05,1:05 PM,,,,0,0.0,0,1.11,1.105,1.107,600,664.0,6,,,1.11,1.11,,0.02405180388529142,jcp,20191122
2019-11-22,13:06,1:06 PM,1.105,1.105,1.105,200,221.0,2,1.11,1.104,1.107,30440,33695.392,61,1.105,1.105,1.105,1.105,,0.02405180388529142,jcp,20191122
2019-11-22,13:07,1:07 PM,,,,0,0.0,0,1.11,1.105,1.106,1800,1991.0,18,,,1.105,1.105,,0.023126734505088006,jcp,20191122
2019-11-22,13:08,1:08 PM,,,,0,0.0,0,1.11,1.1,1.105,1600,1768.0,15,,,1.105,1.105,,0.022201665124884386,jcp,20191122
2019-11-22,13:09,1:09 PM,,,,0,0.0,0,1.11,1.105,1.107,16500,18265.0,9,,,1.105,1.11,,0.02405180388529142,jcp,20191122
2019-11-22,13:10,1:10 PM,1.105,1.105,1.105,100,110.5,1,1.11,1.105,1.107,1227,1358.06,9,1.105,1.105,1.105,1.11,,0.02405180388529142,jcp,20191122
2019-11-22,13:11,1:11 PM,,,,0,0.0,0,1.11,1.1,1.104,1502,1658.506,4,,,1.11,1.103,,0.021276595744680972,jcp,20191122
2019-11-22,13:12,1:12 PM,,,,0,0.0,0,1.11,1.1,1.101,25400,27968.0,51,,,1.11,1.1,,0.018501387604070323,jcp,20191122
2019-11-22,13:13,1:13 PM,,,,0,0.0,0,1.11,1.1,1.106,1700,1880.45,8,,,1.1,1.105,,0.023126734505088006,jcp,20191122
2019-11-22,13:14,1:14 PM,1.095,1.095,1.095,1500,1642.5,6,1.1,1.09,1.1,82593,90827.8,107,1.095,1.095,1.1,1.09,,0.017576318223866908,jcp,20191122
2019-11-22,13:15,1:15 PM,1.1,1.1,1.1,200,220.0,1,1.1,1.095,1.098,2655,2916.225,10,1.1,1.1,1.1,1.1,,0.015726179463459878,jcp,20191122
2019-11-22,13:16,1:16 PM,,,,0,0.0,0,1.1,1.098,1.098,1100,1207.8,2,,,1.1,1.098,,0.015726179463459878,jcp,20191122
2019-11-22,13:17,1:17 PM,1.105,1.1,1.103,600,662.0,4,1.11,1.1,1.1,24586,27055.1,40,1.1,1.105,1.1,1.11,,0.017576318223866908,jcp,20191122
2019-11-22,13:18,1:18 PM,,,,0,0.0,0,1.11,1.11,1.11,200,222.0,1,,,1.11,1.11,,0.02682701202590207,jcp,20191122
2019-11-22,13:19,1:19 PM,,,,0,0.0,0,1.11,1.101,1.106,15437,17070.2607,5,,,1.11,1.11,,0.023126734505088006,jcp,20191122
2019-11-22,13:20,1:20 PM,,,,0,0.0,0,1.11,1.105,1.108,5000,5538.0,6,,,1.106,1.11,,0.02497687326549504,jcp,20191122
2019-11-22,13:21,1:21 PM,,,,0,0.0,0,1.11,1.11,1.11,200,222.0,1,,,1.11,1.11,,0.02682701202590207,jcp,20191122
2019-11-22,13:22,1:22 PM,,,,0,0.0,0,1.11,1.104,1.106,7700,8517.0,4,,,1.11,1.104,,0.023126734505088006,jcp,20191122
2019-11-22,13:23,1:23 PM,,,,0,0.0,0,1.11,1.105,1.107,200,221.5,2,,,1.105,1.11,,0.02405180388529142,jcp,20191122
2019-11-22,13:24,1:24 PM,,,,0,0.0,0,1.11,1.105,1.107,650,719.75,4,,,1.11,1.11,,0.02405180388529142,jcp,20191122
2019-11-22,13:25,1:25 PM,,,,0,0.0,0,1.11,1.1,1.106,522,577.2,4,,,1.11,1.11,,0.023126734505088006,jcp,20191122
2019-11-22,13:26,1:26 PM,,,,0,0.0,0,1.11,1.101,1.101,11753,12946.065,8,,,1.11,1.11,,0.018501387604070323,jcp,20191122
2019-11-22,13:27,1:27 PM,,,,0,0.0,0,1.11,1.1,1.104,2900,3201.0,9,,,1.105,1.1,,0.021276595744680972,jcp,20191122
2019-11-22,13:28,1:28 PM,1.105,1.105,1.105,100,110.5,1,1.11,1.1,1.105,4700,5191.72,21,1.105,1.105,1.11,1.105,,0.022201665124884386,jcp,20191122
2019-11-22,13:29,1:29 PM,,,,0,0.0,0,1.11,1.1,1.104,2330,2572.73,12,,,1.1,1.11,,0.021276595744680972,jcp,20191122
2019-11-22,13:30,1:30 PM,,,,0,0.0,0,1.11,1.1,1.107,3000,3321.45,12,,,1.105,1.105,,0.02405180388529142,jcp,20191122
2019-11-22,13:31,1:31 PM,,,,0,0.0,0,1.11,1.1,1.102,2300,2534.5,18,,,1.1,1.1,,0.019426456984273942,jcp,20191122
2019-11-22,13:32,1:32 PM,,,,0,0.0,0,1.11,1.1,1.1,84324,92758.599,37,,,1.1,1.1,,0.017576318223866908,jcp,20191122
2019-11-22,13:33,1:33 PM,,,,0,0.0,0,1.105,1.1,1.1,2600,2861.0,20,,,1.1,1.1,,0.017576318223866908,jcp,20191122
2019-11-22,13:34,1:34 PM,,,,0,0.0,0,1.1,1.1,1.1,1600,1760.0,16,,,1.1,1.1,,0.017576318223866908,jcp,20191122
2019-11-22,13:35,1:35 PM,,,,0,0.0,0,1.105,1.1,1.101,8200,9025.5,14,,,1.1,1.1,,0.018501387604070323,jcp,20191122
2019-11-22,13:36,1:36 PM,,,,0,0.0,0,1.11,1.09,1.1,44500,48943.4,29,,,1.105,1.095,,0.017576318223866908,jcp,20191122
2019-11-22,13:37,1:37 PM,1.09,1.09,1.09,1000,1090.0,2,1.1,1.09,1.091,4700,5126.78,33,1.09,1.09,1.09,1.09,,0.009250693802035161,jcp,20191122
2019-11-22,13:38,1:38 PM,,,,0,0.0,0,1.095,1.09,1.093,4100,4481.5,22,,,1.09,1.09,,0.011100832562442193,jcp,20191122
2019-11-22,13:39,1:39 PM,,,,0,0.0,0,1.095,1.09,1.09,3700,4033.55,27,,,1.09,1.095,,0.008325624421831749,jcp,20191122
2019-11-22,13:40,1:40 PM,,,,0,0.0,0,1.095,1.09,1.09,3900,4252.5,38,,,1.09,1.09,,0.008325624421831749,jcp,20191122
2019-11-22,13:41,1:41 PM,1.095,1.095,1.095,8000,8760.0,14,1.1,1.09,1.098,36600,40180.8,82,1.095,1.095,1.09,1.1,,0.015726179463459878,jcp,20191122
2019-11-22,13:42,1:42 PM,1.1,1.095,1.099,1200,1319.5,6,1.1,1.095,1.1,4900,5389.5,28,1.1,1.1,1.1,1.1,,0.017576318223866908,jcp,20191122
2019-11-22,13:43,1:43 PM,,,,0,0.0,0,1.1,1.095,1.1,56400,62039.0,39,,,1.095,1.1,,0.017576318223866908,jcp,20191122
2019-11-22,13:44,1:44 PM,,,,0,0.0,0,1.105,1.105,1.105,300,331.5,3,,,1.105,1.105,,0.022201665124884386,jcp,20191122
2019-11-22,13:45,1:45 PM,,,,0,0.0,0,1.105,1.1,1.1,3811,4193.1,9,,,1.1,1.1,,0.017576318223866908,jcp,20191122
2019-11-22,13:46,1:46 PM,1.095,1.095,1.095,700,766.5,6,1.105,1.09,1.099,27813,30581.9,35,1.095,1.095,1.105,1.09,,0.01665124884366329,jcp,20191122
2019-11-22,13:47,1:47 PM,,,,0,0.0,0,1.095,1.095,1.095,150,164.25,1,,,1.095,1.095,,0.012950971322849225,jcp,20191122
2019-11-22,13:48,1:48 PM,1.095,1.095,1.095,2300,2518.5,4,1.1,1.095,1.097,16387,17986.2,31,1.095,1.095,1.1,1.1,,0.014801110083256257,jcp,20191122
2019-11-22,13:49,1:49 PM,1.1,1.1,1.1,100,110.0,1,1.1,1.1,1.1,1000,1100.0,7,1.1,1.1,1.1,1.1,,0.017576318223866908,jcp,20191122
2019-11-22,13:50,1:50 PM,1.1,1.1,1.1,100,110.0,1,1.1,1.094,1.099,1325,1456.7625,12,1.1,1.1,1.094,1.1,,0.01665124884366329,jcp,20191122
2019-11-22,13:51,1:51 PM,,,,0,0.0,0,1.1,1.1,1.1,100,110.0,1,,,1.1,1.1,,0.017576318223866908,jcp,20191122
2019-11-22,13:52,1:52 PM,1.095,1.095,1.095,400,438.0,1,1.1,1.095,1.099,1700,1868.0,10,1.095,1.095,1.1,1.1,,0.01665124884366329,jcp,20191122
2019-11-22,13:53,1:53 PM,,,,0,0.0,0,1.1,1.095,1.096,1200,1315.5,9,,,1.1,1.095,,0.013876040703052844,jcp,20191122
2019-11-22,13:54,1:54 PM,1.1,1.095,1.099,1000,1099.0,5,1.11,1.095,1.1,31769,34946.76,52,1.095,1.1,1.1,1.105,,0.017576318223866908,jcp,20191122
2019-11-22,13:55,1:55 PM,,,,0,0.0,0,1.105,1.105,1.105,100,110.5,1,,,1.105,1.105,,0.022201665124884386,jcp,20191122
2019-11-22,13:56,1:56 PM,,,,0,0.0,0,1.105,1.105,1.105,300,331.5,2,,,1.105,1.105,,0.022201665124884386,jcp,20191122
2019-11-22,13:57,1:57 PM,,,,0,0.0,0,1.11,1.1,1.101,10800,11887.0,7,,,1.105,1.1,,0.018501387604070323,jcp,20191122
2019-11-22,13:58,1:58 PM,1.105,1.105,1.105,100,110.5,1,1.11,1.1,1.105,6270,6926.1,18,1.105,1.105,1.11,1.1,,0.022201665124884386,jcp,20191122
2019-11-22,13:59,1:59 PM,,,,0,0.0,0,1.11,1.1,1.101,1700,1871.5,4,,,1.1,1.1,,0.018501387604070323,jcp,20191122
2019-11-22,14:00,2 PM,,,,0,0.0,0,1.11,1.1,1.101,4891,5385.6619,16,,,1.11,1.105,,0.018501387604070323,jcp,20191122
2019-11-22,14:01,2:01 PM,,,,0,0.0,0,1.11,1.1,1.108,12800,14186.5,11,,,1.11,1.1,,0.02497687326549504,jcp,20191122
2019-11-22,14:02,2:02 PM,,,,0,0.0,0,1.11,1.1,1.108,17395,19279.93,20,,,1.1,1.1,,0.02497687326549504,jcp,20191122
2019-11-22,14:03,2:03 PM,,,,0,0.0,0,1.11,1.1,1.107,1600,1771.5,5,,,1.1,1.11,,0.02405180388529142,jcp,20191122
2019-11-22,14:04,2:04 PM,1.095,1.095,1.095,1700,1861.5,2,1.105,1.095,1.1,68020,74811.5,71,1.095,1.095,1.1,1.095,,0.017576318223866908,jcp,20191122
2019-11-22,14:05,2:05 PM,1.1,1.1,1.1,100,110.0,1,1.11,1.09,1.1,56500,62164.5,59,1.1,1.1,1.095,1.11,,0.017576318223866908,jcp,20191122
2019-11-22,14:06,2:06 PM,,,,0,0.0,0,1.11,1.1,1.105,200,221.0,2,,,1.1,1.11,,0.022201665124884386,jcp,20191122
2019-11-22,14:07,2:07 PM,,,,0,0.0,0,1.11,1.1,1.108,600,665.0,5,,,1.11,1.11,,0.02497687326549504,jcp,20191122
2019-11-22,14:08,2:08 PM,,,,0,0.0,0,1.11,1.1,1.108,9700,10745.0,10,,,1.1,1.11,,0.02497687326549504,jcp,20191122
2019-11-22,14:09,2:09 PM,1.105,1.105,1.105,200,221.0,2,1.11,1.104,1.109,12900,14308.3,18,1.105,1.105,1.11,1.105,,0.02590194264569845,jcp,20191122
2019-11-22,14:10,2:10 PM,,,,0,0.0,0,1.11,1.1,1.108,4550,5040.16,5,,,1.11,1.105,,0.02497687326549504,jcp,20191122
2019-11-22,14:11,2:11 PM,,,,0,0.0,0,1.11,1.1,1.103,1600,1764.0,16,,,1.11,1.1,,0.020351526364477356,jcp,20191122
2019-11-22,14:12,2:12 PM,1.1,1.1,1.1,8,8.8,1,1.11,1.1,1.109,80090,88846.4,32,1.1,1.1,1.1,1.105,,0.02590194264569845,jcp,20191122
2019-11-22,14:13,2:13 PM,1.1,1.1,1.1,8,8.8,1,1.107,1.1,1.105,6800,7514.0,18,1.1,1.1,1.1,1.1,,0.022201665124884386,jcp,20191122
2019-11-22,14:14,2:14 PM,,,,0,0.0,0,1.105,1.1,1.1,2000,2200.5,20,,,1.1,1.1,,0.017576318223866908,jcp,20191122
2019-11-22,14:15,2:15 PM,1.105,1.105,1.105,3900,4309.5,11,1.11,1.1,1.108,42500,47090.0,97,1.105,1.105,1.1,1.105,,0.02497687326549504,jcp,20191122
2019-11-22,14:16,2:16 PM,,,,0,0.0,0,1.11,1.1,1.101,5900,6497.0,10,,,1.1,1.11,,0.018501387604070323,jcp,20191122
2019-11-22,14:17,2:17 PM,,,,0,0.0,0,1.11,1.1,1.106,2218,2453.9,6,,,1.11,1.11,,0.023126734505088006,jcp,20191122
2019-11-22,14:18,2:18 PM,,,,0,0.0,0,1.11,1.1,1.105,300,331.5,3,,,1.105,1.11,,0.022201665124884386,jcp,20191122
2019-11-22,14:19,2:19 PM,1.105,1.105,1.105,200,221.0,2,1.11,1.1,1.105,2420,2674.052,14,1.105,1.105,1.1,1.11,,0.022201665124884386,jcp,20191122
2019-11-22,14:20,2:20 PM,,,,0,0.0,0,1.105,1.1,1.103,1060,1169.3,5,,,1.105,1.105,,0.020351526364477356,jcp,20191122
2019-11-22,14:21,2:21 PM,1.11,1.11,1.11,15,16.65,1,1.11,1.1,1.108,600,665.0,5,1.11,1.11,1.11,1.11,,0.02497687326549504,jcp,20191122
2019-11-22,14:22,2:22 PM,,,,0,0.0,0,1.11,1.105,1.109,5600,6210.0774,7,,,1.11,1.11,,0.02590194264569845,jcp,20191122
2019-11-22,14:23,2:23 PM,1.105,1.105,1.105,1700,1878.5,3,1.11,1.102,1.106,11285,12478.47,22,1.105,1.105,1.105,1.105,,0.023126734505088006,jcp,20191122
2019-11-22,14:24,2:24 PM,1.105,1.105,1.105,500,552.5,1,1.11,1.105,1.105,3200,3537.0,12,1.105,1.105,1.105,1.11,,0.022201665124884386,jcp,20191122
2019-11-22,14:25,2:25 PM,,,,0,0.0,0,1.11,1.1,1.105,2200,2432.02,17,,,1.1,1.11,,0.022201665124884386,jcp,20191122
2019-11-22,14:26,2:26 PM,1.11,1.11,1.11,500,555.0,1,1.11,1.1,1.105,3293,3637.6726,10,1.11,1.11,1.11,1.1,,0.022201665124884386,jcp,20191122
2019-11-22,14:27,2:27 PM,,,,0,0.0,0,1.11,1.105,1.106,1225,1354.835,7,,,1.11,1.106,,0.023126734505088006,jcp,20191122
2019-11-22,14:28,2:28 PM,,,,0,0.0,0,1.11,1.1,1.109,11100,12315.52,6,,,1.11,1.11,,0.02590194264569845,jcp,20191122
2019-11-22,14:29,2:29 PM,,,,0,0.0,0,1.11,1.1,1.105,1106,1222.63,10,,,1.1,1.11,,0.022201665124884386,jcp,20191122
2019-11-22,14:30,2:30 PM,,,,0,0.0,0,1.11,1.104,1.105,750,829.07,5,,,1.105,1.105,,0.022201665124884386,jcp,20191122
2019-11-22,14:31,2:31 PM,1.105,1.105,1.105,1800,1989.0,5,1.11,1.104,1.105,10500,11603.6,32,1.105,1.105,1.11,1.105,,0.022201665124884386,jcp,20191122
2019-11-22,14:32,2:32 PM,1.105,1.105,1.105,1900,2099.5,5,1.11,1.1,1.105,7306,8074.13,30,1.105,1.105,1.105,1.11,,0.022201665124884386,jcp,20191122
2019-11-22,14:33,2:33 PM,1.105,1.105,1.105,300,331.5,3,1.11,1.1,1.108,16450,18230.25,13,1.105,1.105,1.109,1.11,,0.02497687326549504,jcp,20191122
2019-11-22,14:34,2:34 PM,1.105,1.105,1.105,400,442.0,3,1.11,1.1,1.103,2200,2427.0,15,1.105,1.105,1.105,1.105,,0.020351526364477356,jcp,20191122
2019-11-22,14:35,2:35 PM,,,,0,0.0,0,1.11,1.105,1.109,500,554.5,3,,,1.11,1.105,,0.02590194264569845,jcp,20191122
2019-11-22,14:36,2:36 PM,1.105,1.105,1.105,100,110.5,1,1.11,1.105,1.106,500,553.0,4,1.105,1.105,1.105,1.105,,0.023126734505088006,jcp,20191122
2019-11-22,14:37,2:37 PM,1.105,1.105,1.105,100,110.5,1,1.105,1.1,1.104,1600,1767.0,12,1.105,1.105,1.105,1.1,,0.021276595744680972,jcp,20191122
2019-11-22,14:38,2:38 PM,1.105,1.105,1.105,100,110.5,1,1.11,1.105,1.105,1600,1768.5,11,1.105,1.105,1.11,1.105,,0.022201665124884386,jcp,20191122
2019-11-22,14:39,2:39 PM,,,,0,0.0,0,1.11,1.105,1.107,1200,1328.795,5,,,1.105,1.105,,0.02405180388529142,jcp,20191122
2019-11-22,14:40,2:40 PM,1.105,1.105,1.105,100,110.5,1,1.11,1.1,1.107,4400,4872.4,15,1.105,1.105,1.105,1.11,,0.02405180388529142,jcp,20191122
2019-11-22,14:41,2:41 PM,1.105,1.105,1.105,100,110.5,1,1.11,1.105,1.106,1500,1659.0,6,1.105,1.105,1.105,1.105,,0.023126734505088006,jcp,20191122
2019-11-22,14:42,2:42 PM,1.105,1.105,1.105,100,110.5,1,1.11,1.1,1.103,1200,1324.0,12,1.105,1.105,1.105,1.1,,0.020351526364477356,jcp,20191122
2019-11-22,14:43,2:43 PM,1.105,1.105,1.105,100,110.5,1,1.11,1.1,1.102,4400,4847.08,35,1.105,1.105,1.1,1.104,,0.019426456984273942,jcp,20191122
2019-11-22,14:44,2:44 PM,1.1,1.1,1.1,9,9.9,1,1.11,1.1,1.1,6200,6822.5,32,1.1,1.1,1.1,1.1,,0.017576318223866908,jcp,20191122
2019-11-22,14:45,2:45 PM,1.105,1.1,1.103,200,220.5,2,1.105,1.1,1.101,3172,3493.2136,30,1.105,1.1,1.105,1.1,,0.018501387604070323,jcp,20191122
2019-11-22,14:46,2:46 PM,1.105,1.105,1.105,100,110.5,1,1.11,1.1,1.103,6760,7456.962,29,1.105,1.105,1.1,1.1,,0.020351526364477356,jcp,20191122
2019-11-22,14:47,2:47 PM,1.105,1.105,1.105,100,110.5,1,1.105,1.1,1.101,2900,3191.7,20,1.105,1.105,1.1,1.1,,0.018501387604070323,jcp,20191122
2019-11-22,14:48,2:48 PM,1.105,1.105,1.105,200,221.0,2,1.105,1.1,1.102,3119,3438.495,28,1.105,1.105,1.1,1.1,,0.019426456984273942,jcp,20191122
2019-11-22,14:49,2:49 PM,1.105,1.105,1.105,100,110.5,1,1.105,1.1,1.1,3000,3301.14,24,1.105,1.105,1.1,1.1,,0.017576318223866908,jcp,20191122
2019-11-22,14:50,2:50 PM,1.105,1.105,1.105,100,110.5,1,1.11,1.1,1.102,2300,2534.83,20,1.105,1.105,1.105,1.1,,0.019426456984273942,jcp,20191122
2019-11-22,14:51,2:51 PM,1.105,1.105,1.105,100,110.5,1,1.105,1.1,1.102,4100,4518.54,19,1.105,1.105,1.1,1.1,,0.019426456984273942,jcp,20191122
2019-11-22,14:52,2:52 PM,1.105,1.105,1.105,100,110.5,1,1.11,1.1,1.105,5225,5775.77,25,1.105,1.105,1.1,1.1,,0.022201665124884386,jcp,20191122
2019-11-22,14:53,2:53 PM,,,,0,0.0,0,1.105,1.1,1.102,3454,3806.6208,22,,,1.1,1.105,,0.019426456984273942,jcp,20191122
2019-11-22,14:54,2:54 PM,1.105,1.105,1.105,100,110.5,1,1.105,1.1,1.101,1800,1981.0,18,1.105,1.105,1.1,1.1,,0.018501387604070323,jcp,20191122
2019-11-22,14:55,2:55 PM,1.105,1.105,1.105,100,110.5,1,1.105,1.1,1.103,2200,2426.0,14,1.105,1.105,1.105,1.1,,0.020351526364477356,jcp,20191122
2019-11-22,14:56,2:56 PM,1.105,1.105,1.105,100,110.5,1,1.105,1.1,1.103,6300,6946.99,28,1.105,1.105,1.1,1.1,,0.020351526364477356,jcp,20191122
2019-11-22,14:57,2:57 PM,1.105,1.105,1.105,200,221.0,2,1.106,1.1,1.102,3708,4087.4156,34,1.105,1.105,1.1,1.105,,0.019426456984273942,jcp,20191122
2019-11-22,14:58,2:58 PM,,,,0,0.0,0,1.105,1.1,1.101,2219,2442.995,20,,,1.105,1.1,,0.018501387604070323,jcp,20191122
2019-11-22,14:59,2:59 PM,1.105,1.1,1.103,200,220.5,2,1.11,1.1,1.101,3739,4116.9,25,1.105,1.1,1.1,1.1,,0.018501387604070323,jcp,20191122
2019-11-22,15:00,3 PM,,,,0,0.0,0,1.105,1.1,1.103,4500,4963.0,28,,,1.1,1.1,,0.020351526364477356,jcp,20191122
2019-11-22,15:01,3:01 PM,,,,0,0.0,0,1.11,1.1,1.108,12400,13741.0,20,,,1.1,1.1,,0.02497687326549504,jcp,20191122
2019-11-22,15:02,3:02 PM,,,,0,0.0,0,1.105,1.1,1.101,2100,2311.5,19,,,1.1,1.1,,0.018501387604070323,jcp,20191122
2019-11-22,15:03,3:03 PM,1.105,1.105,1.105,5000,5525.0,8,1.11,1.1,1.106,73000,80740.5,165,1.105,1.105,1.1,1.105,,0.023126734505088006,jcp,20191122
2019-11-22,15:04,3:04 PM,1.105,1.105,1.105,1600,1768.0,3,1.11,1.1,1.103,36144,39851.9,49,1.105,1.105,1.11,1.105,,0.020351526364477356,jcp,20191122
2019-11-22,15:05,3:05 PM,,,,0,0.0,0,1.11,1.105,1.106,1900,2101.0,18,,,1.11,1.105,,0.023126734505088006,jcp,20191122
2019-11-22,15:06,3:06 PM,,,,0,0.0,0,1.11,1.105,1.108,4800,5318.0,39,,,1.105,1.105,,0.02497687326549504,jcp,20191122
2019-11-22,15:07,3:07 PM,,,,0,0.0,0,1.11,1.105,1.106,2200,2434.0,21,,,1.105,1.105,,0.023126734505088006,jcp,20191122
2019-11-22,15:08,3:08 PM,,,,0,0.0,0,1.11,1.105,1.107,2600,2877.5,21,,,1.105,1.105,,0.02405180388529142,jcp,20191122
2019-11-22,15:09,3:09 PM,,,,0,0.0,0,1.11,1.105,1.106,8492,9392.9504,21,,,1.106,1.105,,0.023126734505088006,jcp,20191122
2019-11-22,15:10,3:10 PM,,,,0,0.0,0,1.11,1.1,1.102,20000,22042.25,43,,,1.105,1.105,,0.019426456984273942,jcp,20191122
2019-11-22,15:11,3:11 PM,,,,0,0.0,0,1.11,1.105,1.108,8200,9087.5,28,,,1.11,1.11,,0.02497687326549504,jcp,20191122
2019-11-22,15:12,3:12 PM,,,,0,0.0,0,1.11,1.105,1.107,2600,2877.0,25,,,1.105,1.105,,0.02405180388529142,jcp,20191122
2019-11-22,15:13,3:13 PM,1.105,1.105,1.105,4800,5304.0,3,1.11,1.1,1.103,101100,111546.25,108,1.105,1.105,1.105,1.105,,0.020351526364477356,jcp,20191122
2019-11-22,15:14,3:14 PM,,,,0,0.0,0,1.11,1.105,1.106,2300,2543.5,19,,,1.105,1.105,,0.023126734505088006,jcp,20191122
2019-11-22,15:15,3:15 PM,,,,0,0.0,0,1.11,1.1,1.103,19200,21187.0,33,,,1.105,1.105,,0.020351526364477356,jcp,20191122
2019-11-22,15:16,3:16 PM,,,,0,0.0,0,1.11,1.105,1.107,3800,4205.49,27,,,1.105,1.105,,0.02405180388529142,jcp,20191122
2019-11-22,15:17,3:17 PM,,,,0,0.0,0,1.11,1.103,1.106,11540,12765.29,27,,,1.105,1.105,,0.023126734505088006,jcp,20191122
2019-11-22,15:18,3:18 PM,,,,0,0.0,0,1.11,1.104,1.105,3549,3922.045,22,,,1.104,1.105,,0.022201665124884386,jcp,20191122
2019-11-22,15:19,3:19 PM,1.11,1.11,1.11,400,444.0,1,1.11,1.105,1.109,15240,16899.164,48,1.11,1.11,1.105,1.105,,0.02590194264569845,jcp,20191122
2019-11-22,15:20,3:20 PM,,,,0,0.0,0,1.11,1.105,1.105,7900,8734.0,28,,,1.105,1.11,,0.022201665124884386,jcp,20191122
2019-11-22,15:21,3:21 PM,,,,0,0.0,0,1.11,1.104,1.105,4400,4863.74,29,,,1.105,1.105,,0.022201665124884386,jcp,20191122
2019-11-22,15:22,3:22 PM,1.11,1.11,1.11,100,111.0,1,1.11,1.105,1.108,6769,7502.245,39,1.11,1.11,1.105,1.11,,0.02497687326549504,jcp,20191122
2019-11-22,15:23,3:23 PM,,,,0,0.0,0,1.11,1.1,1.105,12000,13266.78,32,,,1.105,1.11,,0.022201665124884386,jcp,20191122
2019-11-22,15:24,3:24 PM,1.105,1.105,1.105,100,110.5,1,1.11,1.105,1.106,2600,2875.5,25,1.105,1.105,1.105,1.11,,0.023126734505088006,jcp,20191122
2019-11-22,15:25,3:25 PM,,,,0,0.0,0,1.11,1.105,1.107,4400,4868.8,26,,,1.105,1.105,,0.02405180388529142,jcp,20191122
2019-11-22,15:26,3:26 PM,,,,0,0.0,0,1.11,1.102,1.106,3900,4312.73,37,,,1.105,1.105,,0.023126734505088006,jcp,20191122
2019-11-22,15:27,3:27 PM,,,,0,0.0,0,1.11,1.1,1.104,11958,13206.79,58,,,1.105,1.105,,0.021276595744680972,jcp,20191122
2019-11-22,15:28,3:28 PM,,,,0,0.0,0,1.11,1.105,1.108,17700,19605.8,45,,,1.105,1.105,,0.02497687326549504,jcp,20191122
2019-11-22,15:29,3:29 PM,,,,0,0.0,0,1.11,1.104,1.106,4300,4756.2,25,,,1.105,1.105,,0.023126734505088006,jcp,20191122
2019-11-22,15:30,3:30 PM,,,,0,0.0,0,1.11,1.105,1.109,13300,14750.0,33,,,1.105,1.105,,0.02590194264569845,jcp,20191122
2019-11-22,15:31,3:31 PM,,,,0,0.0,0,1.11,1.105,1.105,12800,14146.0,30,,,1.11,1.105,,0.022201665124884386,jcp,20191122
2019-11-22,15:32,3:32 PM,1.11,1.11,1.11,100,111.0,1,1.11,1.1,1.107,28972,32081.46,58,1.11,1.11,1.11,1.105,,0.02405180388529142,jcp,20191122
2019-11-22,15:33,3:33 PM,,,,0,0.0,0,1.11,1.105,1.106,7800,8626.5,32,,,1.105,1.105,,0.023126734505088006,jcp,20191122
2019-11-22,15:34,3:34 PM,1.105,1.105,1.105,100,110.5,1,1.11,1.101,1.103,6265,6909.398,27,1.105,1.105,1.105,1.105,,0.020351526364477356,jcp,20191122
2019-11-22,15:35,3:35 PM,1.105,1.105,1.105,1,1.105,1,1.11,1.105,1.107,7300,8079.5,38,1.105,1.105,1.11,1.105,,0.02405180388529142,jcp,20191122
2019-11-22,15:36,3:36 PM,,,,0,0.0,0,1.11,1.101,1.104,10895,12029.875,39,,,1.105,1.105,,0.021276595744680972,jcp,20191122
2019-11-22,15:37,3:37 PM,,,,0,0.0,0,1.11,1.105,1.108,12511,13860.56,45,,,1.105,1.11,,0.02497687326549504,jcp,20191122
2019-11-22,15:38,3:38 PM,,,,0,0.0,0,1.11,1.105,1.105,11557,12771.485,35,,,1.105,1.105,,0.022201665124884386,jcp,20191122
2019-11-22,15:39,3:39 PM,,,,0,0.0,0,1.11,1.105,1.106,4300,4755.5,36,,,1.105,1.105,,0.023126734505088006,jcp,20191122
2019-11-22,15:40,3:40 PM,,,,0,0.0,0,1.11,1.105,1.107,5800,6423.0,53,,,1.105,1.105,,0.02405180388529142,jcp,20191122
2019-11-22,15:41,3:41 PM,,,,0,0.0,0,1.11,1.105,1.107,5600,6200.5,43,,,1.105,1.105,,0.02405180388529142,jcp,20191122
2019-11-22,15:42,3:42 PM,1.105,1.105,1.105,100,110.5,1,1.11,1.1,1.106,4810,5318.57,38,1.105,1.105,1.105,1.105,,0.023126734505088006,jcp,20191122
2019-11-22,15:43,3:43 PM,,,,0,0.0,0,1.11,1.1,1.106,41321,45718.01,76,,,1.105,1.105,,0.023126734505088006,jcp,20191122
2019-11-22,15:44,3:44 PM,,,,0,0.0,0,1.11,1.103,1.105,21864,24157.9344,61,,,1.105,1.105,,0.022201665124884386,jcp,20191122
2019-11-22,15:45,3:45 PM,,,,0,0.0,0,1.11,1.1,1.108,24515,27157.5016,70,,,1.105,1.11,,0.02497687326549504,jcp,20191122
2019-11-22,15:46,3:46 PM,,,,0,0.0,0,1.11,1.1,1.105,12900,14248.5,53,,,1.105,1.105,,0.022201665124884386,jcp,20191122
2019-11-22,15:47,3:47 PM,1.11,1.11,1.11,84,93.24,2,1.11,1.1,1.107,13933,15429.58,69,1.11,1.11,1.105,1.105,,0.02405180388529142,jcp,20191122
2019-11-22,15:48,3:48 PM,,,,0,0.0,0,1.11,1.1,1.103,14211,15678.475,57,,,1.105,1.105,,0.020351526364477356,jcp,20191122
2019-11-22,15:49,3:49 PM,,,,0,0.0,0,1.11,1.1,1.105,16922,18700.5775,62,,,1.105,1.105,,0.022201665124884386,jcp,20191122
2019-11-22,15:50,3:50 PM,1.105,1.105,1.105,128,141.44,4,1.11,1.1,1.106,12062,13340.01,74,1.105,1.105,1.105,1.105,,0.023126734505088006,jcp,20191122
2019-11-22,15:51,3:51 PM,,,,0,0.0,0,1.11,1.1,1.107,8100,8966.5,60,,,1.105,1.105,,0.02405180388529142,jcp,20191122
2019-11-22,15:52,3:52 PM,,,,0,0.0,0,1.11,1.105,1.107,12307,13631.035,68,,,1.105,1.105,,0.02405180388529142,jcp,20191122
2019-11-22,15:53,3:53 PM,,,,0,0.0,0,1.11,1.101,1.106,19802,21909.22,65,,,1.105,1.11,,0.023126734505088006,jcp,20191122
2019-11-22,15:54,3:54 PM,,,,0,0.0,0,1.11,1.104,1.106,8940,9891.26,68,,,1.105,1.11,,0.023126734505088006,jcp,20191122
2019-11-22,15:55,3:55 PM,,,,0,0.0,0,1.11,1.1,1.104,19000,20982.01,111,,,1.105,1.105,,0.021276595744680972,jcp,20191122
2019-11-22,15:56,3:56 PM,1.105,1.105,1.105,600,663.0,2,1.11,1.105,1.107,17388,19248.68,121,1.105,1.105,1.105,1.105,,0.02405180388529142,jcp,20191122
2019-11-22,15:57,3:57 PM,,,,0,0.0,0,1.11,1.105,1.107,14250,15771.0,104,,,1.11,1.11,,0.02405180388529142,jcp,20191122
2019-11-22,15:58,3:58 PM,1.115,1.105,1.115,2867,3195.725,10,1.12,1.105,1.11,396558,440361.11,227,1.105,1.115,1.105,1.115,,0.02682701202590207,jcp,20191122
2019-11-22,15:59,3:59 PM,1.115,1.11,1.111,7781,8644.235,14,1.12,1.1,1.11,374579,415912.0994,386,1.115,1.11,1.115,1.11,,0.02682701202590207,jcp,20191122
