date,minute,label,high,low,average,volume,notional,numberOfTrades,marketHigh,marketLow,marketAverage,marketVolume,marketNotional,marketNumberOfTrades,open,close,marketOpen,marketClose,changeOverTime,marketChangeOverTime,tickerName,tickerDate
2019-12-04,09:30,09:30 AM,,,,0,0.0,0,1.14,1.12,1.131,106345,120287.1,38,,,1.12,1.14,,0.0,jcp,20191204
2019-12-04,09:31,09:31 AM,,,,0,0.0,0,1.15,1.13,1.139,28715,32715.0,47,,,1.14,1.13,,0.007073386383731218,jcp,20191204
2019-12-04,09:32,09:32 AM,,,,0,0.0,0,1.14,1.13,1.133,902,1022.31,5,,,1.14,1.13,,0.0017683465959328045,jcp,20191204
2019-12-04,09:33,09:33 AM,1.14,1.14,1.14,100,114.0,1,1.14,1.132,1.14,8799,10029.7,8,1.14,1.14,1.14,1.14,,0.00795755968169752,jcp,20191204
2019-12-04,09:34,09:34 AM,1.14,1.14,1.14,100,114.0,1,1.14,1.13,1.134,2200,2494.5,7,1.14,1.14,1.14,1.13,,0.0026525198938991083,jcp,20191204
2019-12-04,09:35,09:35 AM,,,,0,0.0,0,1.14,1.14,1.14,1988,2266.32,3,,,1.14,1.14,,0.00795755968169752,jcp,20191204
2019-12-04,09:36,09:36 AM,,,,0,0.0,0,1.15,1.134,1.14,155327,177057.48,40,,,1.14,1.14,,0.00795755968169752,jcp,20191204
2019-12-04,09:37,09:37 AM,1.155,1.155,1.155,100,115.5,1,1.155,1.145,1.15,224372,258028.8527,75,1.155,1.155,1.145,1.153,,0.016799292661361542,jcp,20191204
2019-12-04,09:38,09:38 AM,1.145,1.145,1.145,100,114.5,1,1.15,1.14,1.15,115455,132762.957,66,1.145,1.145,1.15,1.15,,0.016799292661361542,jcp,20191204
2019-12-04,09:39,09:39 AM,,,,0,0.0,0,1.15,1.14,1.145,1500,1717.0,6,,,1.145,1.145,,0.01237842617152963,jcp,20191204
2019-12-04,09:40,09:40 AM,,,,0,0.0,0,1.15,1.14,1.148,15674,17988.63,15,,,1.145,1.145,,0.015030946065428739,jcp,20191204
2019-12-04,09:41,09:41 AM,,,,0,0.0,0,1.15,1.14,1.144,2300,2631.37,12,,,1.145,1.15,,0.01149425287356313,jcp,20191204
2019-12-04,09:42,09:42 AM,,,,0,0.0,0,1.145,1.144,1.145,600,686.88,5,,,1.145,1.145,,0.01237842617152963,jcp,20191204
2019-12-04,09:43,09:43 AM,,,,0,0.0,0,1.145,1.14,1.143,2435,2783.7885,6,,,1.14,1.145,,0.010610079575596827,jcp,20191204
2019-12-04,09:44,09:44 AM,,,,0,0.0,0,1.145,1.14,1.141,666,760.03,5,,,1.14,1.145,,0.008841732979664021,jcp,20191204
2019-12-04,09:45,09:45 AM,1.145,1.145,1.145,1700,1946.5,7,1.15,1.145,1.147,9439,10826.5547,38,1.145,1.145,1.145,1.145,,0.014146772767462436,jcp,20191204
2019-12-04,09:46,09:46 AM,1.145,1.145,1.145,29100,33319.5,22,1.15,1.14,1.144,45745,52354.95,54,1.145,1.145,1.15,1.145,,0.01149425287356313,jcp,20191204
2019-12-04,09:47,09:47 AM,1.145,1.145,1.145,8600,9847.0,14,1.15,1.145,1.147,18175,20838.875,43,1.145,1.145,1.15,1.15,,0.014146772767462436,jcp,20191204
2019-12-04,09:48,09:48 AM,1.145,1.145,1.145,3300,3778.5,10,1.15,1.144,1.147,10183,11677.835,38,1.145,1.145,1.15,1.145,,0.014146772767462436,jcp,20191204
2019-12-04,09:49,09:49 AM,1.145,1.145,1.145,1650,1889.25,5,1.15,1.143,1.145,13500,15463.95,32,1.145,1.145,1.145,1.15,,0.01237842617152963,jcp,20191204
2019-12-04,09:50,09:50 AM,1.145,1.145,1.145,5850,6698.25,14,1.15,1.145,1.149,42400,48725.625,31,1.145,1.145,1.15,1.15,,0.01591511936339524,jcp,20191204
2019-12-04,09:51,09:51 AM,,,,0,0.0,0,1.15,1.14,1.148,2740,3146.16,16,,,1.144,1.15,,0.015030946065428739,jcp,20191204
2019-12-04,09:52,09:52 AM,,,,0,0.0,0,1.15,1.145,1.15,5800,6667.8,13,,,1.145,1.15,,0.016799292661361542,jcp,20191204
2019-12-04,09:53,09:53 AM,,,,0,0.0,0,1.15,1.146,1.149,3268,3755.7,11,,,1.15,1.15,,0.01591511936339524,jcp,20191204
2019-12-04,09:54,09:54 AM,1.145,1.145,1.145,700,801.5,4,1.15,1.145,1.149,19366,22259.4,39,1.145,1.145,1.15,1.15,,0.01591511936339524,jcp,20191204
2019-12-04,09:55,09:55 AM,,,,0,0.0,0,1.15,1.15,1.15,3703,4258.45,11,,,1.15,1.15,,0.016799292661361542,jcp,20191204
2019-12-04,09:56,09:56 AM,,,,0,0.0,0,1.15,1.15,1.15,15274,17565.1,18,,,1.15,1.15,,0.016799292661361542,jcp,20191204
2019-12-04,09:57,09:57 AM,1.15,1.15,1.15,500,575.0,5,1.15,1.145,1.149,3900,4480.1,16,1.15,1.15,1.15,1.15,,0.01591511936339524,jcp,20191204
2019-12-04,09:58,09:58 AM,1.15,1.15,1.15,100,115.0,1,1.15,1.144,1.149,14143,16256.5,23,1.15,1.15,1.15,1.15,,0.01591511936339524,jcp,20191204
2019-12-04,09:59,09:59 AM,,,,0,0.0,0,1.15,1.14,1.149,8127,9340.3673,22,,,1.15,1.15,,0.01591511936339524,jcp,20191204
2019-12-04,10:00,10 AM,,,,0,0.0,0,1.15,1.14,1.143,8424,9630.2132,15,,,1.15,1.15,,0.010610079575596827,jcp,20191204
2019-12-04,10:01,10:01 AM,,,,0,0.0,0,1.15,1.143,1.146,4137,4742.328,12,,,1.15,1.15,,0.013262599469495935,jcp,20191204
2019-12-04,10:02,10:02 AM,,,,0,0.0,0,1.15,1.14,1.145,7959,9109.345,16,,,1.15,1.15,,0.01237842617152963,jcp,20191204
2019-12-04,10:03,10:03 AM,,,,0,0.0,0,1.15,1.145,1.147,4563,5233.4402,15,,,1.15,1.15,,0.014146772767462436,jcp,20191204
2019-12-04,10:04,10:04 AM,1.145,1.145,1.145,100,114.5,1,1.15,1.145,1.149,3000,3447.48,19,1.145,1.145,1.15,1.145,,0.01591511936339524,jcp,20191204
2019-12-04,10:05,10:05 AM,,,,0,0.0,0,1.15,1.14,1.146,5634,6455.3188,23,,,1.15,1.142,,0.013262599469495935,jcp,20191204
2019-12-04,10:06,10:06 AM,,,,0,0.0,0,1.15,1.14,1.149,8550,9826.8725,17,,,1.15,1.15,,0.01591511936339524,jcp,20191204
2019-12-04,10:07,10:07 AM,1.15,1.15,1.15,100,115.0,1,1.15,1.145,1.149,2283,2623.903,14,1.15,1.15,1.15,1.15,,0.01591511936339524,jcp,20191204
2019-12-04,10:08,10:08 AM,1.145,1.145,1.145,100,114.5,1,1.15,1.145,1.149,1300,1494.0,12,1.145,1.145,1.145,1.15,,0.01591511936339524,jcp,20191204
2019-12-04,10:09,10:09 AM,1.15,1.15,1.15,100,115.0,1,1.15,1.145,1.15,1750,2012.0,14,1.15,1.15,1.15,1.15,,0.016799292661361542,jcp,20191204
2019-12-04,10:10,10:10 AM,,,,0,0.0,0,1.15,1.14,1.146,6850,7847.67,20,,,1.15,1.145,,0.013262599469495935,jcp,20191204
2019-12-04,10:11,10:11 AM,1.15,1.15,1.15,100,115.0,1,1.15,1.145,1.149,2100,2414.0,15,1.15,1.15,1.15,1.15,,0.01591511936339524,jcp,20191204
2019-12-04,10:12,10:12 AM,1.15,1.145,1.147,200,229.5,2,1.15,1.141,1.143,6240,7135.75,16,1.145,1.15,1.15,1.15,,0.010610079575596827,jcp,20191204
2019-12-04,10:13,10:13 AM,,,,0,0.0,0,1.15,1.145,1.15,1900,2184.5,14,,,1.15,1.15,,0.016799292661361542,jcp,20191204
2019-12-04,10:14,10:14 AM,1.15,1.15,1.15,100,115.0,1,1.15,1.145,1.15,16653,19144.4764,26,1.15,1.15,1.15,1.15,,0.016799292661361542,jcp,20191204
2019-12-04,10:15,10:15 AM,1.15,1.15,1.15,2100,2415.0,9,1.15,1.14,1.149,12094,13895.93,36,1.15,1.15,1.15,1.15,,0.01591511936339524,jcp,20191204
2019-12-04,10:16,10:16 AM,1.15,1.15,1.15,400,460.0,3,1.15,1.145,1.149,1800,2069.0,13,1.15,1.15,1.15,1.15,,0.01591511936339524,jcp,20191204
2019-12-04,10:17,10:17 AM,,,,0,0.0,0,1.15,1.143,1.149,18130,20823.456,21,,,1.15,1.15,,0.01591511936339524,jcp,20191204
2019-12-04,10:18,10:18 AM,1.145,1.145,1.145,100,114.5,1,1.15,1.145,1.15,42400,48759.08,19,1.145,1.145,1.15,1.15,,0.016799292661361542,jcp,20191204
2019-12-04,10:19,10:19 AM,,,,0,0.0,0,1.15,1.145,1.15,15193,17465.95,31,,,1.15,1.15,,0.016799292661361542,jcp,20191204
2019-12-04,10:20,10:20 AM,,,,0,0.0,0,1.15,1.149,1.15,5494,6317.4503,21,,,1.15,1.15,,0.016799292661361542,jcp,20191204
2019-12-04,10:21,10:21 AM,,,,0,0.0,0,1.15,1.147,1.149,4375,5028.25,19,,,1.15,1.15,,0.01591511936339524,jcp,20191204
2019-12-04,10:22,10:22 AM,,,,0,0.0,0,1.15,1.144,1.149,5012,5757.53,18,,,1.15,1.15,,0.01591511936339524,jcp,20191204
2019-12-04,10:23,10:23 AM,,,,0,0.0,0,1.15,1.145,1.15,16071,18477.1999,33,,,1.15,1.145,,0.016799292661361542,jcp,20191204
2019-12-04,10:24,10:24 AM,1.155,1.155,1.155,1000,1155.0,2,1.16,1.145,1.15,61228,70423.7,52,1.155,1.155,1.15,1.155,,0.016799292661361542,jcp,20191204
2019-12-04,10:25,10:25 AM,1.155,1.155,1.155,800,924.0,2,1.16,1.15,1.154,11500,13270.46,25,1.155,1.155,1.16,1.155,,0.020335985853227153,jcp,20191204
2019-12-04,10:26,10:26 AM,1.155,1.155,1.155,200,231.0,1,1.16,1.151,1.158,18557,21498.2152,31,1.155,1.155,1.155,1.16,,0.02387267904509276,jcp,20191204
2019-12-04,10:27,10:27 AM,1.155,1.155,1.155,500,577.5,2,1.16,1.15,1.155,17817,20576.2601,35,1.155,1.155,1.16,1.16,,0.021220159151193654,jcp,20191204
2019-12-04,10:28,10:28 AM,,,,0,0.0,0,1.16,1.15,1.151,80262,92344.69,36,,,1.152,1.153,,0.017683465959328043,jcp,20191204
2019-12-04,10:29,10:29 AM,,,,0,0.0,0,1.16,1.15,1.156,8631,9975.2,15,,,1.155,1.155,,0.022104332449159957,jcp,20191204
2019-12-04,10:30,10:30 AM,1.155,1.155,1.155,100,115.5,1,1.16,1.155,1.157,1200,1389.0,7,1.155,1.155,1.155,1.155,,0.022988505747126457,jcp,20191204
2019-12-04,10:31,10:31 AM,,,,0,0.0,0,1.16,1.155,1.159,769,891.54,5,,,1.16,1.16,,0.02475685234305926,jcp,20191204
2019-12-04,10:32,10:32 AM,1.155,1.155,1.155,100,115.5,1,1.16,1.15,1.156,2400,2775.15,9,1.155,1.155,1.16,1.155,,0.022104332449159957,jcp,20191204
2019-12-04,10:33,10:33 AM,1.16,1.16,1.16,746,865.36,8,1.16,1.15,1.157,7546,8730.66,18,1.16,1.16,1.16,1.16,,0.022988505747126457,jcp,20191204
2019-12-04,10:34,10:34 AM,1.155,1.155,1.155,100,115.5,1,1.16,1.15,1.153,16499,19025.85,25,1.155,1.155,1.157,1.16,,0.019451812555260847,jcp,20191204
2019-12-04,10:35,10:35 AM,,,,0,0.0,0,1.16,1.15,1.157,1900,2198.5,13,,,1.16,1.16,,0.022988505747126457,jcp,20191204
2019-12-04,10:36,10:36 AM,1.155,1.155,1.155,100,115.5,1,1.16,1.15,1.155,9936,11472.67,18,1.155,1.155,1.16,1.16,,0.021220159151193654,jcp,20191204
2019-12-04,10:37,10:37 AM,1.16,1.16,1.16,12,13.92,1,1.16,1.155,1.158,5300,6138.5,23,1.16,1.16,1.16,1.155,,0.02387267904509276,jcp,20191204
2019-12-04,10:38,10:38 AM,,,,0,0.0,0,1.16,1.15,1.152,13500,15552.43,19,,,1.16,1.16,,0.01856763925729435,jcp,20191204
2019-12-04,10:39,10:39 AM,1.155,1.155,1.155,100,115.5,1,1.16,1.15,1.157,2034,2354.045,19,1.155,1.155,1.155,1.155,,0.022988505747126457,jcp,20191204
2019-12-04,10:40,10:40 AM,1.155,1.155,1.155,100,115.5,1,1.16,1.15,1.153,7595,8753.325,17,1.155,1.155,1.155,1.16,,0.019451812555260847,jcp,20191204
2019-12-04,10:41,10:41 AM,1.155,1.155,1.155,100,115.5,1,1.16,1.155,1.158,3750,4342.73,28,1.155,1.155,1.16,1.16,,0.02387267904509276,jcp,20191204
2019-12-04,10:42,10:42 AM,,,,0,0.0,0,1.16,1.153,1.155,5500,6354.7,21,,,1.16,1.16,,0.021220159151193654,jcp,20191204
2019-12-04,10:43,10:43 AM,1.155,1.155,1.155,100,115.5,1,1.16,1.155,1.158,2900,3357.5,19,1.155,1.155,1.16,1.16,,0.02387267904509276,jcp,20191204
2019-12-04,10:44,10:44 AM,,,,0,0.0,0,1.16,1.15,1.16,47159,54700.3025,23,,,1.155,1.16,,0.025641025641025564,jcp,20191204
2019-12-04,10:45,10:45 AM,1.155,1.155,1.155,100,115.5,1,1.16,1.15,1.158,8556,9908.36,18,1.155,1.155,1.157,1.16,,0.02387267904509276,jcp,20191204
2019-12-04,10:46,10:46 AM,,,,0,0.0,0,1.16,1.15,1.153,3390,3910.14,10,,,1.16,1.155,,0.019451812555260847,jcp,20191204
2019-12-04,10:47,10:47 AM,,,,0,0.0,0,1.16,1.155,1.16,22350,25917.245,17,,,1.155,1.155,,0.025641025641025564,jcp,20191204
2019-12-04,10:48,10:48 AM,1.155,1.155,1.155,1200,1386.0,3,1.16,1.155,1.155,5640,6516.74,26,1.155,1.155,1.155,1.155,,0.021220159151193654,jcp,20191204
2019-12-04,10:49,10:49 AM,,,,0,0.0,0,1.16,1.155,1.157,2600,3009.0,17,,,1.16,1.155,,0.022988505747126457,jcp,20191204
2019-12-04,10:50,10:50 AM,1.155,1.155,1.155,500,577.5,2,1.157,1.15,1.155,3600,4157.1,14,1.155,1.155,1.155,1.155,,0.021220159151193654,jcp,20191204
2019-12-04,10:51,10:51 AM,1.15,1.145,1.149,1000,1149.5,4,1.16,1.14,1.15,273197,314164.0976,149,1.15,1.145,1.16,1.145,,0.016799292661361542,jcp,20191204
2019-12-04,10:52,10:52 AM,,,,0,0.0,0,1.15,1.14,1.146,3120,3576.75,15,,,1.145,1.145,,0.013262599469495935,jcp,20191204
2019-12-04,10:53,10:53 AM,1.145,1.145,1.145,400,458.0,2,1.15,1.14,1.142,28120,32117.5,23,1.145,1.145,1.142,1.145,,0.009725906277630326,jcp,20191204
2019-12-04,10:54,10:54 AM,,,,0,0.0,0,1.15,1.14,1.142,5739,6555.77,24,,,1.143,1.14,,0.009725906277630326,jcp,20191204
2019-12-04,10:55,10:55 AM,,,,0,0.0,0,1.145,1.14,1.143,4500,5141.5,22,,,1.14,1.145,,0.010610079575596827,jcp,20191204
2019-12-04,10:56,10:56 AM,,,,0,0.0,0,1.145,1.14,1.144,900,1029.5,9,,,1.145,1.145,,0.01149425287356313,jcp,20191204
2019-12-04,10:57,10:57 AM,1.145,1.145,1.145,100,114.5,1,1.15,1.14,1.144,1900,2174.5,13,1.145,1.145,1.145,1.145,,0.01149425287356313,jcp,20191204
2019-12-04,10:58,10:58 AM,1.145,1.145,1.145,100,114.5,1,1.145,1.14,1.144,1039,1188.2289,7,1.145,1.145,1.145,1.145,,0.01149425287356313,jcp,20191204
2019-12-04,10:59,10:59 AM,,,,0,0.0,0,1.15,1.14,1.146,700,802.0,6,,,1.145,1.15,,0.013262599469495935,jcp,20191204
2019-12-04,11:00,11 AM,,,,0,0.0,0,1.15,1.143,1.147,12200,13994.0,24,,,1.143,1.145,,0.014146772767462436,jcp,20191204
2019-12-04,11:01,11:01 AM,,,,0,0.0,0,1.15,1.145,1.148,10649,12225.605,30,,,1.15,1.15,,0.015030946065428739,jcp,20191204
2019-12-04,11:02,11:02 AM,,,,0,0.0,0,1.15,1.145,1.146,4495,5152.275,19,,,1.145,1.145,,0.013262599469495935,jcp,20191204
2019-12-04,11:03,11:03 AM,1.15,1.15,1.15,700,805.0,5,1.15,1.145,1.149,12752,14659.3,26,1.15,1.15,1.145,1.15,,0.01591511936339524,jcp,20191204
2019-12-04,11:04,11:04 AM,1.15,1.15,1.15,900,1035.0,7,1.15,1.145,1.149,1800,2068.0,13,1.15,1.15,1.145,1.15,,0.01591511936339524,jcp,20191204
2019-12-04,11:05,11:05 AM,1.15,1.15,1.15,500,575.0,5,1.15,1.145,1.147,2400,2753.08,13,1.15,1.15,1.145,1.145,,0.014146772767462436,jcp,20191204
2019-12-04,11:06,11:06 AM,1.15,1.15,1.15,1100,1265.0,9,1.15,1.145,1.148,3093,3550.55,17,1.15,1.15,1.15,1.15,,0.015030946065428739,jcp,20191204
2019-12-04,11:07,11:07 AM,1.15,1.15,1.15,1000,1150.0,9,1.15,1.145,1.148,4195,4816.2675,19,1.15,1.15,1.147,1.15,,0.015030946065428739,jcp,20191204
2019-12-04,11:08,11:08 AM,1.15,1.15,1.15,1000,1150.0,9,1.15,1.15,1.15,1200,1380.0,11,1.15,1.15,1.15,1.15,,0.016799292661361542,jcp,20191204
2019-12-04,11:09,11:09 AM,1.15,1.145,1.147,2800,3210.5,17,1.15,1.145,1.147,3700,4243.0,21,1.15,1.145,1.15,1.145,,0.014146772767462436,jcp,20191204
2019-12-04,11:10,11:10 AM,1.15,1.15,1.15,200,230.0,2,1.15,1.145,1.149,4613,5300.9837,17,1.15,1.15,1.15,1.15,,0.01591511936339524,jcp,20191204
2019-12-04,11:11,11:11 AM,1.15,1.15,1.15,100,115.0,1,1.15,1.145,1.148,2700,3100.0,18,1.15,1.15,1.15,1.15,,0.015030946065428739,jcp,20191204
2019-12-04,11:12,11:12 AM,1.15,1.15,1.15,700,805.0,7,1.15,1.145,1.15,1300,1494.5,13,1.15,1.15,1.15,1.15,,0.016799292661361542,jcp,20191204
2019-12-04,11:13,11:13 AM,1.15,1.15,1.15,200,230.0,2,1.15,1.145,1.149,1437,1651.55,11,1.15,1.15,1.145,1.15,,0.01591511936339524,jcp,20191204
2019-12-04,11:14,11:14 AM,1.15,1.15,1.15,1106,1271.9,11,1.15,1.14,1.149,3700,4250.87,17,1.15,1.15,1.15,1.15,,0.01591511936339524,jcp,20191204
2019-12-04,11:15,11:15 AM,1.15,1.15,1.15,1200,1380.0,11,1.15,1.146,1.149,3900,4481.54,22,1.15,1.15,1.15,1.15,,0.01591511936339524,jcp,20191204
2019-12-04,11:16,11:16 AM,1.15,1.15,1.15,700,805.0,6,1.15,1.143,1.146,12500,14326.95,24,1.15,1.15,1.15,1.15,,0.013262599469495935,jcp,20191204
2019-12-04,11:17,11:17 AM,,,,0,0.0,0,1.15,1.145,1.149,1500,1724.0,10,,,1.15,1.15,,0.01591511936339524,jcp,20191204
2019-12-04,11:18,11:18 AM,,,,0,0.0,0,1.15,1.145,1.149,1700,1954.0,14,,,1.15,1.15,,0.01591511936339524,jcp,20191204
2019-12-04,11:19,11:19 AM,,,,0,0.0,0,1.15,1.145,1.149,4300,4942.86,30,,,1.15,1.15,,0.01591511936339524,jcp,20191204
2019-12-04,11:20,11:20 AM,1.15,1.15,1.15,800,920.0,9,1.15,1.14,1.147,3600,4130.0,23,1.15,1.15,1.15,1.14,,0.014146772767462436,jcp,20191204
2019-12-04,11:21,11:21 AM,1.15,1.15,1.15,500,575.0,5,1.15,1.14,1.142,12629,14418.705,28,1.15,1.15,1.15,1.15,,0.009725906277630326,jcp,20191204
2019-12-04,11:22,11:22 AM,1.15,1.15,1.15,700,805.0,7,1.15,1.145,1.15,1800,2069.5,18,1.15,1.15,1.15,1.15,,0.016799292661361542,jcp,20191204
2019-12-04,11:23,11:23 AM,1.15,1.15,1.15,200,230.0,2,1.15,1.145,1.149,3700,4250.5,24,1.15,1.15,1.145,1.15,,0.01591511936339524,jcp,20191204
2019-12-04,11:24,11:24 AM,,,,0,0.0,0,1.15,1.145,1.148,4000,4592.5,28,,,1.15,1.15,,0.015030946065428739,jcp,20191204
2019-12-04,11:25,11:25 AM,,,,0,0.0,0,1.15,1.14,1.146,7184,8236.1786,31,,,1.15,1.15,,0.013262599469495935,jcp,20191204
2019-12-04,11:26,11:26 AM,1.15,1.15,1.15,400,460.0,4,1.15,1.145,1.149,12100,13905.0,20,1.15,1.15,1.15,1.15,,0.01591511936339524,jcp,20191204
2019-12-04,11:27,11:27 AM,1.145,1.145,1.145,1000,1145.0,5,1.15,1.145,1.147,2900,3327.5,20,1.145,1.145,1.15,1.145,,0.014146772767462436,jcp,20191204
2019-12-04,11:28,11:28 AM,1.15,1.15,1.15,400,460.0,3,1.15,1.145,1.15,1891,2174.15,14,1.15,1.15,1.15,1.145,,0.016799292661361542,jcp,20191204
2019-12-04,11:29,11:29 AM,1.15,1.15,1.15,500,575.0,5,1.15,1.14,1.141,53600,61136.0,30,1.15,1.15,1.15,1.15,,0.008841732979664021,jcp,20191204
2019-12-04,11:30,11:30 AM,1.15,1.15,1.15,300,345.0,3,1.15,1.145,1.15,1600,1839.5,16,1.15,1.15,1.15,1.15,,0.016799292661361542,jcp,20191204
2019-12-04,11:31,11:31 AM,1.15,1.15,1.15,1038,1193.7,9,1.15,1.14,1.146,2600,2980.54,18,1.15,1.15,1.15,1.15,,0.013262599469495935,jcp,20191204
2019-12-04,11:32,11:32 AM,1.15,1.15,1.15,200,230.0,2,1.15,1.145,1.149,2097,2409.55,18,1.15,1.15,1.15,1.15,,0.01591511936339524,jcp,20191204
2019-12-04,11:33,11:33 AM,1.15,1.15,1.15,200,230.0,3,1.15,1.145,1.149,1600,1839.0,13,1.15,1.15,1.15,1.15,,0.01591511936339524,jcp,20191204
2019-12-04,11:34,11:34 AM,,,,0,0.0,0,1.15,1.14,1.147,6358,7295.37,19,,,1.15,1.15,,0.014146772767462436,jcp,20191204
2019-12-04,11:35,11:35 AM,,,,0,0.0,0,1.15,1.14,1.141,33306,37997.3518,16,,,1.15,1.15,,0.008841732979664021,jcp,20191204
2019-12-04,11:36,11:36 AM,1.15,1.15,1.15,100,115.0,1,1.15,1.14,1.141,65059,74233.755,43,1.15,1.15,1.15,1.15,,0.008841732979664021,jcp,20191204
2019-12-04,11:37,11:37 AM,,,,0,0.0,0,1.16,1.145,1.15,39121,44996.78,32,,,1.15,1.15,,0.016799292661361542,jcp,20191204
2019-12-04,11:38,11:38 AM,,,,0,0.0,0,1.16,1.15,1.151,13579,15636.7515,16,,,1.15,1.16,,0.017683465959328043,jcp,20191204
2019-12-04,11:39,11:39 AM,1.155,1.155,1.155,200,231.0,1,1.16,1.153,1.157,2700,3122.98,15,1.155,1.155,1.16,1.16,,0.022988505747126457,jcp,20191204
2019-12-04,11:40,11:40 AM,,,,0,0.0,0,1.16,1.15,1.154,5400,6234.0,15,,,1.16,1.155,,0.020335985853227153,jcp,20191204
2019-12-04,11:41,11:41 AM,,,,0,0.0,0,1.16,1.15,1.157,20052,23207.82,18,,,1.16,1.16,,0.022988505747126457,jcp,20191204
2019-12-04,11:42,11:42 AM,,,,0,0.0,0,1.16,1.151,1.152,15300,17627.3,12,,,1.155,1.155,,0.01856763925729435,jcp,20191204
2019-12-04,11:43,11:43 AM,1.155,1.155,1.155,345,398.475,2,1.16,1.155,1.156,3037,3512.0626,15,1.155,1.155,1.155,1.16,,0.022104332449159957,jcp,20191204
2019-12-04,11:44,11:44 AM,1.155,1.155,1.155,1600,1848.0,3,1.16,1.151,1.152,13400,15434.28,14,1.155,1.155,1.155,1.16,,0.01856763925729435,jcp,20191204
2019-12-04,11:45,11:45 AM,,,,0,0.0,0,1.16,1.15,1.157,2051,2373.233,15,,,1.16,1.155,,0.022988505747126457,jcp,20191204
2019-12-04,11:46,11:46 AM,,,,0,0.0,0,1.16,1.155,1.158,6100,7066.0,9,,,1.155,1.16,,0.02387267904509276,jcp,20191204
2019-12-04,11:47,11:47 AM,1.155,1.155,1.155,900,1039.5,1,1.16,1.15,1.157,14800,17124.3,20,1.155,1.155,1.158,1.16,,0.022988505747126457,jcp,20191204
2019-12-04,11:48,11:48 AM,,,,0,0.0,0,1.16,1.153,1.157,3437,3975.975,16,,,1.16,1.16,,0.022988505747126457,jcp,20191204
2019-12-04,11:49,11:49 AM,,,,0,0.0,0,1.16,1.153,1.156,3011,3481.1474,13,,,1.16,1.153,,0.022104332449159957,jcp,20191204
2019-12-04,11:50,11:50 AM,1.155,1.155,1.155,100,115.5,1,1.16,1.154,1.158,1708,1978.58,13,1.155,1.155,1.16,1.16,,0.02387267904509276,jcp,20191204
2019-12-04,11:51,11:51 AM,1.155,1.155,1.155,800,924.0,2,1.16,1.155,1.157,6900,7987.0,17,1.155,1.155,1.16,1.16,,0.022988505747126457,jcp,20191204
2019-12-04,11:52,11:52 AM,,,,0,0.0,0,1.16,1.155,1.159,1600,1854.5,15,,,1.16,1.16,,0.02475685234305926,jcp,20191204
2019-12-04,11:53,11:53 AM,,,,0,0.0,0,1.16,1.155,1.158,3550,4110.625,17,,,1.16,1.16,,0.02387267904509276,jcp,20191204
2019-12-04,11:54,11:54 AM,,,,0,0.0,0,1.16,1.15,1.154,3400,3922.6,14,,,1.16,1.16,,0.020335985853227153,jcp,20191204
2019-12-04,11:55,11:55 AM,,,,0,0.0,0,1.16,1.155,1.16,27300,31658.0,18,,,1.155,1.16,,0.025641025641025564,jcp,20191204
2019-12-04,11:56,11:56 AM,,,,0,0.0,0,1.16,1.155,1.158,2400,2779.02,20,,,1.155,1.16,,0.02387267904509276,jcp,20191204
2019-12-04,11:57,11:57 AM,,,,0,0.0,0,1.16,1.15,1.159,1200,1390.52,10,,,1.16,1.16,,0.02475685234305926,jcp,20191204
2019-12-04,11:58,11:58 AM,,,,0,0.0,0,1.16,1.154,1.155,8547,9872.765,21,,,1.16,1.155,,0.021220159151193654,jcp,20191204
2019-12-04,11:59,11:59 AM,1.155,1.155,1.155,900,1039.5,2,1.16,1.155,1.158,2310,2674.1,12,1.155,1.155,1.16,1.16,,0.02387267904509276,jcp,20191204
2019-12-04,12:00,12 PM,1.155,1.155,1.155,3700,4273.5,6,1.16,1.151,1.153,14780,17043.834,26,1.155,1.155,1.155,1.16,,0.019451812555260847,jcp,20191204
2019-12-04,12:01,12:01 PM,,,,0,0.0,0,1.16,1.15,1.158,3708,4293.65,20,,,1.16,1.16,,0.02387267904509276,jcp,20191204
2019-12-04,12:02,12:02 PM,1.16,1.16,1.16,100,116.0,1,1.16,1.15,1.156,4500,5201.25,21,1.16,1.16,1.153,1.16,,0.022104332449159957,jcp,20191204
2019-12-04,12:03,12:03 PM,,,,0,0.0,0,1.16,1.153,1.158,2300,2664.3,13,,,1.16,1.16,,0.02387267904509276,jcp,20191204
2019-12-04,12:04,12:04 PM,,,,0,0.0,0,1.16,1.153,1.158,3900,4517.2,12,,,1.16,1.159,,0.02387267904509276,jcp,20191204
2019-12-04,12:05,12:05 PM,1.155,1.155,1.155,800,924.0,5,1.16,1.155,1.157,4000,4627.0,19,1.155,1.155,1.16,1.16,,0.022988505747126457,jcp,20191204
2019-12-04,12:06,12:06 PM,1.155,1.155,1.155,109,125.895,2,1.16,1.155,1.156,4893,5658.735,27,1.155,1.155,1.155,1.155,,0.022104332449159957,jcp,20191204
2019-12-04,12:07,12:07 PM,1.155,1.155,1.155,200,231.0,2,1.16,1.15,1.157,2200,2545.1,18,1.155,1.155,1.155,1.16,,0.022988505747126457,jcp,20191204
2019-12-04,12:08,12:08 PM,1.155,1.155,1.155,100,115.5,1,1.16,1.15,1.157,4322,4999.16,18,1.155,1.155,1.155,1.16,,0.022988505747126457,jcp,20191204
2019-12-04,12:09,12:09 PM,,,,0,0.0,0,1.16,1.15,1.157,18304,21186.14,28,,,1.16,1.16,,0.022988505747126457,jcp,20191204
2019-12-04,12:10,12:10 PM,,,,0,0.0,0,1.16,1.15,1.152,9405,10834.06,20,,,1.16,1.16,,0.01856763925729435,jcp,20191204
2019-12-04,12:11,12:11 PM,1.155,1.155,1.155,300,346.5,1,1.16,1.155,1.157,1864,2157.74,15,1.155,1.155,1.155,1.155,,0.022988505747126457,jcp,20191204
2019-12-04,12:12,12:12 PM,,,,0,0.0,0,1.16,1.151,1.157,2500,2893.09,16,,,1.155,1.16,,0.022988505747126457,jcp,20191204
2019-12-04,12:13,12:13 PM,,,,0,0.0,0,1.16,1.155,1.158,4838,5602.205,17,,,1.16,1.16,,0.02387267904509276,jcp,20191204
2019-12-04,12:14,12:14 PM,1.155,1.155,1.155,45,51.975,1,1.16,1.155,1.16,1616,1873.98,15,1.155,1.155,1.16,1.16,,0.025641025641025564,jcp,20191204
2019-12-04,12:15,12:15 PM,,,,0,0.0,0,1.16,1.15,1.154,32312,37303.58,48,,,1.16,1.155,,0.020335985853227153,jcp,20191204
2019-12-04,12:16,12:16 PM,,,,0,0.0,0,1.16,1.155,1.158,2800,3243.5,20,,,1.16,1.16,,0.02387267904509276,jcp,20191204
2019-12-04,12:17,12:17 PM,,,,0,0.0,0,1.16,1.15,1.153,8400,9687.35,26,,,1.16,1.16,,0.019451812555260847,jcp,20191204
2019-12-04,12:18,12:18 PM,,,,0,0.0,0,1.16,1.15,1.159,1900,2202.0,17,,,1.16,1.16,,0.02475685234305926,jcp,20191204
2019-12-04,12:19,12:19 PM,,,,0,0.0,0,1.16,1.15,1.155,5830,6735.355,16,,,1.16,1.155,,0.021220159151193654,jcp,20191204
2019-12-04,12:20,12:20 PM,,,,0,0.0,0,1.16,1.15,1.158,17850,20670.285,38,,,1.16,1.155,,0.02387267904509276,jcp,20191204
2019-12-04,12:21,12:21 PM,,,,0,0.0,0,1.16,1.155,1.16,46912,54408.92,38,,,1.16,1.16,,0.025641025641025564,jcp,20191204
2019-12-04,12:22,12:22 PM,,,,0,0.0,0,1.16,1.155,1.16,6407,7430.95,24,,,1.16,1.16,,0.025641025641025564,jcp,20191204
2019-12-04,12:23,12:23 PM,,,,0,0.0,0,1.16,1.15,1.157,5880,6802.04,18,,,1.16,1.16,,0.022988505747126457,jcp,20191204
2019-12-04,12:24,12:24 PM,,,,0,0.0,0,1.16,1.15,1.154,14200,16390.0,42,,,1.155,1.16,,0.020335985853227153,jcp,20191204
2019-12-04,12:25,12:25 PM,,,,0,0.0,0,1.16,1.15,1.155,7262,8387.8,21,,,1.155,1.16,,0.021220159151193654,jcp,20191204
2019-12-04,12:26,12:26 PM,,,,0,0.0,0,1.16,1.152,1.154,4100,4731.0,9,,,1.16,1.16,,0.020335985853227153,jcp,20191204
2019-12-04,12:27,12:27 PM,,,,0,0.0,0,1.16,1.155,1.159,2100,2433.0,17,,,1.155,1.16,,0.02475685234305926,jcp,20191204
2019-12-04,12:28,12:28 PM,,,,0,0.0,0,1.16,1.155,1.159,1600,1854.5,15,,,1.155,1.16,,0.02475685234305926,jcp,20191204
2019-12-04,12:29,12:29 PM,,,,0,0.0,0,1.16,1.155,1.159,2060,2387.6,15,,,1.155,1.16,,0.02475685234305926,jcp,20191204
2019-12-04,12:30,12:30 PM,,,,0,0.0,0,1.16,1.15,1.159,3400,3939.0,22,,,1.155,1.16,,0.02475685234305926,jcp,20191204
2019-12-04,12:31,12:31 PM,1.155,1.155,1.155,700,808.5,2,1.16,1.155,1.157,2900,3357.0,17,1.155,1.155,1.155,1.155,,0.022988505747126457,jcp,20191204
2019-12-04,12:32,12:32 PM,1.16,1.16,1.16,179,207.64,2,1.16,1.15,1.159,4371,5067.88,18,1.16,1.16,1.16,1.16,,0.02475685234305926,jcp,20191204
2019-12-04,12:33,12:33 PM,1.16,1.16,1.16,400,464.0,3,1.16,1.155,1.158,1500,1736.5,14,1.16,1.16,1.155,1.16,,0.02387267904509276,jcp,20191204
2019-12-04,12:34,12:34 PM,,,,0,0.0,0,1.16,1.15,1.153,19555,22542.728,32,,,1.16,1.155,,0.019451812555260847,jcp,20191204
2019-12-04,12:35,12:35 PM,,,,0,0.0,0,1.16,1.155,1.159,1900,2202.0,14,,,1.155,1.16,,0.02475685234305926,jcp,20191204
2019-12-04,12:36,12:36 PM,,,,0,0.0,0,1.16,1.155,1.158,1900,2199.5,13,,,1.16,1.155,,0.02387267904509276,jcp,20191204
2019-12-04,12:37,12:37 PM,,,,0,0.0,0,1.16,1.15,1.156,2900,3353.0,16,,,1.16,1.16,,0.022104332449159957,jcp,20191204
2019-12-04,12:38,12:38 PM,,,,0,0.0,0,1.16,1.152,1.16,20900,24237.16,42,,,1.16,1.16,,0.025641025641025564,jcp,20191204
2019-12-04,12:39,12:39 PM,1.155,1.155,1.155,1500,1732.5,3,1.16,1.155,1.157,5900,6824.0,32,1.155,1.155,1.16,1.16,,0.022988505747126457,jcp,20191204
2019-12-04,12:40,12:40 PM,,,,0,0.0,0,1.16,1.155,1.158,16300,18883.5,20,,,1.16,1.16,,0.02387267904509276,jcp,20191204
2019-12-04,12:41,12:41 PM,,,,0,0.0,0,1.16,1.155,1.159,54737,63462.125,63,,,1.16,1.16,,0.02475685234305926,jcp,20191204
2019-12-04,12:42,12:42 PM,,,,0,0.0,0,1.16,1.155,1.159,1700,1970.0,14,,,1.16,1.16,,0.02475685234305926,jcp,20191204
2019-12-04,12:43,12:43 PM,1.16,1.16,1.16,200,232.0,2,1.16,1.155,1.157,3200,3703.55,15,1.16,1.16,1.16,1.16,,0.022988505747126457,jcp,20191204
2019-12-04,12:44,12:44 PM,,,,0,0.0,0,1.16,1.155,1.159,2697,3124.485,19,,,1.16,1.16,,0.02475685234305926,jcp,20191204
2019-12-04,12:45,12:45 PM,,,,0,0.0,0,1.16,1.155,1.16,1400,1623.5,11,,,1.16,1.16,,0.025641025641025564,jcp,20191204
2019-12-04,12:46,12:46 PM,,,,0,0.0,0,1.16,1.155,1.159,1600,1854.0,13,,,1.16,1.16,,0.02475685234305926,jcp,20191204
2019-12-04,12:47,12:47 PM,,,,0,0.0,0,1.16,1.15,1.157,1670,1933.0,12,,,1.16,1.16,,0.022988505747126457,jcp,20191204
2019-12-04,12:48,12:48 PM,,,,0,0.0,0,1.16,1.16,1.16,1300,1508.0,11,,,1.16,1.16,,0.025641025641025564,jcp,20191204
2019-12-04,12:49,12:49 PM,1.16,1.16,1.16,301,349.16,4,1.16,1.155,1.159,1700,1970.5,14,1.16,1.16,1.16,1.16,,0.02475685234305926,jcp,20191204
2019-12-04,12:50,12:50 PM,1.155,1.155,1.155,3800,4389.0,14,1.16,1.15,1.155,41834,48315.355,189,1.155,1.155,1.155,1.16,,0.021220159151193654,jcp,20191204
2019-12-04,12:51,12:51 PM,,,,0,0.0,0,1.16,1.15,1.156,3050,3525.41,11,,,1.16,1.155,,0.022104332449159957,jcp,20191204
2019-12-04,12:52,12:52 PM,,,,0,0.0,0,1.16,1.15,1.156,1800,2081.44,14,,,1.155,1.155,,0.022104332449159957,jcp,20191204
2019-12-04,12:53,12:53 PM,1.155,1.155,1.155,100,115.5,1,1.16,1.15,1.157,1300,1504.5,11,1.155,1.155,1.155,1.16,,0.022988505747126457,jcp,20191204
2019-12-04,12:54,12:54 PM,,,,0,0.0,0,1.16,1.15,1.155,1700,1963.05,10,,,1.16,1.155,,0.021220159151193654,jcp,20191204
2019-12-04,12:55,12:55 PM,,,,0,0.0,0,1.155,1.152,1.155,1700,1962.98,12,,,1.155,1.155,,0.021220159151193654,jcp,20191204
2019-12-04,12:56,12:56 PM,,,,0,0.0,0,1.16,1.155,1.156,1500,1733.5,11,,,1.155,1.16,,0.022104332449159957,jcp,20191204
2019-12-04,12:57,12:57 PM,,,,0,0.0,0,1.16,1.15,1.155,1300,1502.0,12,,,1.155,1.155,,0.021220159151193654,jcp,20191204
2019-12-04,12:58,12:58 PM,,,,0,0.0,0,1.16,1.15,1.156,2250,2601.3989,15,,,1.155,1.155,,0.022104332449159957,jcp,20191204
2019-12-04,12:59,12:59 PM,1.15,1.15,1.15,100,115.0,1,1.16,1.15,1.153,4880,5627.272,30,1.15,1.15,1.155,1.155,,0.019451812555260847,jcp,20191204
2019-12-04,13:00,1 PM,1.15,1.15,1.15,200,230.0,2,1.155,1.15,1.153,1600,1844.0,14,1.15,1.15,1.15,1.15,,0.019451812555260847,jcp,20191204
2019-12-04,13:01,1:01 PM,,,,0,0.0,0,1.16,1.15,1.154,827,954.355,8,,,1.15,1.15,,0.020335985853227153,jcp,20191204
2019-12-04,13:02,1:02 PM,1.15,1.15,1.15,31,35.65,1,1.16,1.15,1.155,473,546.315,4,1.15,1.15,1.155,1.15,,0.021220159151193654,jcp,20191204
2019-12-04,13:03,1:03 PM,,,,0,0.0,0,1.16,1.15,1.153,900,1038.0,8,,,1.155,1.15,,0.019451812555260847,jcp,20191204
2019-12-04,13:04,1:04 PM,,,,0,0.0,0,1.16,1.15,1.157,600,694.0,6,,,1.16,1.155,,0.022988505747126457,jcp,20191204
2019-12-04,13:05,1:05 PM,,,,0,0.0,0,1.16,1.15,1.151,6600,7593.6,7,,,1.155,1.15,,0.017683465959328043,jcp,20191204
2019-12-04,13:06,1:06 PM,,,,0,0.0,0,1.16,1.15,1.154,1900,2193.0,16,,,1.155,1.15,,0.020335985853227153,jcp,20191204
2019-12-04,13:07,1:07 PM,,,,0,0.0,0,1.16,1.15,1.151,8700,10013.2,15,,,1.155,1.15,,0.017683465959328043,jcp,20191204
2019-12-04,13:08,1:08 PM,,,,0,0.0,0,1.16,1.15,1.154,2273,2622.315,12,,,1.155,1.155,,0.020335985853227153,jcp,20191204
2019-12-04,13:09,1:09 PM,,,,0,0.0,0,1.16,1.151,1.155,1100,1271.1,10,,,1.155,1.16,,0.021220159151193654,jcp,20191204
2019-12-04,13:10,1:10 PM,,,,0,0.0,0,1.16,1.15,1.155,1273,1470.315,11,,,1.155,1.15,,0.021220159151193654,jcp,20191204
2019-12-04,13:11,1:11 PM,,,,0,0.0,0,1.16,1.15,1.154,1760,2030.76,14,,,1.155,1.16,,0.020335985853227153,jcp,20191204
2019-12-04,13:12,1:12 PM,,,,0,0.0,0,1.16,1.15,1.152,2700,3110.28,21,,,1.15,1.155,,0.01856763925729435,jcp,20191204
2019-12-04,13:13,1:13 PM,,,,0,0.0,0,1.155,1.15,1.155,1100,1270.0,8,,,1.155,1.155,,0.021220159151193654,jcp,20191204
2019-12-04,13:14,1:14 PM,,,,0,0.0,0,1.16,1.15,1.156,1200,1387.1,11,,,1.155,1.16,,0.022104332449159957,jcp,20191204
2019-12-04,13:15,1:15 PM,1.155,1.15,1.152,302,347.81,4,1.16,1.15,1.155,2098,2422.29,15,1.155,1.15,1.155,1.16,,0.021220159151193654,jcp,20191204
2019-12-04,13:16,1:16 PM,1.155,1.15,1.153,200,230.5,2,1.16,1.15,1.152,6382,7352.8122,10,1.15,1.155,1.154,1.151,,0.01856763925729435,jcp,20191204
2019-12-04,13:17,1:17 PM,,,,0,0.0,0,1.155,1.15,1.154,1809,2088.459,13,,,1.155,1.155,,0.020335985853227153,jcp,20191204
2019-12-04,13:18,1:18 PM,,,,0,0.0,0,1.16,1.15,1.155,1300,1502.0,11,,,1.155,1.16,,0.021220159151193654,jcp,20191204
2019-12-04,13:19,1:19 PM,,,,0,0.0,0,1.16,1.151,1.156,4500,5203.1,19,,,1.155,1.16,,0.022104332449159957,jcp,20191204
2019-12-04,13:20,1:20 PM,1.155,1.155,1.155,2700,3118.5,1,1.16,1.155,1.158,15070,17452.475,35,1.155,1.155,1.155,1.16,,0.02387267904509276,jcp,20191204
2019-12-04,13:21,1:21 PM,1.155,1.155,1.155,100,115.5,1,1.16,1.151,1.153,12600,14525.9,18,1.155,1.155,1.16,1.155,,0.019451812555260847,jcp,20191204
2019-12-04,13:22,1:22 PM,,,,0,0.0,0,1.16,1.155,1.156,8307,9604.105,29,,,1.16,1.16,,0.022104332449159957,jcp,20191204
2019-12-04,13:23,1:23 PM,,,,0,0.0,0,1.16,1.155,1.159,10001,11590.495,17,,,1.155,1.16,,0.02475685234305926,jcp,20191204
2019-12-04,13:24,1:24 PM,,,,0,0.0,0,1.16,1.155,1.159,800,927.5,7,,,1.16,1.16,,0.02475685234305926,jcp,20191204
2019-12-04,13:25,1:25 PM,,,,0,0.0,0,1.16,1.155,1.158,16240,18808.734,20,,,1.16,1.155,,0.02387267904509276,jcp,20191204
2019-12-04,13:26,1:26 PM,,,,0,0.0,0,1.16,1.155,1.158,3333,3859.115,12,,,1.16,1.16,,0.02387267904509276,jcp,20191204
2019-12-04,13:27,1:27 PM,1.155,1.155,1.155,600,693.0,1,1.16,1.15,1.154,3222,3717.3222,17,1.155,1.155,1.16,1.16,,0.020335985853227153,jcp,20191204
2019-12-04,13:28,1:28 PM,,,,0,0.0,0,1.16,1.15,1.156,1800,2081.0,15,,,1.16,1.15,,0.022104332449159957,jcp,20191204
2019-12-04,13:29,1:29 PM,,,,0,0.0,0,1.16,1.15,1.157,2200,2545.12,15,,,1.15,1.15,,0.022988505747126457,jcp,20191204
2019-12-04,13:30,1:30 PM,,,,0,0.0,0,1.16,1.15,1.156,2450,2831.79,17,,,1.16,1.155,,0.022104332449159957,jcp,20191204
2019-12-04,13:31,1:31 PM,,,,0,0.0,0,1.16,1.15,1.16,11400,13219.5,11,,,1.16,1.155,,0.025641025641025564,jcp,20191204
2019-12-04,13:32,1:32 PM,1.155,1.155,1.155,300,346.5,1,1.155,1.15,1.155,1883,2174.23,14,1.155,1.155,1.155,1.155,,0.021220159151193654,jcp,20191204
2019-12-04,13:33,1:33 PM,,,,0,0.0,0,1.155,1.155,1.155,1800,2079.0,10,,,1.155,1.155,,0.021220159151193654,jcp,20191204
2019-12-04,13:34,1:34 PM,,,,0,0.0,0,1.155,1.15,1.154,570,657.85,5,,,1.155,1.155,,0.020335985853227153,jcp,20191204
2019-12-04,13:35,1:35 PM,,,,0,0.0,0,1.155,1.15,1.153,2323,2677.792,9,,,1.155,1.155,,0.019451812555260847,jcp,20191204
2019-12-04,13:36,1:36 PM,,,,0,0.0,0,1.155,1.15,1.151,25975,29893.335,16,,,1.155,1.153,,0.017683465959328043,jcp,20191204
2019-12-04,13:37,1:37 PM,,,,0,0.0,0,1.16,1.155,1.157,2357,2726.235,12,,,1.155,1.16,,0.022988505747126457,jcp,20191204
2019-12-04,13:38,1:38 PM,,,,0,0.0,0,1.16,1.15,1.156,2693,3112.2,15,,,1.15,1.155,,0.022104332449159957,jcp,20191204
2019-12-04,13:39,1:39 PM,,,,0,0.0,0,1.16,1.15,1.154,5524,6373.72,20,,,1.15,1.155,,0.020335985853227153,jcp,20191204
2019-12-04,13:40,1:40 PM,,,,0,0.0,0,1.16,1.153,1.155,3288,3797.5146,15,,,1.16,1.155,,0.021220159151193654,jcp,20191204
2019-12-04,13:41,1:41 PM,,,,0,0.0,0,1.16,1.15,1.156,1500,1734.0,10,,,1.15,1.16,,0.022104332449159957,jcp,20191204
2019-12-04,13:42,1:42 PM,,,,0,0.0,0,1.16,1.15,1.156,4852,5608.56,21,,,1.15,1.16,,0.022104332449159957,jcp,20191204
2019-12-04,13:43,1:43 PM,,,,0,0.0,0,1.16,1.155,1.159,7810,9054.025,13,,,1.155,1.16,,0.02475685234305926,jcp,20191204
2019-12-04,13:44,1:44 PM,,,,0,0.0,0,1.16,1.15,1.158,1100,1274.0,9,,,1.16,1.16,,0.02387267904509276,jcp,20191204
2019-12-04,13:45,1:45 PM,,,,0,0.0,0,1.16,1.155,1.158,3200,3704.64,13,,,1.16,1.155,,0.02387267904509276,jcp,20191204
2019-12-04,13:46,1:46 PM,1.155,1.155,1.155,200,231.0,2,1.16,1.155,1.157,2205,2550.275,13,1.155,1.155,1.16,1.16,,0.022988505747126457,jcp,20191204
2019-12-04,13:47,1:47 PM,1.155,1.155,1.155,200,231.0,2,1.16,1.15,1.152,5700,6568.4,15,1.155,1.155,1.155,1.16,,0.01856763925729435,jcp,20191204
2019-12-04,13:48,1:48 PM,,,,0,0.0,0,1.16,1.15,1.156,3400,3929.5,17,,,1.16,1.15,,0.022104332449159957,jcp,20191204
2019-12-04,13:49,1:49 PM,,,,0,0.0,0,1.16,1.15,1.157,2900,3354.55,16,,,1.155,1.16,,0.022988505747126457,jcp,20191204
2019-12-04,13:50,1:50 PM,,,,0,0.0,0,1.16,1.15,1.157,2800,3238.4,18,,,1.15,1.16,,0.022988505747126457,jcp,20191204
2019-12-04,13:51,1:51 PM,,,,0,0.0,0,1.16,1.15,1.156,4875,5637.807,20,,,1.15,1.16,,0.022104332449159957,jcp,20191204
2019-12-04,13:52,1:52 PM,,,,0,0.0,0,1.16,1.155,1.158,1652,1913.21,13,,,1.16,1.16,,0.02387267904509276,jcp,20191204
2019-12-04,13:53,1:53 PM,1.155,1.155,1.155,400,462.0,1,1.16,1.15,1.155,3834,4427.41,22,1.155,1.155,1.154,1.155,,0.021220159151193654,jcp,20191204
2019-12-04,13:54,1:54 PM,,,,0,0.0,0,1.16,1.15,1.156,3600,4160.5,19,,,1.155,1.155,,0.022104332449159957,jcp,20191204
2019-12-04,13:55,1:55 PM,,,,0,0.0,0,1.16,1.155,1.157,3200,3703.5,11,,,1.155,1.16,,0.022988505747126457,jcp,20191204
2019-12-04,13:56,1:56 PM,,,,0,0.0,0,1.16,1.155,1.158,1100,1274.0,8,,,1.155,1.16,,0.02387267904509276,jcp,20191204
2019-12-04,13:57,1:57 PM,,,,0,0.0,0,1.16,1.155,1.157,1184,1370.02,7,,,1.155,1.16,,0.022988505747126457,jcp,20191204
2019-12-04,13:58,1:58 PM,,,,0,0.0,0,1.16,1.155,1.158,54538,63177.07,119,,,1.155,1.16,,0.02387267904509276,jcp,20191204
2019-12-04,13:59,1:59 PM,,,,0,0.0,0,1.16,1.155,1.156,4700,5432.0,14,,,1.155,1.16,,0.022104332449159957,jcp,20191204
2019-12-04,14:00,2 PM,,,,0,0.0,0,1.16,1.155,1.157,1208,1398.24,11,,,1.155,1.16,,0.022988505747126457,jcp,20191204
2019-12-04,14:01,2:01 PM,,,,0,0.0,0,1.16,1.155,1.157,2800,3238.5,11,,,1.16,1.155,,0.022988505747126457,jcp,20191204
2019-12-04,14:02,2:02 PM,,,,0,0.0,0,1.16,1.155,1.157,1932,2236.46,12,,,1.16,1.16,,0.022988505747126457,jcp,20191204
2019-12-04,14:03,2:03 PM,1.155,1.155,1.155,100,115.5,1,1.16,1.155,1.158,2200,2548.5,15,1.155,1.155,1.16,1.16,,0.02387267904509276,jcp,20191204
2019-12-04,14:04,2:04 PM,,,,0,0.0,0,1.16,1.151,1.152,14600,16815.2,17,,,1.16,1.155,,0.01856763925729435,jcp,20191204
2019-12-04,14:05,2:05 PM,,,,0,0.0,0,1.16,1.155,1.159,1100,1275.0,8,,,1.16,1.16,,0.02475685234305926,jcp,20191204
2019-12-04,14:06,2:06 PM,,,,0,0.0,0,1.16,1.155,1.158,2200,2547.2,11,,,1.16,1.16,,0.02387267904509276,jcp,20191204
2019-12-04,14:07,2:07 PM,,,,0,0.0,0,1.16,1.15,1.151,8180,9413.5772,6,,,1.15,1.16,,0.017683465959328043,jcp,20191204
2019-12-04,14:08,2:08 PM,,,,0,0.0,0,1.16,1.155,1.157,600,694.5,4,,,1.155,1.16,,0.022988505747126457,jcp,20191204
2019-12-04,14:09,2:09 PM,1.155,1.155,1.155,1100,1270.5,3,1.16,1.15,1.155,4900,5661.0,21,1.155,1.155,1.155,1.155,,0.021220159151193654,jcp,20191204
2019-12-04,14:10,2:10 PM,,,,0,0.0,0,1.155,1.154,1.154,7900,9120.5,12,,,1.155,1.155,,0.020335985853227153,jcp,20191204
2019-12-04,14:11,2:11 PM,1.155,1.155,1.155,200,231.0,2,1.155,1.15,1.153,4843,5585.665,18,1.155,1.155,1.155,1.15,,0.019451812555260847,jcp,20191204
2019-12-04,14:12,2:12 PM,,,,0,0.0,0,1.155,1.15,1.151,4600,5296.65,12,,,1.15,1.155,,0.017683465959328043,jcp,20191204
2019-12-04,14:13,2:13 PM,,,,0,0.0,0,1.155,1.155,1.155,1400,1617.0,12,,,1.155,1.155,,0.021220159151193654,jcp,20191204
2019-12-04,14:14,2:14 PM,,,,0,0.0,0,1.16,1.155,1.155,2167,2503.385,12,,,1.155,1.155,,0.021220159151193654,jcp,20191204
2019-12-04,14:15,2:15 PM,,,,0,0.0,0,1.16,1.155,1.159,6000,6953.8,16,,,1.155,1.16,,0.02475685234305926,jcp,20191204
2019-12-04,14:16,2:16 PM,,,,0,0.0,0,1.16,1.155,1.158,1500,1737.5,12,,,1.16,1.16,,0.02387267904509276,jcp,20191204
2019-12-04,14:17,2:17 PM,,,,0,0.0,0,1.16,1.15,1.156,1760,2035.3,15,,,1.155,1.155,,0.022104332449159957,jcp,20191204
2019-12-04,14:18,2:18 PM,,,,0,0.0,0,1.16,1.155,1.158,1255,1453.4125,11,,,1.16,1.155,,0.02387267904509276,jcp,20191204
2019-12-04,14:19,2:19 PM,1.16,1.16,1.16,1,1.16,1,1.16,1.155,1.158,1270,1470.35,8,1.16,1.16,1.155,1.16,,0.02387267904509276,jcp,20191204
2019-12-04,14:20,2:20 PM,,,,0,0.0,0,1.16,1.155,1.157,2076,2401.78,16,,,1.155,1.16,,0.022988505747126457,jcp,20191204
2019-12-04,14:21,2:21 PM,,,,0,0.0,0,1.16,1.155,1.156,2716,3139.98,17,,,1.16,1.155,,0.022104332449159957,jcp,20191204
2019-12-04,14:22,2:22 PM,,,,0,0.0,0,1.16,1.155,1.156,2600,3006.5,13,,,1.155,1.16,,0.022104332449159957,jcp,20191204
2019-12-04,14:23,2:23 PM,,,,0,0.0,0,1.16,1.155,1.157,1400,1620.0,9,,,1.155,1.155,,0.022988505747126457,jcp,20191204
2019-12-04,14:24,2:24 PM,1.155,1.155,1.155,100,115.5,1,1.16,1.15,1.157,14620,16918.1,20,1.155,1.155,1.155,1.15,,0.022988505747126457,jcp,20191204
2019-12-04,14:25,2:25 PM,1.155,1.155,1.155,100,115.5,1,1.16,1.151,1.156,2150,2484.625,9,1.155,1.155,1.155,1.16,,0.022104332449159957,jcp,20191204
2019-12-04,14:26,2:26 PM,,,,0,0.0,0,1.16,1.15,1.154,6529,7532.2028,10,,,1.16,1.15,,0.020335985853227153,jcp,20191204
2019-12-04,14:27,2:27 PM,,,,0,0.0,0,1.16,1.152,1.153,6140,7079.1208,13,,,1.16,1.155,,0.019451812555260847,jcp,20191204
2019-12-04,14:28,2:28 PM,,,,0,0.0,0,1.16,1.155,1.158,1500,1736.5,10,,,1.16,1.16,,0.02387267904509276,jcp,20191204
2019-12-04,14:29,2:29 PM,1.155,1.155,1.155,100,115.5,1,1.16,1.155,1.157,1000,1157.5,9,1.155,1.155,1.16,1.155,,0.022988505747126457,jcp,20191204
2019-12-04,14:30,2:30 PM,,,,0,0.0,0,1.16,1.155,1.156,1100,1271.5,8,,,1.155,1.155,,0.022104332449159957,jcp,20191204
2019-12-04,14:31,2:31 PM,,,,0,0.0,0,1.16,1.155,1.156,625,722.375,5,,,1.155,1.155,,0.022104332449159957,jcp,20191204
2019-12-04,14:32,2:32 PM,,,,0,0.0,0,1.16,1.155,1.157,1200,1388.0,9,,,1.155,1.16,,0.022988505747126457,jcp,20191204
2019-12-04,14:33,2:33 PM,,,,0,0.0,0,1.16,1.154,1.155,4423,5106.7974,13,,,1.154,1.16,,0.021220159151193654,jcp,20191204
2019-12-04,14:34,2:34 PM,,,,0,0.0,0,1.16,1.155,1.157,1100,1272.5,10,,,1.155,1.16,,0.022988505747126457,jcp,20191204
2019-12-04,14:35,2:35 PM,,,,0,0.0,0,1.16,1.155,1.155,1700,1964.5,7,,,1.155,1.155,,0.021220159151193654,jcp,20191204
2019-12-04,14:36,2:36 PM,,,,0,0.0,0,1.155,1.15,1.155,2346,2708.7732,14,,,1.155,1.154,,0.021220159151193654,jcp,20191204
2019-12-04,14:37,2:37 PM,,,,0,0.0,0,1.16,1.15,1.152,3800,4377.2,15,,,1.151,1.15,,0.01856763925729435,jcp,20191204
2019-12-04,14:38,2:38 PM,,,,0,0.0,0,1.16,1.15,1.154,1200,1384.5,11,,,1.15,1.16,,0.020335985853227153,jcp,20191204
2019-12-04,14:39,2:39 PM,,,,0,0.0,0,1.16,1.155,1.155,1200,1386.5,7,,,1.155,1.155,,0.021220159151193654,jcp,20191204
2019-12-04,14:40,2:40 PM,,,,0,0.0,0,1.16,1.15,1.155,1200,1386.01,10,,,1.155,1.155,,0.021220159151193654,jcp,20191204
2019-12-04,14:41,2:41 PM,,,,0,0.0,0,1.16,1.155,1.159,2500,2897.9,7,,,1.155,1.155,,0.02475685234305926,jcp,20191204
2019-12-04,14:42,2:42 PM,,,,0,0.0,0,1.16,1.15,1.153,1746,2013.0892,8,,,1.16,1.16,,0.019451812555260847,jcp,20191204
2019-12-04,14:43,2:43 PM,,,,0,0.0,0,1.16,1.155,1.156,1100,1271.5,9,,,1.155,1.155,,0.022104332449159957,jcp,20191204
2019-12-04,14:44,2:44 PM,,,,0,0.0,0,1.16,1.15,1.152,3200,3686.7,11,,,1.155,1.155,,0.01856763925729435,jcp,20191204
2019-12-04,14:45,2:45 PM,,,,0,0.0,0,1.16,1.15,1.157,1300,1503.5,12,,,1.16,1.155,,0.022988505747126457,jcp,20191204
2019-12-04,14:46,2:46 PM,,,,0,0.0,0,1.16,1.15,1.153,1910,2201.5,8,,,1.15,1.15,,0.019451812555260847,jcp,20191204
2019-12-04,14:47,2:47 PM,1.155,1.155,1.155,200,231.0,1,1.16,1.15,1.15,61500,70733.0,14,1.155,1.155,1.15,1.155,,0.016799292661361542,jcp,20191204
2019-12-04,14:48,2:48 PM,,,,0,0.0,0,1.16,1.15,1.155,1100,1270.24,9,,,1.155,1.154,,0.021220159151193654,jcp,20191204
2019-12-04,14:49,2:49 PM,1.155,1.155,1.155,200,231.0,2,1.16,1.15,1.159,11600,13449.0,18,1.155,1.155,1.155,1.16,,0.02475685234305926,jcp,20191204
2019-12-04,14:50,2:50 PM,,,,0,0.0,0,1.16,1.155,1.157,2700,3125.5,15,,,1.155,1.16,,0.022988505747126457,jcp,20191204
2019-12-04,14:51,2:51 PM,1.155,1.155,1.155,100,115.5,1,1.16,1.155,1.157,2800,3239.0,14,1.155,1.155,1.16,1.155,,0.022988505747126457,jcp,20191204
2019-12-04,14:52,2:52 PM,,,,0,0.0,0,1.16,1.15,1.158,14751,17087.029,11,,,1.16,1.155,,0.02387267904509276,jcp,20191204
2019-12-04,14:53,2:53 PM,1.155,1.155,1.155,300,346.5,3,1.155,1.15,1.153,2000,2305.5,14,1.155,1.155,1.15,1.155,,0.019451812555260847,jcp,20191204
2019-12-04,14:54,2:54 PM,,,,0,0.0,0,1.16,1.155,1.156,600,693.5,4,,,1.155,1.155,,0.022104332449159957,jcp,20191204
2019-12-04,14:55,2:55 PM,1.15,1.15,1.15,200,230.0,1,1.16,1.15,1.155,1900,2194.5,12,1.15,1.15,1.155,1.155,,0.021220159151193654,jcp,20191204
2019-12-04,14:56,2:56 PM,,,,0,0.0,0,1.16,1.15,1.153,1600,1845.6,4,,,1.155,1.16,,0.019451812555260847,jcp,20191204
2019-12-04,14:57,2:57 PM,,,,0,0.0,0,1.155,1.155,1.155,400,462.0,1,,,1.155,1.155,,0.021220159151193654,jcp,20191204
2019-12-04,14:58,2:58 PM,,,,0,0.0,0,1.156,1.155,1.155,1200,1386.21,7,,,1.155,1.155,,0.021220159151193654,jcp,20191204
2019-12-04,14:59,2:59 PM,,,,0,0.0,0,1.16,1.15,1.155,1700,1963.905,14,,,1.155,1.16,,0.021220159151193654,jcp,20191204
2019-12-04,15:00,3 PM,,,,0,0.0,0,1.16,1.15,1.154,13800,15920.52,12,,,1.155,1.155,,0.020335985853227153,jcp,20191204
2019-12-04,15:01,3:01 PM,,,,0,0.0,0,1.155,1.155,1.155,700,808.5,5,,,1.155,1.155,,0.021220159151193654,jcp,20191204
2019-12-04,15:02,3:02 PM,,,,0,0.0,0,1.16,1.15,1.155,1300,1502.0,10,,,1.155,1.16,,0.021220159151193654,jcp,20191204
2019-12-04,15:03,3:03 PM,,,,0,0.0,0,1.16,1.155,1.159,14721,17058.16,39,,,1.155,1.155,,0.02475685234305926,jcp,20191204
2019-12-04,15:04,3:04 PM,,,,0,0.0,0,1.16,1.153,1.157,1000,1157.12,7,,,1.155,1.16,,0.022988505747126457,jcp,20191204
2019-12-04,15:05,3:05 PM,1.155,1.155,1.155,100,115.5,1,1.16,1.155,1.158,3100,3589.45,17,1.155,1.155,1.155,1.16,,0.02387267904509276,jcp,20191204
2019-12-04,15:06,3:06 PM,,,,0,0.0,0,1.16,1.15,1.158,2000,2315.5,14,,,1.155,1.155,,0.02387267904509276,jcp,20191204
2019-12-04,15:07,3:07 PM,1.155,1.155,1.155,300,346.5,1,1.16,1.15,1.151,55300,63623.0,18,1.155,1.155,1.155,1.16,,0.017683465959328043,jcp,20191204
2019-12-04,15:08,3:08 PM,,,,0,0.0,0,1.16,1.15,1.152,2300,2649.5,7,,,1.16,1.155,,0.01856763925729435,jcp,20191204
2019-12-04,15:09,3:09 PM,,,,0,0.0,0,1.16,1.15,1.154,6087,7022.185,16,,,1.16,1.15,,0.020335985853227153,jcp,20191204
2019-12-04,15:10,3:10 PM,,,,0,0.0,0,1.16,1.15,1.153,2065,2381.25,11,,,1.155,1.15,,0.019451812555260847,jcp,20191204
2019-12-04,15:11,3:11 PM,1.155,1.155,1.155,100,115.5,1,1.16,1.153,1.156,1300,1503.18,7,1.155,1.155,1.155,1.155,,0.022104332449159957,jcp,20191204
2019-12-04,15:12,3:12 PM,,,,0,0.0,0,1.16,1.15,1.154,2100,2424.0,9,,,1.16,1.155,,0.020335985853227153,jcp,20191204
2019-12-04,15:13,3:13 PM,,,,0,0.0,0,1.16,1.155,1.158,935,1083.0865,8,,,1.155,1.155,,0.02387267904509276,jcp,20191204
2019-12-04,15:14,3:14 PM,,,,0,0.0,0,1.16,1.15,1.157,600,694.5,6,,,1.155,1.16,,0.022988505747126457,jcp,20191204
2019-12-04,15:15,3:15 PM,,,,0,0.0,0,1.16,1.155,1.157,1510,1747.55,8,,,1.16,1.155,,0.022988505747126457,jcp,20191204
2019-12-04,15:16,3:16 PM,,,,0,0.0,0,1.16,1.15,1.158,8400,9724.3,14,,,1.16,1.16,,0.02387267904509276,jcp,20191204
2019-12-04,15:17,3:17 PM,,,,0,0.0,0,1.16,1.15,1.16,20702,24006.2101,14,,,1.16,1.16,,0.025641025641025564,jcp,20191204
2019-12-04,15:18,3:18 PM,,,,0,0.0,0,1.16,1.155,1.159,18500,21440.0,15,,,1.16,1.16,,0.02475685234305926,jcp,20191204
2019-12-04,15:19,3:19 PM,1.155,1.155,1.155,100,115.5,1,1.16,1.15,1.155,8436,9744.58,22,1.155,1.155,1.16,1.155,,0.021220159151193654,jcp,20191204
2019-12-04,15:20,3:20 PM,,,,0,0.0,0,1.16,1.15,1.154,6786,7834.31,25,,,1.16,1.15,,0.020335985853227153,jcp,20191204
2019-12-04,15:21,3:21 PM,,,,0,0.0,0,1.16,1.15,1.157,1510,1747.0145,11,,,1.155,1.16,,0.022988505747126457,jcp,20191204
2019-12-04,15:22,3:22 PM,,,,0,0.0,0,1.16,1.155,1.159,900,1043.0,7,,,1.16,1.16,,0.02475685234305926,jcp,20191204
2019-12-04,15:23,3:23 PM,1.155,1.155,1.155,300,346.5,2,1.16,1.15,1.151,29100,33491.5,45,1.155,1.155,1.16,1.155,,0.017683465959328043,jcp,20191204
2019-12-04,15:24,3:24 PM,,,,0,0.0,0,1.155,1.15,1.153,7764,8948.3568,20,,,1.155,1.155,,0.019451812555260847,jcp,20191204
2019-12-04,15:25,3:25 PM,,,,0,0.0,0,1.155,1.15,1.155,1750,2020.5,10,,,1.155,1.155,,0.021220159151193654,jcp,20191204
2019-12-04,15:26,3:26 PM,,,,0,0.0,0,1.155,1.15,1.153,2350,2710.0,18,,,1.155,1.155,,0.019451812555260847,jcp,20191204
2019-12-04,15:27,3:27 PM,,,,0,0.0,0,1.155,1.15,1.154,3300,3809.02,17,,,1.155,1.15,,0.020335985853227153,jcp,20191204
2019-12-04,15:28,3:28 PM,1.15,1.15,1.15,200,230.0,1,1.155,1.15,1.152,3965,4566.2965,24,1.15,1.15,1.155,1.15,,0.01856763925729435,jcp,20191204
2019-12-04,15:29,3:29 PM,1.15,1.15,1.15,300,345.0,1,1.155,1.15,1.151,5700,6561.0,38,1.15,1.15,1.155,1.15,,0.017683465959328043,jcp,20191204
2019-12-04,15:30,3:30 PM,1.15,1.15,1.15,100,115.0,1,1.155,1.15,1.151,3790,4363.5,21,1.15,1.15,1.155,1.15,,0.017683465959328043,jcp,20191204
2019-12-04,15:31,3:31 PM,1.15,1.15,1.15,1,1.15,1,1.155,1.15,1.153,900,1038.0,8,1.15,1.15,1.155,1.155,,0.019451812555260847,jcp,20191204
2019-12-04,15:32,3:32 PM,,,,0,0.0,0,1.155,1.15,1.154,800,923.5,7,,,1.155,1.155,,0.020335985853227153,jcp,20191204
2019-12-04,15:33,3:33 PM,1.15,1.15,1.15,100,115.0,1,1.155,1.15,1.151,9493,10921.95,40,1.15,1.15,1.155,1.15,,0.017683465959328043,jcp,20191204
2019-12-04,15:34,3:34 PM,1.15,1.15,1.15,610,701.5,4,1.155,1.15,1.15,37258,42851.2,63,1.15,1.15,1.15,1.155,,0.016799292661361542,jcp,20191204
2019-12-04,15:35,3:35 PM,1.15,1.15,1.15,7,8.05,1,1.155,1.15,1.152,17400,20039.36,53,1.15,1.15,1.15,1.15,,0.01856763925729435,jcp,20191204
2019-12-04,15:36,3:36 PM,,,,0,0.0,0,1.155,1.15,1.151,6636,7635.9,47,,,1.15,1.15,,0.017683465959328043,jcp,20191204
2019-12-04,15:37,3:37 PM,,,,0,0.0,0,1.155,1.15,1.151,7010,8070.1,33,,,1.15,1.15,,0.017683465959328043,jcp,20191204
2019-12-04,15:38,3:38 PM,,,,0,0.0,0,1.155,1.15,1.15,28810,33135.5,47,,,1.15,1.15,,0.016799292661361542,jcp,20191204
2019-12-04,15:39,3:39 PM,,,,0,0.0,0,1.16,1.15,1.153,25530,29436.0,47,,,1.155,1.15,,0.019451812555260847,jcp,20191204
2019-12-04,15:40,3:40 PM,,,,0,0.0,0,1.155,1.15,1.151,7160,8240.1293,32,,,1.15,1.15,,0.017683465959328043,jcp,20191204
2019-12-04,15:41,3:41 PM,,,,0,0.0,0,1.155,1.15,1.151,2493,2870.45,19,,,1.155,1.155,,0.017683465959328043,jcp,20191204
2019-12-04,15:42,3:42 PM,1.15,1.15,1.15,100,115.0,1,1.157,1.15,1.151,29478,33928.1,86,1.15,1.15,1.155,1.15,,0.017683465959328043,jcp,20191204
2019-12-04,15:43,3:43 PM,,,,0,0.0,0,1.156,1.15,1.151,12831,14765.6,60,,,1.155,1.15,,0.017683465959328043,jcp,20191204
2019-12-04,15:44,3:44 PM,,,,0,0.0,0,1.155,1.15,1.151,7118,8193.77,31,,,1.155,1.155,,0.017683465959328043,jcp,20191204
2019-12-04,15:45,3:45 PM,,,,0,0.0,0,1.155,1.15,1.152,7486,8622.4,31,,,1.155,1.155,,0.01856763925729435,jcp,20191204
2019-12-04,15:46,3:46 PM,,,,0,0.0,0,1.155,1.15,1.152,9579,11033.975,32,,,1.15,1.15,,0.01856763925729435,jcp,20191204
2019-12-04,15:47,3:47 PM,,,,0,0.0,0,1.155,1.15,1.151,7220,8314.0,25,,,1.15,1.15,,0.017683465959328043,jcp,20191204
2019-12-04,15:48,3:48 PM,,,,0,0.0,0,1.16,1.15,1.15,112254,129120.271,73,,,1.155,1.155,,0.016799292661361542,jcp,20191204
2019-12-04,15:49,3:49 PM,1.155,1.155,1.155,97,112.035,1,1.155,1.15,1.151,16554,19048.25,35,1.155,1.155,1.15,1.15,,0.017683465959328043,jcp,20191204
2019-12-04,15:50,3:50 PM,1.15,1.15,1.15,100,115.0,1,1.16,1.15,1.152,30287,34905.492,65,1.15,1.15,1.155,1.155,,0.01856763925729435,jcp,20191204
2019-12-04,15:51,3:51 PM,1.155,1.155,1.155,500,577.5,1,1.155,1.15,1.152,24618,28354.2,74,1.155,1.155,1.155,1.155,,0.01856763925729435,jcp,20191204
2019-12-04,15:52,3:52 PM,,,,0,0.0,0,1.16,1.15,1.151,16330,18798.5956,49,,,1.15,1.155,,0.017683465959328043,jcp,20191204
2019-12-04,15:53,3:53 PM,1.15,1.15,1.15,200,230.0,1,1.155,1.15,1.151,22795,26225.75,47,1.15,1.15,1.15,1.15,,0.017683465959328043,jcp,20191204
2019-12-04,15:54,3:54 PM,1.145,1.145,1.145,2121,2428.545,10,1.16,1.14,1.15,417078,479551.1624,233,1.145,1.145,1.15,1.145,,0.016799292661361542,jcp,20191204
2019-12-04,15:55,3:55 PM,1.145,1.145,1.145,500,572.5,2,1.15,1.14,1.144,34938,39981.675,57,1.145,1.145,1.15,1.14,,0.01149425287356313,jcp,20191204
2019-12-04,15:56,3:56 PM,1.145,1.145,1.145,1300,1488.5,6,1.15,1.14,1.142,11461,13087.275,75,1.145,1.145,1.145,1.14,,0.009725906277630326,jcp,20191204
2019-12-04,15:57,3:57 PM,1.145,1.145,1.145,600,687.0,2,1.15,1.14,1.143,17914,20474.96,70,1.145,1.145,1.145,1.14,,0.010610079575596827,jcp,20191204
2019-12-04,15:58,3:58 PM,1.145,1.145,1.145,200,229.0,2,1.15,1.14,1.142,38983,44507.9945,93,1.145,1.145,1.14,1.14,,0.009725906277630326,jcp,20191204
2019-12-04,15:59,3:59 PM,1.14,1.14,1.14,900,1026.0,5,1.15,1.14,1.14,416293,474662.6029,161,1.14,1.14,1.14,1.14,,0.00795755968169752,jcp,20191204
