date,minute,label,high,low,average,volume,notional,numberOfTrades,marketHigh,marketLow,marketAverage,marketVolume,marketNotional,marketNumberOfTrades,open,close,marketOpen,marketClose,changeOverTime,marketChangeOverTime,tickerName,tickerDate
2019-11-25,09:30,09:30 AM,1.1,1.1,1.1,25,27.5,1,1.11,1.1,1.1,113559,124933.73,9,1.1,1.1,1.1,1.1,0.0,0.0,jcp,20191125
2019-11-25,09:31,09:31 AM,,,,0,0.0,0,1.11,1.1,1.101,3660,4030.622,8,,,1.11,1.1,,0.0009090909090908089,jcp,20191125
2019-11-25,09:32,09:32 AM,1.11,1.11,1.11,100,111.0,1,1.11,1.09,1.1,74804,82298.34,116,1.11,1.11,1.11,1.09,0.009090909090909097,0.0,jcp,20191125
2019-11-25,09:33,09:33 AM,1.095,1.095,1.095,200,219.0,2,1.11,1.09,1.101,14309,15752.01,51,1.095,1.095,1.095,1.104,-0.00454545454545465,0.0009090909090908089,jcp,20191125
2019-11-25,09:34,09:34 AM,,,,0,0.0,0,1.11,1.105,1.11,10860,12052.6,6,,,1.11,1.11,,0.009090909090909097,jcp,20191125
2019-11-25,09:35,09:35 AM,,,,0,0.0,0,1.12,1.1,1.115,23148,25810.8,30,,,1.11,1.12,,0.013636363636363547,jcp,20191125
2019-11-25,09:36,09:36 AM,,,,0,0.0,0,1.12,1.11,1.117,13831,15452.733,36,,,1.11,1.11,,0.015454545454545367,jcp,20191125
2019-11-25,09:37,09:37 AM,1.115,1.115,1.115,600,669.0,2,1.12,1.11,1.117,19730,22033.53,44,1.115,1.115,1.11,1.115,0.013636363636363547,0.015454545454545367,jcp,20191125
2019-11-25,09:38,09:38 AM,,,,0,0.0,0,1.12,1.11,1.116,10930,12197.45,30,,,1.115,1.115,,0.014545454545454558,jcp,20191125
2019-11-25,09:39,09:39 AM,1.115,1.115,1.115,100,111.5,1,1.12,1.11,1.112,11814,13138.644,23,1.115,1.115,1.11,1.12,0.013636363636363547,0.010909090909090919,jcp,20191125
2019-11-25,09:40,09:40 AM,1.125,1.12,1.121,844,945.78,2,1.13,1.115,1.12,56325,63099.0116,74,1.12,1.125,1.12,1.125,0.019090909090909006,0.018181818181818195,jcp,20191125
2019-11-25,09:41,09:41 AM,,,,0,0.0,0,1.13,1.12,1.122,27900,31308.28,8,,,1.12,1.13,,0.020000000000000018,jcp,20191125
2019-11-25,09:42,09:42 AM,,,,0,0.0,0,1.13,1.12,1.127,13240,14917.99,15,,,1.13,1.13,,0.024545454545454464,jcp,20191125
2019-11-25,09:43,09:43 AM,,,,0,0.0,0,1.13,1.12,1.127,8748,9858.9168,15,,,1.13,1.12,,0.024545454545454464,jcp,20191125
2019-11-25,09:44,09:44 AM,1.12,1.12,1.12,5200,5824.0,3,1.13,1.12,1.121,56675,63514.232,48,1.12,1.12,1.12,1.12,0.018181818181818195,0.019090909090909006,jcp,20191125
2019-11-25,09:45,09:45 AM,,,,0,0.0,0,1.13,1.12,1.122,7840,8797.59,32,,,1.12,1.12,,0.020000000000000018,jcp,20191125
2019-11-25,09:46,09:46 AM,1.12,1.12,1.12,6000,6720.0,1,1.13,1.12,1.122,34915,39179.1852,57,1.12,1.12,1.125,1.12,0.018181818181818195,0.020000000000000018,jcp,20191125
2019-11-25,09:47,09:47 AM,1.12,1.12,1.12,365,408.8,2,1.13,1.12,1.125,15169,17065.78,40,1.12,1.12,1.12,1.12,0.018181818181818195,0.022727272727272645,jcp,20191125
2019-11-25,09:48,09:48 AM,1.12,1.12,1.12,100,112.0,1,1.13,1.12,1.124,36909,41474.62,66,1.12,1.12,1.12,1.12,0.018181818181818195,0.021818181818181837,jcp,20191125
2019-11-25,09:49,09:49 AM,,,,0,0.0,0,1.125,1.12,1.122,5363,6017.1554,20,,,1.125,1.12,,0.020000000000000018,jcp,20191125
2019-11-25,09:50,09:50 AM,,,,0,0.0,0,1.125,1.12,1.121,2400,2689.5,20,,,1.12,1.12,,0.019090909090909006,jcp,20191125
2019-11-25,09:51,09:51 AM,,,,0,0.0,0,1.125,1.12,1.12,7566,8477.43,34,,,1.12,1.12,,0.018181818181818195,jcp,20191125
2019-11-25,09:52,09:52 AM,1.12,1.12,1.12,2255,2525.6,5,1.13,1.12,1.121,30214,33856.6798,74,1.12,1.12,1.12,1.12,0.018181818181818195,0.019090909090909006,jcp,20191125
2019-11-25,09:53,09:53 AM,,,,0,0.0,0,1.13,1.12,1.129,49110,55447.444,20,,,1.12,1.12,,0.026363636363636284,jcp,20191125
2019-11-25,09:54,09:54 AM,1.12,1.12,1.12,200,224.0,1,1.125,1.11,1.12,30927,34631.64,49,1.12,1.12,1.12,1.115,0.018181818181818195,0.018181818181818195,jcp,20191125
2019-11-25,09:55,09:55 AM,,,,0,0.0,0,1.12,1.11,1.112,897,997.7494,6,,,1.11,1.115,,0.010909090909090919,jcp,20191125
2019-11-25,09:56,09:56 AM,1.115,1.115,1.115,200,223.0,2,1.12,1.11,1.115,850,947.75,7,1.115,1.115,1.115,1.115,0.013636363636363547,0.013636363636363547,jcp,20191125
2019-11-25,09:57,09:57 AM,1.115,1.115,1.115,1,1.115,1,1.12,1.11,1.111,3300,3665.0,9,1.115,1.115,1.11,1.11,0.013636363636363547,0.009999999999999907,jcp,20191125
2019-11-25,09:58,09:58 AM,1.115,1.115,1.115,500,557.5,2,1.12,1.11,1.116,5000,5580.3,12,1.115,1.115,1.11,1.11,0.013636363636363547,0.014545454545454558,jcp,20191125
2019-11-25,09:59,09:59 AM,,,,0,0.0,0,1.12,1.11,1.113,7335,8163.85,12,,,1.11,1.12,,0.011818181818181726,jcp,20191125
2019-11-25,10:00,10 AM,1.115,1.115,1.115,1,1.115,1,1.12,1.11,1.111,1600,1778.5,7,1.115,1.115,1.115,1.11,0.013636363636363547,0.009999999999999907,jcp,20191125
2019-11-25,10:01,10:01 AM,1.125,1.12,1.124,2209,2482.125,14,1.13,1.11,1.123,38834,43616.09,75,1.12,1.125,1.11,1.12,0.021818181818181837,0.020909090909090825,jcp,20191125
2019-11-25,10:02,10:02 AM,1.125,1.125,1.125,204,229.5,5,1.13,1.12,1.123,700,786.0,7,1.125,1.125,1.12,1.12,0.022727272727272645,0.020909090909090825,jcp,20191125
2019-11-25,10:03,10:03 AM,1.125,1.125,1.125,817,919.125,13,1.13,1.12,1.129,19397,21895.26,31,1.125,1.125,1.12,1.125,0.022727272727272645,0.026363636363636284,jcp,20191125
2019-11-25,10:04,10:04 AM,1.125,1.11,1.114,1601,1783.125,10,1.13,1.11,1.118,54367,60766.985,70,1.125,1.115,1.125,1.115,0.012727272727272738,0.016363636363636375,jcp,20191125
2019-11-25,10:05,10:05 AM,1.115,1.115,1.115,100,111.5,1,1.12,1.11,1.119,5353,5989.01,17,1.115,1.115,1.12,1.12,0.013636363636363547,0.017272727272727186,jcp,20191125
2019-11-25,10:06,10:06 AM,1.12,1.12,1.12,200,224.0,1,1.13,1.115,1.12,36905,41350.07,46,1.12,1.12,1.12,1.12,0.018181818181818195,0.018181818181818195,jcp,20191125
2019-11-25,10:07,10:07 AM,,,,0,0.0,0,1.13,1.12,1.123,2400,2695.24,15,,,1.125,1.12,,0.020909090909090825,jcp,20191125
2019-11-25,10:08,10:08 AM,1.125,1.125,1.125,100,112.5,1,1.13,1.12,1.123,1940,2178.5,14,1.125,1.125,1.125,1.12,0.022727272727272645,0.020909090909090825,jcp,20191125
2019-11-25,10:09,10:09 AM,1.125,1.125,1.125,2,2.25,2,1.13,1.12,1.125,4050,4555.095,29,1.125,1.125,1.125,1.12,0.022727272727272645,0.022727272727272645,jcp,20191125
2019-11-25,10:10,10:10 AM,1.125,1.125,1.125,13,14.625,3,1.125,1.12,1.121,1500,1681.5,14,1.125,1.125,1.12,1.12,0.022727272727272645,0.019090909090909006,jcp,20191125
2019-11-25,10:11,10:11 AM,,,,0,0.0,0,1.13,1.12,1.121,1800,2018.48,16,,,1.12,1.12,,0.019090909090909006,jcp,20191125
2019-11-25,10:12,10:12 AM,,,,0,0.0,0,1.125,1.12,1.121,1800,2017.5,16,,,1.12,1.125,,0.019090909090909006,jcp,20191125
2019-11-25,10:13,10:13 AM,1.125,1.125,1.125,87,97.875,1,1.13,1.12,1.121,21600,24204.67,32,1.125,1.125,1.12,1.12,0.022727272727272645,0.019090909090909006,jcp,20191125
2019-11-25,10:14,10:14 AM,1.125,1.125,1.125,1,1.125,1,1.125,1.12,1.121,2660,2982.3,20,1.125,1.125,1.125,1.12,0.022727272727272645,0.019090909090909006,jcp,20191125
2019-11-25,10:15,10:15 AM,,,,0,0.0,0,1.13,1.12,1.122,1877,2105.73,14,,,1.12,1.125,,0.020000000000000018,jcp,20191125
2019-11-25,10:16,10:16 AM,,,,0,0.0,0,1.125,1.12,1.121,3600,4034.5,18,,,1.12,1.12,,0.019090909090909006,jcp,20191125
2019-11-25,10:17,10:17 AM,1.125,1.125,1.125,100,112.5,1,1.125,1.12,1.121,10530,11804.842,28,1.125,1.125,1.12,1.125,0.022727272727272645,0.019090909090909006,jcp,20191125
2019-11-25,10:18,10:18 AM,,,,0,0.0,0,1.125,1.12,1.121,3100,3475.58,24,,,1.125,1.12,,0.019090909090909006,jcp,20191125
2019-11-25,10:19,10:19 AM,,,,0,0.0,0,1.125,1.12,1.12,15600,17479.5,24,,,1.12,1.12,,0.018181818181818195,jcp,20191125
2019-11-25,10:20,10:20 AM,,,,0,0.0,0,1.125,1.12,1.121,4900,5491.6,23,,,1.12,1.12,,0.019090909090909006,jcp,20191125
2019-11-25,10:21,10:21 AM,1.125,1.125,1.125,100,112.5,1,1.125,1.12,1.122,7075,7938.8025,34,1.125,1.125,1.12,1.12,0.022727272727272645,0.020000000000000018,jcp,20191125
2019-11-25,10:22,10:22 AM,1.125,1.125,1.125,200,225.0,2,1.13,1.12,1.128,13710,15460.7,32,1.125,1.125,1.12,1.13,0.022727272727272645,0.02545454545454527,jcp,20191125
2019-11-25,10:23,10:23 AM,1.125,1.125,1.125,100,112.5,1,1.13,1.12,1.124,3507,3942.99,19,1.125,1.125,1.125,1.12,0.022727272727272645,0.021818181818181837,jcp,20191125
2019-11-25,10:24,10:24 AM,1.125,1.125,1.125,100,112.5,1,1.13,1.12,1.123,2950,3312.225,20,1.125,1.125,1.125,1.12,0.022727272727272645,0.020909090909090825,jcp,20191125
2019-11-25,10:25,10:25 AM,1.125,1.125,1.125,100,112.5,1,1.13,1.12,1.123,3075,3453.0,22,1.125,1.125,1.12,1.12,0.022727272727272645,0.020909090909090825,jcp,20191125
2019-11-25,10:26,10:26 AM,,,,0,0.0,0,1.125,1.12,1.121,2134,2391.25,19,,,1.12,1.12,,0.019090909090909006,jcp,20191125
2019-11-25,10:27,10:27 AM,,,,0,0.0,0,1.13,1.12,1.123,4282,4808.7908,25,,,1.125,1.12,,0.020909090909090825,jcp,20191125
2019-11-25,10:28,10:28 AM,1.125,1.125,1.125,100,112.5,1,1.13,1.12,1.123,4100,4606.68,21,1.125,1.125,1.125,1.12,0.022727272727272645,0.020909090909090825,jcp,20191125
2019-11-25,10:29,10:29 AM,1.125,1.125,1.125,100,112.5,1,1.13,1.12,1.121,4800,5382.45,28,1.125,1.125,1.12,1.12,0.022727272727272645,0.019090909090909006,jcp,20191125
2019-11-25,10:30,10:30 AM,,,,0,0.0,0,1.125,1.12,1.121,1700,1905.0,15,,,1.12,1.12,,0.019090909090909006,jcp,20191125
2019-11-25,10:31,10:31 AM,,,,0,0.0,0,1.125,1.12,1.121,2480,2781.365,19,,,1.12,1.12,,0.019090909090909006,jcp,20191125
2019-11-25,10:32,10:32 AM,,,,0,0.0,0,1.125,1.12,1.12,2100,2353.0,17,,,1.12,1.12,,0.018181818181818195,jcp,20191125
2019-11-25,10:33,10:33 AM,1.125,1.125,1.125,200,225.0,2,1.125,1.12,1.124,9200,10342.0,36,1.125,1.125,1.123,1.125,0.022727272727272645,0.021818181818181837,jcp,20191125
2019-11-25,10:34,10:34 AM,1.125,1.125,1.125,200,225.0,2,1.13,1.12,1.122,15019,16848.59,51,1.125,1.125,1.12,1.125,0.022727272727272645,0.020000000000000018,jcp,20191125
2019-11-25,10:35,10:35 AM,1.125,1.125,1.125,700,787.5,7,1.13,1.12,1.121,27100,30389.75,73,1.125,1.125,1.12,1.12,0.022727272727272645,0.019090909090909006,jcp,20191125
2019-11-25,10:36,10:36 AM,1.125,1.125,1.125,100,112.5,1,1.125,1.12,1.122,4900,5499.8,26,1.125,1.125,1.12,1.12,0.022727272727272645,0.020000000000000018,jcp,20191125
2019-11-25,10:37,10:37 AM,1.125,1.125,1.125,1000,1125.0,9,1.13,1.12,1.125,20950,23565.44,37,1.125,1.125,1.12,1.125,0.022727272727272645,0.022727272727272645,jcp,20191125
2019-11-25,10:38,10:38 AM,1.125,1.125,1.125,700,787.5,7,1.13,1.12,1.125,11500,12932.5,27,1.125,1.125,1.125,1.12,0.022727272727272645,0.022727272727272645,jcp,20191125
2019-11-25,10:39,10:39 AM,1.125,1.125,1.125,1300,1462.5,10,1.13,1.12,1.123,39000,43797.0,41,1.125,1.125,1.12,1.125,0.022727272727272645,0.020909090909090825,jcp,20191125
2019-11-25,10:40,10:40 AM,1.125,1.125,1.125,200,225.0,2,1.13,1.12,1.122,10970,12310.047,39,1.125,1.125,1.125,1.125,0.022727272727272645,0.020000000000000018,jcp,20191125
2019-11-25,10:41,10:41 AM,1.125,1.125,1.125,300,337.5,3,1.13,1.12,1.123,4585,5150.3405,22,1.125,1.125,1.12,1.125,0.022727272727272645,0.020909090909090825,jcp,20191125
2019-11-25,10:42,10:42 AM,,,,0,0.0,0,1.13,1.12,1.122,2300,2580.2,19,,,1.12,1.13,,0.020000000000000018,jcp,20191125
2019-11-25,10:43,10:43 AM,1.125,1.125,1.125,200,225.0,2,1.125,1.12,1.122,3000,3365.7,11,1.125,1.125,1.12,1.125,0.022727272727272645,0.020000000000000018,jcp,20191125
2019-11-25,10:44,10:44 AM,1.125,1.125,1.125,500,562.5,5,1.13,1.12,1.121,7100,7958.08,13,1.125,1.125,1.12,1.12,0.022727272727272645,0.019090909090909006,jcp,20191125
2019-11-25,10:45,10:45 AM,1.125,1.12,1.125,7004,7878.48,29,1.13,1.115,1.12,180617,202333.444,178,1.125,1.125,1.12,1.125,0.022727272727272645,0.018181818181818195,jcp,20191125
2019-11-25,10:46,10:46 AM,,,,0,0.0,0,1.13,1.12,1.125,5326,5992.228,15,,,1.125,1.12,,0.022727272727272645,jcp,20191125
2019-11-25,10:47,10:47 AM,1.125,1.12,1.123,5046,5664.52,27,1.13,1.12,1.12,50700,56805.0,72,1.125,1.12,1.12,1.13,0.020909090909090825,0.018181818181818195,jcp,20191125
2019-11-25,10:48,10:48 AM,,,,0,0.0,0,1.125,1.12,1.125,1200,1349.5,6,,,1.12,1.125,,0.022727272727272645,jcp,20191125
2019-11-25,10:49,10:49 AM,,,,0,0.0,0,1.125,1.12,1.121,400,448.5,4,,,1.12,1.125,,0.019090909090909006,jcp,20191125
2019-11-25,10:50,10:50 AM,,,,0,0.0,0,1.125,1.12,1.123,800,898.5,7,,,1.12,1.12,,0.020909090909090825,jcp,20191125
2019-11-25,10:51,10:51 AM,1.125,1.125,1.125,73,82.125,6,1.125,1.12,1.121,17843,19999.66,34,1.125,1.125,1.125,1.12,0.022727272727272645,0.019090909090909006,jcp,20191125
2019-11-25,10:52,10:52 AM,1.125,1.125,1.125,32,36.0,3,1.125,1.12,1.122,2600,2917.5,14,1.125,1.125,1.12,1.12,0.022727272727272645,0.020000000000000018,jcp,20191125
2019-11-25,10:53,10:53 AM,1.125,1.125,1.125,17,19.125,1,1.125,1.12,1.12,1800,2016.5,8,1.125,1.125,1.12,1.12,0.022727272727272645,0.018181818181818195,jcp,20191125
2019-11-25,10:54,10:54 AM,1.125,1.125,1.125,93,104.625,3,1.126,1.12,1.122,9880,11084.932,14,1.125,1.125,1.125,1.125,0.022727272727272645,0.020000000000000018,jcp,20191125
2019-11-25,10:55,10:55 AM,1.125,1.115,1.115,10783,12024.265,14,1.126,1.115,1.118,115677,129361.575,102,1.125,1.12,1.125,1.115,0.013636363636363547,0.016363636363636375,jcp,20191125
2019-11-25,10:56,10:56 AM,1.12,1.115,1.117,200,223.5,2,1.12,1.11,1.116,27459,30647.49,47,1.115,1.12,1.115,1.12,0.015454545454545367,0.014545454545454558,jcp,20191125
2019-11-25,10:57,10:57 AM,1.115,1.115,1.115,100,111.5,1,1.12,1.11,1.115,42500,47381.71,37,1.115,1.115,1.12,1.115,0.013636363636363547,0.013636363636363547,jcp,20191125
2019-11-25,10:58,10:58 AM,,,,0,0.0,0,1.12,1.11,1.115,3200,3569.73,22,,,1.114,1.115,,0.013636363636363547,jcp,20191125
2019-11-25,10:59,10:59 AM,1.115,1.115,1.115,63,70.245,3,1.115,1.11,1.115,4400,4904.51,14,1.115,1.115,1.11,1.115,0.013636363636363547,0.013636363636363547,jcp,20191125
2019-11-25,11:00,11 AM,,,,0,0.0,0,1.12,1.115,1.119,8062,9023.64,26,,,1.12,1.12,,0.017272727272727186,jcp,20191125
2019-11-25,11:01,11:01 AM,,,,0,0.0,0,1.12,1.115,1.118,300,335.5,3,,,1.12,1.115,,0.016363636363636375,jcp,20191125
2019-11-25,11:02,11:02 AM,,,,0,0.0,0,1.12,1.115,1.119,2332,2610.1,9,,,1.115,1.12,,0.017272727272727186,jcp,20191125
2019-11-25,11:03,11:03 AM,,,,0,0.0,0,1.12,1.115,1.119,600,671.5,4,,,1.115,1.12,,0.017272727272727186,jcp,20191125
2019-11-25,11:04,11:04 AM,1.115,1.115,1.115,795,886.425,15,1.12,1.11,1.112,25723,28605.81,33,1.115,1.115,1.115,1.12,0.013636363636363547,0.010909090909090919,jcp,20191125
2019-11-25,11:05,11:05 AM,,,,0,0.0,0,1.12,1.115,1.116,2946,3287.29,10,,,1.115,1.12,,0.014545454545454558,jcp,20191125
2019-11-25,11:06,11:06 AM,1.115,1.115,1.115,268,298.82,10,1.12,1.113,1.115,2200,2452.25,5,1.115,1.115,1.113,1.12,0.013636363636363547,0.013636363636363547,jcp,20191125
2019-11-25,11:07,11:07 AM,,,,0,0.0,0,1.12,1.115,1.119,5500,6152.76,13,,,1.12,1.12,,0.017272727272727186,jcp,20191125
2019-11-25,11:08,11:08 AM,,,,0,0.0,0,1.12,1.115,1.116,750,837.25,5,,,1.12,1.115,,0.014545454545454558,jcp,20191125
2019-11-25,11:09,11:09 AM,,,,0,0.0,0,1.12,1.11,1.114,5705,6357.355,7,,,1.12,1.12,,0.012727272727272738,jcp,20191125
2019-11-25,11:10,11:10 AM,,,,0,0.0,0,1.115,1.11,1.113,1145,1274.9465,3,,,1.114,1.11,,0.011818181818181726,jcp,20191125
2019-11-25,11:11,11:11 AM,,,,0,0.0,0,1.12,1.11,1.114,1900,2117.1,7,,,1.12,1.12,,0.012727272727272738,jcp,20191125
2019-11-25,11:12,11:12 AM,,,,0,0.0,0,1.12,1.11,1.117,1200,1340.5,3,,,1.12,1.11,,0.015454545454545367,jcp,20191125
2019-11-25,11:13,11:13 AM,,,,0,0.0,0,1.12,1.11,1.119,11757,13152.545,33,,,1.12,1.12,,0.017272727272727186,jcp,20191125
2019-11-25,11:14,11:14 AM,1.12,1.12,1.12,100,112.0,1,1.12,1.11,1.118,609,680.6331,6,1.12,1.12,1.12,1.116,0.018181818181818195,0.016363636363636375,jcp,20191125
2019-11-25,11:15,11:15 AM,,,,0,0.0,0,1.125,1.12,1.12,11300,12658.0,23,,,1.12,1.125,,0.018181818181818195,jcp,20191125
2019-11-25,11:16,11:16 AM,,,,0,0.0,0,1.129,1.125,1.128,3200,3608.856,3,,,1.125,1.125,,0.02545454545454527,jcp,20191125
2019-11-25,11:17,11:17 AM,,,,0,0.0,0,1.125,1.121,1.123,6550,7354.75,10,,,1.125,1.125,,0.020909090909090825,jcp,20191125
2019-11-25,11:18,11:18 AM,,,,0,0.0,0,1.125,1.12,1.121,5370,6021.416,9,,,1.125,1.125,,0.019090909090909006,jcp,20191125
2019-11-25,11:19,11:19 AM,,,,0,0.0,0,1.125,1.125,1.125,100,112.5,1,,,1.125,1.125,,0.022727272727272645,jcp,20191125
2019-11-25,11:20,11:20 AM,,,,0,0.0,0,1.13,1.12,1.125,2000,2249.9,7,,,1.123,1.13,,0.022727272727272645,jcp,20191125
2019-11-25,11:21,11:21 AM,,,,0,0.0,0,1.123,1.12,1.123,1100,1235.4,2,,,1.123,1.12,,0.020909090909090825,jcp,20191125
2019-11-25,11:22,11:22 AM,,,,0,0.0,0,1.125,1.12,1.124,500,562.0,4,,,1.12,1.125,,0.021818181818181837,jcp,20191125
2019-11-25,11:23,11:23 AM,,,,0,0.0,0,1.125,1.12,1.122,934,1048.25,8,,,1.125,1.12,,0.020000000000000018,jcp,20191125
2019-11-25,11:24,11:24 AM,,,,0,0.0,0,1.13,1.12,1.129,10700,12086.09,10,,,1.125,1.13,,0.026363636363636284,jcp,20191125
2019-11-25,11:25,11:25 AM,,,,0,0.0,0,1.126,1.12,1.12,10700,11986.77,6,,,1.12,1.12,,0.018181818181818195,jcp,20191125
2019-11-25,11:26,11:26 AM,,,,0,0.0,0,1.125,1.12,1.121,13600,15244.0,9,,,1.125,1.125,,0.019090909090909006,jcp,20191125
2019-11-25,11:27,11:27 AM,,,,0,0.0,0,1.126,1.12,1.126,5000,5630.11,4,,,1.126,1.12,,0.023636363636363452,jcp,20191125
2019-11-25,11:28,11:28 AM,,,,0,0.0,0,1.125,1.12,1.123,300,337.0,3,,,1.125,1.125,,0.020909090909090825,jcp,20191125
2019-11-25,11:29,11:29 AM,,,,0,0.0,0,1.125,1.12,1.122,300,336.5,3,,,1.12,1.12,,0.020000000000000018,jcp,20191125
2019-11-25,11:30,11:30 AM,,,,0,0.0,0,1.125,1.12,1.123,700,786.5,6,,,1.125,1.125,,0.020909090909090825,jcp,20191125
2019-11-25,11:31,11:31 AM,,,,0,0.0,0,1.13,1.12,1.129,5600,6324.0,6,,,1.12,1.12,,0.026363636363636284,jcp,20191125
2019-11-25,11:32,11:32 AM,,,,0,0.0,0,1.125,1.12,1.123,1514,1699.6072,6,,,1.125,1.12,,0.020909090909090825,jcp,20191125
2019-11-25,11:33,11:33 AM,,,,0,0.0,0,1.125,1.12,1.124,1600,1799.0,6,,,1.125,1.125,,0.021818181818181837,jcp,20191125
2019-11-25,11:34,11:34 AM,,,,0,0.0,0,1.127,1.12,1.125,1400,1574.63,6,,,1.127,1.125,,0.022727272727272645,jcp,20191125
2019-11-25,11:35,11:35 AM,,,,0,0.0,0,1.13,1.12,1.125,10995,12367.952,16,,,1.12,1.124,,0.022727272727272645,jcp,20191125
2019-11-25,11:36,11:36 AM,,,,0,0.0,0,1.13,1.12,1.122,8475,9508.525,15,,,1.125,1.13,,0.020000000000000018,jcp,20191125
2019-11-25,11:37,11:37 AM,,,,0,0.0,0,1.13,1.12,1.126,800,901.0,7,,,1.125,1.12,,0.023636363636363452,jcp,20191125
2019-11-25,11:38,11:38 AM,1.125,1.125,1.125,200,225.0,2,1.13,1.12,1.13,19661,22209.43,27,1.125,1.125,1.12,1.125,0.022727272727272645,0.027272727272727094,jcp,20191125
2019-11-25,11:39,11:39 AM,,,,0,0.0,0,1.13,1.12,1.129,18111,20452.93,8,,,1.13,1.125,,0.026363636363636284,jcp,20191125
2019-11-25,11:40,11:40 AM,,,,0,0.0,0,1.13,1.12,1.12,4300,4818.1,6,,,1.12,1.13,,0.018181818181818195,jcp,20191125
2019-11-25,11:41,11:41 AM,,,,0,0.0,0,1.13,1.12,1.13,5860,6619.8,8,,,1.12,1.125,,0.027272727272727094,jcp,20191125
2019-11-25,11:42,11:42 AM,,,,0,0.0,0,1.13,1.12,1.128,4600,5187.5,8,,,1.129,1.13,,0.02545454545454527,jcp,20191125
2019-11-25,11:43,11:43 AM,,,,0,0.0,0,1.13,1.12,1.121,17600,19736.27,9,,,1.13,1.13,,0.019090909090909006,jcp,20191125
2019-11-25,11:44,11:44 AM,,,,0,0.0,0,1.13,1.12,1.123,8100,9097.38,17,,,1.125,1.125,,0.020909090909090825,jcp,20191125
2019-11-25,11:45,11:45 AM,,,,0,0.0,0,1.13,1.12,1.12,10971,12291.875,7,,,1.12,1.125,,0.018181818181818195,jcp,20191125
2019-11-25,11:46,11:46 AM,,,,0,0.0,0,1.13,1.125,1.128,300,338.5,3,,,1.125,1.13,,0.02545454545454527,jcp,20191125
2019-11-25,11:47,11:47 AM,,,,0,0.0,0,1.13,1.12,1.129,3000,3387.0,11,,,1.13,1.13,,0.026363636363636284,jcp,20191125
2019-11-25,11:48,11:48 AM,,,,0,0.0,0,1.125,1.12,1.123,200,224.5,2,,,1.125,1.12,,0.020909090909090825,jcp,20191125
2019-11-25,11:49,11:49 AM,,,,0,0.0,0,1.13,1.125,1.127,600,676.5,6,,,1.13,1.13,,0.024545454545454464,jcp,20191125
2019-11-25,11:50,11:50 AM,1.13,1.13,1.13,935,1056.55,2,1.14,1.12,1.13,299571,338488.79,117,1.13,1.13,1.12,1.14,0.027272727272727094,0.027272727272727094,jcp,20191125
2019-11-25,11:51,11:51 AM,1.14,1.14,1.14,100,114.0,1,1.14,1.13,1.138,1364,1552.557,6,1.14,1.14,1.14,1.14,0.03636363636363619,0.03454545454545437,jcp,20191125
2019-11-25,11:52,11:52 AM,,,,0,0.0,0,1.14,1.13,1.14,46994,53561.54,25,,,1.137,1.14,,0.03636363636363619,jcp,20191125
2019-11-25,11:53,11:53 AM,,,,0,0.0,0,1.14,1.14,1.14,1200,1368.0,3,,,1.14,1.14,,0.03636363636363619,jcp,20191125
2019-11-25,11:54,11:54 AM,,,,0,0.0,0,1.14,1.134,1.136,1529,1737.65,7,,,1.14,1.14,,0.03272727272727255,jcp,20191125
2019-11-25,11:55,11:55 AM,,,,0,0.0,0,1.14,1.13,1.135,2814,3195.49,6,,,1.13,1.14,,0.031818181818181746,jcp,20191125
2019-11-25,11:56,11:56 AM,,,,0,0.0,0,1.14,1.13,1.134,9661,10952.09,12,,,1.14,1.14,,0.030909090909090733,jcp,20191125
2019-11-25,11:57,11:57 AM,,,,0,0.0,0,1.14,1.134,1.139,63400,72231.23,7,,,1.139,1.136,,0.035454545454545384,jcp,20191125
2019-11-25,11:58,11:58 AM,,,,0,0.0,0,1.14,1.135,1.139,7900,8999.378,7,,,1.14,1.14,,0.035454545454545384,jcp,20191125
2019-11-25,11:59,11:59 AM,,,,0,0.0,0,1.14,1.13,1.137,15750,17915.3,9,,,1.14,1.13,,0.03363636363636356,jcp,20191125
2019-11-25,12:00,12 PM,,,,0,0.0,0,1.14,1.135,1.138,10680,12151.792,6,,,1.135,1.135,,0.03454545454545437,jcp,20191125
2019-11-25,12:01,12:01 PM,1.14,1.14,1.14,200,228.0,1,1.14,1.13,1.134,733,831.29,4,1.14,1.14,1.14,1.14,0.03636363636363619,0.030909090909090733,jcp,20191125
2019-11-25,12:02,12:02 PM,1.14,1.14,1.14,200,228.0,2,1.14,1.135,1.139,400,455.5,4,1.14,1.14,1.135,1.14,0.03636363636363619,0.035454545454545384,jcp,20191125
2019-11-25,12:03,12:03 PM,,,,0,0.0,0,1.14,1.13,1.132,6046,6846.7318,12,,,1.14,1.135,,0.029090909090908914,jcp,20191125
2019-11-25,12:04,12:04 PM,,,,0,0.0,0,1.14,1.135,1.138,480,546.3,4,,,1.135,1.14,,0.03454545454545437,jcp,20191125
2019-11-25,12:05,12:05 PM,1.14,1.14,1.14,300,342.0,2,1.14,1.13,1.137,600,682.5,5,1.14,1.14,1.14,1.13,0.03636363636363619,0.03363636363636356,jcp,20191125
2019-11-25,12:06,12:06 PM,,,,0,0.0,0,1.14,1.13,1.135,17626,20003.38,30,,,1.14,1.135,,0.031818181818181746,jcp,20191125
2019-11-25,12:07,12:07 PM,1.135,1.135,1.135,9,10.215,1,1.14,1.13,1.131,5273,5962.99,4,1.135,1.135,1.14,1.14,0.031818181818181746,0.028181818181818103,jcp,20191125
2019-11-25,12:08,12:08 PM,,,,0,0.0,0,1.14,1.13,1.131,2405,2721.175,7,,,1.135,1.13,,0.028181818181818103,jcp,20191125
2019-11-25,12:09,12:09 PM,1.135,1.135,1.135,69,78.315,3,1.14,1.13,1.135,600,681.0,4,1.135,1.135,1.14,1.13,0.031818181818181746,0.031818181818181746,jcp,20191125
2019-11-25,12:10,12:10 PM,,,,0,0.0,0,1.14,1.135,1.136,1500,1704.0,6,,,1.135,1.14,,0.03272727272727255,jcp,20191125
2019-11-25,12:11,12:11 PM,,,,0,0.0,0,1.14,1.13,1.136,1305,1482.691,7,,,1.13,1.135,,0.03272727272727255,jcp,20191125
2019-11-25,12:12,12:12 PM,,,,0,0.0,0,1.14,1.135,1.135,2400,2725.0,5,,,1.135,1.135,,0.031818181818181746,jcp,20191125
2019-11-25,12:13,12:13 PM,1.135,1.135,1.135,1,1.135,1,1.14,1.13,1.137,3288,3737.18,5,1.135,1.135,1.135,1.136,0.031818181818181746,0.03363636363636356,jcp,20191125
2019-11-25,12:14,12:14 PM,,,,0,0.0,0,1.14,1.13,1.133,1200,1360.0,9,,,1.13,1.135,,0.029999999999999923,jcp,20191125
2019-11-25,12:15,12:15 PM,,,,0,0.0,0,1.14,1.13,1.134,6524,7398.4724,6,,,1.135,1.135,,0.030909090909090733,jcp,20191125
2019-11-25,12:16,12:16 PM,,,,0,0.0,0,1.14,1.13,1.135,550,624.03,5,,,1.135,1.13,,0.031818181818181746,jcp,20191125
2019-11-25,12:17,12:17 PM,,,,0,0.0,0,1.135,1.135,1.135,400,453.98,3,,,1.135,1.135,,0.031818181818181746,jcp,20191125
2019-11-25,12:18,12:18 PM,,,,0,0.0,0,1.14,1.13,1.136,1400,1590.5,7,,,1.135,1.135,,0.03272727272727255,jcp,20191125
2019-11-25,12:19,12:19 PM,,,,0,0.0,0,1.14,1.135,1.135,1100,1249.0,3,,,1.135,1.14,,0.031818181818181746,jcp,20191125
2019-11-25,12:20,12:20 PM,,,,0,0.0,0,1.14,1.13,1.135,5850,6641.25,6,,,1.13,1.14,,0.031818181818181746,jcp,20191125
2019-11-25,12:21,12:21 PM,,,,0,0.0,0,1.135,1.135,1.135,550,624.25,3,,,1.135,1.135,,0.031818181818181746,jcp,20191125
2019-11-25,12:22,12:22 PM,,,,0,0.0,0,1.14,1.13,1.131,84701,95817.14,14,,,1.135,1.135,,0.028181818181818103,jcp,20191125
2019-11-25,12:23,12:23 PM,,,,0,0.0,0,1.135,1.13,1.133,200,226.5,2,,,1.135,1.13,,0.029999999999999923,jcp,20191125
2019-11-25,12:24,12:24 PM,,,,0,0.0,0,1.14,1.13,1.135,3500,3973.02,8,,,1.135,1.135,,0.031818181818181746,jcp,20191125
2019-11-25,12:25,12:25 PM,,,,0,0.0,0,1.14,1.13,1.137,2824,3211.8352,8,,,1.135,1.135,,0.03363636363636356,jcp,20191125
2019-11-25,12:26,12:26 PM,,,,0,0.0,0,1.135,1.135,1.135,362,410.8438,2,,,1.135,1.135,,0.031818181818181746,jcp,20191125
2019-11-25,12:27,12:27 PM,,,,0,0.0,0,1.13,1.13,1.13,100,113.0,1,,,1.13,1.13,,0.027272727272727094,jcp,20191125
2019-11-25,12:28,12:28 PM,,,,0,0.0,0,1.135,1.135,1.135,200,227.0,2,,,1.135,1.135,,0.031818181818181746,jcp,20191125
2019-11-25,12:29,12:29 PM,,,,0,0.0,0,1.14,1.13,1.134,800,907.5,6,,,1.13,1.135,,0.030909090909090733,jcp,20191125
2019-11-25,12:30,12:30 PM,1.135,1.135,1.135,200,227.0,2,1.14,1.135,1.137,10627,12080.645,21,1.135,1.135,1.135,1.135,0.031818181818181746,0.03363636363636356,jcp,20191125
2019-11-25,12:31,12:31 PM,,,,0,0.0,0,1.14,1.13,1.131,31700,35840.05,16,,,1.135,1.13,,0.028181818181818103,jcp,20191125
2019-11-25,12:32,12:32 PM,1.14,1.14,1.14,1300,1482.0,5,1.14,1.134,1.138,27172,30929.06,33,1.14,1.14,1.14,1.14,0.03636363636363619,0.03454545454545437,jcp,20191125
2019-11-25,12:33,12:33 PM,,,,0,0.0,0,1.14,1.13,1.137,71265,81029.08,36,,,1.135,1.14,,0.03363636363636356,jcp,20191125
2019-11-25,12:34,12:34 PM,,,,0,0.0,0,1.14,1.135,1.139,1000,1138.5,5,,,1.14,1.135,,0.035454545454545384,jcp,20191125
2019-11-25,12:35,12:35 PM,1.14,1.14,1.14,100,114.0,1,1.14,1.135,1.14,43500,49588.5,19,1.14,1.14,1.135,1.14,0.03636363636363619,0.03636363636363619,jcp,20191125
2019-11-25,12:36,12:36 PM,1.14,1.14,1.14,100,114.0,2,1.15,1.14,1.14,402669,459050.16,82,1.14,1.14,1.14,1.145,0.03636363636363619,0.03636363636363619,jcp,20191125
2019-11-25,12:37,12:37 PM,,,,0,0.0,0,1.15,1.14,1.143,10264,11728.8511,6,,,1.15,1.143,,0.03909090909090902,jcp,20191125
2019-11-25,12:38,12:38 PM,,,,0,0.0,0,1.15,1.144,1.147,600,687.94,4,,,1.15,1.145,,0.04272727272727266,jcp,20191125
2019-11-25,12:39,12:39 PM,,,,0,0.0,0,1.15,1.14,1.148,9941,11414.5025,16,,,1.145,1.14,,0.043636363636363466,jcp,20191125
2019-11-25,12:40,12:40 PM,,,,0,0.0,0,1.15,1.145,1.15,36088,41498.95,25,,,1.145,1.145,,0.04545454545454529,jcp,20191125
2019-11-25,12:41,12:41 PM,,,,0,0.0,0,1.15,1.14,1.141,32289,36842.9805,9,,,1.15,1.15,,0.0372727272727272,jcp,20191125
2019-11-25,12:42,12:42 PM,1.15,1.145,1.147,200,229.5,2,1.15,1.145,1.149,17490,20098.5,53,1.145,1.15,1.15,1.15,0.04272727272727266,0.04454545454545448,jcp,20191125
2019-11-25,12:43,12:43 PM,1.15,1.15,1.15,2000,2300.0,8,1.15,1.145,1.15,11700,13452.0,24,1.15,1.15,1.15,1.15,0.04545454545454529,0.04545454545454529,jcp,20191125
2019-11-25,12:44,12:44 PM,1.15,1.15,1.15,200,230.0,1,1.15,1.14,1.15,5100,5863.0,13,1.15,1.15,1.15,1.15,0.04545454545454529,0.04545454545454529,jcp,20191125
2019-11-25,12:45,12:45 PM,1.155,1.15,1.151,6700,7715.0,12,1.16,1.146,1.15,256986,295586.8,155,1.15,1.15,1.146,1.16,0.0463636363636363,0.04545454545454529,jcp,20191125
2019-11-25,12:46,12:46 PM,,,,0,0.0,0,1.16,1.155,1.155,1682,1943.71,5,,,1.155,1.155,,0.04999999999999994,jcp,20191125
2019-11-25,12:47,12:47 PM,1.155,1.155,1.155,4200,4851.0,2,1.16,1.154,1.159,32100,37202.19,11,1.155,1.155,1.154,1.155,0.04999999999999994,0.05363636363636358,jcp,20191125
2019-11-25,12:48,12:48 PM,1.155,1.155,1.155,31000,35805.0,13,1.16,1.155,1.157,59935,69362.175,31,1.155,1.155,1.155,1.155,0.04999999999999994,0.051818181818181756,jcp,20191125
2019-11-25,12:49,12:49 PM,,,,0,0.0,0,1.16,1.15,1.153,1448,1669.8308,4,,,1.154,1.16,,0.04818181818181812,jcp,20191125
2019-11-25,12:50,12:50 PM,,,,0,0.0,0,1.16,1.155,1.159,500,579.5,5,,,1.16,1.16,,0.05363636363636358,jcp,20191125
2019-11-25,12:51,12:51 PM,,,,0,0.0,0,1.16,1.156,1.158,5643,6536.9085,5,,,1.159,1.16,,0.05272727272727257,jcp,20191125
2019-11-25,12:52,12:52 PM,,,,0,0.0,0,1.16,1.15,1.153,11087,12782.5187,13,,,1.155,1.16,,0.04818181818181812,jcp,20191125
2019-11-25,12:53,12:53 PM,1.155,1.155,1.155,1100,1270.5,1,1.16,1.155,1.156,1700,1966.0,6,1.155,1.155,1.16,1.16,0.04999999999999994,0.05090909090909075,jcp,20191125
2019-11-25,12:54,12:54 PM,,,,0,0.0,0,1.16,1.155,1.159,1830,2120.165,9,,,1.16,1.16,,0.05363636363636358,jcp,20191125
2019-11-25,12:55,12:55 PM,,,,0,0.0,0,1.16,1.155,1.155,399500,461426.27,9,,,1.16,1.16,,0.04999999999999994,jcp,20191125
2019-11-25,12:56,12:56 PM,1.16,1.155,1.156,1600,1849.0,4,1.17,1.15,1.159,236053,273677.73,155,1.155,1.16,1.16,1.17,0.05090909090909075,0.05363636363636358,jcp,20191125
2019-11-25,12:57,12:57 PM,,,,0,0.0,0,1.17,1.165,1.17,4480,5240.6,26,,,1.17,1.17,,0.06363636363636349,jcp,20191125
2019-11-25,12:58,12:58 PM,,,,0,0.0,0,1.17,1.16,1.166,11303,13176.78,12,,,1.166,1.17,,0.059999999999999845,jcp,20191125
2019-11-25,12:59,12:59 PM,1.165,1.165,1.165,3000,3495.0,1,1.17,1.164,1.166,4466,5207.3705,11,1.165,1.165,1.17,1.165,0.059090909090909034,0.059999999999999845,jcp,20191125
2019-11-25,13:00,1 PM,,,,0,0.0,0,1.17,1.16,1.167,5500,6420.02,12,,,1.17,1.17,,0.06090909090909086,jcp,20191125
2019-11-25,13:01,1:01 PM,1.165,1.16,1.162,310,360.15,4,1.17,1.151,1.16,155928,180869.9701,139,1.165,1.16,1.165,1.16,0.056363636363636206,0.05454545454545439,jcp,20191125
2019-11-25,13:02,1:02 PM,1.16,1.155,1.155,3200,3697.0,3,1.16,1.155,1.158,6500,7525.0,6,1.16,1.155,1.16,1.16,0.04999999999999994,0.05272727272727257,jcp,20191125
2019-11-25,13:03,1:03 PM,,,,0,0.0,0,1.16,1.155,1.157,800,925.5,4,,,1.16,1.155,,0.051818181818181756,jcp,20191125
2019-11-25,13:04,1:04 PM,1.16,1.155,1.155,3200,3697.0,3,1.16,1.155,1.158,6400,7409.0,6,1.155,1.16,1.16,1.16,0.04999999999999994,0.05272727272727257,jcp,20191125
2019-11-25,13:05,1:05 PM,,,,0,0.0,0,1.16,1.155,1.159,846,980.63,8,,,1.16,1.16,,0.05363636363636358,jcp,20191125
2019-11-25,13:06,1:06 PM,1.16,1.16,1.16,100,116.0,1,1.16,1.155,1.159,15650,18145.425,13,1.16,1.16,1.159,1.16,0.05454545454545439,0.05363636363636358,jcp,20191125
2019-11-25,13:07,1:07 PM,,,,0,0.0,0,1.16,1.15,1.159,25320,29340.1,13,,,1.16,1.16,,0.05363636363636358,jcp,20191125
2019-11-25,13:08,1:08 PM,,,,0,0.0,0,1.16,1.16,1.16,500,580.0,3,,,1.16,1.16,,0.05454545454545439,jcp,20191125
2019-11-25,13:09,1:09 PM,1.155,1.155,1.155,60000,69300.0,21,1.16,1.155,1.157,126944,146923.94,66,1.155,1.155,1.155,1.16,0.04999999999999994,0.051818181818181756,jcp,20191125
2019-11-25,13:10,1:10 PM,,,,0,0.0,0,1.16,1.16,1.16,200,232.0,2,,,1.16,1.16,,0.05454545454545439,jcp,20191125
2019-11-25,13:11,1:11 PM,,,,0,0.0,0,1.16,1.15,1.151,12720,14635.142,10,,,1.15,1.16,,0.0463636363636363,jcp,20191125
2019-11-25,13:12,1:12 PM,,,,0,0.0,0,1.16,1.154,1.155,1300,1501.1,4,,,1.16,1.16,,0.04999999999999994,jcp,20191125
2019-11-25,13:13,1:13 PM,,,,0,0.0,0,1.16,1.15,1.152,6272,7223.366,12,,,1.16,1.152,,0.04727272727272711,jcp,20191125
2019-11-25,13:14,1:14 PM,,,,0,0.0,0,1.16,1.155,1.155,463400,535228.5,3,,,1.155,1.16,,0.04999999999999994,jcp,20191125
2019-11-25,13:15,1:15 PM,,,,0,0.0,0,1.16,1.15,1.158,22618,26191.82,15,,,1.155,1.16,,0.05272727272727257,jcp,20191125
2019-11-25,13:16,1:16 PM,,,,0,0.0,0,1.16,1.16,1.16,300,348.0,2,,,1.16,1.16,,0.05454545454545439,jcp,20191125
2019-11-25,13:17,1:17 PM,,,,0,0.0,0,1.16,1.15,1.152,27691,31894.7776,12,,,1.15,1.16,,0.04727272727272711,jcp,20191125
2019-11-25,13:18,1:18 PM,,,,0,0.0,0,1.16,1.15,1.158,13505,15639.505,8,,,1.15,1.16,,0.05272727272727257,jcp,20191125
2019-11-25,13:19,1:19 PM,,,,0,0.0,0,1.16,1.155,1.156,790,913.45,5,,,1.155,1.16,,0.05090909090909075,jcp,20191125
2019-11-25,13:20,1:20 PM,,,,0,0.0,0,1.16,1.158,1.159,520,602.947,4,,,1.16,1.16,,0.05363636363636358,jcp,20191125
2019-11-25,13:21,1:21 PM,,,,0,0.0,0,1.16,1.15,1.151,6822,7855.35,9,,,1.155,1.16,,0.0463636363636363,jcp,20191125
2019-11-25,13:22,1:22 PM,,,,0,0.0,0,1.16,1.151,1.152,5400,6219.0,5,,,1.16,1.16,,0.04727272727272711,jcp,20191125
2019-11-25,13:23,1:23 PM,1.155,1.155,1.155,2800,3234.0,3,1.16,1.15,1.156,3645,4213.2,11,1.155,1.155,1.15,1.16,0.04999999999999994,0.05090909090909075,jcp,20191125
2019-11-25,13:24,1:24 PM,,,,0,0.0,0,1.16,1.15,1.157,600,694.5,4,,,1.16,1.155,,0.051818181818181756,jcp,20191125
2019-11-25,13:25,1:25 PM,,,,0,0.0,0,1.16,1.15,1.151,27500,31642.5,6,,,1.156,1.155,,0.0463636363636363,jcp,20191125
2019-11-25,13:26,1:26 PM,,,,0,0.0,0,1.16,1.155,1.159,7500,8692.5,20,,,1.155,1.16,,0.05363636363636358,jcp,20191125
2019-11-25,13:27,1:27 PM,,,,0,0.0,0,1.16,1.15,1.155,2016,2329.48,12,,,1.16,1.15,,0.04999999999999994,jcp,20191125
2019-11-25,13:28,1:28 PM,,,,0,0.0,0,1.16,1.154,1.158,4842,5605.8754,4,,,1.155,1.154,,0.05272727272727257,jcp,20191125
2019-11-25,13:29,1:29 PM,1.155,1.155,1.155,2600,3003.0,1,1.16,1.15,1.157,7600,8795.48,12,1.155,1.155,1.15,1.16,0.04999999999999994,0.051818181818181756,jcp,20191125
2019-11-25,13:30,1:30 PM,,,,0,0.0,0,1.16,1.15,1.158,950,1100.0,7,,,1.15,1.15,,0.05272727272727257,jcp,20191125
2019-11-25,13:31,1:31 PM,1.155,1.155,1.155,1500,1732.5,1,1.16,1.15,1.155,3400,3926.33,7,1.155,1.155,1.154,1.155,0.04999999999999994,0.04999999999999994,jcp,20191125
2019-11-25,13:32,1:32 PM,1.16,1.16,1.16,1902,2206.32,4,1.17,1.15,1.16,103433,119978.087,90,1.16,1.16,1.155,1.17,0.05454545454545439,0.05454545454545439,jcp,20191125
2019-11-25,13:33,1:33 PM,,,,0,0.0,0,1.17,1.16,1.163,4900,5699.1,6,,,1.164,1.17,,0.05727272727272722,jcp,20191125
2019-11-25,13:34,1:34 PM,1.165,1.165,1.165,400,466.0,1,1.17,1.165,1.168,37246,43516.795,15,1.165,1.165,1.17,1.165,0.059090909090909034,0.06181818181818167,jcp,20191125
2019-11-25,13:35,1:35 PM,1.165,1.165,1.165,5000,5825.0,4,1.17,1.165,1.168,14100,16466.9,12,1.165,1.165,1.165,1.165,0.059090909090909034,0.06181818181818167,jcp,20191125
2019-11-25,13:36,1:36 PM,,,,0,0.0,0,1.165,1.165,1.165,200,233.01,2,,,1.165,1.165,,0.059090909090909034,jcp,20191125
2019-11-25,13:37,1:37 PM,1.165,1.165,1.165,1000,1165.0,2,1.17,1.165,1.166,1950,2274.25,8,1.165,1.165,1.165,1.165,0.059090909090909034,0.059999999999999845,jcp,20191125
2019-11-25,13:38,1:38 PM,,,,0,0.0,0,1.17,1.16,1.165,200,233.04,2,,,1.17,1.16,,0.059090909090909034,jcp,20191125
2019-11-25,13:39,1:39 PM,,,,0,0.0,0,1.17,1.161,1.161,11720,13611.972,5,,,1.161,1.17,,0.055454545454545395,jcp,20191125
2019-11-25,13:40,1:40 PM,1.16,1.16,1.16,100,116.0,1,1.17,1.16,1.16,16447,19085.2,17,1.16,1.16,1.17,1.16,0.05454545454545439,0.05454545454545439,jcp,20191125
2019-11-25,13:41,1:41 PM,,,,0,0.0,0,1.17,1.165,1.169,10216,11938.0824,6,,,1.165,1.165,,0.06272727272727267,jcp,20191125
2019-11-25,13:42,1:42 PM,,,,0,0.0,0,1.17,1.16,1.16,305895,354841.0,97,,,1.16,1.16,,0.05454545454545439,jcp,20191125
2019-11-25,13:43,1:43 PM,,,,0,0.0,0,1.17,1.16,1.169,23576,27549.9605,7,,,1.16,1.165,,0.06272727272727267,jcp,20191125
2019-11-25,13:44,1:44 PM,,,,0,0.0,0,1.165,1.16,1.16,3900,4524.5,9,,,1.165,1.16,,0.05454545454545439,jcp,20191125
2019-11-25,13:45,1:45 PM,,,,0,0.0,0,1.166,1.16,1.165,1200,1397.77,7,,,1.165,1.165,,0.059090909090909034,jcp,20191125
2019-11-25,13:46,1:46 PM,,,,0,0.0,0,1.165,1.16,1.163,3000,3487.5,10,,,1.165,1.165,,0.05727272727272722,jcp,20191125
2019-11-25,13:47,1:47 PM,,,,0,0.0,0,1.165,1.164,1.164,4300,5006.7,4,,,1.164,1.165,,0.05818181818181803,jcp,20191125
2019-11-25,13:48,1:48 PM,,,,0,0.0,0,1.17,1.16,1.17,25900,30294.0,6,,,1.16,1.16,,0.06363636363636349,jcp,20191125
2019-11-25,13:49,1:49 PM,1.155,1.155,1.155,100,115.5,1,1.165,1.15,1.159,56695,65729.315,70,1.155,1.155,1.165,1.15,0.04999999999999994,0.05363636363636358,jcp,20191125
2019-11-25,13:50,1:50 PM,,,,0,0.0,0,1.16,1.15,1.151,7374,8486.52,21,,,1.15,1.16,,0.0463636363636363,jcp,20191125
2019-11-25,13:51,1:51 PM,,,,0,0.0,0,1.16,1.15,1.154,900,1038.5,8,,,1.16,1.15,,0.04909090909090893,jcp,20191125
2019-11-25,13:52,1:52 PM,,,,0,0.0,0,1.16,1.15,1.151,2790,3211.3425,8,,,1.151,1.15,,0.0463636363636363,jcp,20191125
2019-11-25,13:53,1:53 PM,,,,0,0.0,0,1.155,1.15,1.153,1500,1730.0,5,,,1.155,1.15,,0.04818181818181812,jcp,20191125
2019-11-25,13:54,1:54 PM,,,,0,0.0,0,1.155,1.15,1.153,400,461.0,4,,,1.15,1.15,,0.04818181818181812,jcp,20191125
2019-11-25,13:55,1:55 PM,1.155,1.155,1.155,22700,26218.5,2,1.16,1.15,1.155,24200,27949.0,15,1.155,1.155,1.16,1.155,0.04999999999999994,0.04999999999999994,jcp,20191125
2019-11-25,13:56,1:56 PM,,,,0,0.0,0,1.16,1.15,1.155,6300,7275.2,5,,,1.15,1.154,,0.04999999999999994,jcp,20191125
2019-11-25,13:57,1:57 PM,,,,0,0.0,0,1.16,1.15,1.154,900,1038.3,5,,,1.15,1.15,,0.04909090909090893,jcp,20191125
2019-11-25,13:58,1:58 PM,,,,0,0.0,0,1.155,1.15,1.153,971,1119.415,6,,,1.15,1.155,,0.04818181818181812,jcp,20191125
2019-11-25,13:59,1:59 PM,,,,0,0.0,0,1.16,1.15,1.152,500,576.0,3,,,1.15,1.16,,0.04727272727272711,jcp,20191125
2019-11-25,14:00,2 PM,,,,0,0.0,0,1.16,1.15,1.155,500,577.5,4,,,1.15,1.155,,0.04999999999999994,jcp,20191125
2019-11-25,14:01,2:01 PM,,,,0,0.0,0,1.155,1.15,1.153,700,807.0,5,,,1.15,1.15,,0.04818181818181812,jcp,20191125
2019-11-25,14:02,2:02 PM,1.155,1.155,1.155,22700,26218.5,8,1.155,1.15,1.155,23000,26564.0,11,1.155,1.155,1.155,1.155,0.04999999999999994,0.04999999999999994,jcp,20191125
2019-11-25,14:03,2:03 PM,,,,0,0.0,0,1.16,1.15,1.151,3900,4489.0,14,,,1.16,1.155,,0.0463636363636363,jcp,20191125
2019-11-25,14:04,2:04 PM,,,,0,0.0,0,1.16,1.15,1.151,850,978.5,5,,,1.15,1.16,,0.0463636363636363,jcp,20191125
2019-11-25,14:05,2:05 PM,1.155,1.155,1.155,961,1109.955,7,1.16,1.15,1.154,6666,7693.63,30,1.155,1.155,1.155,1.155,0.04999999999999994,0.04909090909090893,jcp,20191125
2019-11-25,14:06,2:06 PM,1.155,1.155,1.155,700,808.5,5,1.16,1.15,1.157,7313,8458.615,17,1.155,1.155,1.15,1.16,0.04999999999999994,0.051818181818181756,jcp,20191125
2019-11-25,14:07,2:07 PM,,,,0,0.0,0,1.155,1.15,1.154,1600,1846.0,12,,,1.155,1.155,,0.04909090909090893,jcp,20191125
2019-11-25,14:08,2:08 PM,1.155,1.155,1.155,9000,10395.0,2,1.155,1.15,1.154,13100,15122.9,16,1.155,1.155,1.15,1.155,0.04999999999999994,0.04909090909090893,jcp,20191125
2019-11-25,14:09,2:09 PM,1.155,1.155,1.155,13700,15823.5,5,1.16,1.15,1.155,14200,16400.0,10,1.155,1.155,1.15,1.15,0.04999999999999994,0.04999999999999994,jcp,20191125
2019-11-25,14:10,2:10 PM,,,,0,0.0,0,1.16,1.155,1.157,300,347.0,2,,,1.155,1.16,,0.051818181818181756,jcp,20191125
2019-11-25,14:11,2:11 PM,,,,0,0.0,0,1.16,1.15,1.151,17470,20107.524,8,,,1.16,1.15,,0.0463636363636363,jcp,20191125
2019-11-25,14:12,2:12 PM,1.155,1.155,1.155,100,115.5,1,1.16,1.15,1.155,700,808.5,7,1.155,1.155,1.15,1.155,0.04999999999999994,0.04999999999999994,jcp,20191125
2019-11-25,14:13,2:13 PM,1.15,1.15,1.15,47,54.05,1,1.155,1.15,1.151,1428,1643.2,11,1.15,1.15,1.155,1.155,0.04545454545454529,0.0463636363636363,jcp,20191125
2019-11-25,14:14,2:14 PM,,,,0,0.0,0,1.16,1.15,1.157,500,578.5,4,,,1.155,1.15,,0.051818181818181756,jcp,20191125
2019-11-25,14:15,2:15 PM,1.155,1.155,1.155,18000,20790.0,15,1.16,1.15,1.155,18200,21021.0,17,1.155,1.155,1.15,1.155,0.04999999999999994,0.04999999999999994,jcp,20191125
2019-11-25,14:16,2:16 PM,1.155,1.155,1.155,2700,3118.5,3,1.16,1.15,1.155,5300,6121.5,11,1.155,1.155,1.155,1.16,0.04999999999999994,0.04999999999999994,jcp,20191125
2019-11-25,14:17,2:17 PM,1.155,1.155,1.155,4300,4966.5,5,1.16,1.15,1.157,42472,49154.75,83,1.155,1.155,1.16,1.155,0.04999999999999994,0.051818181818181756,jcp,20191125
2019-11-25,14:18,2:18 PM,1.155,1.155,1.155,200,231.0,1,1.16,1.15,1.158,7050,8164.55,18,1.155,1.155,1.16,1.155,0.04999999999999994,0.05272727272727257,jcp,20191125
2019-11-25,14:19,2:19 PM,1.155,1.155,1.155,100,115.5,1,1.16,1.15,1.156,13000,15031.5,46,1.155,1.155,1.16,1.155,0.04999999999999994,0.05090909090909075,jcp,20191125
2019-11-25,14:20,2:20 PM,1.155,1.155,1.155,4300,4966.5,7,1.16,1.15,1.156,14200,16418.26,42,1.155,1.155,1.16,1.16,0.04999999999999994,0.05090909090909075,jcp,20191125
2019-11-25,14:21,2:21 PM,1.155,1.155,1.155,3600,4158.0,4,1.16,1.15,1.157,14700,17016.0,28,1.155,1.155,1.155,1.155,0.04999999999999994,0.051818181818181756,jcp,20191125
2019-11-25,14:22,2:22 PM,1.155,1.155,1.155,800,924.0,1,1.16,1.155,1.156,4100,4739.98,17,1.155,1.155,1.155,1.16,0.04999999999999994,0.05090909090909075,jcp,20191125
2019-11-25,14:23,2:23 PM,,,,0,0.0,0,1.16,1.15,1.155,11600,13398.7,7,,,1.155,1.155,,0.04999999999999994,jcp,20191125
2019-11-25,14:24,2:24 PM,,,,0,0.0,0,1.16,1.151,1.157,16000,18510.01,8,,,1.155,1.151,,0.051818181818181756,jcp,20191125
2019-11-25,14:25,2:25 PM,,,,0,0.0,0,1.16,1.15,1.155,11386,13150.7384,6,,,1.155,1.154,,0.04999999999999994,jcp,20191125
2019-11-25,14:26,2:26 PM,,,,0,0.0,0,1.155,1.15,1.154,2500,2884.1,5,,,1.153,1.155,,0.04909090909090893,jcp,20191125
2019-11-25,14:27,2:27 PM,,,,0,0.0,0,1.155,1.155,1.155,300,346.5,2,,,1.155,1.155,,0.04999999999999994,jcp,20191125
2019-11-25,14:28,2:28 PM,,,,0,0.0,0,1.16,1.15,1.155,14900,17212.75,12,,,1.151,1.16,,0.04999999999999994,jcp,20191125
2019-11-25,14:29,2:29 PM,,,,0,0.0,0,1.16,1.15,1.159,1300,1506.5,4,,,1.16,1.15,,0.05363636363636358,jcp,20191125
2019-11-25,14:30,2:30 PM,,,,0,0.0,0,1.16,1.15,1.155,6641,7670.055,10,,,1.16,1.155,,0.04999999999999994,jcp,20191125
2019-11-25,14:31,2:31 PM,,,,0,0.0,0,1.16,1.15,1.153,1060,1221.947,6,,,1.16,1.15,,0.04818181818181812,jcp,20191125
2019-11-25,14:32,2:32 PM,,,,0,0.0,0,1.155,1.15,1.154,3220,3714.9,12,,,1.155,1.155,,0.04909090909090893,jcp,20191125
2019-11-25,14:33,2:33 PM,,,,0,0.0,0,1.155,1.15,1.153,600,692.0,5,,,1.15,1.15,,0.04818181818181812,jcp,20191125
2019-11-25,14:34,2:34 PM,,,,0,0.0,0,1.16,1.15,1.159,10700,12406.5,6,,,1.15,1.15,,0.05363636363636358,jcp,20191125
2019-11-25,14:35,2:35 PM,1.155,1.155,1.155,900,1039.5,3,1.155,1.155,1.155,1300,1501.5,5,1.155,1.155,1.155,1.155,0.04999999999999994,0.04999999999999994,jcp,20191125
2019-11-25,14:36,2:36 PM,,,,0,0.0,0,1.16,1.15,1.154,600,692.5,5,,,1.15,1.155,,0.04909090909090893,jcp,20191125
2019-11-25,14:37,2:37 PM,,,,0,0.0,0,1.155,1.155,1.155,300,346.5,2,,,1.155,1.155,,0.04999999999999994,jcp,20191125
2019-11-25,14:38,2:38 PM,1.155,1.155,1.155,100,115.5,1,1.16,1.15,1.155,4712,5444.894,24,1.155,1.155,1.155,1.155,0.04999999999999994,0.04999999999999994,jcp,20191125
2019-11-25,14:39,2:39 PM,,,,0,0.0,0,1.16,1.15,1.153,2064,2379.32,8,,,1.151,1.16,,0.04818181818181812,jcp,20191125
2019-11-25,14:40,2:40 PM,,,,0,0.0,0,1.16,1.15,1.156,400,462.5,3,,,1.15,1.16,,0.05090909090909075,jcp,20191125
2019-11-25,14:41,2:41 PM,,,,0,0.0,0,1.155,1.15,1.152,4477,5159.2394,5,,,1.155,1.153,,0.04727272727272711,jcp,20191125
2019-11-25,14:42,2:42 PM,,,,0,0.0,0,1.155,1.154,1.155,900,1039.21,4,,,1.155,1.154,,0.04999999999999994,jcp,20191125
2019-11-25,14:43,2:43 PM,,,,0,0.0,0,1.155,1.15,1.153,300,346.0,3,,,1.15,1.155,,0.04818181818181812,jcp,20191125
2019-11-25,14:44,2:44 PM,1.15,1.15,1.15,100,115.0,1,1.16,1.15,1.153,2800,3230.0,11,1.15,1.15,1.15,1.155,0.04545454545454529,0.04818181818181812,jcp,20191125
2019-11-25,14:45,2:45 PM,,,,0,0.0,0,1.157,1.155,1.157,8825,10208.775,5,,,1.155,1.155,,0.051818181818181756,jcp,20191125
2019-11-25,14:46,2:46 PM,,,,0,0.0,0,1.155,1.15,1.151,20200,23241.5,49,,,1.15,1.15,,0.0463636363636363,jcp,20191125
2019-11-25,14:47,2:47 PM,,,,0,0.0,0,1.155,1.15,1.15,4700,5406.5,16,,,1.155,1.15,,0.04545454545454529,jcp,20191125
2019-11-25,14:48,2:48 PM,,,,0,0.0,0,1.155,1.15,1.151,1650,1899.25,16,,,1.15,1.15,,0.0463636363636363,jcp,20191125
2019-11-25,14:49,2:49 PM,,,,0,0.0,0,1.155,1.15,1.151,2114,2434.17,16,,,1.15,1.15,,0.0463636363636363,jcp,20191125
2019-11-25,14:50,2:50 PM,,,,0,0.0,0,1.16,1.15,1.154,4720,5448.128,8,,,1.154,1.155,,0.04909090909090893,jcp,20191125
2019-11-25,14:51,2:51 PM,,,,0,0.0,0,1.155,1.15,1.15,3000,3451.2,11,,,1.15,1.15,,0.04545454545454529,jcp,20191125
2019-11-25,14:52,2:52 PM,1.15,1.15,1.15,100,115.0,1,1.156,1.15,1.151,28848,33192.48,33,1.15,1.15,1.154,1.15,0.04545454545454529,0.0463636363636363,jcp,20191125
2019-11-25,14:53,2:53 PM,,,,0,0.0,0,1.155,1.15,1.15,11540,13274.156,13,,,1.15,1.15,,0.04545454545454529,jcp,20191125
2019-11-25,14:54,2:54 PM,,,,0,0.0,0,1.155,1.15,1.151,1900,2187.0,18,,,1.15,1.15,,0.0463636363636363,jcp,20191125
2019-11-25,14:55,2:55 PM,,,,0,0.0,0,1.155,1.15,1.151,1200,1381.5,10,,,1.15,1.15,,0.0463636363636363,jcp,20191125
2019-11-25,14:56,2:56 PM,,,,0,0.0,0,1.155,1.15,1.152,1688,1944.783,9,,,1.15,1.15,,0.04727272727272711,jcp,20191125
2019-11-25,14:57,2:57 PM,,,,0,0.0,0,1.155,1.15,1.152,700,806.5,5,,,1.155,1.15,,0.04727272727272711,jcp,20191125
2019-11-25,14:58,2:58 PM,,,,0,0.0,0,1.155,1.15,1.152,300,345.5,3,,,1.15,1.15,,0.04727272727272711,jcp,20191125
2019-11-25,14:59,2:59 PM,,,,0,0.0,0,1.155,1.15,1.153,1720,1983.1,7,,,1.15,1.15,,0.04818181818181812,jcp,20191125
2019-11-25,15:00,3 PM,1.15,1.15,1.15,100,115.0,1,1.155,1.15,1.15,19432,22350.75,25,1.15,1.15,1.15,1.155,0.04545454545454529,0.04545454545454529,jcp,20191125
2019-11-25,15:01,3:01 PM,,,,0,0.0,0,1.16,1.15,1.156,1116,1290.0342,8,,,1.16,1.155,,0.05090909090909075,jcp,20191125
2019-11-25,15:02,3:02 PM,,,,0,0.0,0,1.155,1.15,1.153,1625,1874.56,7,,,1.155,1.15,,0.04818181818181812,jcp,20191125
2019-11-25,15:03,3:03 PM,,,,0,0.0,0,1.155,1.15,1.153,600,692.0,4,,,1.155,1.155,,0.04818181818181812,jcp,20191125
2019-11-25,15:04,3:04 PM,,,,0,0.0,0,1.155,1.15,1.15,11700,13456.11,20,,,1.15,1.15,,0.04545454545454529,jcp,20191125
2019-11-25,15:05,3:05 PM,,,,0,0.0,0,1.155,1.15,1.151,1904,2192.1,12,,,1.15,1.15,,0.0463636363636363,jcp,20191125
2019-11-25,15:06,3:06 PM,1.155,1.155,1.155,43997,50816.535,19,1.16,1.15,1.159,266677,308965.685,156,1.155,1.155,1.155,1.15,0.04999999999999994,0.05363636363636358,jcp,20191125
2019-11-25,15:07,3:07 PM,,,,0,0.0,0,1.16,1.15,1.157,880,1018.088,8,,,1.16,1.15,,0.051818181818181756,jcp,20191125
2019-11-25,15:08,3:08 PM,,,,0,0.0,0,1.16,1.15,1.155,5108,5898.4032,6,,,1.158,1.155,,0.04999999999999994,jcp,20191125
2019-11-25,15:09,3:09 PM,,,,0,0.0,0,1.16,1.15,1.153,2640,3042.984,7,,,1.16,1.155,,0.04818181818181812,jcp,20191125
2019-11-25,15:10,3:10 PM,1.155,1.155,1.155,600,693.0,3,1.16,1.15,1.155,6401,7394.65,25,1.155,1.155,1.16,1.155,0.04999999999999994,0.04999999999999994,jcp,20191125
2019-11-25,15:11,3:11 PM,1.155,1.155,1.155,2100,2425.5,1,1.16,1.15,1.155,224650,259472.25,16,1.155,1.155,1.155,1.16,0.04999999999999994,0.04999999999999994,jcp,20191125
2019-11-25,15:12,3:12 PM,1.155,1.155,1.155,16500,19057.5,2,1.16,1.155,1.155,304205,351358.275,38,1.155,1.155,1.155,1.16,0.04999999999999994,0.04999999999999994,jcp,20191125
2019-11-25,15:13,3:13 PM,,,,0,0.0,0,1.16,1.155,1.159,1100,1274.97,6,,,1.155,1.16,,0.05363636363636358,jcp,20191125
2019-11-25,15:14,3:14 PM,,,,0,0.0,0,1.16,1.155,1.159,1000,1159.5,6,,,1.16,1.16,,0.05363636363636358,jcp,20191125
2019-11-25,15:15,3:15 PM,,,,0,0.0,0,1.16,1.15,1.152,10126,11662.8548,16,,,1.155,1.155,,0.04727272727272711,jcp,20191125
2019-11-25,15:16,3:16 PM,,,,0,0.0,0,1.16,1.15,1.155,3229,3728.495,22,,,1.155,1.15,,0.04999999999999994,jcp,20191125
2019-11-25,15:17,3:17 PM,,,,0,0.0,0,1.16,1.154,1.155,1300,1501.4,4,,,1.16,1.154,,0.04999999999999994,jcp,20191125
2019-11-25,15:18,3:18 PM,1.155,1.155,1.155,1400,1617.0,8,1.16,1.154,1.155,9200,10627.22,39,1.155,1.155,1.16,1.155,0.04999999999999994,0.04999999999999994,jcp,20191125
2019-11-25,15:19,3:19 PM,1.155,1.155,1.155,100,115.5,1,1.16,1.15,1.155,2800,3235.5,13,1.155,1.155,1.155,1.155,0.04999999999999994,0.04999999999999994,jcp,20191125
2019-11-25,15:20,3:20 PM,,,,0,0.0,0,1.16,1.155,1.16,6300,7306.5,3,,,1.155,1.16,,0.05454545454545439,jcp,20191125
2019-11-25,15:21,3:21 PM,,,,0,0.0,0,1.16,1.15,1.155,5100,5891.3,14,,,1.15,1.155,,0.04999999999999994,jcp,20191125
2019-11-25,15:22,3:22 PM,1.155,1.155,1.155,4900,5659.5,2,1.16,1.155,1.155,13500,15595.0,24,1.155,1.155,1.16,1.155,0.04999999999999994,0.04999999999999994,jcp,20191125
2019-11-25,15:23,3:23 PM,,,,0,0.0,0,1.16,1.155,1.157,2062,2385.92,11,,,1.155,1.155,,0.051818181818181756,jcp,20191125
2019-11-25,15:24,3:24 PM,,,,0,0.0,0,1.16,1.15,1.15,5480,6304.5,7,,,1.16,1.155,,0.04545454545454529,jcp,20191125
2019-11-25,15:25,3:25 PM,1.155,1.155,1.155,2100,2425.5,5,1.16,1.155,1.155,4200,4853.0,23,1.155,1.155,1.16,1.155,0.04999999999999994,0.04999999999999994,jcp,20191125
2019-11-25,15:26,3:26 PM,1.155,1.155,1.155,2301,2657.655,9,1.16,1.155,1.156,8950,10348.5,28,1.155,1.155,1.158,1.155,0.04999999999999994,0.05090909090909075,jcp,20191125
2019-11-25,15:27,3:27 PM,1.155,1.155,1.155,200,231.0,2,1.16,1.15,1.154,11354,13100.47,25,1.155,1.155,1.15,1.15,0.04999999999999994,0.04909090909090893,jcp,20191125
2019-11-25,15:28,3:28 PM,1.155,1.155,1.155,200,231.0,2,1.16,1.155,1.157,3700,4280.5,16,1.155,1.155,1.16,1.16,0.04999999999999994,0.051818181818181756,jcp,20191125
2019-11-25,15:29,3:29 PM,1.155,1.155,1.155,100,115.5,1,1.158,1.15,1.156,7643,8833.715,22,1.155,1.155,1.155,1.155,0.04999999999999994,0.05090909090909075,jcp,20191125
2019-11-25,15:30,3:30 PM,,,,0,0.0,0,1.155,1.15,1.155,1625,1876.375,10,,,1.155,1.155,,0.04999999999999994,jcp,20191125
2019-11-25,15:31,3:31 PM,1.155,1.155,1.155,100,115.5,1,1.155,1.15,1.155,3083,3560.365,8,1.155,1.155,1.155,1.155,0.04999999999999994,0.04999999999999994,jcp,20191125
2019-11-25,15:32,3:32 PM,1.155,1.155,1.155,200,231.0,2,1.16,1.15,1.156,2600,3006.3,10,1.155,1.155,1.155,1.155,0.04999999999999994,0.05090909090909075,jcp,20191125
2019-11-25,15:33,3:33 PM,1.155,1.155,1.155,15494,17895.57,12,1.155,1.15,1.155,16294,18818.57,20,1.155,1.155,1.155,1.155,0.04999999999999994,0.04999999999999994,jcp,20191125
2019-11-25,15:34,3:34 PM,1.155,1.155,1.155,473,546.315,7,1.16,1.154,1.155,4609,5324.305,17,1.155,1.155,1.16,1.155,0.04999999999999994,0.04999999999999994,jcp,20191125
2019-11-25,15:35,3:35 PM,1.155,1.155,1.155,811,936.705,5,1.155,1.155,1.155,8888,10265.64,33,1.155,1.155,1.155,1.155,0.04999999999999994,0.04999999999999994,jcp,20191125
2019-11-25,15:36,3:36 PM,1.155,1.155,1.155,1500,1732.5,8,1.155,1.15,1.155,3430,3961.0,20,1.155,1.155,1.155,1.155,0.04999999999999994,0.04999999999999994,jcp,20191125
2019-11-25,15:37,3:37 PM,1.155,1.155,1.155,300,346.5,3,1.16,1.15,1.151,15800,18190.75,21,1.155,1.155,1.155,1.155,0.04999999999999994,0.0463636363636363,jcp,20191125
2019-11-25,15:38,3:38 PM,,,,0,0.0,0,1.155,1.15,1.153,1305,1505.09,8,,,1.15,1.155,,0.04818181818181812,jcp,20191125
2019-11-25,15:39,3:39 PM,1.155,1.155,1.155,32,36.96,1,1.16,1.15,1.155,2400,2770.84,9,1.155,1.155,1.154,1.155,0.04999999999999994,0.04999999999999994,jcp,20191125
2019-11-25,15:40,3:40 PM,1.155,1.155,1.155,300,346.5,3,1.16,1.15,1.151,19683,22666.9077,57,1.155,1.155,1.155,1.155,0.04999999999999994,0.0463636363636363,jcp,20191125
2019-11-25,15:41,3:41 PM,,,,0,0.0,0,1.155,1.15,1.151,1226,1411.53,12,,,1.15,1.15,,0.0463636363636363,jcp,20191125
2019-11-25,15:42,3:42 PM,1.155,1.155,1.155,24149,27892.095,28,1.16,1.15,1.154,31661,36547.21,49,1.155,1.155,1.155,1.155,0.04999999999999994,0.04909090909090893,jcp,20191125
2019-11-25,15:43,3:43 PM,1.155,1.155,1.155,4400,5082.0,2,1.155,1.15,1.155,39941,46120.2102,31,1.155,1.155,1.155,1.15,0.04999999999999994,0.04999999999999994,jcp,20191125
2019-11-25,15:44,3:44 PM,1.155,1.155,1.155,100,115.5,1,1.155,1.15,1.152,6478,7461.3482,10,1.155,1.155,1.155,1.151,0.04999999999999994,0.04727272727272711,jcp,20191125
2019-11-25,15:45,3:45 PM,1.15,1.15,1.15,100,115.0,1,1.155,1.15,1.151,28034,32260.0019,25,1.15,1.15,1.155,1.15,0.04545454545454529,0.0463636363636363,jcp,20191125
2019-11-25,15:46,3:46 PM,,,,0,0.0,0,1.155,1.15,1.151,15387,17703.405,20,,,1.15,1.155,,0.0463636363636363,jcp,20191125
2019-11-25,15:47,3:47 PM,,,,0,0.0,0,1.155,1.15,1.15,75804,87184.2044,61,,,1.15,1.155,,0.04545454545454529,jcp,20191125
2019-11-25,15:48,3:48 PM,,,,0,0.0,0,1.156,1.15,1.15,8211,9445.8325,19,,,1.15,1.15,,0.04545454545454529,jcp,20191125
2019-11-25,15:49,3:49 PM,,,,0,0.0,0,1.156,1.145,1.15,176642,203076.185,156,,,1.15,1.15,,0.04545454545454529,jcp,20191125
2019-11-25,15:50,3:50 PM,1.15,1.15,1.15,100,115.0,1,1.16,1.15,1.152,3816,4395.33,16,1.15,1.15,1.16,1.155,0.04545454545454529,0.04727272727272711,jcp,20191125
2019-11-25,15:51,3:51 PM,1.155,1.15,1.155,21100,24370.0,19,1.16,1.15,1.155,94121,108668.2,126,1.15,1.155,1.15,1.155,0.04999999999999994,0.04999999999999994,jcp,20191125
2019-11-25,15:52,3:52 PM,,,,0,0.0,0,1.16,1.15,1.153,15354,17699.261,41,,,1.15,1.15,,0.04818181818181812,jcp,20191125
2019-11-25,15:53,3:53 PM,,,,0,0.0,0,1.16,1.15,1.153,8675,10006.2401,20,,,1.15,1.16,,0.04818181818181812,jcp,20191125
2019-11-25,15:54,3:54 PM,1.165,1.155,1.159,5231,6063.585,11,1.165,1.15,1.159,475131,550826.529,341,1.155,1.155,1.16,1.155,0.05363636363636358,0.05363636363636358,jcp,20191125
2019-11-25,15:55,3:55 PM,,,,0,0.0,0,1.16,1.15,1.156,13033,15067.725,35,,,1.15,1.15,,0.05090909090909075,jcp,20191125
2019-11-25,15:56,3:56 PM,,,,0,0.0,0,1.16,1.15,1.151,10117,11646.305,43,,,1.16,1.155,,0.0463636363636363,jcp,20191125
2019-11-25,15:57,3:57 PM,,,,0,0.0,0,1.16,1.15,1.151,16776,19303.9328,43,,,1.155,1.15,,0.0463636363636363,jcp,20191125
2019-11-25,15:58,3:58 PM,1.155,1.15,1.153,200,230.5,2,1.16,1.15,1.154,46943,54188.557,73,1.155,1.15,1.155,1.155,0.04818181818181812,0.04909090909090893,jcp,20191125
2019-11-25,15:59,3:59 PM,1.155,1.155,1.155,100,115.5,1,1.16,1.15,1.154,148005,170823.575,89,1.155,1.155,1.15,1.155,0.04999999999999994,0.04909090909090893,jcp,20191125
