date,minute,label,high,low,average,volume,notional,numberOfTrades,marketHigh,marketLow,marketAverage,marketVolume,marketNotional,marketNumberOfTrades,open,close,marketOpen,marketClose,changeOverTime,marketChangeOverTime,tickerName,tickerDate
2020-01-02,09:30,09:30 AM,,,,0,0.0,0,1.12,1.11,1.118,54168,60567.51,11,,,1.12,1.113,,0.0,jcp,20200102
2020-01-02,09:31,09:31 AM,1.115,1.115,1.115,100,111.5,1,1.12,1.115,1.119,7586,8487.6456,7,1.115,1.115,1.12,1.12,,0.0008944543828263773,jcp,20200102
2020-01-02,09:32,09:32 AM,,,,0,0.0,0,1.12,1.115,1.117,7350,8213.075,9,,,1.12,1.12,,-0.0008944543828265758,jcp,20200102
2020-01-02,09:33,09:33 AM,,,,0,0.0,0,1.12,1.112,1.114,4082,4546.5958,4,,,1.12,1.115,,-0.0035778175313059065,jcp,20200102
2020-01-02,09:34,09:34 AM,,,,0,0.0,0,1.13,1.113,1.124,22505,25306.5,27,,,1.113,1.125,,0.005366726296958859,jcp,20200102
2020-01-02,09:35,09:35 AM,,,,0,0.0,0,1.13,1.125,1.128,5659,6383.27,10,,,1.128,1.13,,0.008944543828264567,jcp,20200102
2020-01-02,09:36,09:36 AM,,,,0,0.0,0,1.13,1.125,1.128,2217,2500.5786,7,,,1.129,1.13,,0.008944543828264567,jcp,20200102
2020-01-02,09:37,09:37 AM,,,,0,0.0,0,1.13,1.125,1.127,2090,2356.25,9,,,1.13,1.13,,0.00805008944543819,jcp,20200102
2020-01-02,09:38,09:38 AM,,,,0,0.0,0,1.13,1.12,1.124,2600,2922.5,7,,,1.125,1.125,,0.005366726296958859,jcp,20200102
2020-01-02,09:39,09:39 AM,1.125,1.125,1.125,300,337.5,3,1.13,1.12,1.123,16059,18027.471,23,1.125,1.125,1.12,1.125,,0.004472271914132284,jcp,20200102
2020-01-02,09:40,09:40 AM,,,,0,0.0,0,1.13,1.125,1.128,300,338.5,3,,,1.13,1.125,,0.008944543828264567,jcp,20200102
2020-01-02,09:41,09:41 AM,,,,0,0.0,0,1.13,1.12,1.128,1900,2143.0,4,,,1.12,1.13,,0.008944543828264567,jcp,20200102
2020-01-02,09:42,09:42 AM,,,,0,0.0,0,1.13,1.13,1.13,11100,12543.0,8,,,1.13,1.13,,0.01073345259391752,jcp,20200102
2020-01-02,09:43,09:43 AM,,,,0,0.0,0,1.13,1.13,1.13,300,339.0,3,,,1.13,1.13,,0.01073345259391752,jcp,20200102
2020-01-02,09:44,09:44 AM,,,,0,0.0,0,1.13,1.125,1.127,1018,1147.75,5,,,1.125,1.13,,0.00805008944543819,jcp,20200102
2020-01-02,09:45,09:45 AM,,,,0,0.0,0,1.13,1.13,1.13,11480,12972.4,17,,,1.13,1.13,,0.01073345259391752,jcp,20200102
2020-01-02,09:46,09:46 AM,1.125,1.125,1.125,700,787.5,4,1.13,1.125,1.13,32564,36793.82,45,1.125,1.125,1.13,1.13,,0.01073345259391752,jcp,20200102
2020-01-02,09:47,09:47 AM,,,,0,0.0,0,1.13,1.124,1.126,3021,3402.1303,7,,,1.13,1.127,,0.007155635062611614,jcp,20200102
2020-01-02,09:48,09:48 AM,,,,0,0.0,0,1.13,1.12,1.121,11900,13343.9,8,,,1.127,1.12,,0.00268336314847933,jcp,20200102
2020-01-02,09:49,09:49 AM,,,,0,0.0,0,1.13,1.123,1.124,2625,2949.785,5,,,1.123,1.13,,0.005366726296958859,jcp,20200102
2020-01-02,09:50,09:50 AM,,,,0,0.0,0,1.13,1.12,1.122,4500,5049.4,6,,,1.13,1.13,,0.0035778175313059065,jcp,20200102
2020-01-02,09:51,09:51 AM,1.125,1.125,1.125,2333,2624.625,6,1.13,1.12,1.124,10300,11573.4,34,1.125,1.125,1.125,1.13,,0.005366726296958859,jcp,20200102
2020-01-02,09:52,09:52 AM,,,,0,0.0,0,1.13,1.13,1.13,1900,2147.0,5,,,1.13,1.13,,0.01073345259391752,jcp,20200102
2020-01-02,09:53,09:53 AM,,,,0,0.0,0,1.13,1.12,1.122,2893,3245.16,9,,,1.13,1.13,,0.0035778175313059065,jcp,20200102
2020-01-02,09:54,09:54 AM,,,,0,0.0,0,1.13,1.12,1.123,1600,1797.5,8,,,1.125,1.13,,0.004472271914132284,jcp,20200102
2020-01-02,09:55,09:55 AM,,,,0,0.0,0,1.13,1.12,1.121,6900,7736.18,15,,,1.125,1.12,,0.00268336314847933,jcp,20200102
2020-01-02,09:56,09:56 AM,,,,0,0.0,0,1.13,1.12,1.129,10300,11632.5,4,,,1.13,1.12,,0.009838998211091143,jcp,20200102
2020-01-02,09:57,09:57 AM,,,,0,0.0,0,1.125,1.125,1.125,1000,1125.0,8,,,1.125,1.125,,0.006261180679785237,jcp,20200102
2020-01-02,09:58,09:58 AM,,,,0,0.0,0,1.13,1.12,1.125,1200,1350.0,8,,,1.125,1.12,,0.006261180679785237,jcp,20200102
2020-01-02,09:59,09:59 AM,,,,0,0.0,0,1.13,1.125,1.129,3600,4066.39,9,,,1.13,1.125,,0.009838998211091143,jcp,20200102
2020-01-02,10:00,10 AM,,,,0,0.0,0,1.13,1.121,1.127,17188,19363.55,28,,,1.125,1.125,,0.00805008944543819,jcp,20200102
2020-01-02,10:01,10:01 AM,,,,0,0.0,0,1.13,1.12,1.126,3850,4334.8,8,,,1.13,1.13,,0.007155635062611614,jcp,20200102
2020-01-02,10:02,10:02 AM,,,,0,0.0,0,1.13,1.12,1.127,6345,7150.45,13,,,1.125,1.126,,0.00805008944543819,jcp,20200102
2020-01-02,10:03,10:03 AM,1.125,1.125,1.125,600,675.0,2,1.13,1.125,1.125,5100,5739.0,24,1.125,1.125,1.13,1.125,,0.006261180679785237,jcp,20200102
2020-01-02,10:04,10:04 AM,,,,0,0.0,0,1.13,1.125,1.126,1600,1801.0,8,,,1.125,1.125,,0.007155635062611614,jcp,20200102
2020-01-02,10:05,10:05 AM,1.125,1.125,1.125,100,112.5,1,1.13,1.125,1.126,4697,5289.925,14,1.125,1.125,1.13,1.125,,0.007155635062611614,jcp,20200102
2020-01-02,10:06,10:06 AM,1.125,1.125,1.125,1700,1912.5,1,1.13,1.12,1.125,12209,13741.225,28,1.125,1.125,1.125,1.125,,0.006261180679785237,jcp,20200102
2020-01-02,10:07,10:07 AM,1.125,1.125,1.125,100,112.5,1,1.13,1.125,1.128,9335,10528.375,16,1.125,1.125,1.13,1.125,,0.008944543828264567,jcp,20200102
2020-01-02,10:08,10:08 AM,1.125,1.125,1.125,100,112.5,1,1.13,1.125,1.127,4105,4624.935,22,1.125,1.125,1.13,1.127,,0.00805008944543819,jcp,20200102
2020-01-02,10:09,10:09 AM,,,,0,0.0,0,1.13,1.13,1.13,400,452.0,4,,,1.13,1.13,,0.01073345259391752,jcp,20200102
2020-01-02,10:10,10:10 AM,,,,0,0.0,0,1.13,1.12,1.121,31140,34906.21,52,,,1.13,1.12,,0.00268336314847933,jcp,20200102
2020-01-02,10:11,10:11 AM,,,,0,0.0,0,1.125,1.12,1.123,4664,5237.467,17,,,1.125,1.125,,0.004472271914132284,jcp,20200102
2020-01-02,10:12,10:12 AM,,,,0,0.0,0,1.125,1.12,1.121,1952,2187.74,6,,,1.125,1.125,,0.00268336314847933,jcp,20200102
2020-01-02,10:13,10:13 AM,,,,0,0.0,0,1.125,1.123,1.125,5300,5960.9,10,,,1.125,1.125,,0.006261180679785237,jcp,20200102
2020-01-02,10:14,10:14 AM,1.125,1.125,1.125,100,112.5,1,1.125,1.12,1.122,5258,5901.5,23,1.125,1.125,1.125,1.125,,0.0035778175313059065,jcp,20200102
2020-01-02,10:15,10:15 AM,1.125,1.115,1.12,200,224.0,2,1.125,1.11,1.12,232757,260630.34,225,1.125,1.115,1.125,1.115,,0.0017889087656529532,jcp,20200102
2020-01-02,10:16,10:16 AM,1.115,1.115,1.115,500,557.5,2,1.12,1.11,1.11,265635,294910.96,163,1.115,1.115,1.115,1.12,,-0.007155635062611813,jcp,20200102
2020-01-02,10:17,10:17 AM,,,,0,0.0,0,1.12,1.11,1.113,1000,1113.0,6,,,1.115,1.115,,-0.004472271914132482,jcp,20200102
2020-01-02,10:18,10:18 AM,,,,0,0.0,0,1.116,1.113,1.116,2200,2454.78,3,,,1.116,1.115,,-0.0017889087656529532,jcp,20200102
2020-01-02,10:19,10:19 AM,,,,0,0.0,0,1.12,1.115,1.116,1300,1451.0,8,,,1.115,1.115,,-0.0017889087656529532,jcp,20200102
2020-01-02,10:20,10:20 AM,,,,0,0.0,0,1.12,1.11,1.111,10561,11736.2354,16,,,1.11,1.117,,-0.006261180679785435,jcp,20200102
2020-01-02,10:21,10:21 AM,1.115,1.115,1.115,200,223.0,1,1.12,1.11,1.115,8387,9353.9725,56,1.115,1.115,1.115,1.115,,-0.002683363148479529,jcp,20200102
2020-01-02,10:22,10:22 AM,,,,0,0.0,0,,,,0,0.0,0,,,,,,,jcp,20200102
2020-01-02,10:23,10:23 AM,,,,0,0.0,0,,,,0,0.0,0,,,,,,,jcp,20200102
2020-01-02,10:24,10:24 AM,,,,0,0.0,0,1.115,1.115,1.115,100,111.5,1,,,1.115,1.115,,-0.002683363148479529,jcp,20200102
2020-01-02,10:25,10:25 AM,1.115,1.115,1.115,200,223.0,1,1.12,1.11,1.11,25284,28074.74,25,1.115,1.115,1.11,1.115,,-0.007155635062611813,jcp,20200102
2020-01-02,10:26,10:26 AM,,,,0,0.0,0,1.12,1.115,1.117,658,734.67,3,,,1.115,1.12,,-0.0008944543828265758,jcp,20200102
2020-01-02,10:27,10:27 AM,,,,0,0.0,0,1.12,1.11,1.116,1400,1562.9,5,,,1.12,1.12,,-0.0017889087656529532,jcp,20200102
2020-01-02,10:28,10:28 AM,1.105,1.105,1.105,1300,1436.5,6,1.11,1.1,1.108,171118,189637.07,166,1.105,1.105,1.11,1.105,,-0.008944543828264765,jcp,20200102
2020-01-02,10:29,10:29 AM,,,,0,0.0,0,1.105,1.105,1.105,1500,1657.65,1,,,1.105,1.105,,-0.011627906976744295,jcp,20200102
2020-01-02,10:30,10:30 AM,1.105,1.105,1.105,8200,9061.0,2,1.11,1.1,1.106,32000,35390.97,33,1.105,1.105,1.105,1.105,,-0.010733452593917718,jcp,20200102
2020-01-02,10:31,10:31 AM,,,,0,0.0,0,1.11,1.1,1.106,8076,8929.28,21,,,1.105,1.1,,-0.010733452593917718,jcp,20200102
2020-01-02,10:32,10:32 AM,,,,0,0.0,0,1.11,1.105,1.109,7276,8068.86,7,,,1.105,1.11,,-0.00805008944543839,jcp,20200102
2020-01-02,10:33,10:33 AM,,,,0,0.0,0,1.105,1.1,1.105,1200,1325.49,3,,,1.105,1.105,,-0.011627906976744295,jcp,20200102
2020-01-02,10:34,10:34 AM,1.11,1.11,1.11,1000,1110.0,2,1.11,1.1,1.109,139339,154480.8061,49,1.11,1.11,1.105,1.11,,-0.00805008944543839,jcp,20200102
2020-01-02,10:35,10:35 AM,1.11,1.11,1.11,2800,3108.0,9,1.11,1.105,1.109,26400,29282.0,71,1.11,1.11,1.11,1.11,,-0.00805008944543839,jcp,20200102
2020-01-02,10:36,10:36 AM,,,,0,0.0,0,1.11,1.105,1.107,6100,6755.33,19,,,1.109,1.105,,-0.009838998211091342,jcp,20200102
2020-01-02,10:37,10:37 AM,,,,0,0.0,0,1.106,1.106,1.106,100,110.57,1,,,1.106,1.106,,-0.010733452593917718,jcp,20200102
2020-01-02,10:38,10:38 AM,,,,0,0.0,0,1.11,1.1,1.102,17901,19722.605,10,,,1.11,1.105,,-0.014311270125223626,jcp,20200102
2020-01-02,10:39,10:39 AM,,,,0,0.0,0,1.11,1.107,1.109,11235,12463.2275,4,,,1.11,1.11,,-0.00805008944543839,jcp,20200102
2020-01-02,10:40,10:40 AM,,,,0,0.0,0,1.11,1.105,1.106,2550,2820.45,5,,,1.11,1.11,,-0.010733452593917718,jcp,20200102
2020-01-02,10:41,10:41 AM,,,,0,0.0,0,1.11,1.11,1.11,100,111.0,1,,,1.11,1.11,,-0.007155635062611813,jcp,20200102
2020-01-02,10:42,10:42 AM,,,,0,0.0,0,1.11,1.1,1.107,3195,3536.298,4,,,1.11,1.1,,-0.009838998211091342,jcp,20200102
2020-01-02,10:43,10:43 AM,,,,0,0.0,0,1.11,1.105,1.106,1600,1769.5,3,,,1.105,1.105,,-0.010733452593917718,jcp,20200102
2020-01-02,10:44,10:44 AM,,,,0,0.0,0,1.11,1.105,1.106,1400,1549.0,12,,,1.105,1.105,,-0.010733452593917718,jcp,20200102
2020-01-02,10:45,10:45 AM,,,,0,0.0,0,1.11,1.105,1.106,1300,1437.5,6,,,1.105,1.105,,-0.010733452593917718,jcp,20200102
2020-01-02,10:46,10:46 AM,,,,0,0.0,0,1.11,1.1,1.101,17200,18940.19,8,,,1.1,1.11,,-0.015205724508050201,jcp,20200102
2020-01-02,10:47,10:47 AM,,,,0,0.0,0,1.11,1.1,1.104,965,1065.343,6,,,1.105,1.1,,-0.012522361359570671,jcp,20200102
2020-01-02,10:48,10:48 AM,,,,0,0.0,0,1.11,1.105,1.109,11750,13034.125,5,,,1.105,1.11,,-0.00805008944543839,jcp,20200102
2020-01-02,10:49,10:49 AM,,,,0,0.0,0,1.11,1.105,1.108,21800,24154.3,13,,,1.11,1.105,,-0.008944543828264765,jcp,20200102
2020-01-02,10:50,10:50 AM,,,,0,0.0,0,1.11,1.1,1.107,10618,11756.69,29,,,1.105,1.11,,-0.009838998211091342,jcp,20200102
2020-01-02,10:51,10:51 AM,1.11,1.11,1.11,100,111.0,1,1.11,1.105,1.11,10700,11874.5,15,1.11,1.11,1.105,1.11,,-0.007155635062611813,jcp,20200102
2020-01-02,10:52,10:52 AM,,,,0,0.0,0,1.11,1.105,1.109,11100,12313.86,10,,,1.105,1.11,,-0.00805008944543839,jcp,20200102
2020-01-02,10:53,10:53 AM,,,,0,0.0,0,1.11,1.105,1.108,500,554.0,3,,,1.105,1.11,,-0.008944543828264765,jcp,20200102
2020-01-02,10:54,10:54 AM,,,,0,0.0,0,1.11,1.1,1.103,27380,30192.32,16,,,1.11,1.1,,-0.013416815742397248,jcp,20200102
2020-01-02,10:55,10:55 AM,,,,0,0.0,0,1.105,1.1,1.102,5500,6063.56,4,,,1.103,1.105,,-0.014311270125223626,jcp,20200102
2020-01-02,10:56,10:56 AM,,,,0,0.0,0,1.11,1.1,1.105,200,221.0,2,,,1.1,1.11,,-0.011627906976744295,jcp,20200102
2020-01-02,10:57,10:57 AM,,,,0,0.0,0,1.101,1.1,1.1,18806,20694.8836,2,,,1.1,1.101,,-0.016100178890876577,jcp,20200102
2020-01-02,10:58,10:58 AM,,,,0,0.0,0,1.1,1.1,1.1,400,440.02,2,,,1.1,1.1,,-0.016100178890876577,jcp,20200102
2020-01-02,10:59,10:59 AM,1.105,1.105,1.105,300,331.5,2,1.11,1.105,1.106,4594,5082.887,6,1.105,1.105,1.105,1.105,,-0.010733452593917718,jcp,20200102
2020-01-02,11:00,11 AM,1.105,1.105,1.105,2800,3094.0,4,1.11,1.103,1.107,12600,13944.64,15,1.105,1.105,1.105,1.103,,-0.009838998211091342,jcp,20200102
2020-01-02,11:01,11:01 AM,,,,0,0.0,0,1.109,1.109,1.109,5000,5547.0,1,,,1.109,1.109,,-0.00805008944543839,jcp,20200102
2020-01-02,11:02,11:02 AM,1.105,1.105,1.105,500,552.5,1,1.105,1.1,1.101,44749,49282.9,25,1.105,1.105,1.105,1.105,,-0.015205724508050201,jcp,20200102
2020-01-02,11:03,11:03 AM,,,,0,0.0,0,1.11,1.1,1.11,38208,42398.39,12,,,1.11,1.1,,-0.007155635062611813,jcp,20200102
2020-01-02,11:04,11:04 AM,,,,0,0.0,0,1.11,1.1,1.105,300,331.5,3,,,1.105,1.11,,-0.011627906976744295,jcp,20200102
2020-01-02,11:05,11:05 AM,1.105,1.105,1.105,400,442.0,2,1.105,1.105,1.105,6341,7006.805,12,1.105,1.105,1.105,1.105,,-0.011627906976744295,jcp,20200102
2020-01-02,11:06,11:06 AM,,,,0,0.0,0,1.101,1.101,1.101,1405,1546.4835,1,,,1.101,1.101,,-0.015205724508050201,jcp,20200102
2020-01-02,11:07,11:07 AM,,,,0,0.0,0,1.11,1.11,1.11,100,111.0,1,,,1.11,1.11,,-0.007155635062611813,jcp,20200102
2020-01-02,11:08,11:08 AM,,,,0,0.0,0,1.105,1.105,1.105,500,552.5,1,,,1.105,1.105,,-0.011627906976744295,jcp,20200102
2020-01-02,11:09,11:09 AM,,,,0,0.0,0,1.105,1.105,1.105,250,276.25,1,,,1.105,1.105,,-0.011627906976744295,jcp,20200102
2020-01-02,11:10,11:10 AM,,,,0,0.0,0,1.108,1.108,1.108,3500,3879.4,1,,,1.108,1.108,,-0.008944543828264765,jcp,20200102
2020-01-02,11:11,11:11 AM,,,,0,0.0,0,1.11,1.105,1.107,400,443.0,4,,,1.11,1.105,,-0.009838998211091342,jcp,20200102
2020-01-02,11:12,11:12 AM,,,,0,0.0,0,1.11,1.1,1.102,4600,5070.25,4,,,1.103,1.1,,-0.014311270125223626,jcp,20200102
2020-01-02,11:13,11:13 AM,,,,0,0.0,0,1.11,1.1,1.103,4600,5072.0,3,,,1.105,1.11,,-0.013416815742397248,jcp,20200102
2020-01-02,11:14,11:14 AM,,,,0,0.0,0,1.11,1.1,1.106,6500,7187.5,6,,,1.105,1.11,,-0.010733452593917718,jcp,20200102
2020-01-02,11:15,11:15 AM,,,,0,0.0,0,1.11,1.1,1.104,2930,3235.61,15,,,1.1,1.105,,-0.012522361359570671,jcp,20200102
2020-01-02,11:16,11:16 AM,,,,0,0.0,0,1.11,1.105,1.106,400,442.5,4,,,1.105,1.105,,-0.010733452593917718,jcp,20200102
2020-01-02,11:17,11:17 AM,1.105,1.105,1.105,2600,2873.0,1,1.11,1.105,1.105,4800,5305.0,20,1.105,1.105,1.11,1.11,,-0.011627906976744295,jcp,20200102
2020-01-02,11:18,11:18 AM,,,,0,0.0,0,1.11,1.105,1.106,1600,1769.0,6,,,1.11,1.11,,-0.010733452593917718,jcp,20200102
2020-01-02,11:19,11:19 AM,,,,0,0.0,0,1.11,1.1,1.101,28274,31131.758,46,,,1.105,1.11,,-0.015205724508050201,jcp,20200102
2020-01-02,11:20,11:20 AM,1.105,1.105,1.105,100,110.5,1,1.11,1.1,1.103,26997,29786.9018,39,1.105,1.105,1.105,1.105,,-0.013416815742397248,jcp,20200102
2020-01-02,11:21,11:21 AM,,,,0,0.0,0,1.11,1.105,1.108,300,332.5,3,,,1.105,1.11,,-0.008944543828264765,jcp,20200102
2020-01-02,11:22,11:22 AM,,,,0,0.0,0,1.11,1.1,1.103,3000,3307.9,9,,,1.1,1.11,,-0.013416815742397248,jcp,20200102
2020-01-02,11:23,11:23 AM,,,,0,0.0,0,1.11,1.104,1.104,2600,2871.0,2,,,1.11,1.104,,-0.012522361359570671,jcp,20200102
2020-01-02,11:24,11:24 AM,,,,0,0.0,0,1.11,1.11,1.11,300,333.0,3,,,1.11,1.11,,-0.007155635062611813,jcp,20200102
2020-01-02,11:25,11:25 AM,,,,0,0.0,0,1.11,1.105,1.106,1200,1327.0,3,,,1.11,1.11,,-0.010733452593917718,jcp,20200102
2020-01-02,11:26,11:26 AM,,,,0,0.0,0,1.11,1.105,1.108,300,332.5,3,,,1.11,1.11,,-0.008944543828264765,jcp,20200102
2020-01-02,11:27,11:27 AM,,,,0,0.0,0,1.11,1.1,1.106,3286,3633.575,16,,,1.1,1.1,,-0.010733452593917718,jcp,20200102
2020-01-02,11:28,11:28 AM,,,,0,0.0,0,1.11,1.1,1.103,600,661.5,5,,,1.105,1.1,,-0.013416815742397248,jcp,20200102
2020-01-02,11:29,11:29 AM,,,,0,0.0,0,1.11,1.1,1.106,500,553.0,5,,,1.11,1.105,,-0.010733452593917718,jcp,20200102
2020-01-02,11:30,11:30 AM,1.1,1.1,1.1,100,110.0,1,1.11,1.1,1.1,26739,29421.669,15,1.1,1.1,1.1,1.11,,-0.016100178890876577,jcp,20200102
2020-01-02,11:31,11:31 AM,,,,0,0.0,0,1.11,1.105,1.107,3031,3355.995,4,,,1.105,1.108,,-0.009838998211091342,jcp,20200102
2020-01-02,11:32,11:32 AM,,,,0,0.0,0,1.11,1.1,1.104,900,994.0,6,,,1.11,1.1,,-0.012522361359570671,jcp,20200102
2020-01-02,11:33,11:33 AM,1.105,1.105,1.105,100,110.5,1,1.11,1.1,1.102,35473,39099.39,27,1.105,1.105,1.11,1.11,,-0.014311270125223626,jcp,20200102
2020-01-02,11:34,11:34 AM,,,,0,0.0,0,1.11,1.11,1.11,100,111.0,1,,,1.11,1.11,,-0.007155635062611813,jcp,20200102
2020-01-02,11:35,11:35 AM,,,,0,0.0,0,1.11,1.1,1.105,700,773.5,7,,,1.105,1.1,,-0.011627906976744295,jcp,20200102
2020-01-02,11:36,11:36 AM,1.105,1.105,1.105,100,110.5,1,1.11,1.1,1.103,700,772.5,5,1.105,1.105,1.11,1.11,,-0.013416815742397248,jcp,20200102
2020-01-02,11:37,11:37 AM,,,,0,0.0,0,1.11,1.1,1.105,1066,1177.93,10,,,1.1,1.11,,-0.011627906976744295,jcp,20200102
2020-01-02,11:38,11:38 AM,,,,0,0.0,0,1.11,1.105,1.108,300,332.5,3,,,1.105,1.11,,-0.008944543828264765,jcp,20200102
2020-01-02,11:39,11:39 AM,,,,0,0.0,0,1.11,1.105,1.106,400,442.5,4,,,1.105,1.11,,-0.010733452593917718,jcp,20200102
2020-01-02,11:40,11:40 AM,,,,0,0.0,0,1.11,1.105,1.107,400,443.0,4,,,1.11,1.11,,-0.009838998211091342,jcp,20200102
2020-01-02,11:41,11:41 AM,,,,0,0.0,0,1.11,1.1,1.103,500,551.5,5,,,1.1,1.1,,-0.013416815742397248,jcp,20200102
2020-01-02,11:42,11:42 AM,,,,0,0.0,0,1.11,1.1,1.103,2000,2205.5,10,,,1.105,1.11,,-0.013416815742397248,jcp,20200102
2020-01-02,11:43,11:43 AM,,,,0,0.0,0,1.11,1.105,1.105,2000,2211.0,4,,,1.105,1.11,,-0.011627906976744295,jcp,20200102
2020-01-02,11:44,11:44 AM,,,,0,0.0,0,1.11,1.1,1.105,400,442.0,4,,,1.105,1.11,,-0.011627906976744295,jcp,20200102
2020-01-02,11:45,11:45 AM,,,,0,0.0,0,1.11,1.105,1.106,16560,18320.5,11,,,1.105,1.105,,-0.010733452593917718,jcp,20200102
2020-01-02,11:46,11:46 AM,,,,0,0.0,0,1.11,1.11,1.11,100,111.0,1,,,1.11,1.11,,-0.007155635062611813,jcp,20200102
2020-01-02,11:47,11:47 AM,,,,0,0.0,0,1.11,1.1,1.102,1500,1653.5,5,,,1.11,1.105,,-0.014311270125223626,jcp,20200102
2020-01-02,11:48,11:48 AM,,,,0,0.0,0,1.11,1.105,1.107,900,996.0,8,,,1.105,1.11,,-0.009838998211091342,jcp,20200102
2020-01-02,11:49,11:49 AM,,,,0,0.0,0,1.11,1.105,1.106,700,774.5,6,,,1.105,1.105,,-0.010733452593917718,jcp,20200102
2020-01-02,11:50,11:50 AM,,,,0,0.0,0,1.11,1.105,1.108,5800,6429.0,6,,,1.109,1.105,,-0.008944543828264765,jcp,20200102
2020-01-02,11:51,11:51 AM,,,,0,0.0,0,1.11,1.103,1.104,990,1093.421,4,,,1.105,1.103,,-0.012522361359570671,jcp,20200102
2020-01-02,11:52,11:52 AM,,,,0,0.0,0,1.11,1.105,1.108,300,332.5,3,,,1.11,1.11,,-0.008944543828264765,jcp,20200102
2020-01-02,11:53,11:53 AM,,,,0,0.0,0,1.11,1.11,1.11,100,111.0,1,,,1.11,1.11,,-0.007155635062611813,jcp,20200102
2020-01-02,11:54,11:54 AM,,,,0,0.0,0,1.11,1.105,1.108,300,332.5,3,,,1.11,1.105,,-0.008944543828264765,jcp,20200102
2020-01-02,11:55,11:55 AM,,,,0,0.0,0,1.11,1.1,1.106,12400,13716.07,20,,,1.105,1.105,,-0.010733452593917718,jcp,20200102
2020-01-02,11:56,11:56 AM,,,,0,0.0,0,1.11,1.105,1.107,400,443.0,4,,,1.11,1.11,,-0.009838998211091342,jcp,20200102
2020-01-02,11:57,11:57 AM,,,,0,0.0,0,1.11,1.105,1.106,477,527.585,4,,,1.105,1.11,,-0.010733452593917718,jcp,20200102
2020-01-02,11:58,11:58 AM,,,,0,0.0,0,1.11,1.104,1.104,2732,3017.4412,6,,,1.105,1.105,,-0.012522361359570671,jcp,20200102
2020-01-02,11:59,11:59 AM,1.105,1.105,1.105,700,773.5,1,1.11,1.105,1.106,14598,16143.29,30,1.105,1.105,1.105,1.105,,-0.010733452593917718,jcp,20200102
2020-01-02,12:00,12 PM,,,,0,0.0,0,1.11,1.1,1.105,900,994.5,7,,,1.11,1.105,,-0.011627906976744295,jcp,20200102
2020-01-02,12:01,12:01 PM,,,,0,0.0,0,1.11,1.105,1.108,310,343.55,3,,,1.11,1.105,,-0.008944543828264765,jcp,20200102
2020-01-02,12:02,12:02 PM,,,,0,0.0,0,1.11,1.105,1.106,800,885.0,5,,,1.11,1.105,,-0.010733452593917718,jcp,20200102
2020-01-02,12:03,12:03 PM,,,,0,0.0,0,1.11,1.11,1.11,100,111.0,1,,,1.11,1.11,,-0.007155635062611813,jcp,20200102
2020-01-02,12:04,12:04 PM,,,,0,0.0,0,1.11,1.1,1.101,1300,1431.74,4,,,1.1,1.11,,-0.015205724508050201,jcp,20200102
2020-01-02,12:05,12:05 PM,,,,0,0.0,0,1.11,1.11,1.11,200,222.0,2,,,1.11,1.11,,-0.007155635062611813,jcp,20200102
2020-01-02,12:06,12:06 PM,,,,0,0.0,0,1.11,1.105,1.106,500,553.0,4,,,1.105,1.105,,-0.010733452593917718,jcp,20200102
2020-01-02,12:07,12:07 PM,,,,0,0.0,0,1.11,1.105,1.108,300,332.5,3,,,1.11,1.105,,-0.008944543828264765,jcp,20200102
2020-01-02,12:08,12:08 PM,,,,0,0.0,0,1.11,1.105,1.107,200,221.5,2,,,1.105,1.11,,-0.009838998211091342,jcp,20200102
2020-01-02,12:09,12:09 PM,,,,0,0.0,0,1.11,1.105,1.107,400,443.0,4,,,1.105,1.11,,-0.009838998211091342,jcp,20200102
2020-01-02,12:10,12:10 PM,,,,0,0.0,0,1.11,1.105,1.107,400,443.0,3,,,1.11,1.105,,-0.009838998211091342,jcp,20200102
2020-01-02,12:11,12:11 PM,,,,0,0.0,0,1.11,1.105,1.107,300,332.0,3,,,1.105,1.11,,-0.009838998211091342,jcp,20200102
2020-01-02,12:12,12:12 PM,,,,0,0.0,0,1.11,1.105,1.108,1000,1108.45,6,,,1.105,1.11,,-0.008944543828264765,jcp,20200102
2020-01-02,12:13,12:13 PM,,,,0,0.0,0,1.11,1.1,1.104,18271,20174.28,18,,,1.105,1.105,,-0.012522361359570671,jcp,20200102
2020-01-02,12:14,12:14 PM,1.105,1.105,1.105,3852,4256.46,5,1.11,1.105,1.105,5827,6441.335,17,1.105,1.105,1.105,1.105,,-0.011627906976744295,jcp,20200102
2020-01-02,12:15,12:15 PM,1.11,1.11,1.11,46,51.06,1,1.105,1.105,1.105,200,221.0,2,1.11,1.11,1.105,1.105,,-0.011627906976744295,jcp,20200102
2020-01-02,12:16,12:16 PM,1.105,1.105,1.105,100,110.5,1,1.105,1.1,1.102,2400,2645.0,4,1.105,1.105,1.105,1.1,,-0.014311270125223626,jcp,20200102
2020-01-02,12:17,12:17 PM,,,,0,0.0,0,1.105,1.105,1.105,116,128.18,1,,,1.105,1.105,,-0.011627906976744295,jcp,20200102
2020-01-02,12:18,12:18 PM,,,,0,0.0,0,1.11,1.1,1.11,22006,24419.1,18,,,1.11,1.105,,-0.007155635062611813,jcp,20200102
2020-01-02,12:19,12:19 PM,,,,0,0.0,0,1.11,1.1,1.105,1600,1768.5,6,,,1.105,1.105,,-0.011627906976744295,jcp,20200102
2020-01-02,12:20,12:20 PM,,,,0,0.0,0,1.11,1.101,1.101,9390,10340.59,4,,,1.11,1.101,,-0.015205724508050201,jcp,20200102
2020-01-02,12:21,12:21 PM,,,,0,0.0,0,1.11,1.1,1.109,5184,5746.8455,13,,,1.105,1.11,,-0.00805008944543839,jcp,20200102
2020-01-02,12:22,12:22 PM,,,,0,0.0,0,1.11,1.105,1.106,1200,1327.0,6,,,1.11,1.105,,-0.010733452593917718,jcp,20200102
2020-01-02,12:23,12:23 PM,,,,0,0.0,0,1.11,1.105,1.109,2850,3160.25,5,,,1.11,1.105,,-0.00805008944543839,jcp,20200102
2020-01-02,12:24,12:24 PM,,,,0,0.0,0,,,,0,0.0,0,,,,,,,jcp,20200102
2020-01-02,12:25,12:25 PM,,,,0,0.0,0,1.11,1.11,1.11,100,111.0,1,,,1.11,1.11,,-0.007155635062611813,jcp,20200102
2020-01-02,12:26,12:26 PM,,,,0,0.0,0,1.11,1.105,1.106,3993,4418.0202,14,,,1.105,1.105,,-0.010733452593917718,jcp,20200102
2020-01-02,12:27,12:27 PM,,,,0,0.0,0,1.11,1.105,1.105,1699,1878.395,4,,,1.11,1.105,,-0.011627906976744295,jcp,20200102
2020-01-02,12:28,12:28 PM,,,,0,0.0,0,1.11,1.105,1.105,1000,1105.5,6,,,1.105,1.11,,-0.011627906976744295,jcp,20200102
2020-01-02,12:29,12:29 PM,,,,0,0.0,0,1.105,1.105,1.105,3205,3541.525,12,,,1.105,1.105,,-0.011627906976744295,jcp,20200102
2020-01-02,12:30,12:30 PM,,,,0,0.0,0,1.11,1.105,1.105,3009,3325.445,5,,,1.105,1.105,,-0.011627906976744295,jcp,20200102
2020-01-02,12:31,12:31 PM,,,,0,0.0,0,1.11,1.105,1.109,2500,2772.81,10,,,1.109,1.11,,-0.00805008944543839,jcp,20200102
2020-01-02,12:32,12:32 PM,,,,0,0.0,0,1.11,1.105,1.11,10972,12175.42,8,,,1.105,1.105,,-0.007155635062611813,jcp,20200102
2020-01-02,12:33,12:33 PM,,,,0,0.0,0,1.11,1.105,1.11,24960,27702.3,15,,,1.11,1.11,,-0.007155635062611813,jcp,20200102
2020-01-02,12:34,12:34 PM,,,,0,0.0,0,1.11,1.105,1.106,3128,3460.48,11,,,1.105,1.105,,-0.010733452593917718,jcp,20200102
2020-01-02,12:35,12:35 PM,,,,0,0.0,0,1.106,1.105,1.105,1480,1635.952,5,,,1.105,1.106,,-0.011627906976744295,jcp,20200102
2020-01-02,12:36,12:36 PM,1.105,1.105,1.105,4676,5166.98,11,1.11,1.105,1.107,9376,10380.08,16,1.105,1.105,1.105,1.11,,-0.009838998211091342,jcp,20200102
2020-01-02,12:37,12:37 PM,,,,0,0.0,0,1.105,1.105,1.105,300,331.5,2,,,1.105,1.105,,-0.011627906976744295,jcp,20200102
2020-01-02,12:38,12:38 PM,1.11,1.11,1.11,200,222.0,1,1.11,1.103,1.107,20836,23063.58,36,1.11,1.11,1.105,1.105,,-0.009838998211091342,jcp,20200102
2020-01-02,12:39,12:39 PM,,,,0,0.0,0,1.107,1.105,1.105,1600,1768.3,5,,,1.105,1.105,,-0.011627906976744295,jcp,20200102
2020-01-02,12:40,12:40 PM,1.105,1.105,1.105,100,110.5,1,1.105,1.105,1.105,500,552.5,5,1.105,1.105,1.105,1.105,,-0.011627906976744295,jcp,20200102
2020-01-02,12:41,12:41 PM,,,,0,0.0,0,1.105,1.105,1.105,500,552.5,3,,,1.105,1.105,,-0.011627906976744295,jcp,20200102
2020-01-02,12:42,12:42 PM,,,,0,0.0,0,1.105,1.105,1.105,400,442.0,1,,,1.105,1.105,,-0.011627906976744295,jcp,20200102
2020-01-02,12:43,12:43 PM,,,,0,0.0,0,1.11,1.1,1.101,3481,3833.67,7,,,1.106,1.105,,-0.015205724508050201,jcp,20200102
2020-01-02,12:44,12:44 PM,,,,0,0.0,0,1.11,1.11,1.11,200,222.0,2,,,1.11,1.11,,-0.007155635062611813,jcp,20200102
2020-01-02,12:45,12:45 PM,,,,0,0.0,0,1.11,1.105,1.107,5800,6422.5,19,,,1.108,1.11,,-0.009838998211091342,jcp,20200102
2020-01-02,12:46,12:46 PM,,,,0,0.0,0,1.105,1.105,1.105,26518,29302.39,23,,,1.105,1.105,,-0.011627906976744295,jcp,20200102
2020-01-02,12:47,12:47 PM,,,,0,0.0,0,1.11,1.1,1.103,600,662.1,4,,,1.105,1.1,,-0.013416815742397248,jcp,20200102
2020-01-02,12:48,12:48 PM,,,,0,0.0,0,1.11,1.1,1.103,1000,1103.2,4,,,1.11,1.11,,-0.013416815742397248,jcp,20200102
2020-01-02,12:49,12:49 PM,1.105,1.105,1.105,300,331.5,1,1.11,1.105,1.105,6176,6824.98,25,1.105,1.105,1.105,1.11,,-0.011627906976744295,jcp,20200102
2020-01-02,12:50,12:50 PM,,,,0,0.0,0,1.11,1.105,1.105,1794,1982.87,4,,,1.105,1.105,,-0.011627906976744295,jcp,20200102
2020-01-02,12:51,12:51 PM,,,,0,0.0,0,1.11,1.105,1.105,1200,1326.5,4,,,1.105,1.105,,-0.011627906976744295,jcp,20200102
2020-01-02,12:52,12:52 PM,,,,0,0.0,0,1.11,1.109,1.109,378,419.313,3,,,1.11,1.11,,-0.00805008944543839,jcp,20200102
2020-01-02,12:53,12:53 PM,,,,0,0.0,0,1.11,1.105,1.107,200,221.5,2,,,1.105,1.11,,-0.009838998211091342,jcp,20200102
2020-01-02,12:54,12:54 PM,,,,0,0.0,0,1.11,1.105,1.109,400,443.5,3,,,1.11,1.105,,-0.00805008944543839,jcp,20200102
2020-01-02,12:55,12:55 PM,,,,0,0.0,0,1.11,1.108,1.108,1355,1501.791,2,,,1.11,1.108,,-0.008944543828264765,jcp,20200102
2020-01-02,12:56,12:56 PM,,,,0,0.0,0,1.11,1.105,1.106,505,558.525,5,,,1.11,1.105,,-0.010733452593917718,jcp,20200102
2020-01-02,12:57,12:57 PM,,,,0,0.0,0,1.105,1.105,1.105,100,110.5,1,,,1.105,1.105,,-0.011627906976744295,jcp,20200102
2020-01-02,12:58,12:58 PM,,,,0,0.0,0,1.105,1.1,1.103,4663,5142.615,6,,,1.105,1.105,,-0.013416815742397248,jcp,20200102
2020-01-02,12:59,12:59 PM,,,,0,0.0,0,1.105,1.1,1.104,7500,8278.5,5,,,1.105,1.105,,-0.012522361359570671,jcp,20200102
2020-01-02,13:00,1 PM,1.105,1.105,1.105,100,110.5,1,1.105,1.1,1.102,32106,35378.1,70,1.105,1.105,1.1,1.1,,-0.014311270125223626,jcp,20200102
2020-01-02,13:01,1:01 PM,,,,0,0.0,0,1.105,1.1,1.1,2300,2531.0,13,,,1.1,1.105,,-0.016100178890876577,jcp,20200102
2020-01-02,13:02,1:02 PM,,,,0,0.0,0,1.105,1.1,1.102,3544,3904.9,16,,,1.105,1.1,,-0.014311270125223626,jcp,20200102
2020-01-02,13:03,1:03 PM,,,,0,0.0,0,1.105,1.105,1.105,200,221.0,2,,,1.105,1.105,,-0.011627906976744295,jcp,20200102
2020-01-02,13:04,1:04 PM,,,,0,0.0,0,1.105,1.1,1.102,3399,3744.4,10,,,1.1,1.105,,-0.014311270125223626,jcp,20200102
2020-01-02,13:05,1:05 PM,,,,0,0.0,0,1.11,1.105,1.106,400,442.5,4,,,1.105,1.105,,-0.010733452593917718,jcp,20200102
2020-01-02,13:06,1:06 PM,,,,0,0.0,0,1.105,1.105,1.105,100,110.5,1,,,1.105,1.105,,-0.011627906976744295,jcp,20200102
2020-01-02,13:07,1:07 PM,,,,0,0.0,0,1.105,1.1,1.104,400,441.5,4,,,1.105,1.105,,-0.012522361359570671,jcp,20200102
2020-01-02,13:08,1:08 PM,,,,0,0.0,0,1.105,1.1,1.101,6200,6827.6,4,,,1.105,1.105,,-0.015205724508050201,jcp,20200102
2020-01-02,13:09,1:09 PM,,,,0,0.0,0,1.105,1.1,1.103,6099,6724.8,8,,,1.105,1.105,,-0.013416815742397248,jcp,20200102
2020-01-02,13:10,1:10 PM,,,,0,0.0,0,1.105,1.105,1.105,1265,1397.802,4,,,1.105,1.105,,-0.011627906976744295,jcp,20200102
2020-01-02,13:11,1:11 PM,,,,0,0.0,0,1.105,1.1,1.101,11100,12218.5,19,,,1.105,1.105,,-0.015205724508050201,jcp,20200102
2020-01-02,13:12,1:12 PM,,,,0,0.0,0,1.105,1.105,1.105,3200,3536.0,4,,,1.105,1.105,,-0.011627906976744295,jcp,20200102
2020-01-02,13:13,1:13 PM,,,,0,0.0,0,1.107,1.1,1.101,5600,6163.25,15,,,1.105,1.1,,-0.015205724508050201,jcp,20200102
2020-01-02,13:14,1:14 PM,,,,0,0.0,0,1.105,1.105,1.105,200,221.0,2,,,1.105,1.105,,-0.011627906976744295,jcp,20200102
2020-01-02,13:15,1:15 PM,1.105,1.105,1.105,300,331.5,1,1.107,1.1,1.105,20425,22578.125,30,1.105,1.105,1.1,1.105,,-0.011627906976744295,jcp,20200102
2020-01-02,13:16,1:16 PM,,,,0,0.0,0,1.11,1.105,1.105,2200,2432.0,10,,,1.105,1.105,,-0.011627906976744295,jcp,20200102
2020-01-02,13:17,1:17 PM,,,,0,0.0,0,1.105,1.105,1.105,1600,1768.0,5,,,1.105,1.105,,-0.011627906976744295,jcp,20200102
2020-01-02,13:18,1:18 PM,1.105,1.105,1.105,100,110.5,1,1.105,1.1,1.101,30752,33856.81,32,1.105,1.105,1.105,1.1,,-0.015205724508050201,jcp,20200102
2020-01-02,13:19,1:19 PM,,,,0,0.0,0,1.105,1.1,1.105,1300,1436.0,10,,,1.105,1.105,,-0.011627906976744295,jcp,20200102
2020-01-02,13:20,1:20 PM,,,,0,0.0,0,1.105,1.1,1.103,1300,1433.5,9,,,1.105,1.105,,-0.013416815742397248,jcp,20200102
2020-01-02,13:21,1:21 PM,,,,0,0.0,0,1.105,1.1,1.103,1600,1765.5,5,,,1.1,1.105,,-0.013416815742397248,jcp,20200102
2020-01-02,13:22,1:22 PM,,,,0,0.0,0,1.105,1.1,1.105,2223,2455.4664,6,,,1.105,1.105,,-0.011627906976744295,jcp,20200102
2020-01-02,13:23,1:23 PM,1.1,1.1,1.1,60,66.0,1,1.105,1.1,1.101,13545,14910.81,16,1.1,1.1,1.1,1.105,,-0.015205724508050201,jcp,20200102
2020-01-02,13:24,1:24 PM,,,,0,0.0,0,1.105,1.1,1.105,17100,18890.0,13,,,1.105,1.1,,-0.011627906976744295,jcp,20200102
2020-01-02,13:25,1:25 PM,,,,0,0.0,0,1.105,1.1,1.103,593,654.265,3,,,1.105,1.1,,-0.013416815742397248,jcp,20200102
2020-01-02,13:26,1:26 PM,,,,0,0.0,0,1.11,1.1,1.105,400,442.0,4,,,1.105,1.105,,-0.011627906976744295,jcp,20200102
2020-01-02,13:27,1:27 PM,,,,0,0.0,0,1.109,1.1,1.107,4965,5497.0,10,,,1.105,1.1,,-0.009838998211091342,jcp,20200102
2020-01-02,13:28,1:28 PM,,,,0,0.0,0,1.105,1.1,1.101,1600,1761.0,4,,,1.1,1.105,,-0.015205724508050201,jcp,20200102
2020-01-02,13:29,1:29 PM,,,,0,0.0,0,1.11,1.1,1.11,43001,47716.9072,11,,,1.105,1.11,,-0.007155635062611813,jcp,20200102
2020-01-02,13:30,1:30 PM,1.105,1.105,1.105,200,221.0,2,1.105,1.1,1.102,42610,46958.885,79,1.105,1.105,1.1,1.105,,-0.014311270125223626,jcp,20200102
2020-01-02,13:31,1:31 PM,,,,0,0.0,0,1.105,1.1,1.101,9049,9968.285,17,,,1.1,1.105,,-0.015205724508050201,jcp,20200102
2020-01-02,13:32,1:32 PM,1.105,1.1,1.103,400,441.0,3,1.105,1.1,1.1,15073,16587.8,21,1.105,1.1,1.105,1.105,,-0.016100178890876577,jcp,20200102
2020-01-02,13:33,1:33 PM,,,,0,0.0,0,1.105,1.1,1.102,300,330.5,2,,,1.105,1.1,,-0.014311270125223626,jcp,20200102
2020-01-02,13:34,1:34 PM,1.1,1.1,1.1,1600,1760.0,2,1.105,1.1,1.101,12345,13593.9395,26,1.1,1.1,1.105,1.105,,-0.015205724508050201,jcp,20200102
2020-01-02,13:35,1:35 PM,,,,0,0.0,0,1.105,1.105,1.105,300,331.5,3,,,1.105,1.105,,-0.011627906976744295,jcp,20200102
2020-01-02,13:36,1:36 PM,,,,0,0.0,0,1.11,1.1,1.109,3500,3881.0,5,,,1.11,1.105,,-0.00805008944543839,jcp,20200102
2020-01-02,13:37,1:37 PM,,,,0,0.0,0,1.11,1.1,1.108,1230,1362.395,7,,,1.11,1.105,,-0.008944543828264765,jcp,20200102
2020-01-02,13:38,1:38 PM,1.1,1.1,1.1,2400,2640.0,5,1.11,1.1,1.102,11456,12623.8818,32,1.1,1.1,1.11,1.1,,-0.014311270125223626,jcp,20200102
2020-01-02,13:39,1:39 PM,,,,0,0.0,0,1.107,1.105,1.105,852,941.67,5,,,1.105,1.105,,-0.011627906976744295,jcp,20200102
2020-01-02,13:40,1:40 PM,,,,0,0.0,0,1.105,1.1,1.101,500,550.5,4,,,1.1,1.1,,-0.015205724508050201,jcp,20200102
2020-01-02,13:41,1:41 PM,,,,0,0.0,0,1.107,1.1,1.104,851,939.8676,4,,,1.105,1.1,,-0.012522361359570671,jcp,20200102
2020-01-02,13:42,1:42 PM,,,,0,0.0,0,1.105,1.1,1.102,700,771.5,5,,,1.105,1.1,,-0.014311270125223626,jcp,20200102
2020-01-02,13:43,1:43 PM,1.105,1.105,1.105,100,110.5,1,1.105,1.1,1.103,3800,4193.66,8,1.105,1.105,1.1,1.105,,-0.013416815742397248,jcp,20200102
2020-01-02,13:44,1:44 PM,,,,0,0.0,0,1.105,1.1,1.101,1700,1871.5,12,,,1.1,1.1,,-0.015205724508050201,jcp,20200102
2020-01-02,13:45,1:45 PM,1.1,1.1,1.1,1000,1100.0,3,1.105,1.1,1.1,4300,4732.0,24,1.1,1.1,1.1,1.1,,-0.016100178890876577,jcp,20200102
2020-01-02,13:46,1:46 PM,1.1,1.1,1.1,400,440.0,3,1.105,1.1,1.1,3300,3631.6,14,1.1,1.1,1.1,1.1,,-0.016100178890876577,jcp,20200102
2020-01-02,13:47,1:47 PM,,,,0,0.0,0,1.105,1.1,1.101,900,990.5,9,,,1.1,1.1,,-0.015205724508050201,jcp,20200102
2020-01-02,13:48,1:48 PM,1.1,1.1,1.1,2000,2200.0,6,1.11,1.1,1.101,10810,11902.33,31,1.1,1.1,1.1,1.1,,-0.015205724508050201,jcp,20200102
2020-01-02,13:49,1:49 PM,,,,0,0.0,0,1.105,1.1,1.102,1500,1652.5,13,,,1.1,1.1,,-0.014311270125223626,jcp,20200102
2020-01-02,13:50,1:50 PM,,,,0,0.0,0,1.105,1.1,1.101,1800,1981.0,14,,,1.1,1.1,,-0.015205724508050201,jcp,20200102
2020-01-02,13:51,1:51 PM,,,,0,0.0,0,1.105,1.1,1.101,1404,1546.457,12,,,1.1,1.105,,-0.015205724508050201,jcp,20200102
2020-01-02,13:52,1:52 PM,,,,0,0.0,0,1.105,1.1,1.101,1500,1651.3,15,,,1.1,1.105,,-0.015205724508050201,jcp,20200102
2020-01-02,13:53,1:53 PM,,,,0,0.0,0,1.105,1.1,1.102,500,551.0,5,,,1.105,1.105,,-0.014311270125223626,jcp,20200102
2020-01-02,13:54,1:54 PM,,,,0,0.0,0,1.105,1.1,1.1,3400,3740.5,5,,,1.1,1.105,,-0.016100178890876577,jcp,20200102
2020-01-02,13:55,1:55 PM,,,,0,0.0,0,1.105,1.1,1.104,600,662.5,6,,,1.105,1.1,,-0.012522361359570671,jcp,20200102
2020-01-02,13:56,1:56 PM,,,,0,0.0,0,1.105,1.1,1.105,5400,5964.5,12,,,1.1,1.105,,-0.011627906976744295,jcp,20200102
2020-01-02,13:57,1:57 PM,,,,0,0.0,0,1.105,1.1,1.101,2900,3192.0,5,,,1.105,1.1,,-0.015205724508050201,jcp,20200102
2020-01-02,13:58,1:58 PM,,,,0,0.0,0,1.11,1.1,1.104,1100,1214.0,9,,,1.11,1.1,,-0.012522361359570671,jcp,20200102
2020-01-02,13:59,1:59 PM,,,,0,0.0,0,1.11,1.1,1.102,6411,7066.6,16,,,1.1,1.11,,-0.014311270125223626,jcp,20200102
2020-01-02,14:00,2 PM,,,,0,0.0,0,1.11,1.105,1.105,18296,20224.23,47,,,1.11,1.11,,-0.011627906976744295,jcp,20200102
2020-01-02,14:01,2:01 PM,,,,0,0.0,0,1.11,1.105,1.107,600,664.5,6,,,1.105,1.11,,-0.009838998211091342,jcp,20200102
2020-01-02,14:02,2:02 PM,,,,0,0.0,0,1.11,1.1,1.107,1950,2157.75,6,,,1.1,1.105,,-0.009838998211091342,jcp,20200102
2020-01-02,14:03,2:03 PM,,,,0,0.0,0,1.11,1.105,1.107,500,553.5,3,,,1.11,1.11,,-0.009838998211091342,jcp,20200102
2020-01-02,14:04,2:04 PM,1.105,1.105,1.105,200,221.0,2,1.11,1.102,1.104,3300,3642.2,12,1.105,1.105,1.105,1.11,,-0.012522361359570671,jcp,20200102
2020-01-02,14:05,2:05 PM,1.105,1.105,1.105,7833,8655.465,1,1.11,1.105,1.105,8733,9651.965,9,1.105,1.105,1.105,1.11,,-0.011627906976744295,jcp,20200102
2020-01-02,14:06,2:06 PM,,,,0,0.0,0,1.11,1.105,1.107,300,332.0,2,,,1.105,1.11,,-0.009838998211091342,jcp,20200102
2020-01-02,14:07,2:07 PM,,,,0,0.0,0,1.11,1.1,1.1,40699,44773.395,5,,,1.1,1.105,,-0.016100178890876577,jcp,20200102
2020-01-02,14:08,2:08 PM,,,,0,0.0,0,1.11,1.105,1.107,3200,3541.5,19,,,1.105,1.11,,-0.009838998211091342,jcp,20200102
2020-01-02,14:09,2:09 PM,,,,0,0.0,0,1.11,1.105,1.106,400,442.5,4,,,1.105,1.11,,-0.010733452593917718,jcp,20200102
2020-01-02,14:10,2:10 PM,,,,0,0.0,0,1.11,1.105,1.108,2800,3101.5,13,,,1.105,1.105,,-0.008944543828264765,jcp,20200102
2020-01-02,14:11,2:11 PM,,,,0,0.0,0,1.11,1.105,1.109,2900,3216.0,10,,,1.105,1.11,,-0.00805008944543839,jcp,20200102
2020-01-02,14:12,2:12 PM,,,,0,0.0,0,1.11,1.105,1.109,500,554.5,5,,,1.11,1.11,,-0.00805008944543839,jcp,20200102
2020-01-02,14:13,2:13 PM,,,,0,0.0,0,1.11,1.105,1.107,400,443.0,3,,,1.11,1.11,,-0.009838998211091342,jcp,20200102
2020-01-02,14:14,2:14 PM,1.105,1.105,1.105,200,221.0,2,1.11,1.1,1.104,2500,2760.5,10,1.105,1.105,1.105,1.11,,-0.012522361359570671,jcp,20200102
2020-01-02,14:15,2:15 PM,,,,0,0.0,0,1.11,1.1,1.102,2300,2534.925,6,,,1.11,1.11,,-0.014311270125223626,jcp,20200102
2020-01-02,14:16,2:16 PM,,,,0,0.0,0,1.105,1.105,1.105,100,110.5,1,,,1.105,1.105,,-0.011627906976744295,jcp,20200102
2020-01-02,14:17,2:17 PM,,,,0,0.0,0,1.11,1.1,1.104,1034,1141.91,5,,,1.105,1.11,,-0.012522361359570671,jcp,20200102
2020-01-02,14:18,2:18 PM,1.105,1.105,1.105,4800,5304.0,10,1.11,1.1,1.108,18528,20522.58,32,1.105,1.105,1.105,1.105,,-0.008944543828264765,jcp,20200102
2020-01-02,14:19,2:19 PM,1.105,1.105,1.105,102,112.71,3,1.11,1.105,1.107,1772,1962.42,10,1.105,1.105,1.105,1.11,,-0.009838998211091342,jcp,20200102
2020-01-02,14:20,2:20 PM,,,,0,0.0,0,,,,0,0.0,0,,,,,,,jcp,20200102
2020-01-02,14:21,2:21 PM,,,,0,0.0,0,1.11,1.105,1.107,10600,11739.5,34,,,1.11,1.105,,-0.009838998211091342,jcp,20200102
2020-01-02,14:22,2:22 PM,1.105,1.105,1.105,1398,1544.79,4,1.11,1.105,1.105,1898,2098.29,8,1.105,1.105,1.11,1.11,,-0.011627906976744295,jcp,20200102
2020-01-02,14:23,2:23 PM,,,,0,0.0,0,1.11,1.105,1.107,12657,14013.2694,27,,,1.105,1.11,,-0.009838998211091342,jcp,20200102
2020-01-02,14:24,2:24 PM,,,,0,0.0,0,1.11,1.105,1.107,400,443.0,4,,,1.11,1.11,,-0.009838998211091342,jcp,20200102
2020-01-02,14:25,2:25 PM,,,,0,0.0,0,1.11,1.105,1.106,3519,3890.78,11,,,1.11,1.11,,-0.010733452593917718,jcp,20200102
2020-01-02,14:26,2:26 PM,,,,0,0.0,0,1.11,1.105,1.107,1458,1614.256,9,,,1.105,1.105,,-0.009838998211091342,jcp,20200102
2020-01-02,14:27,2:27 PM,,,,0,0.0,0,1.11,1.1,1.103,700,772.5,5,,,1.105,1.105,,-0.013416815742397248,jcp,20200102
2020-01-02,14:28,2:28 PM,,,,0,0.0,0,1.11,1.1,1.107,8000,8852.67,6,,,1.104,1.107,,-0.009838998211091342,jcp,20200102
2020-01-02,14:29,2:29 PM,,,,0,0.0,0,1.11,1.105,1.106,800,885.0,6,,,1.105,1.105,,-0.010733452593917718,jcp,20200102
2020-01-02,14:30,2:30 PM,,,,0,0.0,0,1.11,1.1,1.107,19211,21260.77,39,,,1.105,1.105,,-0.009838998211091342,jcp,20200102
2020-01-02,14:31,2:31 PM,,,,0,0.0,0,1.11,1.1,1.102,4626,5098.61,14,,,1.1,1.105,,-0.014311270125223626,jcp,20200102
2020-01-02,14:32,2:32 PM,,,,0,0.0,0,1.11,1.105,1.106,400,442.5,3,,,1.105,1.105,,-0.010733452593917718,jcp,20200102
2020-01-02,14:33,2:33 PM,,,,0,0.0,0,1.11,1.105,1.105,5500,6078.5,12,,,1.105,1.11,,-0.011627906976744295,jcp,20200102
2020-01-02,14:34,2:34 PM,,,,0,0.0,0,1.11,1.11,1.11,100,111.0,1,,,1.11,1.11,,-0.007155635062611813,jcp,20200102
2020-01-02,14:35,2:35 PM,,,,0,0.0,0,1.11,1.11,1.11,200,222.0,2,,,1.11,1.11,,-0.007155635062611813,jcp,20200102
2020-01-02,14:36,2:36 PM,1.105,1.105,1.105,100,110.5,1,1.11,1.105,1.108,300,332.5,3,1.105,1.105,1.11,1.11,,-0.008944543828264765,jcp,20200102
2020-01-02,14:37,2:37 PM,,,,0,0.0,0,1.11,1.105,1.106,600,663.5,3,,,1.105,1.11,,-0.010733452593917718,jcp,20200102
2020-01-02,14:38,2:38 PM,,,,0,0.0,0,1.11,1.105,1.105,2865,3167.325,8,,,1.105,1.105,,-0.011627906976744295,jcp,20200102
2020-01-02,14:39,2:39 PM,,,,0,0.0,0,1.11,1.105,1.109,6300,6987.0,6,,,1.105,1.11,,-0.00805008944543839,jcp,20200102
2020-01-02,14:40,2:40 PM,,,,0,0.0,0,1.11,1.105,1.107,300,332.0,3,,,1.11,1.105,,-0.009838998211091342,jcp,20200102
2020-01-02,14:41,2:41 PM,,,,0,0.0,0,1.11,1.105,1.106,800,885.0,4,,,1.11,1.105,,-0.010733452593917718,jcp,20200102
2020-01-02,14:42,2:42 PM,,,,0,0.0,0,1.11,1.105,1.106,1387,1533.635,9,,,1.105,1.11,,-0.010733452593917718,jcp,20200102
2020-01-02,14:43,2:43 PM,,,,0,0.0,0,1.11,1.105,1.107,3499,3875.395,11,,,1.105,1.11,,-0.009838998211091342,jcp,20200102
2020-01-02,14:44,2:44 PM,,,,0,0.0,0,1.11,1.107,1.108,600,664.7,2,,,1.107,1.11,,-0.008944543828264765,jcp,20200102
2020-01-02,14:45,2:45 PM,1.105,1.105,1.105,200,221.0,2,1.11,1.105,1.106,6504,7192.134,23,1.105,1.105,1.11,1.11,,-0.010733452593917718,jcp,20200102
2020-01-02,14:46,2:46 PM,1.105,1.105,1.105,100,110.5,1,1.11,1.105,1.106,1600,1769.0,6,1.105,1.105,1.105,1.11,,-0.010733452593917718,jcp,20200102
2020-01-02,14:47,2:47 PM,1.105,1.105,1.105,100,110.5,1,1.11,1.105,1.106,999,1104.895,8,1.105,1.105,1.105,1.11,,-0.010733452593917718,jcp,20200102
2020-01-02,14:48,2:48 PM,,,,0,0.0,0,1.11,1.11,1.11,100,111.0,1,,,1.11,1.11,,-0.007155635062611813,jcp,20200102
2020-01-02,14:49,2:49 PM,,,,0,0.0,0,1.11,1.1,1.103,4150,4579.6,11,,,1.11,1.105,,-0.013416815742397248,jcp,20200102
2020-01-02,14:50,2:50 PM,,,,0,0.0,0,1.11,1.105,1.106,2800,3096.0,6,,,1.105,1.105,,-0.010733452593917718,jcp,20200102
2020-01-02,14:51,2:51 PM,,,,0,0.0,0,1.11,1.1,1.102,1300,1433.0,5,,,1.105,1.11,,-0.014311270125223626,jcp,20200102
2020-01-02,14:52,2:52 PM,,,,0,0.0,0,1.11,1.104,1.105,6688,7389.2072,6,,,1.105,1.105,,-0.011627906976744295,jcp,20200102
2020-01-02,14:53,2:53 PM,,,,0,0.0,0,1.11,1.1,1.102,5967,6576.035,14,,,1.1,1.11,,-0.014311270125223626,jcp,20200102
2020-01-02,14:54,2:54 PM,,,,0,0.0,0,1.11,1.105,1.107,4100,4538.84,5,,,1.105,1.11,,-0.009838998211091342,jcp,20200102
2020-01-02,14:55,2:55 PM,,,,0,0.0,0,1.11,1.105,1.107,600,664.0,6,,,1.105,1.11,,-0.009838998211091342,jcp,20200102
2020-01-02,14:56,2:56 PM,1.105,1.105,1.105,200,221.0,2,1.11,1.105,1.106,598,661.29,5,1.105,1.105,1.105,1.105,,-0.010733452593917718,jcp,20200102
2020-01-02,14:57,2:57 PM,1.105,1.105,1.105,100,110.5,1,1.11,1.1,1.102,10296,11347.845,22,1.105,1.105,1.11,1.11,,-0.014311270125223626,jcp,20200102
2020-01-02,14:58,2:58 PM,1.105,1.105,1.105,100,110.5,1,1.11,1.1,1.103,6900,7614.47,17,1.105,1.105,1.105,1.105,,-0.013416815742397248,jcp,20200102
2020-01-02,14:59,2:59 PM,,,,0,0.0,0,1.11,1.1,1.102,8300,9146.46,10,,,1.11,1.11,,-0.014311270125223626,jcp,20200102
2020-01-02,15:00,3 PM,1.105,1.105,1.105,11686,12913.03,10,1.11,1.1,1.105,13247,14637.735,20,1.105,1.105,1.105,1.11,,-0.011627906976744295,jcp,20200102
2020-01-02,15:01,3:01 PM,,,,0,0.0,0,1.105,1.105,1.105,500,552.5,3,,,1.105,1.105,,-0.011627906976744295,jcp,20200102
2020-01-02,15:02,3:02 PM,,,,0,0.0,0,1.11,1.11,1.11,100,111.0,1,,,1.11,1.11,,-0.007155635062611813,jcp,20200102
2020-01-02,15:03,3:03 PM,,,,0,0.0,0,1.105,1.105,1.105,200,221.0,1,,,1.105,1.105,,-0.011627906976744295,jcp,20200102
2020-01-02,15:04,3:04 PM,,,,0,0.0,0,1.11,1.105,1.108,1500,1662.5,10,,,1.11,1.105,,-0.008944543828264765,jcp,20200102
2020-01-02,15:05,3:05 PM,,,,0,0.0,0,1.11,1.105,1.106,1281,1416.505,7,,,1.11,1.11,,-0.010733452593917718,jcp,20200102
2020-01-02,15:06,3:06 PM,,,,0,0.0,0,1.11,1.105,1.106,400,442.5,2,,,1.11,1.105,,-0.010733452593917718,jcp,20200102
2020-01-02,15:07,3:07 PM,,,,0,0.0,0,1.11,1.105,1.107,591,654.555,5,,,1.105,1.11,,-0.009838998211091342,jcp,20200102
2020-01-02,15:08,3:08 PM,,,,0,0.0,0,1.11,1.105,1.106,93970,103962.98,143,,,1.105,1.105,,-0.010733452593917718,jcp,20200102
2020-01-02,15:09,3:09 PM,,,,0,0.0,0,1.11,1.105,1.107,400,443.0,4,,,1.105,1.11,,-0.009838998211091342,jcp,20200102
2020-01-02,15:10,3:10 PM,1.105,1.105,1.105,100,110.5,1,1.11,1.1,1.107,12472,13806.4888,51,1.105,1.105,1.105,1.11,,-0.009838998211091342,jcp,20200102
2020-01-02,15:11,3:11 PM,,,,0,0.0,0,1.11,1.11,1.11,300,333.0,3,,,1.11,1.11,,-0.007155635062611813,jcp,20200102
2020-01-02,15:12,3:12 PM,,,,0,0.0,0,1.11,1.105,1.106,400,442.5,3,,,1.105,1.11,,-0.010733452593917718,jcp,20200102
2020-01-02,15:13,3:13 PM,,,,0,0.0,0,1.11,1.105,1.109,5600,6208.88,5,,,1.109,1.11,,-0.00805008944543839,jcp,20200102
2020-01-02,15:14,3:14 PM,,,,0,0.0,0,1.11,1.1,1.108,1400,1550.8,8,,,1.103,1.11,,-0.008944543828264765,jcp,20200102
2020-01-02,15:15,3:15 PM,,,,0,0.0,0,1.11,1.101,1.102,12600,13890.0,8,,,1.105,1.11,,-0.014311270125223626,jcp,20200102
2020-01-02,15:16,3:16 PM,,,,0,0.0,0,1.11,1.1,1.105,1200,1325.6,7,,,1.11,1.11,,-0.011627906976744295,jcp,20200102
2020-01-02,15:17,3:17 PM,,,,0,0.0,0,1.11,1.105,1.106,700,774.5,4,,,1.11,1.105,,-0.010733452593917718,jcp,20200102
2020-01-02,15:18,3:18 PM,,,,0,0.0,0,1.11,1.1,1.105,700,773.6,5,,,1.11,1.1,,-0.011627906976744295,jcp,20200102
2020-01-02,15:19,3:19 PM,,,,0,0.0,0,1.11,1.1,1.104,600,662.6,4,,,1.11,1.11,,-0.012522361359570671,jcp,20200102
2020-01-02,15:20,3:20 PM,,,,0,0.0,0,1.11,1.1,1.102,2100,2313.5,6,,,1.105,1.11,,-0.014311270125223626,jcp,20200102
2020-01-02,15:21,3:21 PM,,,,0,0.0,0,1.103,1.1,1.101,800,881.2,4,,,1.103,1.1,,-0.015205724508050201,jcp,20200102
2020-01-02,15:22,3:22 PM,,,,0,0.0,0,1.11,1.105,1.107,600,664.0,4,,,1.105,1.11,,-0.009838998211091342,jcp,20200102
2020-01-02,15:23,3:23 PM,,,,0,0.0,0,1.11,1.105,1.106,1600,1769.0,8,,,1.105,1.11,,-0.010733452593917718,jcp,20200102
2020-01-02,15:24,3:24 PM,1.105,1.105,1.105,100,110.5,1,1.11,1.101,1.106,703,777.445,6,1.105,1.105,1.11,1.101,,-0.010733452593917718,jcp,20200102
2020-01-02,15:25,3:25 PM,,,,0,0.0,0,1.11,1.105,1.108,6922,7669.4785,15,,,1.109,1.11,,-0.008944543828264765,jcp,20200102
2020-01-02,15:26,3:26 PM,,,,0,0.0,0,1.11,1.1,1.104,700,773.0,7,,,1.1,1.105,,-0.012522361359570671,jcp,20200102
2020-01-02,15:27,3:27 PM,,,,0,0.0,0,1.11,1.1,1.105,3314,3661.97,15,,,1.105,1.1,,-0.011627906976744295,jcp,20200102
2020-01-02,15:28,3:28 PM,,,,0,0.0,0,1.11,1.1,1.103,4912,5416.31,17,,,1.1,1.1,,-0.013416815742397248,jcp,20200102
2020-01-02,15:29,3:29 PM,,,,0,0.0,0,1.11,1.1,1.1,18521,20376.95,9,,,1.105,1.105,,-0.016100178890876577,jcp,20200102
2020-01-02,15:30,3:30 PM,1.105,1.105,1.105,100,110.5,1,1.11,1.1,1.105,15700,17356.8,20,1.105,1.105,1.105,1.1,,-0.011627906976744295,jcp,20200102
2020-01-02,15:31,3:31 PM,1.105,1.105,1.105,726,802.23,2,1.11,1.1,1.103,17926,19776.23,14,1.105,1.105,1.11,1.105,,-0.013416815742397248,jcp,20200102
2020-01-02,15:32,3:32 PM,,,,0,0.0,0,1.105,1.105,1.105,1296,1432.08,10,,,1.105,1.105,,-0.011627906976744295,jcp,20200102
2020-01-02,15:33,3:33 PM,,,,0,0.0,0,1.105,1.1,1.105,3100,3424.46,8,,,1.105,1.105,,-0.011627906976744295,jcp,20200102
2020-01-02,15:34,3:34 PM,,,,0,0.0,0,1.105,1.1,1.103,1616,1781.76,4,,,1.104,1.105,,-0.013416815742397248,jcp,20200102
2020-01-02,15:35,3:35 PM,,,,0,0.0,0,1.11,1.1,1.104,3274,3613.7,19,,,1.105,1.105,,-0.012522361359570671,jcp,20200102
2020-01-02,15:36,3:36 PM,,,,0,0.0,0,1.11,1.1,1.105,3800,4199.0,13,,,1.105,1.1,,-0.011627906976744295,jcp,20200102
2020-01-02,15:37,3:37 PM,,,,0,0.0,0,1.105,1.1,1.104,1065,1175.825,8,,,1.105,1.1,,-0.012522361359570671,jcp,20200102
2020-01-02,15:38,3:38 PM,,,,0,0.0,0,1.11,1.1,1.103,900,993.0,6,,,1.1,1.105,,-0.013416815742397248,jcp,20200102
2020-01-02,15:39,3:39 PM,,,,0,0.0,0,1.103,1.1,1.101,600,660.6,4,,,1.1,1.1,,-0.015205724508050201,jcp,20200102
2020-01-02,15:40,3:40 PM,1.105,1.105,1.105,550,607.75,3,1.11,1.1,1.106,14180,15686.85,47,1.105,1.105,1.105,1.105,,-0.010733452593917718,jcp,20200102
2020-01-02,15:41,3:41 PM,1.105,1.105,1.105,1560,1723.8,5,1.105,1.1,1.104,3360,3709.05,15,1.105,1.105,1.1,1.1,,-0.012522361359570671,jcp,20200102
2020-01-02,15:42,3:42 PM,,,,0,0.0,0,1.105,1.1,1.103,400,441.0,3,,,1.105,1.1,,-0.013416815742397248,jcp,20200102
2020-01-02,15:43,3:43 PM,,,,0,0.0,0,,,,0,0.0,0,,,,,,,jcp,20200102
2020-01-02,15:44,3:44 PM,1.105,1.105,1.105,11700,12928.5,8,1.105,1.1,1.105,61350,67788.25,69,1.105,1.105,1.105,1.1,,-0.011627906976744295,jcp,20200102
2020-01-02,15:45,3:45 PM,1.105,1.105,1.105,2600,2873.0,5,1.11,1.1,1.103,46088,50846.39,46,1.105,1.105,1.105,1.105,,-0.013416815742397248,jcp,20200102
2020-01-02,15:46,3:46 PM,1.105,1.105,1.105,800,884.0,1,1.105,1.1,1.105,5900,6518.5,15,1.105,1.105,1.105,1.105,,-0.011627906976744295,jcp,20200102
2020-01-02,15:47,3:47 PM,1.105,1.105,1.105,2400,2652.0,7,1.11,1.1,1.105,92073,101754.215,72,1.105,1.105,1.105,1.105,,-0.011627906976744295,jcp,20200102
2020-01-02,15:48,3:48 PM,1.105,1.105,1.105,3400,3757.0,3,1.11,1.1,1.106,60928,67383.815,60,1.105,1.105,1.105,1.105,,-0.010733452593917718,jcp,20200102
2020-01-02,15:49,3:49 PM,1.105,1.105,1.105,1240,1370.2,5,1.11,1.1,1.105,13740,15181.7,22,1.105,1.105,1.105,1.105,,-0.011627906976744295,jcp,20200102
2020-01-02,15:50,3:50 PM,1.105,1.105,1.105,200,221.0,1,1.11,1.1,1.106,15216,16825.8577,25,1.105,1.105,1.1,1.1,,-0.010733452593917718,jcp,20200102
2020-01-02,15:51,3:51 PM,1.105,1.105,1.105,700,773.5,2,1.11,1.1,1.105,3200,3536.5,12,1.105,1.105,1.105,1.105,,-0.011627906976744295,jcp,20200102
2020-01-02,15:52,3:52 PM,1.105,1.105,1.105,1024,1131.52,3,1.11,1.1,1.102,25149,27725.3846,24,1.105,1.105,1.105,1.105,,-0.014311270125223626,jcp,20200102
2020-01-02,15:53,3:53 PM,1.105,1.105,1.105,220,243.1,3,1.105,1.1,1.105,4763,5262.05,26,1.105,1.105,1.105,1.105,,-0.011627906976744295,jcp,20200102
2020-01-02,15:54,3:54 PM,1.105,1.105,1.105,600,663.0,4,1.11,1.1,1.103,14314,15795.005,25,1.105,1.105,1.11,1.105,,-0.013416815742397248,jcp,20200102
2020-01-02,15:55,3:55 PM,1.105,1.105,1.105,2047,2261.935,16,1.11,1.1,1.109,47475,52662.4879,158,1.105,1.105,1.105,1.11,,-0.00805008944543839,jcp,20200102
2020-01-02,15:56,3:56 PM,1.11,1.105,1.108,7427,8226.335,31,1.11,1.1,1.11,88840,98583.9,329,1.105,1.105,1.11,1.11,,-0.007155635062611813,jcp,20200102
2020-01-02,15:57,3:57 PM,1.11,1.105,1.108,7815,8657.075,38,1.11,1.102,1.109,104578,115996.9294,225,1.11,1.105,1.11,1.11,,-0.00805008944543839,jcp,20200102
2020-01-02,15:58,3:58 PM,1.115,1.105,1.113,8800,9799.5,41,1.12,1.105,1.115,239769,267369.694,238,1.11,1.115,1.11,1.115,,-0.002683363148479529,jcp,20200102
2020-01-02,15:59,3:59 PM,1.12,1.115,1.119,2800,3133.5,7,1.13,1.11,1.121,493291,553102.235,261,1.115,1.12,1.12,1.13,,0.00268336314847933,jcp,20200102
