date,minute,label,high,low,average,volume,notional,numberOfTrades,marketHigh,marketLow,marketAverage,marketVolume,marketNotional,marketNumberOfTrades,open,close,marketOpen,marketClose,changeOverTime,marketChangeOverTime,tickerName,tickerDate
2020-01-29,09:30,09:30 AM,247.09,246.705,246.884,400,98753.5,4,247.5,246.5,247.152,125049,30906102.8439,298,246.705,247.09,247.39,247.142,0.0,0.0,nvda,20200129
2020-01-29,09:31,09:31 AM,246.945,245.86,246.017,722,177623.94,12,247.18,245.8,246.252,71214,17536581.8741,254,246.945,245.87,247.18,245.9,-0.0035117707101310343,-0.0036414837832587934,nvda,20200129
2020-01-29,09:32,09:32 AM,246.84,246.27,246.556,800,197245.0,8,246.98,245.91,246.489,60668,14953978.1644,261,246.27,246.84,245.91,246.67,-0.0013285591613874312,-0.002682559720333975,nvda,20200129
2020-01-29,09:33,09:33 AM,247.04,246.49,246.815,522,128837.24,6,247.25,246.32,246.897,25152,6209948.854,175,246.755,247.04,246.82,247.09,-0.0002794834821211112,-0.0010317537385899991,nvda,20200129
2020-01-29,09:34,09:34 AM,247.42,246.965,247.212,800,197769.5,6,247.48,246.838,247.113,21993,5434764.777,137,246.965,247.42,247.05,247.47,0.0013285591613875463,-0.00015779763060783352,nvda,20200129
2020-01-29,09:35,09:35 AM,247.85,247.405,247.581,461,114134.85,4,248.19,247.35,247.744,39068,9678877.6854,226,247.405,247.85,247.5,248.13,0.0028231882179485216,0.002395287110765897,nvda,20200129
2020-01-29,09:36,09:36 AM,248.49,247.985,248.145,305,75684.25,6,248.54,247.91,248.265,40659,10094224.8164,173,247.985,248.02,248.118,248.2,0.005107661897895466,0.004503301611963486,nvda,20200129
2020-01-29,09:37,09:37 AM,248.65,248.12,248.489,600,149093.5,6,248.721,248.03,248.374,35617,8846336.1774,137,248.12,248.62,248.109,248.51,0.0065010288232531,0.004944325759047098,nvda,20200129
2020-01-29,09:38,09:38 AM,248.65,248.39,248.499,529,131456.11,7,248.75,248.304,248.557,28811,7161179.4699,134,248.39,248.445,248.51,248.37,0.00654153367573439,0.005684760794976376,nvda,20200129
2020-01-29,09:39,09:39 AM,248.27,247.635,247.897,934,231535.58,10,248.39,247.635,247.893,49987,12391423.9666,155,247.915,247.635,248.253,247.635,0.0041031415563584734,0.0029981549815498716,nvda,20200129
2020-01-29,09:40,09:40 AM,247.825,247.765,247.788,300,74336.5,3,247.99,247.341,247.666,24670,6109909.46,152,247.825,247.775,247.655,247.495,0.003661638664312085,0.002079691849550115,nvda,20200129
2020-01-29,09:41,09:41 AM,248.01,247.35,247.735,300,74320.5,3,248.091,247.252,247.768,24657,6109212.0657,130,247.35,248.01,247.5,248.09,0.003446962946161062,0.0024923933449861376,nvda,20200129
2020-01-29,09:42,09:42 AM,248.26,248.045,248.148,300,74444.5,3,248.38,247.97,248.125,31103,7717441.265,128,248.045,248.26,248.024,248.22,0.005119813353639807,0.003936848579012159,nvda,20200129
2020-01-29,09:43,09:43 AM,247.955,247.71,247.822,301,74594.345,4,248.21,247.71,247.932,11502,2851712.1624,77,247.71,247.8,248.21,247.93,0.0037993551627485645,0.0031559526121577052,nvda,20200129
2020-01-29,09:44,09:44 AM,248.27,248.27,248.27,61,15144.47,1,248.57,247.931,248.305,21216,5268043.2327,105,248.27,248.27,247.94,248.545,0.005613972553912057,0.004665145335663964,nvda,20200129
2020-01-29,09:45,09:45 AM,248.285,248.285,248.285,300,74485.5,3,248.641,248.18,248.425,25214,6263795.585,82,248.285,248.285,248.58,248.44,0.005674729832633992,0.005150676506765167,nvda,20200129
2020-01-29,09:46,09:46 AM,248.57,248.44,248.537,39,9692.93,2,248.84,248.23,248.515,36531,9078494.1785,138,248.57,248.44,248.5,248.48,0.006695452115163478,0.005514824885090954,nvda,20200129
2020-01-29,09:47,09:47 AM,248.39,248.355,248.357,2100,521549.0,4,248.77,248.28,248.52,44606,11085481.831,138,248.39,248.355,248.466,248.28,0.005966364770499559,0.005535055350553601,nvda,20200129
2020-01-29,09:48,09:48 AM,248.26,248.18,248.184,3200,794190.0,3,248.47,248.148,248.269,18257,4532645.72,96,248.26,248.18,248.33,248.281,0.00526563082257259,0.0045194859843336035,nvda,20200129
2020-01-29,09:49,09:49 AM,248.07,247.94,248.024,500,124012.0,3,248.38,247.79,248.06,23250,5767393.2266,87,248.07,248.02,248.19,247.79,0.004617553182871368,0.003673852527999027,nvda,20200129
2020-01-29,09:50,09:50 AM,247.77,247.61,247.665,602,149094.46,4,247.9,247.57,247.766,37417,9270645.439,150,247.61,247.73,247.77,247.68,0.0031634289787916834,0.0024843011588010794,nvda,20200129
2020-01-29,09:51,09:51 AM,248.075,247.76,247.846,1000,247846.5,7,248.08,247.47,247.875,43806,10858401.6007,170,247.76,248.075,247.74,248.075,0.003896566808703754,0.002925325305884691,nvda,20200129
2020-01-29,09:52,09:52 AM,248.31,247.97,248.093,400,99237.0,3,248.41,247.93,248.145,35898,8907896.804,100,248.12,247.97,248.1,248.05,0.004897036664992479,0.004017770440862398,nvda,20200129
2020-01-29,09:53,09:53 AM,248.08,247.98,248.07,210,52094.8,3,248.1,247.75,247.907,37095,9196130.065,126,248.07,247.98,248.08,247.94,0.004803875504285442,0.0030548002848450506,nvda,20200129
2020-01-29,09:54,09:54 AM,247.87,247.62,247.781,696,172455.84,8,247.89,247.41,247.698,24669,6110474.095,142,247.76,247.7,247.88,247.41,0.0036332852675751356,0.002209166828510474,nvda,20200129
2020-01-29,09:55,09:55 AM,247.26,247.095,247.208,450,111243.5,4,247.48,246.93,247.205,42713,10558870.4304,201,247.26,247.095,247.419,246.93,0.0013123572203950532,0.0002144429339031272,nvda,20200129
2020-01-29,09:56,09:56 AM,246.97,246.9,246.952,210,51860.0,3,247.2,246.78,246.977,20157,4978315.5014,88,246.97,246.9,246.99,246.85,0.0002754329968730742,-0.0007080662911891588,nvda,20200129
2020-01-29,09:57,09:57 AM,246.785,246.54,246.67,320,78934.3,4,246.96,246.43,246.657,23134,5706155.202,142,246.785,246.54,246.92,246.44,-0.000866803843100398,-0.0020028160807922905,nvda,20200129
2020-01-29,09:58,09:58 AM,246.565,246.39,246.439,700,172507.5,7,246.59,246.28,246.443,42165,10391288.8701,178,246.565,246.4,246.4,246.31,-0.0018024659354190357,-0.0028686800025893976,nvda,20200129
2020-01-29,09:59,09:59 AM,246.48,246.38,246.412,944,232612.58,12,246.5,246.27,246.422,41415,10205569.858,219,246.395,246.48,246.33,246.48,-0.001911829037118566,-0.0029536479575321658,nvda,20200129
2020-01-29,10:00,10 AM,246.24,246.155,246.208,8,1969.665,2,246.46,245.446,245.786,57805,14207653.4946,210,246.24,246.155,246.41,245.58,-0.0027381280277376735,-0.005526963164368427,nvda,20200129
2020-01-29,10:01,10:01 AM,245.52,245.31,245.388,420,103063.2,5,245.645,245.19,245.405,25041,6145176.793,151,245.31,245.43,245.64,245.195,-0.006059525931206481,-0.0070685246326146894,nvda,20200129
2020-01-29,10:02,10:02 AM,245.03,244.9,244.984,305,74720.0,5,245.23,244.79,244.99,68667,16822762.0899,333,245.0,245.03,245.16,244.976,-0.007695921971452089,-0.008747653266006255,nvda,20200129
2020-01-29,10:03,10:03 AM,245.5,245.32,245.415,621,152402.52,10,245.55,244.925,245.291,43875,10762163.738,204,245.32,245.36,244.93,245.32,-0.005950162829506951,-0.007529779245160833,nvda,20200129
2020-01-29,10:04,10:04 AM,245.22,244.745,244.909,410,100412.5,6,245.43,244.545,244.984,54484,13347693.1498,219,245.22,244.745,245.358,244.685,-0.007999708365062112,-0.008771929824561315,nvda,20200129
2020-01-29,10:05,10:05 AM,244.89,244.89,244.89,200,48978.0,2,245.399,244.64,245.032,19699,4826892.3877,106,244.89,244.89,244.71,245.389,-0.008076667584776655,-0.008577717356120833,nvda,20200129
2020-01-29,10:06,10:06 AM,245.445,245.295,245.431,110,26997.45,2,245.629,245.14,245.385,40637,9971711.3594,173,245.295,245.445,245.4,245.279,-0.005885355065536749,-0.0071494464944649285,nvda,20200129
2020-01-29,10:07,10:07 AM,245.24,245.12,245.199,290,71107.6,2,245.32,245.075,245.219,28124,6896549.5769,125,245.24,245.12,245.24,245.25,-0.006825067643103538,-0.007821097947821555,nvda,20200129
2020-01-29,10:08,10:08 AM,245.56,245.2,245.417,415,101848.225,6,245.56,244.79,245.14,19423,4761362.7702,128,245.2,245.56,245.17,245.51,-0.0059420618590106476,-0.008140739302129866,nvda,20200129
2020-01-29,10:09,10:09 AM,245.435,245.435,245.435,10,2454.35,1,245.62,245.09,245.443,17746,4355636.8132,85,245.435,245.435,245.48,245.162,-0.005869153124544255,-0.00691477309509927,nvda,20200129
2020-01-29,10:10,10:10 AM,245.8,245.14,245.517,1410,346179.5,11,245.96,245.09,245.655,95899,23558032.244,321,245.14,245.585,245.13,245.62,-0.0055370133341973975,-0.0060570013594872215,nvda,20200129
2020-01-29,10:11,10:11 AM,245.645,245.62,245.639,13,3193.31,2,245.8,245.37,245.61,62639,15384740.5304,139,245.62,245.645,245.713,245.483,-0.005042854133925148,-0.006239075548650115,nvda,20200129
2020-01-29,10:12,10:12 AM,245.205,244.985,245.198,310,76011.35,5,245.42,244.981,245.117,15259,3740247.4138,72,244.985,245.205,245.39,245.42,-0.006829118128351691,-0.008233799443257576,nvda,20200129
2020-01-29,10:13,10:13 AM,245.455,245.455,245.455,10,2454.55,1,245.54,245.202,245.414,10665,2617342.4244,39,245.455,245.455,245.44,245.464,-0.0057881434195815595,-0.007032109794782157,nvda,20200129
2020-01-29,10:14,10:14 AM,245.74,245.415,245.613,500,122806.5,5,245.83,245.29,245.66,26704,6560104.4886,98,245.415,245.74,245.34,245.59,-0.005148166750376641,-0.0060367708940246905,nvda,20200129
2020-01-29,10:15,10:15 AM,245.9,245.48,245.691,1128,277140.04,14,245.98,245.44,245.755,23132,5684793.9884,118,245.48,245.76,245.45,245.72,-0.004832228901022277,-0.005652392050236257,nvda,20200129
2020-01-29,10:16,10:16 AM,245.54,245.485,245.512,200,49102.44,3,245.8,245.32,245.611,31345,7698680.8676,57,245.485,245.54,245.8,245.54,-0.005557265760438043,-0.0062350294555577005,nvda,20200129
2020-01-29,10:17,10:17 AM,245.69,245.635,245.64,44,10808.16,2,245.75,245.43,245.564,11524,2829884.6055,55,245.69,245.635,245.51,245.62,-0.005038803648677111,-0.006425195830905653,nvda,20200129
2020-01-29,10:18,10:18 AM,245.645,245.595,245.601,610,149816.95,3,245.733,245.29,245.523,26195,6431470.9327,77,245.645,245.63,245.66,245.315,-0.005196772573354235,-0.006591085647698545,nvda,20200129
2020-01-29,10:19,10:19 AM,245.22,244.915,244.997,262,64189.135,5,245.4,244.84,245.054,32180,7885839.7548,146,245.22,245.02,245.292,244.91,-0.007643265663226342,-0.008488703308085651,nvda,20200129
2020-01-29,10:20,10:20 AM,245.34,245.27,245.276,11,2698.04,2,245.359,244.935,245.235,8697,2132811.7679,29,245.34,245.27,244.935,245.241,-0.006513180278997326,-0.0077563604583413175,nvda,20200129
2020-01-29,10:21,10:21 AM,,,,0,0.0,0,245.56,245.329,245.452,10799,2650639.285,74,,,245.375,245.49,,-0.006878358257266738,nvda,20200129
2020-01-29,10:22,10:22 AM,245.56,245.56,245.56,10,2455.6,1,245.68,245.468,245.558,5300,1301455.16,36,245.56,245.56,245.576,245.47,-0.005362842468527664,-0.006449472389460713,nvda,20200129
2020-01-29,10:23,10:23 AM,,,,0,0.0,0,245.695,245.33,245.528,11282,2770049.665,48,,,245.506,245.69,,-0.006570855182236014,nvda,20200129
2020-01-29,10:24,10:24 AM,,,,0,0.0,0,245.764,245.408,245.581,7467,1833755.709,43,,,245.7,245.702,,-0.006356412248333001,nvda,20200129
2020-01-29,10:25,10:25 AM,245.83,245.785,245.818,12,2949.815,3,245.94,245.7,245.82,12393,3046447.3996,81,245.83,245.82,245.75,245.845,-0.004317817274509381,-0.005389395999223124,nvda,20200129
2020-01-29,10:26,10:26 AM,,,,0,0.0,0,245.91,245.65,245.761,11202,2753017.383,40,,,245.78,245.74,,-0.005628115491681197,nvda,20200129
2020-01-29,10:27,10:27 AM,245.85,245.85,245.85,10,2458.5,1,245.9,245.65,245.801,9529,2342237.321,43,245.85,245.85,245.763,245.8,-0.004188201746569206,-0.005466271767980834,nvda,20200129
2020-01-29,10:28,10:28 AM,246.045,245.9,245.972,200,49194.5,2,246.115,245.78,245.938,19561,4810791.0522,92,245.9,246.045,245.81,246.01,-0.0036940425462969563,-0.00491195701430698,nvda,20200129
2020-01-29,10:29,10:29 AM,246.04,245.91,245.941,450,110673.5,4,246.041,245.79,245.941,8037,1976625.14,38,246.04,245.92,245.954,245.819,-0.003819607588989095,-0.004899818735029393,nvda,20200129
2020-01-29,10:30,10:30 AM,245.7,245.575,245.673,120,29480.75,3,245.74,245.42,245.531,9790,2403751.3666,69,245.7,245.575,245.72,245.62,-0.004905137635488668,-0.006558716902958426,nvda,20200129
2020-01-29,10:31,10:31 AM,245.875,245.875,245.875,100,24587.5,1,245.9,245.52,245.713,5537,1360510.935,34,245.875,245.875,245.6,245.62,-0.0040869396153658645,-0.005822327960121678,nvda,20200129
2020-01-29,10:32,10:32 AM,245.775,245.76,245.761,110,27033.75,2,245.866,245.58,245.728,10138,2491191.455,60,245.76,245.775,245.586,245.72,-0.004548694933653013,-0.005761636563733971,nvda,20200129
2020-01-29,10:33,10:33 AM,245.61,245.61,245.61,100,24561.0,1,245.8,245.48,245.689,14604,3588047.13,76,245.61,245.61,245.8,245.51,-0.005160318206120982,-0.005919434194341919,nvda,20200129
2020-01-29,10:34,10:34 AM,245.58,245.39,245.563,110,27011.9,2,245.584,245.38,245.458,8049,1975688.052,54,245.58,245.39,245.56,245.41,-0.005350691012783323,-0.006854081698711678,nvda,20200129
2020-01-29,10:35,10:35 AM,245.485,245.44,245.463,210,51547.3,3,245.53,245.082,245.283,9863,2419230.9022,61,245.44,245.48,245.43,245.082,-0.005755739537596573,-0.007562147989900951,nvda,20200129
2020-01-29,10:36,10:36 AM,245.41,245.125,245.267,810,198665.9,8,245.49,245.125,245.313,14962,3670372.0805,65,245.125,245.335,245.13,245.22,-0.006549634646230579,-0.00744076519712565,nvda,20200129
2020-01-29,10:37,10:37 AM,245.26,245.26,245.26,100,24526.0,1,245.36,245.02,245.206,7374,1808148.75,40,245.26,245.26,245.2,245.11,-0.006577988042967529,-0.007873697158024204,nvda,20200129
2020-01-29,10:38,10:38 AM,245.35,245.3,245.343,130,31894.6,3,245.49,245.03,245.267,9299,2280741.9126,63,245.35,245.3,245.06,245.24,-0.006241797767372518,-0.007626885479381073,nvda,20200129
2020-01-29,10:39,10:39 AM,245.65,245.52,245.59,407,99955.08,6,245.749,245.21,245.543,10968,2693115.4355,76,245.65,245.52,245.21,245.56,-0.005241327911083678,-0.006510163785848306,nvda,20200129
2020-01-29,10:40,10:40 AM,,,,0,0.0,0,245.68,245.42,245.543,9398,2307613.2886,54,,,245.64,245.625,,-0.006510163785848306,nvda,20200129
2020-01-29,10:41,10:41 AM,245.565,245.52,245.542,201,49354.06,3,245.66,245.37,245.497,7449,1828707.24,49,245.565,245.52,245.565,245.66,-0.005435751202994056,-0.006696284068103729,nvda,20200129
2020-01-29,10:42,10:42 AM,245.66,245.59,245.649,120,29477.95,3,245.72,245.44,245.555,6904,1695310.6055,52,245.66,245.59,245.7,245.51,-0.0050023492814438575,-0.006461610668738186,nvda,20200129
2020-01-29,10:43,10:43 AM,245.515,245.49,245.509,133,32652.67,2,245.59,245.44,245.48,16839,4133633.74,41,245.49,245.515,245.48,245.56,-0.005569417216182499,-0.006765067650676495,nvda,20200129
2020-01-29,10:44,10:44 AM,245.515,245.4,245.407,297,72885.95,4,245.57,245.388,245.447,19241,4722653.2114,56,245.4,245.515,245.49,245.52,-0.005982566711491937,-0.0068985887227292686,nvda,20200129
2020-01-29,10:45,10:45 AM,245.555,245.525,245.528,11,2700.805,2,245.63,245.49,245.586,5805,1425626.955,28,245.525,245.555,245.49,245.63,-0.005492457996467955,-0.006336181782870356,nvda,20200129
2020-01-29,10:46,10:46 AM,245.69,245.69,245.69,50,12284.5,1,245.78,245.53,245.702,32850,8071328.296,76,245.69,245.69,245.685,245.57,-0.004836279386270429,-0.00586683498413927,nvda,20200129
2020-01-29,10:47,10:47 AM,245.775,245.75,245.764,210,51610.5,3,245.83,245.58,245.669,8600,2112758.205,40,245.775,245.755,245.67,245.73,-0.004536543477908557,-0.006000356056192042,nvda,20200129
2020-01-29,10:48,10:48 AM,245.8,245.725,245.74,1608,395150.04,7,245.81,245.54,245.729,7295,1792593.9242,43,245.725,245.77,245.72,245.54,-0.004633755123863746,-0.0057575904706414415,nvda,20200129
2020-01-29,10:49,10:49 AM,,,,0,0.0,0,245.6,245.42,245.488,3922,962804.94,22,,,245.5,245.539,,-0.006732698905936377,nvda,20200129
2020-01-29,10:50,10:50 AM,,,,0,0.0,0,245.555,245.268,245.357,6305,1546975.9779,41,,,245.555,245.28,,-0.007262737101055171,nvda,20200129
2020-01-29,10:51,10:51 AM,,,,0,0.0,0,245.5,245.3,245.379,3473,852200.6783,25,,,245.341,245.41,,-0.0071737230530199885,nvda,20200129
2020-01-29,10:52,10:52 AM,245.4,245.4,245.4,100,24540.0,1,245.49,245.23,245.358,4977,1221147.698,36,245.4,245.4,245.44,245.23,-0.006010920108228887,-0.007258691007962642,nvda,20200129
2020-01-29,10:53,10:53 AM,,,,0,0.0,0,245.29,245.2,245.226,4005,982130.97,28,,,245.26,245.252,,-0.007792775296173965,nvda,20200129
2020-01-29,10:54,10:54 AM,245.43,245.37,245.372,46,11287.12,3,245.445,245.284,245.379,12662,3106990.4346,42,245.37,245.41,245.41,245.445,-0.006124333695176569,-0.0071737230530199885,nvda,20200129
2020-01-29,10:55,10:55 AM,,,,0,0.0,0,245.43,245.28,245.375,7372,1808904.5344,53,,,245.42,245.32,,-0.00718990742538999,nvda,20200129
2020-01-29,10:56,10:56 AM,245.315,245.315,245.315,20,4906.3,1,245.401,245.25,245.329,3734,916057.51,26,245.315,245.315,245.365,245.38,-0.006355211354320201,-0.007376027707645413,nvda,20200129
2020-01-29,10:57,10:57 AM,,,,0,0.0,0,245.38,245.25,245.28,4695,1151591.5595,11,,,245.38,245.296,,-0.007574286269178424,nvda,20200129
2020-01-29,10:58,10:58 AM,245.47,245.47,245.47,100,24547.0,1,245.47,245.31,245.428,7278,1786223.6722,21,245.47,245.47,245.46,245.316,-0.0057273861408596236,-0.0069754644914869785,nvda,20200129
2020-01-29,10:59,10:59 AM,,,,0,0.0,0,245.38,245.23,245.307,5913,1450501.66,11,,,245.38,245.23,,-0.00746504175568071,nvda,20200129
2020-01-29,11:00,11 AM,245.57,245.43,245.498,500,122749.0,5,245.59,245.23,245.471,15004,3683050.2288,82,245.43,245.57,245.295,245.26,-0.0056139725539119415,-0.006801482488509028,nvda,20200129
2020-01-29,11:01,11:01 AM,245.305,245.305,245.305,2,490.61,1,245.45,245.26,245.386,5300,1300543.65,29,245.305,245.305,245.26,245.44,-0.006395716206801492,-0.007145400401372399,nvda,20200129
2020-01-29,11:02,11:02 AM,,,,0,0.0,0,245.67,245.41,245.615,10064,2471874.075,39,,,245.41,245.59,,-0.006218845083187584,nvda,20200129
2020-01-29,11:03,11:03 AM,245.495,245.495,245.495,44,10801.78,1,245.61,245.45,245.538,13902,3413476.3705,86,245.495,245.495,245.59,245.48,-0.005626124009656282,-0.006530394251310837,nvda,20200129
2020-01-29,11:04,11:04 AM,245.505,245.505,245.505,1,245.505,1,245.549,245.24,245.341,16137,3959071.2791,48,245.505,245.505,245.515,245.25,-0.005585619157174992,-0.007327474590535293,nvda,20200129
2020-01-29,11:05,11:05 AM,245.135,245.135,245.135,500,122567.5,2,245.3,245.04,245.121,19616,4808288.3129,67,245.135,245.135,245.3,245.1,-0.007084298698984119,-0.00821761507088746,nvda,20200129
2020-01-29,11:06,11:06 AM,245.12,245.0,245.069,210,51464.5,4,245.24,244.99,245.049,33667,8250060.6703,133,245.12,245.0,245.17,245.06,-0.007351630725360889,-0.008508933773548182,nvda,20200129
2020-01-29,11:07,11:07 AM,245.03,244.99,245.01,200,49002.0,2,245.04,244.82,244.966,50448,12358026.348,68,244.99,245.03,245.04,244.99,-0.00759060935500071,-0.008844759500226495,nvda,20200129
2020-01-29,11:08,11:08 AM,,,,0,0.0,0,245.092,244.97,245.014,6051,1482578.2,33,,,245.0,244.985,,-0.008650547031786015,nvda,20200129
2020-01-29,11:09,11:09 AM,244.92,244.7,244.804,440,107713.7,5,244.94,244.7,244.84,12154,2975783.9736,76,244.92,244.715,244.94,244.734,-0.008425009316116007,-0.009354567229882758,nvda,20200129
2020-01-29,11:10,11:10 AM,244.71,244.65,244.685,238,58234.98,2,244.82,244.596,244.678,23796,5822353.98,145,244.71,244.65,244.705,244.704,-0.0089070170606438,-0.010010034310869383,nvda,20200129
2020-01-29,11:11,11:11 AM,,,,0,0.0,0,244.762,244.6,244.659,4051,991113.7263,26,,,244.762,244.61,,-0.010086910079627092,nvda,20200129
2020-01-29,11:12,11:12 AM,,,,0,0.0,0,244.615,244.42,244.519,36004,8803652.4383,135,,,244.615,244.447,,-0.01065336311257842,nvda,20200129
2020-01-29,11:13,11:13 AM,,,,0,0.0,0,244.78,244.454,244.665,22668,5546075.392,38,,,244.454,244.78,,-0.010062633521072032,nvda,20200129
2020-01-29,11:14,11:14 AM,244.97,244.97,244.97,200,48994.0,2,245.05,244.76,244.897,16573,4058677.8023,60,244.97,244.97,244.8,244.831,-0.007752628764925987,-0.009123939923609745,nvda,20200129
2020-01-29,11:15,11:15 AM,244.88,244.88,244.88,2,489.76,1,245.05,244.81,244.938,6785,1661905.7,31,244.88,244.88,244.874,244.86,-0.008117172437257946,-0.008958050106816853,nvda,20200129
2020-01-29,11:16,11:16 AM,245.065,244.95,245.054,110,26956.0,2,245.1,244.86,244.933,3952,967975.7275,20,244.95,245.065,244.86,244.86,-0.007412388004082825,-0.008978280572279384,nvda,20200129
2020-01-29,11:17,11:17 AM,,,,0,0.0,0,244.85,244.6,244.723,3618,885407.669,23,,,244.85,244.6,,-0.009827960121706374,nvda,20200129
2020-01-29,11:18,11:18 AM,,,,0,0.0,0,244.73,244.553,244.638,2767,676914.816,16,,,244.62,244.58,,-0.010171878034569745,nvda,20200129
2020-01-29,11:19,11:19 AM,,,,0,0.0,0,244.745,244.535,244.633,6070,1484924.222,34,,,244.597,244.545,,-0.010192108500032276,nvda,20200129
2020-01-29,11:20,11:20 AM,244.525,244.52,244.523,200,48904.655,4,244.56,244.26,244.403,20727,5065749.9482,96,244.525,244.525,244.525,244.36,-0.009563195670841327,-0.011122709911309621,nvda,20200129
2020-01-29,11:21,11:21 AM,244.48,244.37,244.428,538,131502.42,4,244.52,244.33,244.42,10511,2569096.21,62,244.48,244.37,244.36,244.363,-0.009947991769413932,-0.011053926328736969,nvda,20200129
2020-01-29,11:22,11:22 AM,244.355,244.3,244.316,441,107743.465,4,244.415,244.29,244.368,9893,2417528.105,71,244.355,244.3,244.37,244.38,-0.010401646117204776,-0.011264323169547452,nvda,20200129
2020-01-29,11:23,11:23 AM,244.5,244.46,244.47,775,189464.5,6,244.56,244.4,244.494,20992,5132408.7528,145,244.5,244.47,244.41,244.468,-0.009777871388992351,-0.010754515439891189,nvda,20200129
2020-01-29,11:24,11:24 AM,244.51,244.475,244.488,300,73346.5,3,244.65,244.475,244.52,10965,2681157.56,68,244.475,244.48,244.485,244.65,-0.009704962654525959,-0.01064931701948589,nvda,20200129
2020-01-29,11:25,11:25 AM,244.655,244.655,244.655,100,24465.5,1,244.78,244.6,244.679,14189,3471750.5494,55,244.655,244.655,244.71,244.7,-0.009028531618087787,-0.010005988217776854,nvda,20200129
2020-01-29,11:26,11:26 AM,244.715,244.57,244.591,1000,244591.0,5,244.76,244.54,244.621,6989,1709655.712,36,244.57,244.715,244.73,244.715,-0.009287762673968252,-0.010240661617142396,nvda,20200129
2020-01-29,11:27,11:27 AM,244.9,244.71,244.849,201,49214.71,3,244.95,244.72,244.839,19552,4787084.8567,61,244.71,244.8,244.72,244.76,-0.008242737479950085,-0.009358613322975287,nvda,20200129
2020-01-29,11:28,11:28 AM,,,,0,0.0,0,244.842,244.69,244.783,4522,1106909.64,28,,,244.79,244.78,,-0.009585194536155887,nvda,20200129
2020-01-29,11:29,11:29 AM,244.815,244.815,244.815,41,10037.415,1,244.95,244.76,244.851,3280,803112.0655,22,244.815,244.815,244.798,244.9,-0.008380453978386564,-0.009310060205865167,nvda,20200129
2020-01-29,11:30,11:30 AM,,,,0,0.0,0,244.925,244.77,244.835,4754,1163945.545,31,,,244.818,244.775,,-0.009374797695345289,nvda,20200129
2020-01-29,11:31,11:31 AM,244.82,244.82,244.82,1,244.82,1,244.825,244.69,244.746,3842,940314.6923,23,244.82,244.82,244.728,244.759,-0.008360201552145919,-0.009734899980578663,nvda,20200129
2020-01-29,11:32,11:32 AM,244.79,244.78,244.785,182,44550.96,2,244.84,244.57,244.765,5375,1315610.0834,27,244.79,244.78,244.81,244.57,-0.00850196853583055,-0.009658024211821069,nvda,20200129
2020-01-29,11:33,11:33 AM,244.55,244.55,244.55,100,24455.0,1,244.609,244.41,244.53,5411,1323154.32,37,244.55,244.55,244.569,244.41,-0.009453832569141682,-0.010608856088560829,nvda,20200129
2020-01-29,11:34,11:34 AM,244.3,244.17,244.179,206,50300.8,3,244.47,243.94,244.136,28912,7058472.6108,166,244.3,244.17,244.384,244.11,-0.010956562596198961,-0.01220301676700974,nvda,20200129
2020-01-29,11:35,11:35 AM,,,,0,0.0,0,244.266,244.02,244.105,22132,5402537.8194,129,,,244.09,244.11,,-0.01232844565287757,nvda,20200129
2020-01-29,11:36,11:36 AM,244.26,244.26,244.26,5,1221.3,1,244.36,244.13,244.225,13502,3297523.243,77,244.26,244.26,244.14,244.21,-0.010628473291100254,-0.011842914481776367,nvda,20200129
2020-01-29,11:37,11:37 AM,,,,0,0.0,0,244.238,244.149,244.192,2918,712551.3884,23,,,244.149,244.155,,-0.011976435553829141,nvda,20200129
2020-01-29,11:38,11:38 AM,244.23,244.12,244.135,249,60789.73,2,244.23,244.03,244.122,9509,2321353.4205,53,244.23,244.12,244.155,244.11,-0.011134783947116846,-0.012259662070304805,nvda,20200129
2020-01-29,11:39,11:39 AM,244.09,244.09,244.09,22,5369.98,1,244.17,244.05,244.113,3574,872459.333,26,244.09,244.09,244.11,244.146,-0.011317055783282768,-0.012296076908137452,nvda,20200129
2020-01-29,11:40,11:40 AM,,,,0,0.0,0,244.239,244.16,244.218,2883,704081.54,24,,,244.18,244.23,,-0.011871237133423956,nvda,20200129
2020-01-29,11:41,11:41 AM,244.125,244.125,244.125,522,127433.25,1,244.204,243.97,244.089,19100,4662110.7518,56,244.125,244.125,244.18,243.971,-0.011175288799598136,-0.012393183142357692,nvda,20200129
2020-01-29,11:42,11:42 AM,244.11,244.11,244.11,100,24411.0,1,244.115,243.944,244.006,5750,1403035.185,42,244.11,244.11,243.97,244.085,-0.011236046078320072,-0.012729008869036005,nvda,20200129
2020-01-29,11:43,11:43 AM,244.095,244.095,244.095,100,24409.5,1,244.19,244.06,244.151,14245,3477930.8404,44,244.095,244.095,244.06,244.13,-0.011296803357042123,-0.012142325370622032,nvda,20200129
2020-01-29,11:44,11:44 AM,244.24,244.17,244.217,509,124306.53,4,244.3,244.13,244.222,17033,4159842.81,85,244.2,244.24,244.188,244.285,-0.010802644156769873,-0.01185505276105384,nvda,20200129
2020-01-29,11:45,11:45 AM,,,,0,0.0,0,244.37,244.21,244.268,12889,3148366.2998,62,,,244.265,244.33,,-0.011668932478798417,nvda,20200129
2020-01-29,11:46,11:46 AM,,,,0,0.0,0,244.42,244.28,244.357,6046,1477381.25,41,,,244.34,244.28,,-0.011308830193565043,nvda,20200129
2020-01-29,11:47,11:47 AM,244.495,244.335,244.428,300,73328.5,3,244.65,244.29,244.432,12003,2933921.3918,61,244.335,244.495,244.35,244.62,-0.009947991769413932,-0.011005373211626849,nvda,20200129
2020-01-29,11:48,11:48 AM,244.645,244.645,244.645,100,24464.5,1,244.69,244.56,244.619,8905,2178328.6325,39,244.645,244.645,244.61,244.69,-0.009069036470569078,-0.010248753803327454,nvda,20200129
2020-01-29,11:49,11:49 AM,244.67,244.63,244.641,500,122320.5,4,244.695,244.56,244.624,16895,4132929.5105,70,244.67,244.63,244.68,244.62,-0.009085238411561685,-0.010228523337864923,nvda,20200129
2020-01-29,11:50,11:50 AM,244.44,244.44,244.44,73,17844.12,1,244.67,244.38,244.492,14617,3573745.7563,64,244.44,244.44,244.615,244.515,-0.009899385946436337,-0.010762607626076247,nvda,20200129
2020-01-29,11:51,11:51 AM,,,,0,0.0,0,244.69,244.52,244.605,11105,2716341.67,46,,,244.54,244.644,,-0.010305399106622634,nvda,20200129
2020-01-29,11:52,11:52 AM,,,,0,0.0,0,244.74,244.62,244.678,8182,2001952.2924,36,,,244.67,244.64,,-0.010010034310869383,nvda,20200129
2020-01-29,11:53,11:53 AM,244.72,244.72,244.72,300,73416.0,3,244.86,244.66,244.748,11975,2930855.3861,81,244.72,244.72,244.67,244.68,-0.008765250076959169,-0.00972680779439372,nvda,20200129
2020-01-29,11:54,11:54 AM,244.81,244.8,244.805,200,48961.0,2,244.87,244.67,244.756,11514,2818114.93,61,244.8,244.81,244.7,244.78,-0.008420958830867855,-0.0096944390496536,nvda,20200129
2020-01-29,11:55,11:55 AM,244.875,244.875,244.875,50,12243.75,1,244.99,244.66,244.824,11932,2921238.502,75,244.875,244.875,244.76,244.99,-0.008137424863498591,-0.00941930471936288,nvda,20200129
2020-01-29,11:56,11:56 AM,245.05,245.0,245.027,360,88209.7,5,245.07,244.964,245.01,13532,3315479.475,90,245.0,245.05,244.99,245.01,-0.007521751105782471,-0.008666731404156131,nvda,20200129
2020-01-29,11:57,11:57 AM,244.98,244.955,244.968,200,48993.5,2,245.025,244.93,244.987,5091,1247229.786,28,244.98,244.955,245.005,244.99,-0.007760729735422291,-0.008759791545283842,nvda,20200129
2020-01-29,11:58,11:58 AM,245.06,245.0,245.038,300,73511.5,3,245.095,245.0,245.042,5481,1343077.9716,34,245.0,245.06,245.0,245.047,-0.007477195768052913,-0.008537256425195771,nvda,20200129
2020-01-29,11:59,11:59 AM,245.08,245.08,245.08,1,245.08,1,245.092,244.91,244.993,5489,1344765.1682,27,245.08,245.08,245.09,244.95,-0.007307075387631332,-0.008735514986728782,nvda,20200129
2020-01-29,12:00,12 PM,,,,0,0.0,0,244.865,244.73,244.809,3014,737854.88,17,,,244.85,244.775,,-0.009479996115750589,nvda,20200129
2020-01-29,12:01,12:01 PM,244.9,244.9,244.9,300,73470.0,3,244.919,244.71,244.85,5666,1387318.32,42,244.9,244.9,244.77,244.91,-0.00803616273229525,-0.009314106298957696,nvda,20200129
2020-01-29,12:02,12:02 PM,244.935,244.885,244.903,515,126125.0,5,244.95,244.72,244.816,10245,2508142.075,60,244.895,244.935,244.895,244.79,-0.00802401127655091,-0.009451673464103,nvda,20200129
2020-01-29,12:03,12:03 PM,,,,0,0.0,0,244.87,244.73,244.79,4849,1186986.99,30,,,244.83,244.79,,-0.009556871884508298,nvda,20200129
2020-01-29,12:04,12:04 PM,244.915,244.915,244.915,100,24491.5,1,244.93,244.77,244.855,4913,1202970.6874,25,244.915,244.915,244.77,244.93,-0.007975405453573314,-0.009293875833495165,nvda,20200129
2020-01-29,12:05,12:05 PM,244.97,244.9,244.935,200,48987.0,2,244.99,244.83,244.885,4991,1222220.5819,38,244.97,244.9,244.93,244.87,-0.007894395748610618,-0.009172493040719865,nvda,20200129
2020-01-29,12:06,12:06 PM,245.06,244.88,244.986,748,183249.51,10,245.15,244.83,244.97,6971,1707682.481,51,244.88,245.055,244.88,245.136,-0.0076878210009558995,-0.008828575127856493,nvda,20200129
2020-01-29,12:07,12:07 PM,245.115,245.04,245.084,423,103670.625,6,245.13,245.02,245.088,4031,987949.71,30,245.115,245.04,245.12,245.12,-0.0072908734466388386,-0.008351136142940349,nvda,20200129
2020-01-29,12:08,12:08 PM,245.12,245.09,245.105,200,49021.0,2,245.16,245.011,245.101,4127,1011533.2339,24,245.09,245.12,245.116,245.12,-0.0072058132564281055,-0.0082985369327377,nvda,20200129
2020-01-29,12:09,12:09 PM,245.17,245.115,245.139,500,122569.535,5,245.193,245.09,245.156,12006,2943344.016,80,245.17,245.155,245.16,245.12,-0.007068096757991511,-0.00807600181264963,nvda,20200129
2020-01-29,12:10,12:10 PM,245.15,245.07,245.087,301,73771.15,4,245.21,244.99,245.079,14494,3552174.4948,67,245.075,245.15,245.1,245.19,-0.007278721990894498,-0.008387550980772882,nvda,20200129
2020-01-29,12:11,12:11 PM,245.25,245.25,245.25,10,2452.5,1,245.27,245.11,245.201,8728,2140110.2648,69,245.25,245.25,245.23,245.179,-0.006618492895448819,-0.007893927623486735,nvda,20200129
2020-01-29,12:12,12:12 PM,245.15,245.15,245.15,35,8580.25,1,245.28,245.11,245.208,13718,3363766.8955,86,245.15,245.15,245.17,245.269,-0.0070235414202620685,-0.007865604971839146,nvda,20200129
2020-01-29,12:13,12:13 PM,245.37,245.37,245.37,100,24537.0,1,245.39,245.27,245.314,14457,3546504.0766,51,245.37,245.37,245.28,245.27,-0.006132434665672874,-0.007436719104033121,nvda,20200129
2020-01-29,12:14,12:14 PM,245.3,245.3,245.3,200,49060.0,2,245.41,245.297,245.341,5736,1407278.127,32,245.3,245.3,245.325,245.3,-0.006415968633042136,-0.007327474590535293,nvda,20200129
2020-01-29,12:15,12:15 PM,245.15,245.15,245.15,397,97324.55,4,245.29,245.15,245.192,3906,957721.3527,32,245.15,245.15,245.29,245.18,-0.0070235414202620685,-0.007930342461319267,nvda,20200129
2020-01-29,12:16,12:16 PM,245.26,245.215,245.218,244,59833.14,3,245.26,245.14,245.215,4866,1193215.072,31,245.215,245.22,245.185,245.215,-0.006748108423389109,-0.007837282320191557,nvda,20200129
2020-01-29,12:17,12:17 PM,245.26,245.255,245.259,558,136854.58,3,245.34,245.19,245.258,5418,1328806.8928,38,245.26,245.255,245.21,245.34,-0.0065820385282156805,-0.007663300317213606,nvda,20200129
2020-01-29,12:18,12:18 PM,,,,0,0.0,0,245.504,245.36,245.437,4425,1086057.6725,31,,,245.37,245.5,,-0.00693904965365433,nvda,20200129
2020-01-29,12:19,12:19 PM,245.495,245.48,245.49,400,98196.0,4,245.54,245.42,245.477,8087,1985169.2762,47,245.48,245.49,245.49,245.42,-0.005646376435896928,-0.006777205929953968,nvda,20200129
2020-01-29,12:20,12:20 PM,245.385,245.385,245.385,100,24538.5,1,245.41,245.26,245.361,6300,1545775.5,14,245.385,245.385,245.39,245.4,-0.006071677386950938,-0.007246552728685169,nvda,20200129
2020-01-29,12:21,12:21 PM,245.54,245.5,245.536,222,54509.0,3,245.54,245.43,245.508,6476,1589907.446,38,245.54,245.5,245.43,245.5,-0.0054600541144828535,-0.006651777044086138,nvda,20200129
2020-01-29,12:22,12:22 PM,,,,0,0.0,0,245.535,245.34,245.491,3626,890150.7094,16,,,245.5,245.42,,-0.006720560626658789,nvda,20200129
2020-01-29,12:23,12:23 PM,245.45,245.45,245.45,5,1227.25,1,245.458,245.32,245.377,3530,866180.0,25,245.45,245.45,245.371,245.45,-0.005808395845822319,-0.007181815239204932,nvda,20200129
2020-01-29,12:24,12:24 PM,245.455,245.455,245.455,100,24545.5,1,245.502,245.4,245.452,4250,1043173.2,15,245.455,245.455,245.4,245.451,-0.0057881434195815595,-0.006878358257266738,nvda,20200129
2020-01-29,12:25,12:25 PM,,,,0,0.0,0,245.472,245.32,245.406,3979,976470.6281,22,,,245.47,245.385,,-0.00706447853952216,nvda,20200129
2020-01-29,12:26,12:26 PM,245.24,245.24,245.24,82,20109.68,1,245.4,245.24,245.316,2333,572323.4,19,245.24,245.24,245.385,245.27,-0.006658997747930109,-0.007428626917848063,nvda,20200129
2020-01-29,12:27,12:27 PM,245.35,245.3,245.325,200,49065.0,2,245.38,245.268,245.312,3892,954755.9788,30,245.3,245.35,245.29,245.31,-0.0063147065018389105,-0.007444811290218065,nvda,20200129
2020-01-29,12:28,12:28 PM,,,,0,0.0,0,245.42,245.31,245.344,3175,778966.485,19,,,245.34,245.42,,-0.00731533631125782,nvda,20200129
2020-01-29,12:29,12:29 PM,245.58,245.48,245.488,109,26758.21,3,245.57,245.365,245.508,4010,984489.429,25,245.48,245.58,245.376,245.55,-0.005654477406393232,-0.006651777044086138,nvda,20200129
2020-01-29,12:30,12:30 PM,245.57,245.46,245.515,532,130613.84,10,245.59,245.428,245.512,4820,1183367.66,38,245.565,245.46,245.589,245.428,-0.005545114304693702,-0.006635592671716136,nvda,20200129
2020-01-29,12:31,12:31 PM,245.46,245.425,245.445,218,53506.98,6,245.49,245.397,245.445,4308,1057377.2326,28,245.425,245.46,245.4,245.46,-0.005828648272062965,-0.006906680908914327,nvda,20200129
2020-01-29,12:32,12:32 PM,245.52,245.45,245.478,257,63087.87,10,245.57,245.35,245.473,8436,2070807.677,54,245.455,245.47,245.35,245.47,-0.005694982258874522,-0.0067933903023239695,nvda,20200129
2020-01-29,12:33,12:33 PM,245.49,245.49,245.49,4,981.96,2,245.51,245.4,245.442,4466,1096145.731,26,245.49,245.49,245.43,245.5,-0.005646376435896928,-0.0069188191881917995,nvda,20200129
2020-01-29,12:34,12:34 PM,245.44,245.3,245.435,105,25770.67,6,245.5,245.328,245.435,5381,1320686.03,36,245.44,245.3,245.46,245.328,-0.005869153124544255,-0.0069471418398393886,nvda,20200129
2020-01-29,12:35,12:35 PM,245.34,245.255,245.339,102,25024.55,3,245.406,245.24,245.319,5708,1400282.21,42,245.255,245.295,245.24,245.3,-0.006257999708365012,-0.00741648863857059,nvda,20200129
2020-01-29,12:36,12:36 PM,245.43,245.32,245.42,625,153387.265,13,245.443,245.29,245.351,12001,2944464.4706,55,245.325,245.415,245.32,245.43,-0.005929910403266306,-0.007287013659610231,nvda,20200129
2020-01-29,12:37,12:37 PM,245.49,245.44,245.465,206,50565.82,5,245.509,245.4,245.462,15634,3837558.203,86,245.44,245.49,245.4,245.47,-0.005747638567100269,-0.006837897326341676,nvda,20200129
2020-01-29,12:38,12:38 PM,245.56,245.525,245.533,131,32164.825,5,245.58,245.51,245.553,9050,2222258.14,48,245.56,245.525,245.51,245.54,-0.00547220557022731,-0.006469702854923244,nvda,20200129
2020-01-29,12:39,12:39 PM,245.605,245.55,245.586,55,13507.225,7,245.62,245.543,245.587,11912,2925436.83,32,245.58,245.57,245.58,245.62,-0.005257529852076171,-0.006332135689777941,nvda,20200129
2020-01-29,12:40,12:40 PM,245.555,245.54,245.547,7,1718.83,4,245.6,245.51,245.574,3102,761769.6,27,245.54,245.555,245.58,245.6,-0.005415498776753411,-0.006384734899980476,nvda,20200129
2020-01-29,12:41,12:41 PM,245.625,245.55,245.552,106,26028.47,5,245.625,245.522,245.576,3952,970517.9095,24,245.55,245.625,245.6,245.625,-0.005395246350512766,-0.006376642713795532,nvda,20200129
2020-01-29,12:42,12:42 PM,245.69,245.635,245.663,306,75172.96,7,245.7,245.63,245.668,2355,578547.5,21,245.635,245.67,245.64,245.66,-0.004945642487969959,-0.0060044021492845715,nvda,20200129
2020-01-29,12:43,12:43 PM,245.67,245.57,245.658,204,50114.32,5,245.69,245.56,245.623,3433,843224.9906,26,245.67,245.57,245.676,245.58,-0.004965894914210719,-0.0061864763384475805,nvda,20200129
2020-01-29,12:44,12:44 PM,,,,0,0.0,0,245.92,245.65,245.803,16227,3988643.136,34,,,245.65,245.92,,-0.005458179581795776,nvda,20200129
2020-01-29,12:45,12:45 PM,245.84,245.84,245.84,8,1966.72,1,245.97,245.83,245.893,18600,4573617.6708,42,245.84,245.84,245.91,245.84,-0.004228706599050496,-0.0050940312034698735,nvda,20200129
2020-01-29,12:46,12:46 PM,,,,0,0.0,0,245.92,245.827,245.882,4064,999265.13,19,,,245.84,245.92,,-0.005138538227487464,nvda,20200129
2020-01-29,12:47,12:47 PM,,,,0,0.0,0,245.99,245.88,245.922,1530,376261.1013,12,,,245.99,245.916,,-0.004976694503787102,nvda,20200129
2020-01-29,12:48,12:48 PM,,,,0,0.0,0,245.96,245.88,245.925,3363,827046.7245,19,,,245.9,245.958,,-0.0049645562245095145,nvda,20200129
2020-01-29,12:49,12:49 PM,,,,0,0.0,0,246.0,245.8,245.95,4264,1048730.37,26,,,245.99,245.82,,-0.00486340389719686,nvda,20200129
2020-01-29,12:50,12:50 PM,246.06,246.06,246.06,10,2460.6,1,246.07,245.85,245.977,4543,1117474.58,25,246.06,246.06,245.85,246.07,-0.0033375998444613014,-0.004754159383699032,nvda,20200129
2020-01-29,12:51,12:51 PM,,,,0,0.0,0,246.11,246.0,246.058,8078,1987653.433,32,,,246.07,246.09,,-0.004426425843205777,nvda,20200129
2020-01-29,12:52,12:52 PM,246.25,246.25,246.25,100,24625.0,1,246.29,246.08,246.198,18381,4525362.3915,96,246.25,246.25,246.09,246.165,-0.0025680076473160924,-0.0038599728102543347,nvda,20200129
2020-01-29,12:53,12:53 PM,246.175,246.175,246.175,300,73852.5,1,246.21,246.03,246.109,7135,1755985.271,29,246.175,246.175,246.175,246.03,-0.002871794040926001,-0.004220075095487708,nvda,20200129
2020-01-29,12:54,12:54 PM,,,,0,0.0,0,246.042,245.9,245.975,8794,2163100.1919,22,,,246.01,246.01,,-0.00476225156988409,nvda,20200129
2020-01-29,12:55,12:55 PM,,,,0,0.0,0,246.032,245.93,245.983,2857,702773.98,15,,,245.99,246.0,,-0.004729882825143971,nvda,20200129
2020-01-29,12:56,12:56 PM,,,,0,0.0,0,246.02,245.92,245.956,2700,664081.265,10,,,245.996,245.933,,-0.0048391273386418,nvda,20200129
2020-01-29,12:57,12:57 PM,245.79,245.79,245.79,35,8602.65,1,245.96,245.75,245.825,9677,2378847.995,27,245.79,245.79,245.96,245.779,-0.004431230861457179,-0.005369165533760593,nvda,20200129
2020-01-29,12:58,12:58 PM,245.74,245.74,245.74,1,245.74,1,245.784,245.7,245.732,9395,2308647.63,53,245.74,245.74,245.784,245.75,-0.004633755123863746,-0.005745452191363969,nvda,20200129
2020-01-29,12:59,12:59 PM,245.825,245.825,245.825,2,491.65,1,245.86,245.73,245.774,5439,1336766.34,36,245.825,245.825,245.74,245.79,-0.004289463877772548,-0.005575516281478548,nvda,20200129
2020-01-29,13:00,1 PM,,,,0,0.0,0,245.805,245.631,245.715,12840,3154976.7834,25,,,245.805,245.655,,-0.00581423577393662,nvda,20200129
2020-01-29,13:01,1:01 PM,245.61,245.56,245.604,113,27753.28,2,245.65,245.56,245.614,1217,298911.85,9,245.61,245.56,245.65,245.56,-0.005184621117609779,-0.006222891176280113,nvda,20200129
2020-01-29,13:02,1:02 PM,245.65,245.535,245.633,531,130431.035,5,245.68,245.501,245.618,7493,1840413.825,33,245.535,245.59,245.55,245.625,-0.005067157045413945,-0.006206706803910111,nvda,20200129
2020-01-29,13:03,1:03 PM,,,,0,0.0,0,245.65,245.58,245.618,1800,442111.9804,14,,,245.58,245.61,,-0.006206706803910111,nvda,20200129
2020-01-29,13:04,1:04 PM,,,,0,0.0,0,245.68,245.566,245.617,1428,350741.4,9,,,245.6,245.68,,-0.0062107528970026405,nvda,20200129
2020-01-29,13:05,1:05 PM,,,,0,0.0,0,245.69,245.613,245.66,11725,2880361.6,17,,,245.68,245.676,,-0.0060367708940246905,nvda,20200129
2020-01-29,13:06,1:06 PM,,,,0,0.0,0,245.67,245.45,245.535,5533,1358542.4645,27,,,245.67,245.541,,-0.006542532530588425,nvda,20200129
2020-01-29,13:07,1:07 PM,,,,0,0.0,0,245.61,245.48,245.549,7915,1943521.29,53,,,245.51,245.57,,-0.006485887227293246,nvda,20200129
2020-01-29,13:08,1:08 PM,,,,0,0.0,0,245.61,245.544,245.572,1819,446696.0,11,,,245.61,245.57,,-0.006392827086165534,nvda,20200129
2020-01-29,13:09,1:09 PM,,,,0,0.0,0,245.55,245.44,245.482,1750,429593.975,7,,,245.44,245.55,,-0.006756975464491437,nvda,20200129
2020-01-29,13:10,1:10 PM,,,,0,0.0,0,245.64,245.52,245.58,4439,1090128.04,27,,,245.544,245.59,,-0.006360458341425416,nvda,20200129
2020-01-29,13:11,1:11 PM,245.565,245.565,245.565,100,24556.5,1,245.64,245.54,245.58,1425,349951.6,13,245.565,245.565,245.61,245.63,-0.00534259004228702,-0.006360458341425416,nvda,20200129
2020-01-29,13:12,1:12 PM,245.65,245.65,245.65,100,24565.0,1,245.75,245.625,245.679,5593,1374080.3346,23,245.65,245.65,245.625,245.75,-0.004998298796195706,-0.005959895125266981,nvda,20200129
2020-01-29,13:13,1:13 PM,,,,0,0.0,0,245.834,245.75,245.79,3335,819708.31,16,,,245.78,245.834,,-0.005510778791998425,nvda,20200129
2020-01-29,13:14,1:14 PM,,,,0,0.0,0,246.0,245.8,245.925,12869,3164807.6441,35,,,245.83,246.0,,-0.0049645562245095145,nvda,20200129
2020-01-29,13:15,1:15 PM,,,,0,0.0,0,246.014,245.953,245.992,1931,475010.136,15,,,246.014,246.0,,-0.004693467987311438,nvda,20200129
2020-01-29,13:16,1:16 PM,246.08,246.08,246.08,18,4429.44,1,246.13,246.05,246.1,5036,1239358.036,15,246.08,246.08,246.05,246.07,-0.003256590139498605,-0.0042564899333203555,nvda,20200129
2020-01-29,13:17,1:17 PM,,,,0,0.0,0,246.18,246.08,246.142,3553,874542.78,22,,,246.13,246.12,,-0.004086554023434935,nvda,20200129
2020-01-29,13:18,1:18 PM,,,,0,0.0,0,246.182,246.05,246.094,5586,1374682.9556,34,,,246.16,246.05,,-0.0042807664918754155,nvda,20200129
2020-01-29,13:19,1:19 PM,,,,0,0.0,0,246.07,246.0,246.018,1701,418477.5878,10,,,246.015,246.06,,-0.004588269566906139,nvda,20200129
2020-01-29,13:20,1:20 PM,,,,0,0.0,0,246.1,245.99,246.055,6099,1500689.58,44,,,246.09,246.06,,-0.004438564122483249,nvda,20200129
2020-01-29,13:21,1:21 PM,246.06,246.06,246.06,10,2460.6,1,246.09,246.01,246.058,7611,1872744.7826,54,246.06,246.06,246.05,246.07,-0.0033375998444613014,-0.004426425843205777,nvda,20200129
2020-01-29,13:22,1:22 PM,246.16,246.16,246.16,100,24616.0,1,246.3,246.03,246.262,12056,2968932.0882,50,246.16,246.16,246.03,246.245,-0.0029325513196480518,-0.0036010228523337315,nvda,20200129
2020-01-29,13:23,1:23 PM,,,,0,0.0,0,246.27,246.19,246.227,1849,455274.3725,10,,,246.21,246.242,,-0.0037426361105715633,nvda,20200129
2020-01-29,13:24,1:24 PM,246.31,246.31,246.31,200,49262.0,2,246.34,246.215,246.299,11541,2842533.11,25,246.31,246.31,246.258,246.28,-0.0023249785324281195,-0.0034513174079108416,nvda,20200129
2020-01-29,13:25,1:25 PM,246.32,246.32,246.32,63,15518.16,1,246.36,246.26,246.293,2949,726318.025,15,246.32,246.32,246.26,246.295,-0.0022844736799468293,-0.0034755939664659016,nvda,20200129
2020-01-29,13:26,1:26 PM,,,,0,0.0,0,246.314,246.251,246.294,1108,272894.196,9,,,246.314,246.31,,-0.0034715478733733725,nvda,20200129
2020-01-29,13:27,1:27 PM,246.25,246.25,246.25,2,492.5,1,246.25,246.2,246.247,6554,1613901.89,12,246.25,246.25,246.245,246.24,-0.0025680076473160924,-0.0036617142487213243,nvda,20200129
2020-01-29,13:28,1:28 PM,,,,0,0.0,0,246.35,246.272,246.301,1910,470434.55,14,,,246.28,246.35,,-0.003443225221725898,nvda,20200129
2020-01-29,13:29,1:29 PM,246.35,246.35,246.35,100,24635.0,1,246.41,246.315,246.356,1652,406979.4396,12,246.35,246.35,246.315,246.41,-0.002162959122502843,-0.0032206901016378275,nvda,20200129
2020-01-29,13:30,1:30 PM,,,,0,0.0,0,246.42,246.341,246.38,2926,720906.6162,11,,,246.383,246.354,,-0.0031235838674175866,nvda,20200129
2020-01-29,13:31,1:31 PM,,,,0,0.0,0,246.36,246.29,246.313,3664,902490.56,25,,,246.31,246.3,,-0.0033946721046157775,nvda,20200129
2020-01-29,13:32,1:32 PM,,,,0,0.0,0,246.32,246.2,246.259,1800,443267.0,16,,,246.3,246.275,,-0.003613161131611319,nvda,20200129
2020-01-29,13:33,1:33 PM,,,,0,0.0,0,246.41,246.3,246.364,3581,882231.5187,22,,,246.3,246.371,,-0.003188321356897709,nvda,20200129
2020-01-29,13:34,1:34 PM,246.435,246.38,246.407,200,49281.45,3,246.46,246.35,246.402,8302,2045631.26,39,246.38,246.435,246.35,246.37,-0.001932081463359211,-0.0030345698193824044,nvda,20200129
2020-01-29,13:35,1:35 PM,,,,0,0.0,0,246.363,246.282,246.321,3218,792660.1982,14,,,246.35,246.32,,-0.0033623033598756593,nvda,20200129
2020-01-29,13:36,1:36 PM,,,,0,0.0,0,246.34,246.222,246.279,2820,694506.145,14,,,246.31,246.222,,-0.00353223926976108,nvda,20200129
2020-01-29,13:37,1:37 PM,246.265,246.23,246.248,200,49249.5,2,246.29,246.226,246.25,2741,674972.8,18,246.265,246.23,246.238,246.25,-0.0025761086178123964,-0.003649575969443852,nvda,20200129
2020-01-29,13:38,1:38 PM,246.29,246.29,246.29,100,24629.0,1,246.36,246.256,246.301,3133,771660.88,25,246.29,246.29,246.26,246.32,-0.0024059882373908157,-0.003443225221725898,nvda,20200129
2020-01-29,13:39,1:39 PM,246.285,246.245,246.273,200,49254.65,4,246.391,246.23,246.306,8360,2059118.9417,54,246.27,246.285,246.35,246.285,-0.0024748464866090553,-0.003422994756263252,nvda,20200129
2020-01-29,13:40,1:40 PM,246.305,246.14,246.2,400,98480.0,4,246.305,246.11,246.157,7490,1843715.978,39,246.305,246.17,246.298,246.17,-0.0027705319097227747,-0.0040258626270472265,nvda,20200129
2020-01-29,13:41,1:41 PM,246.215,246.215,246.215,80,19697.2,1,246.24,246.15,246.193,3003,739317.11,25,246.215,246.215,246.15,246.19,-0.002709774631000724,-0.0038802032757168656,nvda,20200129
2020-01-29,13:42,1:42 PM,246.295,246.295,246.295,100,24629.5,1,246.32,246.22,246.276,1500,369414.28,13,246.295,246.295,246.25,246.22,-0.0023857358111501704,-0.003544377549038553,nvda,20200129
2020-01-29,13:43,1:43 PM,,,,0,0.0,0,246.215,246.143,246.173,1461,359658.4691,12,,,246.215,246.145,,-0.003961125137567105,nvda,20200129
2020-01-29,13:44,1:44 PM,,,,0,0.0,0,246.19,246.124,246.149,10366,2551585.25,19,,,246.145,246.18,,-0.0040582313717873455,nvda,20200129
2020-01-29,13:45,1:45 PM,,,,0,0.0,0,246.15,246.01,246.057,3351,824537.7186,20,,,246.15,246.05,,-0.004430471936298306,nvda,20200129
2020-01-29,13:46,1:46 PM,245.98,245.98,245.98,100,24598.0,1,246.05,245.934,245.991,9342,2298048.0,27,245.98,245.98,246.0,246.05,-0.00366163866431197,-0.004697514080403853,nvda,20200129
2020-01-29,13:47,1:47 PM,,,,0,0.0,0,246.07,245.9,245.982,2673,657510.25,23,,,246.04,245.9,,-0.004733928918236501,nvda,20200129
2020-01-29,13:48,1:48 PM,,,,0,0.0,0,245.985,245.84,245.902,3919,963689.8502,29,,,245.84,245.985,,-0.005057616365637341,nvda,20200129
2020-01-29,13:49,1:49 PM,,,,0,0.0,0,246.044,245.95,246.016,11876,2921688.76,49,,,246.03,245.97,,-0.004596361753091198,nvda,20200129
2020-01-29,13:50,1:50 PM,245.9,245.87,245.885,200,49177.0,2,245.91,245.8,245.87,12604,3098943.574,42,245.87,245.9,245.91,245.88,-0.004046434762884575,-0.005187091344597585,nvda,20200129
2020-01-29,13:51,1:51 PM,,,,0,0.0,0,245.955,245.84,245.851,3425,842040.89,15,,,245.88,245.955,,-0.005263967113355294,nvda,20200129
2020-01-29,13:52,1:52 PM,245.93,245.93,245.93,100,24593.0,1,246.01,245.92,245.965,8041,1977802.0,40,245.93,245.93,245.947,245.99,-0.0038641629267185374,-0.004802712500809152,nvda,20200129
2020-01-29,13:53,1:53 PM,,,,0,0.0,0,246.0,245.93,245.975,4455,1095819.3,27,,,245.98,245.97,,-0.00476225156988409,nvda,20200129
2020-01-29,13:54,1:54 PM,246.01,246.005,246.007,200,49201.5,2,246.03,245.95,245.993,10385,2554642.1827,64,246.01,246.005,246.0,245.96,-0.003552275562612325,-0.004689421894218909,nvda,20200129
2020-01-29,13:55,1:55 PM,,,,0,0.0,0,246.03,245.9,245.969,3087,759307.18,19,,,245.93,246.03,,-0.00478652812843915,nvda,20200129
2020-01-29,13:56,1:56 PM,246.045,246.045,246.045,100,24604.5,1,246.17,246.03,246.101,5200,1279723.93,30,246.045,246.045,246.03,246.17,-0.003398357123183352,-0.004252443840227826,nvda,20200129
2020-01-29,13:57,1:57 PM,246.17,246.17,246.17,15,3692.55,2,246.3,246.12,246.204,4265,1050060.42,24,246.17,246.17,246.12,246.3,-0.002892046467166761,-0.0038356962516992747,nvda,20200129
2020-01-29,13:58,1:58 PM,,,,0,0.0,0,246.29,246.2,246.243,3172,781084.246,24,,,246.248,246.27,,-0.003677898621091441,nvda,20200129
2020-01-29,13:59,1:59 PM,,,,0,0.0,0,246.38,246.237,246.281,7104,1749577.4235,34,,,246.295,246.27,,-0.003524147083576022,nvda,20200129
2020-01-29,14:00,2 PM,246.55,246.21,246.315,400,98526.0,4,246.62,245.8,246.408,13622,3356564.405,77,246.28,246.55,246.28,246.49,-0.0023047261061874746,-0.0030102932608273444,nvda,20200129
2020-01-29,14:01,2:01 PM,246.24,246.24,246.24,100,24624.0,1,246.37,246.03,246.156,13762,3387601.2039,112,246.24,246.24,246.33,246.03,-0.002608512499797383,-0.004029908720139756,nvda,20200129
2020-01-29,14:02,2:02 PM,,,,0,0.0,0,246.412,246.165,246.291,2630,647744.6625,14,,,246.165,246.35,,-0.0034836861526509597,nvda,20200129
2020-01-29,14:03,2:03 PM,246.4,246.335,246.357,300,73907.0,3,246.595,246.25,246.423,13729,3383149.2127,87,246.335,246.4,246.345,246.595,-0.0021346057257658935,-0.0029496018644396367,nvda,20200129
2020-01-29,14:04,2:04 PM,,,,0,0.0,0,246.86,246.55,246.707,43396,10706082.828,129,,,246.57,246.86,,-0.0018005114261668658,nvda,20200129
2020-01-29,14:05,2:05 PM,246.82,246.82,246.82,6,1480.92,1,246.92,246.64,246.744,11439,2822508.48,61,246.82,246.82,246.79,246.72,-0.00025923105588046596,-0.0016508059817439756,nvda,20200129
2020-01-29,14:06,2:06 PM,,,,0,0.0,0,247.01,246.79,246.895,7692,1899119.078,43,,,246.83,246.99,,-0.0010398459247749426,nvda,20200129
2020-01-29,14:07,2:07 PM,,,,0,0.0,0,247.1,246.87,246.975,6442,1591011.51,37,,,246.98,246.93,,-0.0007161584773742171,nvda,20200129
2020-01-29,14:08,2:08 PM,246.845,246.845,246.845,100,24684.5,1,247.02,246.722,246.885,4605,1136907.0297,28,246.845,246.845,246.976,246.822,-0.00015796892467712475,-0.0010803068557001195,nvda,20200129
2020-01-29,14:09,2:09 PM,246.87,246.865,246.87,103,25427.595,2,246.97,246.8,246.88,5246,1295131.794,38,246.865,246.87,246.827,246.92,-5.6706793473783574e-05,-0.0011005373211626505,nvda,20200129
2020-01-29,14:10,2:10 PM,,,,0,0.0,0,246.99,246.77,246.913,2392,590614.94,14,,,246.87,246.99,,-0.000967016249109762,nvda,20200129
2020-01-29,14:11,2:11 PM,,,,0,0.0,0,247.03,246.82,246.999,9944,2456158.25,25,,,247.0,246.82,,-0.0006190522431539765,nvda,20200129
2020-01-29,14:12,2:12 PM,,,,0,0.0,0,246.95,246.68,246.807,7272,1794782.4804,26,,,246.835,246.747,,-0.0013959021169159015,nvda,20200129
2020-01-29,14:13,2:13 PM,,,,0,0.0,0,246.84,246.71,246.765,4558,1124753.44,26,,,246.71,246.76,,-0.0015658380268013226,nvda,20200129
2020-01-29,14:14,2:14 PM,,,,0,0.0,0,246.86,246.76,246.813,3435,847802.42,29,,,246.78,246.79,,-0.0013716255583608413,nvda,20200129
2020-01-29,14:15,2:15 PM,,,,0,0.0,0,246.87,246.68,246.76,5594,1380375.9428,30,,,246.81,246.75,,-0.0015860684922638535,nvda,20200129
2020-01-29,14:16,2:16 PM,,,,0,0.0,0,246.85,246.71,246.827,8928,2203676.603,30,,,246.8,246.71,,-0.0013149802550656627,nvda,20200129
2020-01-29,14:17,2:17 PM,,,,0,0.0,0,246.94,246.72,246.854,5609,1384603.433,22,,,246.77,246.828,,-0.0012057357415678344,nvda,20200129
2020-01-29,14:18,2:18 PM,246.82,246.82,246.82,1,246.82,1,246.86,246.72,246.78,3265,805736.5225,22,246.82,246.82,246.79,246.833,-0.00025923105588046596,-0.0015051466304136147,nvda,20200129
2020-01-29,14:19,2:19 PM,,,,0,0.0,0,246.98,246.887,246.922,6001,1481780.2772,35,,,246.919,246.977,,-0.0009306014112772294,nvda,20200129
2020-01-29,14:20,2:20 PM,,,,0,0.0,0,247.15,246.97,247.088,8450,2087891.82,41,,,246.99,247.14,,-0.0002589499579206033,nvda,20200129
2020-01-29,14:21,2:21 PM,,,,0,0.0,0,247.16,246.935,247.043,10942,2703145.415,64,,,247.14,246.94,,-0.000441024147083497,nvda,20200129
2020-01-29,14:22,2:22 PM,246.93,246.925,246.926,500,123463.0,2,247.04,246.91,246.971,8550,2111602.6746,48,246.93,246.925,246.964,247.02,0.00017012038042158096,-0.0007323428497442189,nvda,20200129
2020-01-29,14:23,2:23 PM,247.055,247.035,247.045,200,49409.0,2,247.065,247.005,247.041,3389,837223.189,25,247.055,247.035,247.005,247.015,0.0006521281249493745,-0.0004491163332685554,nvda,20200129
2020-01-29,14:24,2:24 PM,247.02,247.02,247.02,100,24702.0,1,247.03,246.95,246.967,12642,3122156.51,62,247.02,247.02,246.96,246.957,0.0005508659937461484,-0.0007485272221142206,nvda,20200129
2020-01-29,14:25,2:25 PM,246.975,246.83,246.919,676,166917.4,6,247.0,246.83,246.94,5161,1274458.6732,35,246.93,246.975,246.91,246.986,0.00014176698368474673,-0.0008577717356120488,nvda,20200129
2020-01-29,14:26,2:26 PM,247.005,246.97,246.985,300,74095.5,3,247.065,246.915,247.017,10652,2631221.68,36,247.005,246.97,246.98,246.915,0.00040909901006151684,-0.000546222567488796,nvda,20200129
2020-01-29,14:27,2:27 PM,246.825,246.825,246.825,100,24682.5,1,246.91,246.75,246.827,3602,889069.6928,30,246.825,246.825,246.91,246.85,-0.00023897862963982074,-0.0013149802550656627,nvda,20200129
2020-01-29,14:28,2:28 PM,,,,0,0.0,0,246.935,246.82,246.879,1730,427100.55,16,,,246.85,246.933,,-0.0011045834142551795,nvda,20200129
2020-01-29,14:29,2:29 PM,246.875,246.875,246.875,31,7653.125,1,246.96,246.81,246.89,4635,1144335.21,42,246.875,246.875,246.92,246.96,-3.645436723313836e-05,-0.0010600763902375884,nvda,20200129
2020-01-29,14:30,2:30 PM,246.87,246.87,246.87,200,49374.0,1,247.04,246.87,246.961,3815,942154.88,27,246.87,246.87,246.98,246.885,-5.6706793473783574e-05,-0.0007728037806692808,nvda,20200129
2020-01-29,14:31,2:31 PM,,,,0,0.0,0,246.94,246.75,246.819,2449,604458.77,19,,,246.94,246.77,,-0.001347348999805781,nvda,20200129
2020-01-29,14:32,2:32 PM,246.9,246.9,246.9,100,24690.0,1,247.02,246.72,246.889,6576,1623540.636,49,246.9,246.9,246.72,247.0,6.480776397020283e-05,-0.0010641224833300028,nvda,20200129
2020-01-29,14:33,2:33 PM,,,,0,0.0,0,247.14,246.96,247.086,11175,2761186.092,26,,,246.975,247.14,,-0.0002670421441055467,nvda,20200129
2020-01-29,14:34,2:34 PM,247.21,247.21,247.21,100,24721.0,1,247.37,247.15,247.29,13720,3392812.352,39,247.21,247.21,247.16,247.25,0.0013204581908913572,0.0005583608467663836,nvda,20200129
2020-01-29,14:35,2:35 PM,247.045,246.855,246.95,200,49390.0,2,247.22,246.82,247.003,9588,2368262.9762,56,247.045,246.855,247.22,247.1,0.0002673320263767701,-0.0006028678707839748,nvda,20200129
2020-01-29,14:36,2:36 PM,247.04,247.04,247.04,100,24704.0,1,247.25,246.99,247.082,9191,2270928.5076,50,247.04,247.04,247.09,247.13,0.0006318756987087293,-0.0002832265164756635,nvda,20200129
2020-01-29,14:37,2:37 PM,,,,0,0.0,0,247.22,247.13,247.186,6310,1559746.9,12,,,247.13,247.15,,0.00013756716514541756,nvda,20200129
2020-01-29,14:38,2:38 PM,247.235,247.235,247.235,61,15081.335,1,247.26,247.1,247.189,2413,596467.66,19,247.235,247.235,247.16,247.26,0.0014217203220946984,0.00014970544442289012,nvda,20200129
2020-01-29,14:39,2:39 PM,,,,0,0.0,0,247.23,247.1,247.156,10191,2518769.83,45,,,247.23,247.12,,1.618437237011677e-05,nvda,20200129
2020-01-29,14:40,2:40 PM,247.125,247.045,247.072,150,37060.75,2,247.21,247.029,247.099,3867,955531.8056,25,247.125,247.045,247.124,247.06,0.0007614912266490199,-0.0002144429339030122,nvda,20200129
2020-01-29,14:41,2:41 PM,,,,0,0.0,0,247.04,246.88,246.971,4583,1131868.8475,32,,,247.028,246.93,,-0.0007323428497442189,nvda,20200129
2020-01-29,14:42,2:42 PM,,,,0,0.0,0,247.14,246.78,246.949,2969,733190.6,25,,,246.82,247.08,,-0.0008213568977794011,nvda,20200129
2020-01-29,14:43,2:43 PM,,,,0,0.0,0,247.043,246.835,246.956,4304,1062897.08,32,,,247.043,246.97,,-0.0007930342461319268,nvda,20200129
2020-01-29,14:44,2:44 PM,,,,0,0.0,0,247.05,246.87,246.958,8522,2104571.8998,63,,,246.93,247.03,,-0.0007849420599468684,nvda,20200129
2020-01-29,14:45,2:45 PM,,,,0,0.0,0,247.1,247.0,247.053,1004,248041.41,8,,,247.01,247.04,,-0.00040056321615843506,nvda,20200129
2020-01-29,14:46,2:46 PM,,,,0,0.0,0,247.06,246.97,247.022,2835,700307.12,13,,,247.06,247.008,,-0.000525992102026265,nvda,20200129
2020-01-29,14:47,2:47 PM,247.11,247.11,247.11,10,2471.1,1,247.12,246.98,247.05,2758,681363.33,26,247.11,247.11,247.0,247.12,0.0009154096660781077,-0.00041270149543590765,nvda,20200129
2020-01-29,14:48,2:48 PM,247.05,246.98,247.015,68,16797.02,3,247.1,246.88,247.001,11997,2963267.4138,75,247.05,246.98,247.06,247.015,0.000530613567505388,-0.0006109600569689181,nvda,20200129
2020-01-29,14:49,2:49 PM,247.01,247.01,247.01,100,24701.0,1,247.13,246.98,247.054,5090,1257506.9299,27,247.01,247.01,247.01,247.07,0.0005103611412647429,-0.00039651712306590587,nvda,20200129
2020-01-29,14:50,2:50 PM,247.17,247.12,247.153,150,37073.0,2,247.19,246.93,247.103,10607,2621020.66,39,247.12,247.17,247.06,247.118,0.0010895805317477256,-0.00019825856153289544,nvda,20200129
2020-01-29,14:51,2:51 PM,,,,0,0.0,0,247.22,247.105,247.159,4199,1037821.2,18,,,247.105,247.19,,2.8322651647589348e-05,nvda,20200129
2020-01-29,14:52,2:52 PM,,,,0,0.0,0,247.16,246.96,247.037,1650,407611.94,16,,,247.16,246.98,,-0.00046530070563855717,nvda,20200129
2020-01-29,14:53,2:53 PM,246.82,246.82,246.82,100,24682.0,1,246.995,246.72,246.815,4139,1021565.585,21,246.82,246.82,246.995,246.74,-0.00025923105588046596,-0.001363533372175783,nvda,20200129
2020-01-29,14:54,2:54 PM,246.785,246.785,246.785,100,24678.5,1,246.931,246.729,246.825,5556,1371360.245,29,246.785,246.785,246.74,246.85,-0.0004009980395650976,-0.001323072441250721,nvda,20200129
2020-01-29,14:55,2:55 PM,246.97,246.91,246.912,103,25431.91,2,246.96,246.848,246.943,5721,1412762.381,14,246.91,246.97,246.86,246.95,0.00011341358694779739,-0.0008456334563344613,nvda,20200129
2020-01-29,14:56,2:56 PM,,,,0,0.0,0,246.98,246.81,246.88,3420,844329.672,26,,,246.95,246.92,,-0.0011005373211626505,nvda,20200129
2020-01-29,14:57,2:57 PM,,,,0,0.0,0,246.97,246.84,246.881,3158,779649.7246,20,,,246.89,246.89,,-0.0010964912280701212,nvda,20200129
2020-01-29,14:58,2:58 PM,,,,0,0.0,0,246.9,246.706,246.755,3137,774070.74,19,,,246.9,246.75,,-0.0016062989577263845,nvda,20200129
2020-01-29,14:59,2:59 PM,,,,0,0.0,0,246.82,246.691,246.755,5278,1302374.7735,31,,,246.75,246.691,,-0.0016062989577263845,nvda,20200129
2020-01-29,15:00,3 PM,246.805,246.685,246.781,131,32328.295,3,246.89,246.67,246.804,7150,1764651.77,53,246.805,246.705,246.76,246.71,-0.00041719998055759073,-0.001408040396193374,nvda,20200129
2020-01-29,15:01,3:01 PM,246.8,246.67,246.739,410,101163.17,3,246.88,246.67,246.806,10095,2491504.285,48,246.67,246.8,246.67,246.69,-0.0005873203609791717,-0.0013999482100083157,nvda,20200129
2020-01-29,15:02,3:02 PM,,,,0,0.0,0,246.74,246.46,246.582,3807,938738.025,31,,,246.7,246.52,,-0.0023062730627306,nvda,20200129
2020-01-29,15:03,3:03 PM,,,,0,0.0,0,246.55,246.31,246.433,10056,2478129.59,65,,,246.48,246.32,,-0.0029091409335145744,nvda,20200129
2020-01-29,15:04,3:04 PM,246.255,246.255,246.255,3,738.765,1,246.45,246.199,246.368,8183,2016026.38,52,246.255,246.255,246.28,246.4,-0.002547755221075447,-0.003172136984527707,nvda,20200129
2020-01-29,15:05,3:05 PM,246.5,246.5,246.5,100,24650.0,1,246.52,246.38,246.464,7669,1890135.73,36,246.5,246.5,246.38,246.41,-0.0015553863352829108,-0.0027837120476467444,nvda,20200129
2020-01-29,15:06,3:06 PM,246.53,246.375,246.394,301,74164.53,4,246.51,246.34,246.415,9318,2296091.1592,62,246.385,246.42,246.39,246.39,-0.0019847377715849577,-0.002981970609179755,nvda,20200129
2020-01-29,15:07,3:07 PM,246.29,246.29,246.29,21,5172.09,1,246.447,246.21,246.327,3602,887269.6,23,246.29,246.29,246.44,246.29,-0.0024059882373908157,-0.003338026801320599,nvda,20200129
2020-01-29,15:08,3:08 PM,,,,0,0.0,0,246.27,246.14,246.232,8069,1986843.6882,27,,,246.27,246.23,,-0.0037224056451090324,nvda,20200129
2020-01-29,15:09,3:09 PM,246.42,246.335,246.378,304,74899.02,4,246.48,246.31,246.383,4815,1186334.892,40,246.335,246.38,246.34,246.31,-0.0020495455355551604,-0.0031114455881399994,nvda,20200129
2020-01-29,15:10,3:10 PM,246.405,246.18,246.289,400,98515.5,4,246.472,246.16,246.366,11091,2732449.0083,32,246.405,246.18,246.37,246.16,-0.0024100387226389675,-0.0031802291707126503,nvda,20200129
2020-01-29,15:11,3:11 PM,246.33,246.25,246.288,402,99007.645,5,246.503,246.17,246.319,16009,3943320.4989,91,246.25,246.315,246.18,246.503,-0.002414089207887005,-0.0033703955460607175,nvda,20200129
2020-01-29,15:12,3:12 PM,246.4,246.4,246.4,25,6160.0,1,246.54,246.24,246.379,6694,1649262.6684,30,246.4,246.4,246.44,246.36,-0.0019604348600961606,-0.003127629960510116,nvda,20200129
2020-01-29,15:13,3:13 PM,246.225,246.185,246.205,200,49241.0,2,246.29,246.05,246.177,6652,1637567.74,23,246.225,246.185,246.29,246.14,-0.0027502794834820144,-0.003944940765197103,nvda,20200129
2020-01-29,15:14,3:14 PM,246.215,245.97,246.133,305,75070.47,5,246.36,245.935,246.189,20291,4995425.2957,110,246.215,245.97,246.117,245.97,-0.003041914421347582,-0.0038963876480869824,nvda,20200129
2020-01-29,15:15,3:15 PM,245.96,245.83,245.912,312,76724.7,5,246.03,245.78,245.88,24751,6085779.7239,87,245.875,245.83,245.9,245.92,-0.003937071661184929,-0.0051466304136725234,nvda,20200129
2020-01-29,15:16,3:16 PM,,,,0,0.0,0,246.11,245.83,245.997,12416,3054299.3325,74,,,245.88,246.1,,-0.004673237521848793,nvda,20200129
2020-01-29,15:17,3:17 PM,246.08,246.05,246.079,102,25100.11,3,246.21,245.93,246.113,10295,2533738.1267,43,246.06,246.08,246.135,245.93,-0.0032606406247467573,-0.004203890723117706,nvda,20200129
2020-01-29,15:18,3:18 PM,245.91,245.87,245.89,300,73767.0,3,245.92,245.821,245.898,10747,2642669.445,45,245.89,245.87,245.88,245.86,-0.004026182336643929,-0.005073800738007343,nvda,20200129
2020-01-29,15:19,3:19 PM,245.96,245.89,245.922,8,1967.375,6,245.96,245.84,245.89,1650,405717.85,14,245.92,245.925,245.88,245.88,-0.0038965668087036385,-0.005106169482747461,nvda,20200129
2020-01-29,15:20,3:20 PM,245.95,245.855,245.945,111,27299.895,7,245.98,245.83,245.903,18004,4427230.65,92,245.89,245.935,245.91,245.83,-0.003803405647996602,-0.005053570272544812,nvda,20200129
2020-01-29,15:21,3:21 PM,245.98,245.87,245.942,400,98377.0,4,246.0,245.8,245.905,7535,1852895.586,32,245.94,245.87,245.85,245.84,-0.0038155571037409427,-0.0050454780863597535,nvda,20200129
2020-01-29,15:22,3:22 PM,,,,0,0.0,0,245.796,245.68,245.737,3924,964272.71,24,,,245.78,245.73,,-0.005725221725901438,nvda,20200129
2020-01-29,15:23,3:23 PM,245.68,245.615,245.617,106,26035.45,3,245.7,245.472,245.578,4636,1138501.56,36,245.68,245.615,245.7,245.472,-0.0051319648093841475,-0.006368550527610474,nvda,20200129
2020-01-29,15:24,3:24 PM,245.96,245.96,245.96,100,24596.0,1,245.98,245.52,245.84,15228,3743659.4125,76,245.96,245.96,245.54,245.876,-0.003742648369274551,-0.005308474137372886,nvda,20200129
2020-01-29,15:25,3:25 PM,246.06,246.06,246.06,3,738.18,1,246.1,245.809,246.011,10132,2492579.3004,63,246.06,246.06,245.87,246.1,-0.0033375998444613014,-0.004616592218553729,nvda,20200129
2020-01-29,15:26,3:26 PM,246.175,246.175,246.175,100,24617.5,1,246.2,246.061,246.13,5756,1416724.8586,46,246.175,246.175,246.07,246.1,-0.002871794040926001,-0.004135107140545055,nvda,20200129
2020-01-29,15:27,3:27 PM,246.08,246.08,246.08,2,492.16,1,246.187,246.04,246.121,3416,840748.0917,22,246.08,246.08,246.17,246.17,-0.003256590139498605,-0.004171521978377587,nvda,20200129
2020-01-29,15:28,3:28 PM,,,,0,0.0,0,246.26,246.13,246.219,9356,2303627.1062,23,,,246.16,246.26,,-0.003775004855311682,nvda,20200129
2020-01-29,15:29,3:29 PM,246.23,246.21,246.223,6,1477.34,2,246.27,246.13,246.232,2822,694866.79,22,246.23,246.21,246.24,246.228,-0.0026773707490156226,-0.0037224056451090324,nvda,20200129
2020-01-29,15:30,3:30 PM,246.2,246.05,246.088,11,2706.97,7,246.25,246.04,246.143,5963,1467750.215,50,246.195,246.05,246.13,246.04,-0.003224186257513619,-0.0040825079303424055,nvda,20200129
2020-01-29,15:31,3:31 PM,246.135,246.13,246.13,101,24859.135,2,246.387,246.073,246.238,4598,1132202.9552,29,246.13,246.135,246.13,246.387,-0.0030540658770920382,-0.003698129086553972,nvda,20200129
2020-01-29,15:32,3:32 PM,246.38,246.295,246.379,606,149305.915,7,246.4,246.28,246.365,10911,2688084.7328,65,246.305,246.38,246.35,246.374,-0.0020454950503070086,-0.00318427526380518,nvda,20200129
2020-01-29,15:33,3:33 PM,246.43,246.33,246.387,1004,247372.98,10,246.46,246.275,246.38,12102,2981692.0952,74,246.33,246.34,246.376,246.325,-0.002013091168321907,-0.0031235838674175866,nvda,20200129
2020-01-29,15:34,3:34 PM,246.335,246.255,246.303,3,738.91,3,246.39,246.25,246.313,6417,1580589.9375,43,246.32,246.335,246.32,246.31,-0.002353331929165069,-0.0033946721046157775,nvda,20200129
2020-01-29,15:35,3:35 PM,246.325,246.29,246.309,4,985.235,3,246.373,246.249,246.335,3634,895181.135,20,246.325,246.29,246.29,246.249,-0.0023290290176762717,-0.0033056580565804803,nvda,20200129
2020-01-29,15:36,3:36 PM,246.28,246.18,246.215,199,48996.88,6,246.25,246.09,246.193,7247,1784160.85,55,246.27,246.22,246.24,246.25,-0.002709774631000724,-0.0038802032757168656,nvda,20200129
2020-01-29,15:37,3:37 PM,246.19,246.09,246.093,52,12796.82,3,246.22,246.09,246.134,4320,1063298.877,34,246.19,246.09,246.22,246.1,-0.0032039338312729736,-0.004118922768175053,nvda,20200129
2020-01-29,15:38,3:38 PM,246.155,246.0,246.069,231,56841.9,9,246.19,246.0,246.072,19591,4820807.345,102,246.145,246.155,246.178,246.17,-0.003301145477228163,-0.004369780539910598,nvda,20200129
2020-01-29,15:39,3:39 PM,246.175,246.175,246.175,19,4677.325,1,246.19,246.09,246.154,3277,806646.18,23,246.175,246.175,246.15,246.15,-0.002871794040926001,-0.004038000906324815,nvda,20200129
2020-01-29,15:40,3:40 PM,246.1,246.1,246.1,100,24610.0,1,246.1,245.85,245.944,9435,2320485.182,68,246.1,246.1,246.1,245.87,-0.0031755804345360242,-0.00488768045575192,nvda,20200129
2020-01-29,15:41,3:41 PM,,,,0,0.0,0,245.89,245.73,245.804,11781,2895814.853,78,,,245.87,245.79,,-0.005454133488703247,nvda,20200129
2020-01-29,15:42,3:42 PM,246.01,245.68,245.921,198,48692.32,4,246.06,245.69,245.863,13810,3395366.762,68,245.68,246.01,245.73,246.01,-0.0039006172939517907,-0.005215413996245174,nvda,20200129
2020-01-29,15:43,3:43 PM,245.965,245.895,245.915,7,1721.405,2,246.026,245.8,245.904,7062,1736572.072,52,245.965,245.895,246.01,245.87,-0.003924920205440588,-0.005049524179452283,nvda,20200129
2020-01-29,15:44,3:44 PM,245.91,245.83,245.904,125,30737.95,4,245.95,245.77,245.901,13222,3251304.44,82,245.83,245.91,245.855,245.92,-0.003969475543170031,-0.005061662458729755,nvda,20200129
2020-01-29,15:45,3:45 PM,245.945,245.9,245.941,206,50663.9,3,245.95,245.82,245.905,12292,3022670.538,87,245.945,245.9,245.95,245.91,-0.003819607588989095,-0.0050454780863597535,nvda,20200129
2020-01-29,15:46,3:46 PM,245.99,245.795,245.823,120,29498.81,4,246.0,245.795,245.868,15653,3848573.93,60,245.99,245.795,245.92,245.84,-0.004297564848268736,-0.0051951835307826435,nvda,20200129
2020-01-29,15:47,3:47 PM,245.85,245.73,245.849,953,234294.48,13,245.86,245.7,245.774,6730,1654059.39,54,245.78,245.85,245.82,245.86,-0.004192252231817358,-0.005575516281478548,nvda,20200129
2020-01-29,15:48,3:48 PM,245.96,245.83,245.917,300,73775.0,3,245.96,245.8,245.875,7828,1924713.3618,60,245.83,245.96,245.865,245.96,-0.003916819234944284,-0.005166860879135054,nvda,20200129
2020-01-29,15:49,3:49 PM,245.93,245.765,245.827,306,75223.08,4,245.97,245.75,245.861,6644,1633499.129,55,245.9,245.765,245.963,245.82,-0.004281362907276243,-0.0052235061824302325,nvda,20200129
2020-01-29,15:50,3:50 PM,245.85,245.71,245.804,112,27530.06,6,245.95,245.54,245.797,19638,4826965.82,124,245.725,245.805,245.82,245.79,-0.00437452406798328,-0.005482456140350836,nvda,20200129
2020-01-29,15:51,3:51 PM,245.77,245.63,245.646,309,75904.715,8,245.78,245.63,245.681,9128,2242578.545,63,245.77,245.63,245.74,245.65,-0.005014500737188314,-0.005951802939081922,nvda,20200129
2020-01-29,15:52,3:52 PM,245.74,245.63,245.673,152,37342.37,5,245.79,245.6,245.677,9523,2339582.24,62,245.655,245.74,245.685,245.71,-0.004905137635488668,-0.00596798731145204,nvda,20200129
2020-01-29,15:53,3:53 PM,245.72,245.58,245.709,112,27519.46,3,245.79,245.53,245.653,9703,2383569.5582,91,245.72,245.58,245.7,245.6,-0.004759320166555885,-0.00606509354567228,nvda,20200129
2020-01-29,15:54,3:54 PM,245.68,245.59,245.644,413,101450.95,6,245.81,245.57,245.669,30291,7441577.8158,216,245.59,245.68,245.61,245.81,-0.005022601707684503,-0.006000356056192042,nvda,20200129
2020-01-29,15:55,3:55 PM,245.935,245.775,245.912,119,29263.505,3,245.96,245.75,245.819,12025,2955976.2614,89,245.775,245.935,245.77,245.93,-0.003937071661184929,-0.005393442092315653,nvda,20200129
2020-01-29,15:56,3:56 PM,245.92,245.75,245.82,575,141346.31,10,245.92,245.67,245.767,16296,4005020.8281,134,245.92,245.76,245.92,245.68,-0.004309716304013192,-0.005603838933126137,nvda,20200129
2020-01-29,15:57,3:57 PM,245.705,245.5,245.595,636,156198.34,12,245.7,245.49,245.607,18919,4646638.446,142,245.64,245.6,245.629,245.59,-0.005221075484843033,-0.006251213827927702,nvda,20200129
2020-01-29,15:58,3:58 PM,245.655,245.56,245.601,516,126730.365,9,245.68,245.54,245.599,27142,6666049.0606,209,245.585,245.57,245.59,245.6,-0.005196772573354235,-0.006283582572667821,nvda,20200129
2020-01-29,15:59,3:59 PM,245.61,245.41,245.523,2878,706614.62,37,245.62,245.36,245.549,67486,16571141.1303,370,245.55,245.53,245.61,245.54,-0.0055127104227086,-0.006485887227293246,nvda,20200129
