date,minute,label,high,low,average,volume,notional,numberOfTrades,marketHigh,marketLow,marketAverage,marketVolume,marketNotional,marketNumberOfTrades,open,close,marketOpen,marketClose,changeOverTime,marketChangeOverTime,tickerName,tickerDate
2020-01-08,09:30,09:30 AM,239.7,238.945,239.5,2202,527378.26,15,239.82,238.8,239.671,157561,37762860.4748,184,239.59,238.945,239.76,238.8,0.0,0.0,nvda,20200108
2020-01-08,09:31,09:31 AM,240.3,239.07,239.817,2362,566446.98,18,240.69,238.81,239.999,47853,11484670.337,253,239.07,240.02,238.88,239.891,0.0013235908141962726,0.0013685427106325044,nvda,20200108
2020-01-08,09:32,09:32 AM,240.13,239.48,239.853,1700,407750.06,17,240.27,239.48,239.914,36968,8869146.1645,142,239.48,239.84,239.805,239.87,0.0014739039665971133,0.0010138898740356364,nvda,20200108
2020-01-08,09:33,09:33 AM,240.3,239.72,240.068,2722,653465.12,29,240.3,239.75,240.071,34041,8172246.1269,135,239.805,240.04,239.75,240.04,0.00237160751565767,0.0016689545251615994,nvda,20200108
2020-01-08,09:34,09:34 AM,240.3,239.89,240.143,1540,369820.185,16,240.45,239.76,240.202,57614,13838984.298,197,239.93,240.15,239.95,240.155,0.002684759916492696,0.0022155371321520164,nvda,20200108
2020-01-08,09:35,09:35 AM,240.65,240.17,240.405,705,169485.58,9,240.77,240.16,240.47,43297,10411649.2686,179,240.17,240.57,240.27,240.54,0.0037787056367432196,0.003333736664010275,nvda,20200108
2020-01-08,09:36,09:36 AM,240.48,239.625,239.983,1164,279339.965,17,240.52,239.6,240.01,45723,10973963.8942,221,240.48,239.63,240.52,239.77,0.002016701461377888,0.0014144389600744297,nvda,20200108
2020-01-08,09:37,09:37 AM,239.67,239.22,239.413,723,173095.62,9,239.79,239.22,239.47,25570,6123249.3482,129,239.67,239.26,239.67,239.22,-0.0003632567849686392,-0.0008386496488936643,nvda,20200108
2020-01-08,09:38,09:38 AM,239.47,239.21,239.343,457,109379.71,6,239.66,239.19,239.364,15022,3595727.9652,82,239.47,239.325,239.34,239.66,-0.0006555323590814642,-0.0012809225980614592,nvda,20200108
2020-01-08,09:39,09:39 AM,240.07,239.75,239.905,617,148021.13,10,240.25,239.68,239.962,65316,15673344.33,243,239.75,239.76,239.76,239.76,0.0016910229645093994,0.001214164417055033,nvda,20200108
2020-01-08,09:40,09:40 AM,239.35,239.35,239.35,101,24174.35,2,239.78,239.31,239.522,17250,4131747.665,73,239.35,239.35,239.64,239.598,-0.0006263048016701699,-0.0006216855606226907,nvda,20200108
2020-01-08,09:41,09:41 AM,239.2,239.2,239.2,100,23920.0,1,239.835,239.191,239.455,31057,7436745.765,84,239.2,239.2,239.69,239.375,-0.0012526096033403397,-0.0009012354435871665,nvda,20200108
2020-01-08,09:42,09:42 AM,239.4,239.24,239.308,300,71792.5,3,239.5,239.19,239.292,18802,4499167.865,77,239.4,239.24,239.44,239.32,-0.0008016701461378174,-0.0015813344125905542,nvda,20200108
2020-01-08,09:43,09:43 AM,239.125,239.0,239.018,511,122138.225,8,239.316,238.85,239.072,56953,13615862.5014,123,239.125,239.0,239.316,239.02,-0.0020125260960334,-0.002499259401429416,nvda,20200108
2020-01-08,09:44,09:44 AM,239.38,239.38,239.38,100,23938.0,1,239.83,238.94,239.384,29080,6961287.5965,92,239.38,239.38,239.0,239.77,-0.0005010438413361359,-0.0011974748718034563,nvda,20200108
2020-01-08,09:45,09:45 AM,239.72,239.42,239.562,203,48631.16,3,239.844,239.31,239.682,19291,4623698.1418,79,239.7,239.42,239.72,239.5,0.0002588726513570431,4.589624944192531e-05,nvda,20200108
2020-01-08,09:46,09:46 AM,239.41,239.01,239.143,401,95896.21,5,239.48,238.983,239.205,14614,3495738.302,79,239.41,239.01,239.48,239.0,-0.0014906054279749449,-0.0019443320218131513,nvda,20200108
2020-01-08,09:47,09:47 AM,239.18,238.71,238.966,808,193084.68,6,239.27,238.62,238.892,62747,14989781.22,236,238.96,239.18,239.05,239.08,-0.002229645093945686,-0.0032502889377521533,nvda,20200108
2020-01-08,09:48,09:48 AM,239.11,239.085,239.105,63,15063.605,3,239.225,239.0,239.118,5878,1405538.291,40,239.11,239.085,239.12,239.03,-0.0016492693110647608,-0.002307329631035867,nvda,20200108
2020-01-08,09:49,09:49 AM,239.025,238.93,238.977,200,47795.5,2,239.12,238.925,239.056,14850,3549980.4799,43,239.025,238.93,239.03,239.05,-0.0021837160751565603,-0.002566017582435842,nvda,20200108
2020-01-08,09:50,09:50 AM,238.925,238.37,238.598,611,145783.4,7,239.12,238.28,238.537,75682,18052942.7803,224,238.925,238.37,239.06,238.43,-0.003766179540709757,-0.00473148607883301,nvda,20200108
2020-01-08,09:51,09:51 AM,238.63,238.39,238.5,1400,333899.5,13,238.72,238.35,238.505,22799,5437670.099,157,238.41,238.52,238.439,238.44,-0.0041753653444676405,-0.00486500244084598,nvda,20200108
2020-01-08,09:52,09:52 AM,238.59,238.4,238.556,1100,262412.0,6,238.71,238.4,238.525,19633,4682964.432,82,238.55,238.4,238.443,238.4,-0.003941544885177404,-0.004781554714587859,nvda,20200108
2020-01-08,09:53,09:53 AM,238.585,238.4,238.488,366,87286.46,6,238.85,238.369,238.598,23980,5721573.92,75,238.4,238.585,238.417,238.787,-0.004225469728601255,-0.0044769705137458395,nvda,20200108
2020-01-08,09:54,09:54 AM,239.24,239.24,239.24,200,47848.0,2,239.37,238.72,239.161,21597,5165164.36,143,239.24,239.24,238.72,239.28,-0.0010855949895615486,-0.002127917019580971,nvda,20200108
2020-01-08,09:55,09:55 AM,239.85,239.41,239.658,172,41221.2,2,239.932,239.33,239.668,52370,12551424.4993,163,239.41,239.85,239.33,239.76,0.0006597077244258332,-1.2517158938652999e-05,nvda,20200108
2020-01-08,09:56,09:56 AM,240.305,240.12,240.212,203,48763.025,3,240.45,239.81,240.167,44974,10801257.4992,236,240.12,240.305,239.81,240.37,0.002972860125260915,0.0020695036112003927,nvda,20200108
2020-01-08,09:57,09:57 AM,240.155,239.925,240.064,700,168044.5,7,240.41,239.71,240.077,22289,5351082.7992,105,240.135,239.925,240.388,239.895,0.00235490605427972,0.001693988843039024,nvda,20200108
2020-01-08,09:58,09:58 AM,239.82,239.56,239.657,494,118390.58,6,239.91,239.52,239.694,13511,3238500.86,93,239.82,239.625,239.88,239.611,0.0006555323590814642,9.596488519677447e-05,nvda,20200108
2020-01-08,09:59,09:59 AM,239.925,239.66,239.783,301,72174.665,4,239.99,239.52,239.792,13346,3200265.2046,63,239.925,239.665,239.55,239.81,0.0011816283924842882,0.0005048587438614156,nvda,20200108
2020-01-08,10:00,10 AM,239.92,239.73,239.809,652,156355.51,8,239.96,239.64,239.827,7578,1817410.4592,46,239.755,239.835,239.755,239.835,0.0012901878914404906,0.0006508922648130391,nvda,20200108
2020-01-08,10:01,10:01 AM,240.03,239.865,239.935,986,236576.19,11,240.12,239.74,239.986,13795,3310601.866,71,239.865,239.93,239.8,239.788,0.0018162839248434333,0.0013143016885647314,nvda,20200108
2020-01-08,10:02,10:02 AM,239.87,239.68,239.733,825,197779.98,8,239.96,239.647,239.76,8737,2094781.365,61,239.77,239.72,239.77,239.815,0.0009728601252609775,0.0003713423818484449,nvda,20200108
2020-01-08,10:03,10:03 AM,239.8,239.72,239.743,801,192034.05,8,239.82,239.68,239.746,14294,3426931.0285,68,239.73,239.725,239.79,239.77,0.0010146137787056158,0.0003129289734678666,nvda,20200108
2020-01-08,10:04,10:04 AM,239.93,239.74,239.781,900,215803.0,6,239.99,239.68,239.822,8405,2015702.16,50,239.76,239.93,239.795,239.91,0.0011732776617954317,0.0006300303332485384,nvda,20200108
2020-01-08,10:05,10:05 AM,239.77,239.67,239.696,400,95878.5,3,239.87,239.63,239.721,8652,2074070.76,67,239.77,239.67,239.87,239.77,0.000818371607515649,0.0002086193156452444,nvda,20200108
2020-01-08,10:06,10:06 AM,239.73,239.725,239.73,202,48425.45,3,239.94,239.72,239.827,5300,1271085.593,42,239.725,239.73,239.79,239.89,0.0009603340292275147,0.0006508922648130391,nvda,20200108
2020-01-08,10:07,10:07 AM,239.98,239.87,239.922,300,71976.5,3,240.0,239.83,239.929,7647,1834737.2705,42,239.915,239.87,239.915,239.867,0.001762004175365332,0.0010764756687292572,nvda,20200108
2020-01-08,10:08,10:08 AM,239.85,239.74,239.791,408,97834.79,7,239.92,239.715,239.809,4366,1047006.945,37,239.74,239.84,239.74,239.896,0.0012150313152400703,0.0005757893111807655,nvda,20200108
2020-01-08,10:09,10:09 AM,239.86,239.75,239.856,314,75314.64,6,240.14,239.71,239.944,40936,9822361.84,163,239.86,239.77,239.93,240.06,0.0014864300626304574,0.0011390614634227594,nvda,20200108
2020-01-08,10:10,10:10 AM,240.15,239.75,239.907,811,194564.7,10,240.22,239.68,240.017,33880,8131759.6587,131,240.15,239.75,240.08,239.68,0.0016993736951983745,0.001443645664264778,nvda,20200108
2020-01-08,10:11,10:11 AM,,,,0,0.0,0,239.84,239.6,239.727,30618,7339966.0312,108,,,239.66,239.786,,0.00023365363352266898,nvda,20200108
2020-01-08,10:12,10:12 AM,239.72,239.67,239.69,400,95876.0,4,239.96,239.61,239.781,13557,3250718.31,59,239.72,239.67,239.77,239.95,0.0007933194154488423,0.00045896249441949025,nvda,20200108
2020-01-08,10:13,10:13 AM,239.91,239.75,239.906,105,25190.115,3,239.93,239.62,239.732,17365,4162956.1082,46,239.855,239.75,239.93,239.63,0.0016951983298538868,0.0002545155650871697,nvda,20200108
2020-01-08,10:14,10:14 AM,239.775,239.59,239.6,226,54149.5,6,239.79,239.542,239.615,6810,1631778.013,42,239.59,239.59,239.59,239.59,0.00041753653444674037,-0.0002336536335225504,nvda,20200108
2020-01-08,10:15,10:15 AM,240.285,239.69,239.972,565,135584.105,12,240.325,239.6,240.141,28648,6879560.0305,130,239.69,240.285,239.6,240.17,0.0019707724425887616,0.0019610215670648468,nvda,20200108
2020-01-08,10:16,10:16 AM,240.17,240.03,240.108,154,36976.645,6,240.24,240.02,240.159,18215,4374499.33,78,240.17,240.03,240.209,240.17,0.0025386221294363426,0.0020361245206971207,nvda,20200108
2020-01-08,10:17,10:17 AM,240.275,240.0,240.143,748,179626.71,8,240.29,239.9,240.062,12437,2985655.5915,84,240.275,240.02,240.2,240.033,0.002684759916492696,0.0016314030483455218,nvda,20200108
2020-01-08,10:18,10:18 AM,240.045,239.81,239.923,440,105566.0,5,240.045,239.81,239.917,13857,3324533.6915,65,240.045,239.81,240.013,239.867,0.0017661795407098197,0.001026407032974408,nvda,20200108
2020-01-08,10:19,10:19 AM,239.92,239.875,239.898,200,47979.5,2,240.0,239.76,239.851,9024,2164414.9125,69,239.92,239.875,239.89,239.86,0.001661795407098105,0.0007510295363227376,nvda,20200108
2020-01-08,10:20,10:20 AM,239.94,239.94,239.94,100,23994.0,1,240.09,239.835,239.987,8649,2075649.9955,45,239.94,239.94,239.97,239.838,0.0018371607515657526,0.0013184740748776553,nvda,20200108
2020-01-08,10:21,10:21 AM,239.74,239.525,239.668,300,71900.5,3,239.89,239.5,239.649,9932,2380197.2645,63,239.74,239.525,239.89,239.525,0.0007014613778705903,-9.179249888385062e-05,nvda,20200108
2020-01-08,10:22,10:22 AM,239.44,239.36,239.392,502,120174.88,6,239.516,239.33,239.444,17126,4100722.32,81,239.44,239.36,239.47,239.36,-0.0004509394572025223,-0.0009471316930292103,nvda,20200108
2020-01-08,10:23,10:23 AM,239.43,239.43,239.43,100,23943.0,1,239.554,239.27,239.489,16492,3949652.3308,54,239.43,239.43,239.38,239.554,-0.00029227557411270637,-0.0007593743089484667,nvda,20200108
2020-01-08,10:24,10:24 AM,239.57,239.23,239.4,534,127839.825,11,239.59,239.124,239.364,20461,4897632.72,50,239.51,239.23,239.49,239.124,-0.00041753653444674037,-0.0012809225980614592,nvda,20200108
2020-01-08,10:25,10:25 AM,239.27,239.14,239.215,312,74635.18,4,239.34,239.112,239.206,20556,4917121.756,56,239.27,239.14,239.26,239.145,-0.0011899791231732633,-0.001940159635500346,nvda,20200108
2020-01-08,10:26,10:26 AM,239.41,239.165,239.275,500,119637.5,5,239.432,239.15,239.248,28839,6899679.7707,52,239.165,239.41,239.15,239.432,-0.0009394572025051954,-0.001764919410358374,nvda,20200108
2020-01-08,10:27,10:27 AM,239.37,239.28,239.316,400,95726.5,4,239.444,239.24,239.289,9445,2260084.698,40,239.315,239.37,239.4,239.36,-0.0007682672233820355,-0.0015938515715293257,nvda,20200108
2020-01-08,10:28,10:28 AM,239.47,239.385,239.412,1301,311475.43,8,239.5,239.31,239.411,12608,3018498.1402,64,239.385,239.47,239.4,239.45,-0.00036743215031312675,-0.0010848204413549862,nvda,20200108
2020-01-08,10:29,10:29 AM,239.71,239.45,239.589,1689,404664.99,13,239.74,239.43,239.566,36844,8826558.504,142,239.46,239.71,239.46,239.73,0.00037160751565761435,-0.0004381005628548709,nvda,20200108
2020-01-08,10:30,10:30 AM,239.79,239.225,239.735,201,48186.725,3,239.85,239.19,239.626,28641,6863127.67,104,239.79,239.225,239.67,239.19,0.0009812108559499526,-0.0001877573840806251,nvda,20200108
2020-01-08,10:31,10:31 AM,239.535,239.535,239.535,44,10539.54,1,239.54,239.241,239.321,35801,8567926.6964,37,239.535,239.535,239.273,239.54,0.00014613778705635318,-0.001460335209516355,nvda,20200108
2020-01-08,10:32,10:32 AM,239.62,239.62,239.62,100,23962.0,1,239.7,239.46,239.603,5762,1380595.193,28,239.62,239.62,239.49,239.601,0.0005010438413361359,-0.00028372226927739956,nvda,20200108
2020-01-08,10:33,10:33 AM,239.39,239.39,239.39,20,4787.8,2,239.49,239.26,239.35,6866,1643376.175,33,239.39,239.39,239.49,239.404,-0.00045929018789149745,-0.001339336006442156,nvda,20200108
2020-01-08,10:34,10:34 AM,239.39,239.39,239.39,100,23939.0,1,239.48,239.3,239.4,4953,1185750.3757,29,239.39,239.39,239.395,239.3,-0.00045929018789149745,-0.0011307166907969116,nvda,20200108
2020-01-08,10:35,10:35 AM,239.25,239.23,239.248,110,26317.3,2,239.55,239.17,239.374,8003,1915711.6194,53,239.23,239.25,239.25,239.53,-0.0010521920668058854,-0.0012391987349324577,nvda,20200108
2020-01-08,10:36,10:36 AM,239.64,239.525,239.56,281,67316.34,5,239.74,239.46,239.573,22150,5306546.7728,98,239.525,239.64,239.515,239.63,0.00025052192066806796,-0.0004088938586645225,nvda,20200108
2020-01-08,10:37,10:37 AM,239.65,239.65,239.65,100,23965.0,1,239.72,239.57,239.665,5941,1423851.466,49,239.65,239.65,239.63,239.584,0.0006263048016701699,-2.5034317877424586e-05,nvda,20200108
2020-01-08,10:38,10:38 AM,239.56,239.53,239.545,200,47909.0,2,239.6,239.39,239.507,5804,1390097.16,35,239.53,239.56,239.56,239.53,0.00018789144050099162,-0.0006842713553161929,nvda,20200108
2020-01-08,10:39,10:39 AM,,,,0,0.0,0,239.63,239.474,239.545,4725,1131850.42,25,,,239.516,239.6,,-0.0005257206754259163,nvda,20200108
2020-01-08,10:40,10:40 AM,239.75,239.74,239.745,200,47949.0,2,239.76,239.57,239.685,4803,1151205.13,29,239.75,239.74,239.57,239.59,0.001022964509394591,5.841340838069689e-05,nvda,20200108
2020-01-08,10:41,10:41 AM,239.57,239.56,239.565,200,47913.0,2,239.63,239.485,239.562,3809,912490.2168,29,239.56,239.57,239.552,239.57,0.00027139874739038716,-0.0004547901081064478,nvda,20200108
2020-01-08,10:42,10:42 AM,239.59,239.22,239.456,585,140081.95,5,239.59,239.16,239.298,15517,3713188.767,69,239.59,239.22,239.59,239.18,-0.0001837160751566227,-0.0015563000947131295,nvda,20200108
2020-01-08,10:43,10:43 AM,239.14,239.05,239.055,205,49006.33,3,239.15,238.701,238.909,29147,6963480.185,138,239.14,239.05,239.15,238.76,-0.0018580375782880718,-0.0031793583704328035,nvda,20200108
2020-01-08,10:44,10:44 AM,238.77,238.77,238.77,100,23877.0,1,238.88,238.67,238.775,17297,4130092.5664,92,238.77,238.77,238.71,238.876,-0.003048016701461335,-0.0037384581363618737,nvda,20200108
2020-01-08,10:45,10:45 AM,239.02,239.02,239.02,100,23902.0,2,239.16,238.8,239.018,4274,1021563.9971,33,239.02,239.02,238.85,239.15,-0.002004175365344425,-0.0027245682623262373,nvda,20200108
2020-01-08,10:46,10:46 AM,,,,0,0.0,0,239.24,238.99,239.14,4884,1167957.98,36,,,239.18,238.99,,-0.0022155371321520164,nvda,20200108
2020-01-08,10:47,10:47 AM,238.95,238.95,238.95,2,477.9,1,239.06,238.88,238.964,5218,1246916.06,24,238.95,238.95,238.957,238.965,-0.00229645093945725,-0.0029498771232230585,nvda,20200108
2020-01-08,10:48,10:48 AM,,,,0,0.0,0,238.955,238.451,238.617,17991,4292965.347,83,,,238.947,238.6,,-0.00439769517380076,nvda,20200108
2020-01-08,10:49,10:49 AM,238.475,238.475,238.475,100,23847.5,1,238.689,238.43,238.527,14066,3355125.04,68,238.475,238.475,238.56,238.568,-0.004279749478079356,-0.0047732099419621294,nvda,20200108
2020-01-08,10:50,10:50 AM,238.5,238.4,238.472,208,49602.2,3,238.61,238.32,238.447,28963,6906140.9091,97,238.5,238.4,238.61,238.32,-0.0042922755741127,-0.005107000846994378,nvda,20200108
2020-01-08,10:51,10:51 AM,238.18,238.18,238.18,4,952.72,1,238.52,238.149,238.259,31442,7491331.56,102,238.18,238.18,238.3,238.41,-0.005511482254697258,-0.005891409473820388,nvda,20200108
2020-01-08,10:52,10:52 AM,,,,0,0.0,0,238.68,238.425,238.619,10044,2396688.13,44,,,238.425,238.66,,-0.004389350401174913,nvda,20200108
2020-01-08,10:53,10:53 AM,,,,0,0.0,0,238.85,238.62,238.749,6013,1435596.464,37,,,238.662,238.786,,-0.0038469401804974196,nvda,20200108
2020-01-08,10:54,10:54 AM,238.85,238.81,238.844,203,48485.43,3,238.85,238.73,238.796,10046,2398948.8865,43,238.81,238.84,238.83,238.843,-0.002739039665970797,-0.003650838023790947,nvda,20200108
2020-01-08,10:55,10:55 AM,238.85,238.795,238.825,302,72125.17,4,238.939,238.765,238.862,5097,1217479.4314,33,238.835,238.83,238.87,238.81,-0.002818371607515705,-0.0033754605271392765,nvda,20200108
2020-01-08,10:56,10:56 AM,238.85,238.85,238.85,100,23885.0,1,238.905,238.8,238.845,3770,900446.2726,19,238.85,238.85,238.8,238.843,-0.0027139874739039904,-0.0034463910944586263,nvda,20200108
2020-01-08,10:57,10:57 AM,239.09,238.975,239.027,182,43502.88,2,239.07,238.89,238.998,4890,1168701.99,37,238.975,239.09,238.89,239.03,-0.0019749478079332493,-0.0028080159885843585,nvda,20200108
2020-01-08,10:58,10:58 AM,238.95,238.73,238.847,504,120379.16,6,239.05,238.73,238.858,14750,3523153.355,65,238.95,238.79,239.05,238.743,-0.0027265135699373346,-0.0033921500723908533,nvda,20200108
2020-01-08,10:59,10:59 AM,238.705,238.705,238.705,100,23870.5,1,238.81,238.61,238.691,5137,1226156.7681,38,238.705,238.705,238.81,238.669,-0.0033194154488517223,-0.004088938586645818,nvda,20200108
2020-01-08,11:00,11 AM,238.7,238.67,238.671,103,24583.1,2,238.79,238.65,238.722,4841,1155655.1576,40,238.7,238.67,238.75,238.68,-0.0034613778705637065,-0.003959594610945771,nvda,20200108
2020-01-08,11:01,11:01 AM,238.54,238.54,238.54,10,2385.4,1,238.69,238.49,238.578,5296,1263509.39,26,238.54,238.54,238.67,238.52,-0.0040083507306889685,-0.004560418240003961,nvda,20200108
2020-01-08,11:02,11:02 AM,238.67,238.57,238.62,200,47724.0,2,238.71,238.49,238.579,12991,3099377.41,65,238.67,238.57,238.55,238.49,-0.003674321503131505,-0.0045562458536910376,nvda,20200108
2020-01-08,11:03,11:03 AM,238.45,238.35,238.416,308,73431.98,5,238.5,238.25,238.402,5795,1381541.411,44,238.395,238.35,238.42,238.362,-0.004526096033402936,-0.005294758231075122,nvda,20200108
2020-01-08,11:04,11:04 AM,238.43,238.43,238.43,3,715.29,1,238.69,238.397,238.548,8177,1950610.17,25,238.43,238.43,238.4,238.69,-0.004467640918580347,-0.004685589829391084,nvda,20200108
2020-01-08,11:05,11:05 AM,238.64,238.54,238.567,8,1908.54,3,238.74,238.535,238.632,2883,687975.615,21,238.54,238.64,238.57,238.62,-0.0038956158663882787,-0.00433510937910714,nvda,20200108
2020-01-08,11:06,11:06 AM,238.75,238.63,238.71,302,72090.36,4,238.75,238.597,238.677,10940,2611122.0108,39,238.63,238.68,238.597,238.74,-0.0032985386221294033,-0.004147351995026515,nvda,20200108
2020-01-08,11:07,11:07 AM,238.77,238.77,238.77,2,477.54,1,238.88,238.695,238.774,5408,1291291.3861,36,238.77,238.77,238.715,238.88,-0.003048016701461335,-0.0037426305226747974,nvda,20200108
2020-01-08,11:08,11:08 AM,238.845,238.77,238.8,105,25073.985,4,238.89,238.78,238.833,6732,1607826.8894,22,238.845,238.77,238.865,238.844,-0.002922755741127301,-0.0034964597302134756,nvda,20200108
2020-01-08,11:09,11:09 AM,238.85,238.81,238.823,10,2388.23,3,238.95,238.81,238.883,1988,474898.9193,18,238.82,238.85,238.85,238.898,-0.0028267223382045614,-0.003287840414568231,nvda,20200108
2020-01-08,11:10,11:10 AM,,,,0,0.0,0,238.936,238.77,238.855,5758,1375325.4162,13,,,238.9,238.864,,-0.003404667231329625,nvda,20200108
2020-01-08,11:11,11:11 AM,,,,0,0.0,0,239.129,238.88,239.027,28379,6783338.7612,83,,,238.88,239.095,,-0.0026870167855101595,nvda,20200108
2020-01-08,11:12,11:12 AM,239.07,238.98,239.068,102,24384.96,2,239.13,238.98,239.023,9160,2189452.895,29,238.98,239.07,239.12,239.045,-0.0018037578288099705,-0.0027037063307617367,nvda,20200108
2020-01-08,11:13,11:13 AM,239.04,239.0,239.008,5,1195.04,2,239.17,239.0,239.059,5724,1368373.108,28,239.0,239.04,239.135,239.0,-0.0020542797494780387,-0.002553500423497189,nvda,20200108
2020-01-08,11:14,11:14 AM,,,,0,0.0,0,239.05,238.8,238.934,9472,2263179.842,39,,,238.98,238.89,,-0.0030750487126101813,nvda,20200108
2020-01-08,11:15,11:15 AM,238.94,238.8,238.928,111,26521.03,4,238.95,238.82,238.893,3668,876260.69,23,238.94,238.81,238.93,238.84,-0.002388308977035502,-0.0032461165514392296,nvda,20200108
2020-01-08,11:16,11:16 AM,,,,0,0.0,0,238.96,238.776,238.902,3092,738685.264,16,,,238.81,238.955,,-0.003208565074623152,nvda,20200108
2020-01-08,11:17,11:17 AM,,,,0,0.0,0,239.31,239.015,239.202,6643,1589016.882,38,,,239.015,239.31,,-0.001956849180751923,nvda,20200108
2020-01-08,11:18,11:18 AM,,,,0,0.0,0,239.52,239.291,239.408,12303,2945438.99,74,,,239.291,239.485,,-0.001097337600293758,nvda,20200108
2020-01-08,11:19,11:19 AM,239.52,239.46,239.519,102,24430.92,2,239.55,239.45,239.5,6070,1453768.381,29,239.46,239.52,239.46,239.55,7.933194154490796e-05,-0.0007134780595065413,nvda,20200108
2020-01-08,11:20,11:20 AM,239.575,239.52,239.563,126,30184.965,5,239.61,239.5,239.573,12416,2974540.9291,68,239.575,239.52,239.526,239.581,0.000263048016701412,-0.0004088938586645225,nvda,20200108
2020-01-08,11:21,11:21 AM,239.38,239.38,239.38,73,17474.74,1,239.58,239.28,239.446,15174,3633362.0685,48,239.38,239.38,239.58,239.28,-0.0005010438413361359,-0.0009387869204033626,nvda,20200108
2020-01-08,11:22,11:22 AM,,,,0,0.0,0,239.36,239.15,239.263,8520,2038524.775,33,,,239.33,239.275,,-0.0017023336156647532,nvda,20200108
2020-01-08,11:23,11:23 AM,,,,0,0.0,0,239.43,239.27,239.323,2846,681114.77,18,,,239.309,239.29,,-0.0014519904368905073,nvda,20200108
2020-01-08,11:24,11:24 AM,239.21,239.07,239.14,200,47828.0,3,239.3,239.048,239.192,5032,1203613.0575,20,239.21,239.07,239.3,239.163,-0.0015031315240084076,-0.0019985730438809245,nvda,20200108
2020-01-08,11:25,11:25 AM,,,,0,0.0,0,239.27,239.163,239.227,6902,1651143.0375,30,,,239.19,239.165,,-0.0018525395229293006,nvda,20200108
2020-01-08,11:26,11:26 AM,239.18,239.18,239.18,75,17938.5,1,239.17,239.07,239.133,6576,1572542.34,22,239.18,239.18,239.128,239.071,-0.0013361169102296165,-0.0022447438363422463,nvda,20200108
2020-01-08,11:27,11:27 AM,239.04,239.03,239.032,10,2390.32,2,239.247,239.0,239.085,9370,2240228.6922,52,239.04,239.03,239.1,239.0,-0.0019540709812108114,-0.002445018379361643,nvda,20200108
2020-01-08,11:28,11:28 AM,239.0,238.99,238.997,6,1433.98,2,239.38,238.87,239.17,9602,2296508.4975,50,239.0,238.99,239.0,239.27,-0.0021002087682671644,-0.0020903655427648936,nvda,20200108
2020-01-08,11:29,11:29 AM,239.9,239.58,239.788,628,150586.66,10,240.05,239.295,239.733,33321,7988150.4225,176,239.58,239.75,239.295,239.785,0.001202505219206726,0.0002586879514000936,nvda,20200108
2020-01-08,11:30,11:30 AM,239.69,239.69,239.69,100,23969.0,1,239.762,239.307,239.557,10582,2534994.7385,34,239.69,239.69,239.74,239.762,0.0007933194154488423,-0.0004756520396710671,nvda,20200108
2020-01-08,11:31,11:31 AM,239.54,239.39,239.49,30,7184.7,2,239.82,239.127,239.448,12762,3055837.352,47,239.54,239.39,239.82,239.321,-4.175365344463844e-05,-0.0009304421477775149,nvda,20200108
2020-01-08,11:32,11:32 AM,239.38,239.175,239.278,200,47855.5,2,239.48,239.175,239.358,3700,885623.86,13,239.38,239.175,239.38,239.175,-0.0009269311064718514,-0.0013059569159388836,nvda,20200108
2020-01-08,11:33,11:33 AM,239.13,239.13,239.13,100,23913.0,1,239.4,239.07,239.194,7860,1880064.05,60,239.13,239.13,239.135,239.34,-0.0015448851774530461,-0.001990228271255195,nvda,20200108
2020-01-08,11:34,11:34 AM,239.635,239.385,239.46,400,95784.0,4,239.645,239.34,239.542,7900,1892378.56,44,239.635,239.385,239.55,239.34,-0.00016701461377867242,-0.0005382378343645693,nvda,20200108
2020-01-08,11:35,11:35 AM,239.52,239.52,239.52,100,23952.0,1,239.673,239.364,239.526,8212,1966986.82,28,239.52,239.52,239.375,239.673,8.350730688939554e-05,-0.0006049960153709953,nvda,20200108
2020-01-08,11:36,11:36 AM,239.47,239.47,239.47,100,23947.0,1,239.79,239.47,239.649,7900,1893227.5,64,239.47,239.47,239.68,239.68,-0.00012526096033403398,-9.179249888385062e-05,nvda,20200108
2020-01-08,11:37,11:37 AM,240.025,240.0,240.021,40,9600.85,2,240.08,239.74,239.928,34241,8215389.7025,108,240.025,240.0,239.803,240.0,0.002175365344467585,0.0010723032824163333,nvda,20200108
2020-01-08,11:38,11:38 AM,240.45,240.06,240.254,270,64868.5,3,240.49,239.89,240.241,47186,11336017.77,152,240.06,240.45,239.93,240.45,0.003148225469728562,0.0023782601983553357,nvda,20200108
2020-01-08,11:39,11:39 AM,240.5,240.46,240.5,120,28859.96,3,240.55,240.159,240.421,39473,9490126.7052,126,240.5,240.5,240.395,240.423,0.0041753653444676405,0.0031292897346779543,nvda,20200108
2020-01-08,11:40,11:40 AM,241.0,240.505,240.833,302,72731.56,6,241.09,240.34,240.827,53249,12823826.4582,206,240.505,241.0,240.37,241.06,0.005565762004175359,0.004823278577716979,nvda,20200108
2020-01-08,11:41,11:41 AM,,,,0,0.0,0,241.36,241.023,241.175,29146,7029290.5953,124,,,241.05,241.28,,0.006275269014607604,nvda,20200108
2020-01-08,11:42,11:42 AM,241.515,241.215,241.383,1160,280004.3,5,241.52,241.17,241.33,29309,7073145.9266,176,241.26,241.515,241.25,241.5,0.007862212943632608,0.006921988893107719,nvda,20200108
2020-01-08,11:43,11:43 AM,241.53,241.46,241.49,228,55059.84,3,241.57,241.35,241.477,22925,5535873.8968,90,241.53,241.46,241.45,241.46,0.008308977035490644,0.007535329681104563,nvda,20200108
2020-01-08,11:44,11:44 AM,241.32,241.31,241.315,400,96526.0,4,241.43,241.21,241.321,19343,4667874.0268,84,241.31,241.31,241.42,241.38,0.007578288100208759,0.006884437416291523,nvda,20200108
2020-01-08,11:45,11:45 AM,241.41,241.26,241.315,1125,271479.25,7,241.41,241.09,241.273,11774,2840742.8565,55,241.295,241.26,241.33,241.09,0.007578288100208759,0.006684162873272127,nvda,20200108
2020-01-08,11:46,11:46 AM,240.96,240.865,240.898,290,69860.35,3,241.178,240.85,240.967,13892,3347510.8499,87,240.96,240.865,241.178,240.946,0.0058371607515657455,0.0054074126615235914,nvda,20200108
2020-01-08,11:47,11:47 AM,240.83,240.83,240.83,200,48166.0,2,240.965,240.697,240.818,13514,3254420.9677,47,240.83,240.83,240.965,240.75,0.005553235908142015,0.0047857271009009005,nvda,20200108
2020-01-08,11:48,11:48 AM,241.0,241.0,241.0,100,24100.0,1,241.0,240.78,240.914,27174,6546608.3595,89,241.0,241.0,240.78,240.93,0.006263048016701462,0.005186276186939576,nvda,20200108
2020-01-08,11:49,11:49 AM,,,,0,0.0,0,241.1,240.855,240.973,10938,2635767.5055,46,,,240.89,240.992,,0.0054324469794010165,nvda,20200108
2020-01-08,11:50,11:50 AM,241.045,241.045,241.045,50,12052.25,1,241.17,240.9,241.056,17754,4279702.716,36,241.045,241.045,241.008,241.115,0.006450939457202453,0.005778755043372037,nvda,20200108
2020-01-08,11:51,11:51 AM,241.15,241.15,241.15,100,24115.0,1,241.218,241.04,241.158,31833,7676784.1422,52,241.15,241.15,241.091,241.102,0.006889352818371631,0.0062043384472881356,nvda,20200108
2020-01-08,11:52,11:52 AM,241.0,241.0,241.0,100,24100.0,1,241.13,240.8,240.978,7104,1711908.81,38,241.0,241.0,241.13,241.06,0.006263048016701462,0.005453308910965517,nvda,20200108
2020-01-08,11:53,11:53 AM,240.98,240.98,240.98,100,24098.0,1,241.03,240.8,240.937,4155,1001095.085,29,240.98,240.98,241.0,240.832,0.006179540709812066,0.005282241072136469,nvda,20200108
2020-01-08,11:54,11:54 AM,240.89,240.73,240.732,492,118440.01,3,240.93,240.715,240.81,7025,1691692.507,23,240.89,240.74,240.845,240.91,0.0051440501043841305,0.004752348010397629,nvda,20200108
2020-01-08,11:55,11:55 AM,240.935,240.935,240.935,200,48187.0,1,240.951,240.7,240.864,6480,1560797.853,46,240.935,240.935,240.92,240.71,0.005991649269311074,0.00497765687129445,nvda,20200108
2020-01-08,11:56,11:56 AM,240.71,240.59,240.668,500,120334.0,3,240.75,240.59,240.688,8021,1930561.6767,57,240.68,240.71,240.75,240.68,0.004876826722338231,0.004243316880223289,nvda,20200108
2020-01-08,11:57,11:57 AM,240.51,240.51,240.51,175,42089.25,1,240.7,240.5,240.625,7388,1777736.9822,41,240.51,240.51,240.626,240.585,0.0042171189979122795,0.00398045654251039,nvda,20200108
2020-01-08,11:58,11:58 AM,,,,0,0.0,0,240.884,240.66,240.797,7889,1899650.669,36,,,240.66,240.88,,0.004698106988329856,nvda,20200108
2020-01-08,11:59,11:59 AM,240.72,240.72,240.72,100,24072.0,1,240.84,240.72,240.78,7385,1778159.4325,16,240.72,240.72,240.84,240.77,0.005093945720250517,0.004627176421010505,nvda,20200108
2020-01-08,12:00,12 PM,241.06,240.95,241.03,300,72309.0,3,241.06,240.68,240.877,17648,4251001.475,100,240.95,241.06,240.77,240.905,0.006388308977035496,0.005031897893362223,nvda,20200108
2020-01-08,12:01,12:01 PM,240.97,240.97,240.97,200,48194.0,2,241.08,240.75,240.915,6222,1498972.9474,31,240.97,240.97,240.792,241.02,0.006137787056367428,0.0051904485732525,nvda,20200108
2020-01-08,12:02,12:02 PM,,,,0,0.0,0,241.14,240.94,241.05,6598,1590450.3175,45,,,241.015,241.035,,0.005753720725494612,nvda,20200108
2020-01-08,12:03,12:03 PM,241.18,241.18,241.18,200,48236.0,2,241.18,241.0,241.096,10554,2544524.0864,33,241.18,241.18,241.0,241.142,0.007014613778705665,0.005945650495888161,nvda,20200108
2020-01-08,12:04,12:04 PM,241.095,241.045,241.045,601,144868.095,2,241.13,241.0,241.071,11183,2695896.753,35,241.095,241.045,241.11,241.09,0.006450939457202453,0.005841340838065538,nvda,20200108
2020-01-08,12:05,12:05 PM,241.245,241.21,241.227,1100,265349.5,4,241.32,241.11,241.229,13253,3197009.889,67,241.245,241.215,241.14,241.24,0.007210855949895632,0.0065005778755044255,nvda,20200108
2020-01-08,12:06,12:06 PM,241.29,241.125,241.215,856,206479.9,3,241.32,241.05,241.174,9594,2313824.09,65,241.29,241.125,241.25,241.17,0.007160751565762019,0.0062710966282946805,nvda,20200108
2020-01-08,12:07,12:07 PM,,,,0,0.0,0,241.31,241.13,241.237,7819,1886232.67,51,,,241.13,241.253,,0.006533956966007579,nvda,20200108
2020-01-08,12:08,12:08 PM,241.23,241.21,241.226,127,30635.67,2,241.43,241.19,241.302,14099,3402122.452,58,241.21,241.23,241.28,241.4,0.0072066805845511445,0.006805162076346326,nvda,20200108
2020-01-08,12:09,12:09 PM,241.35,241.28,241.28,201,48497.35,2,241.4,241.192,241.284,9681,2335870.5499,28,241.35,241.28,241.35,241.22,0.007432150313152405,0.0067300591227140525,nvda,20200108
2020-01-08,12:10,12:10 PM,241.17,241.055,241.17,901,217294.055,3,241.22,241.049,241.137,5349,1289839.3525,31,241.17,241.055,241.22,241.07,0.006972860125260908,0.006116718334717209,nvda,20200108
2020-01-08,12:11,12:11 PM,241.095,240.995,241.043,219,52788.475,4,241.127,240.97,241.044,5826,1404320.0378,26,241.045,241.095,241.127,241.11,0.006442588726513597,0.005728686407617188,nvda,20200108
2020-01-08,12:12,12:12 PM,241.095,240.875,240.901,223,53720.85,6,241.11,240.84,240.951,13787,3321992.7424,52,241.095,240.885,241.09,240.885,0.0058496868475992085,0.005340654480517047,nvda,20200108
2020-01-08,12:13,12:13 PM,240.85,240.85,240.85,250,60212.5,1,240.95,240.82,240.899,4155,1000934.408,34,240.85,240.85,240.91,240.918,0.005636743215031292,0.0051236903922460735,nvda,20200108
2020-01-08,12:14,12:14 PM,,,,0,0.0,0,240.92,240.83,240.893,2950,710634.38,13,,,240.83,240.91,,0.005098656074368649,nvda,20200108
2020-01-08,12:15,12:15 PM,,,,0,0.0,0,241.0,240.92,240.965,4179,1006994.54,20,,,240.92,240.98,,0.005399067888897744,nvda,20200108
2020-01-08,12:16,12:16 PM,,,,0,0.0,0,241.08,240.92,241.024,5628,1356482.8718,25,,,240.92,241.031,,0.005645238681359066,nvda,20200108
2020-01-08,12:17,12:17 PM,,,,0,0.0,0,241.12,240.92,241.018,5962,1436951.455,35,,,240.994,241.01,,0.005620204363481642,nvda,20200108
2020-01-08,12:18,12:18 PM,,,,0,0.0,0,241.09,240.89,240.952,5117,1232952.5963,21,,,240.964,241.09,,0.005344826866829971,nvda,20200108
2020-01-08,12:19,12:19 PM,241.035,240.97,241.019,400,96407.5,2,241.064,240.92,241.015,10503,2531379.137,22,241.035,240.97,241.06,240.941,0.006342379958246369,0.00560768720454287,nvda,20200108
2020-01-08,12:20,12:20 PM,,,,0,0.0,0,240.96,240.75,240.852,4396,1058783.73,37,,,240.91,240.82,,0.004927588235539601,nvda,20200108
2020-01-08,12:21,12:21 PM,240.95,240.795,240.836,401,96575.36,5,240.95,240.73,240.807,5578,1343223.78,31,240.8,240.95,240.76,240.95,0.005578288100208821,0.004739830851458857,nvda,20200108
2020-01-08,12:22,12:22 PM,,,,0,0.0,0,241.0,240.904,240.943,2094,504534.766,16,,,240.954,240.957,,0.005307275390013893,nvda,20200108
2020-01-08,12:23,12:23 PM,240.96,240.96,240.96,50,12048.0,1,241.03,240.92,240.976,4681,1128007.5444,33,240.96,240.96,240.93,240.92,0.006096033402922789,0.00544496413833967,nvda,20200108
2020-01-08,12:24,12:24 PM,240.91,240.9,240.91,110,26500.05,3,240.95,240.91,240.926,5056,1218121.9066,35,240.91,240.9,240.921,240.91,0.00588726513569936,0.005236344822694425,nvda,20200108
2020-01-08,12:25,12:25 PM,,,,0,0.0,0,241.12,240.93,241.024,4605,1109915.88,36,,,240.94,240.99,,0.005645238681359066,nvda,20200108
2020-01-08,12:26,12:26 PM,240.95,240.95,240.95,100,24095.0,1,241.08,240.95,241.007,5170,1246007.5,21,240.95,240.95,241.03,240.95,0.006054279749478032,0.005574308114039716,nvda,20200108
2020-01-08,12:27,12:27 PM,,,,0,0.0,0,241.04,240.92,240.986,3751,903939.5166,20,,,240.957,240.97,,0.005486688001468671,nvda,20200108
2020-01-08,12:28,12:28 PM,,,,0,0.0,0,241.01,240.94,240.982,3513,846568.81,24,,,240.98,240.94,,0.005469998456217094,nvda,20200108
2020-01-08,12:29,12:29 PM,240.955,240.955,240.955,14,3373.37,1,240.96,240.85,240.905,2419,582749.98,20,240.955,240.955,240.96,240.9,0.00607515657620047,0.005148724710123498,nvda,20200108
2020-01-08,12:30,12:30 PM,240.97,240.915,240.969,101,24337.915,2,241.0,240.93,240.958,3038,732030.4242,20,240.915,240.97,240.94,240.99,0.00613361169102294,0.005369861184707395,nvda,20200108
2020-01-08,12:31,12:31 PM,,,,0,0.0,0,241.05,240.89,240.969,3063,738087.49,22,,,241.02,240.89,,0.005415757434149321,nvda,20200108
2020-01-08,12:32,12:32 PM,,,,0,0.0,0,240.875,240.75,240.812,5309,1278472.5156,26,,,240.875,240.873,,0.004760692783023476,nvda,20200108
2020-01-08,12:33,12:33 PM,,,,0,0.0,0,240.95,240.878,240.918,1205,290306.5985,11,,,240.95,240.94,,0.0052029657321912715,nvda,20200108
2020-01-08,12:34,12:34 PM,,,,0,0.0,0,240.963,240.828,240.878,2946,709628.0018,20,,,240.963,240.85,,0.005036070279675028,nvda,20200108
2020-01-08,12:35,12:35 PM,240.78,240.74,240.742,112,26963.06,3,240.85,240.73,240.761,8006,1927531.2483,49,240.78,240.74,240.8,240.78,0.0051858037578287695,0.004547901081065308,nvda,20200108
2020-01-08,12:36,12:36 PM,240.75,240.71,240.74,500,120370.0,3,240.8,240.651,240.727,9981,2402699.42,57,240.75,240.745,240.731,240.651,0.005177453027139913,0.004406039946426609,nvda,20200108
2020-01-08,12:37,12:37 PM,240.715,240.715,240.715,100,24071.5,1,240.75,240.68,240.722,3774,908485.274,17,240.715,240.715,240.72,240.727,0.005073068893528198,0.004385178014862107,nvda,20200108
2020-01-08,12:38,12:38 PM,240.68,240.68,240.68,100,24068.0,1,240.85,240.68,240.797,4310,1037836.77,21,240.68,240.68,240.68,240.82,0.004926931106471845,0.004698106988329856,nvda,20200108
2020-01-08,12:39,12:39 PM,,,,0,0.0,0,240.89,240.777,240.818,4077,981815.1252,22,,,240.83,240.86,,0.0047857271009009005,nvda,20200108
2020-01-08,12:40,12:40 PM,240.78,240.745,240.76,301,72468.755,3,240.85,240.729,240.782,11607,2794753.5,54,240.745,240.78,240.85,240.73,0.00526096033402919,0.0046355211936363536,nvda,20200108
2020-01-08,12:41,12:41 PM,,,,0,0.0,0,240.789,240.706,240.744,3538,851752.532,20,,,240.725,240.731,,0.004476970513745958,nvda,20200108
2020-01-08,12:42,12:42 PM,240.845,240.765,240.766,102,24558.165,3,240.86,240.732,240.812,6286,1513742.605,38,240.765,240.845,240.732,240.843,0.005286012526095996,0.004760692783023476,nvda,20200108
2020-01-08,12:43,12:43 PM,240.855,240.78,240.831,503,121137.965,8,240.867,240.71,240.812,4518,1087990.46,26,240.83,240.78,240.83,240.78,0.005557411273486384,0.004760692783023476,nvda,20200108
2020-01-08,12:44,12:44 PM,240.84,240.76,240.762,102,24557.68,2,240.89,240.76,240.845,3235,779132.6582,14,240.76,240.84,240.76,240.875,0.0052693110647181645,0.004898381531349252,nvda,20200108
2020-01-08,12:45,12:45 PM,,,,0,0.0,0,240.96,240.854,240.912,2362,569035.1239,16,,,240.854,240.89,,0.0051779314143138465,nvda,20200108
2020-01-08,12:46,12:46 PM,,,,0,0.0,0,240.898,240.797,240.831,3290,792333.7988,19,,,240.898,240.797,,0.0048399681229685555,nvda,20200108
2020-01-08,12:47,12:47 PM,,,,0,0.0,0,240.905,240.76,240.841,6274,1511035.3904,23,,,240.81,240.831,,0.004881691986097675,nvda,20200108
2020-01-08,12:48,12:48 PM,240.91,240.91,240.91,200,48182.0,2,240.915,240.82,240.86,3250,782794.78,19,240.91,240.91,240.87,240.87,0.00588726513569936,0.004960967326042873,nvda,20200108
2020-01-08,12:49,12:49 PM,241.03,240.9,240.923,133,32042.815,5,241.08,240.875,241.01,11259,2713537.14,65,240.9,241.03,240.88,241.08,0.005941544885177461,0.005586825272978369,nvda,20200108
2020-01-08,12:50,12:50 PM,241.02,240.92,240.97,200,48194.0,2,241.08,240.92,241.021,7050,1699198.7099,46,241.02,240.92,241.08,240.975,0.006137787056367428,0.005632721522420294,nvda,20200108
2020-01-08,12:51,12:51 PM,241.13,241.105,241.125,5,1205.625,3,241.14,240.96,241.039,9103,2194179.7431,57,241.105,241.13,240.96,241.099,0.006784968684759917,0.005707824476052568,nvda,20200108
2020-01-08,12:52,12:52 PM,,,,0,0.0,0,241.15,240.95,241.068,6529,1573933.6616,30,,,241.07,241.131,,0.005828823679126886,nvda,20200108
2020-01-08,12:53,12:53 PM,241.2,241.2,241.2,110,26532.0,2,241.21,241.07,241.153,7693,1855193.22,45,241.2,241.2,241.15,241.21,0.007098121085594942,0.006183476515723635,nvda,20200108
2020-01-08,12:54,12:54 PM,241.21,241.17,241.197,150,36179.5,2,241.21,241.11,241.189,10298,2483760.63,34,241.17,241.21,241.194,241.21,0.007085594989561598,0.006333682422988183,nvda,20200108
2020-01-08,12:55,12:55 PM,241.23,241.16,241.207,3,723.62,2,241.3,241.15,241.244,11169,2694455.4598,45,241.16,241.23,241.15,241.18,0.007127348643006236,0.006563163670197928,nvda,20200108
2020-01-08,12:56,12:56 PM,,,,0,0.0,0,241.3,241.15,241.203,4156,1002440.7632,31,,,241.18,241.25,,0.0063920958313688795,nvda,20200108
2020-01-08,12:57,12:57 PM,241.33,241.31,241.314,125,30164.25,2,241.37,241.28,241.333,10052,2425879.9126,46,241.33,241.31,241.28,241.31,0.007574112734864271,0.006934506052046372,nvda,20200108
2020-01-08,12:58,12:58 PM,241.37,241.335,241.347,300,72404.0,3,241.37,241.27,241.34,4915,1186184.83,23,241.335,241.335,241.27,241.329,0.007711899791231768,0.006963712756236721,nvda,20200108
2020-01-08,12:59,12:59 PM,241.3,241.26,241.28,200,48256.0,2,241.3,241.12,241.228,1450,349781.19,9,241.3,241.26,241.3,241.137,0.007432150313152405,0.006496405489191502,nvda,20200108
2020-01-08,13:00,1 PM,241.195,241.14,241.17,104,25081.725,3,241.308,241.095,241.198,2362,569709.18,20,241.14,241.195,241.165,241.308,0.006972860125260908,0.006371233899804379,nvda,20200108
2020-01-08,13:01,1:01 PM,,,,0,0.0,0,241.26,241.066,241.167,2766,667067.215,21,,,241.26,241.066,,0.006241889924104332,nvda,20200108
2020-01-08,13:02,1:02 PM,240.995,240.965,240.968,23,5542.255,2,241.175,240.93,241.055,3260,785838.354,24,240.965,240.995,241.063,240.999,0.006129436325678452,0.005774582657059112,nvda,20200108
2020-01-08,13:03,1:03 PM,241.09,241.055,241.08,303,73047.165,4,241.13,240.993,241.075,11041,2661712.3744,37,241.09,241.055,240.993,241.07,0.0065970772442589245,0.005858030383317115,nvda,20200108
2020-01-08,13:04,1:04 PM,241.015,241.015,241.015,1,241.015,1,241.065,240.99,241.024,1600,385638.36,11,241.015,241.015,241.03,241.065,0.006325678496868419,0.005645238681359066,nvda,20200108
2020-01-08,13:05,1:05 PM,241.015,240.97,241.014,101,24342.47,2,241.08,240.943,241.016,1700,409727.0,14,240.97,241.015,241.06,241.015,0.00632150313152405,0.005611859590855793,nvda,20200108
2020-01-08,13:06,1:06 PM,241.18,241.09,241.097,108,26038.44,2,241.15,241.04,241.105,1800,433988.5,12,241.09,241.18,241.05,241.139,0.006668058455114857,0.005983201972704239,nvda,20200108
2020-01-08,13:07,1:07 PM,241.175,241.175,241.175,100,24117.5,1,241.18,241.07,241.102,1780,429161.1,13,241.175,241.175,241.175,241.07,0.006993736951983346,0.005970684813765586,nvda,20200108
2020-01-08,13:08,1:08 PM,241.185,241.085,241.145,5,1205.725,2,241.186,241.11,241.161,4937,1190614.74,23,241.085,241.185,241.11,241.186,0.006868475991649312,0.0062168556062269075,nvda,20200108
2020-01-08,13:09,1:09 PM,241.11,241.11,241.11,3,723.33,1,241.15,241.07,241.116,3840,925885.26,17,241.11,241.11,241.14,241.1,0.0067223382045929585,0.006029098222146282,nvda,20200108
2020-01-08,13:10,1:10 PM,240.975,240.975,240.975,1,240.975,1,241.1,240.87,240.941,8362,2014752.5225,38,240.975,240.975,241.095,240.92,0.006158663883089746,0.0052989306173880455,nvda,20200108
2020-01-08,13:11,1:11 PM,240.975,240.975,240.975,3,722.925,1,240.99,240.9,240.922,2453,590981.771,10,240.975,240.975,240.96,240.91,0.006158663883089746,0.005219655277442848,nvda,20200108
2020-01-08,13:12,1:12 PM,240.955,240.82,240.823,97,23359.81,3,240.98,240.821,240.904,10624,2559368.1071,57,240.955,240.82,240.95,240.87,0.00552400835073072,0.005144552323810574,nvda,20200108
2020-01-08,13:13,1:13 PM,240.82,240.82,240.82,5,1204.1,1,241.03,240.86,240.945,3510,845718.3898,22,240.82,240.82,240.86,241.03,0.005511482254697258,0.005315620162639622,nvda,20200108
2020-01-08,13:14,1:14 PM,241.04,241.04,241.04,100,24104.0,1,241.06,240.97,241.012,8515,2052220.2542,34,241.04,241.04,241.015,241.031,0.006430062630480134,0.005595170045604217,nvda,20200108
2020-01-08,13:15,1:15 PM,240.975,240.975,240.975,8,1927.8,1,241.025,240.94,240.977,3612,870408.55,24,240.975,240.975,241.0,240.971,0.006158663883089746,0.005449136524652593,nvda,20200108
2020-01-08,13:16,1:16 PM,,,,0,0.0,0,240.995,240.87,240.938,1909,459950.96,15,,,240.98,240.89,,0.005286413458449274,nvda,20200108
2020-01-08,13:17,1:17 PM,240.8,240.8,240.8,100,24080.0,2,240.89,240.71,240.789,7649,1841798.78,40,240.8,240.8,240.848,240.82,0.005427974947807981,0.0046647278978265835,nvda,20200108
2020-01-08,13:18,1:18 PM,,,,0,0.0,0,240.9,240.811,240.845,2269,546478.09,13,,,240.84,240.9,,0.004898381531349252,nvda,20200108
2020-01-08,13:19,1:19 PM,,,,0,0.0,0,240.98,240.867,240.914,5884,1417536.0214,25,,,240.867,240.96,,0.005186276186939576,nvda,20200108
2020-01-08,13:20,1:20 PM,240.93,240.93,240.93,93,22406.49,1,240.97,240.892,240.909,3376,813308.5,13,240.93,240.93,240.97,240.9,0.005970772442588755,0.005165414255375075,nvda,20200108
2020-01-08,13:21,1:21 PM,,,,0,0.0,0,240.91,240.821,240.859,1509,363456.8346,12,,,240.85,240.87,,0.004956794939729949,nvda,20200108
2020-01-08,13:22,1:22 PM,240.98,240.88,240.915,300,72274.5,3,240.98,240.86,240.945,3224,776806.7464,16,240.88,240.98,240.88,240.98,0.005908141962421678,0.005315620162639622,nvda,20200108
2020-01-08,13:23,1:23 PM,240.98,240.98,240.98,3,722.94,1,241.087,240.945,240.995,3026,729251.6459,24,240.98,240.98,240.975,241.087,0.006179540709812066,0.005524239478284867,nvda,20200108
2020-01-08,13:24,1:24 PM,,,,0,0.0,0,241.23,241.075,241.143,7099,1711875.5615,27,,,241.091,241.225,,0.006141752652594634,nvda,20200108
2020-01-08,13:25,1:25 PM,241.21,241.21,241.21,2,482.42,1,241.26,241.188,241.242,9492,2289872.5983,29,241.21,241.21,241.226,241.209,0.007139874739039699,0.0065548188975720805,nvda,20200108
2020-01-08,13:26,1:26 PM,,,,0,0.0,0,241.225,241.18,241.202,2338,563930.6456,18,,,241.225,241.194,,0.006387923445055956,nvda,20200108
2020-01-08,13:27,1:27 PM,241.215,241.175,241.2,363,87555.545,3,241.261,241.16,241.195,2994,722136.4143,25,241.2,241.215,241.169,241.21,0.007098121085594942,0.006358716740865607,nvda,20200108
2020-01-08,13:28,1:28 PM,241.2,241.16,241.199,104,25084.745,3,241.211,241.15,241.196,3809,918715.53,28,241.2,241.16,241.2,241.15,0.0070939457202505735,0.006362889127178531,nvda,20200108
2020-01-08,13:29,1:29 PM,241.155,241.09,241.133,303,73063.42,4,241.18,241.09,241.142,4104,989648.6735,22,241.155,241.09,241.145,241.09,0.0068183716075156985,0.0061375802662817095,nvda,20200108
2020-01-08,13:30,1:30 PM,241.125,241.025,241.059,304,73282.0,4,241.14,241.02,241.068,5625,1356006.9699,41,241.125,241.025,241.14,241.051,0.006509394572025042,0.005828823679126886,nvda,20200108
2020-01-08,13:31,1:31 PM,241.11,241.04,241.054,369,88949.06,5,241.11,241.04,241.073,3341,805426.723,26,241.065,241.04,241.04,241.076,0.006488517745302722,0.005849685610691387,nvda,20200108
2020-01-08,13:32,1:32 PM,241.105,241.0,241.028,336,80985.54,4,241.14,240.97,241.049,13683,3298275.535,51,241.0,241.105,241.02,241.12,0.00637995824634652,0.005749548339181688,nvda,20200108
2020-01-08,13:33,1:33 PM,241.15,241.045,241.118,330,79568.845,6,241.17,241.045,241.119,4494,1083588.8108,29,241.14,241.045,241.14,241.06,0.006755741127348622,0.0060416153810849355,nvda,20200108
2020-01-08,13:34,1:34 PM,241.085,241.04,241.055,504,121491.565,12,241.11,241.02,241.054,6693,1613374.34,43,241.04,241.06,241.05,241.04,0.00649269311064721,0.005770410270746189,nvda,20200108
2020-01-08,13:35,1:35 PM,241.19,241.19,241.19,100,24119.0,1,241.21,241.037,241.153,3041,733347.75,20,241.19,241.19,241.04,241.19,0.007056367432150303,0.006183476515723635,nvda,20200108
2020-01-08,13:36,1:36 PM,241.21,241.16,241.177,300,72353.0,3,241.23,241.15,241.175,4592,1107476.6148,28,241.16,241.21,241.18,241.15,0.007002087682672202,0.006275269014607604,nvda,20200108
2020-01-08,13:37,1:37 PM,241.285,241.17,241.238,600,144743.0,6,241.285,241.17,241.26,10304,2485945.4476,57,241.185,241.25,241.185,241.224,0.007256784968684758,0.006629921851204354,nvda,20200108
2020-01-08,13:38,1:38 PM,241.17,241.135,241.153,400,96461.0,4,241.197,241.12,241.161,12043,2904305.4936,30,241.135,241.15,241.18,241.17,0.0069018789144049755,0.0062168556062269075,nvda,20200108
2020-01-08,13:39,1:39 PM,241.25,241.175,241.213,200,48242.5,2,241.3,241.13,241.23,10625,2563066.6566,51,241.175,241.25,241.175,241.263,0.007152400835073043,0.006504750261817231,nvda,20200108
2020-01-08,13:40,1:40 PM,241.315,241.3,241.308,200,48261.5,2,241.323,241.15,241.245,4674,1127579.49,37,241.3,241.315,241.28,241.16,0.007549060542797465,0.0065673360565108516,nvda,20200108
2020-01-08,13:41,1:41 PM,,,,0,0.0,0,241.32,241.177,241.239,1652,398527.815,13,,,241.2,241.32,,0.006542301738633427,nvda,20200108
2020-01-08,13:42,1:42 PM,241.43,241.43,241.43,100,24143.0,1,241.45,241.33,241.373,4978,1201556.2864,35,241.43,241.43,241.33,241.45,0.008058455114822576,0.007101401504562497,nvda,20200108
2020-01-08,13:43,1:43 PM,241.435,241.43,241.433,400,96573.0,4,241.47,241.374,241.439,10500,2535110.3877,49,241.43,241.435,241.419,241.435,0.00807098121085592,0.007376779001214168,nvda,20200108
2020-01-08,13:44,1:44 PM,241.535,241.425,241.468,500,120734.065,7,241.56,241.42,241.491,18028,4353594.835,90,241.425,241.43,241.43,241.47,0.008217118997912273,0.0075937430894852595,nvda,20200108
2020-01-08,13:45,1:45 PM,241.48,241.32,241.411,497,119981.32,6,241.5,241.323,241.413,13474,3252804.28,48,241.32,241.46,241.47,241.45,0.007979123173277668,0.00726829695707874,nvda,20200108
2020-01-08,13:46,1:46 PM,241.41,241.4,241.409,9,2172.68,2,241.445,241.385,241.405,4057,979380.8564,21,241.4,241.41,241.445,241.42,0.007970772442588692,0.007234917866575468,nvda,20200108
2020-01-08,13:47,1:47 PM,241.425,241.41,241.415,307,74114.37,4,241.45,241.38,241.414,2128,513728.4232,20,241.425,241.41,241.45,241.41,0.007995824634655499,0.007272469343391545,nvda,20200108
2020-01-08,13:48,1:48 PM,241.46,241.44,241.46,201,48533.44,3,241.48,241.41,241.446,2949,712025.94,16,241.44,241.46,241.41,241.48,0.008183716075156609,0.0074059857054045155,nvda,20200108
2020-01-08,13:49,1:49 PM,,,,0,0.0,0,241.46,241.38,241.419,2450,591476.54,17,,,241.44,241.43,,0.007293331274956165,nvda,20200108
2020-01-08,13:50,1:50 PM,241.42,241.41,241.417,300,72425.0,3,241.44,241.37,241.406,1600,386248.97,11,241.41,241.42,241.37,241.399,0.008004175365344474,0.007239090252888392,nvda,20200108
2020-01-08,13:51,1:51 PM,241.34,241.34,241.34,100,24134.0,1,241.4,241.33,241.362,3659,883145.26,26,241.34,241.34,241.372,241.4,0.007682672233820473,0.0070555052551205715,nvda,20200108
2020-01-08,13:52,1:52 PM,241.33,241.215,241.266,180,43427.9,2,241.37,241.18,241.253,7476,1803610.7369,26,241.33,241.215,241.37,241.186,0.0073736951983298165,0.006600715147014005,nvda,20200108
2020-01-08,13:53,1:53 PM,241.275,241.13,241.193,300,72358.0,4,241.275,241.175,241.212,2800,675394.445,25,241.175,241.13,241.22,241.187,0.007068893528183766,0.006429647308184957,nvda,20200108
2020-01-08,13:54,1:54 PM,241.24,241.12,241.195,419,101060.63,6,241.249,241.08,241.173,3660,882692.3714,26,241.12,241.24,241.09,241.24,0.007077244258872623,0.006266924241981757,nvda,20200108
2020-01-08,13:55,1:55 PM,,,,0,0.0,0,241.31,241.22,241.271,4638,1119013.16,18,,,241.22,241.22,,0.0066758181006462795,nvda,20200108
2020-01-08,13:56,1:56 PM,241.265,241.16,241.253,116,27985.36,3,241.265,241.09,241.19,2400,578855.22,21,241.265,241.16,241.225,241.09,0.0073194154488517155,0.006337854809301107,nvda,20200108
2020-01-08,13:57,1:57 PM,241.1,241.005,241.037,500,120518.5,4,241.121,240.96,241.042,7981,1923759.5028,48,241.1,241.015,241.121,241.04,0.0064175365344467895,0.005720341634991339,nvda,20200108
2020-01-08,13:58,1:58 PM,241.015,241.015,241.015,100,24101.5,1,241.015,240.9,240.93,4893,1178869.83,21,241.015,241.015,241.01,240.92,0.006325678496868419,0.00525303436794612,nvda,20200108
2020-01-08,13:59,1:59 PM,240.97,240.955,240.962,446,107469.005,7,241.0,240.91,240.965,7779,1874465.124,33,240.96,240.955,240.916,240.91,0.006104384133611645,0.005399067888897744,nvda,20200108
2020-01-08,14:00,2 PM,241.0,240.93,240.966,410,98796.0,5,241.04,240.85,240.962,6398,1541676.7911,51,240.955,240.95,240.99,240.88,0.006121085594989596,0.005386550729958972,nvda,20200108
2020-01-08,14:01,2:01 PM,241.02,240.9,240.913,1222,294396.06,19,241.04,240.85,240.95,12768,3076451.4787,56,240.9,241.02,240.872,240.99,0.005899791231732822,0.005336482094204123,nvda,20200108
2020-01-08,14:02,2:02 PM,241.01,241.01,241.01,100,24101.0,1,241.175,241.01,241.114,10547,2543025.8603,35,241.01,241.01,241.01,241.09,0.0063048016701461,0.006020753449520435,nvda,20200108
2020-01-08,14:03,2:03 PM,241.175,241.175,241.175,3,723.525,1,241.2,241.06,241.141,6753,1628424.2312,44,241.175,241.175,241.122,241.17,0.006993736951983346,0.006133407879968786,nvda,20200108
2020-01-08,14:04,2:04 PM,241.17,241.14,241.158,300,72347.5,4,241.19,241.08,241.114,4679,1128173.3355,20,241.14,241.165,241.165,241.125,0.006922755741127294,0.006020753449520435,nvda,20200108
2020-01-08,14:05,2:05 PM,241.32,241.265,241.292,200,48258.5,2,241.348,241.133,241.281,12630,3047376.8241,44,241.265,241.32,241.133,241.325,0.0074822546972860195,0.006717541963775399,nvda,20200108
2020-01-08,14:06,2:06 PM,241.45,241.28,241.372,503,121410.28,8,241.458,241.26,241.403,14401,3476437.44,43,241.31,241.43,241.34,241.4,0.007816283924843483,0.00722657309394962,nvda,20200108
2020-01-08,14:07,2:07 PM,241.46,241.46,241.46,8,1931.68,1,241.5,241.415,241.472,11985,2894043.1142,62,241.46,241.46,241.45,241.47,0.008183716075156609,0.007514467749540062,nvda,20200108
2020-01-08,14:08,2:08 PM,241.395,241.375,241.39,136,32829.0,2,241.44,241.368,241.394,5780,1395256.49,33,241.375,241.395,241.427,241.39,0.007891440501043784,0.0071890216171335425,nvda,20200108
2020-01-08,14:09,2:09 PM,,,,0,0.0,0,241.385,241.23,241.3,4654,1123009.117,27,,,241.385,241.32,,0.0067968173037205966,nvda,20200108
2020-01-08,14:10,2:10 PM,241.21,241.205,241.207,300,72362.0,3,241.325,241.13,241.236,9127,2201761.3132,32,241.205,241.205,241.323,241.188,0.007127348643006236,0.006529784579694655,nvda,20200108
2020-01-08,14:11,2:11 PM,241.32,241.225,241.283,409,98684.655,7,241.32,241.188,241.229,9329,2250425.011,57,241.225,241.28,241.195,241.25,0.007444676409185749,0.0065005778755044255,nvda,20200108
2020-01-08,14:12,2:12 PM,241.35,241.225,241.3,142,34264.575,4,241.41,241.225,241.329,7700,1858236.71,28,241.225,241.35,241.225,241.363,0.007515657620041801,0.006917816506794796,nvda,20200108
2020-01-08,14:13,2:13 PM,241.51,241.395,241.412,304,73389.395,9,241.55,241.31,241.494,24179,5839074.9412,87,241.405,241.51,241.36,241.53,0.007983298538622155,0.007606260248423913,nvda,20200108
2020-01-08,14:14,2:14 PM,241.48,241.48,241.48,200,48296.0,1,241.505,241.38,241.45,4277,1032680.6112,30,241.48,241.48,241.505,241.395,0.008267223382045887,0.007422675250656093,nvda,20200108
2020-01-08,14:15,2:15 PM,241.47,241.325,241.374,4300,1037906.46,22,241.45,241.32,241.377,20536,4956927.1821,92,241.4,241.38,241.4,241.32,0.007824634655532339,0.007118091049814193,nvda,20200108
2020-01-08,14:16,2:16 PM,241.49,241.3,241.374,1335,322233.725,12,241.5,241.295,241.419,8080,1950664.4738,34,241.3,241.49,241.3,241.5,0.007824634655532339,0.007293331274956165,nvda,20200108
2020-01-08,14:17,2:17 PM,241.55,241.55,241.55,23,5555.65,1,241.589,241.469,241.559,13188,3185686.0359,42,241.55,241.55,241.469,241.52,0.008559498956158712,0.007877465358762659,nvda,20200108
2020-01-08,14:18,2:18 PM,241.64,241.6,241.62,200,48324.0,3,241.65,241.55,241.62,14675,3545771.63,62,241.6,241.64,241.57,241.575,0.008851774530271419,0.008131980923849829,nvda,20200108
2020-01-08,14:19,2:19 PM,241.465,241.45,241.458,200,48291.5,2,241.586,241.38,241.46,24415,5895241.6862,83,241.45,241.465,241.565,241.4,0.008175365344467634,0.007464399113785213,nvda,20200108
2020-01-08,14:20,2:20 PM,241.52,241.34,241.451,438,105755.645,7,241.52,241.275,241.409,8936,2157231.4434,36,241.345,241.48,241.365,241.48,0.00814613778705634,0.007251607411827045,nvda,20200108
2020-01-08,14:21,2:21 PM,241.59,241.575,241.575,62,14977.68,2,241.6,241.475,241.548,5861,1415715.8345,21,241.575,241.59,241.51,241.55,0.008663883089770308,0.007831569109320733,nvda,20200108
2020-01-08,14:22,2:22 PM,241.57,241.57,241.57,71,17151.47,1,241.61,241.51,241.566,4335,1047190.28,28,241.57,241.57,241.555,241.57,0.008643006263047988,0.007906672062953007,nvda,20200108
2020-01-08,14:23,2:23 PM,241.625,241.625,241.625,100,24162.5,1,241.65,241.47,241.583,8790,2123510.26,54,241.625,241.625,241.595,241.49,0.008872651356993737,0.007977602630272357,nvda,20200108
2020-01-08,14:24,2:24 PM,241.42,241.42,241.42,50,12071.0,1,241.485,241.35,241.417,6145,1483507.2266,34,241.42,241.42,241.485,241.4,0.008016701461377819,0.0072849865023303165,nvda,20200108
2020-01-08,14:25,2:25 PM,241.45,241.45,241.45,7,1690.15,1,241.52,241.41,241.473,3012,727315.889,24,241.45,241.45,241.46,241.51,0.008141962421711852,0.007518640135852986,nvda,20200108
2020-01-08,14:26,2:26 PM,,,,0,0.0,0,241.62,241.48,241.528,4221,1019488.6664,30,,,241.51,241.59,,0.007748121383062612,nvda,20200108
2020-01-08,14:27,2:27 PM,241.46,241.46,241.46,200,48292.0,2,241.591,241.428,241.51,2198,530838.183,21,241.46,241.46,241.57,241.46,0.008183716075156609,0.007673018429430339,nvda,20200108
2020-01-08,14:28,2:28 PM,241.46,241.39,241.438,134,32352.64,4,241.48,241.338,241.392,4825,1164715.6,40,241.46,241.39,241.48,241.35,0.00809185803757824,0.007180676844507695,nvda,20200108
2020-01-08,14:29,2:29 PM,241.25,241.25,241.25,10,2412.5,1,241.338,241.2,241.273,6237,1504820.64,41,241.25,241.25,241.31,241.26,0.007306889352818371,0.006684162873272127,nvda,20200108
2020-01-08,14:30,2:30 PM,241.225,241.22,241.222,200,48244.5,2,241.26,241.06,241.194,6428,1550396.6707,48,241.22,241.225,241.25,241.06,0.007189979123173313,0.006354544354552683,nvda,20200108
2020-01-08,14:31,2:31 PM,241.15,241.03,241.122,310,74747.8,4,241.15,241.01,241.073,7725,1862292.5023,52,241.1,241.03,241.1,241.07,0.006772442588726573,0.005849685610691387,nvda,20200108
2020-01-08,14:32,2:32 PM,241.09,241.06,241.087,225,54244.5,2,241.12,241.06,241.086,5410,1304275.357,27,241.06,241.09,241.071,241.06,0.0066263048016701005,0.00590392663275916,nvda,20200108
2020-01-08,14:33,2:33 PM,241.165,241.11,241.155,127,30626.67,3,241.192,241.05,241.122,2777,669595.962,25,241.11,241.165,241.06,241.13,0.006910229645093951,0.006054132540023707,nvda,20200108
2020-01-08,14:34,2:34 PM,241.125,241.08,241.096,400,96438.5,5,241.18,241.044,241.075,8450,2037086.81,47,241.09,241.125,241.129,241.18,0.00666388308977037,0.005858030383317115,nvda,20200108
2020-01-08,14:35,2:35 PM,241.135,241.12,241.128,302,72820.76,3,241.18,241.072,241.106,6699,1615167.17,33,241.135,241.13,241.18,241.15,0.00679749478079326,0.0059873743590171625,nvda,20200108
2020-01-08,14:36,2:36 PM,241.18,241.145,241.162,205,49438.25,3,241.2,241.12,241.157,3834,924596.55,30,241.145,241.18,241.142,241.17,0.006939457202505245,0.006200166060975331,nvda,20200108
2020-01-08,14:37,2:37 PM,241.225,241.15,241.159,126,30385.975,3,241.22,241.135,241.163,3300,795837.34,22,241.19,241.15,241.182,241.18,0.006926931106471782,0.006225200378852755,nvda,20200108
2020-01-08,14:38,2:38 PM,241.235,241.19,241.213,203,48966.175,8,241.299,241.18,241.225,3996,963933.9075,28,241.19,241.225,241.192,241.25,0.007152400835073043,0.00648388833025273,nvda,20200108
2020-01-08,14:39,2:39 PM,241.2,241.1,241.17,208,50163.3,3,241.205,241.09,241.146,4449,1072858.7312,24,241.2,241.145,241.2,241.145,0.006972860125260908,0.006154269811533287,nvda,20200108
2020-01-08,14:40,2:40 PM,241.19,241.115,241.137,444,107064.86,4,241.2,241.09,241.131,5694,1372998.18,32,241.115,241.19,241.12,241.18,0.00683507306889353,0.006091684016839785,nvda,20200108
2020-01-08,14:41,2:41 PM,,,,0,0.0,0,241.2,241.13,241.164,3550,856132.185,22,,,241.2,241.19,,0.006229372765165561,nvda,20200108
2020-01-08,14:42,2:42 PM,241.14,241.14,241.14,100,24114.0,1,241.18,241.062,241.093,7037,1696572.6634,21,241.14,241.14,241.13,241.18,0.0068475991649268745,0.0059331333369493896,nvda,20200108
2020-01-08,14:43,2:43 PM,241.15,241.12,241.132,202,48708.77,5,241.17,241.12,241.133,2730,658292.303,16,241.12,241.135,241.145,241.13,0.006814196242171211,0.006100028789465632,nvda,20200108
2020-01-08,14:44,2:44 PM,241.245,241.16,241.171,213,51369.4,7,241.23,241.12,241.184,2886,696056.49,26,241.16,241.245,241.12,241.21,0.006977035490605396,0.006312820491423682,nvda,20200108
2020-01-08,14:45,2:45 PM,241.185,241.18,241.18,103,24841.55,3,241.21,241.15,241.172,1800,434109.49,12,241.18,241.185,241.2,241.21,0.007014613778705665,0.006262751855668833,nvda,20200108
2020-01-08,14:46,2:46 PM,241.185,241.11,241.159,104,25080.515,4,241.187,241.03,241.09,11961,2883678.3294,54,241.185,241.11,241.18,241.11,0.006926931106471782,0.005920616178010736,nvda,20200108
2020-01-08,14:47,2:47 PM,241.31,241.2,241.242,122,29431.49,8,241.32,241.155,241.256,14170,3418595.045,66,241.2,241.28,241.155,241.265,0.00727348643006259,0.006613232305952777,nvda,20200108
2020-01-08,14:48,2:48 PM,241.255,241.17,241.171,105,25322.995,6,241.23,241.15,241.18,2305,555920.625,17,241.255,241.17,241.23,241.15,0.006977035490605396,0.006296130946172105,nvda,20200108
2020-01-08,14:49,2:49 PM,241.125,241.08,241.109,108,26039.77,6,241.18,241.07,241.124,3583,863947.95,22,241.09,241.125,241.15,241.13,0.006718162839248472,0.006062477312649436,nvda,20200108
2020-01-08,14:50,2:50 PM,241.175,241.125,241.14,106,25560.845,6,241.23,241.1,241.145,4211,1015460.4138,27,241.125,241.175,241.14,241.23,0.0068475991649268745,0.006150097425220481,nvda,20200108
2020-01-08,14:51,2:51 PM,241.26,241.19,241.193,63,15195.18,5,241.27,241.18,241.229,1271,306601.6943,10,241.24,241.19,241.27,241.18,0.007068893528183766,0.0065005778755044255,nvda,20200108
2020-01-08,14:52,2:52 PM,241.23,241.12,241.225,104,25087.35,8,241.22,241.1,241.182,8129,1960570.7784,50,241.17,241.12,241.167,241.126,0.007202505219206657,0.006304475718797834,nvda,20200108
2020-01-08,14:53,2:53 PM,241.17,241.11,241.112,106,25557.865,5,241.19,241.04,241.115,7812,1883591.1456,47,241.11,241.15,241.18,241.14,0.006730688935281815,0.006024925835833359,nvda,20200108
2020-01-08,14:54,2:54 PM,241.21,241.15,241.163,204,49197.295,5,241.2,241.12,241.147,4729,1140382.56,18,241.15,241.205,241.15,241.2,0.0069436325678497324,0.006158442197846211,nvda,20200108
2020-01-08,14:55,2:55 PM,241.17,241.11,241.112,108,26040.09,5,241.19,241.05,241.105,7480,1803465.9426,48,241.17,241.125,241.19,241.06,0.006730688935281815,0.005983201972704239,nvda,20200108
2020-01-08,14:56,2:56 PM,241.105,241.065,241.087,53,12777.595,4,241.1,241.04,241.075,3000,723224.59,28,241.075,241.105,241.071,241.095,0.0066263048016701005,0.005858030383317115,nvda,20200108
2020-01-08,14:57,2:57 PM,241.1,241.05,241.08,218,52555.4,3,241.13,241.05,241.072,3699,891726.8578,28,241.05,241.1,241.07,241.13,0.0065970772442589245,0.005845513224378463,nvda,20200108
2020-01-08,14:58,2:58 PM,241.14,241.125,241.13,3,723.39,3,241.15,241.095,241.127,2887,696133.1612,22,241.125,241.14,241.12,241.15,0.0068058455114822355,0.006074994471588208,nvda,20200108
2020-01-08,14:59,2:59 PM,241.16,241.09,241.158,104,25080.395,4,241.16,241.06,241.116,4620,1113955.924,27,241.115,241.16,241.13,241.147,0.006922755741127294,0.006029098222146282,nvda,20200108
2020-01-08,15:00,3 PM,241.23,241.14,241.176,11,2652.935,8,241.23,241.13,241.178,7063,1703439.409,51,241.22,241.23,241.14,241.14,0.006997912317327715,0.006287786173546257,nvda,20200108
2020-01-08,15:01,3:01 PM,241.37,241.22,241.345,486,117293.43,17,241.4,241.18,241.307,22293,5379462.9264,136,241.22,241.37,241.18,241.387,0.007703549060542793,0.0068260240079108265,nvda,20200108
2020-01-08,15:02,3:02 PM,241.475,241.39,241.406,231,55764.74,7,241.48,241.37,241.414,4754,1147684.445,32,241.395,241.43,241.4,241.415,0.007958246346555349,0.007272469343391545,nvda,20200108
2020-01-08,15:03,3:03 PM,241.41,241.37,241.385,106,25586.86,5,241.42,241.34,241.389,5773,1393537.754,31,241.41,241.39,241.415,241.34,0.007870563674321466,0.007168159685569042,nvda,20200108
2020-01-08,15:04,3:04 PM,241.44,241.33,241.369,17,4103.275,7,241.45,241.32,241.358,4110,991982.442,29,241.335,241.41,241.34,241.405,0.00780375782881002,0.007038815709868995,nvda,20200108
2020-01-08,15:05,3:05 PM,241.43,241.39,241.41,105,25348.065,6,241.45,241.381,241.418,3833,925354.371,26,241.43,241.425,241.43,241.45,0.00797494780793318,0.007289158888643241,nvda,20200108
2020-01-08,15:06,3:06 PM,241.49,241.42,241.457,11,2656.03,5,241.5,241.408,241.454,6967,1682207.4481,39,241.49,241.42,241.49,241.425,0.008171189979123146,0.007439364795907788,nvda,20200108
2020-01-08,15:07,3:07 PM,241.455,241.4,241.404,110,26554.485,6,241.47,241.374,241.429,7805,1884357.5396,42,241.4,241.45,241.42,241.419,0.007949895615866374,0.007335055138085166,nvda,20200108
2020-01-08,15:08,3:08 PM,241.47,241.405,241.421,107,25832.03,7,241.48,241.417,241.437,6223,1502464.8009,33,241.415,241.47,241.418,241.44,0.008020876826722307,0.007368434228588438,nvda,20200108
2020-01-08,15:09,3:09 PM,241.445,241.37,241.41,158,38142.765,8,241.43,241.33,241.386,5403,1304207.8696,42,241.44,241.39,241.43,241.35,0.00797494780793318,0.00715564252663027,nvda,20200108
2020-01-08,15:10,3:10 PM,241.425,241.365,241.392,511,123351.425,13,241.43,241.35,241.403,8896,2147520.702,58,241.39,241.38,241.401,241.38,0.00789979123173276,0.00722657309394962,nvda,20200108
2020-01-08,15:11,3:11 PM,241.355,241.345,241.35,2,482.7,2,241.4,241.32,241.353,1707,411989.89,13,241.355,241.345,241.4,241.32,0.007724425887265112,0.007017953778304494,nvda,20200108
2020-01-08,15:12,3:12 PM,241.415,241.33,241.371,306,73859.685,9,241.415,241.322,241.353,4234,1021889.95,30,241.33,241.415,241.33,241.4,0.007812108559498995,0.007017953778304494,nvda,20200108
2020-01-08,15:13,3:13 PM,241.66,241.59,241.659,111,26824.14,3,241.68,241.4,241.586,40815,9860351.0406,140,241.59,241.66,241.4,241.634,0.009014613778705603,0.007990119789211129,nvda,20200108
2020-01-08,15:14,3:14 PM,241.75,241.685,241.723,354,85569.82,8,241.788,241.67,241.741,21721,5250857.7317,93,241.685,241.75,241.67,241.705,0.009281837160751621,0.008636839667711244,nvda,20200108
2020-01-08,15:15,3:15 PM,241.62,241.555,241.618,106,25611.46,4,241.72,241.54,241.62,10762,2600317.8269,51,241.555,241.62,241.72,241.62,0.008843423799582443,0.008131980923849829,nvda,20200108
2020-01-08,15:16,3:16 PM,241.71,241.665,241.688,200,48337.5,2,241.76,241.64,241.702,4704,1136967.4223,33,241.71,241.665,241.71,241.64,0.009135699373695148,0.008474116601507925,nvda,20200108
2020-01-08,15:17,3:17 PM,241.9,241.645,241.753,930,224830.395,12,241.94,241.61,241.821,35834,8665403.9479,152,241.665,241.9,241.654,241.84,0.009407098121085537,0.008970630572743494,nvda,20200108
2020-01-08,15:18,3:18 PM,241.8,241.8,241.8,100,24180.0,1,242.04,241.76,241.946,51460,12450522.2788,243,241.8,241.8,241.83,241.81,0.009603340292275622,0.009492178861856486,nvda,20200108
2020-01-08,15:19,3:19 PM,,,,0,0.0,0,241.93,241.78,241.866,15199,3676122.3098,74,,,241.827,241.86,,0.009158387956824237,nvda,20200108
2020-01-08,15:20,3:20 PM,241.72,241.65,241.693,300,72508.0,3,241.867,241.64,241.728,18190,4397035.9814,114,241.71,241.65,241.867,241.645,0.009156576200417587,0.008582598645643471,nvda,20200108
2020-01-08,15:21,3:21 PM,241.7,241.66,241.685,163,39394.7,4,241.77,241.644,241.708,13080,3161545.7789,73,241.66,241.7,241.68,241.674,0.009123173277661805,0.00849915091938535,nvda,20200108
2020-01-08,15:22,3:22 PM,241.85,241.695,241.761,1833,443148.435,13,241.88,241.68,241.779,20525,4962507.9364,131,241.695,241.82,241.7,241.775,0.009440501043841318,0.00879539034760152,nvda,20200108
2020-01-08,15:23,3:23 PM,241.84,241.82,241.825,105,25391.62,3,241.91,241.77,241.82,11011,2662675.29,52,241.825,241.82,241.775,241.8,0.009707724425887217,0.008966458186430569,nvda,20200108
2020-01-08,15:24,3:24 PM,241.81,241.735,241.756,221,53428.07,5,241.82,241.62,241.753,9108,2201885.409,65,241.81,241.735,241.788,241.646,0.009419624217119,0.008686908303465975,nvda,20200108
2020-01-08,15:25,3:25 PM,241.62,241.58,241.603,300,72481.0,4,241.64,241.56,241.605,5996,1448660.7974,42,241.58,241.61,241.62,241.61,0.008780793319415486,0.008069395129156208,nvda,20200108
2020-01-08,15:26,3:26 PM,241.61,241.445,241.494,148,35741.14,3,241.64,241.42,241.522,22346,5397052.3702,131,241.61,241.445,241.604,241.43,0.008325678496868475,0.007723087065185188,nvda,20200108
2020-01-08,15:27,3:27 PM,241.445,241.38,241.416,421,101636.195,6,241.445,241.33,241.391,9816,2369493.17,81,241.38,241.395,241.4,241.425,0.007999999999999986,0.0071765044581947705,nvda,20200108
2020-01-08,15:28,3:28 PM,241.535,241.42,241.436,205,49494.405,7,241.56,241.42,241.478,12141,2931787.1427,59,241.475,241.495,241.435,241.485,0.008083507306889382,0.0075395020674174865,nvda,20200108
2020-01-08,15:29,3:29 PM,241.465,241.415,241.416,103,24865.88,3,241.5,241.4,241.455,14413,3480094.9609,82,241.465,241.415,241.48,241.415,0.007999999999999986,0.0074435371822207125,nvda,20200108
2020-01-08,15:30,3:30 PM,241.47,241.35,241.382,154,37172.82,4,241.49,241.316,241.375,13892,3353189.1855,83,241.43,241.35,241.43,241.35,0.00785803757828812,0.0071097462771883444,nvda,20200108
2020-01-08,15:31,3:31 PM,241.3,241.3,241.3,108,26060.4,2,241.325,241.19,241.251,13867,3345434.61,82,241.3,241.3,241.32,241.3,0.007515657620041801,0.006592370374388277,nvda,20200108
2020-01-08,15:32,3:32 PM,,,,0,0.0,0,241.38,241.25,241.313,6005,1449086.8315,53,,,241.28,241.35,,0.0068510583257882516,nvda,20200108
2020-01-08,15:33,3:33 PM,241.27,241.26,241.266,315,75998.9,5,241.37,241.22,241.275,7554,1822591.1495,48,241.27,241.26,241.37,241.253,0.0073736951983298165,0.006692507645897974,nvda,20200108
2020-01-08,15:34,3:34 PM,241.355,241.275,241.304,158,38126.085,11,241.39,241.261,241.314,7510,1812269.7262,52,241.355,241.325,241.28,241.318,0.007532359081419633,0.006855230712101175,nvda,20200108
2020-01-08,15:35,3:35 PM,241.26,241.225,241.23,1423,343270.22,12,241.29,241.22,241.246,5930,1430587.7934,34,241.25,241.225,241.29,241.225,0.007223382045928976,0.006571508442823775,nvda,20200108
2020-01-08,15:36,3:36 PM,241.285,241.225,241.281,591,142596.855,11,241.29,241.225,241.257,6952,1677221.624,40,241.225,241.265,241.225,241.23,0.007436325678496893,0.006617404692265701,nvda,20200108
2020-01-08,15:37,3:37 PM,241.23,241.205,241.214,269,64886.64,9,241.28,241.18,241.213,22732,5483256.1782,116,241.215,241.21,241.247,241.2,0.007156576200417531,0.006433819694497881,nvda,20200108
2020-01-08,15:38,3:38 PM,241.17,241.115,241.155,157,37861.385,6,241.19,241.1,241.137,8411,2028199.1838,52,241.17,241.15,241.19,241.17,0.006910229645093951,0.006116718334717209,nvda,20200108
2020-01-08,15:39,3:39 PM,241.17,241.035,241.1,232,55935.18,7,241.18,240.95,241.067,32370,7803329.0745,169,241.17,241.035,241.16,241.12,0.0066805845511482016,0.005824651292813962,nvda,20200108
2020-01-08,15:40,3:40 PM,241.32,241.125,241.198,304,73324.085,5,241.32,241.1,241.19,8569,2066758.617,66,241.125,241.32,241.14,241.27,0.007089770354906086,0.006337854809301107,nvda,20200108
2020-01-08,15:41,3:41 PM,241.025,240.98,241.01,146,35187.45,5,241.265,240.91,241.064,14319,3451789.5664,97,241.0,240.98,241.26,240.92,0.0063048016701461,0.0058121341338751905,nvda,20200108
2020-01-08,15:42,3:42 PM,240.89,240.89,240.89,50,12044.5,1,241.003,240.8,240.894,23505,5662220.3015,159,240.89,240.89,240.99,240.86,0.005803757828809964,0.005102828460681573,nvda,20200108
2020-01-08,15:43,3:43 PM,240.94,240.865,240.903,501,120692.385,7,241.01,240.86,240.918,14083,3392849.692,110,240.885,240.94,240.91,241.0,0.005858037578288065,0.0052029657321912715,nvda,20200108
2020-01-08,15:44,3:44 PM,240.98,240.9,240.939,211,50838.18,4,241.02,240.87,240.935,13702,3301297.4,68,240.98,240.9,240.99,240.88,0.006008350730688906,0.005273896299510621,nvda,20200108
2020-01-08,15:45,3:45 PM,240.9,240.9,240.9,20,4818.0,1,240.97,240.84,240.92,7650,1843034.95,57,240.9,240.9,240.89,240.927,0.005845511482254721,0.005211310504817,nvda,20200108
2020-01-08,15:46,3:46 PM,241.04,240.88,240.959,489,117829.22,7,241.04,240.34,240.772,32563,7840253.135,211,240.94,240.88,240.94,240.43,0.006091858037578301,0.004593797330507234,nvda,20200108
2020-01-08,15:47,3:47 PM,240.73,240.44,240.55,556,133746.06,9,240.79,240.357,240.578,24437,5879011.8034,193,240.44,240.515,240.357,240.495,0.00438413361169107,0.0037843543858039176,nvda,20200108
2020-01-08,15:48,3:48 PM,240.65,240.505,240.568,410,98632.9,5,240.68,240.46,240.603,14818,3565260.8125,108,240.56,240.505,240.56,240.505,0.004459290187891491,0.00388866404362654,nvda,20200108
2020-01-08,15:49,3:49 PM,240.64,240.2,240.52,542,130361.75,8,240.64,240.151,240.409,30282,7280051.6791,174,240.49,240.2,240.5,240.2,0.004258872651357036,0.0030792210989231054,nvda,20200108
2020-01-08,15:50,3:50 PM,240.38,240.11,240.281,855,205439.97,14,240.46,240.14,240.275,19105,4590448.83,117,240.32,240.29,240.25,240.31,0.0032609603340292524,0.0025201213329940353,nvda,20200108
2020-01-08,15:51,3:51 PM,240.325,240.095,240.19,401,96316.295,6,240.41,240.07,240.197,25847,6208367.5272,154,240.26,240.095,240.34,240.109,0.002881002087682663,0.002194675200587516,nvda,20200108
2020-01-08,15:52,3:52 PM,240.225,240.13,240.179,400,96071.5,4,240.31,240.09,240.193,17244,4141892.3779,134,240.205,240.13,240.133,240.12,0.0028350730688935367,0.0021779856553359386,nvda,20200108
2020-01-08,15:53,3:53 PM,240.19,239.94,240.036,1371,329088.945,16,240.24,239.93,240.055,23818,5717623.5906,165,240.165,240.025,240.14,240.0,0.0022379958246346613,0.0016021963441551735,nvda,20200108
2020-01-08,15:54,3:54 PM,240.84,240.055,240.273,2095,503371.86,20,240.84,239.99,240.411,63361,15232679.6774,404,240.055,240.725,240.01,240.81,0.0032275574112734704,0.003087565871548953,nvda,20200108
2020-01-08,15:55,3:55 PM,240.7,240.45,240.576,1022,245868.44,10,240.73,240.45,240.592,27308,6570088.2298,217,240.7,240.55,240.68,240.46,0.0044926931106471545,0.0038427677941846143,nvda,20200108
2020-01-08,15:56,3:56 PM,240.58,240.23,240.426,774,186089.755,10,240.71,240.24,240.498,28334,6814282.912,217,240.475,240.3,240.46,240.34,0.0038663883089769843,0.00345056348077155,nvda,20200108
2020-01-08,15:57,3:57 PM,240.43,240.19,240.311,1100,264342.5,11,240.46,240.19,240.344,28535,6858228.468,224,240.41,240.24,240.32,240.24,0.0033862212943632864,0.0028080159885843585,nvda,20200108
2020-01-08,15:58,3:58 PM,240.41,240.25,240.311,827,198736.92,13,240.42,240.21,240.318,47834,11495365.1736,335,240.25,240.3,240.26,240.32,0.0033862212943632864,0.0026995339444489314,nvda,20200108
2020-01-08,15:59,3:59 PM,240.43,240.27,240.36,2723,654501.355,42,240.51,240.16,240.377,106154,25517030.6929,597,240.325,240.405,240.32,240.49,0.003590814196242228,0.0029457047369102532,nvda,20200108
