date,minute,label,high,low,average,volume,notional,numberOfTrades,marketHigh,marketLow,marketAverage,marketVolume,marketNotional,marketNumberOfTrades,open,close,marketOpen,marketClose,changeOverTime,marketChangeOverTime,tickerName,tickerDate
2019-12-06,09:30,09:30 AM,212.0,211.5,211.851,670,141940.5,8,212.4,211.5,211.777,221244,46854394.9005,511,211.5,212.0,211.52,212.39,0.0,0.0,nvda,20191206
2019-12-06,09:31,09:31 AM,212.26,211.6,211.93,244,51710.92,4,212.4,211.5,211.985,52121,11048896.1679,176,212.26,211.6,212.333,211.51,0.00037290359733967615,0.0009821652020758952,nvda,20191206
2019-12-06,09:32,09:32 AM,211.4,211.375,211.387,400,84555.0,2,211.65,211.12,211.469,29810,6303887.6422,131,211.4,211.375,211.551,211.142,-0.0021902185970328137,-0.0014543600107660075,nvda,20191206
2019-12-06,09:33,09:33 AM,211.685,211.52,211.578,155,32794.67,4,211.92,211.22,211.566,22752,4813561.8362,114,211.68,211.52,211.22,211.801,-0.0012886415452369644,-0.0009963310463364026,nvda,20191206
2019-12-06,09:34,09:34 AM,211.67,211.44,211.501,68,14382.06,2,211.9,211.36,211.634,21224,4491719.0595,119,211.67,211.44,211.814,211.497,-0.001652104545175592,-0.000675238576427094,nvda,20191206
2019-12-06,09:35,09:35 AM,211.94,211.58,211.726,1019,215748.31,13,212.01,211.59,211.821,38653,8187525.0885,174,211.58,211.77,211.59,211.791,-0.000590037337562721,0.00020776571582377284,nvda,20191206
2019-12-06,09:36,09:36 AM,212.06,211.79,211.911,136,28819.91,2,212.18,211.53,211.862,34118,7228317.225,146,211.79,212.06,211.63,212.18,0.0002832179220301168,0.00040136558738676986,nvda,20191206
2019-12-06,09:37,09:37 AM,212.705,212.09,212.449,378,80305.815,8,212.785,212.05,212.475,71701,15234679.0943,244,212.11,212.705,212.23,212.696,0.0028227386229001195,0.003295919764658143,nvda,20191206
2019-12-06,09:38,09:38 AM,212.84,212.62,212.756,864,183821.55,9,212.88,212.552,212.744,64746,13774350.267,273,212.75,212.62,212.76,212.73,0.004271870323954105,0.004566123800035004,nvda,20191206
2019-12-06,09:39,09:39 AM,212.79,212.64,212.745,561,119349.97,7,212.82,212.54,212.713,39477,8397287.6254,231,212.75,212.79,212.708,212.799,0.0042199470382486065,0.004419743409340991,nvda,20191206
2019-12-06,09:40,09:40 AM,213.05,213.0,213.039,127,27056.0,2,213.319,212.78,212.996,69562,14816449.2965,289,213.0,213.05,212.78,213.25,0.005607714856196044,0.005756054717934537,nvda,20191206
2019-12-06,09:41,09:41 AM,213.25,213.1,213.206,275,58631.61,4,213.33,213.04,213.22,33916,7231570.3754,134,213.25,213.235,213.281,213.235,0.006396004739179847,0.0068137710894007,nvda,20191206
2019-12-06,09:42,09:42 AM,213.34,213.33,213.334,100,21333.42,2,213.49,213.2,213.326,33068,7054258.6059,161,213.34,213.33,213.237,213.2,0.007000202972844141,0.007314297586612365,nvda,20191206
2019-12-06,09:43,09:43 AM,213.11,213.04,213.066,161,34303.71,2,213.36,212.83,213.089,37144,7914991.485,159,213.11,213.04,213.3,212.99,0.005735162921109664,0.006195195890016441,nvda,20191206
2019-12-06,09:44,09:44 AM,212.86,212.86,212.86,100,21286.0,1,212.96,212.71,212.818,26059,5545824.2696,103,212.86,212.86,212.96,212.725,0.004762781388806352,0.004915547958465864,nvda,20191206
2019-12-06,09:45,09:45 AM,212.83,212.83,212.83,100,21283.0,1,213.127,212.755,212.934,24004,5111275.1006,102,212.83,212.83,212.77,213.12,0.004621172427791294,0.005463293936546512,nvda,20191206
2019-12-06,09:46,09:46 AM,213.03,213.03,213.03,2,426.06,1,213.16,212.95,213.06,14729,3138156.3825,68,213.03,213.03,213.07,213.01,0.005565232167891594,0.00605825939549628,nvda,20191206
2019-12-06,09:47,09:47 AM,213.11,213.11,213.11,61,12999.71,1,213.17,212.97,213.095,9441,2011828.065,52,213.11,213.11,213.01,213.134,0.005942856063931795,0.006223527578537859,nvda,20191206
2019-12-06,09:48,09:48 AM,213.4,213.14,213.269,874,186396.92,10,213.436,213.11,213.275,43359,9247375.182,159,213.14,213.33,213.154,213.29,0.006693383557311537,0.007073478234180383,nvda,20191206
2019-12-06,09:49,09:49 AM,213.275,212.975,213.07,407,86719.425,5,213.34,212.89,213.122,20268,4319558.7832,118,213.2,212.975,213.321,212.913,0.005754044115911627,0.006351020176884305,nvda,20191206
2019-12-06,09:50,09:50 AM,212.745,212.61,212.697,500,106348.5,5,212.923,212.6,212.755,43690,9295258.0981,132,212.73,212.61,212.89,212.697,0.003993372700624513,0.004618065228990913,nvda,20191206
2019-12-06,09:51,09:51 AM,212.8,212.655,212.753,405,86164.85,5,212.82,212.64,212.716,19894,4231779.639,106,212.8,212.655,212.67,212.65,0.004257709427852532,0.004433909253601767,nvda,20191206
2019-12-06,09:52,09:52 AM,212.735,212.685,212.7,316,67213.29,7,212.79,212.64,212.722,25429,5409309.2035,79,212.73,212.685,212.645,212.7,0.004007533596725951,0.004462240942123184,nvda,20191206
2019-12-06,09:53,09:53 AM,212.56,212.275,212.501,1437,305363.965,20,212.7,212.223,212.426,34780,7388170.9195,162,212.56,212.405,212.7,212.5,0.0030681941553261757,0.003064544308399878,nvda,20191206
2019-12-06,09:54,09:54 AM,212.46,212.34,212.356,1000,212356.0,10,212.529,212.26,212.409,13117,2786172.206,65,212.46,212.36,212.465,212.26,0.0023837508437533714,0.002984271190922551,nvda,20191206
2019-12-06,09:55,09:55 AM,212.54,212.07,212.206,354,75120.87,5,212.6,212.0,212.3,26415,5607908.8434,127,212.25,212.54,212.275,212.544,0.0016757060386780793,0.0024695788494502454,nvda,20191206
2019-12-06,09:56,09:56 AM,212.37,212.31,212.347,8,1698.78,2,212.549,212.11,212.321,15793,3353187.0247,62,212.37,212.31,212.536,212.145,0.0023412681554489207,0.0025687397592751393,nvda,20191206
2019-12-06,09:57,09:57 AM,212.39,212.39,212.39,5,1061.95,1,212.5,212.04,212.346,24864,5279785.835,96,212.39,212.39,212.103,212.47,0.0025442409995703927,0.0026867884614477345,nvda,20191206
2019-12-06,09:58,09:58 AM,212.53,212.475,212.504,361,76713.83,4,212.58,212.214,212.479,15164,3222038.3357,71,212.53,212.475,212.54,212.255,0.0030823550514276145,0.003314807557005844,nvda,20191206
2019-12-06,09:59,09:59 AM,212.32,212.28,212.28,101,21440.32,2,212.34,212.22,212.281,7541,1600813.573,48,212.32,212.28,212.34,212.28,0.002025008142515268,0.0023798618357990676,nvda,20191206
2019-12-06,10:00,10 AM,212.35,212.28,212.323,402,85354.08,6,212.39,212.21,212.291,10997,2334561.7899,48,212.35,212.29,212.283,212.31,0.0022279809866368743,0.002427081316668052,nvda,20191206
2019-12-06,10:01,10:01 AM,212.13,211.96,212.057,533,113026.28,7,212.32,211.94,212.058,24896,5279406.486,100,212.13,212.01,212.32,212.176,0.0009723815323033116,0.0013268674124196959,nvda,20191206
2019-12-06,10:02,10:02 AM,,,,0,0.0,0,212.28,212.1,212.165,11660,2473842.1657,54,,,212.2,212.179,,0.0018321158577182851,nvda,20191206
2019-12-06,10:03,10:03 AM,212.145,212.145,212.145,1,212.145,1,212.25,211.96,212.081,10409,2207553.561,66,212.145,212.145,212.14,212.085,0.0013877678179475723,0.0014354722184184404,nvda,20191206
2019-12-06,10:04,10:04 AM,212.05,212.035,212.041,35,7421.45,2,212.11,211.92,212.013,9421,1997373.2796,49,212.05,212.035,211.93,211.98,0.0008968567530953252,0.0011143797485091318,nvda,20191206
2019-12-06,10:05,10:05 AM,212.055,211.96,212.007,201,42613.52,3,212.1,211.89,211.968,13513,2864324.1024,77,211.96,212.055,211.98,212.085,0.0007363665972783037,0.0009018920845984338,nvda,20191206
2019-12-06,10:06,10:06 AM,212.05,212.035,212.042,200,42408.5,2,212.12,211.97,212.059,8205,1739946.06,55,212.05,212.035,212.055,211.97,0.0009015770517958495,0.001331589360506621,nvda,20191206
2019-12-06,10:07,10:07 AM,211.95,211.86,211.936,1334,282722.14,11,212.1,211.8,211.917,11804,2501463.9736,65,211.95,211.86,211.95,211.944,0.00040122538954268783,0.0006610727321664524,nvda,20191206
2019-12-06,10:08,10:08 AM,212.02,212.02,212.02,2,424.04,1,212.079,211.91,211.989,7885,1671536.4096,42,212.02,212.02,211.91,211.97,0.0007977304803848513,0.001001052994423462,nvda,20191206
2019-12-06,10:09,10:09 AM,211.98,211.98,211.98,40,8479.2,1,212.0,211.9,211.957,6679,1415661.38,43,211.98,211.98,211.97,211.96,0.0006089185323646841,0.0008499506556425241,nvda,20191206
2019-12-06,10:10,10:10 AM,212.06,211.97,212.026,1061,224959.89,6,212.08,211.94,211.998,18948,4016946.7908,102,211.985,211.97,211.95,211.996,0.0008260522725878631,0.001043550527205521,nvda,20191206
2019-12-06,10:11,10:11 AM,211.94,211.82,211.888,606,128404.145,8,211.992,211.8,211.907,16041,3399205.8551,76,211.94,211.82,211.99,211.82,0.00017465105191859437,0.000613853251297468,nvda,20191206
2019-12-06,10:12,10:12 AM,211.885,211.85,211.876,4,847.505,2,212.05,211.82,211.922,11687,2476730.21,76,211.85,211.885,211.85,212.05,0.00011800746751257103,0.0006846824726009445,nvda,20191206
2019-12-06,10:13,10:13 AM,212.05,212.04,212.045,200,42409.0,2,212.407,212.035,212.163,34637,7348679.619,112,212.05,212.04,212.07,212.407,0.0009157379478972882,0.0018226719615445687,nvda,20191206
2019-12-06,10:14,10:14 AM,212.39,212.38,212.387,300,63716.0,3,212.49,212.321,212.402,11526,2448141.6234,73,212.39,212.38,212.37,212.374,0.002530080103468954,0.002951217554314208,nvda,20191206
2019-12-06,10:15,10:15 AM,212.36,211.9,212.195,2218,470647.63,28,212.48,211.878,212.159,34354,7288508.08,257,212.32,212.16,212.42,212.36,0.0016237827529725802,0.0018037841691968676,nvda,20191206
2019-12-06,10:16,10:16 AM,212.35,212.27,212.28,230,48824.465,6,212.43,212.21,212.307,9209,1955138.8769,50,212.35,212.275,212.257,212.29,0.002025008142515268,0.0025026324860584538,nvda,20191206
2019-12-06,10:17,10:17 AM,212.25,211.91,212.024,1123,238102.86,15,212.26,211.9,212.004,15469,3279485.88,107,212.25,211.91,212.24,211.99,0.0008166116751868144,0.0010718822157269386,nvda,20191206
2019-12-06,10:18,10:18 AM,212.135,212.135,212.135,100,21213.5,1,212.197,211.97,212.095,15680,3325657.7465,65,212.135,212.135,211.99,212.179,0.0013405648309424633,0.001501579491635126,nvda,20191206
2019-12-06,10:19,10:19 AM,212.32,212.2,212.261,1109,235397.5,16,212.38,212.14,212.283,27741,5888952.5338,112,212.2,212.265,212.14,212.23,0.0019353224672057088,0.002389305731972784,nvda,20191206
2019-12-06,10:20,10:20 AM,212.36,212.23,212.313,300,63694.0,4,212.44,212.23,212.343,13436,2853043.8035,52,212.23,212.36,212.23,212.44,0.002180777999631765,0.0026726226171869586,nvda,20191206
2019-12-06,10:21,10:21 AM,212.57,212.27,212.462,401,85197.45,5,212.6,212.26,212.455,12506,2656958.7383,68,212.45,212.27,212.45,212.4,0.002884102506006533,0.0032014808029201744,nvda,20191206
2019-12-06,10:22,10:22 AM,212.5,212.38,212.453,420,89230.26,7,212.6,212.3,212.412,9119,1936982.017,53,212.39,212.39,212.405,212.47,0.0028416198177020823,0.002998437035183327,nvda,20191206
2019-12-06,10:23,10:23 AM,212.34,212.34,212.34,100,21234.0,1,212.442,212.251,212.372,5016,1065257.36,17,212.34,212.34,212.39,212.3,0.0023082260645453847,0.002809559111707255,nvda,20191206
2019-12-06,10:24,10:24 AM,212.33,212.33,212.33,100,21233.0,1,212.43,212.29,212.382,6115,1298716.05,31,212.33,212.33,212.37,212.4,0.00226102307754041,0.0028567785925762393,nvda,20191206
2019-12-06,10:25,10:25 AM,212.43,212.405,212.427,128,27190.715,3,212.47,212.345,212.401,5150,1093865.985,36,212.405,212.42,212.43,212.42,0.002718892051488987,0.002946495606227417,nvda,20191206
2019-12-06,10:26,10:26 AM,212.54,212.5,212.52,200,42504.0,2,212.54,212.403,212.474,6961,1479028.323,43,212.5,212.54,212.403,212.46,0.0031578798306357353,0.003291197816571218,nvda,20191206
2019-12-06,10:27,10:27 AM,212.48,212.0,212.298,789,167503.2,11,212.483,211.994,212.182,12463,2644420.2995,81,212.48,212.0,212.42,211.994,0.0021099735191243032,0.001912388975195612,nvda,20191206
2019-12-06,10:28,10:28 AM,212.065,211.98,211.992,14,2967.89,2,212.12,211.94,212.01,7426,1574388.69,41,212.065,211.98,211.95,212.11,0.0006655621167707074,0.0011002139042483562,nvda,20191206
2019-12-06,10:29,10:29 AM,212.08,212.08,212.08,5,1060.4,1,212.11,211.99,212.063,10280,2180012.6445,40,212.08,212.08,212.07,212.1,0.001080948402414968,0.001350477152854188,nvda,20191206
2019-12-06,10:30,10:30 AM,212.35,212.11,212.324,117,24841.87,3,212.39,212.12,212.265,13798,2928833.5918,64,212.11,212.31,212.12,212.345,0.0022327012853373984,0.0023043106664085316,nvda,20191206
2019-12-06,10:31,10:31 AM,212.39,212.31,212.383,55,11681.05,2,212.43,212.3,212.358,6201,1316834.32,27,212.31,212.39,212.345,212.43,0.0025111989086669907,0.0027434518384905696,nvda,20191206
2019-12-06,10:32,10:32 AM,212.645,212.43,212.488,462,98169.435,6,212.7,212.336,212.485,38217,8120539.8411,184,212.43,212.645,212.45,212.673,0.003006830272219628,0.0033431392455272615,nvda,20191206
2019-12-06,10:33,10:33 AM,,,,0,0.0,0,212.96,212.65,212.827,31481,6700022.72,113,,,212.676,212.65,,0.004958045491247923,nvda,20191206
2019-12-06,10:34,10:34 AM,212.57,212.57,212.57,81,17218.17,1,212.85,212.51,212.636,21716,4617603.605,104,212.57,212.57,212.637,212.83,0.0033938947656607433,0.004056153406649489,nvda,20191206
2019-12-06,10:35,10:35 AM,212.96,212.86,212.894,711,151367.56,8,212.99,212.75,212.881,24548,5225805.2,114,212.92,212.86,212.836,212.836,0.004923271544623374,0.0052130306879406806,nvda,20191206
2019-12-06,10:36,10:36 AM,212.795,212.57,212.638,582,123755.09,9,212.82,212.51,212.643,11950,2541079.3921,68,212.795,212.575,212.82,212.545,0.0037148750772949203,0.004089207043257832,nvda,20191206
2019-12-06,10:37,10:37 AM,212.58,212.58,212.58,100,21258.0,1,212.69,212.27,212.406,23398,4969872.2695,102,212.58,212.58,212.54,212.429,0.003441097752665852,0.002970105346661909,nvda,20191206
2019-12-06,10:38,10:38 AM,212.79,212.79,212.79,201,42770.79,2,212.81,212.457,212.686,21042,4475345.815,63,212.79,212.79,212.457,212.62,0.004432360479771126,0.0042922508109946795,nvda,20191206
2019-12-06,10:39,10:39 AM,212.7,212.62,212.673,300,63802.0,4,212.74,212.6,212.666,5316,1130533.485,41,212.62,212.7,212.63,212.685,0.003880085531812466,0.004197811849256577,nvda,20191206
2019-12-06,10:40,10:40 AM,,,,0,0.0,0,212.81,212.7,212.744,7170,1525373.53,23,,,212.73,212.768,,0.004566123800035004,nvda,20191206
2019-12-06,10:41,10:41 AM,212.8,212.8,212.8,10,2128.0,1,212.85,212.702,212.784,9630,2049105.415,40,212.8,212.8,212.71,212.72,0.0044795634667762355,0.004755001723511076,nvda,20191206
2019-12-06,10:42,10:42 AM,212.66,212.44,212.544,342,72689.98,5,212.7,212.41,212.506,26637,5660522.0028,96,212.66,212.44,212.7,212.543,0.0032711669994477817,0.0034423001553521558,nvda,20191206
2019-12-06,10:43,10:43 AM,212.71,212.55,212.588,258,54847.68,3,212.85,212.55,212.763,21412,4555673.725,92,212.55,212.71,212.55,212.623,0.0034788601422697783,0.004655840813686181,nvda,20191206
2019-12-06,10:44,10:44 AM,,,,0,0.0,0,212.6,212.48,212.52,10102,2146882.96,28,,,212.55,212.54,,0.0035084074285688413,nvda,20191206
2019-12-06,10:45,10:45 AM,212.57,212.55,212.563,160,34010.0,2,212.68,212.486,212.587,13005,2764700.151,64,212.55,212.57,212.58,212.605,0.0033608526747572073,0.003824777950391224,nvda,20191206
2019-12-06,10:46,10:46 AM,,,,0,0.0,0,212.68,212.44,212.512,14813,3147945.21,52,,,212.595,212.665,,0.003470631843873573,nvda,20191206
2019-12-06,10:47,10:47 AM,212.65,212.59,212.623,361,76756.99,4,212.77,212.58,212.667,30695,6527820.8517,116,212.65,212.59,212.72,212.686,0.003644070596787324,0.0042025337973435025,nvda,20191206
2019-12-06,10:48,10:48 AM,,,,0,0.0,0,212.68,212.15,212.401,27821,5909204.4145,96,,,212.65,212.48,,0.002946495606227417,nvda,20191206
2019-12-06,10:49,10:49 AM,,,,0,0.0,0,212.53,212.36,212.427,12338,2620928.5735,37,,,212.469,212.475,,0.0030692662564868033,nvda,20191206
2019-12-06,10:50,10:50 AM,212.55,212.55,212.55,2,425.1,1,212.66,212.524,212.584,9322,1981712.658,41,212.55,212.55,212.53,212.56,0.0032994887916507937,0.0038106121061305827,nvda,20191206
2019-12-06,10:51,10:51 AM,,,,0,0.0,0,212.77,212.62,212.728,3664,779437.39,23,,,212.62,212.741,,0.004490572630644602,nvda,20191206
2019-12-06,10:52,10:52 AM,212.725,212.725,212.725,80,17018.0,3,212.75,212.661,212.718,2400,510522.41,18,212.725,212.725,212.71,212.75,0.004125541064238522,0.004443353149775483,nvda,20191206
2019-12-06,10:53,10:53 AM,212.53,212.5,212.529,104,22103.0,2,212.72,212.43,212.565,9882,2100563.1054,47,212.53,212.5,212.72,212.54,0.0032003625189401855,0.003720895092479405,nvda,20191206
2019-12-06,10:54,10:54 AM,,,,0,0.0,0,212.64,212.55,212.59,2715,577181.111,20,,,212.56,212.595,,0.003838943794652,nvda,20191206
2019-12-06,10:55,10:55 AM,212.72,212.72,212.72,100,21272.0,1,212.79,212.6,212.685,9633,2048794.6595,45,212.72,212.72,212.64,212.776,0.0041019395707360354,0.0042875288629077545,nvda,20191206
2019-12-06,10:56,10:56 AM,,,,0,0.0,0,212.805,212.66,212.746,2365,503143.865,15,,,212.79,212.69,,0.0045755676962088545,nvda,20191206
2019-12-06,10:57,10:57 AM,,,,0,0.0,0,212.7,212.6,212.656,4270,908041.278,20,,,212.641,212.66,,0.004150592368387593,nvda,20191206
2019-12-06,10:58,10:58 AM,,,,0,0.0,0,212.8,212.667,212.722,3542,753460.6474,21,,,212.667,212.68,,0.004462240942123184,nvda,20191206
2019-12-06,10:59,10:59 AM,,,,0,0.0,0,212.8,212.61,212.725,4463,949393.0418,35,,,212.73,212.61,,0.004476406786383827,nvda,20191206
2019-12-06,11:00,11 AM,,,,0,0.0,0,212.66,212.43,212.553,8114,1724653.2126,42,,,212.58,212.493,,0.0036642317154365702,nvda,20191206
2019-12-06,11:01,11:01 AM,,,,0,0.0,0,212.601,212.47,212.514,3420,726797.8225,21,,,212.485,212.53,,0.0034800757400474235,nvda,20191206
2019-12-06,11:02,11:02 AM,,,,0,0.0,0,212.69,212.515,212.571,2808,596900.34,19,,,212.515,212.654,,0.0037492267810008226,nvda,20191206
2019-12-06,11:03,11:03 AM,,,,0,0.0,0,212.875,212.64,212.778,12017,2556949.18,39,,,212.67,212.875,,0.004726670034989658,nvda,20191206
2019-12-06,11:04,11:04 AM,212.85,212.85,212.85,100,21285.0,1,212.99,212.815,212.933,12784,2722139.4106,77,212.85,212.85,212.875,212.955,0.004715578401801243,0.005458571988459587,nvda,20191206
2019-12-06,11:05,11:05 AM,213.0,213.0,213.0,230,48990.0,3,213.0,212.89,212.954,16418,3496275.3525,74,213.0,213.0,212.959,212.89,0.005423623206876536,0.005557732898284615,nvda,20191206
2019-12-06,11:06,11:06 AM,212.81,212.76,212.785,202,42982.54,3,212.9,212.76,212.823,6803,1447838.1058,41,212.81,212.77,212.9,212.86,0.004408758986268639,0.0049391576989003564,nvda,20191206
2019-12-06,11:07,11:07 AM,212.875,212.81,212.843,200,42568.5,2,212.896,212.785,212.834,4079,868152.315,32,212.81,212.875,212.87,212.825,0.004682536310897707,0.004991099127856266,nvda,20191206
2019-12-06,11:08,11:08 AM,212.86,212.84,212.86,601,127928.84,2,212.89,212.81,212.85,6138,1306475.1716,30,212.84,212.86,212.84,212.81,0.004762781388806352,0.005066650297246668,nvda,20191206
2019-12-06,11:09,11:09 AM,212.765,212.72,212.75,212,45102.915,5,212.83,212.71,212.765,8609,1831690.52,48,212.74,212.72,212.826,212.723,0.0042435485317510934,0.004665284709859898,nvda,20191206
2019-12-06,11:10,11:10 AM,212.715,212.705,212.711,162,34459.215,4,212.75,212.64,212.711,6538,1390704.614,36,212.705,212.71,212.727,212.72,0.004059456882431585,0.004410299513167275,nvda,20191206
2019-12-06,11:11,11:11 AM,212.715,212.715,212.715,200,42543.0,2,212.85,212.715,212.787,9438,2008283.015,43,212.715,212.715,212.72,212.835,0.004078338077233548,0.004769167567771852,nvda,20191206
2019-12-06,11:12,11:12 AM,212.75,212.75,212.75,100,21275.0,1,212.838,212.73,212.787,4378,931582.9155,38,212.75,212.75,212.835,212.81,0.0042435485317510934,0.004769167567771852,nvda,20191206
2019-12-06,11:13,11:13 AM,,,,0,0.0,0,212.828,212.73,212.803,6213,1322147.885,16,,,212.821,212.815,,0.004844718737162254,nvda,20191206
2019-12-06,11:14,11:14 AM,212.84,212.795,212.833,460,97903.265,5,212.84,212.78,212.823,3392,721897.37,29,212.795,212.83,212.795,212.82,0.004635333323892733,0.0049391576989003564,nvda,20191206
2019-12-06,11:15,11:15 AM,,,,0,0.0,0,212.85,212.576,212.694,18492,3933143.594,51,,,212.805,212.836,,0.004330026395689813,nvda,20191206
2019-12-06,11:16,11:16 AM,212.85,212.82,212.82,101,21494.85,2,212.9,212.703,212.788,16585,3529092.9305,62,212.85,212.82,212.82,212.711,0.004573969440786185,0.004773889515858777,nvda,20191206
2019-12-06,11:17,11:17 AM,212.66,212.65,212.65,63,13396.97,2,212.715,212.65,212.692,3909,831413.4008,19,212.65,212.66,212.715,212.699,0.003771518661700944,0.004320582499516098,nvda,20191206
2019-12-06,11:18,11:18 AM,212.73,212.73,212.73,1,212.73,1,212.731,212.673,212.704,988,210151.47,8,212.73,212.73,212.673,212.7,0.00414914255774101,0.004377245876558932,nvda,20191206
2019-12-06,11:19,11:19 AM,212.74,212.74,212.74,3,638.22,2,212.8,212.696,212.757,4666,992725.678,17,212.74,212.74,212.696,212.73,0.004196345544746119,0.004627509125164764,nvda,20191206
2019-12-06,11:20,11:20 AM,212.95,212.87,212.949,101,21507.87,2,213.0,212.704,212.963,26240,5588149.2805,119,212.87,212.95,212.704,212.98,0.005182887973151003,0.005600230431066675,nvda,20191206
2019-12-06,11:21,11:21 AM,212.985,212.985,212.985,100,21298.5,1,213.0,212.89,212.939,10755,2290163.3462,69,212.985,212.985,212.97,212.95,0.005352818726369073,0.005486903676981005,nvda,20191206
2019-12-06,11:22,11:22 AM,213.1,212.99,213.058,481,102481.1,5,213.12,212.95,213.039,16580,3532192.327,90,212.99,213.05,212.95,213.047,0.0056974005315056035,0.005959098485671251,nvda,20191206
2019-12-06,11:23,11:23 AM,213.105,213.035,213.062,211,44956.13,4,213.15,213.035,213.097,6845,1458651.165,40,213.035,213.085,213.044,213.05,0.005716281726307701,0.0062329714747117095,nvda,20191206
2019-12-06,11:24,11:24 AM,213.05,212.955,213.01,301,64115.99,4,213.09,212.87,212.978,11280,2402390.766,58,213.05,212.99,213.03,213.04,0.0054708261938815105,0.005671059652370285,nvda,20191206
2019-12-06,11:25,11:25 AM,213.06,213.025,213.028,201,42818.56,3,213.05,212.97,213.012,4840,1030976.7165,34,213.06,213.025,213.04,212.972,0.0055557915704905455,0.005831605887324939,nvda,20191206
2019-12-06,11:26,11:26 AM,212.97,212.93,212.949,504,107326.26,5,212.99,212.897,212.956,5203,1108008.09,32,212.97,212.94,212.97,212.94,0.005182887973151003,0.005567176794458332,nvda,20191206
2019-12-06,11:27,11:27 AM,212.935,212.875,212.893,507,107936.545,6,212.92,212.819,212.869,5490,1168653.066,31,212.935,212.9,212.915,212.9,0.004918551245922849,0.005156367310897846,nvda,20191206
2019-12-06,11:28,11:28 AM,212.91,212.855,212.878,300,63863.5,3,212.91,212.75,212.814,3883,826356.81,30,212.91,212.855,212.91,212.8,0.004847746765415253,0.004896660166118163,nvda,20191206
2019-12-06,11:29,11:29 AM,212.85,212.85,212.85,201,42782.85,3,212.875,212.79,212.834,5594,1190595.97,39,212.85,212.85,212.79,212.8,0.004715578401801243,0.004991099127856266,nvda,20191206
2019-12-06,11:30,11:30 AM,212.75,212.68,212.704,385,81891.25,4,212.79,212.6,212.672,5865,1247323.5612,45,212.75,212.685,212.76,212.635,0.004026414791528049,0.004226143537777994,nvda,20191206
2019-12-06,11:31,11:31 AM,212.655,212.65,212.653,3,637.96,2,212.7,212.56,212.623,8178,1738829.89,42,212.65,212.655,212.56,212.694,0.0037856795578023825,0.0039947680815197294,nvda,20191206
2019-12-06,11:32,11:32 AM,,,,0,0.0,0,212.75,212.7,212.726,2850,606268.165,15,,,212.7,212.716,,0.004481128734470752,nvda,20191206
2019-12-06,11:33,11:33 AM,,,,0,0.0,0,212.71,212.63,212.673,3200,680552.2,16,,,212.7,212.63,,0.00423086548586492,nvda,20191206
2019-12-06,11:34,11:34 AM,212.75,212.68,212.746,223,47442.34,4,212.8,212.613,212.72,7323,1557752.54,33,212.68,212.74,212.615,212.785,0.004224667336949131,0.004452797045949334,nvda,20191206
2019-12-06,11:35,11:35 AM,212.85,212.85,212.85,1,212.85,1,212.863,212.732,212.812,4619,982977.21,32,212.85,212.85,212.732,212.86,0.004715578401801243,0.004887216269944447,nvda,20191206
2019-12-06,11:36,11:36 AM,,,,0,0.0,0,212.92,212.84,212.883,8654,1842286.165,40,,,212.87,212.88,,0.0052224745841145314,nvda,20191206
2019-12-06,11:37,11:37 AM,212.91,212.91,212.91,25,5322.75,1,212.9,212.81,212.851,4787,1018915.774,26,212.91,212.91,212.9,212.9,0.00499879632383136,0.005071372245333593,nvda,20191206
2019-12-06,11:38,11:38 AM,,,,0,0.0,0,212.97,212.89,212.935,7556,1608940.9,36,,,212.93,212.92,,0.005468015884633437,nvda,20191206
2019-12-06,11:39,11:39 AM,212.88,212.83,212.869,203,43212.49,4,212.905,212.79,212.834,6937,1476431.156,37,212.88,212.83,212.905,212.871,0.004805264077110803,0.004991099127856266,nvda,20191206
2019-12-06,11:40,11:40 AM,,,,0,0.0,0,212.89,212.78,212.865,872,185618.669,7,,,212.89,212.78,,0.005137479518550279,nvda,20191206
2019-12-06,11:41,11:41 AM,212.835,212.775,212.8,170,36175.95,2,212.88,212.76,212.831,6847,1457253.4355,49,212.775,212.835,212.795,212.88,0.0044795634667762355,0.00497693328359549,nvda,20191206
2019-12-06,11:42,11:42 AM,,,,0,0.0,0,212.96,212.88,212.929,2611,555957.7,18,,,212.89,212.92,,0.00543968419611202,nvda,20191206
2019-12-06,11:43,11:43 AM,,,,0,0.0,0,212.95,212.91,212.934,1724,367098.79,12,,,212.93,212.93,,0.005463293936546512,nvda,20191206
2019-12-06,11:44,11:44 AM,212.805,212.76,212.803,104,22131.56,3,212.91,212.74,212.812,3580,761868.692,33,212.805,212.77,212.91,212.76,0.004493724362877674,0.004887216269944447,nvda,20191206
2019-12-06,11:45,11:45 AM,212.925,212.82,212.902,205,43644.87,5,212.925,212.802,212.871,5400,1149505.6,26,212.82,212.88,212.82,212.87,0.0049610339342273,0.005165811207071696,nvda,20191206
2019-12-06,11:46,11:46 AM,,,,0,0.0,0,212.88,212.85,212.861,1939,412737.07,10,,,212.87,212.856,,0.005118591726202578,nvda,20191206
2019-12-06,11:47,11:47 AM,212.835,212.77,212.831,106,22560.12,2,212.843,212.75,212.789,4005,852220.36,25,212.835,212.77,212.835,212.75,0.004625892726491684,0.004778611463945568,nvda,20191206
2019-12-06,11:48,11:48 AM,212.57,212.57,212.57,100,21257.0,1,212.749,212.54,212.634,6847,1455906.521,39,212.57,212.57,212.749,212.54,0.0033938947656607433,0.004046709510475639,nvda,20191206
2019-12-06,11:49,11:49 AM,,,,0,0.0,0,212.515,212.4,212.44,9816,2085316.7842,61,,,212.51,212.41,,0.0031306515816165634,nvda,20191206
2019-12-06,11:50,11:50 AM,212.4,212.4,212.4,86,18266.4,1,212.49,212.303,212.4,8076,1715339.9892,30,212.4,212.4,212.41,212.45,0.0025914439865755015,0.0029417736581404917,nvda,20191206
2019-12-06,11:51,11:51 AM,,,,0,0.0,0,212.594,212.463,212.518,5966,1267884.9602,26,,,212.48,212.54,,0.0034989635323949904,nvda,20191206
2019-12-06,11:52,11:52 AM,,,,0,0.0,0,212.59,212.54,212.554,3800,807706.69,13,,,212.54,212.549,,0.0036689536635234952,nvda,20191206
2019-12-06,11:53,11:53 AM,,,,0,0.0,0,212.58,212.439,212.5,7349,1561665.8491,40,,,212.53,212.544,,0.003413968466830738,nvda,20191206
2019-12-06,11:54,11:54 AM,,,,0,0.0,0,212.57,212.46,212.529,5315,1129589.543,32,,,212.535,212.57,,0.0035509049613509,nvda,20191206
2019-12-06,11:55,11:55 AM,212.585,212.585,212.585,100,21258.5,1,212.67,212.54,212.591,10703,2275364.2302,36,212.585,212.585,212.54,212.65,0.0034646992461683395,0.0038436657427389255,nvda,20191206
2019-12-06,11:56,11:56 AM,212.63,212.63,212.63,100,21263.0,1,212.666,212.63,212.646,1493,317480.4952,12,212.63,212.63,212.65,212.64,0.0036771126876908597,0.004103372887518474,nvda,20191206
2019-12-06,11:57,11:57 AM,212.64,212.64,212.64,137,29131.68,2,212.71,212.64,212.682,4285,911342.555,23,212.64,212.64,212.66,212.64,0.0037243156746958345,0.004273363018646979,nvda,20191206
2019-12-06,11:58,11:58 AM,212.67,212.67,212.67,30,6380.1,1,212.74,212.568,212.617,7985,1697746.7365,27,212.67,212.67,212.58,212.705,0.003865924635710893,0.003966436392998312,nvda,20191206
2019-12-06,11:59,11:59 AM,,,,0,0.0,0,212.74,212.562,212.67,9474,2014840.1408,23,,,212.733,212.598,,0.004216699641604144,nvda,20191206
2019-12-06,12:00,12 PM,,,,0,0.0,0,212.7,212.582,212.644,5227,1111493.1215,20,,,212.66,212.66,,0.004093928991344757,nvda,20191206
2019-12-06,12:01,12:01 PM,212.63,212.63,212.63,3,637.89,1,212.715,212.62,212.673,3826,813686.093,30,212.63,212.63,212.69,212.65,0.0036771126876908597,0.00423086548586492,nvda,20191206
2019-12-06,12:02,12:02 PM,212.56,212.56,212.56,300,63768.0,2,212.651,212.523,212.576,4501,956803.7637,27,212.56,212.56,212.64,212.54,0.0033466917786557685,0.0037728365214353145,nvda,20191206
2019-12-06,12:03,12:03 PM,212.525,212.48,212.518,812,172564.56,6,212.565,212.5,212.542,6577,1397887.6406,35,212.525,212.48,212.525,212.51,0.0031484392332346866,0.0036122902864806606,nvda,20191206
2019-12-06,12:04,12:04 PM,212.435,212.4,212.416,184,39084.54,2,212.54,212.35,212.461,14624,3107026.693,48,212.4,212.435,212.47,212.54,0.002666968765783488,0.0032298124914415917,nvda,20191206
2019-12-06,12:05,12:05 PM,212.52,212.51,212.515,400,85006.0,4,212.585,212.478,212.542,5499,1168771.0901,23,212.52,212.51,212.53,212.485,0.003134278337133114,0.0036122902864806606,nvda,20191206
2019-12-06,12:06,12:06 PM,212.53,212.51,212.518,400,85007.0,4,212.53,212.41,212.476,7331,1557661.14,43,212.53,212.51,212.5,212.481,0.0031484392332346866,0.0033006417127450683,nvda,20191206
2019-12-06,12:07,12:07 PM,212.445,212.445,212.445,100,21244.5,1,212.5,212.4,212.42,4274,907882.62,26,212.445,212.445,212.445,212.5,0.002803857428098022,0.0030362126198784606,nvda,20191206
2019-12-06,12:08,12:08 PM,212.55,212.55,212.55,100,21255.0,1,212.59,212.484,212.527,6949,1476852.6678,21,212.55,212.55,212.52,212.484,0.0032994887916507937,0.0035414610651770496,nvda,20191206
2019-12-06,12:09,12:09 PM,212.43,212.43,212.43,4,849.72,1,212.506,212.44,212.462,1648,350137.2749,11,212.43,212.43,212.506,212.45,0.00273305294759056,0.0032345344395283827,nvda,20191206
2019-12-06,12:10,12:10 PM,212.38,212.38,212.38,100,21238.0,1,212.427,212.36,212.405,3785,803954.47,13,212.38,212.38,212.427,212.38,0.002497038012565418,0.002965383398574984,nvda,20191206
2019-12-06,12:11,12:11 PM,212.32,212.32,212.32,100,21232.0,1,212.385,212.314,212.35,9315,1978035.65,31,212.32,212.32,212.35,212.35,0.002213820090535301,0.0027056762537953014,nvda,20191206
2019-12-06,12:12,12:12 PM,,,,0,0.0,0,212.43,212.31,212.355,5915,1256081.6204,28,,,212.335,212.42,,0.0027292859942297937,nvda,20191206
2019-12-06,12:13,12:13 PM,212.44,212.44,212.44,6,1274.64,2,212.481,212.42,212.465,1800,382436.53,8,212.44,212.44,212.433,212.47,0.0027802559345955348,0.0032487002837891586,nvda,20191206
2019-12-06,12:14,12:14 PM,212.41,212.34,212.386,320,67963.43,6,212.45,212.34,212.396,4107,872312.406,34,212.41,212.36,212.45,212.38,0.00252535980476843,0.0029228858657927904,nvda,20191206
2019-12-06,12:15,12:15 PM,212.34,212.34,212.34,100,21234.0,1,212.4,212.29,212.341,6772,1437972.6725,32,212.34,212.34,212.34,212.31,0.0023082260645453847,0.002663178721013242,nvda,20191206
2019-12-06,12:16,12:16 PM,212.31,212.29,212.295,203,43095.93,3,212.33,212.195,212.285,9227,1958749.27,56,212.31,212.29,212.3,212.31,0.00209581262302273,0.0023987496281466345,nvda,20191206
2019-12-06,12:17,12:17 PM,212.28,212.28,212.28,100,21228.0,1,212.383,212.26,212.328,2927,621483.1897,18,212.28,212.28,212.301,212.37,0.002025008142515268,0.002601793395883482,nvda,20191206
2019-12-06,12:18,12:18 PM,212.4,212.4,212.4,25,5310.0,1,212.476,212.37,212.417,3778,802510.1552,30,212.4,212.4,212.39,212.444,0.0025914439865755015,0.0030220467756178187,nvda,20191206
2019-12-06,12:19,12:19 PM,212.49,212.49,212.49,1,212.49,1,212.511,212.39,212.446,2835,602284.689,20,212.49,212.49,212.44,212.39,0.003016270869620677,0.0031589832701379808,nvda,20191206
2019-12-06,12:20,12:20 PM,,,,0,0.0,0,212.4,212.32,212.368,5209,1106223.3473,11,,,212.39,212.32,,0.0027906713193595538,nvda,20191206
2019-12-06,12:21,12:21 PM,,,,0,0.0,0,212.315,212.23,212.285,4595,975447.3425,27,,,212.315,212.23,,0.0023987496281466345,nvda,20191206
2019-12-06,12:22,12:22 PM,,,,0,0.0,0,212.26,212.2,212.235,3873,821986.8251,31,,,212.231,212.22,,0.0021626522238015785,nvda,20191206
2019-12-06,12:23,12:23 PM,,,,0,0.0,0,212.27,212.2,212.231,4548,965226.0543,25,,,212.219,212.27,,0.0021437644314538772,nvda,20191206
2019-12-06,12:24,12:24 PM,,,,0,0.0,0,212.34,212.3,212.326,661,140347.57,6,,,212.32,212.34,,0.0025923494997096316,nvda,20191206
2019-12-06,12:25,12:25 PM,,,,0,0.0,0,212.36,212.3,212.327,3633,771385.85,24,,,212.35,212.36,,0.0025970714477965566,nvda,20191206
2019-12-06,12:26,12:26 PM,,,,0,0.0,0,212.42,212.363,212.392,2711,575795.0816,21,,,212.37,212.382,,0.0029039980734452235,nvda,20191206
2019-12-06,12:27,12:27 PM,,,,0,0.0,0,212.42,212.31,212.354,2550,541503.745,17,,,212.42,212.334,,0.0027245640461430027,nvda,20191206
2019-12-06,12:28,12:28 PM,212.35,212.3,212.306,115,24415.25,2,212.35,212.25,212.287,5344,1134460.45,38,212.35,212.3,212.35,212.25,0.0021477359087283634,0.002408193524320485,nvda,20191206
2019-12-06,12:29,12:29 PM,212.14,212.07,212.116,500,106058.06,6,212.21,212.08,212.135,6584,1396697.27,43,212.13,212.13,212.2,212.12,0.0012508791556330382,0.0016904574151111976,nvda,20191206
2019-12-06,12:30,12:30 PM,212.03,211.85,211.894,995,210835.12,8,212.13,211.85,211.986,29882,6334552.4664,107,212.03,211.92,212.09,211.96,0.00020297284412160608,0.0009868871501626862,nvda,20191206
2019-12-06,12:31,12:31 PM,211.96,211.925,211.94,201,42599.96,3,211.99,211.89,211.94,8647,1832645.145,63,211.925,211.955,211.978,211.91,0.0004201065843446509,0.000769677538165197,nvda,20191206
2019-12-06,12:32,12:32 PM,211.92,211.85,211.856,3500,741497.5,34,211.92,211.84,211.865,9150,1938562.39,78,211.92,211.855,211.92,211.9,2.3601493502487373e-05,0.0004155314316475457,nvda,20191206
2019-12-06,12:33,12:33 PM,211.94,211.89,211.903,602,127565.82,6,211.96,211.89,211.915,8481,1797254.71,51,211.905,211.94,211.931,211.953,0.00024545553242605653,0.0006516288359926019,nvda,20191206
2019-12-06,12:34,12:34 PM,212.015,211.975,211.995,200,42399.0,2,212.02,211.95,211.988,7975,1690608.0125,30,211.975,212.015,211.98,211.996,0.0006797230128722803,0.0009963310463365369,nvda,20191206
2019-12-06,12:35,12:35 PM,212.06,212.02,212.042,184,39015.68,2,212.106,212.008,212.049,4992,1058549.2446,20,212.02,212.06,212.01,212.008,0.0009015770517958495,0.0012843698796376367,nvda,20191206
2019-12-06,12:36,12:36 PM,,,,0,0.0,0,212.05,211.97,211.997,2672,566457.31,16,,,211.987,211.97,,0.00103882857911873,nvda,20191206
2019-12-06,12:37,12:37 PM,,,,0,0.0,0,212.08,212.0,212.054,2415,512111.61,13,,,212.01,212.08,,0.001307979620072129,nvda,20191206
2019-12-06,12:38,12:38 PM,,,,0,0.0,0,212.109,212.05,212.097,4148,879780.196,10,,,212.094,212.05,,0.0015110233878089766,nvda,20191206
2019-12-06,12:39,12:39 PM,,,,0,0.0,0,212.11,212.028,212.059,5605,1188589.305,36,,,212.06,212.05,,0.001331589360506621,nvda,20191206
2019-12-06,12:40,12:40 PM,212.05,212.02,212.036,185,39226.7,3,212.06,212.005,212.041,2756,584384.2456,17,212.05,212.02,212.05,212.005,0.0008732552595928378,0.0012465942949423687,nvda,20191206
2019-12-06,12:41,12:41 PM,212.065,212.065,212.065,316,67012.54,3,212.07,211.99,212.035,4167,883549.77,35,212.065,212.065,212.04,212.02,0.0010101439219073719,0.0012182626064209513,nvda,20191206
2019-12-06,12:42,12:42 PM,212.05,212.05,212.05,100,21205.0,1,212.068,212.004,212.04,1810,383792.35,11,212.05,212.05,212.004,212.068,0.0009393394413999098,0.0012418723468554434,nvda,20191206
2019-12-06,12:43,12:43 PM,,,,0,0.0,0,212.07,212.002,212.028,1701,360659.23,13,,,212.07,212.05,,0.0011852089698126086,nvda,20191206
2019-12-06,12:44,12:44 PM,212.055,212.05,212.054,705,149497.775,8,212.065,212.01,212.044,2431,515478.37,23,212.055,212.055,212.05,212.01,0.0009582206362018728,0.0012607601392031445,nvda,20191206
2019-12-06,12:45,12:45 PM,211.97,211.97,211.97,200,42394.0,2,212.0,211.96,211.979,2118,448971.49,17,211.97,211.97,212.0,211.995,0.0005617155453597093,0.0009538335135544777,nvda,20191206
2019-12-06,12:46,12:46 PM,212.03,212.03,212.03,100,21203.0,1,212.05,212.01,212.031,5821,1234232.99,36,212.03,212.03,212.01,212.05,0.0008449334673898261,0.0011993748140733842,nvda,20191206
2019-12-06,12:47,12:47 PM,,,,0,0.0,0,212.04,212.03,212.036,1000,212036.0,9,,,212.035,212.04,,0.0012229845545078766,nvda,20191206
2019-12-06,12:48,12:48 PM,,,,0,0.0,0,212.025,211.99,212.01,1928,408756.12,15,,,212.02,212.01,,0.0011002139042483562,nvda,20191206
2019-12-06,12:49,12:49 PM,,,,0,0.0,0,212.04,212.004,212.021,4046,857836.255,28,,,212.02,212.017,,0.0011521553332042658,nvda,20191206
2019-12-06,12:50,12:50 PM,,,,0,0.0,0,212.035,211.95,211.994,4517,957579.33,28,,,212.01,212.01,,0.0010246627348579542,nvda,20191206
2019-12-06,12:51,12:51 PM,,,,0,0.0,0,211.97,211.86,211.898,3894,825129.1784,20,,,211.97,211.879,,0.0005713557185152747,nvda,20191206
2019-12-06,12:52,12:52 PM,211.76,211.74,211.75,200,42350.0,2,211.9,211.664,211.762,15578,3298830.1922,69,211.76,211.74,211.9,211.67,-0.00047675016875067426,-7.082922130347657e-05,nvda,20191206
2019-12-06,12:53,12:53 PM,,,,0,0.0,0,211.86,211.7,211.786,16374,3467782.57,44,,,211.7,211.84,,4.249753278219331e-05,nvda,20191206
2019-12-06,12:54,12:54 PM,211.95,211.875,211.912,310,65692.85,6,211.98,211.86,211.918,7109,1506522.83,34,211.91,211.875,211.86,211.93,0.00028793822073064113,0.0006657946802533777,nvda,20191206
2019-12-06,12:55,12:55 PM,211.95,211.95,211.95,48,10173.6,1,211.955,211.9,211.92,5500,1165560.24,24,211.95,211.95,211.93,211.9,0.00046730957134962566,0.000675238576427094,nvda,20191206
2019-12-06,12:56,12:56 PM,211.96,211.95,211.953,152,32216.92,2,211.97,211.91,211.945,4900,1038532.58,25,211.96,211.95,211.91,211.94,0.0004814704674511986,0.0007932872785996892,nvda,20191206
2019-12-06,12:57,12:57 PM,211.99,211.99,211.99,100,21199.0,1,211.99,211.92,211.944,2124,450169.47,21,211.99,211.99,211.99,211.94,0.0006561215193697929,0.0007885653305127639,nvda,20191206
2019-12-06,12:58,12:58 PM,211.94,211.94,211.94,58,12292.52,1,211.96,211.83,211.889,9300,1970569.1434,55,211.94,211.94,211.96,211.83,0.0004201065843446509,0.0005288581857332156,nvda,20191206
2019-12-06,12:59,12:59 PM,,,,0,0.0,0,211.93,211.85,211.876,3533,748558.02,13,,,211.85,211.9,,0.0004674728606034554,nvda,20191206
2019-12-06,13:00,1 PM,,,,0,0.0,0,211.918,211.86,211.895,2846,603053.78,14,,,211.918,211.86,,0.000557189874254633,nvda,20191206
2019-12-06,13:01,1:01 PM,,,,0,0.0,0,211.95,211.9,211.915,1544,327196.26,10,,,211.9,211.95,,0.0006516288359926019,nvda,20191206
2019-12-06,13:02,1:02 PM,211.985,211.985,211.985,7,1483.895,1,212.02,211.956,211.999,4573,969470.3004,15,211.985,211.985,211.98,211.97,0.0006325200258673056,0.0010482724752924465,nvda,20191206
2019-12-06,13:03,1:03 PM,211.965,211.965,211.965,1,211.965,1,211.99,211.95,211.966,2567,544116.2023,11,211.965,211.965,211.96,211.95,0.0005381140518572219,0.0008924481884247175,nvda,20191206
2019-12-06,13:04,1:04 PM,,,,0,0.0,0,211.94,211.895,211.916,6616,1402035.585,23,,,211.94,211.915,,0.0006563507840795271,nvda,20191206
2019-12-06,13:05,1:05 PM,211.83,211.83,211.83,5,1059.15,1,211.927,211.79,211.828,16137,3418271.1497,61,211.83,211.83,211.91,211.79,-9.91262727104738e-05,0.0002408193524321156,nvda,20191206
2019-12-06,13:06,1:06 PM,211.83,211.81,211.817,300,63545.0,3,211.88,211.756,211.823,5342,1131557.8,31,211.81,211.83,211.81,211.76,-0.00016049015581702148,0.00021720961199762342,nvda,20191206
2019-12-06,13:07,1:07 PM,,,,0,0.0,0,211.83,211.75,211.778,1648,349009.7736,15,,,211.756,211.78,,4.721948086925279e-06,nvda,20191206
2019-12-06,13:08,1:08 PM,,,,0,0.0,0,211.78,211.681,211.711,14214,3009258.0303,54,,,211.78,211.732,,-0.000311648573735458,nvda,20191206
2019-12-06,13:09,1:09 PM,,,,0,0.0,0,211.765,211.7,211.725,6170,1306342.482,36,,,211.71,211.7,,-0.0002455413005189067,nvda,20191206
2019-12-06,13:10,1:10 PM,211.725,211.71,211.722,126,26676.96,2,211.81,211.71,211.754,5842,1237066.5552,28,211.71,211.725,211.724,211.804,-0.0006089185323646841,-0.0001086048059987446,nvda,20191206
2019-12-06,13:11,1:11 PM,,,,0,0.0,0,211.86,211.79,211.825,3218,681652.0301,23,,,211.8,211.85,,0.00022665350817133978,nvda,20191206
2019-12-06,13:12,1:12 PM,211.805,211.805,211.805,100,21180.5,1,211.88,211.805,211.845,6158,1304543.399,23,211.805,211.805,211.86,211.82,-0.00021713374022304483,0.0003210924699094427,nvda,20191206
2019-12-06,13:13,1:13 PM,,,,0,0.0,0,211.836,211.75,211.79,4395,930816.7895,16,,,211.795,211.808,,6.138532512976023e-05,nvda,20191206
2019-12-06,13:14,1:14 PM,211.79,211.76,211.775,200,42355.0,2,211.81,211.72,211.764,6574,1392139.2243,24,211.79,211.76,211.78,211.76,-0.00035874270123810323,-6.138532512962602e-05,nvda,20191206
2019-12-06,13:15,1:15 PM,,,,0,0.0,0,211.78,211.68,211.733,9841,2083661.715,24,,,211.778,211.695,,-0.00020776571582363865,nvda,20191206
2019-12-06,13:16,1:16 PM,211.7,211.7,211.7,100,21170.0,1,211.788,211.666,211.708,7150,1513709.316,21,211.7,211.7,211.685,211.76,-0.0007127651037758163,-0.0003258144179962338,nvda,20191206
2019-12-06,13:17,1:17 PM,211.89,211.81,211.84,1110,235142.9,5,211.93,211.77,211.859,14126,2992727.9484,67,211.84,211.81,211.77,211.81,-5.192328570549905e-05,0.00038719974312612825,nvda,20191206
2019-12-06,13:18,1:18 PM,,,,0,0.0,0,211.854,211.681,211.747,10583,2240919.957,43,,,211.8,211.823,,-0.00014165844260695314,nvda,20191206
2019-12-06,13:19,1:19 PM,,,,0,0.0,0,211.8,211.78,211.793,600,127075.63,5,,,211.8,211.798,,7.555116939053606e-05,nvda,20191206
2019-12-06,13:20,1:20 PM,,,,0,0.0,0,211.8,211.622,211.711,5178,1096238.44,22,,,211.8,211.644,,-0.000311648573735458,nvda,20191206
2019-12-06,13:21,1:21 PM,,,,0,0.0,0,211.65,211.51,211.575,7941,1680115.421,50,,,211.62,211.65,,-0.0009538335135543434,nvda,20191206
2019-12-06,13:22,1:22 PM,,,,0,0.0,0,211.653,211.6,211.625,2501,529275.472,16,,,211.63,211.64,,-0.0007177361092091531,nvda,20191206
2019-12-06,13:23,1:23 PM,,,,0,0.0,0,211.75,211.68,211.721,3237,685340.265,20,,,211.68,211.71,,-0.00026442909286647357,nvda,20191206
2019-12-06,13:24,1:24 PM,,,,0,0.0,0,211.758,211.709,211.727,3225,682820.8175,10,,,211.728,211.758,,-0.0002360974043450561,nvda,20191206
2019-12-06,13:25,1:25 PM,211.75,211.725,211.745,203,42984.175,3,211.795,211.69,211.75,4200,889348.58,30,211.725,211.75,211.75,211.795,-0.0005003516622531616,-0.0001274925983463115,nvda,20191206
2019-12-06,13:26,1:26 PM,211.83,211.83,211.83,100,21183.0,1,211.909,211.79,211.874,7834,1659817.3776,31,211.83,211.83,211.79,211.84,-9.91262727104738e-05,0.00045802896442960483,nvda,20191206
2019-12-06,13:27,1:27 PM,211.84,211.84,211.84,100,21184.0,2,211.885,211.805,211.839,12412,2629344.7617,46,211.84,211.84,211.867,211.85,-5.192328570549905e-05,0.0002927607813880253,nvda,20191206
2019-12-06,13:28,1:28 PM,,,,0,0.0,0,211.97,211.88,211.926,8030,1701765.6578,42,,,211.88,211.94,,0.0007035702649485115,nvda,20191206
2019-12-06,13:29,1:29 PM,212.015,211.94,211.977,200,42395.5,2,212.015,211.928,211.983,11430,2422967.24,60,212.015,211.94,211.94,211.97,0.0005947576362632452,0.0009727213059020445,nvda,20191206
2019-12-06,13:30,1:30 PM,211.95,211.93,211.941,233,49382.35,3,211.98,211.92,211.947,9775,2071779.95,36,211.95,211.95,211.97,211.95,0.0004248268830451752,0.0008027311747735397,nvda,20191206
2019-12-06,13:31,1:31 PM,,,,0,0.0,0,212.0,211.93,211.971,4320,915715.464,22,,,211.951,211.96,,0.0009160579288592097,nvda,20191206
2019-12-06,13:32,1:32 PM,212.01,212.01,212.01,100,21201.0,1,212.02,211.955,211.999,4492,952297.6,22,212.01,212.01,211.955,211.98,0.0007505274933797424,0.0010482724752924465,nvda,20191206
2019-12-06,13:33,1:33 PM,,,,0,0.0,0,212.01,211.99,212.005,1080,228965.589,9,,,212.0,212.01,,0.0010766041638138638,nvda,20191206
2019-12-06,13:34,1:34 PM,211.99,211.98,211.982,120,25437.8,2,211.99,211.97,211.977,2239,474615.73,17,211.98,211.99,211.99,211.97,0.0006183591297657326,0.0009443896173806271,nvda,20191206
2019-12-06,13:35,1:35 PM,211.975,211.975,211.975,100,21197.5,1,212.0,211.97,211.986,1150,243784.02,9,211.975,211.975,212.0,212.0,0.0005853170388621967,0.0009868871501626862,nvda,20191206
2019-12-06,13:36,1:36 PM,,,,0,0.0,0,212.01,211.983,212.001,2693,570918.949,19,,,212.0,212.0,,0.001057716371466297,nvda,20191206
2019-12-06,13:37,1:37 PM,,,,0,0.0,0,212.03,211.96,211.998,6422,1361454.0103,45,,,211.993,212.0,,0.001043550527205521,nvda,20191206
2019-12-06,13:38,1:38 PM,212.015,212.015,212.015,100,21201.5,1,212.03,211.971,212.006,4059,860534.23,32,212.015,212.015,211.98,212.01,0.0007741289868822298,0.0010813261119007893,nvda,20191206
2019-12-06,13:39,1:39 PM,212.09,212.015,212.065,150,31809.75,2,212.2,212.003,212.092,10467,2219965.6993,54,212.015,212.09,212.01,212.16,0.0010101439219073719,0.0014874136473744842,nvda,20191206
2019-12-06,13:40,1:40 PM,,,,0,0.0,0,212.31,212.19,212.26,5098,1082099.27,24,,,212.19,212.3,,0.0022807009259740393,nvda,20191206
2019-12-06,13:41,1:41 PM,212.34,212.34,212.34,100,21234.0,1,212.38,212.307,212.348,8086,1717045.8037,34,212.34,212.34,212.312,212.37,0.0023082260645453847,0.002696232357621585,nvda,20191206
2019-12-06,13:42,1:42 PM,212.45,212.44,212.449,109,23156.99,4,212.47,212.375,212.447,7573,1608864.52,50,212.45,212.44,212.38,212.46,0.0028227386229001195,0.003163705218224906,nvda,20191206
2019-12-06,13:43,1:43 PM,212.42,212.42,212.42,100,21242.0,1,212.46,212.39,212.424,4043,858830.5595,34,212.42,212.42,212.442,212.451,0.002685849960585451,0.0030551004122261615,nvda,20191206
2019-12-06,13:44,1:44 PM,212.48,212.465,212.475,302,64167.43,3,212.5,212.45,212.486,11760,2498834.21,67,212.48,212.48,212.459,212.47,0.0029454663891130806,0.0033478611936140525,nvda,20191206
2019-12-06,13:45,1:45 PM,212.475,212.475,212.475,24,5099.4,1,212.49,212.46,212.473,614,130458.28,6,212.475,212.475,212.472,212.46,0.0029454663891130806,0.003286475868484427,nvda,20191206
2019-12-06,13:46,1:46 PM,212.46,212.45,212.455,200,42491.0,2,212.49,212.42,212.45,5010,1064372.305,32,212.46,212.45,212.465,212.42,0.002851060415103131,0.0031778710624855476,nvda,20191206
2019-12-06,13:47,1:47 PM,,,,0,0.0,0,212.471,212.41,212.448,6155,1307617.78,20,,,212.42,212.421,,0.0031684271663118316,nvda,20191206
2019-12-06,13:48,1:48 PM,,,,0,0.0,0,212.42,212.311,212.357,4737,1005933.038,39,,,212.42,212.32,,0.002738729890403644,nvda,20191206
2019-12-06,13:49,1:49 PM,,,,0,0.0,0,212.37,212.34,212.362,2000,424724.98,7,,,212.34,212.37,,0.0027623396308381364,nvda,20191206
2019-12-06,13:50,1:50 PM,212.37,212.37,212.37,200,42474.0,2,212.4,212.36,212.38,2524,536046.5,21,212.37,212.37,212.37,212.4,0.002449835025560443,0.002847334696402389,nvda,20191206
2019-12-06,13:51,1:51 PM,212.445,212.43,212.435,150,31865.25,2,212.45,212.383,212.418,2591,550376.112,19,212.43,212.445,212.4,212.45,0.0027566544410930474,0.003026768723704744,nvda,20191206
2019-12-06,13:52,1:52 PM,212.48,212.46,212.476,276,58643.34,5,212.48,212.38,212.445,4287,910751.766,37,212.47,212.46,212.45,212.38,0.0029501866878136047,0.0031542613220510557,nvda,20191206
2019-12-06,13:53,1:53 PM,212.425,212.425,212.425,4,849.7,1,212.45,212.385,212.419,2976,632160.3495,16,212.425,212.425,212.385,212.45,0.0027094514540880726,0.0030314906717916696,nvda,20191206
2019-12-06,13:54,1:54 PM,212.52,212.51,212.515,200,42503.0,2,212.52,212.455,212.494,6164,1309813.63,46,212.52,212.51,212.459,212.49,0.003134278337133114,0.0033856367783093207,nvda,20191206
2019-12-06,13:55,1:55 PM,212.58,212.5,212.537,279,59297.87,3,212.65,212.488,212.573,12999,2763237.57,67,212.5,212.58,212.488,212.62,0.003238124908544246,0.003758670677174673,nvda,20191206
2019-12-06,13:56,1:56 PM,212.54,212.54,212.54,100,21254.0,1,212.61,212.539,212.564,4031,856844.8915,31,212.54,212.54,212.59,212.562,0.003252285804645685,0.00371617314439248,nvda,20191206
2019-12-06,13:57,1:57 PM,212.645,212.645,212.645,1,212.645,1,212.7,212.6,212.657,3858,820429.8415,24,212.645,212.645,212.6,212.68,0.0037479171681984564,0.004155314316474518,nvda,20191206
2019-12-06,13:58,1:58 PM,212.735,212.735,212.735,100,21273.5,1,212.76,212.68,212.72,8772,1865980.459,30,212.735,212.735,212.7,212.7,0.004172744051243632,0.004452797045949334,nvda,20191206
2019-12-06,13:59,1:59 PM,212.74,212.74,212.74,50,10637.0,1,212.745,212.7,212.721,6976,1483940.4775,51,212.74,212.74,212.7,212.73,0.004196345544746119,0.004457518994036259,nvda,20191206
2019-12-06,14:00,2 PM,212.655,212.65,212.65,102,21690.31,2,212.71,212.55,212.636,5082,1080615.607,37,212.655,212.65,212.71,212.55,0.003771518661700944,0.004056153406649489,nvda,20191206
2019-12-06,14:01,2:01 PM,212.68,212.68,212.68,100,21268.0,1,212.75,212.588,212.674,7624,1621429.4496,44,212.68,212.68,212.59,212.73,0.003913127622716002,0.004235587433951845,nvda,20191206
2019-12-06,14:02,2:02 PM,212.79,212.79,212.79,40,8511.6,1,212.824,212.75,212.779,6448,1371996.7475,40,212.79,212.79,212.75,212.755,0.004432360479771126,0.004731391983076583,nvda,20191206
2019-12-06,14:03,2:03 PM,,,,0,0.0,0,212.78,212.741,212.757,1910,406365.88,15,,,212.747,212.761,,0.004627509125164764,nvda,20191206
2019-12-06,14:04,2:04 PM,,,,0,0.0,0,212.79,212.75,212.769,1616,343834.2484,14,,,212.761,212.76,,0.004684172502207599,nvda,20191206
2019-12-06,14:05,2:05 PM,212.75,212.72,212.745,202,42974.44,3,212.76,212.7,212.732,3630,772219.0376,20,212.75,212.72,212.74,212.7,0.0042199470382486065,0.004509460422992169,nvda,20191206
2019-12-06,14:06,2:06 PM,212.7,212.7,212.7,113,24035.1,2,212.73,212.67,212.691,2692,572565.2662,21,212.7,212.7,212.7,212.67,0.004007533596725951,0.004315860551429172,nvda,20191206
2019-12-06,14:07,2:07 PM,,,,0,0.0,0,212.74,212.67,212.701,15537,3304729.197,37,,,212.7,212.715,,0.004363080032298156,nvda,20191206
2019-12-06,14:08,2:08 PM,212.73,212.73,212.73,1,212.73,1,212.76,212.72,212.737,6399,1361307.19,38,212.73,212.73,212.73,212.76,0.00414914255774101,0.004533070163426661,nvda,20191206
2019-12-06,14:09,2:09 PM,212.76,212.76,212.76,3,638.28,1,212.774,212.75,212.76,3461,736363.9688,18,212.76,212.76,212.75,212.774,0.004290751518756068,0.0046416749694254055,nvda,20191206
2019-12-06,14:10,2:10 PM,,,,0,0.0,0,212.76,212.73,212.745,1753,372941.76,12,,,212.75,212.73,,0.0045708457481219295,nvda,20191206
2019-12-06,14:11,2:11 PM,212.73,212.71,212.72,2,425.44,2,212.79,212.619,212.709,8354,1776974.55,58,212.73,212.71,212.727,212.619,0.0041019395707360354,0.004400855616993425,nvda,20191206
2019-12-06,14:12,2:12 PM,,,,0,0.0,0,212.655,212.48,212.599,11895,2528863.55,76,,,212.62,212.5,,0.0038814413274340593,nvda,20191206
2019-12-06,14:13,2:13 PM,212.51,212.51,212.51,100,21251.0,1,212.58,212.46,212.506,4918,1045105.833,37,212.51,212.51,212.54,212.511,0.0031106768436306264,0.0034423001553521558,nvda,20191206
2019-12-06,14:14,2:14 PM,212.49,212.49,212.49,1,212.49,1,212.53,212.46,212.495,4830,1026353.438,36,212.49,212.49,212.53,212.498,0.003016270869620677,0.003390358726396246,nvda,20191206
2019-12-06,14:15,2:15 PM,212.52,212.52,212.52,99,21039.48,1,212.57,212.42,212.462,9520,2022638.08,24,212.52,212.52,212.49,212.49,0.0031578798306357353,0.0032345344395283827,nvda,20191206
2019-12-06,14:16,2:16 PM,212.44,212.435,212.439,128,27192.18,2,212.452,212.44,212.448,630,133842.028,3,212.435,212.44,212.452,212.44,0.0027755356358950107,0.0031684271663118316,nvda,20191206
2019-12-06,14:17,2:17 PM,212.5,212.5,212.5,3,637.5,1,212.535,212.436,212.474,2310,490816.06,20,212.5,212.5,212.44,212.535,0.0030634738566256516,0.003291197816571218,nvda,20191206
2019-12-06,14:18,2:18 PM,,,,0,0.0,0,212.55,212.44,212.49,5704,1212041.463,42,,,212.52,212.45,,0.003366748985961754,nvda,20191206
2019-12-06,14:19,2:19 PM,,,,0,0.0,0,212.51,212.46,212.478,1400,297469.48,14,,,212.49,212.46,,0.0033100856089189187,nvda,20191206
2019-12-06,14:20,2:20 PM,212.42,212.42,212.42,100,21242.0,1,212.47,212.419,212.437,3375,716973.7668,28,212.42,212.42,212.47,212.443,0.002685849960585451,0.003116485737355922,nvda,20191206
2019-12-06,14:21,2:21 PM,,,,0,0.0,0,212.55,212.455,212.507,3836,815175.621,27,,,212.455,212.5,,0.0034470221034390808,nvda,20191206
2019-12-06,14:22,2:22 PM,212.565,212.52,212.554,250,53138.5,3,212.618,212.5,212.549,6401,1360526.4785,37,212.52,212.565,212.5,212.56,0.0033183699864527566,0.0036453439230890033,nvda,20191206
2019-12-06,14:23,2:23 PM,,,,0,0.0,0,212.61,212.5,212.571,8264,1756682.942,36,,,212.57,212.5,,0.0037492267810008226,nvda,20191206
2019-12-06,14:24,2:24 PM,212.52,212.52,212.52,200,42504.0,2,212.598,212.46,212.541,3505,744956.7545,20,212.52,212.52,212.46,212.598,0.0031578798306357353,0.003607568338393735,nvda,20191206
2019-12-06,14:25,2:25 PM,212.595,212.595,212.595,6,1275.57,1,212.62,212.5,212.563,7260,1543203.7945,30,212.595,212.595,212.6,212.5,0.0035119022331733143,0.0037114511963055544,nvda,20191206
2019-12-06,14:26,2:26 PM,212.49,212.49,212.49,100,21249.0,1,212.52,212.46,212.49,5680,1206946.563,37,212.49,212.49,212.49,212.49,0.003016270869620677,0.003366748985961754,nvda,20191206
2019-12-06,14:27,2:27 PM,,,,0,0.0,0,212.54,212.44,212.48,2703,574332.7288,19,,,212.479,212.54,,0.003319529505092635,nvda,20191206
2019-12-06,14:28,2:28 PM,,,,0,0.0,0,212.65,212.54,212.582,11965,2543549.2159,49,,,212.54,212.55,,0.0038011682099567323,nvda,20191206
2019-12-06,14:29,2:29 PM,212.54,212.52,212.53,200,42506.0,2,212.55,212.46,212.519,4500,956337.12,36,212.54,212.52,212.54,212.47,0.00320508281764071,0.003503685480481916,nvda,20191206
2019-12-06,14:30,2:30 PM,,,,0,0.0,0,212.46,212.38,212.419,12028,2554974.2271,70,,,212.45,212.385,,0.0030314906717916696,nvda,20191206
2019-12-06,14:31,2:31 PM,,,,0,0.0,0,212.385,212.23,212.304,13903,2951666.8616,80,,,212.385,212.3,,0.0024884666417978123,nvda,20191206
2019-12-06,14:32,2:32 PM,,,,0,0.0,0,212.41,212.293,212.344,5033,1068729.077,33,,,212.3,212.4,,0.002677344565273884,nvda,20191206
2019-12-06,14:33,2:33 PM,,,,0,0.0,0,212.4,212.22,212.304,6262,1329449.3238,37,,,212.38,212.34,,0.0024884666417978123,nvda,20191206
2019-12-06,14:34,2:34 PM,,,,0,0.0,0,212.384,212.315,212.335,1310,278159.56,11,,,212.32,212.37,,0.002634847032491825,nvda,20191206
2019-12-06,14:35,2:35 PM,212.4,212.4,212.4,105,22302.0,2,212.405,212.33,212.375,2836,602296.2648,23,212.4,212.4,212.378,212.34,0.0025914439865755015,0.0028237249559678965,nvda,20191206
2019-12-06,14:36,2:36 PM,,,,0,0.0,0,212.37,212.24,212.291,4640,985030.695,26,,,212.32,212.26,,0.002427081316668052,nvda,20191206
2019-12-06,14:37,2:37 PM,,,,0,0.0,0,212.36,212.28,212.317,3077,653298.79,30,,,212.28,212.33,,0.0025498519669275724,nvda,20191206
2019-12-06,14:38,2:38 PM,,,,0,0.0,0,212.38,212.32,212.358,2906,617112.61,28,,,212.34,212.375,,0.0027434518384905696,nvda,20191206
2019-12-06,14:39,2:39 PM,212.4,212.4,212.4,100,21240.0,1,212.405,212.37,212.39,4711,1000568.725,29,212.4,212.4,212.37,212.375,0.0025914439865755015,0.002894554177271373,nvda,20191206
2019-12-06,14:40,2:40 PM,212.375,212.31,212.311,102,21655.75,2,212.38,212.29,212.336,3700,785644.19,29,212.375,212.31,212.37,212.36,0.002171337402230851,0.0026395689805787503,nvda,20191206
2019-12-06,14:41,2:41 PM,212.34,212.34,212.34,100,21234.0,1,212.39,212.31,212.363,3474,737749.82,23,212.34,212.34,212.38,212.37,0.0023082260645453847,0.0027670615789250614,nvda,20191206
2019-12-06,14:42,2:42 PM,212.3,212.3,212.3,100,21230.0,1,212.35,212.27,212.304,7682,1630921.3762,40,212.3,212.3,212.34,212.34,0.002119414116525352,0.0024884666417978123,nvda,20191206
2019-12-06,14:43,2:43 PM,212.38,212.38,212.38,100,21238.0,1,212.43,212.33,212.38,8334,1769977.69,54,212.38,212.38,212.33,212.38,0.002497038012565418,0.002847334696402389,nvda,20191206
2019-12-06,14:44,2:44 PM,,,,0,0.0,0,212.403,212.33,212.377,8260,1754232.365,24,,,212.38,212.33,,0.002833168852141747,nvda,20191206
2019-12-06,14:45,2:45 PM,,,,0,0.0,0,212.43,212.3,212.336,14320,3040654.8592,41,,,212.38,212.415,,0.0026395689805787503,nvda,20191206
2019-12-06,14:46,2:46 PM,212.44,212.44,212.44,5,1062.2,1,212.57,212.43,212.499,11496,2442890.4388,34,212.44,212.44,212.43,212.53,0.0027802559345955348,0.003409246518743813,nvda,20191206
2019-12-06,14:47,2:47 PM,212.54,212.51,212.538,105,22316.55,2,212.55,212.5,212.52,7087,1506127.236,41,212.51,212.54,212.53,212.5,0.0032428452072447702,0.0035084074285688413,nvda,20191206
2019-12-06,14:48,2:48 PM,,,,0,0.0,0,212.56,212.51,212.537,2565,545157.91,21,,,212.53,212.53,,0.0035886805460461683,nvda,20191206
2019-12-06,14:49,2:49 PM,212.52,212.52,212.52,50,10626.0,1,212.57,212.48,212.517,3091,656888.74,22,212.52,212.52,212.57,212.54,0.0031578798306357353,0.0034942415843080654,nvda,20191206
2019-12-06,14:50,2:50 PM,,,,0,0.0,0,212.63,212.505,212.577,14525,3087681.193,47,,,212.52,212.63,,0.00377755846952224,nvda,20191206
2019-12-06,14:51,2:51 PM,,,,0,0.0,0,212.65,212.59,212.61,3909,831092.7311,23,,,212.61,212.62,,0.003933382756390103,nvda,20191206
2019-12-06,14:52,2:52 PM,212.66,212.62,212.648,36,7655.32,2,212.69,212.61,212.671,6814,1449138.78,36,212.62,212.66,212.62,212.69,0.003762078064299895,0.004221421589691069,nvda,20191206
2019-12-06,14:53,2:53 PM,212.7,212.65,212.678,319,67844.43,4,212.71,212.66,212.691,9400,1999297.7595,37,212.69,212.7,212.7,212.71,0.0039036870253149536,0.004315860551429172,nvda,20191206
2019-12-06,14:54,2:54 PM,212.74,212.73,212.73,500,106365.1,7,212.77,212.7,212.736,9898,2105659.0,59,212.73,212.74,212.74,212.74,0.00414914255774101,0.004528348215339736,nvda,20191206
2019-12-06,14:55,2:55 PM,,,,0,0.0,0,212.74,212.69,212.714,2993,636654.76,25,,,212.73,212.74,,0.004424465357427917,nvda,20191206
2019-12-06,14:56,2:56 PM,212.74,212.74,212.74,100,21274.0,1,212.77,212.67,212.72,6829,1452666.5988,40,212.74,212.74,212.74,212.705,0.004196345544746119,0.004452797045949334,nvda,20191206
2019-12-06,14:57,2:57 PM,212.645,212.535,212.607,402,85468.215,6,212.73,212.525,212.618,10159,2159985.2145,84,212.645,212.535,212.72,212.525,0.0035685458175793374,0.003971158341085237,nvda,20191206
2019-12-06,14:58,2:58 PM,212.525,212.46,212.512,202,42927.42,3,212.535,212.45,212.493,4766,1012741.462,38,212.525,212.46,212.525,212.5,0.003120117441031675,0.0033809148302223952,nvda,20191206
2019-12-06,14:59,2:59 PM,,,,0,0.0,0,212.515,212.456,212.485,5114,1086648.5,33,,,212.51,212.475,,0.0033431392455272615,nvda,20191206
2019-12-06,15:00,3 PM,212.4,212.4,212.4,400,84960.0,2,212.464,212.37,212.401,7537,1600864.93,39,212.4,212.4,212.464,212.407,0.0025914439865755015,0.002946495606227417,nvda,20191206
2019-12-06,15:01,3:01 PM,212.37,212.37,212.37,200,42474.0,3,212.4,212.33,212.364,5890,1250821.6362,43,212.37,212.37,212.39,212.35,0.002449835025560443,0.002771783527011987,nvda,20191206
2019-12-06,15:02,3:02 PM,212.425,212.41,212.418,437,92826.725,4,212.477,212.34,212.416,8457,1796405.4062,51,212.425,212.41,212.34,212.42,0.0026764093631845365,0.0030173248275308937,nvda,20191206
2019-12-06,15:03,3:03 PM,,,,0,0.0,0,212.407,212.37,212.393,5125,1088512.922,35,,,212.405,212.4,,0.002908720021532149,nvda,20191206
2019-12-06,15:04,3:04 PM,212.38,212.38,212.38,30,6371.4,1,212.4,212.32,212.346,3983,845773.94,25,212.38,212.38,212.36,212.4,0.002497038012565418,0.0026867884614477345,nvda,20191206
2019-12-06,15:05,3:05 PM,212.41,212.37,212.381,106,22512.38,3,212.425,212.321,212.391,7397,1571054.4776,47,212.41,212.38,212.4,212.39,0.0025017583112659425,0.0028992761253582985,nvda,20191206
2019-12-06,15:06,3:06 PM,212.41,212.41,212.41,4,849.64,1,212.424,212.33,212.362,5003,1062448.5524,32,212.41,212.41,212.405,212.35,0.0026386469735804764,0.0027623396308381364,nvda,20191206
2019-12-06,15:07,3:07 PM,212.29,212.29,212.29,100,21229.0,1,212.37,212.27,212.312,14053,2983624.04,67,212.29,212.29,212.345,212.35,0.0020722111295202426,0.00252624222649308,nvda,20191206
2019-12-06,15:08,3:08 PM,212.25,212.25,212.25,100,21225.0,3,212.369,212.18,212.276,9035,1917913.775,47,212.25,212.25,212.35,212.265,0.0018833991815002096,0.0023562520953645753,nvda,20191206
2019-12-06,15:09,3:09 PM,212.27,212.27,212.27,1,212.27,1,212.3,212.25,212.276,5179,1099376.88,41,212.27,212.27,212.251,212.28,0.0019778051555102935,0.0023562520953645753,nvda,20191206
2019-12-06,15:10,3:10 PM,212.3,212.3,212.3,100,21230.0,1,212.3,212.255,212.283,4821,1023416.94,28,212.3,212.3,212.255,212.3,0.002119414116525352,0.002389305731972784,nvda,20191206
2019-12-06,15:11,3:11 PM,,,,0,0.0,0,212.303,212.27,212.287,4291,910923.378,26,,,212.3,212.29,,0.002408193524320485,nvda,20191206
2019-12-06,15:12,3:12 PM,,,,0,0.0,0,212.301,212.26,212.285,2219,471060.4687,21,,,212.28,212.301,,0.0023987496281466345,nvda,20191206
2019-12-06,15:13,3:13 PM,212.26,212.26,212.26,1,212.26,1,212.31,212.17,212.216,4004,849712.55,36,212.26,212.26,212.28,212.18,0.0019306021685051844,0.0020729352101504007,nvda,20191206
2019-12-06,15:14,3:14 PM,,,,0,0.0,0,212.31,212.18,212.249,5053,1072492.57,31,,,212.18,212.303,,0.0022287594970181296,nvda,20191206
2019-12-06,15:15,3:15 PM,212.27,212.24,212.24,121,25681.07,4,212.3,212.24,212.265,4312,915285.12,35,212.27,212.24,212.3,212.27,0.0018361961944952348,0.0023043106664085316,nvda,20191206
2019-12-06,15:16,3:16 PM,212.24,212.24,212.24,3,636.72,1,212.269,212.241,212.253,1300,275928.86,11,212.24,212.24,212.241,212.25,0.0018361961944952348,0.0022476472893656965,nvda,20191206
2019-12-06,15:17,3:17 PM,,,,0,0.0,0,212.275,212.17,212.23,5691,1207801.5957,35,,,212.26,212.26,,0.002139042483366952,nvda,20191206
2019-12-06,15:18,3:18 PM,212.25,212.24,212.247,144,30563.56,2,212.285,212.21,212.24,3782,802693.6932,23,212.25,212.24,212.27,212.285,0.0018692382853987709,0.0021862619642360704,nvda,20191206
2019-12-06,15:19,3:19 PM,212.28,212.27,212.275,2,424.55,2,212.3,212.19,212.246,3402,722062.66,28,212.28,212.27,212.3,212.22,0.002001406649012781,0.002214593652757488,nvda,20191206
2019-12-06,15:20,3:20 PM,,,,0,0.0,0,212.2,212.16,212.174,1438,305106.8,9,,,212.18,212.16,,0.0018746133905004783,nvda,20191206
2019-12-06,15:21,3:21 PM,212.275,212.22,212.27,320,67926.4,4,212.3,212.167,212.257,9360,1986721.97,56,212.22,212.27,212.167,212.3,0.0019778051555102935,0.002266535081713398,nvda,20191206
2019-12-06,15:22,3:22 PM,212.415,212.4,212.409,158,33560.7,2,212.415,212.28,212.343,7944,1686854.475,46,212.415,212.4,212.29,212.4,0.0026339266748799522,0.0026726226171869586,nvda,20191206
2019-12-06,15:23,3:23 PM,212.35,212.35,212.35,2,424.7,2,212.41,212.337,212.36,7045,1496076.92,51,212.35,212.35,212.385,212.35,0.0023554290515503595,0.00275289573466442,nvda,20191206
2019-12-06,15:24,3:24 PM,212.35,212.35,212.35,100,21235.0,1,212.36,212.33,212.349,8608,1827898.635,40,212.35,212.35,212.35,212.34,0.0023554290515503595,0.002700954305708376,nvda,20191206
2019-12-06,15:25,3:25 PM,,,,0,0.0,0,212.352,212.33,212.345,3682,781855.5723,30,,,212.338,212.34,,0.002682066513360809,nvda,20191206
2019-12-06,15:26,3:26 PM,212.31,212.29,212.294,345,73241.59,6,212.35,212.29,212.309,2387,506782.19,21,212.31,212.305,212.32,212.35,0.00209109232432234,0.002512076382232304,nvda,20191206
2019-12-06,15:27,3:27 PM,212.33,212.3,212.301,105,22291.61,4,212.365,212.3,212.343,5013,1064474.49,41,212.33,212.3,212.32,212.304,0.002124134415225742,0.0026726226171869586,nvda,20191206
2019-12-06,15:28,3:28 PM,212.28,212.26,212.267,55,11674.68,3,212.3,212.24,212.268,4443,943104.981,28,212.28,212.26,212.292,212.3,0.0019636442594087203,0.0023184765106693075,nvda,20191206
2019-12-06,15:29,3:29 PM,,,,0,0.0,0,212.3,212.23,212.265,2700,573116.46,18,,,212.27,212.23,,0.0023043106664085316,nvda,20191206
2019-12-06,15:30,3:30 PM,212.16,212.16,212.16,1,212.16,1,212.26,212.113,212.165,22217,4713675.195,92,212.16,212.16,212.22,212.24,0.0014585722984550343,0.0018321158577182851,nvda,20191206
2019-12-06,15:31,3:31 PM,212.235,212.235,212.235,13,2759.055,1,212.27,212.2,212.23,4684,994085.93,34,212.235,212.235,212.2,212.27,0.0018125947009927474,0.002139042483366952,nvda,20191206
2019-12-06,15:32,3:32 PM,212.295,212.295,212.295,100,21229.5,1,212.31,212.26,212.284,7112,1509766.2072,54,212.295,212.295,212.26,212.28,0.00209581262302273,0.002394027680059709,nvda,20191206
2019-12-06,15:33,3:33 PM,212.355,212.33,212.355,201,42683.33,3,212.355,212.28,212.324,8609,1827895.406,53,212.355,212.33,212.28,212.321,0.002379030545052847,0.002582905603535915,nvda,20191206
2019-12-06,15:34,3:34 PM,212.35,212.3,212.349,104,22084.3,3,212.38,212.27,212.336,12343,2620862.1826,83,212.35,212.3,212.32,212.35,0.0023507087528498354,0.0026395689805787503,nvda,20191206
2019-12-06,15:35,3:35 PM,212.24,212.2,212.202,51,10822.28,2,212.33,212.193,212.247,5847,1241006.2995,38,212.24,212.2,212.33,212.22,0.0016568248438761162,0.002219315600844413,nvda,20191206
2019-12-06,15:36,3:36 PM,212.23,212.19,212.202,223,47321.07,6,212.27,212.19,212.241,5410,1148224.1753,38,212.2,212.23,212.21,212.27,0.0016568248438761162,0.002190983912322996,nvda,20191206
2019-12-06,15:37,3:37 PM,212.3,212.3,212.3,1,212.3,1,212.33,212.26,212.297,3569,757688.356,31,212.3,212.3,212.281,212.325,0.002119414116525352,0.0024554130051894696,nvda,20191206
2019-12-06,15:38,3:38 PM,212.35,212.32,212.334,209,44377.925,4,212.37,212.32,212.345,5511,1170231.4533,48,212.35,212.32,212.35,212.33,0.002279904272342373,0.002682066513360809,nvda,20191206
2019-12-06,15:39,3:39 PM,212.41,212.35,212.399,725,153989.25,5,212.41,212.33,212.37,8577,1821500.625,59,212.355,212.4,212.34,212.41,0.0025867236878749774,0.002800115215533404,nvda,20191206
2019-12-06,15:40,3:40 PM,212.395,212.36,212.381,902,191567.76,8,212.42,212.36,212.388,10577,2246425.75,65,212.375,212.38,212.42,212.388,0.0025017583112659425,0.0028851102810976566,nvda,20191206
2019-12-06,15:41,3:41 PM,212.4,212.35,212.377,807,171388.54,8,212.42,212.357,212.379,9182,1950062.14,72,212.36,212.35,212.379,212.36,0.002482877116463979,0.0028426127483154634,nvda,20191206
2019-12-06,15:42,3:42 PM,212.365,212.28,212.327,400,84931.0,4,212.38,212.26,212.312,7418,1574933.24,56,212.365,212.28,212.353,212.324,0.002246862181438837,0.00252624222649308,nvda,20191206
2019-12-06,15:43,3:43 PM,212.33,212.28,212.297,3,636.89,2,212.345,212.256,212.303,5928,1258531.5801,48,212.33,212.28,212.34,212.34,0.0021052532204237787,0.002483744693710887,nvda,20191206
2019-12-06,15:44,3:44 PM,,,,0,0.0,0,212.389,212.3,212.344,8721,1851854.7025,67,,,212.35,212.331,,0.002677344565273884,nvda,20191206
2019-12-06,15:45,3:45 PM,212.28,212.27,212.275,2,424.55,2,212.335,212.25,212.284,5628,1194732.203,49,212.28,212.27,212.335,212.25,0.002001406649012781,0.002394027680059709,nvda,20191206
2019-12-06,15:46,3:46 PM,,,,0,0.0,0,212.27,212.215,212.24,4558,967392.5885,41,,,212.25,212.23,,0.0021862619642360704,nvda,20191206
2019-12-06,15:47,3:47 PM,,,,0,0.0,0,212.26,212.19,212.226,5609,1190378.54,35,,,212.22,212.19,,0.002120154691019385,nvda,20191206
2019-12-06,15:48,3:48 PM,212.21,212.11,212.207,103,21857.34,3,212.21,212.11,212.136,10568,2241856.256,66,212.21,212.11,212.21,212.13,0.0016804263373786036,0.001695179363198123,nvda,20191206
2019-12-06,15:49,3:49 PM,212.11,212.065,212.082,325,68926.75,4,212.11,212.05,212.077,16347,3466832.2641,107,212.11,212.065,212.11,212.07,0.0010903889998158825,0.0014165844260708735,nvda,20191206
2019-12-06,15:50,3:50 PM,212.155,212.05,212.094,818,173492.84,10,212.185,211.9,212.084,25549,5418534.965,158,212.075,212.05,212.07,212.03,0.001147032584221906,0.0014496380626792163,nvda,20191206
2019-12-06,15:51,3:51 PM,212.04,212.04,212.04,6,1272.24,3,212.143,211.95,212.056,14686,3114252.749,107,212.04,212.04,212.02,211.95,0.0008921364543948008,0.0013174235162459794,nvda,20191206
2019-12-06,15:52,3:52 PM,212.0,211.87,211.917,214,45350.19,7,212.01,211.847,211.94,22652,4800858.1308,136,212.0,211.87,211.97,211.88,0.0003115397142331285,0.000769677538165197,nvda,20191206
2019-12-06,15:53,3:53 PM,211.99,211.87,211.918,730,154699.91,11,212.0,211.82,211.919,14760,3127924.1155,90,211.99,211.87,211.86,211.871,0.0003162600129336528,0.000670516628340303,nvda,20191206
2019-12-06,15:54,3:54 PM,211.96,211.85,211.875,288,61019.9,5,211.97,211.84,211.911,20926,4434460.1479,136,211.85,211.96,211.88,211.95,0.00011328716881204671,0.0006327410436450349,nvda,20191206
2019-12-06,15:55,3:55 PM,212.1,211.87,211.966,1461,309682.07,17,212.15,211.85,211.984,28160,5969461.9868,197,211.97,212.1,211.93,212.1,0.0005428343505577462,0.0009774432539889698,nvda,20191206
2019-12-06,15:56,3:56 PM,211.97,211.94,211.97,62,13142.11,2,212.1,211.91,211.98,22446,4758105.4066,151,211.94,211.97,212.1,211.995,0.0005617155453597093,0.0009585554616412688,nvda,20191206
2019-12-06,15:57,3:57 PM,212.015,211.965,211.987,961,203719.78,10,212.04,211.94,211.986,20648,4377082.5174,154,211.99,211.97,212.0,211.97,0.00064196062326822,0.0009868871501626862,nvda,20191206
2019-12-06,15:58,3:58 PM,212.05,211.95,211.999,754,159846.91,10,212.06,211.93,211.989,32210,6828169.2832,232,211.965,212.02,211.97,212.04,0.0006986042076742434,0.001001052994423462,nvda,20191206
2019-12-06,15:59,3:59 PM,212.195,212.03,212.109,3651,774408.625,48,212.22,212.03,212.113,88225,18713699.323,584,212.04,212.15,212.04,212.18,0.0012178370647295022,0.0015865745571993783,nvda,20191206
