date,minute,label,high,low,average,volume,notional,numberOfTrades,marketHigh,marketLow,marketAverage,marketVolume,marketNotional,marketNumberOfTrades,open,close,marketOpen,marketClose,changeOverTime,marketChangeOverTime,tickerName,tickerDate
2020-02-11,09:30,09:30 AM,267.675,265.75,266.906,5937,1584620.94,56,267.77,265.69,267.048,291116,77741928.9878,645,267.4,266.42,267.32,266.22,0.0,0.0,nvda,20200211
2020-02-11,09:31,09:31 AM,266.35,265.64,265.964,1810,481394.44,21,266.41,265.595,265.987,93302,24817150.3768,510,266.125,265.675,266.11,265.7,-0.0035293324241493533,-0.00397306851202772,nvda,20200211
2020-02-11,09:32,09:32 AM,267.36,265.685,266.215,7712,2053053.28,93,267.61,265.6,266.492,111951,29834014.505,637,265.685,267.36,265.63,267.36,-0.002588926438521543,-0.0020820227075281717,nvda,20200211
2020-02-11,09:33,09:33 AM,267.91,267.11,267.316,9527,2546721.92,50,267.94,267.055,267.42,140131,37473791.3484,908,267.4,267.27,267.542,267.231,0.0015361213311052137,0.001393007998562109,nvda,20200211
2020-02-11,09:34,09:34 AM,267.27,266.54,266.801,2120,565617.43,24,267.32,266.35,266.973,93917,25073260.7437,465,267.27,266.545,267.27,266.5,-0.000393396926258751,-0.0002808483868068236,nvda,20200211
2020-02-11,09:35,09:35 AM,267.07,266.46,266.796,2750,733688.2,28,267.091,266.43,266.794,49511,13209251.0766,343,266.685,266.99,266.55,266.79,-0.0004121301132234331,-0.0009511398699859916,nvda,20200211
2020-02-11,09:36,09:36 AM,267.28,266.71,267.045,2603,695117.01,31,267.31,266.45,266.927,58107,15510345.9622,369,266.71,266.745,266.84,266.47,0.0005207825976186747,-0.00045310206404833926,nvda,20200211
2020-02-11,09:37,09:37 AM,266.62,265.685,266.022,4609,1226095.855,20,266.62,265.55,266.013,81225,21606876.7624,455,266.585,265.705,266.46,265.55,-0.00331202745535887,-0.003875707737934847,nvda,20200211
2020-02-11,09:38,09:38 AM,265.6,264.965,265.268,3813,1011468.4,16,265.691,264.83,265.165,83435,22124077.2233,447,265.6,264.975,265.644,264.975,-0.006136992049635578,-0.007051166831430984,nvda,20200211
2020-02-11,09:39,09:39 AM,265.815,265.005,265.449,1002,265980.13,11,265.9,264.95,265.551,61510,16334040.2622,345,265.005,265.7,264.987,265.6,-0.0054588506815133175,-0.005605733800665102,nvda,20200211
2020-02-11,09:40,09:40 AM,265.98,265.25,265.466,812,215558.26,9,266.479,265.25,265.808,71302,18952666.2566,443,265.515,265.98,265.59,266.44,-0.005395157845833356,-0.004643359995206888,nvda,20200211
2020-02-11,09:41,09:41 AM,266.96,266.465,266.658,450,119996.0,5,267.13,266.36,266.873,119790,31968692.3663,503,266.465,266.96,266.42,267.012,-0.0009291660734490437,-0.000655312902549397,nvda,20200211
2020-02-11,09:42,09:42 AM,267.795,267.36,267.649,1000,267649.52,8,267.97,267.01,267.453,80644,21568451.3842,403,267.5,267.795,267.042,267.9,0.0027837515829542796,0.0015165812887569753,nvda,20200211
2020-02-11,09:43,09:43 AM,268.695,267.895,268.188,1207,323703.03,10,269.0,267.83,268.336,114276,30664376.7482,618,267.935,268.695,267.935,268.98,0.004803189137748804,0.004823102962763289,nvda,20200211
2020-02-11,09:44,09:44 AM,269.34,268.59,269.021,1200,322825.0,10,269.475,268.51,268.917,121571,32692534.914,627,268.885,269.34,268.97,269.475,0.007924138086067787,0.006998741799226998,nvda,20200211
2020-02-11,09:45,09:45 AM,269.27,268.74,269.069,1453,390957.26,15,269.49,268.66,269.153,101391,27289704.7234,481,269.27,268.74,269.43,268.81,0.008103976680928908,0.007882478056379446,nvda,20200211
2020-02-11,09:46,09:46 AM,268.91,268.32,268.594,2136,573716.065,27,268.959,268.31,268.616,49532,13305094.2258,289,268.91,268.84,268.87,268.885,0.0063243239192824,0.005871603606842154,nvda,20200211
2020-02-11,09:47,09:47 AM,269.29,268.925,269.026,914,245889.94,9,269.29,268.843,269.065,45285,12184620.7584,295,268.96,268.925,268.94,269.05,0.00794287127303247,0.007552949282525973,nvda,20200211
2020-02-11,09:48,09:48 AM,269.18,269.03,269.082,300,80724.5,3,269.23,268.99,269.084,50998,13722752.8747,331,269.18,269.03,269.17,269.06,0.008152682967037039,0.007624097540517066,nvda,20200211
2020-02-11,09:49,09:49 AM,269.17,269.03,269.08,402,108170.34,5,269.66,268.84,269.306,46984,12653067.7404,228,269.12,269.17,269.16,269.57,0.008145189692251123,0.008455408765465315,nvda,20200211
2020-02-11,09:50,09:50 AM,,,,0,0.0,0,269.814,269.27,269.531,57221,15422829.497,271,,,269.57,269.406,,0.009297953925885998,nvda,20200211
2020-02-11,09:51,09:51 AM,269.66,269.37,269.482,730,196721.9,7,269.73,269.28,269.503,40138,10817324.549,226,269.48,269.37,269.4,269.375,0.0096513379242131,0.009193103861478027,nvda,20200211
2020-02-11,09:52,09:52 AM,269.4,269.03,269.173,3600,969022.5,21,269.42,268.98,269.162,47130,12685621.8445,293,269.4,269.03,269.4,269.09,0.008493626969794594,0.007916179862796111,nvda,20200211
2020-02-11,09:53,09:53 AM,269.52,269.18,269.339,1550,417475.0,6,269.58,269.135,269.383,39715,10698550.2841,195,269.18,269.415,269.14,269.392,0.009115568777022595,0.008743746442587024,nvda,20200211
2020-02-11,09:54,09:54 AM,269.96,269.42,269.636,1202,324102.54,11,270.05,269.39,269.822,100453,27104466.0244,502,269.42,269.78,269.44,269.76,0.010228320082725822,0.010387645666696628,nvda,20200211
2020-02-11,09:55,09:55 AM,270.0,269.725,269.89,3143,848265.065,24,270.02,269.71,269.898,44144,11914391.1015,281,269.815,269.97,269.73,270.02,0.011179965980532398,0.010672238698661,nvda,20200211
2020-02-11,09:56,09:56 AM,269.96,269.52,269.747,3480,938719.8,32,270.05,269.46,269.696,66574,17954770.2085,398,269.96,269.52,269.96,269.521,0.010644196833342105,0.00991582037686118,nvda,20200211
2020-02-11,09:57,09:57 AM,269.85,269.445,269.584,715,192752.85,9,270.0,269.37,269.726,52738,14224828.6668,346,269.445,269.815,269.54,269.851,0.010033494938292871,0.010028159731583825,nvda,20200211
2020-02-11,09:58,09:58 AM,270.415,270.065,270.301,1551,419237.18,13,270.555,269.9,270.317,79047,21367784.9955,373,270.065,270.38,269.9,270.38,0.012719833949030677,0.012241245019621962,nvda,20200211
2020-02-11,09:59,09:59 AM,270.43,269.92,270.382,23051,6232577.89,38,270.545,269.973,270.357,91503,24738479.762,353,270.42,269.92,270.51,269.973,0.013023311577858868,0.012391030825919034,nvda,20200211
2020-02-11,10:00,10 AM,270.48,269.94,270.278,1670,451364.025,11,270.69,269.9,270.542,109425,29604052.4915,212,269.97,270.48,269.96,270.69,0.012633661288993181,0.013083790180042432,nvda,20200211
2020-02-11,10:01,10:01 AM,271.23,270.95,271.087,1670,452714.9,13,271.44,270.615,271.06,87886,23822413.2231,428,270.95,271.21,270.694,271.35,0.015664690939881393,0.01502351637158863,nvda,20200211
2020-02-11,10:02,10:02 AM,271.38,271.07,271.249,4700,1274872.0,41,271.4,271.07,271.222,67093,18197124.9579,343,271.38,271.205,271.38,271.17,0.016271646197537775,0.015630148887091376,nvda,20200211
2020-02-11,10:03,10:03 AM,271.2,271.025,271.136,1420,385012.85,18,271.235,271.0,271.134,56886,15423742.5274,324,271.19,271.03,271.19,271.16,0.015848276172135575,0.015300620113238118,nvda,20200211
2020-02-11,10:04,10:04 AM,271.21,270.925,270.955,1312,355492.7,8,271.36,270.922,271.127,35711,9682202.558,211,271.21,270.975,271.19,271.26,0.015170134804013316,0.015274407597136124,nvda,20200211
2020-02-11,10:05,10:05 AM,271.88,271.42,271.575,1800,488835.5,23,271.94,271.196,271.548,89042,24179174.8698,427,271.43,271.88,271.255,271.91,0.017493049987636032,0.016850903208411972,nvda,20200211
2020-02-11,10:06,10:06 AM,271.96,271.91,271.938,409,111222.46,5,272.12,271.79,271.981,115593,31439102.8718,571,271.91,271.95,271.95,271.836,0.01885307936127319,0.018472334561576917,nvda,20200211
2020-02-11,10:07,10:07 AM,,,,0,0.0,0,272.05,271.72,271.864,30986,8423990.6499,204,,,271.82,271.829,,0.018034211078158138,nvda,20200211
2020-02-11,10:08,10:08 AM,271.96,271.87,271.915,200,54383.0,2,271.999,271.69,271.852,42847,11648034.718,194,271.87,271.96,271.85,271.956,0.018766906701235694,0.017989275336269036,nvda,20200211
2020-02-11,10:09,10:09 AM,272.06,271.895,271.96,400,108784.0,4,272.25,271.8,271.996,36947,10049429.6036,226,272.06,271.895,271.99,271.829,0.018935505383917833,0.01852850423893824,nvda,20200211
2020-02-11,10:10,10:10 AM,271.85,271.85,271.85,100,27185.0,1,271.91,271.65,271.787,36855,10016703.981,212,271.85,271.85,271.82,271.715,0.018523375270694614,0.01774587340103643,nvda,20200211
2020-02-11,10:11,10:11 AM,271.67,271.51,271.6,380,103208.18,5,271.69,271.36,271.533,42139,11442109.7371,249,271.6,271.51,271.68,271.42,0.017586715922459657,0.016794733531050647,nvda,20200211
2020-02-11,10:12,10:12 AM,271.59,271.43,271.553,600,162932.0,6,271.62,271.27,271.475,36126,9807302.3071,167,271.58,271.43,271.454,271.27,0.01741062396499139,0.016577544111920032,nvda,20200211
2020-02-11,10:13,10:13 AM,271.33,271.33,271.33,400,108532.0,2,271.475,271.09,271.23,48615,13185843.7464,235,271.33,271.33,271.303,271.246,0.016575123826365754,0.01566010604835092,nvda,20200211
2020-02-11,10:14,10:14 AM,271.46,271.15,271.32,1226,332638.515,13,271.5,271.13,271.284,41470,11250140.5331,204,271.22,271.46,271.24,271.478,0.01653765745243639,0.015862316886851763,nvda,20200211
2020-02-11,10:15,10:15 AM,271.75,271.53,271.625,1003,272439.45,12,271.77,271.45,271.603,56481,15340404.1577,334,271.59,271.54,271.45,271.535,0.017680381857283066,0.017056858692070364,nvda,20200211
2020-02-11,10:16,10:16 AM,271.19,271.03,271.106,772,209293.7,7,271.57,270.95,271.174,54576,14799582.3385,326,271.19,271.03,271.56,270.97,0.01573587705034727,0.015450405919534976,nvda,20200211
2020-02-11,10:17,10:17 AM,271.04,271.04,271.04,1,271.04,1,271.125,270.82,270.976,38882,10536109.907,191,271.04,271.04,271.0,271.086,0.015488598982413337,0.014708966178364927,nvda,20200211
2020-02-11,10:18,10:18 AM,271.085,270.575,270.641,124,33559.53,8,271.127,270.37,270.642,53325,14432004.0016,228,271.085,270.595,271.065,270.585,0.01399369066263034,0.013458254695785005,nvda,20200211
2020-02-11,10:19,10:19 AM,270.89,270.75,270.777,1101,298125.89,3,270.953,270.537,270.733,36868,9981386.1772,162,270.89,270.78,270.59,270.67,0.014503233348070035,0.0137990174051107,nvda,20200211
2020-02-11,10:20,10:20 AM,270.82,270.74,270.746,119,32218.73,3,270.83,270.64,270.771,19198,5198260.957,94,270.74,270.77,270.679,270.77,0.014387087588888878,0.013941313921092886,nvda,20200211
2020-02-11,10:21,10:21 AM,270.81,270.81,270.81,300,81243.0,1,270.95,270.68,270.793,25049,6783094.7739,143,270.81,270.81,270.785,270.94,0.014626872382037108,0.014023696114556202,nvda,20200211
2020-02-11,10:22,10:22 AM,271.02,271.02,271.02,400,108408.0,1,271.08,270.74,270.939,18722,5072515.3044,122,271.02,271.02,270.95,270.94,0.015413666234554396,0.01457041430754029,nvda,20200211
2020-02-11,10:23,10:23 AM,270.77,270.75,270.758,600,162455.0,3,270.98,270.71,270.83,23803,6446576.1486,152,270.75,270.77,270.9,270.98,0.014432047237604159,0.014162247985380839,nvda,20200211
2020-02-11,10:24,10:24 AM,270.78,270.78,270.78,100,27078.0,1,270.96,270.54,270.762,34204,9261159.4223,140,270.78,270.78,270.93,270.59,0.014514473260248802,0.013907612114676008,nvda,20200211
2020-02-11,10:25,10:25 AM,270.67,270.495,270.644,117,31665.415,2,270.73,270.35,270.551,30418,8229624.4602,154,270.67,270.495,270.58,270.48,0.014004930574809107,0.01311749198645931,nvda,20200211
2020-02-11,10:26,10:26 AM,270.27,270.27,270.27,200,54054.0,2,270.51,270.18,270.263,36763,9935696.8349,199,270.27,270.27,270.458,270.29,0.01260368818984952,0.012039034181120904,nvda,20200211
2020-02-11,10:27,10:27 AM,270.33,270.21,270.26,443,119725.43,8,270.37,270.15,270.238,35790,9671804.2116,129,270.33,270.275,270.27,270.275,0.012566221815920155,0.011945418052185366,nvda,20200211
2020-02-11,10:28,10:28 AM,270.275,270.085,270.229,2591,700162.77,18,270.32,270.07,270.203,47056,12714654.1121,228,270.275,270.25,270.29,270.151,0.012450076056738998,0.011814355471675402,nvda,20200211
2020-02-11,10:29,10:29 AM,270.475,270.22,270.396,3002,811728.645,13,270.51,270.14,270.336,34822,9413639.5055,174,270.26,270.265,270.165,270.254,0.013075764501360063,0.012312393277613054,nvda,20200211
2020-02-11,10:30,10:30 AM,270.91,270.28,270.746,1501,406390.0,8,270.96,270.209,270.468,47410,12822876.327,159,270.28,270.91,270.28,270.915,0.014387087588888878,0.012806686438393158,nvda,20200211
2020-02-11,10:31,10:31 AM,271.395,271.05,271.146,2450,664308.5,9,271.43,270.97,271.165,49695,13475540.632,179,271.05,271.395,270.97,271.33,0.01588574254606494,0.015416704113118311,nvda,20200211
2020-02-11,10:32,10:32 AM,271.37,271.045,271.127,1300,352464.5,8,271.38,271.04,271.213,20684,5609772.953,141,271.37,271.07,271.355,271.15,0.015814556435599064,0.015596447080674711,nvda,20200211
2020-02-11,10:33,10:33 AM,271.16,271.075,271.114,400,108445.5,4,271.28,271.0,271.112,77163,20919809.859,180,271.075,271.09,271.16,271.09,0.01576585014949072,0.015218237919774802,nvda,20200211
2020-02-11,10:34,10:34 AM,271.12,271.11,271.113,300,81334.0,3,271.34,271.007,271.125,18637,5052955.63,124,271.11,271.12,271.08,271.26,0.015762103512097867,0.01526691830682124,nvda,20200211
2020-02-11,10:35,10:35 AM,271.23,271.125,271.173,400,108469.0,4,271.35,271.084,271.201,21424,5810204.8473,147,271.21,271.125,271.268,271.22,0.015986901755674267,0.015551511338785611,nvda,20200211
2020-02-11,10:36,10:36 AM,271.315,271.13,271.149,7436,2016265.75,36,271.399,271.12,271.213,27694,7510981.06,178,271.24,271.145,271.24,271.145,0.015896982458243707,0.015596447080674711,nvda,20200211
2020-02-11,10:37,10:37 AM,271.23,271.05,271.14,600,162684.0,4,271.3,271.05,271.142,27209,7377497.443,169,271.12,271.23,271.16,271.28,0.015863262721707194,0.015330577274497447,nvda,20200211
2020-02-11,10:38,10:38 AM,271.335,271.185,271.216,2655,720080.07,13,271.36,271.12,271.23,31357,8504961.2918,172,271.335,271.185,271.32,271.222,0.016148007163570705,0.01566010604835092,nvda,20200211
2020-02-11,10:39,10:39 AM,271.48,271.24,271.38,1489,404085.615,16,271.5,271.22,271.412,40468,10983498.3061,232,271.24,271.3,271.22,271.31,0.016762455696012788,0.016341631467002096,nvda,20200211
2020-02-11,10:40,10:40 AM,271.815,271.42,271.558,1295,351667.4,12,271.91,271.34,271.601,36510,9916156.7793,209,271.425,271.79,271.38,271.86,0.01742935715195607,0.017049369401755478,nvda,20200211
2020-02-11,10:41,10:41 AM,271.9,271.63,271.685,590,160294.05,6,271.94,271.57,271.785,37569,10210690.66,208,271.9,271.66,271.89,271.66,0.017905180100859466,0.017738384110721754,nvda,20200211
2020-02-11,10:42,10:42 AM,272.09,271.72,271.953,754,205052.5,8,272.14,271.68,271.987,59128,16082030.3217,298,271.72,272.09,271.68,271.91,0.018909278922167237,0.018494802432521575,nvda,20200211
2020-02-11,10:43,10:43 AM,271.5,271.5,271.5,100,27150.0,1,271.91,271.411,271.549,31491,8551354.7825,184,271.5,271.5,271.9,271.47,0.017212052183165585,0.016854647853569306,nvda,20200211
2020-02-11,10:44,10:44 AM,271.73,271.54,271.613,220,59754.96,4,271.825,271.47,271.68,16501,4482985.418,76,271.54,271.73,271.47,271.825,0.017635422208567786,0.017345196369192073,nvda,20200211
2020-02-11,10:45,10:45 AM,271.95,271.85,271.881,400,108752.5,4,272.0,271.77,271.895,55533,15099141.108,222,271.85,271.95,271.857,271.925,0.01863952102987556,0.01815029507803833,nvda,20200211
2020-02-11,10:46,10:46 AM,272.0,271.97,271.985,200,54397.0,2,272.0,271.84,271.926,35231,9580228.253,220,271.97,272.0,271.914,271.92,0.019029171318741458,0.018266379077918525,nvda,20200211
2020-02-11,10:47,10:47 AM,271.95,271.935,271.948,1600,435117.0,5,272.01,271.9,271.947,51364,13968268.176,276,271.95,271.95,271.94,271.95,0.018890545735202553,0.0183450166262245,nvda,20200211
2020-02-11,10:48,10:48 AM,272.08,271.99,272.028,418,113707.77,4,272.15,271.93,272.032,33074,8997176.499,191,272.015,272.08,271.97,272.08,0.019190276726637895,0.01866331146460554,nvda,20200211
2020-02-11,10:49,10:49 AM,272.29,272.14,272.225,401,109162.275,5,272.374,272.09,272.229,44916,12227446.5654,202,272.18,272.29,272.09,272.24,0.019928364293047052,0.01940100656061825,nvda,20200211
2020-02-11,10:50,10:50 AM,272.38,272.19,272.219,700,190553.0,5,272.46,272.16,272.302,34227,9320068.7265,202,272.2,272.38,272.25,272.43,0.01990588446868931,0.019674365657110403,nvda,20200211
2020-02-11,10:51,10:51 AM,,,,0,0.0,0,272.46,272.106,272.307,31368,8541720.0234,127,,,272.447,272.106,,0.01969308888289751,nvda,20200211
2020-02-11,10:52,10:52 AM,,,,0,0.0,0,272.16,271.95,272.062,27945,7602777.3055,112,,,272.11,271.99,,0.018775650819328398,nvda,20200211
2020-02-11,10:53,10:53 AM,271.98,271.88,271.898,1931,525035.86,10,271.99,271.77,271.896,62462,16983186.3767,226,271.96,271.9,271.969,271.81,0.018703213865555735,0.01815403972319588,nvda,20200211
2020-02-11,10:54,10:54 AM,271.88,271.85,271.865,200,54373.0,2,271.89,271.631,271.778,31581,8583026.5576,129,271.88,271.85,271.821,271.7,0.01857957483158866,0.017712171594619762,nvda,20200211
2020-02-11,10:55,10:55 AM,,,,0,0.0,0,271.71,271.521,271.612,47590,12926027.4704,181,,,271.655,271.57,,0.017090560498487242,nvda,20200211
2020-02-11,10:56,10:56 AM,271.605,271.58,271.602,114,30962.62,2,271.64,271.46,271.518,49874,13541687.4157,146,271.58,271.605,271.576,271.571,0.01759420919724536,0.016738563853689114,nvda,20200211
2020-02-11,10:57,10:57 AM,271.57,271.27,271.378,271,73543.33,12,271.68,271.25,271.453,19744,5359566.6857,125,271.57,271.45,271.59,271.433,0.016754962421226875,0.016495161918456503,nvda,20200211
2020-02-11,10:58,10:58 AM,271.66,271.45,271.593,330,89625.71,6,271.67,271.43,271.577,15677,4257514.1941,101,271.45,271.64,271.45,271.67,0.017560489460709056,0.016959497917977278,nvda,20200211
2020-02-11,10:59,10:59 AM,271.73,271.6,271.695,218,59229.595,9,271.79,271.57,271.717,35223,9570680.7989,178,271.6,271.71,271.64,271.74,0.01794264647478883,0.01748374824001671,nvda,20200211
2020-02-11,11:00,11 AM,271.94,271.72,271.905,1479,402147.03,12,271.95,271.71,271.856,31152,8468868.361,117,271.72,271.92,271.72,271.92,0.018729440327306116,0.018004253916898808,nvda,20200211
2020-02-11,11:01,11:01 AM,272.19,271.935,271.973,924,251303.125,15,272.3,271.91,272.082,41897,11399406.1315,193,271.935,272.185,271.95,272.225,0.018984211670026178,0.018850543722476826,nvda,20200211
2020-02-11,11:02,11:02 AM,272.455,272.255,272.367,2258,615004.51,18,272.47,272.21,272.333,50594,13778402.8205,208,272.255,272.405,272.24,272.399,0.020460386802844493,0.019790449656990595,nvda,20200211
2020-02-11,11:03,11:03 AM,272.41,272.195,272.331,831,226306.86,30,272.42,272.12,272.254,36163,9845529.2403,172,272.41,272.255,272.37,272.2,0.020325507856698656,0.019494622689554004,nvda,20200211
2020-02-11,11:04,11:04 AM,272.3,272.2,272.273,453,123339.76,16,272.3,272.2,272.274,16551,4506409.16,119,272.255,272.3,272.241,272.3,0.020108202887908173,0.01956951559270243,nvda,20200211
2020-02-11,11:05,11:05 AM,272.39,272.24,272.358,545,148434.905,26,272.4,272.21,272.333,39346,10715216.8916,247,272.31,272.35,272.3,272.38,0.020426667066307982,0.019790449656990595,nvda,20200211
2020-02-11,11:06,11:06 AM,272.44,272.3,272.393,1443,393063.075,25,272.45,272.264,272.375,40027,10902362.5869,255,272.375,272.385,272.361,272.36,0.020557799375060755,0.01994772475360234,nvda,20200211
2020-02-11,11:07,11:07 AM,272.355,272.205,272.293,4675,1272970.1,28,272.4,272.11,272.265,49234,13404720.937,218,272.31,272.355,272.35,272.4,0.0201831356357669,0.019535813786285553,nvda,20200211
2020-02-11,11:08,11:08 AM,272.39,272.305,272.342,3339,909348.77,14,272.391,272.26,272.324,39642,10795460.1623,184,272.31,272.35,272.38,272.32,0.020366720868020872,0.019756747850573717,nvda,20200211
2020-02-11,11:09,11:09 AM,272.5,272.15,272.229,2056,559702.39,11,272.5,272.08,272.324,47285,12876826.2228,225,272.315,272.15,272.33,272.15,0.01994335084261867,0.019756747850573717,nvda,20200211
2020-02-11,11:10,11:10 AM,272.325,272.215,272.259,3055,831750.07,15,272.35,271.72,272.165,55507,15107066.0861,288,272.215,272.215,272.16,271.76,0.020055749964406976,0.019161349270543193,nvda,20200211
2020-02-11,11:11,11:11 AM,271.79,271.79,271.79,100,27179.0,1,272.0,271.729,271.889,17332,4712384.96,130,271.79,271.79,271.73,271.84,0.018298577027118217,0.018127827207093886,nvda,20200211
2020-02-11,11:12,11:12 AM,271.84,271.825,271.84,102,27727.65,2,272.019,271.75,271.865,32314,8785051.4282,149,271.84,271.825,271.8,271.97,0.018485908896765036,0.018037955723315686,nvda,20200211
2020-02-11,11:13,11:13 AM,272.04,272.04,272.04,100,27204.0,1,272.2,271.96,272.161,41454,11282172.026,141,272.04,272.04,271.963,272.185,0.019235236375353175,0.01914637068991342,nvda,20200211
2020-02-11,11:14,11:14 AM,272.24,271.99,272.041,3299,897464.29,10,272.255,271.97,272.136,79291,21577955.613,251,272.24,272.04,272.185,272.033,0.019238983012746028,0.019052754560977884,nvda,20200211
2020-02-11,11:15,11:15 AM,272.195,272.025,272.068,1800,489722.0,10,272.2,271.85,272.011,32132,8740272.8292,160,272.025,272.03,272.005,271.89,0.01934014222235535,0.018584673916299775,nvda,20200211
2020-02-11,11:16,11:16 AM,271.945,271.855,271.874,653,177533.56,6,272.0,271.83,271.876,37722,10255710.5172,171,271.945,271.855,271.86,271.83,0.018613294568125174,0.018079146820047236,nvda,20200211
2020-02-11,11:17,11:17 AM,271.84,271.795,271.811,304,82630.68,3,271.9,271.76,271.823,91775,24946601.0758,160,271.8,271.84,271.81,271.81,0.018377256412369796,0.017880680626703727,nvda,20200211
2020-02-11,11:18,11:18 AM,271.845,271.68,271.771,400,108708.38,7,271.89,271.65,271.788,47435,12892279.474,164,271.69,271.785,271.79,271.74,0.018227390916652337,0.017749618046193977,nvda,20200211
2020-02-11,11:19,11:19 AM,271.75,271.625,271.688,200,54337.5,2,271.75,271.562,271.636,34492,9369258.8452,125,271.75,271.625,271.74,271.609,0.017916420013038233,0.017180431982265446,nvda,20200211
2020-02-11,11:20,11:20 AM,271.6,271.525,271.552,300,81465.5,3,271.65,271.44,271.543,46354,12587120.1519,201,271.6,271.53,271.61,271.565,0.017406877327598536,0.016832179982624863,nvda,20200211
2020-02-11,11:21,11:21 AM,271.57,271.38,271.415,304,82510.28,4,271.6,271.33,271.414,21628,5870152.5059,149,271.57,271.38,271.565,271.33,0.016893588004765776,0.01634912075731698,nvda,20200211
2020-02-11,11:22,11:22 AM,271.635,271.26,271.366,395,107189.76,6,271.65,271.21,271.38,81555,22132395.1344,324,271.33,271.635,271.31,271.45,0.016710002772511594,0.016221802821964566,nvda,20200211
2020-02-11,11:23,11:23 AM,271.49,271.4,271.418,904,245362.2,5,271.689,271.362,271.484,44831,12170891.5708,203,271.4,271.445,271.47,271.65,0.016904827916944542,0.0166112459183367,nvda,20200211
2020-02-11,11:24,11:24 AM,271.57,271.55,271.56,200,54312.0,2,271.675,271.43,271.562,28548,7752545.4503,127,271.57,271.55,271.668,271.56,0.017436850426741986,0.016903328240615956,nvda,20200211
2020-02-11,11:25,11:25 AM,271.33,271.23,271.303,303,82204.69,4,271.55,271.19,271.384,18256,4954388.1941,101,271.33,271.25,271.55,271.321,0.016473964616756428,0.01623678140259434,nvda,20200211
2020-02-11,11:26,11:26 AM,271.62,271.37,271.465,308,83611.28,4,271.62,271.302,271.417,22836,6198089.055,112,271.37,271.62,271.302,271.62,0.017080919874412598,0.016360354692789205,nvda,20200211
2020-02-11,11:27,11:27 AM,271.9,271.65,271.743,600,163046.0,9,271.92,271.62,271.724,40834,11095561.0416,188,271.65,271.75,271.62,271.699,0.018122485069649946,0.017509960756118704,nvda,20200211
2020-02-11,11:28,11:28 AM,271.685,271.465,271.61,300,81483.0,3,271.7,271.33,271.603,16928,4597695.2016,115,271.685,271.465,271.64,271.41,0.01762418229638902,0.017056858692070364,nvda,20200211
2020-02-11,11:29,11:29 AM,271.65,271.65,271.65,100,27165.0,1,271.67,271.405,271.573,25462,6914786.8082,113,271.65,271.65,271.405,271.609,0.017774047792106475,0.01694451933734751,nvda,20200211
2020-02-11,11:30,11:30 AM,271.74,271.64,271.688,400,108675.0,4,271.8,271.55,271.708,41676,11323718.9522,181,271.64,271.705,271.608,271.71,0.017916420013038233,0.017450046433600045,nvda,20200211
2020-02-11,11:31,11:31 AM,271.81,271.7,271.745,300,81523.5,3,271.86,271.37,271.659,45021,12230382.5284,237,271.725,271.81,271.7,271.423,0.018129978344435863,0.017266558820886097,nvda,20200211
2020-02-11,11:32,11:32 AM,271.3,271.17,271.284,800,217027.0,4,271.402,271.111,271.242,54112,14677459.8412,254,271.3,271.17,271.402,271.25,0.01640277850629055,0.01570504179024002,nvda,20200211
2020-02-11,11:33,11:33 AM,271.0,270.89,270.945,216,58524.04,3,271.39,270.82,271.079,46504,12606248.23,218,271.0,270.94,271.31,270.9,0.015132668430083951,0.015094664629579722,nvda,20200211
2020-02-11,11:34,11:34 AM,270.96,270.83,270.902,500,135451.0,5,271.0,270.71,270.852,35581,9637197.4634,203,270.9,270.96,270.85,270.92,0.014971563022187514,0.014244630178844154,nvda,20200211
2020-02-11,11:35,11:35 AM,270.93,270.79,270.832,143,38728.99,2,271.04,270.79,270.933,18928,5128214.1949,84,270.93,270.79,270.88,270.83,0.014709298404681753,0.014547946436595634,nvda,20200211
2020-02-11,11:36,11:36 AM,270.74,270.44,270.591,400,108236.5,4,270.81,270.31,270.486,46035,12451803.2139,193,270.74,270.44,270.81,270.516,0.013806358792983305,0.012874090051226701,nvda,20200211
2020-02-11,11:37,11:37 AM,270.39,270.39,270.39,100,27039.0,1,270.6,270.363,270.489,20599,5571809.7485,95,270.39,270.39,270.5,270.399,0.013053284677002317,0.012885323986698923,nvda,20200211
2020-02-11,11:38,11:38 AM,270.34,270.245,270.311,569,153807.155,6,270.41,270.134,270.302,35860,9693035.1969,177,270.245,270.27,270.41,270.18,0.012757300322960042,0.012185075342260638,nvda,20200211
2020-02-11,11:39,11:39 AM,270.185,270.185,270.185,200,54037.0,1,270.2,270.02,270.099,34138,9220646.8746,141,270.185,270.185,270.18,270.17,0.01228522401144971,0.01142491237530327,nvda,20200211
2020-02-11,11:40,11:40 AM,270.245,270.125,270.169,2411,651378.175,17,270.25,270.09,270.187,27291,7373668.9293,145,270.175,270.245,270.16,270.24,0.0122252778131626,0.011754441149156743,nvda,20200211
2020-02-11,11:41,11:41 AM,270.315,270.08,270.228,1900,513434.0,13,270.39,270.05,270.235,33636,9089637.7286,189,270.28,270.165,270.24,270.17,0.012446329419346147,0.011934184116713145,nvda,20200211
2020-02-11,11:42,11:42 AM,270.24,270.2,270.22,200,54044.0,2,270.4,270.12,270.279,45504,12298797.4428,208,270.2,270.24,270.13,270.39,0.012416356320202698,0.012098948503639774,nvda,20200211
2020-02-11,11:43,11:43 AM,270.61,270.295,270.418,6200,1676590.0,18,270.62,270.295,270.449,78328,21183735.1433,271,270.435,270.295,270.39,270.326,0.013158190524004708,0.012735538180402064,nvda,20200211
2020-02-11,11:44,11:44 AM,270.415,270.25,270.371,3003,811924.78,16,270.435,270.2,270.356,28926,7820327.8805,185,270.285,270.25,270.285,270.22,0.01298209856653644,0.012387286180761483,nvda,20200211
2020-02-11,11:45,11:45 AM,270.08,269.725,269.976,2459,663871.945,8,270.22,269.69,269.955,72575,19591981.3244,318,270.08,269.725,270.2,269.7,0.011502176796325272,0.010885683472634067,nvda,20200211
2020-02-11,11:46,11:46 AM,,,,0,0.0,0,269.87,269.64,269.765,30970,8354617.1132,155,,,269.69,269.798,,0.010174200892723348,nvda,20200211
2020-02-11,11:47,11:47 AM,269.96,269.82,269.87,500,134935.0,4,269.96,269.75,269.827,38870,10488162.5673,188,269.93,269.82,269.79,269.9,0.01110503323267367,0.010406368892483735,nvda,20200211
2020-02-11,11:48,11:48 AM,269.98,269.98,269.98,100,26998.0,1,270.17,269.89,270.052,29698,8020012.4527,126,269.98,269.98,269.919,270.01,0.011517163345897103,0.011248914052904417,nvda,20200211
2020-02-11,11:49,11:49 AM,270.3,270.265,270.273,365,98649.66,4,270.56,270.024,270.229,56724,15328455.4265,156,270.265,270.3,270.024,270.474,0.0126149281020285,0.011911716245768488,nvda,20200211
2020-02-11,11:50,11:50 AM,,,,0,0.0,0,270.46,270.2,270.286,29197,7891557.3528,134,,,270.46,270.27,,0.012125161019741768,nvda,20200211
2020-02-11,11:51,11:51 AM,270.285,270.285,270.285,100,27028.5,1,270.35,270.15,270.255,23876,6452609.79,111,270.285,270.285,270.2,270.31,0.01265988775074378,0.012009077019861574,nvda,20200211
2020-02-11,11:52,11:52 AM,,,,0,0.0,0,270.34,270.2,270.256,10490,2834990.63,79,,,270.22,270.27,,0.01201282166501891,nvda,20200211
2020-02-11,11:53,11:53 AM,270.215,270.215,270.215,500,135107.5,5,270.4,270.18,270.272,26323,7114367.902,96,270.215,270.215,270.23,270.238,0.012397623133237803,0.012072735987537782,nvda,20200211
2020-02-11,11:54,11:54 AM,270.245,270.005,270.198,5000,1350990.0,5,270.3,269.942,270.145,57672,15579787.3456,135,270.205,270.05,270.225,270.06,0.012333930297557841,0.011597166052544785,nvda,20200211
2020-02-11,11:55,11:55 AM,270.19,270.145,270.17,300,81051.0,3,270.288,269.988,270.134,15801,4268389.6992,95,270.19,270.145,270.08,269.995,0.012229024450555664,0.011555974955813234,nvda,20200211
2020-02-11,11:56,11:56 AM,270.02,270.02,270.02,100,27002.0,1,270.09,269.9,270.036,19041,5141762.73,132,270.02,270.02,269.97,270.08,0.01166702884161456,0.011188999730385547,nvda,20200211
2020-02-11,11:57,11:57 AM,,,,0,0.0,0,270.1,269.76,269.939,20178,5446825.077,135,,,270.065,269.79,,0.010825769150115409,nvda,20200211
2020-02-11,11:58,11:58 AM,269.845,269.845,269.845,16,4317.52,1,269.9,269.814,269.87,24107,6505749.32,116,269.845,269.845,269.826,269.9,0.01101136729785026,0.010567388634253029,nvda,20200211
2020-02-11,11:59,11:59 AM,,,,0,0.0,0,269.9,269.754,269.86,21292,5745858.7871,132,,,269.89,269.88,,0.010529942182678814,nvda,20200211
2020-02-11,12:00,12 PM,,,,0,0.0,0,269.94,269.53,269.722,37113,10010198.882,202,,,269.9,269.77,,0.010013181150954054,nvda,20200211
2020-02-11,12:01,12:01 PM,269.785,269.785,269.785,100,26978.5,1,269.93,269.67,269.798,16355,4412554.199,91,269.785,269.785,269.75,269.86,0.01078656905427386,0.010297774182918426,nvda,20200211
2020-02-11,12:02,12:02 PM,270.085,269.915,270.051,3537,955169.63,7,270.108,269.846,270.019,27131,7325874.0126,117,269.915,270.085,269.846,270.085,0.011783174600795717,0.01112534076270934,nvda,20200211
2020-02-11,12:03,12:03 PM,270.125,270.085,270.101,1100,297111.5,3,270.18,270.079,270.132,25195,6805970.7421,133,270.085,270.12,270.09,270.1,0.011970506470442751,0.01154848566549835,nvda,20200211
2020-02-11,12:04,12:04 PM,270.165,269.88,269.918,7354,1984977.055,16,270.17,269.84,269.94,32835,8863483.5694,180,270.165,269.88,270.12,269.86,0.011284871827534789,0.010829513795272744,nvda,20200211
2020-02-11,12:05,12:05 PM,269.81,269.785,269.785,708,191007.98,2,269.93,269.76,269.843,49017,13226896.415,156,269.81,269.785,269.86,269.79,0.01078656905427386,0.010466283215002606,nvda,20200211
2020-02-11,12:06,12:06 PM,269.81,269.68,269.772,5204,1403892.72,9,269.83,269.66,269.747,32598,8793209.401,152,269.805,269.68,269.77,269.7,0.010737862768165516,0.010106797279889803,nvda,20200211
2020-02-11,12:07,12:07 PM,269.74,269.435,269.617,569,153412.07,7,269.81,269.41,269.652,49016,13217248.98,203,269.695,269.74,269.7,269.745,0.010157133972259945,0.009751055989934337,nvda,20200211
2020-02-11,12:08,12:08 PM,,,,0,0.0,0,269.965,269.74,269.872,12633,3409298.1131,70,,,269.78,269.85,,0.010574877924567913,nvda,20200211
2020-02-11,12:09,12:09 PM,269.97,269.82,269.92,300,80976.0,3,269.98,269.79,269.922,12521,3379688.5174,69,269.82,269.97,269.82,269.95,0.011292365102320704,0.010762110182439201,nvda,20200211
2020-02-11,12:10,12:10 PM,269.935,269.845,269.896,1999,539523.065,4,269.95,269.81,269.891,15330,4137429.058,99,269.845,269.93,269.88,269.89,0.011202445804890144,0.010646026182559007,nvda,20200211
2020-02-11,12:11,12:11 PM,269.925,269.67,269.719,7298,1968410.1,5,269.95,269.59,269.763,30578,8248804.4925,138,269.925,269.67,269.916,269.76,0.010539290986339716,0.010166711602408462,nvda,20200211
2020-02-11,12:12,12:12 PM,269.765,269.625,269.66,3338,900125.75,7,269.8,269.37,269.609,26063,7026831.18,153,269.765,269.625,269.75,269.49,0.01031823938015638,0.009590036248165044,nvda,20200211
2020-02-11,12:13,12:13 PM,269.57,269.515,269.543,424,114286.07,7,269.6,269.47,269.553,30046,8099000.52,216,269.54,269.57,269.475,269.57,0.009879882805182351,0.009380336119349313,nvda,20200211
2020-02-11,12:14,12:14 PM,269.6,269.55,269.585,1992,537012.7,6,269.6,269.5,269.564,29875,8053215.2813,201,269.55,269.6,269.54,269.6,0.010037241575685724,0.009421527216081077,nvda,20200211
2020-02-11,12:15,12:15 PM,269.58,269.42,269.432,203,54694.74,3,269.6,269.37,269.523,23643,6372325.2609,134,269.58,269.44,269.6,269.422,0.009464006054566066,0.00926799676462667,nvda,20200211
2020-02-11,12:16,12:16 PM,269.575,269.575,269.575,34,9165.55,1,269.675,269.415,269.491,29243,7880726.0069,143,269.575,269.575,269.44,269.675,0.009999775201756359,0.009148168119588927,nvda,20200211
2020-02-11,12:17,12:17 PM,269.69,269.69,269.69,100,26969.0,1,269.85,269.61,269.705,37952,10235847.019,195,269.69,269.69,269.66,269.69,0.010430638501944475,0.009949522183277847,nvda,20200211
2020-02-11,12:18,12:18 PM,269.8,269.78,269.786,347,93615.66,2,269.86,269.68,269.769,15284,4123143.3342,78,269.8,269.78,269.69,269.81,0.010790315691666712,0.010189179473353118,nvda,20200211
2020-02-11,12:19,12:19 PM,269.84,269.79,269.831,610,164596.9,3,269.87,269.74,269.817,20988,5662930.3781,128,269.79,269.84,269.795,269.81,0.010958914374349064,0.01036892244090952,nvda,20200211
2020-02-11,12:20,12:20 PM,269.84,269.785,269.811,404,109003.66,5,269.86,269.57,269.768,42399,11437878.7905,166,269.79,269.82,269.81,269.57,0.010883981626490123,0.01018543482819557,nvda,20200211
2020-02-11,12:21,12:21 PM,269.71,269.53,269.598,304,81957.67,12,269.72,269.5,269.606,8467,2282752.0428,73,269.53,269.71,269.58,269.71,0.010085947861794066,0.009578802312692822,nvda,20200211
2020-02-11,12:22,12:22 PM,269.8,269.66,269.718,271,73093.6,7,269.81,269.63,269.696,10709,2888179.4988,58,269.66,269.71,269.7,269.74,0.010535544348946864,0.00991582037686118,nvda,20200211
2020-02-11,12:23,12:23 PM,269.765,269.765,269.765,100,26976.5,1,269.79,269.69,269.753,10385,2801384.36,74,269.765,269.765,269.725,269.79,0.01071163630641492,0.010129265150834248,nvda,20200211
2020-02-11,12:24,12:24 PM,269.77,269.745,269.76,267,72026.015,3,269.82,269.737,269.783,13266,3578937.2189,67,269.77,269.765,269.771,269.81,0.010692903119450236,0.010241604505557104,nvda,20200211
2020-02-11,12:25,12:25 PM,269.82,269.57,269.753,336,90636.98,6,269.84,269.53,269.737,18628,5024662.83,103,269.81,269.57,269.82,269.53,0.01066667665769964,0.01006935082831559,nvda,20200211
2020-02-11,12:26,12:26 PM,269.62,269.54,269.607,120,32352.8,2,269.68,269.52,269.628,14091,3799325.874,102,269.54,269.62,269.55,269.663,0.01011966759833058,0.009661184506156138,nvda,20200211
2020-02-11,12:27,12:27 PM,269.69,269.69,269.69,100,26969.0,1,269.69,269.62,269.663,9088,2450701.745,61,269.69,269.69,269.65,269.67,0.010430638501944475,0.009792247086666102,nvda,20200211
2020-02-11,12:28,12:28 PM,,,,0,0.0,0,269.69,269.48,269.576,18559,5003066.4535,104,,,269.67,269.55,,0.009466462957970177,nvda,20200211
2020-02-11,12:29,12:29 PM,269.62,269.515,269.571,334,90036.675,6,269.65,269.48,269.557,10000,2695568.63,75,269.58,269.515,269.57,269.546,0.00998478865218474,0.009395314699979085,nvda,20200211
2020-02-11,12:30,12:30 PM,269.575,269.27,269.455,500,134727.5,3,269.6,269.2,269.351,23942,6448809.001,123,269.575,269.27,269.56,269.25,0.009550178714603562,0.008623917797549494,nvda,20200211
2020-02-11,12:31,12:31 PM,269.22,269.22,269.22,75,20191.5,1,269.363,269.149,269.269,28352,7634322.375,149,269.22,269.22,269.22,269.345,0.008669718927262862,0.008316856894640677,nvda,20200211
2020-02-11,12:32,12:32 PM,269.39,269.37,269.38,199,53606.63,2,269.39,269.26,269.342,17302,4660154.105,102,269.37,269.39,269.32,269.36,0.009269180910133117,0.008590215991132615,nvda,20200211
2020-02-11,12:33,12:33 PM,269.22,269.22,269.22,100,26922.0,1,269.51,269.22,269.319,25032,6741590.6025,128,269.22,269.22,269.39,269.29,0.008669718927262862,0.008504089152511964,nvda,20200211
2020-02-11,12:34,12:34 PM,269.33,269.3,269.33,81,21815.7,3,269.35,269.18,269.257,13124,3533725.975,65,269.3,269.33,269.28,269.19,0.009081849040486081,0.008271921152751577,nvda,20200211
2020-02-11,12:35,12:35 PM,269.24,269.24,269.24,100,26924.0,1,269.3,269.145,269.231,11871,3196041.8323,70,269.24,269.24,269.2,269.16,0.00874465167512159,0.00817456037865849,nvda,20200211
2020-02-11,12:36,12:36 PM,269.22,269.18,269.2,200,53840.0,2,269.26,269.08,269.153,16464,4431334.834,91,269.18,269.22,269.18,269.15,0.00859478617940392,0.007882478056379446,nvda,20200211
2020-02-11,12:37,12:37 PM,269.28,268.905,269.028,667,179441.935,8,269.3,268.82,269.074,48689,13100948.4008,310,269.145,268.97,269.11,268.958,0.007950364547818386,0.007586651088942851,nvda,20200211
2020-02-11,12:38,12:38 PM,,,,0,0.0,0,269.15,268.95,269.064,9282,2497452.891,60,,,268.96,269.15,,0.0075492046373686365,nvda,20200211
2020-02-11,12:39,12:39 PM,269.155,269.065,269.107,352,94725.79,5,269.17,269.0,269.072,11047,2972437.845,77,269.155,269.065,269.17,269.08,0.008246348901860661,0.007579161798627965,nvda,20200211
2020-02-11,12:40,12:40 PM,269.28,269.18,269.266,220,59238.6,3,269.32,269.07,269.222,17410,4687159.991,90,269.18,269.28,269.07,269.32,0.008842064247338065,0.008140858572241613,nvda,20200211
2020-02-11,12:41,12:41 PM,269.325,269.3,269.312,184,49553.35,2,269.34,269.2,269.293,12658,3408717.3155,79,269.3,269.325,269.33,269.29,0.009014409567413268,0.008406728378418878,nvda,20200211
2020-02-11,12:42,12:42 PM,269.48,269.345,269.399,500,134699.5,5,269.48,269.21,269.361,30032,8089441.49,128,269.345,269.48,269.31,269.22,0.009340367020598993,0.008661364249123709,nvda,20200211
2020-02-11,12:43,12:43 PM,,,,0,0.0,0,269.28,269.18,269.222,3000,807665.48,24,,,269.25,269.26,,0.008140858572241613,nvda,20200211
2020-02-11,12:44,12:44 PM,269.33,269.29,269.31,200,53862.0,2,269.34,269.22,269.295,5786,1558138.572,50,269.33,269.29,269.25,269.25,0.009006916292627353,0.008414217668733763,nvda,20200211
2020-02-11,12:45,12:45 PM,269.22,269.07,269.127,300,80738.0,5,269.22,269.06,269.144,7434,2000819.814,48,269.22,269.07,269.21,269.174,0.008321281649719391,0.007848776249962566,nvda,20200211
2020-02-11,12:46,12:46 PM,269.25,269.19,269.215,300,80764.5,3,269.26,269.13,269.195,13538,3644359.6155,70,269.205,269.25,269.18,269.242,0.008650985740297967,0.00803975315299119,nvda,20200211
2020-02-11,12:47,12:47 PM,,,,0,0.0,0,269.375,269.26,269.353,11863,3195333.2475,35,,,269.26,269.29,,0.00863140708786438,nvda,20200211
2020-02-11,12:48,12:48 PM,269.24,269.16,269.21,102,27459.4,3,269.275,269.13,269.202,11311,3044939.1938,55,269.24,269.21,269.26,269.23,0.008632252553333284,0.008065965669093183,nvda,20200211
2020-02-11,12:49,12:49 PM,269.5,269.41,269.498,105,28297.26,3,269.55,269.23,269.44,12521,3373654.5717,80,269.41,269.5,269.23,269.55,0.009711284122499999,0.008957191216560304,nvda,20200211
2020-02-11,12:50,12:50 PM,269.56,269.32,269.44,200,53888.0,3,269.58,269.29,269.438,17251,4648075.572,84,269.56,269.32,269.55,269.29,0.009493979153709515,0.008949701926245418,nvda,20200211
2020-02-11,12:51,12:51 PM,269.36,269.36,269.36,185,49831.6,6,269.49,269.32,269.396,12707,3423214.1099,55,269.36,269.36,269.32,269.34,0.009194248162274387,0.008792426829633673,nvda,20200211
2020-02-11,12:52,12:52 PM,,,,0,0.0,0,269.61,269.32,269.449,5966,1607531.15,50,,,269.32,269.56,,0.008990893022977182,nvda,20200211
2020-02-11,12:53,12:53 PM,269.8,269.8,269.8,5,1349.0,1,269.8,269.57,269.733,12699,3425344.2516,72,269.8,269.8,269.57,269.761,0.010842768615167907,0.010054372247685817,nvda,20200211
2020-02-11,12:54,12:54 PM,269.77,269.72,269.745,200,53949.0,2,269.84,269.71,269.78,27771,7492067.2497,106,269.72,269.77,269.77,269.84,0.01063670355855619,0.01023037057008467,nvda,20200211
2020-02-11,12:55,12:55 PM,270.02,269.945,269.977,1660,448162.0,8,270.099,269.86,269.995,39131,10565175.2881,198,270.0,269.945,269.86,269.96,0.011505923433718123,0.01103546927893114,nvda,20200211
2020-02-11,12:56,12:56 PM,270.075,270.075,270.075,200,54015.0,1,270.1,269.91,269.991,12260,3310094.458,66,270.075,270.075,269.99,269.98,0.011873093898226278,0.011020490698301367,nvda,20200211
2020-02-11,12:57,12:57 PM,269.995,269.99,269.991,1000,269991.0,2,270.15,269.9,269.992,27232,7352430.7464,145,269.99,269.995,269.99,269.966,0.011558376357219319,0.011024235343458916,nvda,20200211
2020-02-11,12:58,12:58 PM,270.25,270.03,270.105,313,84542.9,5,270.27,269.916,270.105,24643,6656196.3792,121,270.03,270.25,269.95,270.225,0.011985493020014582,0.011447380246247927,nvda,20200211
2020-02-11,12:59,12:59 PM,270.26,270.2,270.259,102,27566.4,2,270.3,270.18,270.241,8081,2183819.2611,56,270.2,270.26,270.25,270.21,0.012562475178527304,0.011956651987657588,nvda,20200211
2020-02-11,13:00,1 PM,270.015,270.015,270.015,300,81004.5,1,270.23,269.988,270.075,19001,5131699.7198,85,270.015,270.015,270.2,269.997,0.011648295654649879,0.01133504089152507,nvda,20200211
2020-02-11,13:01,1:01 PM,269.915,269.915,269.915,100,26991.5,1,270.01,269.87,269.93,18517,4998290.6539,82,269.915,269.915,269.98,269.88,0.011273631915356023,0.01079206734369853,nvda,20200211
2020-02-11,13:02,1:02 PM,270.0,269.89,269.946,205,55338.925,3,270.03,269.87,269.962,13945,3764614.77,102,269.89,269.985,269.87,269.895,0.01138977767453718,0.01091189598873606,nvda,20200211
2020-02-11,13:03,1:03 PM,269.96,269.85,269.906,578,156005.88,7,269.99,269.81,269.905,7450,2010790.3,45,269.85,269.96,269.85,269.962,0.011239912178819509,0.01069845121476278,nvda,20200211
2020-02-11,13:04,1:04 PM,269.965,269.95,269.962,498,134441.07,5,270.03,269.916,269.979,9906,2674410.6421,66,269.965,269.95,269.98,269.944,0.011449723872824077,0.010975554956412267,nvda,20200211
2020-02-11,13:05,1:05 PM,269.99,269.97,269.98,146,39417.14,3,270.005,269.95,269.976,5878,1586919.63,37,269.97,269.99,269.956,269.98,0.011517163345897103,0.010964321020940046,nvda,20200211
2020-02-11,13:06,1:06 PM,269.97,269.97,269.97,100,26997.0,1,270.03,269.955,270.007,18261,4930604.3191,69,269.97,269.97,269.97,270.03,0.011479696971967738,0.01108040502082024,nvda,20200211
2020-02-11,13:07,1:07 PM,,,,0,0.0,0,270.01,269.915,269.964,4624,1248313.03,34,,,270.0,269.99,,0.010919385279050946,nvda,20200211
2020-02-11,13:08,1:08 PM,270.12,269.92,270.027,300,81008.0,3,270.125,269.89,270.009,10790,2913399.997,76,269.92,270.12,270.0,270.108,0.011693255303365157,0.011087894311135124,nvda,20200211
2020-02-11,13:09,1:09 PM,270.05,269.98,270.017,256,69124.3,3,270.06,269.95,270.007,12673,3421802.229,63,270.05,269.98,270.06,269.98,0.011655788929435794,0.01108040502082024,nvda,20200211
2020-02-11,13:10,1:10 PM,269.95,269.95,269.95,23,6208.85,3,269.99,269.9,269.939,8744,2360343.4434,35,269.95,269.95,269.95,269.99,0.011404764224108797,0.010825769150115409,nvda,20200211
2020-02-11,13:11,1:11 PM,269.94,269.94,269.94,100,26994.0,1,270.01,269.93,269.973,4328,1168443.66,34,269.94,269.94,269.99,269.94,0.011367297850179432,0.010953087085467824,nvda,20200211
2020-02-11,13:12,1:12 PM,270.005,270.005,270.005,700,189003.5,1,270.062,269.96,269.998,7467,2016079.17,43,270.005,270.005,269.96,270.062,0.011610829280720514,0.011046703214403361,nvda,20200211
2020-02-11,13:13,1:13 PM,,,,0,0.0,0,270.07,269.999,270.032,7828,2113814.277,40,,,270.055,270.0,,0.011174021149755776,nvda,20200211
2020-02-11,13:14,1:14 PM,269.97,269.97,269.97,200,53994.0,2,270.0,269.94,269.971,4270,1152775.35,37,269.97,269.97,270.0,269.95,0.011479696971967738,0.010945597795152938,nvda,20200211
2020-02-11,13:15,1:15 PM,,,,0,0.0,0,269.96,269.9,269.942,4206,1135374.1494,22,,,269.92,269.934,,0.01083700308558763,nvda,20200211
2020-02-11,13:16,1:16 PM,270.03,270.03,270.03,1,270.03,1,270.028,269.94,269.985,4191,1131507.1941,30,270.03,270.03,269.94,269.99,0.011704495215543925,0.010998022827356924,nvda,20200211
2020-02-11,13:17,1:17 PM,269.97,269.97,269.97,200,53994.0,4,269.98,269.78,269.871,18086,4880885.7248,73,269.97,269.97,269.97,269.87,0.011479696971967738,0.010571133279410365,nvda,20200211
2020-02-11,13:18,1:18 PM,270.0,270.0,270.0,100,27000.0,1,270.03,269.85,269.944,8015,2163598.889,51,270.0,270.0,269.88,270.03,0.011592096093755831,0.010844492375902516,nvda,20200211
2020-02-11,13:19,1:19 PM,270.04,270.04,270.04,100,27004.0,1,270.04,269.978,270.009,5649,1525281.7201,28,270.04,270.04,270.012,270.0,0.011741961589473502,0.011087894311135124,nvda,20200211
2020-02-11,13:20,1:20 PM,269.98,269.94,269.96,200,53992.0,2,270.087,269.914,269.995,9159,2472887.101,46,269.94,269.98,270.0,270.02,0.011442230598038162,0.01103546927893114,nvda,20200211
2020-02-11,13:21,1:21 PM,270.065,269.95,270.019,800,216015.5,4,270.065,269.854,269.946,18209,4915449.7768,79,270.01,269.95,270.01,269.88,0.01166328220422171,0.0108519816662174,nvda,20200211
2020-02-11,13:22,1:22 PM,269.905,269.905,269.905,100,26990.5,1,269.97,269.84,269.872,3350,904070.86,29,269.905,269.905,269.9,269.97,0.011236165541426445,0.010574877924567913,nvda,20200211
2020-02-11,13:23,1:23 PM,,,,0,0.0,0,270.0,269.93,269.965,6012,1623028.33,34,,,269.947,269.935,,0.010923129924208281,nvda,20200211
2020-02-11,13:24,1:24 PM,270.0,269.955,269.998,106,28619.795,4,270.005,269.94,269.984,8491,2292435.3278,35,269.99,269.955,269.94,269.95,0.011584602818969916,0.010994278182199375,nvda,20200211
2020-02-11,13:25,1:25 PM,269.93,269.9,269.916,15,4048.74,2,269.95,269.88,269.909,5044,1361422.242,34,269.9,269.93,269.94,269.95,0.011277378552748874,0.01071342979539255,nvda,20200211
2020-02-11,13:26,1:26 PM,270.06,270.01,270.031,1118,301894.38,14,270.07,269.96,270.034,13538,3655721.5912,61,270.01,270.02,269.96,269.99,0.01170824185293699,0.011181510440070661,nvda,20200211
2020-02-11,13:27,1:27 PM,270.0,269.97,269.994,811,218965.06,4,270.0,269.927,269.97,6177,1667603.495,27,269.99,269.97,269.98,269.97,0.011569616269398298,0.010941853149995602,nvda,20200211
2020-02-11,13:28,1:28 PM,270.035,269.91,269.979,20,5399.575,2,270.06,269.88,269.951,8620,2326979.5106,46,269.91,270.035,269.96,270.06,0.011513416708504039,0.010870704892004509,nvda,20200211
2020-02-11,13:29,1:29 PM,270.075,270.01,270.043,7,1890.3,4,270.06,269.96,270.024,7477,2018968.3257,27,270.075,270.01,270.05,269.98,0.011753201501652268,0.011144063988496447,nvda,20200211
2020-02-11,13:30,1:30 PM,,,,0,0.0,0,270.07,269.98,270.018,1900,513035.01,16,,,269.98,270.06,,0.01112159611755179,nvda,20200211
2020-02-11,13:31,1:31 PM,270.1,270.02,270.071,328,88583.275,10,270.118,270.0,270.056,15072,4070283.691,82,270.075,270.02,270.075,270.04,0.011858107348654659,0.011263892633533976,nvda,20200211
2020-02-11,13:32,1:32 PM,270.03,270.03,270.03,100,27003.0,1,270.05,269.96,270.005,4336,1170743.4622,32,270.03,270.03,270.0,270.01,0.011704495215543925,0.011072915730505353,nvda,20200211
2020-02-11,13:33,1:33 PM,269.87,269.57,269.78,230,62049.38,9,270.01,269.52,269.758,17049,4599101.0298,81,269.87,269.57,270.0,269.576,0.010767835867308966,0.010147988376621354,nvda,20200211
2020-02-11,13:34,1:34 PM,269.59,269.285,269.403,923,248658.81,19,269.6,269.25,269.401,23675,6378077.498,140,269.555,269.285,269.58,269.25,0.009355353570170824,0.008811150055420781,nvda,20200211
2020-02-11,13:35,1:35 PM,269.39,269.3,269.351,176,47405.86,3,269.395,269.25,269.337,7213,1942727.4982,32,269.3,269.39,269.26,269.395,0.009160528425737875,0.008571492765345507,nvda,20200211
2020-02-11,13:36,1:36 PM,269.36,269.36,269.36,100,26936.0,1,269.413,269.312,269.376,7029,1893442.4625,37,269.36,269.36,269.41,269.39,0.009194248162274387,0.00871753392648503,nvda,20200211
2020-02-11,13:37,1:37 PM,,,,0,0.0,0,269.4,269.17,269.223,10052,2706226.77,62,,,269.36,269.175,,0.008144603217399161,nvda,20200211
2020-02-11,13:38,1:38 PM,269.18,269.07,269.109,220,59204.015,5,269.18,269.04,269.105,16755,4508857.0134,60,269.18,269.135,269.14,269.11,0.008253842176646365,0.007702735088823044,nvda,20200211
2020-02-11,13:39,1:39 PM,268.99,268.96,268.973,300,80692.0,3,269.13,268.94,269.023,18113,4872809.5391,116,268.96,268.97,269.1,268.97,0.007744299491206669,0.007395674185914228,nvda,20200211
2020-02-11,13:40,1:40 PM,269.32,269.035,269.134,500,134567.0,5,269.35,268.92,269.215,40274,10842352.2644,92,269.035,269.32,268.92,269.27,0.008347508111469988,0.00811464605613962,nvda,20200211
2020-02-11,13:41,1:41 PM,269.28,269.195,269.235,620,166925.435,7,269.3,269.13,269.241,42674,11489593.7948,147,269.215,269.2,269.24,269.24,0.008725918488156908,0.008212006830232706,nvda,20200211
2020-02-11,13:42,1:42 PM,269.285,269.285,269.285,5400,1454139.0,2,269.35,269.18,269.282,19565,5268509.19,87,269.285,269.285,269.26,269.18,0.008913250357803942,0.008365537281687114,nvda,20200211
2020-02-11,13:43,1:43 PM,269.215,269.215,269.215,2,538.43,1,269.313,269.185,269.255,4915,1323388.7621,30,269.215,269.215,269.185,269.25,0.008650985740297967,0.008264431862436692,nvda,20200211
2020-02-11,13:44,1:44 PM,269.26,269.26,269.26,1049,282453.74,3,269.29,269.083,269.209,18105,4874025.4339,67,269.26,269.26,269.215,269.27,0.00881958442298032,0.008092178185195175,nvda,20200211
2020-02-11,13:45,1:45 PM,269.08,269.08,269.08,99,26638.92,1,269.23,268.974,269.097,11648,3134445.3142,66,269.08,269.08,269.23,269.1,0.008145189692251123,0.007672777927563502,nvda,20200211
2020-02-11,13:46,1:46 PM,,,,0,0.0,0,269.23,269.08,269.135,4819,1296961.36,29,,,269.15,269.084,,0.007815074443545688,nvda,20200211
2020-02-11,13:47,1:47 PM,269.12,268.98,269.027,320,86088.6,4,269.22,268.97,269.072,11264,3030823.61,71,269.03,269.12,269.036,269.12,0.007946617910425322,0.007579161798627965,nvda,20200211
2020-02-11,13:48,1:48 PM,,,,0,0.0,0,269.065,268.91,268.984,7621,2049927.9596,49,,,269.06,268.99,,0.0072496330247744925,nvda,20200211
2020-02-11,13:49,1:49 PM,,,,0,0.0,0,269.05,268.83,268.943,10982,2953534.465,66,,,268.99,268.83,,0.007096102573320084,nvda,20200211
2020-02-11,13:50,1:50 PM,268.68,268.68,268.68,100,26868.0,1,268.8,268.63,268.715,15821,4251340.967,92,268.68,268.68,268.8,268.769,0.006646534735075273,0.006242323477427179,nvda,20200211
2020-02-11,13:51,1:51 PM,268.74,268.74,268.74,24,6449.76,1,268.8,268.44,268.526,14974,4020905.803,57,268.74,268.74,268.76,268.445,0.006871332978651672,0.005534585542674009,nvda,20200211
2020-02-11,13:52,1:52 PM,268.41,267.72,267.995,943,252718.94,9,268.484,267.66,268.065,68373,18328420.2282,299,268.41,267.72,268.47,267.66,0.004080088120911477,0.0038083041251010903,nvda,20200211
2020-02-11,13:53,1:53 PM,267.58,266.915,267.188,1300,347344.0,13,267.661,266.787,267.182,88663,23689152.6958,436,267.58,267.21,267.66,267.02,0.0010565517448089675,0.0005017824510949887,nvda,20200211
2020-02-11,13:54,1:54 PM,267.02,266.96,266.984,25,6674.6,2,267.18,266.84,267.072,36010,9617274.6029,146,266.96,267.02,267.049,267.137,0.0002922377166492118,8.987148377820059e-05,nvda,20200211
2020-02-11,13:55,1:55 PM,267.41,267.41,267.41,100,26741.0,1,267.579,267.13,267.39,41357,11058459.8752,144,267.41,267.41,267.13,267.435,0.001888305246041749,0.0012806686438392519,nvda,20200211
2020-02-11,13:56,1:56 PM,267.65,267.41,267.51,300,80253.0,3,267.83,267.28,267.568,61390,16425997.7264,239,267.41,267.65,267.401,267.637,0.002262968985335605,0.0019472154818608708,nvda,20200211
2020-02-11,13:57,1:57 PM,267.39,267.39,267.39,100,26739.0,1,267.63,267.33,267.441,33592,8983894.5024,124,267.39,267.39,267.63,267.33,0.0018133724981828077,0.001471645546867875,nvda,20200211
2020-02-11,13:58,1:58 PM,267.51,267.51,267.51,100,26751.0,1,267.66,267.32,267.509,15452,4133554.9641,65,267.51,267.51,267.32,267.66,0.002262968985335605,0.0017262814175729184,nvda,20200211
2020-02-11,13:59,1:59 PM,267.765,267.7,267.735,280,74965.7,3,267.8,267.35,267.64,14005,3748294.4227,56,267.7,267.74,267.696,267.49,0.0031059623987471532,0.0022168299331954723,nvda,20200211
2020-02-11,14:00,2 PM,267.59,267.35,267.452,300,80235.5,6,267.62,267.293,267.48,13747,3677051.6016,65,267.35,267.59,267.488,267.567,0.0020456640165451216,0.0016176867080076106,nvda,20200211
2020-02-11,14:01,2:01 PM,,,,0,0.0,0,267.83,267.5,267.615,12186,3261155.085,45,,,267.6,267.8,,0.0021232138042599357,nvda,20200211
2020-02-11,14:02,2:02 PM,267.39,267.39,267.39,100,26739.0,2,267.79,267.3,267.474,12216,3267464.476,67,267.39,267.39,267.79,267.36,0.0018133724981828077,0.001595218837062954,nvda,20200211
2020-02-11,14:03,2:03 PM,267.22,267.0,267.077,415,110836.8,5,267.4,266.937,267.095,32956,8802387.9657,181,267.22,267.07,267.4,267.042,0.0006406749941926831,0.00017599832239906482,nvda,20200211
2020-02-11,14:04,2:04 PM,,,,0,0.0,0,267.04,266.771,266.893,20126,5371481.5544,79,,,267.009,266.92,,-0.0005804199994009675,nvda,20200211
2020-02-11,14:05,2:05 PM,266.925,266.925,266.925,100,26692.5,1,267.07,266.81,266.976,12553,3351355.4859,46,266.925,266.925,266.94,266.89,7.118611046587734e-05,-0.00026961445133460174,nvda,20200211
2020-02-11,14:06,2:06 PM,,,,0,0.0,0,266.92,266.66,266.784,16767,4473167.0501,108,,,266.89,266.835,,-0.0009885863215602065,nvda,20200211
2020-02-11,14:07,2:07 PM,266.765,266.765,266.765,400,106706.0,2,266.85,266.7,266.79,8868,2365892.9051,44,266.765,266.765,266.82,266.78,-0.0005282758724045902,-0.0009661184506155498,nvda,20200211
2020-02-11,14:08,2:08 PM,,,,0,0.0,0,267.02,266.81,266.912,35139,9379010.5989,113,,,266.81,267.0,,-0.0005092717414098743,nvda,20200211
2020-02-11,14:09,2:09 PM,,,,0,0.0,0,267.17,266.92,267.059,31305,8360275.8625,145,,,266.97,267.07,,4.1191096731763955e-05,nvda,20200211
2020-02-11,14:10,2:10 PM,,,,0,0.0,0,267.16,266.98,267.04,7485,1998792.835,53,,,267.02,267.1,,-2.9957161259329242e-05,nvda,20200211
2020-02-11,14:11,2:11 PM,,,,0,0.0,0,267.336,267.1,267.224,9609,2567756.4544,52,,,267.13,267.265,,0.0006590575477067334,nvda,20200211
2020-02-11,14:12,2:12 PM,267.41,267.41,267.41,100,26741.0,1,267.43,267.01,267.253,27306,7297622.9618,110,267.41,267.41,267.28,267.12,0.001888305246041749,0.0007676522572720413,nvda,20200211
2020-02-11,14:13,2:13 PM,,,,0,0.0,0,267.166,266.97,267.077,9483,2532690.6315,36,,,267.11,267.1,,0.00010859470956530797,nvda,20200211
2020-02-11,14:14,2:14 PM,267.09,267.04,267.073,150,40061.0,2,267.13,267.032,267.068,3837,1024742.1135,27,267.09,267.04,267.075,267.1,0.0006256884446208522,7.489290314842954e-05,nvda,20200211
2020-02-11,14:15,2:15 PM,267.065,267.065,267.065,100,26706.5,1,267.29,266.97,267.102,15669,4185219.4488,70,267.065,267.065,267.09,266.97,0.0005957153454774033,0.00020221083850084488,nvda,20200211
2020-02-11,14:16,2:16 PM,267.145,267.14,267.142,200,53428.5,2,267.2,266.973,267.101,28994,7744328.0906,150,267.14,267.145,267.0,267.02,0.0008842064247337639,0.00019846619334350856,nvda,20200211
2020-02-11,14:17,2:17 PM,,,,0,0.0,0,267.17,266.97,267.088,22653,6050350.9266,130,,,267.06,267.035,,0.00014978580629707193,nvda,20200211
2020-02-11,14:18,2:18 PM,,,,0,0.0,0,267.1,266.96,267.056,9316,2487897.596,69,,,267.04,267.083,,2.9957161259329242e-05,nvda,20200211
2020-02-11,14:19,2:19 PM,267.14,267.14,267.14,100,26714.0,1,267.15,267.06,267.107,21146,5648253.158,129,267.14,267.14,267.09,267.14,0.0008767131499478485,0.00022093406428816512,nvda,20200211
2020-02-11,14:20,2:20 PM,267.15,267.12,267.137,399,106587.88,3,267.23,267.03,267.129,31375,8381161.7295,183,267.15,267.12,267.13,267.11,0.0008654732377690817,0.0003033162577514802,nvda,20200211
2020-02-11,14:21,2:21 PM,267.0,266.79,266.998,101,26966.79,2,267.14,266.76,267.008,33670,8990148.6962,137,267.0,266.79,267.13,266.793,0.000344690640150407,-0.00014978580629707193,nvda,20200211
2020-02-11,14:22,2:22 PM,266.69,266.4,266.443,408,108708.81,7,266.765,266.31,266.517,48355,12887428.6088,261,266.69,266.4,266.76,266.41,-0.0017346931129312278,-0.0019884065785926346,nvda,20200211
2020-02-11,14:23,2:23 PM,266.395,266.39,266.392,200,53278.5,2,266.43,266.23,266.34,25620,6823631.5771,156,266.395,266.39,266.395,266.385,-0.0019257716199711135,-0.0026512087714569174,nvda,20200211
2020-02-11,14:24,2:24 PM,266.385,266.38,266.384,3900,1038899.5,3,266.44,266.13,266.332,38426,10234092.6088,151,266.38,266.385,266.36,266.329,-0.0019557447191145623,-0.0026811659327162464,nvda,20200211
2020-02-11,14:25,2:25 PM,266.35,266.295,266.339,2544,677565.4,25,266.35,266.26,266.327,37806,10068748.8211,166,266.35,266.35,266.32,266.344,-0.0021243434017969146,-0.0026998891585033537,nvda,20200211
2020-02-11,14:26,2:26 PM,266.35,266.125,266.344,2113,562785.25,26,266.35,266.01,266.234,48566,12929930.7482,225,266.35,266.125,266.34,266.02,-0.0021056102148322322,-0.0030481411581439345,nvda,20200211
2020-02-11,14:27,2:27 PM,266.25,266.095,266.177,213,56695.75,3,266.25,266.05,266.162,13887,3696192.256,82,266.095,266.25,266.05,266.11,-0.0027312986594530846,-0.003317755609478536,nvda,20200211
2020-02-11,14:28,2:28 PM,266.51,266.165,266.358,1010,269021.35,9,266.57,266.09,266.363,42438,11303896.6331,206,266.165,266.285,266.09,266.286,-0.0020531572913310373,-0.002565081932836053,nvda,20200211
2020-02-11,14:29,2:29 PM,266.29,266.205,266.261,2300,612400.5,10,266.45,266.19,266.281,29997,7987640.268,115,266.27,266.21,266.33,266.45,-0.0024165811184461263,-0.0028721428357448694,nvda,20200211
2020-02-11,14:30,2:30 PM,266.59,266.44,266.545,400,106618.0,4,266.6,266.36,266.529,19735,5259947.078,121,266.44,266.57,266.4,266.58,-0.0013525360988512435,-0.0019434708367035345,nvda,20200211
2020-02-11,14:31,2:31 PM,266.59,266.52,266.56,300,79968.0,3,266.6,266.44,266.526,22751,6063737.0636,156,266.59,266.52,266.58,266.46,-0.001296336537957197,-0.0019547047721757563,nvda,20200211
2020-02-11,14:32,2:32 PM,266.425,266.415,266.419,450,119888.75,3,266.45,266.26,266.385,14331,3817561.0839,106,266.415,266.425,266.399,266.43,-0.0018246124103617873,-0.002482699739372738,nvda,20200211
2020-02-11,14:33,2:33 PM,266.64,266.49,266.584,800,213267.0,8,266.7,266.37,266.538,35635,9498087.281,144,266.49,266.64,266.43,266.685,-0.0012064172405266374,-0.001909769030286656,nvda,20200211
2020-02-11,14:34,2:34 PM,266.6,266.6,266.6,100,26660.0,1,266.79,266.535,266.691,17609,4696163.845,65,266.6,266.6,266.7,266.75,-0.0011464710422395268,-0.0013368383212007868,nvda,20200211
2020-02-11,14:35,2:35 PM,,,,0,0.0,0,266.843,266.64,266.712,16448,4386885.453,87,,,266.73,266.761,,-0.0012582007728948082,nvda,20200211
2020-02-11,14:36,2:36 PM,266.74,266.74,266.74,100,26674.0,1,266.88,266.73,266.789,25608,6831930.66,104,266.74,266.74,266.76,266.81,-0.0006219418072280009,-0.000969863095773099,nvda,20200211
2020-02-11,14:37,2:37 PM,,,,0,0.0,0,266.809,266.6,266.677,13932,3715341.26,96,,,266.809,266.6,,-0.00138926335340456,nvda,20200211
2020-02-11,14:38,2:38 PM,267.005,266.81,266.875,572,152652.51,6,267.1,266.63,266.878,26844,7164073.3702,153,266.81,267.005,266.63,267.06,-0.00011614575918115707,-0.0006365896767622896,nvda,20200211
2020-02-11,14:39,2:39 PM,266.89,266.89,266.89,50,13344.5,1,267.09,266.87,266.966,16900,4511731.431,97,266.89,266.89,267.08,266.95,-5.994619828711065e-05,-0.0003070609029088165,nvda,20200211
2020-02-11,14:40,2:40 PM,266.9,266.9,266.9,600,160140.0,4,267.03,266.85,266.937,12128,3237413.375,59,266.9,266.9,266.95,266.93,-2.2479824357746358e-05,-0.0004156556124741245,nvda,20200211
2020-02-11,14:41,2:41 PM,,,,0,0.0,0,266.94,266.71,266.783,18781,5010456.8503,98,,,266.91,266.71,,-0.0009923309667175426,nvda,20200211
2020-02-11,14:42,2:42 PM,266.81,266.77,266.79,200,53358.0,2,266.864,266.7,266.765,36933,9852451.31,245,266.81,266.77,266.71,266.76,-0.0004346099375809665,-0.0010597345795512996,nvda,20200211
2020-02-11,14:43,2:43 PM,266.74,266.72,266.729,400,106691.5,5,266.85,266.7,266.755,17094,4559919.895,118,266.74,266.725,266.79,266.75,-0.0006631548185504294,-0.0010971810311255143,nvda,20200211
2020-02-11,14:44,2:44 PM,267.045,267.045,267.045,100,26704.5,1,267.18,266.76,267.014,18968,5064727.8266,119,267.045,267.045,266.76,267.061,0.0005207825976186747,-0.00012731793535241534,nvda,20200211
2020-02-11,14:45,2:45 PM,267.035,267.035,267.035,200,53407.0,2,267.11,267.0,267.029,21567,5759019.399,126,267.035,267.035,267.076,267.0,0.0004833162236893105,-7.11482579910932e-05,nvda,20200211
2020-02-11,14:46,2:46 PM,,,,0,0.0,0,267.14,267.0,267.04,16900,4512974.3535,81,,,267.0,267.14,,-2.9957161259329242e-05,nvda,20200211
2020-02-11,14:47,2:47 PM,267.405,267.185,267.347,218,58281.63,6,267.44,267.11,267.278,36495,9754315.1916,159,267.22,267.405,267.11,267.35,0.0016522670902863708,0.0008612683862077911,nvda,20200211
2020-02-11,14:48,2:48 PM,267.435,267.435,267.435,100,26743.5,1,267.498,267.33,267.427,30367,8120969.4936,134,267.435,267.435,267.33,267.47,0.00198197118086516,0.001419220514664102,nvda,20200211
2020-02-11,14:49,2:49 PM,267.62,267.585,267.62,101,27029.585,2,267.7,267.46,267.596,38544,10314235.9231,192,267.62,267.585,267.48,267.7,0.002675099098559038,0.0020520655462688423,nvda,20200211
2020-02-11,14:50,2:50 PM,268.0,268.0,268.0,13,3484.0,1,268.26,267.67,267.993,51957,13924109.8951,272,268.0,268.0,267.72,268.21,0.0040988213078761585,0.003538689673766488,nvda,20200211
2020-02-11,14:51,2:51 PM,268.1,267.985,268.079,833,223309.505,7,268.24,267.927,268.089,42858,11489754.896,167,267.985,268.04,268.2,268.16,0.004394805661918435,0.0038981756088792906,nvda,20200211
2020-02-11,14:52,2:52 PM,268.055,267.905,268.023,133,35647.12,6,268.259,267.88,268.063,20977,5623166.3124,84,268.055,267.905,268.259,267.89,0.004184993967913867,0.0038008148347862046,nvda,20200211
2020-02-11,14:53,2:53 PM,268.0,267.88,267.949,297,79580.815,9,268.01,267.84,267.935,14421,3863894.2678,91,267.93,267.91,267.95,267.98,0.003907742800836273,0.0033215002546358725,nvda,20200211
2020-02-11,14:54,2:54 PM,268.005,267.67,267.731,463,123959.53,8,268.005,267.62,267.751,29768,7970407.9436,124,268.005,267.705,267.98,267.764,0.0030909758491753227,0.002632485545669597,nvda,20200211
2020-02-11,14:55,2:55 PM,267.7,267.7,267.7,100,26770.0,1,267.91,267.63,267.719,13248,3546749.0574,57,267.7,267.7,267.787,267.725,0.0029748300899941653,0.002512656900632067,nvda,20200211
2020-02-11,14:56,2:56 PM,267.645,267.64,267.642,200,53528.5,2,267.735,267.6,267.649,15581,4170243.283,116,267.645,267.64,267.735,267.698,0.0027575251212036823,0.002250531739612351,nvda,20200211
2020-02-11,14:57,2:57 PM,,,,0,0.0,0,267.91,267.685,267.799,12764,3418188.4787,61,,,267.695,267.685,,0.002812228513225998,nvda,20200211
2020-02-11,14:58,2:58 PM,267.565,267.565,267.565,800,214052.0,2,267.66,267.43,267.55,40396,10807938.5055,146,267.565,267.565,267.66,267.43,0.0024690340419473216,0.0018798118690273268,nvda,20200211
2020-02-11,14:59,2:59 PM,,,,0,0.0,0,267.43,267.227,267.358,37727,10086621.3118,137,,,267.42,267.38,,0.001160839998801722,nvda,20200211
2020-02-11,15:00,3 PM,267.42,267.37,267.411,560,149750.24,5,267.45,267.2,267.368,12716,3399853.0305,78,267.42,267.37,267.45,267.22,0.0018920518834346003,0.0011982864503759369,nvda,20200211
2020-02-11,15:01,3:01 PM,267.455,267.45,267.452,200,53490.5,2,267.53,267.27,267.436,19312,5164717.3728,100,267.45,267.455,267.27,267.38,0.0020456640165451216,0.0014529223210807676,nvda,20200211
2020-02-11,15:02,3:02 PM,267.19,267.19,267.19,100,26719.0,1,267.246,266.86,267.114,24261,6480450.4088,113,267.19,267.19,267.245,266.879,0.0010640450195948828,0.00024714658038994515,nvda,20200211
2020-02-11,15:03,3:03 PM,266.965,266.845,266.923,400,106769.0,3,267.01,266.82,266.931,23854,6367380.3993,119,266.94,266.845,266.84,266.859,6.369283567996189e-05,-0.00043812348341878103,nvda,20200211
2020-02-11,15:04,3:04 PM,,,,0,0.0,0,266.8,266.51,266.678,22850,6093583.4762,91,,,266.764,266.53,,-0.0013855187082472235,nvda,20200211
2020-02-11,15:05,3:05 PM,266.84,266.79,266.83,303,80849.37,4,266.96,266.55,266.761,21046,5614252.2235,139,266.79,266.83,266.56,266.96,-0.00028474444186350935,-0.0010747131601808579,nvda,20200211
2020-02-11,15:06,3:06 PM,267.29,267.235,267.259,500,133629.5,5,267.31,266.861,267.113,29718,7938064.4079,162,267.24,267.235,266.929,267.27,0.0013225629997077946,0.00024340193523260885,nvda,20200211
2020-02-11,15:07,3:07 PM,266.945,266.945,266.945,100,26694.5,1,267.2,266.715,266.938,25199,6726564.0063,93,266.945,266.945,267.2,266.93,0.0001461188583246059,-0.00041191096731678817,nvda,20200211
2020-02-11,15:08,3:08 PM,266.99,266.79,266.868,864,230574.36,7,267.0,266.76,266.933,26384,7042751.885,99,266.99,266.79,266.932,266.76,-0.00014237222093175467,-0.00043063419310389556,nvda,20200211
2020-02-11,15:09,3:09 PM,266.695,266.525,266.583,1000,266583.0,9,266.72,266.51,266.604,18352,4892722.1594,116,266.695,266.53,266.68,266.6,-0.0012101638779194888,-0.0016626224498967107,nvda,20200211
2020-02-11,15:10,3:10 PM,266.83,266.615,266.723,400,106689.0,4,266.85,266.56,266.737,21876,5835135.68,106,266.62,266.825,266.585,266.69,-0.0006856346429079628,-0.0011645846439590584,nvda,20200211
2020-02-11,15:11,3:11 PM,266.74,266.595,266.651,400,106660.5,4,266.74,266.58,266.668,9531,2541613.5145,51,266.66,266.61,266.66,266.74,-0.0009553925351996412,-0.0014229651598214382,nvda,20200211
2020-02-11,15:12,3:12 PM,266.59,266.53,266.532,103,27452.77,2,266.75,266.5,266.584,18929,5046169.0851,77,266.59,266.53,266.68,266.56,-0.0014012423849595875,-0.0017375153530451402,nvda,20200211
2020-02-11,15:13,3:13 PM,266.69,266.63,266.66,300,79998.0,6,266.7,266.55,266.651,16784,4475471.2525,63,266.63,266.66,266.575,266.657,-0.0009216727986631282,-0.0014866241274976459,nvda,20200211
2020-02-11,15:14,3:14 PM,266.61,266.585,266.585,105,27991.47,3,266.645,266.35,266.489,16584,4419450.135,92,266.59,266.585,266.644,266.39,-0.0012026706031337863,-0.0020932566430006063,nvda,20200211
2020-02-11,15:15,3:15 PM,,,,0,0.0,0,266.44,266.14,266.268,20346,5417481.465,105,,,266.39,266.27,,-0.002920823222791519,nvda,20200211
2020-02-11,15:16,3:16 PM,,,,0,0.0,0,266.479,266.22,266.309,20795,5537896.115,83,,,266.265,266.426,,-0.0027672927713368978,nvda,20200211
2020-02-11,15:17,3:17 PM,,,,0,0.0,0,266.617,266.18,266.43,17804,4743526.822,99,,,266.43,266.23,,-0.0023141907072885587,nvda,20200211
2020-02-11,15:18,3:18 PM,,,,0,0.0,0,266.22,265.91,266.061,26565,7067917.5253,120,,,266.188,266.116,,-0.003695964770378446,nvda,20200211
2020-02-11,15:19,3:19 PM,266.05,265.915,265.947,500,132973.5,4,266.16,265.75,265.946,24373,6481897.699,103,266.05,265.915,266.16,265.855,-0.003593025259829315,-0.004126598963482129,nvda,20200211
2020-02-11,15:20,3:20 PM,265.87,265.835,265.869,104,27650.34,2,266.06,265.78,265.896,17637,4689599.0008,99,265.87,265.835,265.89,266.03,-0.003885262976478527,-0.004313831221353415,nvda,20200211
2020-02-11,15:21,3:21 PM,,,,0,0.0,0,266.05,265.94,265.996,13170,3503173.7586,57,,,266.05,265.995,,-0.0039393667056110545,nvda,20200211
2020-02-11,15:22,3:22 PM,265.93,265.93,265.93,100,26593.0,2,265.99,265.69,265.904,19072,5071312.641,61,265.93,265.93,265.94,265.98,-0.003656718095509277,-0.004283874060094086,nvda,20200211
2020-02-11,15:23,3:23 PM,266.3,266.21,266.255,200,53251.0,2,266.33,265.96,266.187,20632,5491970.8753,89,266.21,266.3,265.96,266.33,-0.0024390609428038726,-0.003224139480542786,nvda,20200211
2020-02-11,15:24,3:24 PM,266.65,266.42,266.535,400,106614.0,4,266.66,266.33,266.488,44140,11762778.2076,219,266.42,266.65,266.33,266.57,-0.0013900024727806078,-0.0020970012881579426,nvda,20200211
2020-02-11,15:25,3:25 PM,266.28,266.28,266.28,100,26628.0,1,266.543,266.26,266.361,22306,5941438.5759,117,266.28,266.28,266.52,266.262,-0.002345395007980462,-0.0025725712231509383,nvda,20200211
2020-02-11,15:26,3:26 PM,,,,0,0.0,0,266.41,266.27,266.334,14046,3740930.0113,84,,,266.28,266.34,,-0.002673676642401361,nvda,20200211
2020-02-11,15:27,3:27 PM,,,,0,0.0,0,266.4,266.28,266.347,8642,2301771.311,43,,,266.36,266.37,,-0.0026249962553549244,nvda,20200211
2020-02-11,15:28,3:28 PM,266.34,266.235,266.288,200,53257.5,2,266.41,266.06,266.191,24881,6623108.4269,133,266.34,266.235,266.386,266.163,-0.0023154219088368003,-0.003209160899913228,nvda,20200211
2020-02-11,15:29,3:29 PM,,,,0,0.0,0,266.19,265.947,266.048,13972,3717222.032,81,,,266.182,266.19,,-0.0037446451574248826,nvda,20200211
2020-02-11,15:30,3:30 PM,266.385,266.28,266.323,170,45274.95,2,266.551,266.2,266.456,31622,8425871.17,125,266.28,266.385,266.2,266.43,-0.0021842896000840253,-0.0022168299331954723,nvda,20200211
2020-02-11,15:31,3:31 PM,266.39,266.39,266.39,100,26639.0,1,266.435,266.22,266.337,10064,2680412.93,80,266.39,266.39,266.39,266.28,-0.0019332648947570287,-0.002662442706929139,nvda,20200211
2020-02-11,15:32,3:32 PM,266.37,266.365,266.369,115,30632.475,2,266.41,266.21,266.311,10706,2851127.05,81,266.365,266.37,266.28,266.32,-0.0020119442800086086,-0.002759803481022225,nvda,20200211
2020-02-11,15:33,3:33 PM,266.4,266.35,266.375,200,53275.0,2,266.45,266.31,266.384,12923,3442484.6458,81,266.4,266.35,266.32,266.365,-0.0019894644556510753,-0.0024864443845300744,nvda,20200211
2020-02-11,15:34,3:34 PM,266.555,266.48,266.517,200,53303.5,2,266.72,266.308,266.572,25912,6907412.8669,135,266.48,266.555,266.32,266.48,-0.0014574419458536338,-0.0017824510949342406,nvda,20200211
2020-02-11,15:35,3:35 PM,266.585,266.415,266.509,180,47971.7,2,266.76,266.415,266.553,15454,4119303.5452,100,266.415,266.585,266.518,266.76,-0.0014874150449970826,-0.0018535993529253338,nvda,20200211
2020-02-11,15:36,3:36 PM,266.87,266.795,266.826,234,62437.38,4,266.986,266.729,266.871,15013,4006534.7412,84,266.795,266.87,266.795,266.93,-0.0002997309914351273,-0.0006628021928642825,nvda,20200211
2020-02-11,15:37,3:37 PM,,,,0,0.0,0,267.09,266.84,266.99,13226,3531206.7966,61,,,266.88,267.047,,-0.00021718941913061594,nvda,20200211
2020-02-11,15:38,3:38 PM,266.97,266.925,266.947,200,53389.5,2,267.06,266.861,266.96,13517,3608502.2539,73,266.97,266.925,267.055,266.99,0.00015361213311052138,-0.0003295287738534731,nvda,20200211
2020-02-11,15:39,3:39 PM,,,,0,0.0,0,267.2,266.94,267.047,17897,4779340.1792,90,,,267.015,267.15,,-3.7446451573363334e-06,nvda,20200211
2020-02-11,15:40,3:40 PM,267.35,267.18,267.255,1000,267255.0,6,267.514,267.12,267.339,41004,10961969.9772,203,267.18,267.35,267.14,267.51,0.0013075764501359636,0.0010896917408106288,nvda,20200211
2020-02-11,15:41,3:41 PM,267.78,267.525,267.615,300,80284.5,3,267.868,267.5,267.714,31930,8548107.6116,156,267.525,267.78,267.51,267.75,0.002656365911594356,0.0024939336748449597,nvda,20200211
2020-02-11,15:42,3:42 PM,267.735,267.735,267.735,200,53547.0,2,267.83,267.69,267.753,41487,11108259.3839,155,267.735,267.735,267.73,267.76,0.0031059623987471532,0.0026399748359844824,nvda,20200211
2020-02-11,15:43,3:43 PM,267.765,267.565,267.659,400,107063.5,5,267.776,267.51,267.62,53432,14299478.2,213,267.765,267.565,267.76,267.6,0.002821217956883644,0.002141937030047043,nvda,20200211
2020-02-11,15:44,3:44 PM,,,,0,0.0,0,267.628,267.46,267.541,24383,6523446.56,120,,,267.59,267.486,,0.0018461100626104483,nvda,20200211
2020-02-11,15:45,3:45 PM,267.37,267.37,267.37,300,80211.0,1,267.4,267.26,267.33,26101,6977575.4756,135,267.37,267.37,267.38,267.31,0.001738439750324079,0.0010559899343937503,nvda,20200211
2020-02-11,15:46,3:46 PM,267.45,267.3,267.337,388,103726.68,3,267.49,267.26,267.415,16510,4415016.703,128,267.335,267.45,267.34,267.46,0.0016148007163570065,0.0013742847727750017,nvda,20200211
2020-02-11,15:47,3:47 PM,267.65,267.47,267.567,327,87494.58,4,267.67,267.38,267.533,13401,3585215.1463,91,267.47,267.59,267.44,267.56,0.002476527316733237,0.001816152901351119,nvda,20200211
2020-02-11,15:48,3:48 PM,267.52,267.51,267.514,285,76241.35,4,267.69,267.44,267.552,21255,5686821.4257,125,267.51,267.52,267.56,267.68,0.002277955534907436,0.0018873011593422123,nvda,20200211
2020-02-11,15:49,3:49 PM,267.78,267.53,267.668,400,107067.0,4,267.811,267.45,267.686,24635,6594448.898,136,267.78,267.53,267.689,267.45,0.002854937693420157,0.002389083610436988,nvda,20200211
2020-02-11,15:50,3:50 PM,267.57,267.35,267.44,1200,320928.0,12,267.64,267.3,267.436,43334,11589085.7337,277,267.52,267.57,267.48,267.59,0.002000704367829842,0.0014529223210807676,nvda,20200211
2020-02-11,15:51,3:51 PM,267.89,267.6,267.717,1125,301182.295,13,267.89,267.58,267.714,32207,8622260.6385,221,267.65,267.89,267.63,267.89,0.0030385229256741273,0.0024939336748449597,nvda,20200211
2020-02-11,15:52,3:52 PM,268.13,267.9,268.021,885,237198.58,9,268.13,267.9,268.013,35191,9431651.2754,244,267.9,268.13,267.9,268.126,0.0041775006931279515,0.003613582576914918,nvda,20200211
2020-02-11,15:53,3:53 PM,268.2,268.08,268.161,900,241345.0,9,268.22,268.043,268.141,35977,9646916.4416,245,268.2,268.08,268.125,268.043,0.0047020299281394775,0.004092897157065463,nvda,20200211
2020-02-11,15:54,3:54 PM,268.28,268.06,268.2,1000,268200.0,10,268.29,268.06,268.192,47837,12829513.4474,314,268.06,268.275,268.08,268.215,0.004848148786464084,0.004283874060094086,nvda,20200211
2020-02-11,15:55,3:55 PM,268.395,268.29,268.339,544,145976.455,9,268.44,268.19,268.344,32681,8769767.9891,221,268.3,268.33,268.19,268.32,0.005368931384082758,0.004853060124022619,nvda,20200211
2020-02-11,15:56,3:56 PM,268.29,268.19,268.228,400,107291.0,4,268.41,267.998,268.235,40106,10757819.2939,312,268.29,268.19,268.31,268.0,0.004953054633466474,0.00444489380186338,nvda,20200211
2020-02-11,15:57,3:57 PM,268.135,267.97,268.037,2289,613536.395,22,268.14,267.92,268.031,45279,12136191.6833,282,267.99,268.07,267.99,268.05,0.00423744689141485,0.003680986189748675,nvda,20200211
2020-02-11,15:58,3:58 PM,268.03,267.985,268.009,990,265328.625,11,268.05,267.95,268.004,40298,10800017.1412,320,268.01,267.985,268.04,267.975,0.004132541044412672,0.003579880770498252,nvda,20200211
2020-02-11,15:59,3:59 PM,268.11,267.965,268.047,3522,944062.89,47,268.15,267.87,268.027,81940,21962174.376,593,268.01,268.05,267.97,267.91,0.004274913265344427,0.0036660076091189035,nvda,20200211
