date,minute,label,high,low,average,volume,notional,numberOfTrades,marketHigh,marketLow,marketAverage,marketVolume,marketNotional,marketNumberOfTrades,open,close,marketOpen,marketClose,changeOverTime,marketChangeOverTime,tickerName,tickerDate
2020-02-05,09:30,09:30 AM,252.19,251.5,251.997,1100,277197.0,10,252.4,251.26,251.853,128381,32333108.5756,206,252.14,251.94,251.99,251.87,0.0,0.0,nvda,20200205
2020-02-05,09:31,09:31 AM,251.955,251.06,251.427,1861,467906.47,6,252.04,250.95,251.394,26825,6743654.9098,156,251.955,251.06,251.89,251.115,-0.0022619316896630576,-0.0018224916915820068,nvda,20200205
2020-02-05,09:32,09:32 AM,251.35,250.71,251.154,1161,291590.3,9,251.44,250.61,250.971,39929,10021024.3245,236,251.35,251.29,251.089,251.19,-0.003345277919975308,-0.003502042858334048,nvda,20200205
2020-02-05,09:33,09:33 AM,251.315,251.01,251.126,400,100450.5,4,251.72,250.83,251.221,32428,8146585.0851,189,251.315,251.01,251.31,251.34,-0.003456390353853456,-0.002509400324792657,nvda,20200205
2020-02-05,09:34,09:34 AM,251.5,251.15,251.351,1261,316953.75,9,251.57,251.1,251.323,18673,4692962.0132,113,251.15,251.25,251.39,251.21,-0.0025635225816180943,-0.002104402171107754,nvda,20200205
2020-02-05,09:35,09:35 AM,251.3,250.79,251.043,549,137822.72,8,251.3,250.69,250.954,35207,8835342.8762,194,251.23,250.925,251.27,250.8,-0.0037857593542780575,-0.0035695425506148465,nvda,20200205
2020-02-05,09:36,09:36 AM,251.025,250.52,250.802,456,114365.68,8,251.08,250.38,250.799,42949,10771578.1703,204,250.64,250.99,250.84,250.96,-0.004742119945872457,-0.0041849809214105135,nvda,20200205
2020-02-05,09:37,09:37 AM,250.78,250.46,250.62,200,50124.0,2,250.91,250.25,250.641,25072,6284060.8226,129,250.78,250.46,250.91,250.25,-0.005464350766080586,-0.004812331002608734,nvda,20200205
2020-02-05,09:38,09:38 AM,250.97,250.555,250.697,500,125348.5,5,250.972,250.25,250.653,22477,5633934.3098,139,250.555,250.64,250.33,250.38,-0.005158791572915595,-0.0047646841609987455,nvda,20200205
2020-02-05,09:39,09:39 AM,250.365,249.96,250.126,424,106053.31,7,250.51,249.9,250.155,37198,9305274.2772,190,250.21,250.365,250.25,250.05,-0.007424691563788494,-0.006742028087813158,nvda,20200205
2020-02-05,09:40,09:40 AM,249.9,249.685,249.776,611,152612.9,5,250.11,249.68,249.914,28827,7204272.9471,208,249.9,249.765,250.075,249.68,-0.008813596987265736,-0.007698935490147115,nvda,20200205
2020-02-05,09:41,09:41 AM,249.54,249.325,249.491,800,199592.5,5,249.74,249.048,249.456,24836,6195491.553,155,249.54,249.325,249.673,249.3,-0.009944562832097208,-0.009517456611594937,nvda,20200205
2020-02-05,09:42,09:42 AM,249.45,249.3,249.366,500,124683.0,4,249.81,249.235,249.516,23045,5750084.8188,156,249.37,249.45,249.235,249.74,-0.010440600483339087,-0.009279222403544994,nvda,20200205
2020-02-05,09:43,09:43 AM,,,,0,0.0,0,249.767,249.4,249.588,8679,2166174.8125,63,,,249.767,249.41,,-0.008993341353885062,nvda,20200205
2020-02-05,09:44,09:44 AM,249.98,249.34,249.689,444,110861.99,6,250.18,249.3,249.812,23628,5902564.892,145,249.34,249.98,249.301,249.79,-0.009158839192530153,-0.008103933643831905,nvda,20200205
2020-02-05,09:45,09:45 AM,249.74,249.66,249.706,250,62426.5,3,250.114,249.55,249.826,19484,4867607.2484,136,249.66,249.73,249.8,249.878,-0.009091378071961274,-0.00804834566195366,nvda,20200205
2020-02-05,09:46,09:46 AM,250.46,250.21,250.295,300,75088.5,3,250.5,249.86,250.286,23203,5807389.7636,108,250.21,250.46,250.161,250.33,-0.006754048659309541,-0.006221883400237469,nvda,20200205
2020-02-05,09:47,09:47 AM,,,,0,0.0,0,250.8,250.36,250.509,32730,8199168.1762,112,,,250.36,250.76,,-0.005336446260318609,nvda,20200205
2020-02-05,09:48,09:48 AM,251.21,250.9,251.055,200,50211.0,2,251.25,250.72,250.975,28185,7073740.1808,191,250.9,251.21,250.8,251.24,-0.0037381397397588355,-0.0034861605777974226,nvda,20200205
2020-02-05,09:49,09:49 AM,251.62,251.23,251.385,846,212671.715,14,251.62,251.2,251.416,24701,6210221.5556,142,251.29,251.26,251.245,251.265,-0.0024286003404803357,-0.0017351391486303987,nvda,20200205
2020-02-05,09:50,09:50 AM,250.95,250.95,250.95,313,78547.35,1,251.362,250.84,251.066,26258,6592494.4359,167,250.95,250.95,251.34,251.055,-0.0041548113668020865,-0.003124838695588324,nvda,20200205
2020-02-05,09:51,09:51 AM,251.11,251.04,251.104,110,27621.4,2,251.18,250.76,250.953,52336,13133907.3546,163,251.11,251.04,251.06,250.76,-0.0035436929804719924,-0.003573513120749031,nvda,20200205
2020-02-05,09:52,09:52 AM,250.605,250.605,250.605,200,50121.0,2,250.8,250.36,250.529,16104,4034522.2925,100,250.605,250.605,250.8,250.6,-0.00552387528422967,-0.005257034857635256,nvda,20200205
2020-02-05,09:53,09:53 AM,250.7,250.5,250.507,216,54109.5,4,250.86,250.303,250.553,21651,5424725.0611,141,250.7,250.5,250.641,250.39,-0.005912768802803244,-0.005161741174415279,nvda,20200205
2020-02-05,09:54,09:54 AM,250.44,250.275,250.348,300,75104.5,3,250.5,250.05,250.308,15254,3818200.589,86,250.44,250.275,250.315,250.35,-0.006543728695182882,-0.00613453085728586,nvda,20200205
2020-02-05,09:55,09:55 AM,250.425,250.365,250.404,445,111429.875,6,250.71,250.11,250.461,26757,6701576.45,171,250.365,250.425,250.29,250.71,-0.006321503827426587,-0.00552703362675845,nvda,20200205
2020-02-05,09:56,09:56 AM,,,,0,0.0,0,250.74,250.335,250.514,8831,2212292.392,71,,,250.731,250.375,,-0.005316593409647686,nvda,20200205
2020-02-05,09:57,09:57 AM,,,,0,0.0,0,250.6,250.13,250.475,9010,2256781.8207,62,,,250.43,250.13,,-0.005471445644880205,nvda,20200205
2020-02-05,09:58,09:58 AM,,,,0,0.0,0,250.41,250.13,250.229,8768,2194008.81,61,,,250.143,250.154,,-0.006448205897884858,nvda,20200205
2020-02-05,09:59,09:59 AM,,,,0,0.0,0,250.58,250.22,250.371,7889,1975181.055,65,,,250.25,250.445,,-0.005884384938833364,nvda,20200205
2020-02-05,10:00,10 AM,250.68,250.68,250.68,100,25068.0,1,250.72,250.26,250.526,15115,3786700.0739,79,250.68,250.68,250.47,250.68,-0.0052262526934844745,-0.005268946568037697,nvda,20200205
2020-02-05,10:01,10:01 AM,250.65,250.65,250.65,64,16041.6,1,250.84,250.59,250.705,9053,2269631.6221,67,250.65,250.65,250.62,250.8,-0.005345301729782531,-0.004558214514022053,nvda,20200205
2020-02-05,10:02,10:02 AM,251.1,251.02,251.06,200,50212.0,3,251.07,250.83,250.961,13448,3374929.58,72,251.02,251.1,250.83,251.07,-0.003718298233709178,-0.0035417485596756673,nvda,20200205
2020-02-05,10:03,10:03 AM,251.04,250.86,250.979,417,104658.12,11,251.1,250.81,250.944,10134,2543068.0081,59,251.04,250.96,251.03,250.84,-0.004039730631713872,-0.0036092482519565787,nvda,20200205
2020-02-05,10:04,10:04 AM,250.85,250.85,250.85,5,1254.25,1,250.92,250.62,250.786,6343,1590738.925,53,250.85,250.85,250.85,250.83,-0.004551641487795568,-0.004236598333154686,nvda,20200205
2020-02-05,10:05,10:05 AM,251.1,250.98,250.99,210,52708.0,3,251.3,250.74,251.038,19337,4854333.3186,112,250.98,251.1,250.79,251.15,-0.0039960793184046035,-0.003236014659344926,nvda,20200205
2020-02-05,10:06,10:06 AM,251.31,251.31,251.31,100,25131.0,1,251.31,251.044,251.191,10096,2536027.08,66,251.31,251.31,251.107,251.156,-0.0027262229312254183,-0.002628517428817628,nvda,20200205
2020-02-05,10:07,10:07 AM,,,,0,0.0,0,251.25,251.03,251.134,7876,1977928.745,36,,,251.19,251.08,,-0.0028548399264651304,nvda,20200205
2020-02-05,10:08,10:08 AM,,,,0,0.0,0,251.06,250.761,250.87,7727,1938473.965,50,,,251.0,250.78,,-0.0039030704418847664,nvda,20200205
2020-02-05,10:09,10:09 AM,250.845,250.845,250.845,100,25084.5,2,250.88,250.47,250.71,19105,4789813.9545,103,250.845,250.845,250.87,250.59,-0.004571482993845225,-0.004538361663351243,nvda,20200205
2020-02-05,10:10,10:10 AM,250.665,250.4,250.532,200,50106.5,2,250.71,250.15,250.387,16655,4170187.4035,82,250.665,250.4,250.665,250.69,-0.005813561272554845,-0.00582085581668675,nvda,20200205
2020-02-05,10:11,10:11 AM,,,,0,0.0,0,250.9,250.59,250.805,19675,4934592.765,67,,,250.696,250.8,,-0.004161157500605519,nvda,20200205
2020-02-05,10:12,10:12 AM,,,,0,0.0,0,250.66,250.315,250.419,13610,3408206.148,64,,,250.66,250.39,,-0.00569379757239341,nvda,20200205
2020-02-05,10:13,10:13 AM,,,,0,0.0,0,250.34,250.17,250.246,12763,3193888.8875,73,,,250.34,250.27,,-0.00638070620560406,nvda,20200205
2020-02-05,10:14,10:14 AM,250.205,250.095,250.15,200,50030.0,2,250.39,250.04,250.158,12175,3045673.517,90,250.205,250.095,250.21,250.1,-0.00732945233475005,-0.006730116377410718,nvda,20200205
2020-02-05,10:15,10:15 AM,250.175,250.075,250.114,199,49772.725,3,250.21,250.04,250.151,15786,3948883.533,79,250.175,250.13,250.12,250.15,-0.007472311178307716,-0.006757910368349784,nvda,20200205
2020-02-05,10:16,10:16 AM,250.0,249.99,249.995,200,49999.0,2,250.29,249.89,250.132,27158,6793089.2618,132,249.99,250.0,250.07,250.14,-0.007944539022289985,-0.006833351200898952,nvda,20200205
2020-02-05,10:17,10:17 AM,,,,0,0.0,0,250.28,250.09,250.164,11815,2955684.9188,85,,,250.09,250.17,,-0.0067062929566057234,nvda,20200205
2020-02-05,10:18,10:18 AM,250.15,249.83,249.989,203,50747.86,4,250.19,249.75,249.899,35299,8821195.2987,162,250.115,249.86,250.17,249.805,-0.007968348829549596,-0.007758494042159544,nvda,20200205
2020-02-05,10:19,10:19 AM,249.72,249.68,249.7,200,49940.0,2,249.85,249.58,249.695,12766,3187600.823,91,249.72,249.68,249.75,249.674,-0.009115187879220886,-0.00856849034952935,nvda,20200205
2020-02-05,10:20,10:20 AM,249.71,249.6,249.622,1100,274584.0,7,249.74,249.55,249.616,9845,2457469.776,55,249.6,249.645,249.72,249.68,-0.009424715373595717,-0.008882165390128347,nvda,20200205
2020-02-05,10:21,10:21 AM,249.85,249.75,249.805,200,49960.97,3,249.885,249.61,249.723,9370,2339901.8264,44,249.75,249.85,249.68,249.69,-0.008698516252177633,-0.008457314385772635,nvda,20200205
2020-02-05,10:22,10:22 AM,,,,0,0.0,0,249.88,249.656,249.789,10794,2696226.2432,62,,,249.734,249.67,,-0.008195256756917811,nvda,20200205
2020-02-05,10:23,10:23 AM,250.02,249.685,249.804,400,99921.5,4,250.06,249.64,249.809,15288,3819085.1674,65,249.685,250.02,249.71,250.06,-0.008702484553387587,-0.008115845354234458,nvda,20200205
2020-02-05,10:24,10:24 AM,250.12,249.83,249.923,1017,254171.31,7,250.15,249.78,249.997,21139,5284688.999,109,250.12,249.91,250.09,249.895,-0.00823025670940532,-0.007369378169011266,nvda,20200205
2020-02-05,10:25,10:25 AM,249.995,249.895,249.949,375,93730.75,4,250.02,249.853,249.938,8843,2210202.285,55,249.94,249.995,249.94,249.95,-0.008127080877946967,-0.0076036418069271375,nvda,20200205
2020-02-05,10:26,10:26 AM,249.74,249.275,249.665,735,183503.43,4,249.91,249.2,249.555,14719,3673207.37,108,249.74,249.275,249.91,249.28,-0.009254078421568598,-0.009124370168312475,nvda,20200205
2020-02-05,10:27,10:27 AM,249.22,249.13,249.183,300,74754.98,4,249.3,248.96,249.069,16261,4050115.8625,125,249.13,249.22,249.3,249.13,-0.011166799604757284,-0.011054067253517012,nvda,20200205
2020-02-05,10:28,10:28 AM,249.25,248.94,249.13,625,155706.5,7,249.33,248.82,249.001,33147,8253624.3624,146,249.205,248.94,249.14,248.85,-0.01137711956888383,-0.011324066022640206,nvda,20200205
2020-02-05,10:29,10:29 AM,249.175,249.0,249.115,325,80962.5,6,249.175,248.85,249.053,15793,3933293.55,66,249.0,249.175,248.85,249.11,-0.011436644087032802,-0.011117596375663626,nvda,20200205
2020-02-05,10:30,10:30 AM,,,,0,0.0,0,249.05,248.7,248.819,18188,4525511.8762,62,,,249.05,248.77,,-0.012046709787058404,nvda,20200205
2020-02-05,10:31,10:31 AM,248.805,248.805,248.805,100,24880.5,1,248.82,248.541,248.669,11337,2819165.5145,69,248.805,248.805,248.72,248.752,-0.012666817462112673,-0.012642295307183148,nvda,20200205
2020-02-05,10:32,10:32 AM,249.075,249.015,249.059,233,58030.695,4,249.11,248.77,248.964,25074,6242528.029,111,249.05,249.075,248.8,249.08,-0.011658868954789209,-0.011470977117604355,nvda,20200205
2020-02-05,10:33,10:33 AM,249.195,248.82,248.977,1250,311220.75,9,249.195,248.74,248.988,10903,2714711.422,66,248.82,249.11,249.025,248.96,-0.011984269654003857,-0.011375683434384378,nvda,20200205
2020-02-05,10:34,10:34 AM,249.03,248.89,248.951,400,99580.5,4,249.05,248.88,248.962,5160,1284643.0352,42,248.94,249.03,248.995,248.96,-0.012087445485462209,-0.011478918257872724,nvda,20200205
2020-02-05,10:35,10:35 AM,249.02,248.89,248.902,110,27379.2,2,249.12,248.8,248.941,10170,2531732.9,44,248.89,249.02,248.915,248.8,-0.012281892244749053,-0.011562300230690149,nvda,20200205
2020-02-05,10:36,10:36 AM,248.39,248.29,248.332,173,42961.47,2,248.66,248.28,248.433,9491,2357881.188,77,248.29,248.39,248.66,248.44,-0.014543823934411998,-0.013579349858846294,nvda,20200205
2020-02-05,10:37,10:37 AM,,,,0,0.0,0,248.81,248.33,248.577,9584,2382357.2596,60,,,248.49,248.34,,-0.013007587759526432,nvda,20200205
2020-02-05,10:38,10:38 AM,248.37,248.24,248.276,513,127365.81,7,248.606,248.16,248.391,17110,4249973.319,92,248.37,248.27,248.38,248.27,-0.014766048802168294,-0.013746113804481255,nvda,20200205
2020-02-05,10:39,10:39 AM,248.25,247.93,248.035,600,148821.0,4,248.29,247.9,248.068,28700,7119553.418,119,247.96,248.25,248.205,248.055,-0.015722409393762692,-0.015028607957816648,nvda,20200205
2020-02-05,10:40,10:40 AM,247.985,247.985,247.985,3,743.955,1,248.146,247.895,248.018,10731,2661485.0329,66,247.985,247.985,248.11,247.895,-0.015920824454259377,-0.015227136464524973,nvda,20200205
2020-02-05,10:41,10:41 AM,247.9,247.885,247.887,115,28507.0,2,247.928,247.63,247.785,15404,3816878.18,110,247.9,247.885,247.88,247.8,-0.016309717972833062,-0.016152279305785566,nvda,20200205
2020-02-05,10:42,10:42 AM,248.24,247.895,248.127,400,99251.0,6,248.4,247.79,248.038,18847,4674777.9185,123,247.895,248.24,247.84,248.22,-0.015357325682448618,-0.015147725061841621,nvda,20200205
2020-02-05,10:43,10:43 AM,248.15,248.02,248.081,279,69214.53,3,248.15,247.92,248.005,11981,2971350.13,72,248.15,248.07,248.13,247.96,-0.015539867538105712,-0.015278753876269145,nvda,20200205
2020-02-05,10:44,10:44 AM,247.99,247.955,247.969,400,99187.5,3,248.202,247.79,247.933,11530,2858667.605,70,247.965,247.99,247.965,248.18,-0.015984317273618414,-0.015564634925929077,nvda,20200205
2020-02-05,10:45,10:45 AM,,,,0,0.0,0,248.227,247.86,248.025,11049,2740430.05,68,,,248.227,248.035,,-0.015199342473585793,nvda,20200205
2020-02-05,10:46,10:46 AM,247.495,247.495,247.495,100,24749.5,1,248.125,247.41,247.635,21128,5232032.277,106,247.495,247.495,248.09,247.49,-0.01786529204712758,-0.01674786482591042,nvda,20200205
2020-02-05,10:47,10:47 AM,248.02,247.66,247.78,300,74334.0,3,248.1,247.54,247.865,6815,1689199.0385,55,247.66,248.02,247.54,247.77,-0.01673432620229611,-0.01583463369505227,nvda,20200205
2020-02-05,10:48,10:48 AM,247.77,247.735,247.758,300,74327.5,3,247.887,247.58,247.772,6638,1644713.0328,46,247.735,247.77,247.74,247.75,-0.016821628828914647,-0.01620389671752974,nvda,20200205
2020-02-05,10:49,10:49 AM,248.07,248.0,248.037,300,74411.0,3,248.1,247.713,247.957,8306,2059532.48,49,248.0,248.04,247.745,248.07,-0.015714472791342783,-0.0154693412427091,nvda,20200205
2020-02-05,10:50,10:50 AM,248.465,248.12,248.341,1010,250824.4,11,248.49,247.96,248.296,15849,3935237.255,116,248.12,248.465,248.04,248.41,-0.014508109223522525,-0.014123317967226979,nvda,20200205
2020-02-05,10:51,10:51 AM,248.4,248.225,248.314,1302,323304.8,10,248.4,248.225,248.302,7397,1836689.37,51,248.335,248.275,248.38,248.275,-0.014615253356190832,-0.014099494546421985,nvda,20200205
2020-02-05,10:52,10:52 AM,248.6,248.145,248.437,1500,372655.5,11,248.63,248.09,248.398,9443,2345623.9007,70,248.145,248.45,248.25,248.44,-0.014127152307368747,-0.013718319813542075,nvda,20200205
2020-02-05,10:53,10:53 AM,248.62,248.55,248.567,613,152371.67,9,248.8,248.49,248.648,6579,1635854.67,42,248.55,248.62,248.49,248.745,-0.01361127315007721,-0.012725677280000685,nvda,20200205
2020-02-05,10:54,10:54 AM,248.83,248.81,248.83,101,25131.81,2,248.85,248.62,248.777,12870,3201762.095,68,248.83,248.81,248.78,248.62,-0.012567609931864274,-0.012213473732693363,nvda,20200205
2020-02-05,10:55,10:55 AM,248.525,248.525,248.525,396,98415.9,3,248.87,248.49,248.739,10018,2491872.94,36,248.525,248.525,248.64,248.87,-0.013777941800894488,-0.012364355397791585,nvda,20200205
2020-02-05,10:56,10:56 AM,249.04,249.02,249.031,200,49806.15,5,249.24,248.9,249.018,15182,3780594.865,91,249.04,249.02,248.91,249.123,-0.011769981388667358,-0.011256566330359407,nvda,20200205
2020-02-05,10:57,10:57 AM,249.19,249.19,249.19,16,3987.04,1,249.46,249.14,249.329,14341,3575627.67,112,249.19,249.19,249.19,249.41,-0.011139021496287718,-0.01002171901863389,nvda,20200205
2020-02-05,10:58,10:58 AM,249.44,249.43,249.43,104,25940.76,2,249.57,249.38,249.452,11040,2753947.867,80,249.44,249.43,249.436,249.535,-0.010186629205903273,-0.009533338892131562,nvda,20200205
2020-02-05,10:59,10:59 AM,249.515,249.39,249.452,200,49890.5,2,249.58,249.36,249.465,14756,3681106.4051,74,249.515,249.39,249.53,249.39,-0.010099326579284737,-0.00948172148038739,nvda,20200205
2020-02-05,11:00,11 AM,249.235,249.235,249.235,100,24923.5,1,249.383,249.071,249.209,7198,1793810.085,48,249.235,249.235,249.33,249.12,-0.01096044794184058,-0.010498187434733774,nvda,20200205
2020-02-05,11:01,11:01 AM,249.305,249.08,249.162,300,74748.5,3,249.335,249.04,249.16,3800,946807.91,31,249.08,249.305,249.101,249.33,-0.011250133930165867,-0.010692745371307913,nvda,20200205
2020-02-05,11:02,11:02 AM,249.475,249.475,249.475,100,24947.5,1,249.475,249.31,249.393,3985,993832.7105,27,249.475,249.475,249.36,249.405,-0.010008055651456247,-0.00976760253004732,nvda,20200205
2020-02-05,11:03,11:03 AM,249.335,249.13,249.242,300,74772.5,4,249.36,249.07,249.216,5272,1313866.31,33,249.335,249.26,249.36,249.235,-0.010932669833371126,-0.010470393443794596,nvda,20200205
2020-02-05,11:04,11:04 AM,249.305,249.28,249.292,200,49858.5,2,249.44,249.13,249.302,6790,1692760.05,50,249.28,249.305,249.21,249.13,-0.01073425477287433,-0.01012892441225642,nvda,20200205
2020-02-05,11:05,11:05 AM,,,,0,0.0,0,249.25,249.02,249.111,5945,1480965.05,35,,,249.12,249.06,,-0.010887303307882052,nvda,20200205
2020-02-05,11:06,11:06 AM,249.295,249.035,249.134,400,99653.5,4,249.43,249.03,249.246,2700,672965.01,21,249.035,249.295,249.08,249.43,-0.011361246364044127,-0.010351276339769625,nvda,20200205
2020-02-05,11:07,11:07 AM,249.49,249.35,249.358,106,26431.94,2,249.56,249.21,249.406,7499,1870298.321,38,249.35,249.49,249.28,249.46,-0.010472346893018607,-0.009715985118303148,nvda,20200205
2020-02-05,11:08,11:08 AM,249.51,249.41,249.47,416,103779.56,6,249.52,249.351,249.451,3303,823938.2918,27,249.41,249.51,249.478,249.48,-0.010027897157505903,-0.009537309462265747,nvda,20200205
2020-02-05,11:09,11:09 AM,249.74,249.74,249.74,100,24974.0,1,249.75,249.53,249.677,3996,997708.395,35,249.74,249.74,249.55,249.61,-0.008956455830823402,-0.008639960611944332,nvda,20200205
2020-02-05,11:10,11:10 AM,249.71,249.575,249.634,500,124817.22,6,249.73,249.4,249.575,4371,1090890.14,32,249.655,249.575,249.645,249.445,-0.009377095759076607,-0.009044958765629236,nvda,20200205
2020-02-05,11:11,11:11 AM,249.55,249.42,249.501,209,52145.68,4,249.572,249.37,249.521,3509,875567.8809,11,249.42,249.55,249.37,249.56,-0.009904879819997894,-0.009259369552874184,nvda,20200205
2020-02-05,11:12,11:12 AM,249.58,249.51,249.549,245,61139.57,3,249.565,249.439,249.51,6201,1547210.591,40,249.56,249.51,249.52,249.462,-0.009714401361921005,-0.009303045824349989,nvda,20200205
2020-02-05,11:13,11:13 AM,249.4,249.39,249.395,200,49879.0,2,249.527,249.35,249.417,1787,445709.1299,15,249.39,249.4,249.45,249.47,-0.010325519748250985,-0.009672308846827344,nvda,20200205
2020-02-05,11:14,11:14 AM,249.76,249.465,249.503,54,13473.17,4,249.78,249.44,249.676,6975,1741488.86,33,249.465,249.76,249.55,249.69,-0.009896943217578098,-0.008643931182078518,nvda,20200205
2020-02-05,11:15,11:15 AM,249.75,249.63,249.695,46,11485.965,10,249.76,249.62,249.695,3809,951088.324,17,249.655,249.72,249.67,249.69,-0.009135029385270542,-0.00856849034952935,nvda,20200205
2020-02-05,11:16,11:16 AM,249.74,249.63,249.688,807,201498.295,9,249.74,249.6,249.689,4897,1222727.3565,36,249.715,249.74,249.715,249.73,-0.009162807493740106,-0.008592313770334344,nvda,20200205
2020-02-05,11:17,11:17 AM,249.785,249.78,249.785,105,26227.4,2,249.832,249.72,249.762,5800,1448622.3,43,249.78,249.785,249.74,249.832,-0.008777882276376376,-0.008302462150540228,nvda,20200205
2020-02-05,11:18,11:18 AM,249.88,249.79,249.863,220,54969.8,3,249.93,249.75,249.839,4554,1137768.4025,37,249.86,249.88,249.83,249.93,-0.00846835478200143,-0.007996728250209487,nvda,20200205
2020-02-05,11:19,11:19 AM,249.94,249.845,249.923,416,103968.02,5,249.96,249.81,249.9,5635,1408189.3571,38,249.935,249.895,249.9,249.83,-0.00823025670940532,-0.00775452347202536,nvda,20200205
2020-02-05,11:20,11:20 AM,249.76,249.76,249.76,7,1748.32,1,249.86,249.69,249.771,5816,1452669.59,44,249.76,249.76,249.76,249.73,-0.008877089806624773,-0.008266727019332794,nvda,20200205
2020-02-05,11:21,11:21 AM,249.79,249.79,249.79,100,24979.0,1,249.85,249.7,249.765,9556,2386754.6572,49,249.79,249.79,249.79,249.71,-0.008758040770326717,-0.008290550440137788,nvda,20200205
2020-02-05,11:22,11:22 AM,249.76,249.76,249.76,100,24976.0,1,249.89,249.71,249.806,7798,1947985.0056,49,249.76,249.76,249.78,249.84,-0.008877089806624773,-0.0081277570646369,nvda,20200205
2020-02-05,11:23,11:23 AM,249.88,249.81,249.81,117,29227.84,3,249.9,249.7,249.801,7851,1961184.5883,41,249.81,249.88,249.82,249.86,-0.008678674746127976,-0.008147609915307821,nvda,20200205
2020-02-05,11:24,11:24 AM,249.94,249.665,249.757,300,74927.0,2,249.95,249.63,249.841,17319,4326991.0167,61,249.94,249.665,249.875,249.67,-0.008888994710254523,-0.007988787109941118,nvda,20200205
2020-02-05,11:25,11:25 AM,249.735,249.71,249.72,400,99888.0,4,249.74,249.62,249.703,4355,1087458.09,26,249.725,249.71,249.74,249.69,-0.009035821855022143,-0.008536725788455986,nvda,20200205
2020-02-05,11:26,11:26 AM,249.73,249.715,249.722,200,49944.5,2,249.73,249.6,249.675,4060,1013680.76,27,249.715,249.73,249.64,249.73,-0.009027885252602235,-0.008647901752212589,nvda,20200205
2020-02-05,11:27,11:27 AM,249.85,249.72,249.785,200,49957.0,2,249.91,249.68,249.802,4615,1152833.96,39,249.85,249.72,249.68,249.72,-0.008777882276376376,-0.008143639345173637,nvda,20200205
2020-02-05,11:28,11:28 AM,249.705,249.6,249.658,310,77394.0,4,249.73,249.51,249.623,4670,1165737.561,29,249.605,249.705,249.68,249.718,-0.009281856530038162,-0.008854371399189282,nvda,20200205
2020-02-05,11:29,11:29 AM,249.77,249.77,249.77,100,24977.0,1,249.95,249.725,249.859,9042,2259226.105,23,249.77,249.77,249.725,249.95,-0.008837406794525347,-0.007917316847526135,nvda,20200205
2020-02-05,11:30,11:30 AM,250.015,249.935,249.972,700,174980.5,5,250.04,249.84,249.975,11380,2844712.2862,77,249.94,249.95,249.906,249.92,-0.008035809950118477,-0.007456730711962988,nvda,20200205
2020-02-05,11:31,11:31 AM,249.87,249.815,249.828,201,50215.37,3,249.97,249.77,249.839,3835,958133.4375,34,249.84,249.87,249.85,249.97,-0.008607245324349143,-0.007996728250209487,nvda,20200205
2020-02-05,11:32,11:32 AM,,,,0,0.0,0,250.1,249.905,250.018,6625,1656369.558,33,,,250.05,250.036,,-0.007285996196193843,nvda,20200205
2020-02-05,11:33,11:33 AM,,,,0,0.0,0,250.12,249.98,250.069,3723,931005.833,22,,,250.01,250.02,,-0.007083497119351447,nvda,20200205
2020-02-05,11:34,11:34 AM,249.92,249.82,249.886,400,99954.5,5,250.07,249.74,249.942,7093,1772840.08,36,249.92,249.82,250.04,249.74,-0.00837708385417294,-0.0075877595263903995,nvda,20200205
2020-02-05,11:35,11:35 AM,249.68,249.49,249.542,400,99817.0,4,249.72,249.45,249.503,15717,3921440.3284,79,249.68,249.49,249.72,249.48,-0.00974217947039057,-0.009330839815289167,nvda,20200205
2020-02-05,11:36,11:36 AM,249.735,249.32,249.47,718,179119.66,10,249.88,249.295,249.622,31313,7816402.75,171,249.37,249.735,249.48,249.64,-0.010027897157505903,-0.008858341969323353,nvda,20200205
2020-02-05,11:37,11:37 AM,249.41,249.24,249.357,255,63586.18,5,249.59,249.19,249.337,6304,1571821.004,40,249.41,249.27,249.59,249.265,-0.01047631519422856,-0.00998995445756064,nvda,20200205
2020-02-05,11:38,11:38 AM,249.375,249.24,249.288,300,74786.5,3,249.52,249.213,249.384,6699,1670626.07,39,249.25,249.375,249.25,249.42,-0.010750127977714033,-0.009803337661254869,nvda,20200205
2020-02-05,11:39,11:39 AM,249.4,249.35,249.379,300,74813.6,5,249.47,249.26,249.358,2080,518665.4,17,249.35,249.4,249.405,249.33,-0.010389012567610025,-0.009906572484743102,nvda,20200205
2020-02-05,11:40,11:40 AM,248.98,248.98,248.98,95,23653.1,2,249.323,248.83,248.996,8157,2031062.88,53,248.98,248.98,249.323,248.89,-0.011972364750374108,-0.011343918873311015,nvda,20200205
2020-02-05,11:41,11:41 AM,249.04,248.94,248.99,200,49798.0,3,249.14,248.86,249.012,5400,1344667.86,31,248.94,249.04,248.868,249.05,-0.011932681738274682,-0.011280389751164402,nvda,20200205
2020-02-05,11:42,11:42 AM,,,,0,0.0,0,249.07,248.95,249.031,4062,1011562.9825,27,,,249.02,248.98,,-0.011204948918615235,nvda,20200205
2020-02-05,11:43,11:43 AM,248.73,248.73,248.73,100,24873.0,1,249.0,248.69,248.781,12834,3192851.64,75,248.73,248.73,248.981,248.765,-0.012964440052857868,-0.012197591452156625,nvda,20200205
2020-02-05,11:44,11:44 AM,248.835,248.67,248.778,400,99511.0,4,249.052,248.62,248.844,2576,641023.185,22,248.67,248.83,248.67,249.045,-0.012773961594780978,-0.011947445533704242,nvda,20200205
2020-02-05,11:45,11:45 AM,248.98,248.79,248.917,118,29372.19,6,249.045,248.75,248.903,8447,2102485.454,44,248.95,248.79,249.045,248.8,-0.012222367726599969,-0.011713181895788483,nvda,20200205
2020-02-05,11:46,11:46 AM,248.835,248.835,248.835,14,3483.69,1,249.0,248.772,248.952,6974,1736189.29,25,248.835,248.835,248.85,249.0,-0.012547768425814617,-0.011518623959214346,nvda,20200205
2020-02-05,11:47,11:47 AM,249.12,249.02,249.067,300,74720.0,3,249.17,248.965,249.085,7943,1978481.4995,44,249.02,249.12,248.965,249.11,-0.01162712254510969,-0.010990538131370286,nvda,20200205
2020-02-05,11:48,11:48 AM,249.04,248.97,248.986,130,32368.2,2,249.1,248.93,249.012,3060,761978.225,24,248.97,249.04,249.06,249.08,-0.011948554943114496,-0.011280389751164402,nvda,20200205
2020-02-05,11:49,11:49 AM,,,,0,0.0,0,249.391,249.05,249.216,7931,1976535.6069,39,,,249.07,249.27,,-0.010470393443794596,nvda,20200205
2020-02-05,11:50,11:50 AM,249.305,249.175,249.179,103,25665.415,2,249.33,249.002,249.171,3252,810303.182,22,249.305,249.175,249.32,249.056,-0.011182672809596986,-0.01064906909983211,nvda,20200205
2020-02-05,11:51,11:51 AM,249.04,249.0,249.02,200,49804.0,2,249.11,248.88,248.97,6875,1711668.473,33,249.0,249.04,248.99,249.097,-0.011813632701976625,-0.011447153696799361,nvda,20200205
2020-02-05,11:52,11:52 AM,,,,0,0.0,0,249.16,249.03,249.109,2716,676580.1738,20,,,249.051,249.12,,-0.010895244448150309,nvda,20200205
2020-02-05,11:53,11:53 AM,,,,0,0.0,0,249.14,249.08,249.099,1100,274008.41,10,,,249.09,249.11,,-0.01093495014949204,nvda,20200205
2020-02-05,11:54,11:54 AM,249.115,249.115,249.115,100,24911.5,1,249.21,249.095,249.15,3043,758164.515,21,249.115,249.115,249.105,249.125,-0.011436644087032802,-0.010732451072649533,nvda,20200205
2020-02-05,11:55,11:55 AM,,,,0,0.0,0,249.24,249.06,249.169,2680,667774.091,21,,,249.09,249.22,,-0.010657010240100366,nvda,20200205
2020-02-05,11:56,11:56 AM,,,,0,0.0,0,249.25,249.15,249.218,2686,669399.5,17,,,249.21,249.19,,-0.01046245230352634,nvda,20200205
2020-02-05,11:57,11:57 AM,,,,0,0.0,0,249.41,249.19,249.326,3245,809062.45,18,,,249.19,249.359,,-0.010033630729036442,nvda,20200205
2020-02-05,11:58,11:58 AM,249.63,249.52,249.575,200,49915.0,2,249.71,249.33,249.567,7342,1832323.53,58,249.52,249.63,249.33,249.66,-0.009611225530462765,-0.009076723326702486,nvda,20200205
2020-02-05,11:59,11:59 AM,,,,0,0.0,0,249.69,249.54,249.615,2788,695927.99,22,,,249.645,249.598,,-0.008886135960262533,nvda,20200205
2020-02-05,12:00,12 PM,249.55,249.46,249.501,248,61876.22,5,249.55,249.43,249.487,2407,600514.22,15,249.46,249.55,249.51,249.48,-0.009904879819997894,-0.009394368937435782,nvda,20200205
2020-02-05,12:01,12:01 PM,,,,0,0.0,0,249.63,249.48,249.575,2812,701805.15,26,,,249.53,249.48,,-0.009044958765629236,nvda,20200205
2020-02-05,12:02,12:02 PM,249.555,249.555,249.555,100,24955.5,1,249.61,249.53,249.563,2910,726229.04,26,249.555,249.555,249.53,249.555,-0.009690591554661393,-0.009092605607239224,nvda,20200205
2020-02-05,12:03,12:03 PM,249.57,249.57,249.57,100,24957.0,1,249.57,249.53,249.549,2115,527795.92,18,249.57,249.57,249.54,249.55,-0.009631067036512422,-0.009148193589117469,nvda,20200205
2020-02-05,12:04,12:04 PM,249.58,249.58,249.58,100,24958.0,1,249.649,249.53,249.585,2000,499169.35,15,249.58,249.58,249.649,249.54,-0.009591384024412996,-0.009005253064287504,nvda,20200205
2020-02-05,12:05,12:05 PM,,,,0,0.0,0,249.729,249.59,249.661,3214,802412.3222,19,,,249.62,249.656,,-0.008703489734090946,nvda,20200205
2020-02-05,12:06,12:06 PM,,,,0,0.0,0,249.71,249.6,249.665,4064,1014640.345,34,,,249.67,249.6,,-0.00868760745355432,nvda,20200205
2020-02-05,12:07,12:07 PM,249.62,249.565,249.567,310,77365.7,3,249.66,249.52,249.58,4416,1102145.718,33,249.565,249.62,249.57,249.66,-0.009642971940142171,-0.009025105914958313,nvda,20200205
2020-02-05,12:08,12:08 PM,249.79,249.67,249.766,125,31220.75,4,249.93,249.68,249.805,7842,1958974.9992,47,249.67,249.79,249.68,249.89,-0.008853279999365162,-0.008131727634771083,nvda,20200205
2020-02-05,12:09,12:09 PM,249.785,249.785,249.785,100,24978.5,1,249.91,249.78,249.837,5655,1412829.001,37,249.785,249.785,249.88,249.9,-0.008777882276376376,-0.008004669390477856,nvda,20200205
2020-02-05,12:10,12:10 PM,,,,0,0.0,0,249.888,249.83,249.864,1700,424769.15,13,,,249.85,249.859,,-0.007897463996855326,nvda,20200205
2020-02-05,12:11,12:11 PM,249.89,249.89,249.89,100,24989.0,1,249.91,249.83,249.881,1812,452783.9856,15,249.89,249.89,249.89,249.875,-0.008361210649333237,-0.007829964304574527,nvda,20200205
2020-02-05,12:12,12:12 PM,249.75,249.75,249.75,100,24975.0,1,249.84,249.65,249.765,3150,786759.78,29,249.75,249.75,249.84,249.77,-0.008916772818724088,-0.008290550440137788,nvda,20200205
2020-02-05,12:13,12:13 PM,,,,0,0.0,0,249.76,249.67,249.707,3852,961872.8,16,,,249.76,249.67,,-0.008520843507919361,nvda,20200205
2020-02-05,12:14,12:14 PM,,,,0,0.0,0,249.69,249.63,249.649,1882,469839.75,14,,,249.675,249.66,,-0.008751136575700934,nvda,20200205
2020-02-05,12:15,12:15 PM,249.77,249.65,249.697,300,74909.0,4,249.8,249.65,249.749,3830,956538.0662,28,249.65,249.77,249.65,249.76,-0.009127092782850635,-0.008354079562284402,nvda,20200205
2020-02-05,12:16,12:16 PM,249.87,249.835,249.852,200,49970.5,2,249.89,249.8,249.858,3116,778559.252,22,249.835,249.87,249.8,249.88,-0.0085120060953107,-0.00792128741766032,nvda,20200205
2020-02-05,12:17,12:17 PM,249.91,249.85,249.88,200,49976.0,2,249.92,249.81,249.864,4430,1106896.504,33,249.91,249.85,249.9,249.87,-0.00840089366143255,-0.007897463996855326,nvda,20200205
2020-02-05,12:18,12:18 PM,249.87,249.78,249.843,225,56214.75,3,249.879,249.77,249.826,1975,493406.958,19,249.87,249.78,249.85,249.77,-0.00854772080620017,-0.00804834566195366,nvda,20200205
2020-02-05,12:19,12:19 PM,,,,0,0.0,0,249.75,249.653,249.7,3360,838991.96,21,,,249.74,249.75,,-0.00854863749885854,nvda,20200205
2020-02-05,12:20,12:20 PM,249.74,249.695,249.709,73,18228.77,2,249.78,249.67,249.731,4022,1004416.2,30,249.695,249.74,249.73,249.71,-0.009079473168331412,-0.008425549824699384,nvda,20200205
2020-02-05,12:21,12:21 PM,,,,0,0.0,0,249.76,249.67,249.705,2560,639244.8908,17,,,249.76,249.7,,-0.008528784648187617,nvda,20200205
2020-02-05,12:22,12:22 PM,249.67,249.67,249.67,100,24967.0,1,249.75,249.67,249.72,1367,341367.58,11,249.67,249.67,249.72,249.69,-0.00923423691551894,-0.00846922609617519,nvda,20200205
2020-02-05,12:23,12:23 PM,,,,0,0.0,0,249.88,249.68,249.804,1732,432661.01,15,,,249.72,249.845,,-0.008135698204905268,nvda,20200205
2020-02-05,12:24,12:24 PM,,,,0,0.0,0,250.02,249.89,249.979,4726,1181402.72,30,,,249.89,249.975,,-0.00744084843142625,nvda,20200205
2020-02-05,12:25,12:25 PM,250.105,250.105,250.105,100,25010.5,1,250.18,249.965,250.057,7629,1907686.59,43,250.105,250.105,250.0,250.127,-0.00750802588919719,-0.007131143960961437,nvda,20200205
2020-02-05,12:26,12:26 PM,250.12,249.9,250.01,260,65002.61,4,250.123,249.9,249.993,7278,1819445.8464,36,250.12,249.9,250.123,249.9,-0.007885014504141015,-0.007385260449548004,nvda,20200205
2020-02-05,12:27,12:27 PM,249.96,249.93,249.945,109,27244.005,3,249.96,249.897,249.913,3501,874944.33,13,249.93,249.96,249.91,249.91,-0.008142954082786782,-0.007702906060281186,nvda,20200205
2020-02-05,12:28,12:28 PM,,,,0,0.0,0,250.1,249.89,249.989,2684,670970.616,22,,,249.92,250.072,,-0.007401142730084629,nvda,20200205
2020-02-05,12:29,12:29 PM,,,,0,0.0,0,250.1,249.94,250.015,2110,527531.39,16,,,250.06,249.94,,-0.007297907906596396,nvda,20200205
2020-02-05,12:30,12:30 PM,250.0,250.0,250.0,100,25000.0,1,250.06,249.905,249.98,3419,854681.92,31,250.0,250.0,249.932,249.94,-0.007924697516240328,-0.007436877861292178,nvda,20200205
2020-02-05,12:31,12:31 PM,249.99,249.94,249.943,107,26743.93,3,250.02,249.92,249.963,1600,399941.58,14,249.99,249.94,249.97,249.93,-0.008150890685206578,-0.007504377553572976,nvda,20200205
2020-02-05,12:32,12:32 PM,,,,0,0.0,0,250.14,249.99,250.065,2138,534638.83,16,,,249.99,250.113,,-0.007099379399888073,nvda,20200205
2020-02-05,12:33,12:33 PM,250.195,250.195,250.195,100,25019.5,1,250.2,250.051,250.146,9315,2330108.0615,36,250.195,250.195,250.14,250.108,-0.007150878780303023,-0.006777763219020706,nvda,20200205
2020-02-05,12:34,12:34 PM,250.1,250.1,250.1,112,28011.2,2,250.165,250.05,250.107,2847,712055.71,22,250.1,250.1,250.05,250.165,-0.007527867395246847,-0.006932615454253113,nvda,20200205
2020-02-05,12:35,12:35 PM,250.09,250.09,250.09,100,25009.0,1,250.17,250.02,250.075,7947,1987344.3961,33,250.09,250.09,250.14,250.07,-0.007567550407346161,-0.007059673698546453,nvda,20200205
2020-02-05,12:36,12:36 PM,249.96,249.9,249.912,250,62478.0,3,250.054,249.88,249.971,3018,754411.62,26,249.9,249.96,250.054,250.029,-0.008273908022714587,-0.007472612992499613,nvda,20200205
2020-02-05,12:37,12:37 PM,250.02,250.02,250.02,100,25002.0,2,250.055,250.0,250.02,1537,384280.58,10,250.02,250.02,250.05,250.02,-0.007845331492041587,-0.007278055055925474,nvda,20200205
2020-02-05,12:38,12:38 PM,250.15,250.07,250.105,400,100042.0,3,250.21,249.94,250.111,7552,1888835.2893,49,250.15,250.07,249.99,250.07,-0.00750802588919719,-0.006916733173716488,nvda,20200205
2020-02-05,12:39,12:39 PM,250.035,250.035,250.035,100,25003.5,1,250.09,250.035,250.067,1050,262570.27,9,250.035,250.035,250.051,250.07,-0.007785806973892615,-0.007091438259619704,nvda,20200205
2020-02-05,12:40,12:40 PM,250.2,250.065,250.112,154,38517.3,2,250.25,250.04,250.173,7229,1808499.21,55,250.065,250.2,250.05,250.14,-0.007480247780727625,-0.006670557825398176,nvda,20200205
2020-02-05,12:41,12:41 PM,,,,0,0.0,0,250.16,250.08,250.137,2027,507028.182,16,,,250.08,250.13,,-0.006813498350228142,nvda,20200205
2020-02-05,12:42,12:42 PM,,,,0,0.0,0,250.11,250.02,250.044,3906,976672.1,26,,,250.11,250.07,,-0.007182761372705497,nvda,20200205
2020-02-05,12:43,12:43 PM,250.105,250.09,250.094,100,25009.375,2,250.09,250.0,250.004,7815,1953778.75,14,250.09,250.105,250.09,250.0,-0.007551677202506458,-0.0073415841780722,nvda,20200205
2020-02-05,12:44,12:44 PM,249.9,249.9,249.9,100,24990.0,1,250.02,249.88,249.932,4400,1099699.5,38,249.9,249.9,250.02,249.95,-0.00832152763723381,-0.007627465227732132,nvda,20200205
2020-02-05,12:45,12:45 PM,249.98,249.89,249.925,310,77476.8,4,249.98,249.89,249.947,2000,499893.53,14,249.98,249.93,249.92,249.94,-0.008222320106985412,-0.00756790667571959,nvda,20200205
2020-02-05,12:46,12:46 PM,249.92,249.92,249.92,100,24992.0,1,249.92,249.84,249.881,1931,482519.7,18,249.92,249.92,249.92,249.84,-0.008242161613035181,-0.007829964304574527,nvda,20200205
2020-02-05,12:47,12:47 PM,249.865,249.865,249.865,100,24986.5,1,249.905,249.84,249.867,2100,524721.4,19,249.865,249.865,249.86,249.85,-0.008460418179581522,-0.007885552286452885,nvda,20200205
2020-02-05,12:48,12:48 PM,249.93,249.86,249.892,300,74967.5,3,249.93,249.84,249.879,4231,1057239.3756,35,249.86,249.885,249.86,249.87,-0.008353274046913328,-0.007837905444842896,nvda,20200205
2020-02-05,12:49,12:49 PM,249.885,249.885,249.885,200,49977.0,2,249.905,249.86,249.88,1400,349831.5,11,249.885,249.885,249.865,249.875,-0.008381052155382894,-0.00783393487470871,nvda,20200205
2020-02-05,12:50,12:50 PM,250.03,249.94,249.985,200,49997.0,2,250.09,249.9,250.02,2785,696306.833,20,249.94,250.03,249.9,250.03,-0.0079842220343893,-0.007278055055925474,nvda,20200205
2020-02-05,12:51,12:51 PM,250.23,250.04,250.154,350,87554.0,4,250.24,250.04,250.193,5344,1337032.36,37,250.04,250.23,250.04,250.21,-0.007313579129910347,-0.006591146422714824,nvda,20200205
2020-02-05,12:52,12:52 PM,250.25,250.24,250.245,200,50049.0,2,250.259,250.19,250.238,2911,728443.68,17,250.24,250.25,250.2,250.25,-0.006952463719806226,-0.006412470766677423,nvda,20200205
2020-02-05,12:53,12:53 PM,250.27,250.27,250.27,200,50054.0,2,250.28,250.1,250.242,2400,600579.75,17,250.27,250.27,250.244,250.1,-0.006853256189557827,-0.006396588486140798,nvda,20200205
2020-02-05,12:54,12:54 PM,250.08,249.88,249.909,225,56229.5,3,250.08,249.88,249.929,2304,575835.8,14,250.08,249.895,250.08,249.895,-0.008285812926344449,-0.0076393769381345724,nvda,20200205
2020-02-05,12:55,12:55 PM,249.92,249.85,249.897,225,56226.75,4,249.94,249.82,249.86,6650,1661568.95,29,249.885,249.92,249.92,249.92,-0.008333432540863672,-0.007913346277391951,nvda,20200205
2020-02-05,12:56,12:56 PM,250.04,249.865,250.032,111,27753.565,4,250.02,249.87,249.977,1500,374965.93,12,249.865,250.04,249.88,250.019,-0.007797711877522364,-0.007448789571694619,nvda,20200205
2020-02-05,12:57,12:57 PM,249.995,249.995,249.995,75,18749.625,1,250.04,249.99,250.008,1300,325010.01,11,249.995,249.995,250.04,250.035,-0.007944539022289985,-0.007325701897535462,nvda,20200205
2020-02-05,12:58,12:58 PM,250.08,249.98,250.029,197,49255.76,3,250.067,249.98,250.019,1851,462786.095,13,250.08,249.98,250.046,249.98,-0.007809616781152226,-0.007282025626059658,nvda,20200205
2020-02-05,12:59,12:59 PM,249.965,249.965,249.965,100,24996.5,1,249.99,249.88,249.935,1580,394897.93,13,249.965,249.965,249.965,249.91,-0.00806358805858804,-0.007615553517329578,nvda,20200205
2020-02-05,13:00,1 PM,249.715,249.715,249.715,100,24971.5,1,249.92,249.683,249.774,7300,1823349.33,21,249.715,249.715,249.92,249.683,-0.009055663361071801,-0.00825481530893024,nvda,20200205
2020-02-05,13:01,1:01 PM,249.785,249.72,249.75,150,37462.56,4,249.78,249.69,249.737,3071,766941.38,16,249.72,249.75,249.72,249.78,-0.008916772818724088,-0.00840172640389439,nvda,20200205
2020-02-05,13:02,1:02 PM,,,,0,0.0,0,249.8,249.73,249.787,2300,574509.67,15,,,249.8,249.73,,-0.008203197897186067,nvda,20200205
2020-02-05,13:03,1:03 PM,249.56,249.47,249.533,290,72364.54,4,249.66,249.441,249.535,4092,1021097.163,18,249.56,249.51,249.66,249.441,-0.009777894181280042,-0.009203781570995826,nvda,20200205
2020-02-05,13:04,1:04 PM,249.53,249.51,249.517,300,74855.0,3,249.57,249.361,249.491,6569,1638904.0705,33,249.53,249.51,249.53,249.493,-0.009841387000638968,-0.009378486656899042,nvda,20200205
2020-02-05,13:05,1:05 PM,249.41,249.41,249.41,100,24941.0,1,249.54,249.37,249.414,2900,723300.145,19,249.41,249.41,249.5,249.41,-0.010265995230102014,-0.009684220557229898,nvda,20200205
2020-02-05,13:06,1:06 PM,249.43,249.43,249.43,75,18707.25,1,249.49,249.39,249.441,1200,299329.0,11,249.43,249.43,249.47,249.47,-0.010186629205903273,-0.009577015163607367,nvda,20200205
2020-02-05,13:07,1:07 PM,249.39,249.38,249.387,100,24938.72,2,249.52,249.34,249.409,1400,349172.58,11,249.38,249.39,249.48,249.405,-0.010357266157930506,-0.009704073407900707,nvda,20200205
2020-02-05,13:08,1:08 PM,249.32,249.32,249.32,108,26926.56,2,249.42,249.27,249.301,5289,1318553.07,28,249.32,249.32,249.42,249.35,-0.010623142338996182,-0.010132894982390605,nvda,20200205
2020-02-05,13:09,1:09 PM,249.34,249.34,249.34,100,24934.0,1,249.37,249.24,249.322,2003,499392.88,18,249.34,249.34,249.24,249.259,-0.01054377631479744,-0.010049513009573068,nvda,20200205
2020-02-05,13:10,1:10 PM,,,,0,0.0,0,249.3,249.26,249.279,1100,274207.0,5,,,249.26,249.27,,-0.010220247525342212,nvda,20200205
2020-02-05,13:11,1:11 PM,249.42,249.35,249.386,200,49877.25,3,249.455,249.248,249.382,3998,997030.622,23,249.35,249.42,249.248,249.45,-0.010361234459140459,-0.009811278801523125,nvda,20200205
2020-02-05,13:12,1:12 PM,249.465,249.465,249.465,200,49893.0,1,249.49,249.361,249.42,2650,660963.865,18,249.465,249.465,249.43,249.361,-0.01004773866355556,-0.009660397136424902,nvda,20200205
2020-02-05,13:13,1:13 PM,249.39,249.39,249.39,100,24939.0,1,249.44,249.348,249.377,1570,391521.66,13,249.39,249.39,249.41,249.35,-0.010345361254300757,-0.009831131652193934,nvda,20200205
2020-02-05,13:14,1:14 PM,,,,0,0.0,0,249.36,249.2,249.307,3201,798030.58,17,,,249.33,249.21,,-0.01010907156158561,nvda,20200205
2020-02-05,13:15,1:15 PM,249.24,249.23,249.238,60,14954.3,2,249.34,249.18,249.278,5894,1469244.78,26,249.24,249.23,249.18,249.22,-0.01094854303821083,-0.010224218095476396,nvda,20200205
2020-02-05,13:16,1:16 PM,249.135,249.1,249.1,101,25159.135,2,249.192,249.01,249.085,8232,2050470.26,49,249.135,249.1,249.17,249.05,-0.011496168605181885,-0.010990538131370286,nvda,20200205
2020-02-05,13:17,1:17 PM,,,,0,0.0,0,249.16,249.0,249.055,9349,2328414.78,39,,,249.055,249.11,,-0.011109655235395257,nvda,20200205
2020-02-05,13:18,1:18 PM,249.255,249.14,249.235,450,112155.725,7,249.255,249.08,249.194,1989,495646.7875,18,249.14,249.23,249.125,249.254,-0.01096044794184058,-0.010557745986746317,nvda,20200205
2020-02-05,13:19,1:19 PM,249.22,249.16,249.213,120,29905.53,5,249.25,249.11,249.172,2799,697431.3,19,249.205,249.17,249.205,249.17,-0.011047750568459228,-0.010645098529697925,nvda,20200205
2020-02-05,13:20,1:20 PM,249.28,249.245,249.264,28,6979.385,2,249.33,249.19,249.258,2755,686706.735,19,249.28,249.245,249.2,249.25,-0.010845367206752478,-0.010303629498159637,nvda,20200205
2020-02-05,13:21,1:21 PM,249.29,249.29,249.29,43,10719.47,1,249.42,249.26,249.38,1578,393521.5045,11,249.29,249.29,249.26,249.39,-0.010742191375294237,-0.009819219941791494,nvda,20200205
2020-02-05,13:22,1:22 PM,,,,0,0.0,0,249.43,249.3,249.382,2959,737923.0543,16,,,249.33,249.395,,-0.009811278801523125,nvda,20200205
2020-02-05,13:23,1:23 PM,249.42,249.34,249.393,300,74818.0,3,249.42,249.33,249.382,6018,1500783.45,19,249.42,249.34,249.39,249.344,-0.010333456350670895,-0.009811278801523125,nvda,20200205
2020-02-05,13:24,1:24 PM,249.385,249.37,249.37,182,45385.415,3,249.445,249.36,249.421,1500,374131.2,10,249.385,249.37,249.38,249.445,-0.010424727278499385,-0.009656426566290718,nvda,20200205
2020-02-05,13:25,1:25 PM,249.4,249.4,249.4,100,24940.0,1,249.53,249.4,249.444,10196,2543335.65,24,249.4,249.4,249.475,249.47,-0.010305678242201329,-0.009565103453204925,nvda,20200205
2020-02-05,13:26,1:26 PM,249.53,249.48,249.495,154,38422.29,3,249.55,249.446,249.488,2101,524173.9,16,249.48,249.53,249.53,249.55,-0.009928689627257504,-0.009390398367301597,nvda,20200205
2020-02-05,13:27,1:27 PM,,,,0,0.0,0,249.47,249.4,249.434,1300,324263.69,12,,,249.47,249.42,,-0.009604809154546545,nvda,20200205
2020-02-05,13:28,1:28 PM,249.555,249.555,249.555,100,24955.5,1,249.555,249.485,249.517,1198,298920.92,10,249.555,249.555,249.5,249.485,-0.009690591554661393,-0.009275251833410809,nvda,20200205
2020-02-05,13:29,1:29 PM,,,,0,0.0,0,249.551,249.45,249.506,2774,692130.155,12,,,249.47,249.551,,-0.009318928104886614,nvda,20200205
2020-02-05,13:30,1:30 PM,249.56,249.56,249.56,100,24956.0,1,249.59,249.51,249.545,3026,755123.76,27,249.56,249.56,249.58,249.56,-0.009670750048611737,-0.009164075869654207,nvda,20200205
2020-02-05,13:31,1:31 PM,249.62,249.62,249.62,15,3744.3,1,249.69,249.56,249.623,1241,309782.6176,9,249.62,249.62,249.62,249.69,-0.009432651976015624,-0.008854371399189282,nvda,20200205
2020-02-05,13:32,1:32 PM,249.66,249.66,249.66,200,49932.0,2,249.8,249.6,249.648,9471,2364416.2,38,249.66,249.66,249.64,249.76,-0.009273919927618255,-0.00875510714583512,nvda,20200205
2020-02-05,13:33,1:33 PM,249.81,249.73,249.777,572,142872.6,5,249.81,249.635,249.754,2978,743767.41,27,249.73,249.81,249.77,249.81,-0.008809628686055894,-0.008334226711613591,nvda,20200205
2020-02-05,13:34,1:34 PM,249.755,249.72,249.725,118,29467.59,2,249.79,249.61,249.716,2683,669987.48,23,249.755,249.72,249.74,249.61,-0.009015980348972486,-0.008485108376711814,nvda,20200205
2020-02-05,13:35,1:35 PM,249.66,249.62,249.64,200,49928.0,3,249.67,249.6,249.643,1180,294578.3125,10,249.62,249.66,249.66,249.67,-0.009353285951816996,-0.00877495999650593,nvda,20200205
2020-02-05,13:36,1:36 PM,249.555,249.555,249.555,100,24955.5,1,249.73,249.555,249.681,4715,1177248.4632,13,249.555,249.555,249.73,249.555,-0.009690591554661393,-0.008624078331407594,nvda,20200205
2020-02-05,13:37,1:37 PM,249.58,249.495,249.57,113,28201.435,2,249.58,249.49,249.53,3147,785272.235,23,249.58,249.495,249.53,249.53,-0.009631067036512422,-0.009223634421666637,nvda,20200205
2020-02-05,13:38,1:38 PM,249.57,249.57,249.57,93,23210.01,1,249.56,249.48,249.521,2837,707890.24,21,249.57,249.57,249.55,249.55,-0.009631067036512422,-0.009259369552874184,nvda,20200205
2020-02-05,13:39,1:39 PM,,,,0,0.0,0,249.571,249.446,249.485,4021,1003179.47,19,,,249.571,249.525,,-0.009402310077704038,nvda,20200205
2020-02-05,13:40,1:40 PM,249.53,249.51,249.521,201,50153.76,4,249.554,249.42,249.501,6180,1541915.59,49,249.53,249.52,249.525,249.46,-0.009825513795799264,-0.009338780955557423,nvda,20200205
2020-02-05,13:41,1:41 PM,249.51,249.43,249.462,300,74838.5,3,249.59,249.33,249.457,10934,2727567.48,75,249.43,249.445,249.47,249.445,-0.010059643567185422,-0.009513486041460753,nvda,20200205
2020-02-05,13:42,1:42 PM,249.41,249.375,249.386,820,204496.7,9,249.49,249.32,249.4,6910,1723355.93,56,249.375,249.385,249.47,249.385,-0.010361234459140459,-0.009739808539108143,nvda,20200205
2020-02-05,13:43,1:43 PM,249.345,249.315,249.325,405,100976.6,5,249.37,249.3,249.327,3297,822029.6495,24,249.32,249.32,249.355,249.3,-0.010603300832946524,-0.010029660158902259,nvda,20200205
2020-02-05,13:44,1:44 PM,249.46,249.38,249.429,95,23695.74,3,249.465,249.33,249.424,5435,1355621.5084,24,249.38,249.46,249.33,249.4,-0.010190597507113227,-0.009644514855888164,nvda,20200205
2020-02-05,13:45,1:45 PM,249.415,249.38,249.401,366,91280.89,3,249.46,249.37,249.408,6517,1625390.115,45,249.415,249.4,249.4,249.46,-0.010301709940991374,-0.009708043978034892,nvda,20200205
2020-02-05,13:46,1:46 PM,249.465,249.43,249.454,323,80573.695,3,249.465,249.42,249.446,1277,318542.095,11,249.43,249.465,249.451,249.44,-0.010091389976864828,-0.009557162312936556,nvda,20200205
2020-02-05,13:47,1:47 PM,249.335,249.29,249.308,300,74792.5,3,249.45,249.288,249.367,1791,446616.57,12,249.335,249.3,249.41,249.3,-0.010670761953515405,-0.009870837353535666,nvda,20200205
2020-02-05,13:48,1:48 PM,249.27,249.245,249.245,101,25173.77,2,249.3,249.23,249.265,1955,487312.8355,15,249.27,249.245,249.275,249.245,-0.010920764929741264,-0.01027583550722057,nvda,20200205
2020-02-05,13:49,1:49 PM,249.2,249.2,249.2,100,24920.0,1,249.24,249.15,249.201,3918,976370.81,26,249.2,249.2,249.22,249.2,-0.011099338484188405,-0.010529951995807137,nvda,20200205
2020-02-05,13:50,1:50 PM,249.25,249.25,249.25,94,23429.5,1,249.28,249.17,249.24,2303,573999.265,13,249.25,249.25,249.24,249.17,-0.010900923423691608,-0.01037509976057462,nvda,20200205
2020-02-05,13:51,1:51 PM,249.2,249.15,249.199,102,25418.31,3,249.23,249.16,249.194,2500,622984.03,17,249.2,249.15,249.187,249.163,-0.011103306785398245,-0.010557745986746317,nvda,20200205
2020-02-05,13:52,1:52 PM,249.135,249.135,249.135,100,24913.5,1,249.18,249.115,249.15,2600,647789.36,11,249.135,249.135,249.13,249.17,-0.011357278062834172,-0.010732451072649533,nvda,20200205
2020-02-05,13:53,1:53 PM,,,,0,0.0,0,249.21,249.07,249.142,1196,297973.6196,10,,,249.2,249.074,,-0.010764215633722896,nvda,20200205
2020-02-05,13:54,1:54 PM,,,,0,0.0,0,249.11,248.97,249.045,2092,521002.51,19,,,249.07,248.97,,-0.011149360936736989,nvda,20200205
2020-02-05,13:55,1:55 PM,,,,0,0.0,0,248.99,248.91,248.953,2420,602467.38,19,,,248.98,248.977,,-0.01151465338908016,nvda,20200205
2020-02-05,13:56,1:56 PM,248.955,248.955,248.955,100,24895.5,1,249.0,248.94,248.964,1140,283818.5,10,248.955,248.955,248.95,249.0,-0.012071572280622394,-0.011470977117604355,nvda,20200205
2020-02-05,13:57,1:57 PM,,,,0,0.0,0,249.124,249.025,249.087,2600,647625.67,20,,,249.025,249.06,,-0.01098259699110203,nvda,20200205
2020-02-05,13:58,1:58 PM,249.0,248.98,248.998,112,27887.76,2,249.06,248.97,249.016,2662,662880.0527,18,249.0,248.98,249.04,248.976,-0.011900935328595276,-0.011264507470627776,nvda,20200205
2020-02-05,13:59,1:59 PM,248.93,248.85,248.929,101,25141.85,2,248.96,248.84,248.912,3238,805977.3258,20,248.93,248.85,248.93,248.855,-0.012174748112080747,-0.011677446764580936,nvda,20200205
2020-02-05,14:00,2 PM,248.85,248.68,248.821,328,81613.16,11,248.85,248.67,248.757,4650,1156721.8,37,248.84,248.715,248.85,248.7,-0.012603324642753747,-0.012292885135376602,nvda,20200205
2020-02-05,14:01,2:01 PM,248.78,248.66,248.715,297,73868.4,6,248.77,248.63,248.682,5225,1299365.29,18,248.75,248.66,248.69,248.637,-0.01302396457100684,-0.012590677895439087,nvda,20200205
2020-02-05,14:02,2:02 PM,248.61,248.55,248.551,208,51698.63,4,248.63,248.54,248.578,6786,1686848.6177,28,248.56,248.61,248.6,248.59,-0.013674765969436248,-0.013003617189392247,nvda,20200205
2020-02-05,14:03,2:03 PM,248.59,248.545,248.564,7,1739.95,2,248.64,248.57,248.603,6424,1597026.585,21,248.545,248.59,248.605,248.61,-0.013623178053707071,-0.012904352936038085,nvda,20200205
2020-02-05,14:04,2:04 PM,248.78,248.75,248.75,102,25372.56,2,248.775,248.67,248.73,5608,1394880.3392,24,248.78,248.75,248.67,248.7,-0.012885074028659127,-0.012400090528999133,nvda,20200205
2020-02-05,14:05,2:05 PM,248.69,248.63,248.688,108,26858.32,4,248.74,248.62,248.689,5584,1388679.32,44,248.69,248.68,248.69,248.718,-0.013131108703675147,-0.01256288390449991,nvda,20200205
2020-02-05,14:06,2:06 PM,248.59,248.505,248.512,109,27087.84,5,248.715,248.48,248.54,5053,1255872.12,28,248.59,248.505,248.715,248.52,-0.013829529716623663,-0.013154498854490581,nvda,20200205
2020-02-05,14:07,2:07 PM,248.535,248.41,248.47,204,50687.89,4,248.54,248.39,248.479,3394,843336.87,29,248.51,248.41,248.54,248.49,-0.013996198367440942,-0.013396703632674596,nvda,20200205
2020-02-05,14:08,2:08 PM,248.49,248.49,248.49,2,496.98,1,248.492,248.35,248.476,4630,1150446.18,10,248.49,248.49,248.47,248.492,-0.0139168323432422,-0.01340861534307715,nvda,20200205
2020-02-05,14:09,2:09 PM,248.565,248.435,248.531,1055,262200.805,11,248.58,248.445,248.52,3227,801975.09,19,248.435,248.565,248.47,248.47,-0.013754131993634877,-0.01323391025717382,nvda,20200205
2020-02-05,14:10,2:10 PM,248.48,248.43,248.47,102,25343.91,4,248.536,248.434,248.477,1100,273324.97,11,248.43,248.48,248.45,248.52,-0.013996198367440942,-0.013404644772942965,nvda,20200205
2020-02-05,14:11,2:11 PM,248.475,248.43,248.431,103,25588.355,3,248.48,248.39,248.432,3001,745544.8351,23,248.475,248.44,248.46,248.42,-0.014150962114628358,-0.013583320428980479,nvda,20200205
2020-02-05,14:12,2:12 PM,248.45,248.39,248.42,200,49684.0,2,248.51,248.36,248.416,2841,705750.3118,19,248.39,248.45,248.4,248.49,-0.014194613427937739,-0.013646849551127093,nvda,20200205
2020-02-05,14:13,2:13 PM,248.54,248.485,248.504,500,124252.0,5,248.56,248.45,248.51,9145,2272619.91,27,248.51,248.5,248.45,248.48,-0.013861276126303184,-0.013273615958515552,nvda,20200205
2020-02-05,14:14,2:14 PM,248.505,248.505,248.505,100,24850.5,1,248.56,248.48,248.525,2290,569123.47,19,248.505,248.505,248.505,248.53,-0.013857307825093229,-0.013214057406503011,nvda,20200205
2020-02-05,14:15,2:15 PM,248.59,248.44,248.588,96,23864.45,3,248.58,248.424,248.515,4792,1190885.37,37,248.55,248.59,248.53,248.58,-0.013527938824668627,-0.013253763107844744,nvda,20200205
2020-02-05,14:16,2:16 PM,248.59,248.59,248.59,20,4971.8,1,248.7,248.57,248.613,9230,2294699.348,21,248.59,248.59,248.59,248.69,-0.01352000222224872,-0.012864647234696465,nvda,20200205
2020-02-05,14:17,2:17 PM,248.79,248.79,248.79,200,49758.0,1,248.87,248.69,248.801,14668,3649409.9859,67,248.79,248.79,248.71,248.845,-0.012726341980261756,-0.012118180049473386,nvda,20200205
2020-02-05,14:18,2:18 PM,248.82,248.82,248.82,5,1244.1,1,248.87,248.8,248.83,1300,323479.5,13,248.82,248.82,248.87,248.8,-0.012607292943963701,-0.012003033515582486,nvda,20200205
2020-02-05,14:19,2:19 PM,248.82,248.82,248.82,100,24882.0,1,248.87,248.71,248.794,2865,712794.745,21,248.82,248.82,248.8,248.74,-0.012607292943963701,-0.012145974040412453,nvda,20200205
2020-02-05,14:20,2:20 PM,248.94,248.91,248.921,402,100066.38,3,248.94,248.77,248.882,4416,1099064.26,21,248.91,248.925,248.79,248.925,-0.012206494521760265,-0.011796563868605907,nvda,20200205
2020-02-05,14:21,2:21 PM,248.94,248.94,248.94,2,497.88,1,249.0,248.84,248.924,3700,921018.28,25,248.94,248.94,248.92,248.84,-0.012131096798771479,-0.011629799922970948,nvda,20200205
2020-02-05,14:22,2:22 PM,248.89,248.89,248.89,100,24889.0,1,248.91,248.834,248.87,4810,1197064.41,22,248.89,248.89,248.85,248.86,-0.012329511859268276,-0.011844210710215896,nvda,20200205
2020-02-05,14:23,2:23 PM,248.87,248.87,248.87,100,24887.0,1,248.87,248.8,248.841,2440,607172.0,14,248.87,248.87,248.83,248.84,-0.012408877883466904,-0.011959357244106683,nvda,20200205
2020-02-05,14:24,2:24 PM,248.89,248.83,248.85,300,74655.0,3,248.927,248.826,248.887,3783,941539.9093,32,248.83,248.89,248.826,248.925,-0.012488243907665645,-0.011776711017935097,nvda,20200205
2020-02-05,14:25,2:25 PM,249.025,249.025,249.025,100,24902.5,1,249.04,248.88,248.935,2930,729378.51,22,249.025,249.025,248.925,249.025,-0.011793791195926969,-0.011586123651495143,nvda,20200205
2020-02-05,14:26,2:26 PM,249.105,249.015,249.038,830,206701.23,6,249.15,249.01,249.09,10839,2699892.7016,74,249.035,249.045,249.05,249.045,-0.011742203280197792,-0.010970685280699477,nvda,20200205
2020-02-05,14:27,2:27 PM,249.15,249.055,249.127,907,225958.56,6,249.16,249.055,249.121,3703,922494.51,22,249.055,249.145,249.055,249.16,-0.01138902447251358,-0.01084759760654032,nvda,20200205
2020-02-05,14:28,2:28 PM,249.17,249.17,249.17,100,24917.0,1,249.2,249.15,249.182,2857,711912.08,21,249.17,249.17,249.17,249.19,-0.01121838752048646,-0.010605392828356305,nvda,20200205
2020-02-05,14:29,2:29 PM,249.29,249.29,249.29,100,24929.0,1,249.3,249.18,249.246,2319,578002.68,18,249.29,249.29,249.19,249.22,-0.010742191375294237,-0.010351276339769625,nvda,20200205
2020-02-05,14:30,2:30 PM,249.325,249.27,249.29,501,124894.325,6,249.36,249.16,249.275,4913,1224690.04,36,249.28,249.27,249.21,249.22,-0.010742191375294237,-0.010236129805878838,nvda,20200205
2020-02-05,14:31,2:31 PM,249.33,249.33,249.33,100,24933.0,1,249.33,249.26,249.298,3100,772822.45,14,249.33,249.33,249.26,249.3,-0.010583459326896754,-0.010144806692793044,nvda,20200205
2020-02-05,14:32,2:32 PM,249.32,249.26,249.313,122,30416.18,3,249.33,249.15,249.24,4990,1243705.9545,26,249.32,249.26,249.32,249.2,-0.010650920447465746,-0.01037509976057462,nvda,20200205
2020-02-05,14:33,2:33 PM,249.25,249.195,249.249,101,25174.195,3,249.26,249.17,249.236,4846,1207795.6363,21,249.195,249.25,249.2,249.2,-0.01090489172490156,-0.010390982041111357,nvda,20200205
2020-02-05,14:34,2:34 PM,249.335,249.2,249.262,312,77769.78,5,249.35,249.2,249.268,4579,1141398.81,33,249.215,249.335,249.2,249.34,-0.010853303809172385,-0.010263923796818016,nvda,20200205
2020-02-05,14:35,2:35 PM,249.47,249.28,249.375,200,49875.0,3,249.51,249.26,249.417,5159,1286741.29,37,249.28,249.47,249.3,249.51,-0.010404885772449727,-0.009672308846827344,nvda,20200205
2020-02-05,14:36,2:36 PM,249.595,249.555,249.561,800,199648.685,6,249.67,249.49,249.553,9879,2465335.28,58,249.555,249.595,249.51,249.64,-0.009666781747401782,-0.009132311308580844,nvda,20200205
2020-02-05,14:37,2:37 PM,249.91,249.78,249.856,200,49971.115,3,249.91,249.61,249.768,14435,3605402.405,76,249.78,249.91,249.62,249.9,-0.008496132890470996,-0.008278638729735234,nvda,20200205
2020-02-05,14:38,2:38 PM,249.96,249.9,249.948,1224,305936.92,10,250.0,249.878,249.943,10343,2585160.4,75,249.9,249.94,249.878,249.94,-0.00813104917915692,-0.007583788956256215,nvda,20200205
2020-02-05,14:39,2:39 PM,250.02,249.96,249.973,832,207977.39,8,250.1,249.93,249.984,16715,4178489.28,107,249.97,250.02,249.955,250.075,-0.008031841648908522,-0.00742099558075544,nvda,20200205
2020-02-05,14:40,2:40 PM,250.18,250.16,250.17,200,50034.0,2,250.21,250.06,250.122,9485,2372404.0592,57,250.16,250.18,250.095,250.21,-0.007250086310551422,-0.006873056902240571,nvda,20200205
2020-02-05,14:41,2:41 PM,250.21,250.185,250.197,247,61798.695,6,250.23,250.15,250.192,6328,1583216.53,39,250.185,250.21,250.18,250.159,-0.007142942177883115,-0.0065951169928490086,nvda,20200205
2020-02-05,14:42,2:42 PM,250.215,250.16,250.214,102,25521.82,2,250.24,250.15,250.2,7439,1861240.9,39,250.215,250.16,250.17,250.24,-0.007075481057314236,-0.006563352431775758,nvda,20200205
2020-02-05,14:43,2:43 PM,250.24,250.19,250.215,200,50043.0,2,250.33,250.18,250.281,6609,1654105.89,35,250.19,250.24,250.26,250.23,-0.007071512756104281,-0.006241736250908279,nvda,20200205
2020-02-05,14:44,2:44 PM,,,,0,0.0,0,250.26,250.167,250.211,3671,918525.8324,24,,,250.19,250.254,,-0.006519676160299841,nvda,20200205
2020-02-05,14:45,2:45 PM,250.2,250.09,250.144,425,106311.25,4,250.25,250.03,250.1,6308,1577631.34,48,250.2,250.1,250.25,250.08,-0.007353262142009661,-0.006960409445192292,nvda,20200205
2020-02-05,14:46,2:46 PM,250.05,249.93,249.99,200,49998.0,3,250.08,249.88,249.99,6289,1572186.646,34,249.93,250.05,250.013,250.06,-0.007964380528339643,-0.007397172159950445,nvda,20200205
2020-02-05,14:47,2:47 PM,250.11,250.11,250.11,100,25011.0,1,250.2,250.073,250.132,3091,773158.1329,19,250.11,250.11,250.125,250.191,-0.00748818438314742,-0.006833351200898952,nvda,20200205
2020-02-05,14:48,2:48 PM,,,,0,0.0,0,250.3,250.18,250.245,1869,467707.2,15,,,250.18,250.3,,-0.006384676775738244,nvda,20200205
2020-02-05,14:49,2:49 PM,250.4,250.315,250.351,378,94632.7,4,250.49,250.3,250.414,9179,2298552.65,51,250.32,250.4,250.3,250.447,-0.006531823791553133,-0.0057136504230643325,nvda,20200205
2020-02-05,14:50,2:50 PM,250.555,250.555,250.555,100,25055.5,1,250.6,250.44,250.519,9750,2442562.076,65,250.555,250.555,250.465,250.57,-0.005722290344726355,-0.005296740558976876,nvda,20200205
2020-02-05,14:51,2:51 PM,250.65,250.53,250.544,113,28311.45,2,250.67,250.49,250.592,4714,1181289.53,30,250.53,250.65,250.57,250.647,-0.005765941658035623,-0.00500688893918276,nvda,20200205
2020-02-05,14:52,2:52 PM,250.71,250.71,250.71,100,25071.0,1,250.723,250.55,250.651,7138,1789145.5148,42,250.71,250.71,250.67,250.71,-0.005107203657186419,-0.004772625301267002,nvda,20200205
2020-02-05,14:53,2:53 PM,250.715,250.68,250.701,210,52647.3,3,250.73,250.635,250.686,4645,1164437.2612,30,250.69,250.68,250.7,250.676,-0.0051429183680758925,-0.00463365534657122,nvda,20200205
2020-02-05,14:54,2:54 PM,250.755,250.73,250.743,200,50148.5,2,250.81,250.68,250.756,5541,1389441.37,31,250.73,250.755,250.72,250.786,-0.004976249717258614,-0.0043557154371796575,nvda,20200205
2020-02-05,14:55,2:55 PM,250.825,250.71,250.756,700,175529.0,7,250.86,250.71,250.783,3473,870969.097,33,250.78,250.755,250.8,250.755,-0.004924661801529438,-0.00424851004355724,nvda,20200205
2020-02-05,14:56,2:56 PM,250.76,250.64,250.685,160,40109.6,2,250.795,250.53,250.625,19882,4982931.058,129,250.76,250.64,250.78,250.59,-0.005206411187434818,-0.004875860124755348,nvda,20200205
2020-02-05,14:57,2:57 PM,250.62,250.62,250.62,100,25062.0,1,250.63,250.553,250.584,3821,957481.33,24,250.62,250.62,250.57,250.63,-0.005464350766080586,-0.0050386535002561236,nvda,20200205
2020-02-05,14:58,2:58 PM,250.71,250.71,250.71,100,25071.0,1,250.71,250.615,250.644,5957,1493086.14,17,250.71,250.71,250.615,250.65,-0.005107203657186419,-0.0048004192922061805,nvda,20200205
2020-02-05,14:59,2:59 PM,,,,0,0.0,0,250.69,250.61,250.648,1560,391011.176,9,,,250.63,250.69,,-0.004784537011669555,nvda,20200205
2020-02-05,15:00,3 PM,250.74,250.63,250.685,200,50137.0,2,250.84,250.62,250.733,6636,1663861.773,43,250.74,250.63,250.74,250.84,-0.005206411187434818,-0.004447038550265451,nvda,20200205
2020-02-05,15:01,3:01 PM,251.045,250.99,251.025,900,225922.5,8,251.12,250.831,251.009,22997,5772451.8431,136,250.99,251.045,250.85,251.12,-0.003857188776056891,-0.003351161193235826,nvda,20200205
2020-02-05,15:02,3:02 PM,251.13,251.1,251.124,506,127068.78,12,251.23,251.05,251.152,6634,1666143.95,34,251.1,251.13,251.134,251.21,-0.0034643269562733637,-0.0027833696640501477,nvda,20200205
2020-02-05,15:03,3:03 PM,251.18,251.09,251.14,300,75342.0,3,251.2,251.05,251.122,6171,1549675.48,41,251.15,251.09,251.2,251.082,-0.0034008341369144383,-0.002902486768075006,nvda,20200205
2020-02-05,15:04,3:04 PM,251.13,251.07,251.103,300,75331.0,3,251.17,251.065,251.114,3525,885178.7925,33,251.07,251.11,251.07,251.11,-0.003547661281681946,-0.0029342513291483693,nvda,20200205
2020-02-05,15:05,3:05 PM,251.215,251.125,251.192,252,63300.5,5,251.32,251.12,251.207,5503,1382393.44,39,251.125,251.215,251.13,251.32,-0.003194482473997733,-0.0025649883066710144,nvda,20200205
2020-02-05,15:06,3:06 PM,251.41,251.37,251.395,275,69133.75,3,251.44,251.24,251.381,12426,3123658.7335,49,251.37,251.41,251.305,251.41,-0.002388917328380909,-0.00187410910332618,nvda,20200205
2020-02-05,15:07,3:07 PM,251.4,251.28,251.363,145,36447.6,2,251.41,251.23,251.296,7237,1818630.69,33,251.4,251.28,251.41,251.25,-0.0025159029670988723,-0.0022116075647302847,nvda,20200205
2020-02-05,15:08,3:08 PM,251.24,251.12,251.18,200,50236.0,2,251.27,251.105,251.165,10335,2595787.22,51,251.12,251.24,251.26,251.16,-0.0032421020885169557,-0.0027317522523059743,nvda,20200205
2020-02-05,15:09,3:09 PM,251.24,251.16,251.235,107,26882.12,2,251.25,251.145,251.198,8041,2019883.523,67,251.24,251.16,251.25,251.165,-0.0030238455219705014,-0.0026007234378784493,nvda,20200205
2020-02-05,15:10,3:10 PM,251.04,251.04,251.04,100,25104.0,1,251.2,251.04,251.136,5590,1403850.0334,40,251.04,251.04,251.12,251.18,-0.0037976642579079195,-0.0028468987861967614,nvda,20200205
2020-02-05,15:11,3:11 PM,251.17,251.17,251.17,100,25117.0,1,251.232,251.15,251.18,7684,1930069.88,35,251.17,251.17,251.17,251.17,-0.0032817851006163826,-0.0026721937002934324,nvda,20200205
2020-02-05,15:12,3:12 PM,251.12,251.05,251.093,317,79596.35,4,251.212,251.07,251.15,3448,865966.72,24,251.05,251.12,251.17,251.19,-0.0035873442937813735,-0.0027913108043184035,nvda,20200205
2020-02-05,15:13,3:13 PM,,,,0,0.0,0,251.18,251.11,251.141,1300,326483.0,11,,,251.18,251.13,,-0.0028270459355259517,nvda,20200205
2020-02-05,15:14,3:14 PM,251.04,251.01,251.029,438,109950.52,3,251.08,250.95,251.009,8170,2050746.93,53,251.04,251.02,251.08,251.02,-0.003841315571217188,-0.003351161193235826,nvda,20200205
2020-02-05,15:15,3:15 PM,251.22,251.22,251.22,10,2512.2,1,251.22,251.0,251.102,8816,2213713.14,50,251.22,251.22,251.05,251.145,-0.0030833700401195854,-0.002981898170758358,nvda,20200205
2020-02-05,15:16,3:16 PM,251.28,251.28,251.28,6,1507.68,1,251.32,251.145,251.245,9071,2279046.1943,45,251.28,251.28,251.145,251.24,-0.002845271967523474,-0.0024141066415726796,nvda,20200205
2020-02-05,15:17,3:17 PM,251.17,250.88,250.968,900,225871.0,8,251.248,250.82,251.006,22860,5737995.7065,169,251.17,250.88,251.247,251.105,-0.004083381945023253,-0.0033630729036382666,nvda,20200205
2020-02-05,15:18,3:18 PM,251.19,251.15,251.172,185,46466.75,3,251.21,251.03,251.105,5414,1359480.72,34,251.15,251.19,251.144,251.19,-0.0032738484981964747,-0.0029699864603559174,nvda,20200205
2020-02-05,15:19,3:19 PM,251.22,251.175,251.186,425,106754.0,5,251.225,251.11,251.171,4270,1072502.1435,27,251.22,251.175,251.21,251.11,-0.0032182922812573444,-0.00270792883150098,nvda,20200205
2020-02-05,15:20,3:20 PM,251.16,251.13,251.153,400,100461.38,5,251.2,251.11,251.151,2734,686648.02,23,251.13,251.155,251.13,251.2,-0.003349246221185262,-0.002787340234184219,nvda,20200205
2020-02-05,15:21,3:21 PM,251.2,251.08,251.113,172,43191.4,3,251.2,251.1,251.134,2365,593931.3,13,251.11,251.2,251.11,251.2,-0.003507978269582632,-0.0028548399264651304,nvda,20200205
2020-02-05,15:22,3:22 PM,251.35,251.35,251.35,200,50270.0,2,251.4,251.25,251.357,18617,4679517.825,64,251.35,251.35,251.25,251.38,-0.0025674908828280485,-0.001969402786546157,nvda,20200205
2020-02-05,15:23,3:23 PM,251.475,251.35,251.407,225,56566.5,4,251.49,251.35,251.442,4949,1244384.775,38,251.35,251.475,251.35,251.44,-0.0023412977138616863,-0.0016319043251420526,nvda,20200205
2020-02-05,15:24,3:24 PM,251.45,251.45,251.45,100,25145.0,2,251.51,251.32,251.443,11071,2783728.095,71,251.45,251.45,251.45,251.36,-0.0021706607618345673,-0.0016279337550078679,nvda,20200205
2020-02-05,15:25,3:25 PM,251.27,251.03,251.206,500,125603.0,5,251.32,250.97,251.135,6359,1596970.0,43,251.255,251.03,251.32,250.98,-0.0031389262570587157,-0.002850869356330946,nvda,20200205
2020-02-05,15:26,3:26 PM,251.06,251.02,251.055,114,28620.28,2,251.07,250.9,250.983,6557,1645698.885,53,251.02,251.06,250.98,251.07,-0.0037381397397588355,-0.0034543960167240594,nvda,20200205
2020-02-05,15:27,3:27 PM,251.055,251.025,251.035,300,75310.5,2,251.07,250.97,251.026,3444,864535.295,28,251.025,251.055,251.03,251.025,-0.0038175057639575766,-0.003283661500954915,nvda,20200205
2020-02-05,15:28,3:28 PM,250.925,250.925,250.925,10,2509.25,1,250.985,250.93,250.959,2784,698671.4384,24,250.925,250.925,250.98,250.93,-0.004254018897050372,-0.0035496896999440363,nvda,20200205
2020-02-05,15:29,3:29 PM,250.96,250.96,250.96,100,25096.0,1,251.0,250.798,250.919,4451,1116841.946,32,250.96,250.96,250.97,250.83,-0.00411512835470266,-0.0037085125053106273,nvda,20200205
2020-02-05,15:30,3:30 PM,250.86,250.67,250.76,400,100303.95,5,250.87,250.61,250.767,11071,2776238.23,82,250.86,250.68,250.86,250.66,-0.004908788596689735,-0.0043120391657038536,nvda,20200205
2020-02-05,15:31,3:31 PM,250.78,250.78,250.78,100,25078.0,1,250.84,250.64,250.721,7507,1882164.3215,42,250.78,250.78,250.66,250.71,-0.004829422572490994,-0.004494685391875439,nvda,20200205
2020-02-05,15:32,3:32 PM,,,,0,0.0,0,250.69,250.48,250.584,10982,2751919.543,73,,,250.677,250.69,,-0.0050386535002561236,nvda,20200205
2020-02-05,15:33,3:33 PM,250.64,250.48,250.536,215,53865.305,6,250.67,250.45,250.58,17991,4508180.35,118,250.64,250.48,250.66,250.45,-0.005797688067715142,-0.005054535780792749,nvda,20200205
2020-02-05,15:34,3:34 PM,250.415,250.385,250.396,255,63851.075,4,250.48,250.38,250.412,5978,1496966.2427,46,250.385,250.415,250.47,250.4,-0.006353250237106106,-0.005721591563332589,nvda,20200205
2020-02-05,15:35,3:35 PM,250.33,250.3,250.313,180,45056.4,2,250.5,250.28,250.395,8874,2222007.36,54,250.33,250.3,250.37,250.45,-0.006682619237530708,-0.005789091255613387,nvda,20200205
2020-02-05,15:36,3:36 PM,250.43,250.415,250.423,239,59851.075,3,250.58,250.392,250.468,6380,1597987.69,45,250.425,250.43,250.5,250.57,-0.0062461061044378,-0.005499239635819384,nvda,20200205
2020-02-05,15:37,3:37 PM,250.42,250.32,250.326,160,40052.2,3,250.539,250.25,250.383,11628,2911458.5564,72,250.42,250.32,250.539,250.27,-0.0066310313218015315,-0.005836738097223375,nvda,20200205
2020-02-05,15:38,3:38 PM,250.41,250.37,250.39,2,500.78,2,250.5,250.32,250.429,5763,1443224.8,42,250.37,250.41,250.33,250.4,-0.006377060044365717,-0.005654091871051791,nvda,20200205
2020-02-05,15:39,3:39 PM,250.57,250.42,250.436,1863,466561.62,8,250.585,250.368,250.473,8181,2049118.818,39,250.42,250.56,250.395,250.56,-0.006194518188708623,-0.005479386785148461,nvda,20200205
2020-02-05,15:40,3:40 PM,250.67,250.545,250.654,115,28825.175,2,250.67,250.49,250.59,7010,1756638.205,43,250.545,250.67,250.54,250.67,-0.005329428524942828,-0.005014830079451129,nvda,20200205
2020-02-05,15:41,3:41 PM,250.775,250.72,250.746,118,29588.005,7,250.78,250.66,250.715,9325,2337918.3128,57,250.72,250.72,250.7,250.72,-0.004964344813628752,-0.0045185088126804334,nvda,20200205
2020-02-05,15:42,3:42 PM,250.835,250.73,250.777,302,75734.615,5,250.83,250.69,250.778,8264,2072429.9905,54,250.73,250.835,250.69,250.78,-0.004841327476120856,-0.00426836289422805,nvda,20200205
2020-02-05,15:43,3:43 PM,,,,0,0.0,0,250.81,250.74,250.774,2119,531390.51,18,,,250.81,250.79,,-0.004284245174764675,nvda,20200205
2020-02-05,15:44,3:44 PM,250.795,250.775,250.795,102,25581.05,2,250.81,250.7,250.746,6607,1656678.585,50,250.795,250.775,250.77,250.81,-0.004769898054342022,-0.004395421138521278,nvda,20200205
2020-02-05,15:45,3:45 PM,250.62,250.44,250.502,399,99950.38,4,250.79,250.425,250.558,6843,1714570.81,52,250.62,250.48,250.79,250.55,-0.005932610308852901,-0.0051418883237444694,nvda,20200205
2020-02-05,15:46,3:46 PM,250.92,250.77,250.843,401,100587.85,5,250.963,250.55,250.806,12743,3196025.1,83,250.77,250.92,250.56,250.92,-0.004579419596265133,-0.004157186930471335,nvda,20200205
2020-02-05,15:47,3:47 PM,250.9,250.73,250.836,208,52173.84,3,250.92,250.73,250.814,7203,1806610.1379,60,250.9,250.73,250.92,250.73,-0.004607197704734585,-0.004125422369398084,nvda,20200205
2020-02-05,15:48,3:48 PM,250.695,250.545,250.604,578,144848.96,5,250.71,250.54,250.621,8204,2056094.59,67,250.695,250.57,250.7,250.59,-0.005527843585439511,-0.004891742405291973,nvda,20200205
2020-02-05,15:49,3:49 PM,250.705,250.54,250.614,311,77941.105,5,250.81,250.52,250.664,6771,1697247.1124,55,250.705,250.54,250.62,250.53,-0.005488160573340197,-0.004721007889522942,nvda,20200205
2020-02-05,15:50,3:50 PM,250.475,250.18,250.345,1201,300664.85,14,250.57,250.17,250.368,21104,5283775.0994,166,250.4,250.21,250.57,250.19,-0.006555633598812744,-0.005896296649235918,nvda,20200205
2020-02-05,15:51,3:51 PM,250.27,250.13,250.194,1600,400311.0,16,250.37,250.12,250.219,26192,6553726.8144,174,250.195,250.145,250.2,250.16,-0.007154847081512977,-0.00648791159922659,nvda,20200205
2020-02-05,15:52,3:52 PM,250.23,250.15,250.198,634,158625.44,7,250.3,250.08,250.184,13240,3312431.838,106,250.16,250.21,250.15,250.1,-0.007138973876673161,-0.006626881553922372,nvda,20200205
2020-02-05,15:53,3:53 PM,250.165,250.05,250.103,939,234846.655,13,250.23,250.05,250.122,24968,6245044.3992,201,250.15,250.165,250.1,250.12,-0.007515962491616985,-0.006873056902240571,nvda,20200205
2020-02-05,15:54,3:54 PM,250.46,250.015,250.271,708,177192.06,8,250.49,250.01,250.248,33232,8316244.4,242,250.015,250.44,250.17,250.46,-0.006849287888347986,-0.0063727650653358035,nvda,20200205
2020-02-05,15:55,3:55 PM,250.35,250.18,250.262,1440,360376.6,15,250.44,250.18,250.329,20689,5179067.918,165,250.31,250.35,250.44,250.4,-0.006885002599237347,-0.006051148884468324,nvda,20200205
2020-02-05,15:56,3:56 PM,250.55,250.37,250.461,2209,553267.7,25,250.59,250.36,250.466,20057,5023603.793,161,250.42,250.48,250.41,250.58,-0.006095310658460225,-0.00550718077608764,nvda,20200205
2020-02-05,15:57,3:57 PM,250.76,250.58,250.692,2612,654807.625,25,250.8,250.57,250.667,32082,8041903.592,232,250.58,250.61,250.59,250.63,-0.005178633078965253,-0.004709096179120388,nvda,20200205
2020-02-05,15:58,3:58 PM,250.63,250.52,250.595,1600,400952.5,16,250.66,250.52,250.603,25517,6394649.6986,187,250.59,250.6,250.62,250.66,-0.0055635582963289845,-0.0049632126677069555,nvda,20200205
2020-02-05,15:59,3:59 PM,250.78,250.62,250.681,1920,481308.07,26,250.85,250.59,250.687,53471,13404494.2452,357,250.63,250.75,250.689,250.797,-0.005222284392274521,-0.0046296847764370356,nvda,20200205
