date,minute,label,high,low,average,volume,notional,numberOfTrades,marketHigh,marketLow,marketAverage,marketVolume,marketNotional,marketNumberOfTrades,open,close,marketOpen,marketClose,changeOverTime,marketChangeOverTime,tickerName,tickerDate
2019-12-05,09:30,09:30 AM,136.285,136.285,136.285,100,13628.5,1,136.51,136.1,136.2,51109,6961050.9555,36,136.285,136.285,136.19,136.285,0.0,0.0,pep,20191205
2019-12-05,09:31,09:31 AM,136.53,136.42,136.508,500,68254.0,5,136.53,136.197,136.438,8763,1195607.1399,51,136.42,136.53,136.28,136.476,0.0016362769196904515,0.0017474302496328896,pep,20191205
2019-12-05,09:32,09:32 AM,136.42,136.41,136.411,100,13641.1,2,136.53,136.28,136.423,7461,1017850.62,57,136.42,136.41,136.53,136.28,0.000924533147448397,0.0016372980910426813,pep,20191205
2019-12-05,09:33,09:33 AM,136.46,136.34,136.412,427,58248.18,4,136.46,136.286,136.345,4697,640413.78,32,136.42,136.34,136.34,136.37,0.0009318707121107206,0.001064610866373056,pep,20191205
2019-12-05,09:34,09:34 AM,136.46,136.37,136.43,300,40929.0,3,136.46,136.335,136.384,14415,1965969.99,54,136.37,136.46,136.335,136.4,0.00106394687603192,0.0013509544787077643,pep,20191205
2019-12-05,09:35,09:35 AM,136.51,136.44,136.486,1107,151089.65,10,136.54,136.385,136.481,9354,1276642.478,82,136.45,136.45,136.385,136.423,0.0014748504971199576,0.0020631424375918204,pep,20191205
2019-12-05,09:36,09:36 AM,136.36,136.34,136.341,213,29040.64,6,136.38,136.34,136.369,800,109095.0,7,136.34,136.34,136.38,136.34,0.00041090362108824594,0.0012408223201175563,pep,20191205
2019-12-05,09:37,09:37 AM,136.415,136.415,136.415,100,13641.5,1,136.46,136.34,136.399,4324,589790.9325,39,136.415,136.415,136.4,136.405,0.0009538834060974829,0.0014610866372981814,pep,20191205
2019-12-05,09:38,09:38 AM,136.43,136.39,136.427,107,14597.73,2,136.43,136.37,136.401,5062,690461.18,39,136.43,136.39,136.38,136.39,0.0010419341820449492,0.0014757709251102926,pep,20191205
2019-12-05,09:39,09:39 AM,136.43,136.365,136.398,400,54559.0,4,136.45,136.34,136.384,5450,743290.935,30,136.365,136.43,136.365,136.42,0.000829144806838607,0.0013509544787077643,pep,20191205
2019-12-05,09:40,09:40 AM,136.37,136.33,136.35,801,109216.36,9,136.4,136.3,136.348,8727,1189912.125,52,136.36,136.37,136.38,136.31,0.00047694170304874144,0.001086637298091223,pep,20191205
2019-12-05,09:41,09:41 AM,136.38,136.245,136.327,1401,190993.875,10,136.38,136.21,136.309,19634,2676295.2462,82,136.29,136.245,136.26,136.26,0.0003081777158161323,0.000800293685756306,pep,20191205
2019-12-05,09:42,09:42 AM,136.22,136.21,136.22,104,14166.84,3,136.27,136.2,136.229,3049,415361.78,29,136.21,136.22,136.24,136.21,-0.00047694170304874144,0.00021292217327477817,pep,20191205
2019-12-05,09:43,09:43 AM,136.29,136.29,136.29,100,13629.0,1,136.35,136.25,136.296,7998,1090095.5128,58,136.29,136.29,136.25,136.3,3.668782331140956e-05,0.0007048458149780003,pep,20191205
2019-12-05,09:44,09:44 AM,136.33,136.33,136.33,300,40899.0,3,136.37,136.3,136.337,8884,1211222.16,72,136.33,136.33,136.33,136.33,0.0003301904098031032,0.0010058737151248198,pep,20191205
2019-12-05,09:45,09:45 AM,136.33,136.3,136.315,200,27263.0,3,136.34,136.21,136.286,4200,572401.0,41,136.33,136.3,136.33,136.21,0.00022012693986866595,0.0006314243759178615,pep,20191205
2019-12-05,09:46,09:46 AM,136.09,136.09,136.09,100,13609.0,1,136.215,136.05,136.103,4811,654794.0754,24,136.09,136.09,136.2,136.05,-0.0014308251091462243,-0.0007121879588838473,pep,20191205
2019-12-05,09:47,09:47 AM,136.07,136.07,136.07,100,13607.0,1,136.09,136.03,136.06,1800,244907.73,16,136.07,136.07,136.03,136.04,-0.001577576402392071,-0.001027900146842778,pep,20191205
2019-12-05,09:48,09:48 AM,,,,0,0.0,0,136.07,136.01,136.039,2712,368937.11,24,,,136.03,136.05,,-0.00118208516886932,pep,20191205
2019-12-05,09:49,09:49 AM,136.01,136.01,136.01,1,136.01,1,136.05,136.0,136.019,4700,639291.54,35,136.01,136.01,136.04,136.0,-0.002017830282129403,-0.0013289280469895976,pep,20191205
2019-12-05,09:50,09:50 AM,136.025,136.025,136.025,100,13602.5,1,136.21,136.0,136.122,6163,838919.46,54,136.025,136.025,136.0,136.21,-0.0019077668121949658,-0.0005726872246694166,pep,20191205
2019-12-05,09:51,09:51 AM,136.24,136.19,136.222,500,68111.0,5,136.25,136.19,136.219,6636,903950.57,52,136.19,136.23,136.2,136.19,-0.0004622665737240942,0.00013950073421443068,pep,20191205
2019-12-05,09:52,09:52 AM,136.24,136.24,136.24,125,17030.0,2,136.29,136.22,136.239,10346,1409524.86,72,136.24,136.24,136.22,136.275,-0.00033019040980289464,0.000286343612334917,pep,20191205
2019-12-05,09:53,09:53 AM,,,,0,0.0,0,136.29,136.24,136.258,3048,415314.5535,25,,,136.266,136.27,,0.00042584434654934763,pep,20191205
2019-12-05,09:54,09:54 AM,,,,0,0.0,0,136.285,136.18,136.218,2244,305672.305,20,,,136.285,136.2,,0.00013215859030837508,pep,20191205
2019-12-05,09:55,09:55 AM,136.2,136.2,136.2,9,1225.8,1,136.25,136.18,136.224,3255,443408.14,26,136.2,136.2,136.18,136.235,-0.0006236929962945883,0.00017621145374450007,pep,20191205
2019-12-05,09:56,09:56 AM,136.24,136.2,136.212,302,41135.98,3,136.25,136.19,136.214,3986,542950.4032,31,136.235,136.2,136.23,136.19,-0.0005356422203471219,0.00010279001468436128,pep,20191205
2019-12-05,09:57,09:57 AM,136.17,136.13,136.147,423,57589.99,5,136.19,136.12,136.155,4993,679824.595,37,136.17,136.13,136.185,136.12,-0.0010125839233958633,-0.0003303964757708333,pep,20191205
2019-12-05,09:58,09:58 AM,136.08,136.08,136.08,28,3810.24,1,136.13,136.02,136.082,4629,629925.495,38,136.08,136.08,136.1,136.02,-0.0015042007557690435,-0.0008663729809103892,pep,20191205
2019-12-05,09:59,09:59 AM,136.12,136.12,136.12,5,680.6,1,136.145,136.01,136.074,4286,583214.545,30,136.12,136.12,136.01,136.09,-0.0012106981692775584,-0.0009251101321584167,pep,20191205
2019-12-05,10:00,10 AM,136.03,136.01,136.013,123,16729.61,2,136.08,135.99,136.036,4476,608895.1272,34,136.01,136.03,136.03,136.08,-0.0019958175881424323,-0.0012041116005872782,pep,20191205
2019-12-05,10:01,10:01 AM,136.11,136.105,136.107,150,20416.0,2,136.16,136.08,136.126,4014,546409.6,34,136.105,136.11,136.08,136.11,-0.0013060865098873484,-0.0005433186490454028,pep,20191205
2019-12-05,10:02,10:02 AM,,,,0,0.0,0,136.12,136.06,136.093,3490,474963.7339,27,,,136.087,136.101,,-0.0007856093979441948,pep,20191205
2019-12-05,10:03,10:03 AM,136.07,136.06,136.064,267,36329.02,3,136.13,136.035,136.072,4241,577082.655,32,136.07,136.06,136.1,136.05,-0.0016216017903658043,-0.000939794419970528,pep,20191205
2019-12-05,10:04,10:04 AM,136.03,136.03,136.03,100,13603.0,1,136.07,136.01,136.037,2002,272346.1376,16,136.03,136.03,136.07,136.03,-0.0018710789888835562,-0.0011967694566812224,pep,20191205
2019-12-05,10:05,10:05 AM,136.02,135.97,135.986,1329,180724.995,20,136.04,135.95,135.999,6523,887123.4449,52,136.02,136.01,136.0,135.99,-0.002193931834024336,-0.001475770925110084,pep,20191205
2019-12-05,10:06,10:06 AM,136.05,136.05,136.05,224,30475.2,2,136.05,135.94,136.0,3370,458320.55,28,136.05,136.05,135.99,135.96,-0.0017243276956377094,-0.0014684287812040283,pep,20191205
2019-12-05,10:07,10:07 AM,136.05,136.04,136.048,176,23944.55,3,136.06,135.99,136.028,3976,540847.756,15,136.05,136.04,135.99,136.06,-0.0017390028249623566,-0.0012628487518355144,pep,20191205
2019-12-05,10:08,10:08 AM,136.03,136.03,136.03,100,13603.0,1,136.05,135.98,136.022,3520,478796.535,28,136.03,136.03,136.05,135.98,-0.0018710789888835562,-0.0013069016152716395,pep,20191205
2019-12-05,10:09,10:09 AM,135.95,135.95,135.95,32,4350.4,1,135.985,135.87,135.919,3019,410340.7718,28,135.95,135.95,135.98,135.91,-0.002458084161866735,-0.002063142437591612,pep,20191205
2019-12-05,10:10,10:10 AM,,,,0,0.0,0,135.936,135.89,135.905,1504,204400.54,13,,,135.936,135.89,,-0.002165932452275973,pep,20191205
2019-12-05,10:11,10:11 AM,135.885,135.88,135.882,207,28127.66,3,135.885,135.83,135.868,2450,332876.826,24,135.88,135.88,135.88,135.83,-0.0029570385589022387,-0.0024375917767987787,pep,20191205
2019-12-05,10:12,10:12 AM,135.865,135.85,135.858,356,48365.6,4,135.87,135.85,135.856,3322,451314.716,22,135.86,135.865,135.85,135.853,-0.0031331401107971713,-0.002525697503671029,pep,20191205
2019-12-05,10:13,10:13 AM,135.82,135.76,135.8,300,40740.0,3,135.847,135.74,135.791,3867,525104.6022,32,135.82,135.76,135.843,135.769,-0.0035587188612098562,-0.0030029368575623483,pep,20191205
2019-12-05,10:14,10:14 AM,,,,0,0.0,0,135.795,135.76,135.786,1576,213998.04,8,,,135.79,135.79,,-0.0030396475770924176,pep,20191205
2019-12-05,10:15,10:15 AM,135.76,135.74,135.747,300,40724.0,3,135.78,135.68,135.734,3791,514566.98,33,135.74,135.76,135.76,135.78,-0.003947609788311131,-0.003421439060205432,pep,20191205
2019-12-05,10:16,10:16 AM,135.79,135.75,135.77,200,27154.0,2,135.8,135.75,135.773,2173,295034.1756,19,135.79,135.75,135.8,135.785,-0.003778845801078522,-0.0031350954478707236,pep,20191205
2019-12-05,10:17,10:17 AM,135.77,135.77,135.77,100,13577.0,1,135.847,135.75,135.777,2995,406651.7628,25,135.77,135.77,135.77,135.847,-0.003778845801078522,-0.00310572687224671,pep,20191205
2019-12-05,10:18,10:18 AM,135.76,135.76,135.76,200,27152.0,4,135.84,135.76,135.788,2303,312719.28,19,135.76,135.76,135.82,135.79,-0.0038522214477015497,-0.0030249632892803066,pep,20191205
2019-12-05,10:19,10:19 AM,135.81,135.81,135.81,100,13581.0,1,135.83,135.78,135.803,3011,408904.256,25,135.81,135.81,135.78,135.78,-0.003485343214587037,-0.002914831130690098,pep,20191205
2019-12-05,10:20,10:20 AM,135.795,135.795,135.795,100,13579.5,1,135.795,135.755,135.771,2420,328566.7,18,135.795,135.795,135.77,135.79,-0.003595406684521474,-0.0031497797356828347,pep,20191205
2019-12-05,10:21,10:21 AM,135.82,135.78,135.797,300,40739.0,3,135.824,135.75,135.801,7280,988629.075,23,135.82,135.78,135.78,135.75,-0.003580731555196827,-0.0029295154185022096,pep,20191205
2019-12-05,10:22,10:22 AM,135.72,135.72,135.72,100,13572.0,1,135.75,135.68,135.708,3583,486243.896,30,135.72,135.72,135.75,135.702,-0.004145724034193035,-0.003612334801762043,pep,20191205
2019-12-05,10:23,10:23 AM,135.69,135.67,135.688,114,15468.38,3,135.69,135.63,135.658,5400,732554.5,27,135.69,135.67,135.69,135.63,-0.004380526103386348,-0.0039794419970631545,pep,20191205
2019-12-05,10:24,10:24 AM,135.6,135.595,135.599,200,27119.845,4,135.62,135.55,135.588,9296,1260423.41,47,135.6,135.595,135.62,135.59,-0.005033569358330022,-0.004493392070484543,pep,20191205
2019-12-05,10:25,10:25 AM,,,,0,0.0,0,135.565,135.54,135.548,1924,260795.3,15,,,135.565,135.54,,-0.004787077826725307,pep,20191205
2019-12-05,10:26,10:26 AM,135.57,135.51,135.543,423,57334.85,7,135.6,135.5,135.548,5002,678009.12,25,135.525,135.57,135.54,135.57,-0.005444472979418059,-0.004787077826725307,pep,20191205
2019-12-05,10:27,10:27 AM,135.61,135.6,135.603,418,56682.3,7,135.62,135.6,135.602,7329,993828.2385,47,135.6,135.61,135.6,135.617,-0.005004219099680728,-0.004390602055800183,pep,20191205
2019-12-05,10:28,10:28 AM,135.67,135.63,135.65,200,27130.0,2,135.74,135.61,135.676,3438,466454.22,23,135.63,135.67,135.61,135.73,-0.004659353560553186,-0.0038472834067547796,pep,20191205
2019-12-05,10:29,10:29 AM,,,,0,0.0,0,135.745,135.725,135.738,730,99088.487,6,,,135.737,135.74,,-0.003392070484581418,pep,20191205
2019-12-05,10:30,10:30 AM,135.78,135.76,135.77,200,27154.0,2,135.78,135.73,135.741,8712,1182576.36,22,135.76,135.78,135.75,135.78,-0.003778845801078522,-0.003370044052863251,pep,20191205
2019-12-05,10:31,10:31 AM,135.825,135.77,135.771,305,41410.125,3,135.83,135.77,135.803,2800,380249.2,24,135.77,135.825,135.77,135.83,-0.003771508236416407,-0.002914831130690098,pep,20191205
2019-12-05,10:32,10:32 AM,135.81,135.81,135.81,100,13581.0,1,135.862,135.81,135.837,3988,541718.13,33,135.81,135.81,135.84,135.83,-0.003485343214587037,-0.0026651982378854593,pep,20191205
2019-12-05,10:33,10:33 AM,135.83,135.81,135.811,29,3938.51,2,135.83,135.8,135.821,1500,203731.1,14,135.81,135.83,135.821,135.82,-0.003478005649924713,-0.0027826725403817232,pep,20191205
2019-12-05,10:34,10:34 AM,135.835,135.78,135.817,600,81490.5,6,135.835,135.77,135.802,3902,529901.192,32,135.8,135.835,135.81,135.815,-0.00343398026195098,-0.002922173274596154,pep,20191205
2019-12-05,10:35,10:35 AM,135.83,135.83,135.83,29,3939.07,1,135.85,135.77,135.81,4039,548538.8,24,135.83,135.83,135.79,135.81,-0.00333859192134119,-0.002863436123347918,pep,20191205
2019-12-05,10:36,10:36 AM,,,,0,0.0,0,135.835,135.79,135.817,2100,285215.91,19,,,135.81,135.82,,-0.002812041116005737,pep,20191205
2019-12-05,10:37,10:37 AM,135.83,135.82,135.827,288,39118.16,4,135.855,135.82,135.837,3492,474342.2868,20,135.83,135.82,135.82,135.854,-0.003360604615328161,-0.0026651982378854593,pep,20191205
2019-12-05,10:38,10:38 AM,135.815,135.79,135.799,456,61924.42,11,135.85,135.76,135.808,16292,2212577.66,47,135.815,135.8,135.85,135.79,-0.0035660564258721797,-0.002878120411160029,pep,20191205
2019-12-05,10:39,10:39 AM,,,,0,0.0,0,135.81,135.69,135.735,4081,553935.05,35,,,135.79,135.69,,-0.003414096916299376,pep,20191205
2019-12-05,10:40,10:40 AM,,,,0,0.0,0,135.8,135.7,135.731,1970,267390.09,17,,,135.7,135.8,,-0.003443465491923599,pep,20191205
2019-12-05,10:41,10:41 AM,135.82,135.82,135.82,2,271.64,1,135.87,135.76,135.821,2710,368074.0,21,135.82,135.82,135.84,135.76,-0.003411967567964218,-0.0027826725403817232,pep,20191205
2019-12-05,10:42,10:42 AM,135.8,135.78,135.792,400,54317.0,4,135.81,135.722,135.776,16787,2279277.9307,80,135.78,135.79,135.76,135.76,-0.0036174193785082367,-0.0031130690161525567,pep,20191205
2019-12-05,10:43,10:43 AM,135.81,135.78,135.781,103,13985.43,2,135.79,135.755,135.773,2500,339431.5,20,135.78,135.81,135.78,135.79,-0.0036981325897933793,-0.0031350954478707236,pep,20191205
2019-12-05,10:44,10:44 AM,135.84,135.81,135.827,300,40748.0,3,135.94,135.79,135.859,4854,659460.6382,37,135.81,135.84,135.81,135.919,-0.003360604615328161,-0.002503671071952862,pep,20191205
2019-12-05,10:45,10:45 AM,,,,0,0.0,0,135.98,135.92,135.95,4142,563104.83,34,,,135.92,135.955,,-0.0018355359765051397,pep,20191205
2019-12-05,10:46,10:46 AM,,,,0,0.0,0,135.97,135.91,135.935,3871,526203.9996,36,,,135.97,135.91,,-0.001945668135095348,pep,20191205
2019-12-05,10:47,10:47 AM,135.94,135.93,135.935,200,27187.0,2,136.02,135.93,135.959,2232,303460.8,19,135.93,135.94,135.93,136.02,-0.0025681476318009638,-0.0017694566813508477,pep,20191205
2019-12-05,10:48,10:48 AM,136.02,136.02,136.02,200,27204.0,2,136.03,136.0,136.019,1173,159549.96,11,136.02,136.02,136.02,136.02,-0.0019444546355063754,-0.0013289280469895976,pep,20191205
2019-12-05,10:49,10:49 AM,,,,0,0.0,0,136.03,135.99,136.011,3337,453867.07,28,,,136.03,136.03,,-0.0013876651982378339,pep,20191205
2019-12-05,10:50,10:50 AM,136.04,136.04,136.04,139,18909.56,2,136.04,136.0,136.027,1411,191934.5767,11,136.04,136.04,136.04,136.04,-0.001797703342260737,-0.00127019089574157,pep,20191205
2019-12-05,10:51,10:51 AM,136.0,136.0,136.0,22,2992.0,1,136.03,135.99,136.005,3332,453168.0,28,136.0,136.0,136.03,136.0,-0.0020912059287522223,-0.001431718061673959,pep,20191205
2019-12-05,10:52,10:52 AM,,,,0,0.0,0,136.01,135.98,136.0,2164,294305.14,18,,,135.99,135.99,,-0.0014684287812040283,pep,20191205
2019-12-05,10:53,10:53 AM,136.0,135.99,135.999,117,15911.83,4,136.03,135.99,136.001,3356,456419.3025,28,135.99,136.0,136.01,136.01,-0.002098543493414546,-0.0014610866372979725,pep,20191205
2019-12-05,10:54,10:54 AM,135.99,135.99,135.99,100,13599.0,1,136.01,135.99,135.998,2610,354954.085,17,135.99,135.99,135.995,136.0,-0.002164581575375041,-0.0014831130690161395,pep,20191205
2019-12-05,10:55,10:55 AM,135.995,135.95,135.967,300,40790.0,3,136.0,135.87,135.918,6200,842691.5,60,135.995,135.95,135.99,135.87,-0.0023333455626076503,-0.0020704845814976673,pep,20191205
2019-12-05,10:56,10:56 AM,135.88,135.88,135.88,31,4212.28,1,135.88,135.85,135.86,1678,227972.684,11,135.88,135.88,135.859,135.88,-0.002971713688226886,-0.0024963289280468064,pep,20191205
2019-12-05,10:57,10:57 AM,135.87,135.84,135.861,276,37497.53,5,135.89,135.835,135.856,2688,365182.12,22,135.87,135.86,135.87,135.85,-0.003111127416810409,-0.002525697503671029,pep,20191205
2019-12-05,10:58,10:58 AM,135.84,135.84,135.84,100,13584.0,1,135.86,135.8,135.831,1200,162997.4,11,135.84,135.84,135.86,135.8,-0.003265216274718371,-0.0027092511013215846,pep,20191205
2019-12-05,10:59,10:59 AM,135.85,135.79,135.812,680,92352.38,11,135.85,135.76,135.807,3428,465547.4,30,135.79,135.83,135.79,135.76,-0.0034706680852623897,-0.0028854625550660843,pep,20191205
2019-12-05,11:00,11 AM,135.755,135.75,135.752,304,41268.5,4,135.77,135.73,135.748,2337,317242.88,17,135.755,135.75,135.76,135.76,-0.003910921964999722,-0.003318649045521279,pep,20191205
2019-12-05,11:01,11:01 AM,135.78,135.76,135.769,660,89607.695,9,135.78,135.75,135.762,3300,448013.5,30,135.76,135.78,135.765,135.78,-0.0037861833657408454,-0.003215859030836918,pep,20191205
2019-12-05,11:02,11:02 AM,135.78,135.66,135.725,400,54290.0,4,135.78,135.64,135.693,4041,548335.0546,34,135.78,135.66,135.78,135.64,-0.0041090362108816255,-0.003722466960352251,pep,20191205
2019-12-05,11:03,11:03 AM,135.66,135.63,135.645,200,27129.0,2,135.66,135.6,135.624,3820,518082.257,35,135.63,135.66,135.63,135.6,-0.004696041383864595,-0.004229074889867793,pep,20191205
2019-12-05,11:04,11:04 AM,135.61,135.59,135.6,300,40680.0,3,135.61,135.56,135.594,2809,380884.93,23,135.6,135.61,135.6,135.61,-0.005026231793667698,-0.004449339207048418,pep,20191205
2019-12-05,11:05,11:05 AM,135.64,135.62,135.632,226,30652.87,4,135.66,135.58,135.634,3557,482449.77,30,135.64,135.62,135.64,135.58,-0.004791429724474386,-0.004155653450807655,pep,20191205
2019-12-05,11:06,11:06 AM,135.59,135.57,135.577,303,41079.74,4,135.595,135.54,135.562,3854,522454.42,34,135.57,135.59,135.595,135.56,-0.005194995780900308,-0.004684287812040946,pep,20191205
2019-12-05,11:07,11:07 AM,135.63,135.62,135.625,200,27125.0,2,135.66,135.57,135.61,2456,333058.96,21,135.62,135.63,135.57,135.64,-0.004842792677110442,-0.004331864904551946,pep,20191205
2019-12-05,11:08,11:08 AM,135.715,135.64,135.688,300,40706.5,3,135.715,135.64,135.677,2075,281530.5,19,135.64,135.715,135.65,135.68,-0.004380526103386348,-0.0038399412628487236,pep,20191205
2019-12-05,11:09,11:09 AM,135.76,135.76,135.76,100,13576.0,1,135.78,135.67,135.737,8426,1143715.9392,47,135.76,135.76,135.68,135.78,-0.0038522214477015497,-0.0033994126284874735,pep,20191205
2019-12-05,11:10,11:10 AM,135.77,135.7,135.74,300,40722.0,4,135.78,135.69,135.738,2400,325772.0,24,135.77,135.7,135.775,135.7,-0.003998972740947188,-0.003392070484581418,pep,20191205
2019-12-05,11:11,11:11 AM,135.7,135.68,135.694,320,43422.0,4,135.701,135.68,135.689,2026,274906.7345,15,135.68,135.7,135.69,135.681,-0.004336500715412615,-0.003751835535976474,pep,20191205
2019-12-05,11:12,11:12 AM,135.67,135.59,135.602,208,28205.18,3,135.68,135.54,135.596,4154,563265.57,36,135.67,135.59,135.68,135.595,-0.005011556664343051,-0.004434654919236307,pep,20191205
2019-12-05,11:13,11:13 AM,135.575,135.56,135.566,500,67783.0,5,135.6,135.55,135.569,5399,731939.175,41,135.57,135.56,135.57,135.6,-0.005275708992185451,-0.0046328928046989746,pep,20191205
2019-12-05,11:14,11:14 AM,135.61,135.61,135.61,9,1220.49,1,135.61,135.59,135.594,1960,265764.7,19,135.61,135.61,135.61,135.59,-0.004952856147044671,-0.004449339207048418,pep,20191205
2019-12-05,11:15,11:15 AM,,,,0,0.0,0,135.616,135.59,135.601,853,115667.715,8,,,135.59,135.6,,-0.004397944199706238,pep,20191205
2019-12-05,11:16,11:16 AM,,,,0,0.0,0,135.69,135.61,135.651,3672,498112.46,34,,,135.61,135.68,,-0.004030837004405126,pep,20191205
2019-12-05,11:17,11:17 AM,,,,0,0.0,0,135.68,135.6,135.636,5000,678180.5,43,,,135.68,135.62,,-0.004140969162995544,pep,20191205
2019-12-05,11:18,11:18 AM,135.625,135.595,135.609,428,58040.73,7,135.63,135.58,135.6,3667,497246.05,29,135.61,135.625,135.61,135.62,-0.0049601937117069944,-0.004405286343612294,pep,20191205
2019-12-05,11:19,11:19 AM,,,,0,0.0,0,135.645,135.63,135.635,1790,242786.6199,17,,,135.63,135.64,,-0.004148311306901599,pep,20191205
2019-12-05,11:20,11:20 AM,135.63,135.61,135.612,9,1220.51,2,135.67,135.62,135.637,2113,286601.8335,19,135.61,135.63,135.625,135.65,-0.004938181017720232,-0.004133627019089488,pep,20191205
2019-12-05,11:21,11:21 AM,135.65,135.64,135.646,509,69043.85,8,135.675,135.63,135.651,2090,283510.55,18,135.65,135.64,135.65,135.64,-0.00468870381920248,-0.004030837004405126,pep,20191205
2019-12-05,11:22,11:22 AM,135.635,135.635,135.635,100,13563.5,1,135.65,135.63,135.643,1056,143238.9,9,135.635,135.635,135.635,135.64,-0.004769417030487623,-0.004089574155653363,pep,20191205
2019-12-05,11:23,11:23 AM,135.64,135.63,135.635,211,28619.04,2,135.648,135.62,135.632,1976,268008.4727,17,135.64,135.63,135.648,135.63,-0.004769417030487623,-0.004170337738619557,pep,20191205
2019-12-05,11:24,11:24 AM,135.655,135.62,135.636,406,55068.31,4,135.655,135.62,135.629,2846,386000.6672,21,135.655,135.635,135.63,135.624,-0.004762079465825299,-0.004192364170337724,pep,20191205
2019-12-05,11:25,11:25 AM,135.61,135.6,135.6,104,14102.44,2,135.625,135.58,135.597,6472,877587.02,48,135.6,135.61,135.62,135.61,-0.005026231793667698,-0.0044273127753302515,pep,20191205
2019-12-05,11:26,11:26 AM,,,,0,0.0,0,135.613,135.59,135.601,3946,535080.456,28,,,135.6,135.613,,-0.004397944199706238,pep,20191205
2019-12-05,11:27,11:27 AM,135.62,135.61,135.613,300,40684.0,4,135.625,135.6,135.612,2250,305126.445,19,135.62,135.61,135.62,135.6,-0.004930843453057909,-0.004317180616740043,pep,20191205
2019-12-05,11:28,11:28 AM,135.63,135.61,135.612,223,30241.49,5,135.66,135.59,135.631,13391,1816241.53,104,135.61,135.63,135.59,135.61,-0.004938181017720232,-0.004177679882525613,pep,20191205
2019-12-05,11:29,11:29 AM,135.66,135.66,135.66,104,14108.64,2,135.67,135.62,135.652,3704,502455.61,32,135.66,135.66,135.63,135.67,-0.004585977913930367,-0.004023494860499279,pep,20191205
2019-12-05,11:30,11:30 AM,135.67,135.64,135.656,500,67828.0,8,135.685,135.58,135.637,2834,384394.83,27,135.67,135.64,135.685,135.58,-0.004615328172579453,-0.004133627019089488,pep,20191205
2019-12-05,11:31,11:31 AM,135.62,135.605,135.619,116,15731.8,4,135.63,135.59,135.611,1103,149579.36,10,135.62,135.605,135.59,135.62,-0.004886818065084175,-0.004324522760646099,pep,20191205
2019-12-05,11:32,11:32 AM,135.57,135.57,135.57,100,13557.0,2,135.61,135.56,135.594,2200,298306.5,20,135.57,135.57,135.59,135.56,-0.005246358733536364,-0.004449339207048418,pep,20191205
2019-12-05,11:33,11:33 AM,135.55,135.55,135.55,100,13555.0,3,135.57,135.55,135.562,3427,464570.2,28,135.55,135.55,135.57,135.55,-0.005393110026782002,-0.004684287812040946,pep,20191205
2019-12-05,11:34,11:34 AM,135.54,135.54,135.54,4,542.16,1,135.57,135.5,135.543,3804,515607.74,34,135.54,135.54,135.54,135.5,-0.005466485673405031,-0.004823788546255377,pep,20191205
2019-12-05,11:35,11:35 AM,135.53,135.53,135.53,6,813.18,1,135.53,135.48,135.5,5105,691726.015,44,135.53,135.53,135.49,135.51,-0.00553986132002785,-0.005139500734214307,pep,20191205
2019-12-05,11:36,11:36 AM,,,,0,0.0,0,135.53,135.44,135.471,3800,514790.8,18,,,135.53,135.45,,-0.005352422907488877,pep,20191205
2019-12-05,11:37,11:37 AM,135.48,135.43,135.46,312,42263.64,4,135.49,135.41,135.455,3431,464744.915,27,135.47,135.43,135.45,135.41,-0.006053490846388,-0.005469897209985141,pep,20191205
2019-12-05,11:38,11:38 AM,,,,0,0.0,0,135.415,135.4,135.405,2378,321992.36,15,,,135.41,135.405,,-0.005837004405286252,pep,20191205
2019-12-05,11:39,11:39 AM,135.44,135.42,135.423,600,81254.0,4,135.44,135.4,135.409,3730,505077.2459,17,135.42,135.44,135.4,135.42,-0.006324980738892723,-0.0058076358296622384,pep,20191205
2019-12-05,11:40,11:40 AM,,,,0,0.0,0,135.43,135.41,135.418,3381,457848.562,31,,,135.42,135.42,,-0.005741556534507947,pep,20191205
2019-12-05,11:41,11:41 AM,135.415,135.41,135.414,500,67707.0,3,135.415,135.375,135.4,2986,404305.69,26,135.415,135.41,135.415,135.375,-0.006391018820853427,-0.005873715124816322,pep,20191205
2019-12-05,11:42,11:42 AM,135.39,135.39,135.39,2,270.78,1,135.44,135.37,135.392,13150,1780398.7679,87,135.39,135.39,135.38,135.395,-0.00656712037274836,-0.005932452276064558,pep,20191205
2019-12-05,11:43,11:43 AM,135.39,135.39,135.39,100,13539.0,1,135.395,135.34,135.376,2800,379052.5,27,135.39,135.39,135.395,135.34,-0.00656712037274836,-0.006049926578560821,pep,20191205
2019-12-05,11:44,11:44 AM,135.37,135.37,135.37,2,270.74,1,135.381,135.341,135.362,3519,476339.5166,26,135.37,135.37,135.341,135.365,-0.006713871665993998,-0.006152716593245183,pep,20191205
2019-12-05,11:45,11:45 AM,135.42,135.42,135.42,5,677.1,1,135.424,135.39,135.407,2452,332017.678,21,135.42,135.42,135.39,135.405,-0.006346993432879694,-0.005822320117474141,pep,20191205
2019-12-05,11:46,11:46 AM,135.4,135.33,135.353,300,40606.0,3,135.4,135.31,135.356,3777,511238.918,31,135.4,135.33,135.4,135.31,-0.0068386102652528745,-0.006196769456681308,pep,20191205
2019-12-05,11:47,11:47 AM,135.31,135.31,135.31,100,13531.0,1,135.35,135.3,135.321,1700,230046.0,16,135.31,135.31,135.31,135.3,-0.00715412554573133,-0.006453744493392003,pep,20191205
2019-12-05,11:48,11:48 AM,135.295,135.295,135.295,100,13529.5,1,135.31,135.28,135.293,3505,474202.29,30,135.295,135.295,135.303,135.28,-0.007264189015665767,-0.006659324522760517,pep,20191205
2019-12-05,11:49,11:49 AM,135.34,135.34,135.34,6,812.04,1,135.35,135.27,135.308,559,75636.975,5,135.34,135.34,135.275,135.35,-0.006933998605862664,-0.006549192364170308,pep,20191205
2019-12-05,11:50,11:50 AM,135.445,135.445,135.445,100,13544.5,1,135.45,135.4,135.432,3417,462771.2915,23,135.445,135.445,135.41,135.44,-0.006163554316322438,-0.005638766519823794,pep,20191205
2019-12-05,11:51,11:51 AM,135.38,135.38,135.38,100,13538.0,1,135.46,135.35,135.418,11650,1577621.27,63,135.38,135.38,135.445,135.37,-0.006640496019371179,-0.005741556534507947,pep,20191205
2019-12-05,11:52,11:52 AM,135.35,135.35,135.35,100,13535.0,1,135.37,135.33,135.344,1215,164443.0885,9,135.35,135.35,135.37,135.34,-0.006860622959239845,-0.006284875183553558,pep,20191205
2019-12-05,11:53,11:53 AM,135.38,135.34,135.373,128,17327.79,4,135.39,135.34,135.369,2633,356426.9612,24,135.34,135.38,135.34,135.363,-0.006691858972007236,-0.006101321585903002,pep,20191205
2019-12-05,11:54,11:54 AM,135.36,135.36,135.36,100,13536.0,1,135.38,135.32,135.349,2200,297767.5,21,135.36,135.36,135.36,135.38,-0.006787247312616818,-0.0062481644640234885,pep,20191205
2019-12-05,11:55,11:55 AM,135.4,135.37,135.373,116,15703.325,4,135.413,135.37,135.401,3584,485278.5692,21,135.385,135.4,135.37,135.41,-0.006691858972007236,-0.005866372980910266,pep,20191205
2019-12-05,11:56,11:56 AM,135.395,135.395,135.395,100,13539.5,1,135.417,135.395,135.405,1284,173860.562,12,135.395,135.395,135.403,135.417,-0.006530432549436742,-0.005837004405286252,pep,20191205
2019-12-05,11:57,11:57 AM,135.42,135.39,135.407,399,54027.61,3,135.425,135.39,135.413,3293,445914.015,29,135.4,135.42,135.41,135.41,-0.006442381773489276,-0.0057782672540380164,pep,20191205
2019-12-05,11:58,11:58 AM,135.44,135.42,135.427,312,42253.29,3,135.445,135.42,135.431,2089,282915.3228,18,135.44,135.42,135.425,135.429,-0.006295630480243637,-0.005646108663729641,pep,20191205
2019-12-05,11:59,11:59 AM,135.44,135.39,135.407,434,58766.76,6,135.44,135.37,135.411,2361,319705.3616,19,135.44,135.39,135.44,135.42,-0.006442381773489276,-0.0057929515418501274,pep,20191205
2019-12-05,12:00,12 PM,135.525,135.42,135.437,2306,312318.15,8,135.54,135.41,135.438,11508,1558618.18,30,135.42,135.525,135.42,135.54,-0.00622225483362061,-0.005594713656387669,pep,20191205
2019-12-05,12:01,12:01 PM,135.555,135.53,135.549,475,64385.75,5,135.58,135.53,135.55,3898,528375.99,30,135.555,135.545,135.55,135.545,-0.005400447591444327,-0.004772393538913196,pep,20191205
2019-12-05,12:02,12:02 PM,135.545,135.53,135.537,200,27107.5,2,135.57,135.53,135.549,6999,948708.905,39,135.545,135.53,135.545,135.53,-0.005488498367391793,-0.004779735682819252,pep,20191205
2019-12-05,12:03,12:03 PM,135.55,135.54,135.545,200,27109.0,2,135.57,135.53,135.546,6257,848112.975,36,135.54,135.55,135.54,135.54,-0.005429797850093621,-0.004801762114537419,pep,20191205
2019-12-05,12:04,12:04 PM,,,,0,0.0,0,135.52,135.47,135.486,1567,212307.021,14,,,135.52,135.47,,-0.005242290748898669,pep,20191205
2019-12-05,12:05,12:05 PM,135.5,135.48,135.485,400,54194.0,2,135.55,135.476,135.495,4200,569080.52,27,135.48,135.5,135.476,135.55,-0.005870051729830744,-0.005176211453744377,pep,20191205
2019-12-05,12:06,12:06 PM,135.56,135.56,135.56,210,28467.6,3,135.565,135.53,135.548,2500,338869.5,23,135.56,135.56,135.56,135.53,-0.005319734380159183,-0.004787077826725307,pep,20191205
2019-12-05,12:07,12:07 PM,,,,0,0.0,0,135.53,135.52,135.525,1600,216840.5,16,,,135.53,135.525,,-0.004955947136563752,pep,20191205
2019-12-05,12:08,12:08 PM,135.51,135.495,135.502,200,27100.5,2,135.55,135.495,135.513,4886,662116.6806,43,135.51,135.495,135.542,135.51,-0.005745313130571869,-0.005044052863436002,pep,20191205
2019-12-05,12:09,12:09 PM,135.595,135.595,135.595,1,135.595,1,135.595,135.51,135.539,10927,1481034.52,29,135.595,135.595,135.51,135.58,-0.005062919616979108,-0.0048531571218796,pep,20191205
2019-12-05,12:10,12:10 PM,135.54,135.54,135.54,100,13554.0,1,135.58,135.53,135.549,1400,189769.0,13,135.54,135.54,135.58,135.54,-0.005466485673405031,-0.004779735682819252,pep,20191205
2019-12-05,12:11,12:11 PM,135.605,135.565,135.585,200,27117.0,2,135.605,135.53,135.571,2576,349230.41,19,135.605,135.565,135.53,135.58,-0.0051362952636019275,-0.004618208516886863,pep,20191205
2019-12-05,12:12,12:12 PM,135.59,135.59,135.59,100,13559.0,1,135.6,135.55,135.58,857,116191.8726,7,135.59,135.59,135.6,135.55,-0.0050996074402905175,-0.004552129221732571,pep,20191205
2019-12-05,12:13,12:13 PM,,,,0,0.0,0,135.55,135.52,135.532,1520,206009.29,14,,,135.55,135.52,,-0.004904552129221571,pep,20191205
2019-12-05,12:14,12:14 PM,135.515,135.515,135.515,200,27103.0,1,135.55,135.51,135.523,2099,284462.45,18,135.515,135.515,135.52,135.55,-0.005649924789962287,-0.004970631424375863,pep,20191205
2019-12-05,12:15,12:15 PM,135.51,135.51,135.51,100,13551.0,1,135.545,135.51,135.521,2448,331756.0345,24,135.51,135.51,135.54,135.513,-0.005686612613273696,-0.004985315712187974,pep,20191205
2019-12-05,12:16,12:16 PM,135.52,135.52,135.52,105,14229.6,2,135.53,135.47,135.505,9170,1242582.9579,79,135.52,135.52,135.513,135.53,-0.005613236966650669,-0.0051027900146842385,pep,20191205
2019-12-05,12:17,12:17 PM,135.55,135.55,135.55,106,14368.3,2,135.56,135.51,135.538,2068,280292.2712,17,135.55,135.55,135.523,135.55,-0.005393110026782002,-0.0048604992657854465,pep,20191205
2019-12-05,12:18,12:18 PM,135.59,135.57,135.58,227,30776.65,4,135.61,135.55,135.589,5606,760110.4014,31,135.59,135.57,135.55,135.57,-0.005172983086913337,-0.004486049926578488,pep,20191205
2019-12-05,12:19,12:19 PM,135.55,135.55,135.55,200,27110.0,2,135.57,135.54,135.556,2405,326012.79,19,135.55,135.55,135.56,135.557,-0.005393110026782002,-0.004728340675477071,pep,20191205
2019-12-05,12:20,12:20 PM,,,,0,0.0,0,135.61,135.57,135.587,2600,352526.0,24,,,135.57,135.59,,-0.004500734214390599,pep,20191205
2019-12-05,12:21,12:21 PM,,,,0,0.0,0,135.61,135.57,135.584,1226,166226.6,12,,,135.59,135.57,,-0.004522760646108557,pep,20191205
2019-12-05,12:22,12:22 PM,135.58,135.58,135.58,100,13558.0,1,135.6,135.56,135.58,1200,162696.42,11,135.58,135.58,135.56,135.58,-0.005172983086913337,-0.004552129221732571,pep,20191205
2019-12-05,12:23,12:23 PM,,,,0,0.0,0,135.59,135.54,135.568,2541,344478.205,25,,,135.58,135.55,,-0.0046402349486048215,pep,20191205
2019-12-05,12:24,12:24 PM,,,,0,0.0,0,135.54,135.49,135.514,1700,230374.0,15,,,135.53,135.5,,-0.005036710719529947,pep,20191205
2019-12-05,12:25,12:25 PM,,,,0,0.0,0,135.52,135.49,135.509,2925,396363.036,17,,,135.505,135.51,,-0.005073421439060225,pep,20191205
2019-12-05,12:26,12:26 PM,135.55,135.54,135.543,300,40663.0,4,135.55,135.52,135.538,2370,321224.987,21,135.55,135.54,135.54,135.54,-0.005444472979418059,-0.0048604992657854465,pep,20191205
2019-12-05,12:27,12:27 PM,,,,0,0.0,0,135.55,135.52,135.534,2609,353607.77,24,,,135.54,135.52,,-0.0048898678414096685,pep,20191205
2019-12-05,12:28,12:28 PM,135.55,135.545,135.548,200,27109.5,2,135.55,135.51,135.537,1625,220248.08,15,135.545,135.55,135.51,135.54,-0.00540778515610665,-0.0048678414096915016,pep,20191205
2019-12-05,12:29,12:29 PM,135.55,135.55,135.55,100,13555.0,1,135.55,135.53,135.547,1076,145848.28,10,135.55,135.55,135.55,135.55,-0.005393110026782002,-0.004794419970631363,pep,20191205
2019-12-05,12:30,12:30 PM,,,,0,0.0,0,135.556,135.49,135.517,3351,454117.908,32,,,135.556,135.49,,-0.005014684287811988,pep,20191205
2019-12-05,12:31,12:31 PM,135.42,135.42,135.42,100,13542.0,1,135.48,135.42,135.447,1908,258432.89,19,135.42,135.42,135.48,135.43,-0.006346993432879694,-0.0055286343612333776,pep,20191205
2019-12-05,12:32,12:32 PM,135.44,135.43,135.431,163,22075.34,3,135.45,135.41,135.425,2000,270850.5,20,135.44,135.43,135.44,135.425,-0.006266280221594343,-0.005690161527165766,pep,20191205
2019-12-05,12:33,12:33 PM,,,,0,0.0,0,135.435,135.41,135.42,1427,193244.665,14,,,135.42,135.435,,-0.005726872246696044,pep,20191205
2019-12-05,12:34,12:34 PM,,,,0,0.0,0,135.45,135.4,135.427,2457,332743.44,20,,,135.45,135.4,,-0.005675477239353863,pep,20191205
2019-12-05,12:35,12:35 PM,,,,0,0.0,0,135.43,135.38,135.399,2532,342829.8364,21,,,135.43,135.38,,-0.005881057268722377,pep,20191205
2019-12-05,12:36,12:36 PM,,,,0,0.0,0,135.4,135.37,135.389,1872,253448.88,16,,,135.38,135.39,,-0.005954478707782516,pep,20191205
2019-12-05,12:37,12:37 PM,135.395,135.39,135.39,104,14080.58,2,135.4,135.377,135.389,2590,350658.4,22,135.39,135.395,135.38,135.4,-0.00656712037274836,-0.005954478707782516,pep,20191205
2019-12-05,12:38,12:38 PM,135.445,135.445,135.445,100,13544.5,1,135.45,135.4,135.424,1118,151404.29,11,135.445,135.445,135.405,135.44,-0.006163554316322438,-0.005697503671071822,pep,20191205
2019-12-05,12:39,12:39 PM,135.495,135.45,135.472,200,27094.5,2,135.495,135.44,135.458,1500,203187.5,14,135.45,135.495,135.44,135.495,-0.005965440070440534,-0.005447870778267183,pep,20191205
2019-12-05,12:40,12:40 PM,135.5,135.485,135.499,3700,501346.5,11,135.5,135.475,135.495,6500,880720.0,36,135.5,135.5,135.5,135.5,-0.005767325824558839,-0.005176211453744377,pep,20191205
2019-12-05,12:41,12:41 PM,135.5,135.45,135.491,244,33059.8,3,135.5,135.47,135.487,900,121938.01,9,135.45,135.5,135.49,135.5,-0.005826026341857011,-0.005234948604992613,pep,20191205
2019-12-05,12:42,12:42 PM,135.5,135.47,135.484,450,60968.0,8,135.5,135.47,135.484,2824,382606.91,19,135.475,135.49,135.48,135.49,-0.005877389294493068,-0.005256975036710572,pep,20191205
2019-12-05,12:43,12:43 PM,135.46,135.43,135.45,1440,195048.1,10,135.49,135.43,135.448,5819,788170.509,34,135.455,135.44,135.49,135.43,-0.006126866493011029,-0.005521292217327322,pep,20191205
2019-12-05,12:44,12:44 PM,135.42,135.41,135.414,224,30332.84,3,135.47,135.4,135.427,3823,517735.8668,26,135.41,135.42,135.43,135.47,-0.006391018820853427,-0.005675477239353863,pep,20191205
2019-12-05,12:45,12:45 PM,135.46,135.45,135.459,144,19506.1,3,135.48,135.45,135.467,2900,392855.68,14,135.46,135.45,135.47,135.45,-0.006060828411050324,-0.005381791483112891,pep,20191205
2019-12-05,12:46,12:46 PM,,,,0,0.0,0,135.47,135.44,135.455,3357,454722.1116,17,,,135.46,135.47,,-0.005469897209985141,pep,20191205
2019-12-05,12:47,12:47 PM,135.47,135.46,135.465,200,27093.0,2,135.47,135.44,135.457,1600,216731.0,16,135.47,135.46,135.47,135.45,-0.006016803023076591,-0.005455212922173238,pep,20191205
2019-12-05,12:48,12:48 PM,,,,0,0.0,0,135.448,135.41,135.423,3192,432270.4472,31,,,135.44,135.43,,-0.005704845814977877,pep,20191205
2019-12-05,12:49,12:49 PM,135.45,135.45,135.45,100,13545.0,1,135.507,135.42,135.466,1675,226905.1625,13,135.45,135.45,135.42,135.507,-0.006126866493011029,-0.005389133627018946,pep,20191205
2019-12-05,12:50,12:50 PM,,,,0,0.0,0,135.58,135.53,135.563,1025,138952.12,9,,,135.535,135.58,,-0.004676945668135099,pep,20191205
2019-12-05,12:51,12:51 PM,135.6,135.59,135.595,13,1762.73,2,135.61,135.57,135.588,1902,257887.5556,16,135.59,135.6,135.57,135.6,-0.005062919616979108,-0.004493392070484543,pep,20191205
2019-12-05,12:52,12:52 PM,,,,0,0.0,0,135.59,135.57,135.579,1398,189539.8992,11,,,135.58,135.575,,-0.004559471365638627,pep,20191205
2019-12-05,12:53,12:53 PM,135.565,135.555,135.56,700,94892.0,3,135.575,135.55,135.557,7219,978584.0592,45,135.565,135.555,135.575,135.57,-0.005319734380159183,-0.004720998531571224,pep,20191205
2019-12-05,12:54,12:54 PM,135.59,135.57,135.58,255,34572.9,3,135.595,135.57,135.584,1390,188461.7,12,135.58,135.59,135.58,135.59,-0.005172983086913337,-0.004522760646108557,pep,20191205
2019-12-05,12:55,12:55 PM,135.62,135.62,135.62,110,14918.2,4,135.64,135.6,135.613,1728,234339.73,17,135.62,135.62,135.6,135.62,-0.004879480500421852,-0.004309838472833988,pep,20191205
2019-12-05,12:56,12:56 PM,135.61,135.61,135.61,4,542.44,1,135.62,135.59,135.606,2429,329386.504,23,135.61,135.61,135.61,135.61,-0.004952856147044671,-0.004361233480176169,pep,20191205
2019-12-05,12:57,12:57 PM,,,,0,0.0,0,135.64,135.59,135.615,1478,200438.822,14,,,135.6,135.64,,-0.004295154185021877,pep,20191205
2019-12-05,12:58,12:58 PM,135.645,135.645,135.645,100,13564.5,1,135.645,135.61,135.631,2400,325514.0,20,135.645,135.645,135.645,135.61,-0.004696041383864595,-0.004177679882525613,pep,20191205
2019-12-05,12:59,12:59 PM,,,,0,0.0,0,135.61,135.59,135.6,820,111191.8,7,,,135.6,135.6,,-0.004405286343612294,pep,20191205
2019-12-05,13:00,1 PM,135.585,135.58,135.583,166,22506.78,2,135.59,135.58,135.584,1900,257609.5,18,135.58,135.585,135.59,135.59,-0.0051509703929265745,-0.004522760646108557,pep,20191205
2019-12-05,13:01,1:01 PM,135.6,135.575,135.584,601,81486.08,8,135.606,135.575,135.587,1755,237956.0045,16,135.6,135.575,135.606,135.58,-0.005143632828264251,-0.004500734214390599,pep,20191205
2019-12-05,13:02,1:02 PM,135.59,135.59,135.59,100,13559.0,1,135.59,135.579,135.586,1185,160669.0965,11,135.59,135.59,135.59,135.58,-0.0050996074402905175,-0.004508076358296446,pep,20191205
2019-12-05,13:03,1:03 PM,135.57,135.56,135.565,495,67104.7,6,135.58,135.56,135.569,2200,298252.5,22,135.57,135.565,135.58,135.58,-0.005283046556847774,-0.0046328928046989746,pep,20191205
2019-12-05,13:04,1:04 PM,135.595,135.595,135.595,200,27119.0,2,135.61,135.58,135.595,1702,230783.1288,17,135.595,135.595,135.585,135.58,-0.005062919616979108,-0.0044419970631423625,pep,20191205
2019-12-05,13:05,1:05 PM,135.6,135.58,135.594,319,43254.4,4,135.625,135.58,135.61,4653,630992.835,29,135.58,135.6,135.58,135.62,-0.005070257181641432,-0.004331864904551946,pep,20191205
2019-12-05,13:06,1:06 PM,,,,0,0.0,0,135.65,135.635,135.641,907,123026.445,8,,,135.64,135.64,,-0.004104258443465474,pep,20191205
2019-12-05,13:07,1:07 PM,135.62,135.62,135.62,209,28344.58,3,135.64,135.62,135.624,3793,514423.545,26,135.62,135.62,135.64,135.624,-0.004879480500421852,-0.004229074889867793,pep,20191205
2019-12-05,13:08,1:08 PM,135.58,135.58,135.58,104,14100.32,1,135.62,135.57,135.589,2805,380326.145,27,135.58,135.58,135.61,135.58,-0.005172983086913337,-0.004486049926578488,pep,20191205
2019-12-05,13:09,1:09 PM,135.58,135.58,135.58,19,2576.02,2,135.59,135.56,135.579,1700,230484.0,17,135.58,135.58,135.57,135.59,-0.005172983086913337,-0.004559471365638627,pep,20191205
2019-12-05,13:10,1:10 PM,135.65,135.62,135.649,105,14243.1,2,135.65,135.61,135.63,2099,284687.15,18,135.62,135.65,135.61,135.65,-0.0046666911252155096,-0.0041850220264316685,pep,20191205
2019-12-05,13:11,1:11 PM,135.66,135.64,135.65,1123,152334.95,7,135.67,135.63,135.647,2954,400701.624,22,135.65,135.65,135.67,135.65,-0.004659353560553186,-0.004060205580029349,pep,20191205
2019-12-05,13:12,1:12 PM,135.655,135.65,135.651,120,16278.085,2,135.66,135.64,135.653,706,95770.9,7,135.655,135.65,135.66,135.66,-0.004652015995890862,-0.004016152716593224,pep,20191205
2019-12-05,13:13,1:13 PM,,,,0,0.0,0,135.72,135.655,135.679,2884,391298.4012,24,,,135.655,135.72,,-0.0038252569750366126,pep,20191205
2019-12-05,13:14,1:14 PM,135.71,135.7,135.706,261,35419.31,3,135.72,135.69,135.704,3893,528294.422,34,135.71,135.7,135.72,135.709,-0.0042484499394651485,-0.003641703377386057,pep,20191205
2019-12-05,13:15,1:15 PM,135.67,135.67,135.67,100,13567.0,1,135.69,135.65,135.668,1405,190613.85,14,135.67,135.67,135.69,135.67,-0.004512602267307548,-0.003906020558002807,pep,20191205
2019-12-05,13:16,1:16 PM,,,,0,0.0,0,135.69,135.67,135.68,1260,170956.626,9,,,135.68,135.67,,-0.003817914831130557,pep,20191205
2019-12-05,13:17,1:17 PM,135.675,135.675,135.675,2,271.35,1,135.68,135.635,135.664,3089,419066.3,25,135.675,135.675,135.68,135.67,-0.0044759144439959295,-0.00393538913362703,pep,20191205
2019-12-05,13:18,1:18 PM,135.66,135.66,135.66,162,21976.92,2,135.68,135.66,135.666,900,122099.5,9,135.66,135.66,135.665,135.68,-0.004585977913930367,-0.003920704845814918,pep,20191205
2019-12-05,13:19,1:19 PM,135.665,135.66,135.661,400,54264.5,5,135.67,135.65,135.661,2677,363164.5423,22,135.66,135.66,135.67,135.66,-0.004578640349268043,-0.0039574155653449876,pep,20191205
2019-12-05,13:20,1:20 PM,135.65,135.61,135.631,217,29431.88,3,135.65,135.61,135.637,2882,390907.33,25,135.65,135.64,135.65,135.645,-0.004798767289136709,-0.004133627019089488,pep,20191205
2019-12-05,13:21,1:21 PM,135.65,135.65,135.65,18,2441.7,1,135.65,135.631,135.645,1106,150023.05,11,135.65,135.65,135.64,135.64,-0.004659353560553186,-0.004074889867841251,pep,20191205
2019-12-05,13:22,1:22 PM,135.635,135.635,135.635,300,40690.5,3,135.65,135.62,135.633,2306,312770.46,22,135.635,135.635,135.64,135.65,-0.004769417030487623,-0.004162995594713502,pep,20191205
2019-12-05,13:23,1:23 PM,135.7,135.655,135.678,212,28763.84,3,135.71,135.655,135.693,2651,359723.25,22,135.655,135.7,135.655,135.7,-0.004453901750009167,-0.003722466960352251,pep,20191205
2019-12-05,13:24,1:24 PM,135.69,135.69,135.69,5,678.45,1,135.72,135.7,135.71,2853,387180.16,19,135.69,135.69,135.7,135.72,-0.0043658509740617,-0.0035976505139499316,pep,20191205
2019-12-05,13:25,1:25 PM,135.725,135.725,135.725,17,2307.325,1,135.73,135.71,135.719,700,95003.5,7,135.725,135.725,135.72,135.72,-0.0041090362108816255,-0.0035315712187958485,pep,20191205
2019-12-05,13:26,1:26 PM,135.73,135.73,135.73,100,13573.0,1,135.75,135.73,135.747,1000,135747.0,8,135.73,135.73,135.73,135.75,-0.0040723483875702154,-0.0033259911894271263,pep,20191205
2019-12-05,13:27,1:27 PM,,,,0,0.0,0,135.75,135.71,135.731,1656,224771.32,16,,,135.74,135.71,,-0.003443465491923599,pep,20191205
2019-12-05,13:28,1:28 PM,135.73,135.71,135.713,118,16014.13,3,135.74,135.7,135.721,2185,296550.845,19,135.72,135.73,135.71,135.74,-0.004197086986829092,-0.0035168869309837375,pep,20191205
2019-12-05,13:29,1:29 PM,135.75,135.74,135.747,300,40724.0,3,135.76,135.735,135.742,3305,448627.11,22,135.75,135.74,135.76,135.735,-0.003947609788311131,-0.003362701908957404,pep,20191205
2019-12-05,13:30,1:30 PM,135.72,135.705,135.709,2530,343343.39,7,135.745,135.705,135.721,5490,745111.2816,30,135.72,135.71,135.74,135.71,-0.004226437245478177,-0.0035168869309837375,pep,20191205
2019-12-05,13:31,1:31 PM,135.71,135.71,135.71,100,13571.0,1,135.72,135.7,135.709,2750,373200.82,21,135.71,135.71,135.71,135.71,-0.004219099680815854,-0.0036049926578559876,pep,20191205
2019-12-05,13:32,1:32 PM,135.73,135.73,135.73,208,28231.84,4,135.74,135.72,135.729,2798,379770.3222,26,135.73,135.73,135.72,135.73,-0.0040723483875702154,-0.003458149779735501,pep,20191205
2019-12-05,13:33,1:33 PM,135.77,135.68,135.714,349,47364.13,7,135.77,135.655,135.694,10895,1478381.22,78,135.72,135.7,135.723,135.66,-0.004189749422166768,-0.003715124816446404,pep,20191205
2019-12-05,13:34,1:34 PM,135.7,135.65,135.676,2143,290753.595,20,135.7,135.64,135.665,7830,1062254.1031,63,135.7,135.65,135.68,135.64,-0.004468576879333814,-0.003928046989720974,pep,20191205
2019-12-05,13:35,1:35 PM,,,,0,0.0,0,135.69,135.62,135.635,3800,515414.89,30,,,135.63,135.69,,-0.004148311306901599,pep,20191205
2019-12-05,13:36,1:36 PM,135.68,135.68,135.68,50,6784.0,1,135.69,135.68,135.688,900,122119.0,9,135.68,135.68,135.68,135.69,-0.0044392266206845195,-0.0037591776798825294,pep,20191205
2019-12-05,13:37,1:37 PM,135.71,135.69,135.7,400,54280.0,4,135.71,135.69,135.705,1200,162846.0,11,135.71,135.69,135.71,135.7,-0.004292475327438881,-0.0036343612334800014,pep,20191205
2019-12-05,13:38,1:38 PM,,,,0,0.0,0,135.71,135.675,135.689,1900,257808.5,18,,,135.71,135.68,,-0.003751835535976474,pep,20191205
2019-12-05,13:39,1:39 PM,135.67,135.67,135.67,100,13567.0,1,135.68,135.67,135.675,600,81405.0,6,135.67,135.67,135.68,135.67,-0.004512602267307548,-0.0038546255506606265,pep,20191205
2019-12-05,13:40,1:40 PM,,,,0,0.0,0,135.67,135.635,135.652,3705,502590.85,37,,,135.67,135.635,,-0.004023494860499279,pep,20191205
2019-12-05,13:41,1:41 PM,135.645,135.645,135.645,100,13564.5,1,135.645,135.63,135.637,1100,149201.0,11,135.645,135.645,135.64,135.645,-0.004696041383864595,-0.004133627019089488,pep,20191205
2019-12-05,13:42,1:42 PM,135.655,135.655,135.655,100,13565.5,1,135.68,135.655,135.666,1350,183148.72,11,135.655,135.655,135.655,135.655,-0.004622665737241776,-0.003920704845814918,pep,20191205
2019-12-05,13:43,1:43 PM,135.67,135.66,135.66,101,13701.67,2,135.66,135.66,135.66,300,40698.0,3,135.66,135.67,135.66,135.66,-0.004585977913930367,-0.0039647577092510435,pep,20191205
2019-12-05,13:44,1:44 PM,135.74,135.7,135.711,438,59441.6,9,135.748,135.665,135.71,4359,591562.165,40,135.7,135.74,135.667,135.74,-0.00421176211615353,-0.0035976505139499316,pep,20191205
2019-12-05,13:45,1:45 PM,,,,0,0.0,0,135.72,135.69,135.707,1100,149278.0,11,,,135.71,135.69,,-0.0036196769456680986,pep,20191205
2019-12-05,13:46,1:46 PM,135.68,135.68,135.68,300,40704.0,3,135.68,135.66,135.672,1500,203508.0,15,135.68,135.68,135.68,135.66,-0.0044392266206845195,-0.0038766519823787934,pep,20191205
2019-12-05,13:47,1:47 PM,135.69,135.67,135.672,110,14923.9,2,135.68,135.645,135.658,3410,462593.5,18,135.67,135.69,135.65,135.68,-0.0044979271379829,-0.0039794419970631545,pep,20191205
2019-12-05,13:48,1:48 PM,,,,0,0.0,0,135.701,135.685,135.694,1000,135694.12,10,,,135.701,135.69,,-0.003715124816446404,pep,20191205
2019-12-05,13:49,1:49 PM,,,,0,0.0,0,135.71,135.67,135.69,3400,461344.5,31,,,135.69,135.69,,-0.003744493392070418,pep,20191205
2019-12-05,13:50,1:50 PM,135.67,135.67,135.67,104,14109.68,2,135.69,135.67,135.682,1421,192803.7751,13,135.67,135.67,135.69,135.68,-0.004512602267307548,-0.0038032305433186543,pep,20191205
2019-12-05,13:51,1:51 PM,135.68,135.65,135.677,267,36225.69,5,135.69,135.66,135.673,1500,203509.23,15,135.68,135.65,135.68,135.68,-0.004461239314671491,-0.0038693098384727375,pep,20191205
2019-12-05,13:52,1:52 PM,135.7,135.7,135.7,100,13570.0,1,135.7,135.685,135.694,1846,250491.915,15,135.7,135.7,135.685,135.7,-0.004292475327438881,-0.003715124816446404,pep,20191205
2019-12-05,13:53,1:53 PM,135.76,135.73,135.751,330,44797.9,3,135.76,135.7,135.732,5585,758063.1647,33,135.74,135.73,135.71,135.7,-0.0039182595296620455,-0.003436123348017543,pep,20191205
2019-12-05,13:54,1:54 PM,,,,0,0.0,0,135.74,135.699,135.712,1933,262330.467,19,,,135.71,135.74,,-0.0035829662261380292,pep,20191205
2019-12-05,13:55,1:55 PM,135.75,135.73,135.74,200,27148.0,2,135.76,135.725,135.739,1686,228855.35,14,135.75,135.73,135.75,135.725,-0.003998972740947188,-0.0033847283406753625,pep,20191205
2019-12-05,13:56,1:56 PM,,,,0,0.0,0,135.725,135.72,135.722,500,67861.0,5,,,135.725,135.72,,-0.003509544787077682,pep,20191205
2019-12-05,13:57,1:57 PM,135.73,135.72,135.721,88,11943.49,3,135.74,135.71,135.722,3000,407166.5,30,135.73,135.72,135.725,135.73,-0.004138386469530711,-0.003509544787077682,pep,20191205
2019-12-05,13:58,1:58 PM,135.73,135.73,135.73,1,135.73,1,135.73,135.71,135.723,500,67861.5,5,135.73,135.73,135.725,135.72,-0.0040723483875702154,-0.003502202643171626,pep,20191205
2019-12-05,13:59,1:59 PM,135.72,135.72,135.72,99,13436.28,1,135.74,135.71,135.73,2248,305120.92,21,135.72,135.72,135.735,135.74,-0.004145724034193035,-0.0034508076358296543,pep,20191205
2019-12-05,14:00,2 PM,135.795,135.75,135.772,206,27969.11,4,135.8,135.75,135.771,2343,318112.6016,21,135.75,135.77,135.75,135.78,-0.003764170671754083,-0.0031497797356828347,pep,20191205
2019-12-05,14:01,2:01 PM,,,,0,0.0,0,135.79,135.77,135.782,3025,410741.078,25,,,135.78,135.77,,-0.0030690161527164314,pep,20191205
2019-12-05,14:02,2:02 PM,135.75,135.7,135.747,106,14389.2,2,135.76,135.705,135.725,3576,485351.38,22,135.75,135.7,135.76,135.705,-0.003947609788311131,-0.0034875183553597236,pep,20191205
2019-12-05,14:03,2:03 PM,135.7,135.67,135.685,215,29172.39,5,135.71,135.67,135.681,2101,285066.175,21,135.7,135.695,135.71,135.69,-0.00440253879737311,-0.003810572687224501,pep,20191205
2019-12-05,14:04,2:04 PM,135.71,135.71,135.71,100,13571.0,1,135.73,135.69,135.709,2383,323395.0022,22,135.71,135.71,135.7,135.72,-0.004219099680815854,-0.0036049926578559876,pep,20191205
2019-12-05,14:05,2:05 PM,,,,0,0.0,0,135.715,135.69,135.703,1500,203555.0,14,,,135.71,135.69,,-0.0036490455212921124,pep,20191205
2019-12-05,14:06,2:06 PM,135.66,135.64,135.647,300,40694.0,3,135.683,135.62,135.644,3305,448303.657,31,135.66,135.64,135.683,135.63,-0.0046813662545401565,-0.004082232011747307,pep,20191205
2019-12-05,14:07,2:07 PM,135.615,135.615,135.615,11,1491.765,1,135.655,135.59,135.626,4422,599737.6493,31,135.615,135.615,135.62,135.652,-0.004916168323733261,-0.004214390602055682,pep,20191205
2019-12-05,14:08,2:08 PM,135.64,135.625,135.637,128,17361.555,3,135.65,135.62,135.637,2700,366219.0,26,135.64,135.63,135.645,135.64,-0.004754741901162976,-0.004133627019089488,pep,20191205
2019-12-05,14:09,2:09 PM,135.655,135.655,135.655,100,13565.5,1,135.68,135.63,135.669,5130,695984.075,21,135.655,135.655,135.655,135.65,-0.004622665737241776,-0.0038986784140967513,pep,20191205
2019-12-05,14:10,2:10 PM,135.655,135.65,135.655,15,2034.82,2,135.67,135.65,135.657,1900,257748.75,16,135.65,135.655,135.655,135.66,-0.004622665737241776,-0.003986784140969001,pep,20191205
2019-12-05,14:11,2:11 PM,135.67,135.67,135.67,10,1356.7,1,135.67,135.655,135.665,2511,340654.105,15,135.67,135.67,135.655,135.67,-0.004512602267307548,-0.003928046989720974,pep,20191205
2019-12-05,14:12,2:12 PM,,,,0,0.0,0,135.69,135.677,135.682,3141,426177.208,26,,,135.68,135.685,,-0.0038032305433186543,pep,20191205
2019-12-05,14:13,2:13 PM,135.71,135.685,135.693,196,26595.76,3,135.72,135.685,135.7,2841,385525.005,26,135.685,135.71,135.685,135.7,-0.00434383828007473,-0.0036710719530102793,pep,20191205
2019-12-05,14:14,2:14 PM,,,,0,0.0,0,135.73,135.71,135.714,3087,418948.48,26,,,135.71,135.715,,-0.0035682819383259182,pep,20191205
2019-12-05,14:15,2:15 PM,135.7,135.675,135.696,1302,176676.85,9,135.71,135.67,135.692,4259,577913.83,37,135.7,135.675,135.7,135.699,-0.004321825586087968,-0.003729809104258307,pep,20191205
2019-12-05,14:16,2:16 PM,,,,0,0.0,0,135.719,135.69,135.701,4279,580665.462,32,,,135.71,135.69,,-0.003663729809104224,pep,20191205
2019-12-05,14:17,2:17 PM,135.71,135.7,135.7,101,13705.71,2,135.71,135.69,135.698,2100,284967.0,21,135.7,135.71,135.69,135.705,-0.004292475327438881,-0.0036857562408221817,pep,20191205
2019-12-05,14:18,2:18 PM,135.74,135.725,135.734,246,33390.52,7,135.745,135.7,135.728,4750,644707.98,40,135.725,135.73,135.7,135.723,-0.004042998128920921,-0.0034654919236415567,pep,20191205
2019-12-05,14:19,2:19 PM,135.71,135.71,135.71,1,135.71,1,135.72,135.68,135.696,2200,298531.5,20,135.71,135.71,135.72,135.69,-0.004219099680815854,-0.003700440528634293,pep,20191205
2019-12-05,14:20,2:20 PM,135.74,135.69,135.72,203,27551.1,5,135.735,135.687,135.709,1714,232605.9752,16,135.69,135.74,135.687,135.735,-0.004145724034193035,-0.0036049926578559876,pep,20191205
2019-12-05,14:21,2:21 PM,135.725,135.725,135.725,300,40717.5,3,135.735,135.72,135.727,1500,203589.98,14,135.725,135.725,135.72,135.724,-0.0041090362108816255,-0.003472834067547612,pep,20191205
2019-12-05,14:22,2:22 PM,135.73,135.71,135.721,662,89847.11,10,135.735,135.7,135.719,3302,448145.462,31,135.73,135.71,135.73,135.7,-0.004138386469530711,-0.0035315712187958485,pep,20191205
2019-12-05,14:23,2:23 PM,135.73,135.73,135.73,100,13573.0,1,135.73,135.71,135.721,1900,257870.93,19,135.73,135.73,135.71,135.71,-0.0040723483875702154,-0.0035168869309837375,pep,20191205
2019-12-05,14:24,2:24 PM,135.69,135.685,135.687,3,407.06,2,135.705,135.68,135.693,1000,135693.0,10,135.69,135.685,135.7,135.68,-0.004387863668048463,-0.003722466960352251,pep,20191205
2019-12-05,14:25,2:25 PM,135.7,135.69,135.695,200,27139.0,2,135.71,135.685,135.7,3450,468165.7,30,135.69,135.7,135.685,135.7,-0.004329163150750291,-0.0036710719530102793,pep,20191205
2019-12-05,14:26,2:26 PM,,,,0,0.0,0,135.735,135.705,135.719,1300,176435.0,11,,,135.705,135.735,,-0.0035315712187958485,pep,20191205
2019-12-05,14:27,2:27 PM,135.74,135.73,135.734,400,54293.5,4,135.74,135.72,135.731,2900,393620.7068,26,135.73,135.74,135.73,135.74,-0.004042998128920921,-0.003443465491923599,pep,20191205
2019-12-05,14:28,2:28 PM,135.755,135.74,135.74,101,13709.755,2,135.75,135.73,135.739,1600,217182.0,16,135.755,135.74,135.73,135.74,-0.003998972740947188,-0.0033847283406753625,pep,20191205
2019-12-05,14:29,2:29 PM,135.74,135.71,135.727,300,40718.0,3,135.74,135.71,135.724,2535,344059.19,25,135.71,135.74,135.74,135.74,-0.004094361081556978,-0.003494860499265779,pep,20191205
2019-12-05,14:30,2:30 PM,135.73,135.71,135.724,367,49810.57,6,135.75,135.7,135.723,2099,284882.78,20,135.73,135.71,135.73,135.75,-0.004116373775543949,-0.003502202643171626,pep,20191205
2019-12-05,14:31,2:31 PM,135.73,135.73,135.73,100,13573.0,1,135.76,135.73,135.746,2955,401130.221,21,135.73,135.73,135.75,135.74,-0.0040723483875702154,-0.0033333333333331818,pep,20191205
2019-12-05,14:32,2:32 PM,,,,0,0.0,0,135.75,135.735,135.745,1686,228866.5,15,,,135.74,135.74,,-0.0033406754772392373,pep,20191205
2019-12-05,14:33,2:33 PM,135.78,135.745,135.767,431,58515.755,6,135.78,135.73,135.749,4370,593224.99,34,135.745,135.765,135.75,135.765,-0.0038008584950654928,-0.0033113069016152234,pep,20191205
2019-12-05,14:34,2:34 PM,135.78,135.78,135.78,400,54312.0,4,135.79,135.76,135.784,3074,417401.22,30,135.78,135.78,135.76,135.79,-0.0037054701544557028,-0.003054331864904529,pep,20191205
2019-12-05,14:35,2:35 PM,135.83,135.81,135.82,200,27164.0,2,135.84,135.78,135.814,3272,444384.92,29,135.81,135.83,135.78,135.825,-0.003411967567964218,-0.002834067547723904,pep,20191205
2019-12-05,14:36,2:36 PM,135.82,135.815,135.817,200,27163.5,2,135.835,135.8,135.819,1355,184035.4,13,135.82,135.815,135.835,135.83,-0.00343398026195098,-0.0027973568281938347,pep,20191205
2019-12-05,14:37,2:37 PM,135.88,135.85,135.866,500,67933.0,7,135.88,135.83,135.862,2711,368322.68,27,135.88,135.86,135.83,135.86,-0.003074439593498791,-0.0024816446402349036,pep,20191205
2019-12-05,14:38,2:38 PM,,,,0,0.0,0,135.91,135.86,135.889,4412,599542.8416,37,,,135.86,135.91,,-0.002283406754772237,pep,20191205
2019-12-05,14:39,2:39 PM,,,,0,0.0,0,135.95,135.91,135.929,3000,407788.0,28,,,135.92,135.95,,-0.0019897209985314727,pep,20191205
2019-12-05,14:40,2:40 PM,135.95,135.94,135.949,110,14954.4,2,135.97,135.94,135.954,3288,447015.865,29,135.95,135.94,135.96,135.95,-0.00246542172652885,-0.0018061674008809172,pep,20191205
2019-12-05,14:41,2:41 PM,135.93,135.89,135.921,2049,278502.57,13,135.93,135.89,135.908,7143,970794.005,59,135.93,135.91,135.93,135.915,-0.0026708735370730772,-0.0021439060205580146,pep,20191205
2019-12-05,14:42,2:42 PM,135.925,135.925,135.925,300,40777.5,1,135.94,135.91,135.925,2103,285849.74,18,135.925,135.925,135.91,135.915,-0.002641523278423783,-0.0020190895741554866,pep,20191205
2019-12-05,14:43,2:43 PM,,,,0,0.0,0,135.97,135.92,135.95,3347,455025.202,29,,,135.92,135.965,,-0.0018355359765051397,pep,20191205
2019-12-05,14:44,2:44 PM,135.96,135.96,135.96,100,13596.0,1,135.99,135.96,135.972,3850,523492.16,25,135.96,135.96,135.97,135.99,-0.002384708515243707,-0.001674008810572542,pep,20191205
2019-12-05,14:45,2:45 PM,,,,0,0.0,0,135.985,135.945,135.962,5631,765604.1807,49,,,135.98,135.95,,-0.0017474302496328896,pep,20191205
2019-12-05,14:46,2:46 PM,135.95,135.92,135.937,434,58996.79,9,135.97,135.92,135.945,5395,733423.993,38,135.95,135.92,135.96,135.95,-0.0025534725024763164,-0.001872246696035209,pep,20191205
2019-12-05,14:47,2:47 PM,135.95,135.935,135.944,400,54377.475,6,135.95,135.9,135.933,3955,537613.51,36,135.95,135.95,135.95,135.91,-0.002502109549840468,-0.001960352422907459,pep,20191205
2019-12-05,14:48,2:48 PM,135.955,135.95,135.952,200,27190.5,2,135.959,135.9,135.931,4342,590212.6565,41,135.955,135.95,135.9,135.959,-0.0024434090325420876,-0.0019750367107193617,pep,20191205
2019-12-05,14:49,2:49 PM,135.95,135.95,135.95,106,14410.7,2,135.96,135.94,135.951,3628,493229.9824,30,135.95,135.95,135.955,135.95,-0.002458084161866735,-0.001828193832599084,pep,20191205
2019-12-05,14:50,2:50 PM,,,,0,0.0,0,135.97,135.93,135.952,4250,577798.12,35,,,135.95,135.968,,-0.0018208516886930285,pep,20191205
2019-12-05,14:51,2:51 PM,,,,0,0.0,0,135.975,135.95,135.966,1734,235765.2338,17,,,135.95,135.965,,-0.0017180616740086671,pep,20191205
2019-12-05,14:52,2:52 PM,136.02,135.995,136.009,290,39442.575,6,136.03,135.98,136.004,4655,633097.3259,43,135.995,136.015,135.98,136.01,-0.0020251678467917266,-0.0014390602055800144,pep,20191205
2019-12-05,14:53,2:53 PM,,,,0,0.0,0,136.05,136.01,136.025,1800,244845.0,17,,,136.02,136.04,,-0.0012848751835534725,pep,20191205
2019-12-05,14:54,2:54 PM,,,,0,0.0,0,136.08,136.047,136.059,2573,350080.59,25,,,136.05,136.07,,-0.0010352422907488337,pep,20191205
2019-12-05,14:55,2:55 PM,,,,0,0.0,0,136.07,135.98,136.038,6189,841941.4989,38,,,136.06,135.99,,-0.001189427312775167,pep,20191205
2019-12-05,14:56,2:56 PM,135.95,135.95,135.95,146,19848.7,2,135.985,135.945,135.956,3299,448518.835,27,135.95,135.95,135.985,135.95,-0.002458084161866735,-0.0017914831130690146,pep,20191205
2019-12-05,14:57,2:57 PM,135.98,135.88,135.97,402,54659.76,4,135.98,135.72,135.832,33962,4613139.98,263,135.98,135.88,135.95,135.85,-0.002311332868620888,-0.0027019089574155286,pep,20191205
2019-12-05,14:58,2:58 PM,135.87,135.86,135.867,299,40624.13,4,135.93,135.84,135.879,9255,1257561.5,80,135.86,135.87,135.855,135.87,-0.003067102028836676,-0.002356828193832584,pep,20191205
2019-12-05,14:59,2:59 PM,135.83,135.83,135.83,100,13583.0,1,135.91,135.83,135.88,6112,830501.17,48,135.83,135.83,135.85,135.91,-0.00333859192134119,-0.0023494860499265286,pep,20191205
2019-12-05,15:00,3 PM,135.93,135.93,135.93,300,40779.0,1,135.94,135.89,135.914,2536,344677.9139,22,135.93,135.93,135.89,135.89,-0.0026048354551123734,-0.0020998531571218898,pep,20191205
2019-12-05,15:01,3:01 PM,,,,0,0.0,0,135.93,135.88,135.905,7324,995364.6342,63,,,135.91,135.925,,-0.002165932452275973,pep,20191205
2019-12-05,15:02,3:02 PM,135.94,135.92,135.94,301,40917.92,2,135.95,135.91,135.926,4473,607995.9424,29,135.94,135.92,135.91,135.92,-0.002531459808489554,-0.0020117474302496397,pep,20191205
2019-12-05,15:03,3:03 PM,135.94,135.92,135.94,205,27867.6,3,135.975,135.92,135.954,4972,675965.6364,41,135.92,135.94,135.93,135.97,-0.002531459808489554,-0.0018061674008809172,pep,20191205
2019-12-05,15:04,3:04 PM,136.015,135.99,136.006,400,54402.5,3,136.05,135.98,136.026,9087,1236065.485,77,136.015,136.005,135.98,136.025,-0.002047180540778489,-0.001277533039647417,pep,20191205
2019-12-05,15:05,3:05 PM,136.025,135.98,136.019,115,15642.2,2,136.025,135.99,136.011,4649,632315.4148,40,136.025,135.98,136.025,135.99,-0.001951792200168699,-0.0013876651982378339,pep,20191205
2019-12-05,15:06,3:06 PM,136.005,135.975,135.988,458,62282.58,7,136.01,135.96,135.986,3900,530345.5,36,135.98,136.005,135.98,136.005,-0.0021792567046996884,-0.0015712187958883896,pep,20191205
2019-12-05,15:07,3:07 PM,136.1,136.04,136.062,300,40818.5,3,136.12,136.01,136.05,5800,789088.75,57,136.045,136.1,136.02,136.09,-0.0016362769196902431,-0.0011013215859029168,pep,20191205
2019-12-05,15:08,3:08 PM,136.015,135.98,135.995,793,107844.16,9,136.085,135.97,136.017,9165,1246593.945,80,136.015,135.985,136.085,135.995,-0.002127893752063632,-0.0013436123348017088,pep,20191205
2019-12-05,15:09,3:09 PM,135.98,135.94,135.96,200,27192.0,2,135.995,135.922,135.954,6240,848350.63,57,135.98,135.94,135.98,135.95,-0.002384708515243707,-0.0018061674008809172,pep,20191205
2019-12-05,15:10,3:10 PM,136.01,135.99,135.998,309,42023.515,4,136.05,135.95,136.006,6507,884988.625,62,136.01,136.01,135.964,136.02,-0.0021058810580768693,-0.0014243759177679032,pep,20191205
2019-12-05,15:11,3:11 PM,136.025,135.98,136.014,378,51413.44,3,136.14,135.98,136.062,13384,1821050.92,121,136.025,135.98,136.03,135.99,-0.0019884800234801084,-0.0010132158590306667,pep,20191205
2019-12-05,15:12,3:12 PM,135.99,135.95,135.972,551,74920.705,7,135.99,135.93,135.958,3356,456274.92,27,135.98,135.95,135.98,135.935,-0.0022966577392962407,-0.0017767988252569034,pep,20191205
2019-12-05,15:13,3:13 PM,135.99,135.92,135.922,207,28135.875,4,136.05,135.92,135.99,7320,995446.584,67,135.935,135.99,135.943,136.01,-0.0026635359724107538,-0.0015418502202641671,pep,20191205
2019-12-05,15:14,3:14 PM,136.02,136.02,136.02,200,27204.0,2,136.035,136.005,136.014,2052,279100.835,19,136.02,136.02,136.01,136.02,-0.0019444546355063754,-0.001365638766519667,pep,20191205
2019-12-05,15:15,3:15 PM,,,,0,0.0,0,136.08,136.01,136.032,2525,343481.005,19,,,136.02,136.065,,-0.001233480176211292,pep,20191205
2019-12-05,15:16,3:16 PM,,,,0,0.0,0,136.15,136.04,136.098,9772,1329951.3052,81,,,136.07,136.13,,-0.0007488986784139166,pep,20191205
2019-12-05,15:17,3:17 PM,,,,0,0.0,0,136.13,136.07,136.107,3296,448610.4474,30,,,136.13,136.117,,-0.0006828193832598335,pep,20191205
2019-12-05,15:18,3:18 PM,,,,0,0.0,0,136.1,136.05,136.068,3821,519916.0584,27,,,136.1,136.09,,-0.0009691629955945418,pep,20191205
2019-12-05,15:19,3:19 PM,,,,0,0.0,0,136.09,136.045,136.067,4763,648085.7042,44,,,136.07,136.09,,-0.0009765051395005974,pep,20191205
2019-12-05,15:20,3:20 PM,,,,0,0.0,0,136.09,136.06,136.08,3540,481722.889,29,,,136.076,136.09,,-0.0008810572687222918,pep,20191205
2019-12-05,15:21,3:21 PM,,,,0,0.0,0,136.12,136.08,136.097,2861,389373.4244,25,,,136.08,136.108,,-0.0007562408223199724,pep,20191205
2019-12-05,15:22,3:22 PM,136.1,136.06,136.083,730,99340.8,8,136.11,136.06,136.09,5696,775168.375,46,136.1,136.06,136.1,136.08,-0.001482188061782281,-0.0008076358296621529,pep,20191205
2019-12-05,15:23,3:23 PM,135.975,135.975,135.975,15,2039.625,1,136.07,135.96,136.005,4900,666424.5,45,135.975,135.975,136.07,135.97,-0.0022746450453094784,-0.001431718061673959,pep,20191205
2019-12-05,15:24,3:24 PM,136.01,135.97,135.984,234,31820.18,5,136.0,135.98,135.986,1600,217578.0,16,135.97,135.98,135.98,135.98,-0.0022086069633487746,-0.0015712187958883896,pep,20191205
2019-12-05,15:25,3:25 PM,136.015,135.99,136.0,412,56032.15,5,136.025,135.98,136.004,3806,517631.06,37,135.99,136.01,135.98,136.02,-0.0020912059287522223,-0.0014390602055800144,pep,20191205
2019-12-05,15:26,3:26 PM,,,,0,0.0,0,136.04,136.01,136.027,4951,673468.237,45,,,136.02,136.035,,-0.00127019089574157,pep,20191205
2019-12-05,15:27,3:27 PM,,,,0,0.0,0,136.08,136.04,136.066,4700,639510.0,43,,,136.04,136.05,,-0.0009838472834066531,pep,20191205
2019-12-05,15:28,3:28 PM,136.04,136.025,136.034,229,31151.725,3,136.05,136.03,136.037,3500,476128.7164,32,136.04,136.03,136.03,136.05,-0.0018417287302344703,-0.0011967694566812224,pep,20191205
2019-12-05,15:29,3:29 PM,136.12,136.07,136.11,27,3674.97,4,136.12,136.05,136.098,5537,753572.9213,47,136.07,136.12,136.05,136.11,-0.0012840738159003776,-0.0007488986784139166,pep,20191205
2019-12-05,15:30,3:30 PM,136.11,136.1,136.101,16,2177.61,2,136.14,136.09,136.114,3913,532615.763,30,136.11,136.1,136.11,136.13,-0.0013501118978610817,-0.0006314243759176528,pep,20191205
2019-12-05,15:31,3:31 PM,,,,0,0.0,0,136.15,136.11,136.125,4665,635024.136,35,,,136.13,136.145,,-0.0005506607929514584,pep,20191205
2019-12-05,15:32,3:32 PM,136.14,136.12,136.127,220,29947.975,6,136.145,136.11,136.13,5494,747895.84,53,136.14,136.12,136.145,136.13,-0.0011593352166415017,-0.000513950073421389,pep,20191205
2019-12-05,15:33,3:33 PM,136.135,136.125,136.132,302,41111.75,4,136.16,136.12,136.14,7062,961420.24,36,136.13,136.135,136.13,136.16,-0.001122647393330092,-0.0004405286343612502,pep,20191205
2019-12-05,15:34,3:34 PM,136.17,136.16,136.167,146,19880.36,3,136.18,136.15,136.165,6992,952062.44,62,136.17,136.16,136.15,136.18,-0.0008658326301500166,-0.0002569750367106945,pep,20191205
2019-12-05,15:35,3:35 PM,136.18,136.16,136.179,157,21380.06,3,136.204,136.16,136.183,6895,938980.4801,60,136.18,136.18,136.18,136.179,-0.0007777818542025501,-0.00012481644640231944,pep,20191205
2019-12-05,15:36,3:36 PM,136.25,136.2,136.216,700,95351.0,6,136.27,136.18,136.209,8692,1183926.02,75,136.2,136.25,136.18,136.26,-0.0005062919616978274,6.607929515429186e-05,pep,20191205
2019-12-05,15:37,3:37 PM,136.25,136.25,136.25,100,13625.0,2,136.28,136.25,136.263,4399,599421.73,42,136.25,136.25,136.27,136.28,-0.0002568147631800755,0.0004625550660794171,pep,20191205
2019-12-05,15:38,3:38 PM,136.27,136.25,136.267,301,41016.25,4,136.284,136.25,136.268,7004,954420.4676,65,136.27,136.26,136.28,136.275,-0.00013207616392119957,0.0004992657856094865,pep,20191205
2019-12-05,15:39,3:39 PM,136.27,136.25,136.266,127,17305.75,4,136.28,136.24,136.26,6841,932155.8672,62,136.27,136.25,136.27,136.28,-0.0001394137285835232,0.0004405286343612502,pep,20191205
2019-12-05,15:40,3:40 PM,136.3,136.29,136.295,8,1090.36,4,136.31,136.28,136.293,7109,968909.8655,65,136.29,136.29,136.28,136.31,7.337564662281913e-05,0.0006828193832600422,pep,20191205
2019-12-05,15:41,3:41 PM,136.29,136.23,136.27,478,65136.95,9,136.31,136.23,136.264,6087,829440.62,48,136.29,136.23,136.31,136.23,-0.0001100634699342287,0.0004698972099854727,pep,20191205
2019-12-05,15:42,3:42 PM,136.21,136.165,136.174,431,58690.92,7,136.22,136.161,136.179,4783,651342.5306,44,136.21,136.185,136.22,136.185,-0.0008144696775139597,-0.00015418502202633325,pep,20191205
2019-12-05,15:43,3:43 PM,136.18,136.16,136.169,116,15795.59,5,136.18,136.15,136.162,3369,458731.24,31,136.18,136.16,136.18,136.15,-0.0008511575008253693,-0.00027900146842865266,pep,20191205
2019-12-05,15:44,3:44 PM,136.2,136.16,136.183,300,40854.92,5,136.22,136.155,136.188,6692,911373.1795,57,136.16,136.2,136.155,136.22,-0.0007484315955534642,-8.810572687225004e-05,pep,20191205
2019-12-05,15:45,3:45 PM,136.23,136.215,136.23,321,43729.685,5,136.235,136.21,136.226,6553,892686.0664,50,136.23,136.215,136.225,136.21,-0.0004035660564259223,0.00019089574155661132,pep,20191205
2019-12-05,15:46,3:46 PM,136.22,136.17,136.193,424,57745.755,8,136.23,136.165,136.202,8390,1142731.982,76,136.2,136.17,136.21,136.17,-0.0006750559489304365,1.4684287812111233e-05,pep,20191205
2019-12-05,15:47,3:47 PM,136.18,136.17,136.173,600,81704.0,6,136.19,136.15,136.166,9165,1247961.4,78,136.17,136.17,136.17,136.19,-0.0008218072421762833,-0.0002496328928046389,pep,20191205
2019-12-05,15:48,3:48 PM,136.18,136.18,136.18,7,953.26,2,136.185,136.16,136.171,4896,666692.3728,42,136.18,136.18,136.182,136.165,-0.0007704442895402266,-0.0002129221732745695,pep,20191205
2019-12-05,15:49,3:49 PM,136.18,136.17,136.18,144,19609.88,4,136.18,136.11,136.155,5353,728837.85,50,136.17,136.18,136.16,136.11,-0.0007704442895402266,-0.0003303964757708333,pep,20191205
2019-12-05,15:50,3:50 PM,136.195,136.11,136.157,746,101573.46,9,136.2,136.111,136.146,14232,1937628.6663,122,136.14,136.12,136.12,136.14,-0.0009392082767728356,-0.0003964757709251252,pep,20191205
2019-12-05,15:51,3:51 PM,136.11,136.03,136.109,101,13747.03,2,136.14,136.01,136.054,7276,989933.232,63,136.11,136.03,136.14,136.025,-0.001291411380562701,-0.001071953010278903,pep,20191205
2019-12-05,15:52,3:52 PM,136.04,136.01,136.013,28,3808.37,3,136.05,135.98,136.012,7423,1009621.33,65,136.04,136.01,136.03,135.995,-0.0019958175881424323,-0.0013803230543317781,pep,20191205
2019-12-05,15:53,3:53 PM,135.985,135.96,135.97,174,23658.84,6,135.995,135.951,135.975,9116,1239545.9018,81,135.985,135.97,135.99,135.99,-0.002311332868620888,-0.001651982378854584,pep,20191205
2019-12-05,15:54,3:54 PM,136.135,135.99,136.101,535,72813.92,10,136.19,135.95,136.058,31282,4256159.7051,181,135.99,136.135,135.98,136.16,-0.0013501118978610817,-0.0010425844346548892,pep,20191205
2019-12-05,15:55,3:55 PM,136.17,136.105,136.127,600,81676.5,7,136.19,136.1,136.156,17881,2434600.3461,140,136.17,136.105,136.18,136.11,-0.0011593352166415017,-0.0003230543318647777,pep,20191205
2019-12-05,15:56,3:56 PM,136.14,136.1,136.123,465,63296.985,14,136.14,136.1,136.113,13626,1854675.1693,110,136.115,136.14,136.11,136.135,-0.0011886854752907962,-0.0006387665198237085,pep,20191205
2019-12-05,15:57,3:57 PM,136.22,136.13,136.172,296,40306.81,7,136.24,136.13,136.193,20747,2825598.0919,166,136.13,136.215,136.13,136.2,-0.000829144806838607,-5.139500734197196e-05,pep,20191205
2019-12-05,15:58,3:58 PM,136.235,136.21,136.219,370,50400.885,7,136.26,136.2,136.226,26503,3610398.3196,191,136.21,136.235,136.2,136.25,-0.00048427926771106507,0.00019089574155661132,pep,20191205
2019-12-05,15:59,3:59 PM,136.3,136.23,136.262,864,117730.7,8,136.36,136.19,136.294,70678,9632961.1135,460,136.25,136.3,136.25,136.34,-0.00016876398723260914,0.0006901615271660978,pep,20191205
