date,minute,label,high,low,average,volume,notional,numberOfTrades,marketHigh,marketLow,marketAverage,marketVolume,marketNotional,marketNumberOfTrades,open,close,marketOpen,marketClose,changeOverTime,marketChangeOverTime,tickerName,tickerDate
2019-11-18,09:30,09:30 AM,134.06,134.06,134.06,100,13406.0,1,134.23,133.91,134.004,77580,10396060.9471,63,134.06,134.06,134.0,134.177,0.0,0.0,pep,20191118
2019-11-18,09:31,09:31 AM,,,,0,0.0,0,134.21,134.07,134.131,3654,490113.83,30,,,134.13,134.105,,0.0009477329034954894,pep,20191118
2019-11-18,09:32,09:32 AM,,,,0,0.0,0,134.28,134.13,134.191,3465,464973.0814,28,,,134.13,134.249,,0.0013954807319185385,pep,20191118
2019-11-18,09:33,09:33 AM,134.2,134.2,134.2,100,13420.0,1,134.38,134.17,134.246,4729,634847.9488,30,134.2,134.2,134.25,134.38,0.001044308518573671,0.0018059162413063688,pep,20191118
2019-11-18,09:34,09:34 AM,,,,0,0.0,0,134.55,134.365,134.442,6531,878042.208,38,,,134.41,134.55,,0.003268559147488259,pep,20191118
2019-11-18,09:35,09:35 AM,134.465,134.435,134.445,300,40333.5,3,134.512,134.35,134.427,5232,703323.712,44,134.465,134.435,134.49,134.39,0.0028718484260778078,0.0031566221903823904,pep,20191118
2019-11-18,09:36,09:36 AM,134.455,134.4,134.418,300,40325.5,2,134.455,134.395,134.417,2412,324213.3326,22,134.455,134.4,134.41,134.405,0.0026704460689243926,0.003081997552311953,pep,20191118
2019-11-18,09:37,09:37 AM,134.4,134.35,134.393,2597,349017.45,11,134.425,134.35,134.392,4161,559206.772,24,134.4,134.39,134.4,134.37,0.0024839624048933195,0.0028954359571356472,pep,20191118
2019-11-18,09:38,09:38 AM,134.445,134.39,134.421,800,107536.5,8,134.48,134.37,134.423,9263,1245155.7765,77,134.415,134.445,134.41,134.45,0.0026928241086080114,0.003126772335154258,pep,20191118
2019-11-18,09:39,09:39 AM,134.47,134.455,134.462,300,40338.5,3,134.57,134.42,134.492,7689,1034105.5372,48,134.455,134.47,134.455,134.57,0.0029986573176188783,0.0036416823378406585,pep,20191118
2019-11-18,09:40,09:40 AM,134.72,134.56,134.632,700,94242.5,5,134.79,134.53,134.671,7336,987942.84,60,134.56,134.72,134.56,134.79,0.004266746233030007,0.004977463359302719,pep,20191118
2019-11-18,09:41,09:41 AM,134.785,134.755,134.775,300,40432.5,3,134.81,134.73,134.759,4623,622991.6065,41,134.755,134.785,134.755,134.755,0.0053334327912875085,0.005634160174323121,pep,20191118
2019-11-18,09:42,09:42 AM,134.84,134.76,134.802,900,121321.5,6,134.86,134.74,134.802,4526,610112.22,33,134.76,134.785,134.74,134.79,0.005534835148440924,0.005955046118026342,pep,20191118
2019-11-18,09:43,09:43 AM,134.82,134.81,134.811,515,69427.8,3,134.85,134.78,134.818,4960,668695.85,17,134.81,134.815,134.78,134.8,0.005601969267492203,0.006074445538939296,pep,20191118
2019-11-18,09:44,09:44 AM,134.82,134.73,134.773,1002,135042.14,10,134.82,134.73,134.772,4280,576824.44,36,134.77,134.79,134.78,134.789,0.005318514098164955,0.005731172203814817,pep,20191118
2019-11-18,09:45,09:45 AM,134.83,134.79,134.796,1100,148275.53,7,134.844,134.76,134.795,3632,489577.15,30,134.79,134.83,134.79,134.82,0.0054900790690734745,0.0059028088713769505,pep,20191118
2019-11-18,09:46,09:46 AM,,,,0,0.0,0,134.823,134.66,134.763,7698,1037409.29,55,,,134.82,134.66,,0.005664010029551466,pep,20191118
2019-11-18,09:47,09:47 AM,134.74,134.7,134.714,400,53885.5,4,134.74,134.66,134.701,5277,710817.78,44,134.7,134.74,134.68,134.7,0.004878412651051741,0.0052013372735142446,pep,20191118
2019-11-18,09:48,09:48 AM,134.785,134.73,134.755,748,100796.54,9,134.785,134.71,134.748,3958,533333.2,37,134.73,134.785,134.71,134.785,0.005184245860062608,0.0055520730724455975,pep,20191118
2019-11-18,09:49,09:49 AM,134.775,134.72,134.749,2265,305206.855,16,134.79,134.71,134.757,10550,1421687.43,75,134.775,134.72,134.787,134.71,0.005139489780695158,0.005619235246709161,pep,20191118
2019-11-18,09:50,09:50 AM,134.87,134.69,134.778,1605,216318.2,11,134.87,134.69,134.773,18223,2455971.69,76,134.69,134.87,134.7,134.84,0.005355810830971127,0.005738634667621903,pep,20191118
2019-11-18,09:51,09:51 AM,134.865,134.865,134.865,200,26973.0,2,134.88,134.82,134.854,3054,411845.1048,29,134.865,134.865,134.83,134.875,0.006004773981799245,0.006343094235993126,pep,20191118
2019-11-18,09:52,09:52 AM,134.87,134.865,134.868,200,26973.5,2,134.89,134.84,134.865,2101,283350.76,20,134.87,134.865,134.87,134.87,0.006027152021482864,0.006425181337870649,pep,20191118
2019-11-18,09:53,09:53 AM,134.91,134.885,134.898,526,70956.4,6,134.92,134.86,134.892,6803,917668.71,48,134.895,134.91,134.87,134.92,0.006250932418320109,0.006626667860660915,pep,20191118
2019-11-18,09:54,09:54 AM,134.915,134.9,134.909,500,67454.5,5,134.93,134.88,134.907,7321,987655.3981,61,134.9,134.915,134.92,134.9,0.006332985230493731,0.006738604817766784,pep,20191118
2019-11-18,09:55,09:55 AM,134.92,134.92,134.92,100,13492.0,1,134.93,134.88,134.906,4389,592104.18,38,134.92,134.92,134.89,134.89,0.006415038042667352,0.006731142353959697,pep,20191118
2019-11-18,09:56,09:56 AM,134.93,134.9,134.91,400,53964.0,4,134.95,134.88,134.903,3653,492802.09,34,134.9,134.93,134.9,134.95,0.006340444577055008,0.006708754962538439,pep,20191118
2019-11-18,09:57,09:57 AM,134.96,134.96,134.96,100,13496.0,1,134.97,134.92,134.939,4501,607361.98,42,134.96,134.96,134.95,134.96,0.006713411905117154,0.006977403659592268,pep,20191118
2019-11-18,09:58,09:58 AM,134.955,134.92,134.935,300,40480.5,3,134.955,134.91,134.935,4293,579277.49,38,134.955,134.92,134.955,134.955,0.00652692824108608,0.006947553804364136,pep,20191118
2019-11-18,09:59,09:59 AM,134.92,134.915,134.917,1400,188884.5,3,134.97,134.91,134.933,6259,844545.25,43,134.92,134.915,134.93,134.915,0.006392660002983734,0.006932628876749963,pep,20191118
2019-11-18,10:00,10 AM,135.0,134.925,134.95,1000,134949.915,9,135.0,134.9,134.944,5706,769988.0014,50,134.925,135.0,134.908,134.95,0.006638818439504597,0.007014715978627488,pep,20191118
2019-11-18,10:01,10:01 AM,134.985,134.95,134.973,300,40492.0,3,134.985,134.94,134.956,2200,296903.5,21,134.985,134.95,134.97,134.94,0.006810383410413329,0.007104265544312097,pep,20191118
2019-11-18,10:02,10:02 AM,135.04,135.02,135.035,600,81021.0,4,135.065,134.96,135.016,5636,760948.1834,36,135.02,135.04,134.96,135.04,0.007272862897210162,0.007552013372735146,pep,20191118
2019-11-18,10:03,10:03 AM,135.08,135.015,135.046,700,94532.0,6,135.086,135.01,135.044,5664,764890.1186,51,135.04,135.015,135.04,135.01,0.0073549157093837835,0.007760962359332711,pep,20191118
2019-11-18,10:04,10:04 AM,135.0,134.92,134.924,143,19294.13,3,135.01,134.92,134.952,8000,1079614.4,39,135.0,134.92,135.01,134.92,0.0064448754289124595,0.007074415689083964,pep,20191118
2019-11-18,10:05,10:05 AM,134.92,134.89,134.92,156,21047.49,3,134.92,134.86,134.888,3350,451876.745,32,134.92,134.89,134.91,134.86,0.006415038042667352,0.006596818005432783,pep,20191118
2019-11-18,10:06,10:06 AM,134.89,134.865,134.88,351,47342.89,5,134.9,134.85,134.872,3700,499027.4,33,134.89,134.89,134.85,134.9,0.006116664180217762,0.00647741858452004,pep,20191118
2019-11-18,10:07,10:07 AM,134.9,134.9,134.9,200,26980.0,1,134.92,134.89,134.902,2897,390811.6147,21,134.9,134.9,134.9,134.92,0.006265851111442663,0.006701292498731352,pep,20191118
2019-11-18,10:08,10:08 AM,134.96,134.92,134.95,1197,161535.24,6,134.96,134.91,134.945,11824,1595584.32,34,134.935,134.955,134.92,134.955,0.006638818439504597,0.007022178442434573,pep,20191118
2019-11-18,10:09,10:09 AM,134.94,134.925,134.934,800,107947.0,8,134.952,134.88,134.929,6256,844115.1218,45,134.935,134.93,134.95,134.94,0.006519468894524804,0.006902779021521831,pep,20191118
2019-11-18,10:10,10:10 AM,134.94,134.885,134.896,1600,215833.0,8,134.94,134.87,134.909,11878,1602443.78,99,134.94,134.885,134.93,134.87,0.006236013725197556,0.0067535297453807435,pep,20191118
2019-11-18,10:11,10:11 AM,134.9,134.83,134.855,2415,325675.93,13,134.907,134.8,134.864,9639,1299958.496,67,134.86,134.83,134.88,134.8,0.005930180516186689,0.006417718874063563,pep,20191118
2019-11-18,10:12,10:12 AM,134.78,134.76,134.77,2500,336925.0,7,134.78,134.748,134.763,6885,927847.3775,45,134.77,134.76,134.78,134.748,0.005296136058481336,0.005664010029551466,pep,20191118
2019-11-18,10:13,10:13 AM,134.8,134.735,134.744,756,101866.295,7,134.815,134.725,134.762,3709,499834.335,34,134.735,134.8,134.74,134.8,0.005102193047888986,0.00565654756574438,pep,20191118
2019-11-18,10:14,10:14 AM,134.8,134.79,134.798,572,77104.6,4,134.815,134.79,134.798,3000,404395.36,20,134.8,134.8,134.8,134.815,0.005504997762196028,0.005925196262798209,pep,20191118
2019-11-18,10:15,10:15 AM,134.87,134.85,134.851,428,57716.36,3,134.86,134.81,134.833,2926,394520.64,19,134.87,134.85,134.83,134.85,0.005900343129941793,0.006186382496044952,pep,20191118
2019-11-18,10:16,10:16 AM,134.91,134.86,134.88,700,94416.0,7,134.92,134.85,134.883,6043,815098.193,53,134.91,134.86,134.85,134.87,0.006116664180217762,0.006559505686397564,pep,20191118
2019-11-18,10:17,10:17 AM,134.89,134.89,134.89,100,13489.0,1,134.93,134.86,134.896,3300,445156.5,31,134.89,134.89,134.87,134.93,0.006191257645830107,0.0066565177158890475,pep,20191118
2019-11-18,10:18,10:18 AM,134.98,134.965,134.974,400,53989.5,3,134.99,134.95,134.971,4701,634496.83,41,134.965,134.98,134.95,134.99,0.006817842756974394,0.007216202501417965,pep,20191118
2019-11-18,10:19,10:19 AM,134.97,134.96,134.965,200,26993.0,2,135.005,134.95,134.974,3700,499405.35,32,134.96,134.97,134.97,134.99,0.006750708637923326,0.007238589892839012,pep,20191118
2019-11-18,10:20,10:20 AM,135.05,135.05,135.05,200,27010.0,1,135.06,135.03,135.046,1700,229579.0,15,135.05,135.05,135.04,135.06,0.00738475309562889,0.007775887286946671,pep,20191118
2019-11-18,10:21,10:21 AM,135.12,135.08,135.106,700,94574.0,8,135.14,135.07,135.11,6041,816199.23,51,135.105,135.11,135.1,135.11,0.007802476503058274,0.008253484970598064,pep,20191118
2019-11-18,10:22,10:22 AM,135.07,135.005,135.045,300,40513.5,3,135.1,135.0,135.042,4999,675076.61,38,135.06,135.005,135.1,135.035,0.007347456362822506,0.007746037431718538,pep,20191118
2019-11-18,10:23,10:23 AM,135.02,135.02,135.02,72,9721.44,1,135.055,135.02,135.03,642,86689.4446,6,135.02,135.02,135.055,135.025,0.007160972698791645,0.007656487866033929,pep,20191118
2019-11-18,10:24,10:24 AM,,,,0,0.0,0,135.025,135.0,135.014,2000,270027.5,18,,,135.01,135.01,,0.0075370884451211855,pep,20191118
2019-11-18,10:25,10:25 AM,135.0,134.99,134.997,244,32939.28,4,135.021,134.99,135.003,1900,256506.56,18,135.0,134.99,135.0,134.99,0.006989407727883126,0.00745500134324345,pep,20191118
2019-11-18,10:26,10:26 AM,134.98,134.98,134.98,200,26996.0,1,134.99,134.97,134.983,1840,248368.7396,13,134.98,134.98,134.988,134.98,0.006862598836341843,0.007305752067102575,pep,20191118
2019-11-18,10:27,10:27 AM,134.995,134.98,134.988,300,40496.5,3,134.998,134.98,134.987,2700,364466.08,25,134.99,134.995,134.99,134.98,0.006922273608831846,0.007335601922330708,pep,20191118
2019-11-18,10:28,10:28 AM,135.01,135.01,135.01,5,675.05,1,135.02,134.97,134.992,3933,530924.43,36,135.01,135.01,134.99,134.975,0.007086379233179088,0.007372914241365927,pep,20191118
2019-11-18,10:29,10:29 AM,135.035,134.99,134.996,204,27539.14,3,135.05,134.97,135.002,2992,403926.7164,20,134.99,135.035,134.97,135.05,0.006981948381321849,0.007447538879436576,pep,20191118
2019-11-18,10:30,10:30 AM,135.07,135.03,135.05,200,27010.0,2,135.08,135.03,135.054,2087,281857.18,19,135.03,135.07,135.04,135.07,0.00738475309562889,0.007835586997403148,pep,20191118
2019-11-18,10:31,10:31 AM,135.135,135.11,135.118,1100,148630.0,10,135.135,135.09,135.114,5384,727453.28,45,135.12,135.13,135.1,135.13,0.007891988661793173,0.008283334825826197,pep,20191118
2019-11-18,10:32,10:32 AM,135.165,135.16,135.162,200,27032.5,2,135.17,135.11,135.139,5395,729077.9956,33,135.165,135.16,135.11,135.162,0.00822019991048787,0.008469896421002503,pep,20191118
2019-11-18,10:33,10:33 AM,135.18,135.14,135.159,600,81095.605,7,135.19,135.105,135.161,5133,693784.27,42,135.18,135.14,135.18,135.14,0.00819782187080404,0.00863407062475755,pep,20191118
2019-11-18,10:34,10:34 AM,135.18,135.175,135.178,200,27035.5,2,135.18,135.11,135.143,3830,517596.8,35,135.175,135.18,135.14,135.11,0.008339549455467664,0.008499746276230636,pep,20191118
2019-11-18,10:35,10:35 AM,135.145,135.145,135.145,100,13514.5,1,135.15,135.11,135.134,3790,512157.3744,33,135.145,135.145,135.11,135.14,0.008093391018946799,0.008432584101967072,pep,20191118
2019-11-18,10:36,10:36 AM,135.145,135.125,135.135,200,27027.0,2,135.2,135.105,135.157,9820,1327240.88,83,135.125,135.145,135.14,135.17,0.008018797553334242,0.008604220769529417,pep,20191118
2019-11-18,10:37,10:37 AM,135.165,135.165,135.165,300,40549.5,3,135.19,135.13,135.154,6092,823357.7402,55,135.165,135.165,135.165,135.19,0.00824257795017149,0.00858183337810816,pep,20191118
2019-11-18,10:38,10:38 AM,135.22,135.22,135.22,100,13522.0,1,135.22,135.16,135.202,3000,405606.8,25,135.22,135.22,135.19,135.16,0.008652842011039807,0.008940031640846599,pep,20191118
2019-11-18,10:39,10:39 AM,135.19,135.125,135.148,304,41085.08,4,135.19,135.125,135.154,3842,519260.47,27,135.145,135.19,135.15,135.184,0.008115769058630418,0.00858183337810816,pep,20191118
2019-11-18,10:40,10:40 AM,135.22,135.21,135.21,102,13791.44,2,135.22,135.17,135.198,1700,229837.0,17,135.21,135.22,135.17,135.22,0.008578248545427462,0.008910181785618466,pep,20191118
2019-11-18,10:41,10:41 AM,135.25,135.25,135.25,100,13525.0,1,135.25,135.22,135.231,2679,362285.015,19,135.25,135.25,135.23,135.22,0.008876622407877052,0.009156443091251036,pep,20191118
2019-11-18,10:42,10:42 AM,135.225,135.16,135.198,500,67599.0,5,135.235,135.15,135.208,7699,1040963.0,59,135.22,135.16,135.225,135.16,0.008488736386692565,0.008984806423688903,pep,20191118
2019-11-18,10:43,10:43 AM,,,,0,0.0,0,135.17,135.15,135.157,1200,162188.0,11,,,135.16,135.16,,0.008604220769529417,pep,20191118
2019-11-18,10:44,10:44 AM,135.25,135.235,135.24,300,40572.0,2,135.25,135.17,135.226,1600,216362.0,14,135.25,135.235,135.17,135.24,0.008802028942264709,0.009119130772215819,pep,20191118
2019-11-18,10:45,10:45 AM,,,,0,0.0,0,135.24,135.2,135.228,4000,540910.62,35,,,135.24,135.22,,0.009134055699829991,pep,20191118
2019-11-18,10:46,10:46 AM,135.25,135.25,135.25,100,13525.0,1,135.27,135.206,135.239,3600,486859.64,34,135.25,135.25,135.206,135.25,0.008876622407877052,0.009216142801707515,pep,20191118
2019-11-18,10:47,10:47 AM,135.295,135.26,135.266,204,27594.18,3,135.31,135.24,135.269,4686,633868.77,42,135.26,135.27,135.24,135.27,0.008995971952856846,0.009440016715919038,pep,20191118
2019-11-18,10:48,10:48 AM,135.25,135.25,135.25,100,13525.0,1,135.275,135.225,135.249,7995,1081312.68,59,135.25,135.25,135.275,135.27,0.008876622407877052,0.009290767439777952,pep,20191118
2019-11-18,10:49,10:49 AM,135.355,135.305,135.331,400,54132.5,4,135.365,135.26,135.317,3758,508521.7727,25,135.31,135.355,135.26,135.365,0.00948082947933751,0.009798214978657478,pep,20191118
2019-11-18,10:50,10:50 AM,135.39,135.39,135.39,100,13539.0,1,135.41,135.37,135.395,3869,523842.56,33,135.39,135.39,135.38,135.4,0.009920930926450725,0.010380287155607442,pep,20191118
2019-11-18,10:51,10:51 AM,135.4,135.39,135.397,300,40619.0,4,135.47,135.39,135.433,6409,867993.0078,38,135.395,135.39,135.398,135.47,0.00997314635237945,0.010663860780275232,pep,20191118
2019-11-18,10:52,10:52 AM,135.47,135.46,135.463,300,40639.0,3,135.475,135.46,135.465,4059,549854.55,31,135.46,135.47,135.46,135.475,0.01046546322542139,0.010902659622100928,pep,20191118
2019-11-18,10:53,10:53 AM,135.47,135.425,135.444,400,54177.5,4,135.47,135.425,135.445,5099,690636.5955,47,135.47,135.425,135.47,135.43,0.010323735640757767,0.010753410345959842,pep,20191118
2019-11-18,10:54,10:54 AM,135.43,135.405,135.413,304,41165.66,3,135.48,135.405,135.435,3800,514653.4,30,135.43,135.405,135.43,135.46,0.010092495897359456,0.010678785707889405,pep,20191118
2019-11-18,10:55,10:55 AM,135.47,135.44,135.445,306,41446.32,3,135.48,135.43,135.45,2436,329956.58,23,135.47,135.44,135.48,135.45,0.010331194987319043,0.01079072266499506,pep,20191118
2019-11-18,10:56,10:56 AM,135.455,135.43,135.445,500,67722.5,5,135.47,135.42,135.444,4151,562227.42,31,135.45,135.44,135.45,135.47,0.010331194987319043,0.010745947882152756,pep,20191118
2019-11-18,10:57,10:57 AM,135.48,135.43,135.432,104,14084.92,2,135.474,135.43,135.451,1658,224577.9878,14,135.48,135.43,135.465,135.44,0.010234223482022868,0.010798185128802146,pep,20191118
2019-11-18,10:58,10:58 AM,135.49,135.48,135.485,200,27097.0,2,135.49,135.43,135.468,3748,507733.42,28,135.49,135.48,135.44,135.479,0.010629568849768845,0.010925047013521975,pep,20191118
2019-11-18,10:59,10:59 AM,135.52,135.485,135.5,400,54200.0,4,135.52,135.48,135.498,4500,609742.0,39,135.485,135.495,135.48,135.49,0.010741459048187362,0.011148920927733499,pep,20191118
2019-11-18,11:00,11 AM,135.53,135.51,135.519,395,53530.09,4,135.55,135.5,135.523,2360,319835.3,20,135.515,135.51,135.5,135.55,0.010883186632850986,0.011335482522909805,pep,20191118
2019-11-18,11:01,11:01 AM,135.54,135.51,135.523,375,50821.0,3,135.55,135.49,135.521,5233,709183.4392,41,135.535,135.51,135.535,135.5,0.010913024019095881,0.011320557595295632,pep,20191118
2019-11-18,11:02,11:02 AM,135.48,135.47,135.47,105,14224.4,2,135.508,135.37,135.466,2951,399760.97,18,135.48,135.47,135.508,135.37,0.010517678651350115,0.010910122085908015,pep,20191118
2019-11-18,11:03,11:03 AM,,,,0,0.0,0,135.38,135.35,135.366,2256,305385.88,20,,,135.38,135.35,,0.010163875705203003,pep,20191118
2019-11-18,11:04,11:04 AM,135.35,135.32,135.33,203,27472.05,4,135.35,135.31,135.329,1700,230059.22,17,135.35,135.32,135.35,135.322,0.009473370132776444,0.009887764544342087,pep,20191118
2019-11-18,11:05,11:05 AM,135.34,135.34,135.34,2,270.68,1,135.34,135.31,135.327,3154,426819.82,26,135.34,135.34,135.32,135.33,0.00954796359838879,0.009872839616727915,pep,20191118
2019-11-18,11:06,11:06 AM,135.34,135.34,135.34,100,13534.0,2,135.35,135.32,135.335,3493,472727.001,28,135.34,135.34,135.34,135.32,0.00954796359838879,0.009932539327184393,pep,20191118
2019-11-18,11:07,11:07 AM,135.31,135.31,135.31,99,13395.69,1,135.33,135.29,135.316,2292,310145.2625,16,135.31,135.31,135.33,135.32,0.009324183201551544,0.009790752514850391,pep,20191118
2019-11-18,11:08,11:08 AM,135.31,135.31,135.31,100,13531.0,1,135.33,135.3,135.315,2784,376715.744,15,135.31,135.31,135.31,135.33,0.009324183201551544,0.009783290051043305,pep,20191118
2019-11-18,11:09,11:09 AM,135.33,135.33,135.33,95,12856.35,1,135.37,135.33,135.343,2800,378961.0,25,135.33,135.33,135.33,135.37,0.009473370132776444,0.009992239037640658,pep,20191118
2019-11-18,11:10,11:10 AM,135.53,135.48,135.51,1000,135510.0,6,135.53,135.37,135.481,11348,1537444.0184,87,135.485,135.48,135.37,135.48,0.010816052513799706,0.011022059043013671,pep,20191118
2019-11-18,11:11,11:11 AM,135.43,135.405,135.418,300,40625.5,3,135.48,135.4,135.439,4314,584283.142,38,135.43,135.42,135.48,135.402,0.010129792630165628,0.010708635563117536,pep,20191118
2019-11-18,11:12,11:12 AM,,,,0,0.0,0,135.44,135.42,135.431,1223,165631.7592,12,,,135.44,135.43,,0.010648935852661271,pep,20191118
2019-11-18,11:13,11:13 AM,,,,0,0.0,0,135.4,135.32,135.357,4597,622237.182,43,,,135.4,135.33,,0.01009671353093944,pep,20191118
2019-11-18,11:14,11:14 AM,135.33,135.29,135.32,400,54128.0,2,135.345,135.27,135.297,6886,931653.5547,57,135.33,135.29,135.34,135.27,0.009398776667163888,0.009648965702516391,pep,20191118
2019-11-18,11:15,11:15 AM,135.29,135.27,135.279,375,50729.74,6,135.3,135.27,135.285,2100,284099.0,20,135.28,135.27,135.28,135.27,0.009092943458153022,0.009559416136831781,pep,20191118
2019-11-18,11:16,11:16 AM,135.27,135.27,135.27,100,13527.0,1,135.29,135.25,135.264,3297,445966.72,26,135.27,135.27,135.25,135.29,0.009025809339101954,0.00940270439688382,pep,20191118
2019-11-18,11:17,11:17 AM,,,,0,0.0,0,135.38,135.317,135.346,1283,173648.9,11,,,135.317,135.36,,0.010014626429061917,pep,20191118
2019-11-18,11:18,11:18 AM,135.395,135.355,135.372,2700,365504.5,8,135.4,135.355,135.378,6514,881853.1005,30,135.355,135.395,135.36,135.395,0.009786662688348588,0.010253425270887401,pep,20191118
2019-11-18,11:19,11:19 AM,135.55,135.42,135.482,1657,224493.65,17,135.57,135.4,135.48,21376,2896014.31,127,135.42,135.525,135.41,135.57,0.010607190810085014,0.011014596579206585,pep,20191118
2019-11-18,11:20,11:20 AM,135.67,135.565,135.618,2102,285069.68,15,135.68,135.56,135.627,14986,2032511.1976,79,135.59,135.645,135.59,135.645,0.01162166194241379,0.012111578758843161,pep,20191118
2019-11-18,11:21,11:21 AM,135.645,135.615,135.625,410,55606.4,5,135.69,135.615,135.649,6639,900573.75,58,135.645,135.615,135.67,135.63,0.011673877368342515,0.012275752962598209,pep,20191118
2019-11-18,11:22,11:22 AM,135.625,135.61,135.618,548,74318.76,6,135.63,135.6,135.615,10696,1450536.318,50,135.62,135.61,135.63,135.61,0.01162166194241379,0.012022029193158552,pep,20191118
2019-11-18,11:23,11:23 AM,135.595,135.59,135.595,550,74577.0,6,135.62,135.575,135.595,9707,1316219.1646,49,135.59,135.595,135.605,135.595,0.01145009697150527,0.011872779917017464,pep,20191118
2019-11-18,11:24,11:24 AM,135.63,135.595,135.615,1750,237327.0,10,135.65,135.595,135.625,18517,2511367.8,78,135.595,135.62,135.595,135.64,0.011599283902730172,0.012096653831228989,pep,20191118
2019-11-18,11:25,11:25 AM,135.635,135.61,135.626,600,81375.5,5,135.65,135.61,135.637,13416,1819713.5044,37,135.635,135.61,135.64,135.64,0.011681336714903793,0.012186203396913599,pep,20191118
2019-11-18,11:26,11:26 AM,135.66,135.615,135.634,516,69987.06,4,135.69,135.58,135.625,11319,1535136.74,54,135.66,135.615,135.638,135.6,0.011741011487393583,0.012096653831228989,pep,20191118
2019-11-18,11:27,11:27 AM,135.59,135.5,135.529,1400,189740.425,6,135.598,135.49,135.539,9473,1283959.7032,51,135.59,135.5,135.59,135.49,0.01095778009846333,0.011454881943822548,pep,20191118
2019-11-18,11:28,11:28 AM,135.52,135.485,135.502,200,27100.5,2,135.52,135.48,135.496,4182,566643.616,37,135.485,135.52,135.49,135.48,0.010756377741309915,0.01113399600011954,pep,20191118
2019-11-18,11:29,11:29 AM,135.465,135.43,135.447,700,94813.0,5,135.5,135.42,135.451,6114,828144.5462,34,135.465,135.45,135.5,135.446,0.010346113680441596,0.010798185128802146,pep,20191118
2019-11-18,11:30,11:30 AM,135.415,135.415,135.415,200,27083.0,2,135.45,135.38,135.407,6145,832075.59,44,135.415,135.415,135.45,135.39,0.010107414590481797,0.010469836721292052,pep,20191118
2019-11-18,11:31,11:31 AM,135.395,135.395,135.395,100,13539.5,1,135.41,135.37,135.394,10769,1458061.59,49,135.395,135.395,135.38,135.37,0.009958227659257109,0.010372824691800356,pep,20191118
2019-11-18,11:32,11:32 AM,135.385,135.32,135.369,405,54824.325,3,135.39,135.31,135.351,5923,801685.21,40,135.385,135.32,135.385,135.32,0.009764284648664759,0.010051938748097134,pep,20191118
2019-11-18,11:33,11:33 AM,135.28,135.28,135.28,100,13528.0,1,135.31,135.27,135.288,3542,479190.6304,27,135.28,135.28,135.31,135.29,0.0091004028047143,0.00958180352825304,pep,20191118
2019-11-18,11:34,11:34 AM,135.29,135.27,135.275,601,81300.29,4,135.29,135.26,135.279,4359,589680.203,35,135.29,135.27,135.29,135.29,0.009063106071908127,0.009514641353989476,pep,20191118
2019-11-18,11:35,11:35 AM,135.33,135.33,135.33,700,94731.0,3,135.345,135.3,135.314,5534,748825.22,31,135.33,135.33,135.3,135.345,0.009473370132776444,0.009775827587236219,pep,20191118
2019-11-18,11:36,11:36 AM,135.36,135.33,135.352,1705,230775.7,8,135.365,135.32,135.341,6193,838166.9804,40,135.36,135.33,135.35,135.33,0.009637475757123688,0.009977314110026697,pep,20191118
2019-11-18,11:37,11:37 AM,,,,0,0.0,0,135.36,135.33,135.337,3150,426312.535,23,,,135.34,135.33,,0.009947464254798354,pep,20191118
2019-11-18,11:38,11:38 AM,135.32,135.295,135.319,106,14343.77,2,135.335,135.29,135.322,2208,298790.14,20,135.32,135.295,135.33,135.29,0.009391317320602612,0.009835527297692697,pep,20191118
2019-11-18,11:39,11:39 AM,135.28,135.275,135.276,100,13527.605,2,135.295,135.27,135.286,1196,161801.97,10,135.28,135.275,135.27,135.295,0.009070565418469402,0.009566878600638868,pep,20191118
2019-11-18,11:40,11:40 AM,135.28,135.28,135.28,800,108224.0,1,135.32,135.26,135.288,4500,608797.0,35,135.28,135.28,135.26,135.28,0.0091004028047143,0.00958180352825304,pep,20191118
2019-11-18,11:41,11:41 AM,135.25,135.21,135.232,244,32996.675,4,135.26,135.154,135.199,3500,473195.64,29,135.25,135.21,135.26,135.154,0.008742354169774706,0.008917644249425552,pep,20191118
2019-11-18,11:42,11:42 AM,,,,0,0.0,0,135.21,135.16,135.185,3282,443675.81,28,,,135.16,135.2,,0.00881316975612677,pep,20191118
2019-11-18,11:43,11:43 AM,135.2,135.18,135.187,300,40555.98,4,135.21,135.18,135.193,2500,337983.1,20,135.2,135.18,135.2,135.18,0.008406683574518943,0.008872869466583248,pep,20191118
2019-11-18,11:44,11:44 AM,135.185,135.15,135.174,1000,135174.01,9,135.19,135.135,135.183,25609,3461907.603,65,135.175,135.15,135.185,135.135,0.008309712069222768,0.008798244828512597,pep,20191118
2019-11-18,11:45,11:45 AM,135.12,135.12,135.12,200,27024.0,2,135.16,135.11,135.134,7142,965129.9355,55,135.12,135.12,135.13,135.16,0.007906907354915726,0.008432584101967072,pep,20191118
2019-11-18,11:46,11:46 AM,135.19,135.18,135.18,142,19195.61,3,135.27,135.15,135.196,4755,642856.3,38,135.18,135.19,135.16,135.27,0.008354468148590217,0.008895256858004293,pep,20191118
2019-11-18,11:47,11:47 AM,135.23,135.23,135.23,100,13523.0,2,135.28,135.2,135.256,2611,353154.36,25,135.23,135.23,135.28,135.2,0.008727435476652152,0.009343004686427342,pep,20191118
2019-11-18,11:48,11:48 AM,,,,0,0.0,0,135.29,135.2,135.254,5583,755124.25,42,,,135.2,135.28,,0.00932807975881317,pep,20191118
2019-11-18,11:49,11:49 AM,,,,0,0.0,0,135.32,135.275,135.294,3234,437541.36,25,,,135.29,135.3,,0.009626578311095344,pep,20191118
2019-11-18,11:50,11:50 AM,135.3,135.3,135.3,30,4059.0,1,135.29,135.28,135.285,2301,311291.0265,20,135.3,135.3,135.29,135.28,0.0092495897359392,0.009559416136831781,pep,20191118
2019-11-18,11:51,11:51 AM,135.3,135.3,135.3,7,947.1,1,135.34,135.29,135.31,2472,334486.56,16,135.3,135.3,135.3,135.34,0.0092495897359392,0.009745977732008087,pep,20191118
2019-11-18,11:52,11:52 AM,135.33,135.33,135.33,600,81198.0,2,135.34,135.32,135.33,3152,426559.75,22,135.33,135.33,135.33,135.33,0.009473370132776444,0.009895227008149174,pep,20191118
2019-11-18,11:53,11:53 AM,135.32,135.32,135.32,101,13667.32,2,135.33,135.285,135.306,3987,539465.4001,34,135.32,135.32,135.33,135.31,0.009398776667163888,0.009716127876779954,pep,20191118
2019-11-18,11:54,11:54 AM,,,,0,0.0,0,135.4,135.32,135.372,4948,669820.5712,29,,,135.32,135.376,,0.010208650488045309,pep,20191118
2019-11-18,11:55,11:55 AM,135.39,135.38,135.39,102,13809.76,2,135.42,135.37,135.397,7566,1024416.645,38,135.38,135.39,135.38,135.39,0.009920930926450725,0.010395212083221403,pep,20191118
2019-11-18,11:56,11:56 AM,135.39,135.39,135.39,100,13539.0,1,135.4,135.36,135.388,4651,629689.39,28,135.39,135.39,135.39,135.36,0.009920930926450725,0.01032804990895805,pep,20191118
2019-11-18,11:57,11:57 AM,,,,0,0.0,0,135.38,135.26,135.333,1900,257132.46,18,,,135.38,135.26,,0.00991761439957022,pep,20191118
2019-11-18,11:58,11:58 AM,135.31,135.31,135.31,2,270.62,1,135.32,135.268,135.295,3050,412650.17,29,135.31,135.31,135.268,135.3,0.009324183201551544,0.009634040774902219,pep,20191118
2019-11-18,11:59,11:59 AM,135.28,135.28,135.28,1,135.28,1,135.305,135.26,135.275,1500,202912.24,13,135.28,135.28,135.305,135.265,0.0091004028047143,0.009484791498761344,pep,20191118
2019-11-18,12:00,12 PM,,,,0,0.0,0,135.27,135.24,135.256,2067,279574.92,20,,,135.265,135.25,,0.009343004686427342,pep,20191118
2019-11-18,12:01,12:01 PM,135.22,135.205,135.206,106,14331.82,2,135.24,135.18,135.21,2500,338026.16,25,135.22,135.205,135.24,135.202,0.008548411159182355,0.008999731351303076,pep,20191118
2019-11-18,12:02,12:02 PM,135.23,135.21,135.21,103,13926.67,4,135.235,135.2,135.218,2500,338046.0,21,135.23,135.21,135.21,135.23,0.008578248545427462,0.00905943106175934,pep,20191118
2019-11-18,12:03,12:03 PM,,,,0,0.0,0,135.23,135.21,135.217,1000,135217.0,10,,,135.23,135.21,,0.009051968597952468,pep,20191118
2019-11-18,12:04,12:04 PM,,,,0,0.0,0,135.24,135.205,135.216,2201,297610.21,15,,,135.21,135.23,,0.009044506134145381,pep,20191118
2019-11-18,12:05,12:05 PM,135.265,135.265,135.265,100,13526.5,2,135.27,135.25,135.26,3190,431478.053,29,135.265,135.265,135.25,135.26,0.00898851260629557,0.009372854541655476,pep,20191118
2019-11-18,12:06,12:06 PM,,,,0,0.0,0,135.27,135.24,135.257,1909,258206.021,13,,,135.26,135.24,,0.009350467150234429,pep,20191118
2019-11-18,12:07,12:07 PM,135.26,135.26,135.26,100,13526.0,1,135.26,135.24,135.253,1984,268341.59,19,135.26,135.26,135.24,135.25,0.008951215873489397,0.009320617295006084,pep,20191118
2019-11-18,12:08,12:08 PM,135.26,135.24,135.24,103,13929.76,3,135.265,135.24,135.253,2341,316627.635,22,135.26,135.24,135.26,135.259,0.008802028942264709,0.009320617295006084,pep,20191118
2019-11-18,12:09,12:09 PM,135.27,135.25,135.267,121,16367.25,2,135.28,135.26,135.267,2288,309490.1001,21,135.27,135.25,135.27,135.265,0.009003431299418123,0.009425091788304866,pep,20191118
2019-11-18,12:10,12:10 PM,135.24,135.24,135.24,300,40572.0,4,135.26,135.23,135.242,2435,329314.31,22,135.24,135.24,135.26,135.24,0.008802028942264709,0.00923853019312856,pep,20191118
2019-11-18,12:11,12:11 PM,,,,0,0.0,0,135.24,135.19,135.206,1673,226200.0724,16,,,135.24,135.19,,0.00896988149607473,pep,20191118
2019-11-18,12:12,12:12 PM,135.25,135.25,135.25,100,13525.0,3,135.26,135.19,135.235,5676,767595.49,53,135.25,135.25,135.19,135.25,0.008876622407877052,0.009186292946479381,pep,20191118
2019-11-18,12:13,12:13 PM,135.22,135.22,135.22,200,27044.0,2,135.25,135.19,135.233,4102,554726.49,31,135.22,135.22,135.24,135.19,0.008652842011039807,0.009171368018865209,pep,20191118
2019-11-18,12:14,12:14 PM,135.23,135.23,135.23,100,13523.0,1,135.24,135.19,135.213,1507,203765.8454,14,135.23,135.23,135.19,135.22,0.008727435476652152,0.009022118742724123,pep,20191118
2019-11-18,12:15,12:15 PM,135.245,135.24,135.245,96,12983.515,2,135.25,135.22,135.241,3514,475236.0696,31,135.24,135.245,135.24,135.22,0.008839325675070881,0.009231067729321687,pep,20191118
2019-11-18,12:16,12:16 PM,135.21,135.21,135.21,100,13521.0,1,135.22,135.185,135.198,5227,706679.323,29,135.21,135.21,135.21,135.185,0.008578248545427462,0.008910181785618466,pep,20191118
2019-11-18,12:17,12:17 PM,135.185,135.17,135.175,304,41093.18,3,135.19,135.16,135.172,3253,439714.4718,22,135.185,135.17,135.19,135.18,0.008317171415784044,0.008716157726635074,pep,20191118
2019-11-18,12:18,12:18 PM,135.26,135.25,135.255,188,25427.88,2,135.27,135.19,135.238,3004,406256.5,29,135.25,135.26,135.19,135.27,0.008913919140683225,0.009208680337900428,pep,20191118
2019-11-18,12:19,12:19 PM,,,,0,0.0,0,135.27,135.26,135.266,1700,229952.0,17,,,135.27,135.27,,0.00941762932449778,pep,20191118
2019-11-18,12:20,12:20 PM,135.25,135.25,135.25,15,2028.75,1,135.27,135.255,135.265,500,67632.5,5,135.25,135.25,135.27,135.255,0.008876622407877052,0.009410166860690693,pep,20191118
2019-11-18,12:21,12:21 PM,135.25,135.25,135.25,186,25156.5,3,135.255,135.24,135.245,2744,371112.15,18,135.25,135.25,135.255,135.24,0.008876622407877052,0.009260917584549819,pep,20191118
2019-11-18,12:22,12:22 PM,,,,0,0.0,0,135.26,135.225,135.235,2218,299952.14,22,,,135.23,135.26,,0.009186292946479381,pep,20191118
2019-11-18,12:23,12:23 PM,135.25,135.22,135.235,200,27047.0,2,135.25,135.22,135.231,17387,2351252.94,20,135.25,135.22,135.25,135.22,0.008764732209458536,0.009156443091251036,pep,20191118
2019-11-18,12:24,12:24 PM,135.205,135.16,135.195,128,17304.98,2,135.21,135.14,135.164,1300,175713.5,12,135.205,135.16,135.21,135.15,0.008466358347008734,0.008656458016178597,pep,20191118
2019-11-18,12:25,12:25 PM,,,,0,0.0,0,135.15,135.11,135.127,2969,401192.2828,28,,,135.14,135.11,,0.008380346855317893,pep,20191118
2019-11-18,12:26,12:26 PM,135.11,135.08,135.093,24,3242.24,4,135.11,135.09,135.105,1735,234407.1736,13,135.1,135.08,135.1,135.09,0.007705504997762099,0.008216172651562634,pep,20191118
2019-11-18,12:27,12:27 PM,135.09,135.06,135.073,241,32552.64,6,135.09,135.07,135.084,1683,227345.7929,13,135.08,135.06,135.086,135.07,0.00755631806653741,0.008059460911614672,pep,20191118
2019-11-18,12:28,12:28 PM,135.08,135.08,135.08,100,13508.0,1,135.09,135.05,135.073,3289,444255.1981,28,135.08,135.08,135.06,135.05,0.007608533492466136,0.007977373809737148,pep,20191118
2019-11-18,12:29,12:29 PM,135.005,134.99,134.996,242,32669.08,3,135.02,134.99,135.01,4340,585942.85,37,135.005,134.99,135.01,135.02,0.006981948381321849,0.0075072385898928415,pep,20191118
2019-11-18,12:30,12:30 PM,135.035,135.03,135.034,588,79400.14,6,135.04,134.99,135.026,3630,490146.486,22,135.035,135.03,135.026,134.99,0.007265403550648885,0.007626638010805795,pep,20191118
2019-11-18,12:31,12:31 PM,,,,0,0.0,0,135.02,134.92,134.977,6908,932418.7097,34,,,135.0,134.96,,0.00726097728426027,pep,20191118
2019-11-18,12:32,12:32 PM,134.93,134.93,134.93,1,134.93,1,134.95,134.91,134.935,2200,296857.2,17,134.93,134.93,134.945,134.91,0.006489631508279909,0.006947553804364136,pep,20191118
2019-11-18,12:33,12:33 PM,134.9,134.9,134.9,100,13490.0,1,134.94,134.9,134.92,2100,283333.0,20,134.9,134.9,134.9,134.94,0.006265851111442663,0.006835616847258267,pep,20191118
2019-11-18,12:34,12:34 PM,134.97,134.97,134.97,100,13497.0,1,134.99,134.94,134.96,1599,215800.51,13,134.97,134.97,134.94,134.97,0.006788005370729499,0.007134115399540441,pep,20191118
2019-11-18,12:35,12:35 PM,134.955,134.945,134.951,38,5128.145,3,134.963,134.93,134.95,2845,383931.5,25,134.955,134.95,134.963,134.93,0.006646277786065875,0.0070594907614697925,pep,20191118
2019-11-18,12:36,12:36 PM,134.94,134.91,134.925,200,26985.0,2,134.94,134.9,134.912,2241,302338.72,22,134.94,134.91,134.94,134.91,0.006452334775473736,0.006775917136802002,pep,20191118
2019-11-18,12:37,12:37 PM,134.95,134.94,134.942,513,69225.35,2,134.95,134.93,134.94,1213,163682.35,9,134.94,134.95,134.93,134.95,0.006579143667014807,0.006984866123399354,pep,20191118
2019-11-18,12:38,12:38 PM,134.965,134.95,134.956,228,30769.89,5,134.97,134.94,134.957,2014,271803.8,18,134.965,134.95,134.96,134.95,0.006683574518872046,0.007111728008119184,pep,20191118
2019-11-18,12:39,12:39 PM,134.95,134.95,134.95,2,269.9,2,134.97,134.95,134.958,2075,280038.625,18,134.95,134.95,134.95,134.97,0.006638818439504597,0.007119190471926269,pep,20191118
2019-11-18,12:40,12:40 PM,134.99,134.975,134.975,303,40897.47,2,135.0,134.975,134.984,1556,210035.5,13,134.975,134.99,134.975,135.0,0.006825302103535671,0.007313214530909661,pep,20191118
2019-11-18,12:41,12:41 PM,135.035,135.015,135.023,300,40507.0,3,135.045,134.995,135.02,8822,1191145.45,11,135.015,135.02,135.011,135.045,0.007183350738475263,0.00758186322796349,pep,20191118
2019-11-18,12:42,12:42 PM,135.055,135.055,135.055,90,12154.95,1,135.07,135.04,135.058,2224,300369.49,18,135.055,135.055,135.041,135.06,0.007422049828435063,0.00786543685263128,pep,20191118
2019-11-18,12:43,12:43 PM,135.06,135.06,135.06,1,135.06,1,135.08,135.056,135.064,1978,267156.8676,16,135.06,135.06,135.056,135.08,0.007459346561241235,0.007910211635473586,pep,20191118
2019-11-18,12:44,12:44 PM,135.075,135.075,135.075,85,11481.375,1,135.085,135.06,135.075,3749,506397.555,20,135.075,135.075,135.08,135.071,0.007571236759659752,0.007992298737351109,pep,20191118
2019-11-18,12:45,12:45 PM,135.05,135.03,135.03,104,14043.16,3,135.07,135.015,135.044,2537,342607.8128,24,135.05,135.03,135.07,135.015,0.007235566164403989,0.007760962359332711,pep,20191118
2019-11-18,12:46,12:46 PM,135.005,135.005,135.005,100,13500.5,1,135.01,134.95,134.97,3335,450125.974,25,135.005,135.005,135.01,134.95,0.007049082500372917,0.007208740037610879,pep,20191118
2019-11-18,12:47,12:47 PM,,,,0,0.0,0,134.96,134.91,134.946,2100,283386.86,15,,,134.944,134.91,,0.007029640906241659,pep,20191118
2019-11-18,12:48,12:48 PM,134.905,134.905,134.905,400,53962.0,2,134.92,134.9,134.911,2727,367903.352,18,134.905,134.905,134.91,134.92,0.006303147844248835,0.006768454672994916,pep,20191118
2019-11-18,12:49,12:49 PM,134.91,134.91,134.91,100,13491.0,2,134.93,134.894,134.91,2850,384494.6,23,134.91,134.91,134.91,134.91,0.006340444577055008,0.00676099220918783,pep,20191118
2019-11-18,12:50,12:50 PM,134.92,134.915,134.915,301,40609.42,2,134.926,134.915,134.92,3195,431068.189,17,134.915,134.92,134.915,134.917,0.006377741309861179,0.006835616847258267,pep,20191118
2019-11-18,12:51,12:51 PM,,,,0,0.0,0,134.92,134.91,134.912,600,80947.5,6,,,134.92,134.91,,0.006775917136802002,pep,20191118
2019-11-18,12:52,12:52 PM,134.91,134.9,134.909,316,42631.4,4,134.91,134.9,134.909,1861,251066.01,16,134.91,134.91,134.91,134.91,0.006332985230493731,0.0067535297453807435,pep,20191118
2019-11-18,12:53,12:53 PM,,,,0,0.0,0,134.905,134.905,134.905,100,13490.5,1,,,134.905,134.905,,0.006723679890152611,pep,20191118
2019-11-18,12:54,12:54 PM,134.95,134.92,134.937,14,1889.12,3,134.95,134.91,134.928,2877,388189.07,26,134.92,134.94,134.91,134.94,0.0065418469342086345,0.0068953165577147445,pep,20191118
2019-11-18,12:55,12:55 PM,134.96,134.955,134.955,403,54386.88,2,134.979,134.95,134.974,5409,730074.12,11,134.955,134.96,134.95,134.979,0.006676115172310982,0.007238589892839012,pep,20191118
2019-11-18,12:56,12:56 PM,134.97,134.97,134.97,100,13497.0,1,134.97,134.96,134.968,505,68158.808,5,134.97,134.97,134.97,134.97,0.006788005370729499,0.007193815109996707,pep,20191118
2019-11-18,12:57,12:57 PM,134.96,134.955,134.955,12,1619.465,3,134.97,134.945,134.957,5037,679779.95,34,134.955,134.96,134.96,134.962,0.006676115172310982,0.007111728008119184,pep,20191118
2019-11-18,12:58,12:58 PM,134.975,134.97,134.974,400,53989.5,3,135.0,134.975,134.993,2400,323982.5,8,134.97,134.975,134.975,135.0,0.006817842756974394,0.007380376705173013,pep,20191118
2019-11-18,12:59,12:59 PM,135.0,135.0,135.0,1,135.0,1,135.01,134.98,134.993,1300,175491.5,13,135.0,135.0,135.0,134.98,0.007011785767566744,0.007380376705173013,pep,20191118
2019-11-18,13:00,1 PM,,,,0,0.0,0,135.08,135.01,135.052,2476,334389.6784,11,,,135.01,135.08,,0.007820662069788976,pep,20191118
2019-11-18,13:01,1:01 PM,135.11,135.1,135.11,195,26346.41,4,135.11,135.095,135.105,2460,332357.9996,19,135.11,135.11,135.095,135.11,0.007832313889303381,0.008216172651562634,pep,20191118
2019-11-18,13:02,1:02 PM,135.09,135.09,135.09,9,1215.81,1,135.111,135.092,135.109,3650,493148.22,6,135.09,135.09,135.111,135.092,0.0076831269580784805,0.008246022506790978,pep,20191118
2019-11-18,13:03,1:03 PM,135.04,135.04,135.04,200,27008.0,3,135.09,135.04,135.059,2005,270793.7,18,135.04,135.04,135.09,135.04,0.007310159630016334,0.007872899316438366,pep,20191118
2019-11-18,13:04,1:04 PM,135.05,135.05,135.05,100,13505.0,1,135.07,135.05,135.056,1171,158150.26,11,135.05,135.05,135.05,135.07,0.00738475309562889,0.00785051192501732,pep,20191118
2019-11-18,13:05,1:05 PM,135.08,135.08,135.08,27,3647.16,1,135.09,135.08,135.087,1656,223704.1156,10,135.08,135.08,135.08,135.09,0.007608533492466136,0.008081848303035719,pep,20191118
2019-11-18,13:06,1:06 PM,135.11,135.11,135.11,23,3107.53,1,135.12,135.1,135.108,1578,213201.217,14,135.11,135.11,135.1,135.11,0.007832313889303381,0.008238560042983891,pep,20191118
2019-11-18,13:07,1:07 PM,,,,0,0.0,0,135.104,135.06,135.086,2451,331096.6432,14,,,135.1,135.08,,0.008074385839228844,pep,20191118
2019-11-18,13:08,1:08 PM,,,,0,0.0,0,135.073,135.04,135.057,948,128034.15,9,,,135.06,135.04,,0.007857974388824194,pep,20191118
2019-11-18,13:09,1:09 PM,135.04,135.035,135.04,215,29033.525,5,135.06,135.04,135.048,3821,516020.466,26,135.035,135.04,135.05,135.057,0.007310159630016334,0.007790812214560843,pep,20191118
2019-11-18,13:10,1:10 PM,135.05,135.04,135.044,254,34301.16,3,135.05,135.04,135.045,908,122620.8568,9,135.04,135.05,135.04,135.05,0.007339997016261442,0.007768424823139585,pep,20191118
2019-11-18,13:11,1:11 PM,135.055,135.055,135.055,1,135.055,1,135.08,135.05,135.059,3465,467981.0275,20,135.055,135.055,135.06,135.075,0.007422049828435063,0.007872899316438366,pep,20191118
2019-11-18,13:12,1:12 PM,135.15,135.11,135.13,200,27026.0,2,135.15,135.08,135.117,6113,825968.0188,26,135.11,135.15,135.08,135.15,0.007981500820528072,0.008305722217247244,pep,20191118
2019-11-18,13:13,1:13 PM,135.16,135.11,135.111,175,23644.35,5,135.16,135.08,135.112,5072,685286.1556,21,135.16,135.11,135.16,135.08,0.007839773235864447,0.008268409898212025,pep,20191118
2019-11-18,13:14,1:14 PM,,,,0,0.0,0,135.099,135.05,135.083,3285,443749.4955,19,,,135.08,135.05,,0.008051998447807586,pep,20191118
2019-11-18,13:15,1:15 PM,135.035,135.03,135.031,200,27006.23,3,135.04,135.02,135.03,1199,161901.47,11,135.035,135.03,135.03,135.02,0.007243025510965267,0.007656487866033929,pep,20191118
2019-11-18,13:16,1:16 PM,,,,0,0.0,0,135.04,135.01,135.027,1956,264112.74,18,,,135.02,135.03,,0.00763410047461267,pep,20191118
2019-11-18,13:17,1:17 PM,,,,0,0.0,0,135.02,135.02,135.02,900,121518.0,9,,,135.02,135.02,,0.00758186322796349,pep,20191118
2019-11-18,13:18,1:18 PM,135.015,135.015,135.015,300,40504.5,1,135.02,134.98,135.005,3813,514774.53,28,135.015,135.015,135.02,135.0,0.007123675965985261,0.007469926270857623,pep,20191118
2019-11-18,13:19,1:19 PM,135.0,135.0,135.0,300,40500.0,1,135.036,134.95,135.016,6700,904604.6,20,135.0,135.0,135.01,135.036,0.007011785767566744,0.007552013372735146,pep,20191118
2019-11-18,13:20,1:20 PM,134.96,134.95,134.953,137,18488.52,2,134.979,134.95,134.966,1687,227687.4256,11,134.96,134.95,134.979,134.95,0.006661196479188428,0.007178890182382746,pep,20191118
2019-11-18,13:21,1:21 PM,134.965,134.96,134.963,300,40489.0,2,134.97,134.94,134.961,1850,249678.1,17,134.96,134.965,134.95,134.96,0.006735789944800772,0.007141577863347528,pep,20191118
2019-11-18,13:22,1:22 PM,,,,0,0.0,0,134.95,134.942,134.947,500,67473.75,5,,,134.95,134.95,,0.007037103370048745,pep,20191118
2019-11-18,13:23,1:23 PM,134.945,134.945,134.945,100,13494.5,1,134.95,134.94,134.942,1201,162065.94,12,134.945,134.945,134.945,134.94,0.006601521706698425,0.006999791051013527,pep,20191118
2019-11-18,13:24,1:24 PM,134.94,134.92,134.921,111,14976.25,3,134.93,134.9,134.917,1400,188883.5,11,134.94,134.93,134.93,134.9,0.006422497389228629,0.006813229455837221,pep,20191118
2019-11-18,13:25,1:25 PM,134.93,134.93,134.93,128,17271.04,2,134.935,134.91,134.919,3691,497984.745,30,134.93,134.93,134.91,134.93,0.006489631508279909,0.006828154383451393,pep,20191118
2019-11-18,13:26,1:26 PM,,,,0,0.0,0,134.93,134.93,134.93,900,121437.0,9,,,134.93,134.93,,0.006910241485328917,pep,20191118
2019-11-18,13:27,1:27 PM,134.92,134.92,134.92,101,13626.92,2,134.94,134.91,134.926,2677,361196.86,23,134.92,134.92,134.93,134.91,0.006415038042667352,0.006880391630100572,pep,20191118
2019-11-18,13:28,1:28 PM,134.93,134.93,134.93,100,13493.0,1,134.94,134.91,134.926,2100,283344.8,18,134.93,134.93,134.92,134.92,0.006489631508279909,0.006880391630100572,pep,20191118
2019-11-18,13:29,1:29 PM,,,,0,0.0,0,134.93,134.91,134.915,1705,230030.075,16,,,134.93,134.92,,0.0067983045282230484,pep,20191118
2019-11-18,13:30,1:30 PM,134.91,134.91,134.91,26,3507.66,1,134.925,134.9,134.915,5900,796000.82,9,134.91,134.91,134.916,134.912,0.006340444577055008,0.0067983045282230484,pep,20191118
2019-11-18,13:31,1:31 PM,134.9,134.88,134.885,201,27111.9,3,134.9,134.88,134.895,1266,170776.74,11,134.9,134.88,134.9,134.88,0.006153960913023934,0.006649055252082174,pep,20191118
2019-11-18,13:32,1:32 PM,134.86,134.86,134.86,22,2966.92,1,134.88,134.85,134.865,1700,229270.96,17,134.86,134.86,134.88,134.85,0.005967477248993073,0.006425181337870649,pep,20191118
2019-11-18,13:33,1:33 PM,134.85,134.85,134.85,176,23733.6,4,134.86,134.835,134.849,3235,436235.3055,30,134.85,134.85,134.835,134.839,0.0058928837833805165,0.0063057819169576946,pep,20191118
2019-11-18,13:34,1:34 PM,134.87,134.855,134.86,300,40458.0,3,134.873,134.831,134.847,4828,651043.6903,38,134.87,134.855,134.831,134.85,0.005967477248993073,0.006290856989343735,pep,20191118
2019-11-18,13:35,1:35 PM,134.875,134.875,134.875,100,13487.5,1,134.9,134.84,134.876,4711,635402.1348,30,134.875,134.875,134.84,134.898,0.00607936744741159,0.006507268439748173,pep,20191118
2019-11-18,13:36,1:36 PM,134.89,134.88,134.887,800,107910.0,4,134.9,134.86,134.891,13512,1822640.48,57,134.89,134.89,134.89,134.88,0.0061688796061464875,0.006619205396853829,pep,20191118
2019-11-18,13:37,1:37 PM,134.93,134.895,134.921,700,94444.5,4,134.95,134.89,134.933,9856,1329901.1418,24,134.895,134.93,134.89,134.92,0.006422497389228629,0.006932628876749963,pep,20191118
2019-11-18,13:38,1:38 PM,134.93,134.93,134.93,15,2023.95,1,134.93,134.92,134.922,500,67461.0,5,134.93,134.93,134.92,134.92,0.006489631508279909,0.00685054177487244,pep,20191118
2019-11-18,13:39,1:39 PM,134.93,134.93,134.93,100,13493.0,1,134.955,134.93,134.945,8081,1090489.6544,25,134.93,134.93,134.939,134.955,0.006489631508279909,0.007022178442434573,pep,20191118
2019-11-18,13:40,1:40 PM,135.01,135.0,135.005,700,94503.5,3,135.04,134.96,135.006,16834,2272689.89,44,135.0,135.01,134.96,135.04,0.007049082500372917,0.007477388734664709,pep,20191118
2019-11-18,13:41,1:41 PM,135.05,135.045,135.046,129,17420.95,4,135.06,135.02,135.04,9392,1268297.295,33,135.05,135.045,135.04,135.02,0.0073549157093837835,0.007731112504104366,pep,20191118
2019-11-18,13:42,1:42 PM,,,,0,0.0,0,135.06,135.03,135.043,3100,418632.88,25,,,135.03,135.049,,0.007753499895525625,pep,20191118
2019-11-18,13:43,1:43 PM,135.03,135.03,135.03,2,270.06,2,135.06,135.02,135.04,2074,280073.86,19,135.03,135.03,135.04,135.02,0.007235566164403989,0.007731112504104366,pep,20191118
2019-11-18,13:44,1:44 PM,,,,0,0.0,0,135.02,135.0,135.012,738,99638.76,7,,,135.02,135.0,,0.007522163517507014,pep,20191118
2019-11-18,13:45,1:45 PM,134.95,134.93,134.94,200,26988.0,2,134.98,134.93,134.957,900,121461.0,9,134.95,134.93,134.98,134.93,0.006564224973892253,0.007111728008119184,pep,20191118
2019-11-18,13:46,1:46 PM,134.92,134.92,134.92,315,42499.8,4,134.94,134.92,134.927,2212,298457.4656,21,134.92,134.92,134.93,134.93,0.006415038042667352,0.006887854093907658,pep,20191118
2019-11-18,13:47,1:47 PM,134.93,134.93,134.93,100,13493.0,1,134.94,134.92,134.926,4795,646970.527,13,134.93,134.93,134.93,134.92,0.006489631508279909,0.006880391630100572,pep,20191118
2019-11-18,13:48,1:48 PM,,,,0,0.0,0,134.94,134.92,134.927,1500,202390.0,13,,,134.94,134.93,,0.006887854093907658,pep,20191118
2019-11-18,13:49,1:49 PM,134.93,134.93,134.93,100,13493.0,1,134.952,134.93,134.946,2029,273804.7249,18,134.93,134.93,134.93,134.947,0.006489631508279909,0.007029640906241659,pep,20191118
2019-11-18,13:50,1:50 PM,134.96,134.955,134.956,137,18489.02,2,134.98,134.95,134.961,2100,283418.8,20,134.955,134.96,134.95,134.98,0.006683574518872046,0.007141577863347528,pep,20191118
2019-11-18,13:51,1:51 PM,,,,0,0.0,0,134.985,134.97,134.972,1000,134972.0,6,,,134.985,134.97,,0.007223664965225051,pep,20191118
2019-11-18,13:52,1:52 PM,,,,0,0.0,0,135.0,134.982,134.994,1696,228949.24,16,,,134.99,134.99,,0.007387839168980099,pep,20191118
2019-11-18,13:53,1:53 PM,134.98,134.96,134.966,300,40489.975,6,134.986,134.95,134.964,2679,361568.6138,24,134.98,134.96,134.986,134.96,0.006758167984484603,0.007163965254768574,pep,20191118
2019-11-18,13:54,1:54 PM,134.975,134.945,134.96,2,269.92,2,134.98,134.94,134.962,1524,205681.978,15,134.975,134.945,134.959,134.94,0.006713411905117154,0.007149040327154402,pep,20191118
2019-11-18,13:55,1:55 PM,,,,0,0.0,0,134.95,134.91,134.925,1583,213586.0922,14,,,134.93,134.91,,0.006872929166293698,pep,20191118
2019-11-18,13:56,1:56 PM,134.89,134.89,134.89,100,13489.0,1,134.89,134.885,134.887,200,26977.5,2,134.89,134.89,134.89,134.885,0.006191257645830107,0.006589355541625696,pep,20191118
2019-11-18,13:57,1:57 PM,134.88,134.88,134.88,1,134.88,1,134.89,134.87,134.884,2000,269767.24,16,134.88,134.88,134.88,134.87,0.006116664180217762,0.006566968150204438,pep,20191118
2019-11-18,13:58,1:58 PM,134.89,134.86,134.868,225,30345.25,3,134.896,134.85,134.873,1834,247356.2925,18,134.89,134.86,134.88,134.85,0.006027152021482864,0.006484881048326914,pep,20191118
2019-11-18,13:59,1:59 PM,134.84,134.815,134.839,105,14158.09,3,134.84,134.8,134.823,1300,175270.0,13,134.84,134.82,134.84,134.82,0.005810830971206895,0.006111757857974515,pep,20191118
2019-11-18,14:00,2 PM,134.8,134.75,134.76,113,15227.9,3,134.8,134.74,134.772,3169,427092.86,28,134.8,134.75,134.8,134.74,0.00522154259286878,0.005731172203814817,pep,20191118
2019-11-18,14:01,2:01 PM,134.725,134.725,134.725,100,13472.5,1,134.74,134.67,134.7,4209,566951.587,36,134.725,134.725,134.74,134.69,0.004960465463225362,0.005193874809707158,pep,20191118
2019-11-18,14:02,2:02 PM,134.62,134.62,134.62,10,1346.2,1,134.69,134.62,134.649,3134,421991.2572,25,134.62,134.62,134.67,134.63,0.004177234074295108,0.004813289155547672,pep,20191118
2019-11-18,14:03,2:03 PM,,,,0,0.0,0,134.64,134.62,134.633,1212,163174.94,10,,,134.625,134.63,,0.00469388973463493,pep,20191118
2019-11-18,14:04,2:04 PM,134.61,134.6,134.607,141,18979.6,3,134.63,134.61,134.617,1119,150636.7962,8,134.61,134.6,134.614,134.61,0.004080262568998933,0.004574490313721975,pep,20191118
2019-11-18,14:05,2:05 PM,,,,0,0.0,0,134.67,134.64,134.655,1612,217063.48,15,,,134.64,134.66,,0.004858063938389977,pep,20191118
2019-11-18,14:06,2:06 PM,134.67,134.67,134.67,28,3770.76,2,134.67,134.66,134.666,1000,134666.0,10,134.67,134.67,134.67,134.67,0.004550201402357043,0.0049401510402675005,pep,20191118
2019-11-18,14:07,2:07 PM,134.695,134.65,134.664,402,54134.82,6,134.71,134.65,134.668,5453,734345.98,44,134.66,134.695,134.67,134.69,0.004505445322989594,0.004955075967881673,pep,20191118
2019-11-18,14:08,2:08 PM,134.71,134.71,134.71,10,1347.1,1,134.72,134.685,134.702,2435,327999.66,9,134.71,134.71,134.7,134.72,0.004848575264806846,0.00520879973732133,pep,20191118
2019-11-18,14:09,2:09 PM,,,,0,0.0,0,134.73,134.71,134.714,1700,229014.21,14,,,134.71,134.721,,0.005298349303005941,pep,20191118
2019-11-18,14:10,2:10 PM,134.7,134.7,134.7,174,23437.8,2,134.71,134.69,134.702,2600,350226.43,25,134.7,134.7,134.7,134.69,0.004773981799194289,0.00520879973732133,pep,20191118
2019-11-18,14:11,2:11 PM,134.7,134.69,134.691,168,22628.075,4,134.69,134.675,134.685,1200,161622.0,11,134.695,134.69,134.69,134.675,0.004706847680143221,0.0050819378526015015,pep,20191118
2019-11-18,14:12,2:12 PM,,,,0,0.0,0,134.705,134.67,134.688,3018,406487.6,27,,,134.68,134.67,,0.0051043252440225485,pep,20191118
2019-11-18,14:13,2:13 PM,,,,0,0.0,0,134.7,134.66,134.681,6062,816435.1798,20,,,134.67,134.69,,0.005052087997373369,pep,20191118
2019-11-18,14:14,2:14 PM,134.705,134.695,134.697,450,60613.75,5,134.704,134.695,134.698,1813,244208.04,12,134.695,134.7,134.7,134.7,0.004751603759510671,0.0051789498820931975,pep,20191118
2019-11-18,14:15,2:15 PM,,,,0,0.0,0,134.7,134.66,134.683,2707,364586.9724,19,,,134.695,134.68,,0.00506701292498733,pep,20191118
2019-11-18,14:16,2:16 PM,134.66,134.66,134.66,100,13466.0,1,134.68,134.66,134.671,1200,161605.41,12,134.66,134.66,134.68,134.66,0.004475607936744699,0.004977463359302719,pep,20191118
2019-11-18,14:17,2:17 PM,134.59,134.59,134.59,100,13459.0,1,134.66,134.59,134.623,6256,842202.8,44,134.59,134.59,134.66,134.59,0.003953453677457863,0.00461926509656428,pep,20191118
2019-11-18,14:18,2:18 PM,134.6,134.6,134.6,301,40514.6,3,134.61,134.51,134.574,2600,349892.3,25,134.6,134.6,134.6,134.51,0.0040280471430702075,0.004253604370018967,pep,20191118
2019-11-18,14:19,2:19 PM,134.51,134.51,134.51,100,13451.0,1,134.52,134.486,134.501,4624,621933.2416,27,134.51,134.51,134.51,134.486,0.003356705952558471,0.0037088445121042216,pep,20191118
2019-11-18,14:20,2:20 PM,134.57,134.52,134.566,141,18973.81,4,134.58,134.49,134.53,4049,544711.1232,32,134.52,134.57,134.49,134.58,0.003774429359988067,0.00392525596250866,pep,20191118
2019-11-18,14:21,2:21 PM,134.59,134.59,134.59,4,538.36,2,134.63,134.571,134.594,1714,230694.8954,15,134.59,134.59,134.6,134.62,0.003953453677457863,0.004402853646159842,pep,20191118
2019-11-18,14:22,2:22 PM,,,,0,0.0,0,134.642,134.61,134.619,3387,455954.4085,24,,,134.62,134.62,,0.004589415241336148,pep,20191118
2019-11-18,14:23,2:23 PM,134.62,134.62,134.62,100,13462.0,4,134.63,134.594,134.608,2000,269215.94,19,134.62,134.62,134.6,134.62,0.004177234074295108,0.004507328139458624,pep,20191118
2019-11-18,14:24,2:24 PM,,,,0,0.0,0,134.62,134.588,134.606,1886,253866.2272,17,,,134.62,134.59,,0.0044924032118444516,pep,20191118
2019-11-18,14:25,2:25 PM,,,,0,0.0,0,134.586,134.58,134.582,300,40374.56,3,,,134.58,134.586,,0.004313304080475232,pep,20191118
2019-11-18,14:26,2:26 PM,134.65,134.64,134.641,116,15618.4,2,134.66,134.58,134.631,9750,1312654.685,54,134.64,134.65,134.58,134.65,0.004333880352081074,0.004678964807020757,pep,20191118
2019-11-18,14:27,2:27 PM,,,,0,0.0,0,134.64,134.61,134.625,2000,269250.5,19,,,134.64,134.62,,0.0046341900241784525,pep,20191118
2019-11-18,14:28,2:28 PM,134.61,134.61,134.61,100,13461.0,1,134.63,134.6,134.619,1600,215390.0,15,134.61,134.61,134.625,134.61,0.004102640608682764,0.004589415241336148,pep,20191118
2019-11-18,14:29,2:29 PM,134.6,134.58,134.593,359,48318.89,7,134.6,134.58,134.594,1400,188431.5,13,134.6,134.58,134.6,134.58,0.003975831717141482,0.004402853646159842,pep,20191118
2019-11-18,14:30,2:30 PM,,,,0,0.0,0,134.605,134.58,134.591,2489,334998.1029,24,,,134.58,134.59,,0.0043804662547387956,pep,20191118
2019-11-18,14:31,2:31 PM,134.6,134.595,134.597,600,80758.5,2,134.6,134.59,134.598,2200,296114.94,15,134.595,134.6,134.595,134.59,0.004005669103386589,0.004432703501388187,pep,20191118
2019-11-18,14:32,2:32 PM,134.61,134.6,134.608,300,40382.345,6,134.615,134.59,134.603,1702,229094.22,15,134.6,134.61,134.59,134.61,0.00408772191556021,0.004470015820423405,pep,20191118
2019-11-18,14:33,2:33 PM,134.61,134.61,134.61,101,13595.61,2,134.62,134.61,134.611,1316,177147.76,13,134.61,134.61,134.61,134.61,0.004102640608682764,0.00452971553087967,pep,20191118
2019-11-18,14:34,2:34 PM,134.63,134.63,134.63,102,13732.26,2,134.645,134.6,134.626,4666,628164.4365,24,134.63,134.63,134.615,134.645,0.0042518275399074535,0.004641652487985539,pep,20191118
2019-11-18,14:35,2:35 PM,134.65,134.65,134.65,101,13599.65,2,134.68,134.65,134.668,1968,265026.6,18,134.65,134.65,134.65,134.67,0.0044010144711323545,0.004955075967881673,pep,20191118
2019-11-18,14:36,2:36 PM,134.63,134.63,134.63,1,134.63,1,134.67,134.63,134.647,1215,163596.452,12,134.63,134.63,134.67,134.63,0.0042518275399074535,0.0047983642279335,pep,20191118
2019-11-18,14:37,2:37 PM,134.61,134.61,134.61,200,26922.0,3,134.63,134.607,134.617,2348,316081.4552,18,134.61,134.61,134.63,134.607,0.004102640608682764,0.004574490313721975,pep,20191118
2019-11-18,14:38,2:38 PM,134.62,134.62,134.62,100,13462.0,1,134.62,134.601,134.614,1850,249035.7,14,134.62,134.62,134.62,134.61,0.004177234074295108,0.004552102922300929,pep,20191118
2019-11-18,14:39,2:39 PM,134.6,134.6,134.6,100,13460.0,1,134.61,134.59,134.597,2200,296113.63,22,134.6,134.6,134.61,134.59,0.0040280471430702075,0.0044252410375811005,pep,20191118
2019-11-18,14:40,2:40 PM,134.56,134.56,134.56,106,14263.36,2,134.59,134.54,134.566,3997,537862.275,34,134.56,134.56,134.59,134.56,0.0037296732806206176,0.00419390465956249,pep,20191118
2019-11-18,14:41,2:41 PM,134.52,134.52,134.52,100,13452.0,1,134.59,134.5,134.547,8580,1154415.139,73,134.52,134.52,134.57,134.555,0.0034312994181710274,0.004052117847228489,pep,20191118
2019-11-18,14:42,2:42 PM,134.55,134.54,134.54,221,29733.38,6,134.56,134.535,134.547,2500,336366.5,22,134.54,134.55,134.54,134.55,0.0035804863493957167,0.004052117847228489,pep,20191118
2019-11-18,14:43,2:43 PM,134.58,134.55,134.563,399,53690.45,4,134.58,134.55,134.572,2769,372631.388,22,134.55,134.55,134.55,134.55,0.003752051320304236,0.004238679442404795,pep,20191118
2019-11-18,14:44,2:44 PM,,,,0,0.0,0,134.54,134.5,134.518,731,98332.9374,5,,,134.54,134.5,,0.0038357063968240505,pep,20191118
2019-11-18,14:45,2:45 PM,,,,0,0.0,0,134.52,134.49,134.504,3631,488383.644,32,,,134.507,134.49,,0.0037312319035252683,pep,20191118
2019-11-18,14:46,2:46 PM,134.515,134.49,134.502,200,26900.5,2,134.515,134.465,134.491,2700,363125.75,23,134.515,134.49,134.49,134.465,0.00329703118006868,0.0036342198740337843,pep,20191118
2019-11-18,14:47,2:47 PM,134.49,134.45,134.47,200,26894.0,2,134.5,134.45,134.477,2699,362954.5952,26,134.49,134.45,134.46,134.45,0.003058332090108881,0.003529745380735002,pep,20191118
2019-11-18,14:48,2:48 PM,134.485,134.48,134.484,400,53793.5,2,134.485,134.44,134.459,2900,389932.15,16,134.48,134.485,134.45,134.45,0.003162762941966333,0.0033954210322080874,pep,20191118
2019-11-18,14:49,2:49 PM,134.46,134.44,134.448,348,46788.08,8,134.46,134.44,134.45,2300,309235.99,18,134.46,134.44,134.455,134.44,0.002894226465761638,0.0033282588579445238,pep,20191118
2019-11-18,14:50,2:50 PM,134.435,134.42,134.423,121,16265.135,2,134.435,134.39,134.416,10291,1383279.0087,56,134.435,134.42,134.435,134.39,0.002707742801730565,0.003074535088504867,pep,20191118
2019-11-18,14:51,2:51 PM,,,,0,0.0,0,134.417,134.38,134.404,1400,188165.0,12,,,134.4,134.38,,0.002984985522820257,pep,20191118
2019-11-18,14:52,2:52 PM,134.415,134.395,134.415,401,53900.395,5,134.42,134.39,134.402,2253,302807.351,22,134.395,134.415,134.39,134.42,0.002648068029240562,0.0029700605952060846,pep,20191118
2019-11-18,14:53,2:53 PM,134.47,134.44,134.46,303,40741.4,6,134.47,134.42,134.455,1805,242690.8,16,134.44,134.465,134.42,134.46,0.0029837386244965366,0.003365571176979955,pep,20191118
2019-11-18,14:54,2:54 PM,134.495,134.475,134.489,106,14255.89,4,134.502,134.46,134.486,3280,441114.734,27,134.475,134.49,134.47,134.495,0.003200059674772505,0.0035969075549983536,pep,20191118
2019-11-18,14:55,2:55 PM,134.475,134.46,134.471,6,806.825,3,134.494,134.46,134.47,2200,295833.97,19,134.475,134.465,134.494,134.46,0.003065791436670158,0.003477508134085611,pep,20191118
2019-11-18,14:56,2:56 PM,134.455,134.455,134.455,3,403.365,2,134.455,134.45,134.452,1050,141174.25,10,134.455,134.455,134.455,134.455,0.002946441891690364,0.0033431837855586962,pep,20191118
2019-11-18,14:57,2:57 PM,134.49,134.47,134.47,102,13715.98,2,134.49,134.46,134.47,6456,868135.36,39,134.47,134.49,134.46,134.49,0.003058332090108881,0.003477508134085611,pep,20191118
2019-11-18,14:58,2:58 PM,134.5,134.475,134.497,9,1210.475,2,134.497,134.47,134.482,1500,201722.84,15,134.5,134.475,134.497,134.48,0.003259734447262508,0.0035670576997702207,pep,20191118
2019-11-18,14:59,2:59 PM,134.485,134.455,134.475,506,68044.375,5,134.487,134.45,134.471,3990,536541.2927,25,134.475,134.455,134.475,134.45,0.0030956288229150534,0.003484970597892697,pep,20191118
2019-11-18,15:00,3 PM,134.435,134.435,134.435,107,14384.545,4,134.457,134.43,134.433,3464,465677.1979,15,134.435,134.435,134.457,134.43,0.002797254960465463,0.0032013969732246953,pep,20191118
2019-11-18,15:01,3:01 PM,134.415,134.375,134.395,7,940.765,5,134.42,134.37,134.394,2398,322277.6,19,134.415,134.375,134.42,134.37,0.0024988810980158733,0.0029103608847498193,pep,20191118
2019-11-18,15:02,3:02 PM,134.37,134.37,134.37,2,268.74,1,134.385,134.35,134.372,4102,551192.615,38,134.37,134.37,134.37,134.35,0.0023123974339848,0.002746186680994772,pep,20191118
2019-11-18,15:03,3:03 PM,134.395,134.37,134.378,207,27816.215,6,134.41,134.35,134.384,1701,228587.91,17,134.37,134.395,134.35,134.41,0.0023720722064745907,0.00283573624667917,pep,20191118
2019-11-18,15:04,3:04 PM,134.39,134.355,134.37,306,41117.25,8,134.4,134.36,134.375,2939,394927.3491,23,134.39,134.36,134.4,134.37,0.0023123974339848,0.0027685740724158183,pep,20191118
2019-11-18,15:05,3:05 PM,134.385,134.37,134.379,7,940.655,6,134.39,134.36,134.381,2791,375057.525,24,134.37,134.37,134.36,134.362,0.0023795315530358674,0.0028133488552581237,pep,20191118
2019-11-18,15:06,3:06 PM,134.375,134.365,134.375,106,14243.705,4,134.38,134.36,134.373,4000,537493.02,13,134.37,134.375,134.374,134.375,0.002349694166790972,0.0027536491448016463,pep,20191118
2019-11-18,15:07,3:07 PM,134.385,134.36,134.367,304,40847.525,7,134.39,134.35,134.373,3498,470035.24,29,134.385,134.36,134.38,134.355,0.0022900193943009694,0.0027536491448016463,pep,20191118
2019-11-18,15:08,3:08 PM,134.355,134.345,134.347,4,537.39,2,134.37,134.323,134.348,2674,359247.7964,20,134.355,134.345,134.36,134.323,0.00214083246307628,0.0025670875496255526,pep,20191118
2019-11-18,15:09,3:09 PM,134.325,134.285,134.286,104,13965.74,5,134.31,134.285,134.295,3085,414299.762,28,134.325,134.295,134.31,134.309,0.0016858123228405124,0.002171576967851682,pep,20191118
2019-11-18,15:10,3:10 PM,134.275,134.25,134.259,217,29134.28,7,134.3,134.24,134.267,4423,593862.2585,34,134.275,134.255,134.3,134.246,0.0014844099656868854,0.00196262798125433,pep,20191118
2019-11-18,15:11,3:11 PM,134.285,134.245,134.262,186,24972.8,7,134.29,134.24,134.272,5278,708689.2494,44,134.265,134.245,134.24,134.25,0.001506788005370716,0.001999940300289549,pep,20191118
2019-11-18,15:12,3:12 PM,134.26,134.245,134.255,103,13828.26,4,134.27,134.225,134.241,3477,466756.3279,29,134.245,134.255,134.24,134.26,0.00145457257944199,0.0017686039222711502,pep,20191118
2019-11-18,15:13,3:13 PM,134.305,134.28,134.281,105,14099.495,5,134.3,134.259,134.288,2973,399239.1124,25,134.28,134.295,134.259,134.28,0.00164851559003434,0.002119339721202503,pep,20191118
2019-11-18,15:14,3:14 PM,134.295,134.295,134.295,2,268.59,2,134.298,134.28,134.288,1600,214861.07,14,134.295,134.295,134.29,134.28,0.00175294644189158,0.002119339721202503,pep,20191118
2019-11-18,15:15,3:15 PM,134.285,134.19,134.255,408,54776.07,9,134.29,134.19,134.257,6734,904088.87,43,134.28,134.19,134.28,134.19,0.00145457257944199,0.0018880033431838926,pep,20191118
2019-11-18,15:16,3:16 PM,134.215,134.17,134.19,12,1610.28,7,134.215,134.18,134.199,5344,717159.78,46,134.195,134.17,134.195,134.18,0.0009697150529613266,0.0014551804423750157,pep,20191118
2019-11-18,15:17,3:17 PM,134.165,134.16,134.162,387,51920.845,6,134.165,134.15,134.16,2390,320641.216,21,134.165,134.16,134.165,134.16,0.0007608533492466348,0.0011641443538999278,pep,20191118
2019-11-18,15:18,3:18 PM,134.2,134.16,134.196,114,15298.36,4,134.23,134.15,134.188,4695,630014.63,43,134.16,134.2,134.17,134.23,0.0010144711323287758,0.00137309334049728,pep,20191118
2019-11-18,15:19,3:19 PM,134.26,134.215,134.227,766,102817.925,17,134.25,134.21,134.234,4164,558950.0196,38,134.225,134.25,134.225,134.25,0.001245710875727298,0.001716366675621759,pep,20191118
2019-11-18,15:20,3:20 PM,134.26,134.18,134.225,1114,149526.475,15,134.26,134.18,134.22,8400,1127452.0,69,134.245,134.26,134.24,134.26,0.0012307921826047443,0.001611892182322977,pep,20191118
2019-11-18,15:21,3:21 PM,134.28,134.265,134.274,4,537.095,4,134.28,134.25,134.269,1914,256991.3212,18,134.27,134.28,134.27,134.25,0.0015963001641056142,0.001977552908868502,pep,20191118
2019-11-18,15:22,3:22 PM,134.26,134.25,134.252,208,27924.54,7,134.26,134.24,134.254,3406,457270.48,30,134.255,134.26,134.25,134.26,0.0014321945397583714,0.0018656159517626341,pep,20191118
2019-11-18,15:23,3:23 PM,134.26,134.225,134.244,315,42286.98,9,134.26,134.23,134.243,2592,347958.8936,25,134.25,134.26,134.25,134.25,0.0013725197672683686,0.0017835288498851104,pep,20191118
2019-11-18,15:24,3:24 PM,,,,0,0.0,0,134.24,134.237,134.239,631,84705.0208,6,,,134.24,134.237,,0.001753678994656978,pep,20191118
2019-11-18,15:25,3:25 PM,134.265,134.24,134.246,403,54101.29,4,134.265,134.24,134.249,2321,311591.75,21,134.24,134.26,134.24,134.26,0.0013874384603909224,0.0018283036327274153,pep,20191118
2019-11-18,15:26,3:26 PM,134.255,134.235,134.25,98,13156.49,4,134.26,134.23,134.241,3300,442995.46,31,134.25,134.235,134.26,134.245,0.0014172758466358176,0.0017686039222711502,pep,20191118
2019-11-18,15:27,3:27 PM,134.245,134.22,134.238,7,939.67,6,134.25,134.205,134.232,3766,505519.8982,28,134.245,134.22,134.245,134.205,0.0013277636879009194,0.0017014417480075868,pep,20191118
2019-11-18,15:28,3:28 PM,134.23,134.215,134.225,205,27516.11,6,134.23,134.205,134.218,3351,449763.4,25,134.215,134.22,134.205,134.22,0.0012307921826047443,0.0015969672547088045,pep,20191118
2019-11-18,15:29,3:29 PM,134.25,134.225,134.225,406,54495.43,7,134.25,134.225,134.237,3280,440296.049,26,134.23,134.25,134.233,134.25,0.0012307921826047443,0.0017387540670428055,pep,20191118
2019-11-18,15:30,3:30 PM,134.24,134.205,134.206,104,13957.425,5,134.24,134.19,134.221,4158,558089.6737,36,134.225,134.205,134.23,134.19,0.0010890645979411203,0.001619354646130063,pep,20191118
2019-11-18,15:31,3:31 PM,134.24,134.18,134.23,120,16107.6,2,134.24,134.16,134.186,7798,1046380.73,59,134.18,134.24,134.19,134.195,0.0012680889154109167,0.0013581684128833199,pep,20191118
2019-11-18,15:32,3:32 PM,134.18,134.18,134.18,200,26836.0,1,134.19,134.159,134.174,2799,375552.57,25,134.18,134.18,134.19,134.159,0.0008951215873489822,0.0012686188471987098,pep,20191118
2019-11-18,15:33,3:33 PM,,,,0,0.0,0,134.155,134.13,134.149,1301,174527.65,12,,,134.155,134.13,,0.001082057252022404,pep,20191118
2019-11-18,15:34,3:34 PM,134.13,134.12,134.124,74,9925.175,4,134.13,134.07,134.104,3618,485187.0935,24,134.13,134.12,134.13,134.08,0.0004773981799193865,0.0007462463807052233,pep,20191118
2019-11-18,15:35,3:35 PM,134.095,134.08,134.093,1173,157290.84,7,134.11,134.08,134.095,8703,1167025.005,53,134.09,134.08,134.09,134.1,0.00024615843652086406,0.0006790842064416599,pep,20191118
2019-11-18,15:36,3:36 PM,134.155,134.1,134.141,308,41315.38,5,134.16,134.11,134.131,6110,819543.195,45,134.12,134.1,134.11,134.11,0.000604207071460457,0.0009477329034954894,pep,20191118
2019-11-18,15:37,3:37 PM,134.1,134.07,134.089,455,61010.48,9,134.1,134.07,134.083,4594,615977.28,37,134.1,134.08,134.1,134.07,0.0002163210502759687,0.00058953464075705,pep,20191118
2019-11-18,15:38,3:38 PM,134.13,134.13,134.13,100,13413.0,1,134.15,134.06,134.103,7124,955351.64,70,134.13,134.13,134.06,134.15,0.0005221542592868355,0.0007387839168981372,pep,20191118
2019-11-18,15:39,3:39 PM,134.16,134.14,134.15,337,45208.48,5,134.17,134.13,134.145,4400,590237.41,41,134.16,134.14,134.15,134.15,0.0006713411905117366,0.0010522073967942716,pep,20191118
2019-11-18,15:40,3:40 PM,134.17,134.16,134.164,381,51116.46,6,134.18,134.15,134.165,5575,747967.177,48,134.16,134.16,134.15,134.16,0.0007757720423689765,0.0012014566729351465,pep,20191118
2019-11-18,15:41,3:41 PM,134.15,134.11,134.13,520,69747.7,7,134.16,134.11,134.132,4750,637126.5,42,134.15,134.11,134.16,134.11,0.0005221542592868355,0.0009551953673025756,pep,20191118
2019-11-18,15:42,3:42 PM,134.15,134.13,134.14,300,40242.0,3,134.15,134.12,134.134,4020,539217.944,37,134.14,134.15,134.12,134.15,0.0005967477248991801,0.0009701202949165357,pep,20191118
2019-11-18,15:43,3:43 PM,134.14,134.125,134.131,123,16498.075,4,134.15,134.12,134.132,2862,383885.12,27,134.13,134.14,134.14,134.14,0.0005296136058481124,0.0009551953673025756,pep,20191118
2019-11-18,15:44,3:44 PM,134.12,134.105,134.111,111,14886.305,3,134.15,134.11,134.118,2741,367617.4894,25,134.11,134.12,134.15,134.12,0.0003804266746232114,0.0008507208740037934,pep,20191118
2019-11-18,15:45,3:45 PM,134.13,134.1,134.109,219,29369.96,4,134.17,134.1,134.127,7553,1013064.3908,58,134.1,134.13,134.11,134.156,0.0003655079815008697,0.0009178830482673568,pep,20191118
2019-11-18,15:46,3:46 PM,134.15,134.11,134.136,504,67604.58,6,134.17,134.11,134.137,4363,585240.562,40,134.15,134.11,134.17,134.11,0.0005669103386542846,0.0009925076863377942,pep,20191118
2019-11-18,15:47,3:47 PM,134.115,134.1,134.106,872,116940.69,11,134.12,134.09,134.107,3431,460122.79,33,134.115,134.1,134.12,134.09,0.00034312994181703914,0.0007686337721262697,pep,20191118
2019-11-18,15:48,3:48 PM,134.115,134.09,134.104,861,115463.585,11,134.125,134.085,134.103,8551,1146714.1526,78,134.09,134.1,134.09,134.11,0.00032821124869469745,0.0007387839168981372,pep,20191118
2019-11-18,15:49,3:49 PM,134.115,134.085,134.094,278,37278.02,6,134.112,134.08,134.1,3684,494024.5758,31,134.11,134.085,134.11,134.095,0.00025361778308214094,0.0007163965254768786,pep,20191118
2019-11-18,15:50,3:50 PM,134.05,134.0,134.02,1460,195669.85,16,134.09,133.95,134.019,35909,4812496.27,284,134.05,134.01,134.09,134.02,-0.00029837386244959004,0.00011193695710586834,pep,20191118
2019-11-18,15:51,3:51 PM,134.025,134.005,134.009,316,42346.85,6,134.03,134.0,134.012,8968,1201817.2,79,134.025,134.01,134.025,134.01,-0.00038042667462342343,5.969971045647725e-05,pep,20191118
2019-11-18,15:52,3:52 PM,134.105,134.02,134.049,675,90482.835,10,134.11,134.01,134.049,14262,1911810.62,120,134.02,134.105,134.02,134.11,-8.205281217362136e-05,0.0003358108713173929,pep,20191118
2019-11-18,15:53,3:53 PM,134.105,134.08,134.094,365,48944.135,14,134.11,134.07,134.09,9494,1273055.9626,83,134.105,134.08,134.11,134.1,0.00025361778308214094,0.0006417718874064412,pep,20191118
2019-11-18,15:54,3:54 PM,134.105,134.025,134.083,1289,172832.955,20,134.12,134.01,134.08,14402,1931018.76,127,134.1,134.025,134.11,134.025,0.00017156497090851957,0.0005671472493360036,pep,20191118
2019-11-18,15:55,3:55 PM,134.02,133.985,134.0,889,119126.485,15,134.03,133.97,134.009,20516,2749332.21,175,134.02,133.985,134.03,133.985,-0.0004475607936744911,3.7312319035218746e-05,pep,20191118
2019-11-18,15:56,3:56 PM,133.98,133.94,133.957,621,83187.325,10,133.99,133.92,133.957,16822,2253428.0482,148,133.98,133.96,133.99,133.95,-0.0007683126958079117,-0.00035073579893135317,pep,20191118
2019-11-18,15:57,3:57 PM,133.98,133.925,133.95,1683,225438.525,19,133.98,133.92,133.946,31867,4268444.54,248,133.945,133.98,133.95,133.98,-0.0008205281217366376,-0.0004328229008088768,pep,20191118
2019-11-18,15:58,3:58 PM,134.005,133.955,133.981,709,94992.175,15,134.005,133.95,133.972,27399,3670695.5555,197,133.975,133.955,133.973,133.96,-0.0005892883783381153,-0.0002387988418254848,pep,20191118
2019-11-18,15:59,3:59 PM,134.05,133.975,134.004,1318,176617.235,29,134.08,133.955,134.013,48435,6490913.295,382,133.975,134.03,133.96,134.06,-0.00041772340742959565,6.716217426356342e-05,pep,20191118
