date,minute,label,high,low,average,volume,notional,numberOfTrades,marketHigh,marketLow,marketAverage,marketVolume,marketNotional,marketNumberOfTrades,open,close,marketOpen,marketClose,changeOverTime,marketChangeOverTime,tickerName,tickerDate
2020-02-14,09:30,09:30 AM,146.5,146.39,146.449,400,58579.5,4,146.58,146.21,146.56,71118,10423019.21,48,146.41,146.5,146.57,146.36,0.0,0.0,pep,20200214
2020-02-14,09:31,09:31 AM,146.41,146.41,146.41,100,14641.0,1,146.74,146.38,146.512,8272,1211944.825,38,146.41,146.41,146.445,146.59,-0.0002663043107157829,-0.0003275109170305801,pep,20200214
2020-02-14,09:32,09:32 AM,146.81,146.75,146.768,378,55478.39,3,146.82,146.695,146.767,2553,374696.0083,22,146.75,146.81,146.695,146.81,0.002178232695340961,0.0014123908296942798,pep,20200214
2020-02-14,09:33,09:33 AM,146.84,146.815,146.829,124,18206.8,3,146.86,146.69,146.828,7900,1159942.712,41,146.84,146.83,146.83,146.86,0.0025947599505629633,0.0018286026200873408,pep,20200214
2020-02-14,09:34,09:34 AM,146.94,146.745,146.863,700,102804.0,7,146.98,146.745,146.871,5556,816017.85,52,146.78,146.94,146.752,146.98,0.0028269226829817015,0.0021219978165939344,pep,20200214
2020-02-14,09:35,09:35 AM,147.01,146.95,146.966,204,29981.04,3,147.08,146.88,146.988,8352,1227640.2616,49,146.98,147.01,146.98,147.06,0.0035302391958975197,0.0029203056768558767,pep,20200214
2020-02-14,09:36,09:36 AM,147.02,146.98,147.02,283,41606.62,5,147.15,146.96,147.042,6119,899752.61,52,147.02,146.98,147.01,147.03,0.003898968241503854,0.003288755458515279,pep,20200214
2020-02-14,09:37,09:37 AM,147.04,146.86,146.969,614,90238.88,5,147.05,146.845,146.962,7364,1082229.34,55,147.01,146.86,147.01,146.85,0.0035507241428755524,0.0027429039301309142,pep,20200214
2020-02-14,09:38,09:38 AM,146.83,146.755,146.783,341,50052.905,3,146.85,146.66,146.748,6340,930382.4168,48,146.83,146.755,146.85,146.71,0.002280657430231512,0.001282751091702976,pep,20200214
2020-02-14,09:39,09:39 AM,146.68,146.615,146.651,400,58660.5,4,146.74,146.54,146.629,6406,939307.4414,51,146.67,146.615,146.69,146.59,0.0013793197631940003,0.00047079694323136194,pep,20200214
2020-02-14,09:40,09:40 AM,146.755,146.605,146.68,200,29336.0,2,146.8,146.56,146.676,4152,608999.5,39,146.605,146.755,146.605,146.8,0.0015773409173158884,0.0007914847161571059,pep,20200214
2020-02-14,09:41,09:41 AM,146.78,146.705,146.736,867,127220.335,9,146.874,146.705,146.778,6557,962423.385,52,146.78,146.705,146.78,146.705,0.0019597265942408464,0.0014874454148470885,pep,20200214
2020-02-14,09:42,09:42 AM,146.76,146.72,146.74,686,100663.86,7,146.84,146.69,146.746,6172,905717.19,53,146.72,146.73,146.73,146.73,0.0019870398568784817,0.001269104803493498,pep,20200214
2020-02-14,09:43,09:43 AM,146.74,146.65,146.682,1557,228384.015,14,146.75,146.64,146.685,5373,788136.455,45,146.74,146.65,146.75,146.65,0.001590997548634512,0.0008528930131004367,pep,20200214
2020-02-14,09:44,09:44 AM,146.645,146.58,146.607,306,44861.605,5,146.68,146.54,146.599,14998,2198686.2,65,146.58,146.595,146.645,146.61,0.001078873874181367,0.00026610262008724934,pep,20200214
2020-02-14,09:45,09:45 AM,146.64,146.585,146.613,475,69641.325,7,146.7,146.55,146.631,12632,1852241.7286,92,146.61,146.64,146.59,146.675,0.0011198437681376263,0.00048444323144103407,pep,20200214
2020-02-14,09:46,09:46 AM,146.71,146.7,146.7,101,14816.71,2,146.74,146.65,146.698,7768,1139551.5592,72,146.7,146.71,146.67,146.68,0.00171390723050329,0.0009415938864629177,pep,20200214
2020-02-14,09:47,09:47 AM,146.75,146.67,146.722,306,44897.08,5,146.758,146.69,146.733,3325,487885.9495,29,146.67,146.73,146.69,146.758,0.0018641301750097039,0.0011804039301310167,pep,20200214
2020-02-14,09:48,09:48 AM,146.765,146.71,146.742,541,79387.61,5,146.79,146.7,146.734,7194,1055607.969,66,146.71,146.765,146.75,146.765,0.0020006964881971057,0.0011872270742358528,pep,20200214
2020-02-14,09:49,09:49 AM,146.83,146.755,146.797,703,103198.28,10,146.84,146.73,146.789,13888,2038605.9,72,146.77,146.83,146.765,146.83,0.0023762538494628486,0.0015624999999998975,pep,20200214
2020-02-14,09:50,09:50 AM,146.82,146.71,146.743,506,74252.18,7,146.85,146.7,146.776,5700,836623.5,54,146.805,146.74,146.83,146.73,0.0020075248038565145,0.0014737991266376104,pep,20200214
2020-02-14,09:51,09:51 AM,146.66,146.53,146.585,453,66403.22,6,146.71,146.5,146.584,16189,2373057.89,110,146.66,146.62,146.71,146.55,0.0009286509296751475,0.00016375545851529005,pep,20200214
2020-02-14,09:52,09:52 AM,146.62,146.59,146.603,300,43981.0,3,146.64,146.56,146.597,6201,909049.7722,55,146.6,146.62,146.62,146.61,0.0010515606115439255,0.00025245633187777117,pep,20200214
2020-02-14,09:53,09:53 AM,146.585,146.585,146.585,2,293.17,1,146.64,146.55,146.606,4000,586422.76,36,146.585,146.585,146.62,146.619,0.0009286509296751475,0.00031386462882090796,pep,20200214
2020-02-14,09:54,09:54 AM,146.63,146.59,146.59,101,14805.63,2,146.65,146.5,146.613,9916,1453816.95,55,146.59,146.63,146.61,146.65,0.0009627925079719979,0.0003616266375545665,pep,20200214
2020-02-14,09:55,09:55 AM,146.625,146.615,146.62,200,29324.0,2,146.64,146.572,146.609,4609,675719.1781,28,146.625,146.615,146.62,146.59,0.0011676419777532946,0.00033433406113541616,pep,20200214
2020-02-14,09:56,09:56 AM,146.605,146.6,146.602,211,30933.1,2,146.605,146.51,146.558,1911,280073.13,17,146.605,146.6,146.605,146.51,0.0010447322958845166,-1.3646288209672146e-05,pep,20200214
2020-02-14,09:57,09:57 AM,146.49,146.355,146.409,500,73204.5,5,146.54,146.34,146.44,11382,1666786.5,84,146.49,146.355,146.51,146.39,-0.00027313262637519177,-0.0008187772925764502,pep,20200214
2020-02-14,09:58,09:58 AM,,,,0,0.0,0,146.448,146.34,146.385,3515,514543.2685,26,,,146.37,146.38,,-0.001194050218340689,pep,20200214
2020-02-14,09:59,09:59 AM,146.42,146.25,146.36,300,43908.0,3,146.43,146.14,146.272,9803,1433908.5176,79,146.42,146.25,146.42,146.26,-0.0006077200936844815,-0.0019650655021834803,pep,20200214
2020-02-14,10:00,10 AM,146.28,146.2,146.23,201,29392.28,3,146.3,146.17,146.247,13380,1956782.7905,87,146.28,146.2,146.285,146.17,-0.0014954011294035635,-0.002135644104803413,pep,20200214
2020-02-14,10:01,10:01 AM,146.19,146.19,146.19,100,14619.0,1,146.23,146.16,146.192,9076,1326843.66,79,146.19,146.19,146.16,146.19,-0.0017685337557785613,-0.0025109170305676514,pep,20200214
2020-02-14,10:02,10:02 AM,146.27,146.185,146.234,1012,147989.26,10,146.34,146.17,146.225,10810,1580696.836,75,146.22,146.185,146.205,146.18,-0.001468087866765928,-0.0022857532751092246,pep,20200214
2020-02-14,10:03,10:03 AM,146.15,146.045,146.082,900,131473.5,6,146.16,146.035,146.087,6945,1014573.03,52,146.15,146.06,146.16,146.04,-0.0025059918469912297,-0.003227347161572142,pep,20200214
2020-02-14,10:04,10:04 AM,146.1,146.08,146.088,300,43826.5,3,146.12,146.03,146.076,3550,518571.0,33,146.1,146.08,146.04,146.06,-0.0024650219530349704,-0.0033024017467249514,pep,20200214
2020-02-14,10:05,10:05 AM,146.075,146.055,146.064,730,106626.38,7,146.09,146.04,146.066,6383,932339.9194,38,146.06,146.055,146.06,146.04,-0.0026289015288600078,-0.003370633187772924,pep,20200214
2020-02-14,10:06,10:06 AM,146.09,146.05,146.07,1100,160677.5,11,146.11,146.03,146.069,11094,1620493.735,83,146.08,146.06,146.06,146.03,-0.0025879316349037484,-0.00335016375545861,pep,20200214
2020-02-14,10:07,10:07 AM,145.99,145.965,145.985,500,72992.5,5,146.047,145.94,145.992,8063,1177131.52,67,145.99,145.965,146.03,146.0,-0.0031683384659505942,-0.0038755458515284664,pep,20200214
2020-02-14,10:08,10:08 AM,146.02,146.02,146.02,37,5402.74,1,146.06,145.98,146.025,5129,748961.592,44,146.02,146.02,145.98,146.04,-0.0029293474178724473,-0.003650382096069846,pep,20200214
2020-02-14,10:09,10:09 AM,146.13,146.13,146.13,100,14613.0,1,146.24,146.04,146.142,4689,685259.1603,44,146.13,146.13,146.04,146.24,-0.002178232695341155,-0.0028520742358079036,pep,20200214
2020-02-14,10:10,10:10 AM,,,,0,0.0,0,146.28,146.21,146.243,3207,469002.0748,30,,,146.25,146.26,,-0.002162936681222757,pep,20200214
2020-02-14,10:11,10:11 AM,146.34,146.32,146.33,200,29266.0,2,146.34,146.25,146.306,5845,855158.9445,47,146.34,146.32,146.262,146.32,-0.0008125695634657782,-0.0017330786026200236,pep,20200214
2020-02-14,10:12,10:12 AM,146.355,146.34,146.349,318,46538.89,3,146.355,146.265,146.318,3749,548544.751,35,146.35,146.34,146.33,146.27,-0.0006828315659377854,-0.0016512008733623787,pep,20200214
2020-02-14,10:13,10:13 AM,146.305,146.22,146.272,605,88494.6,7,146.31,146.225,146.273,5875,859353.6118,55,146.22,146.28,146.25,146.28,-0.001208611871709748,-0.0019582423580786447,pep,20200214
2020-02-14,10:14,10:14 AM,146.36,146.36,146.36,100,14636.0,1,146.413,146.23,146.285,7833,1145847.6734,68,146.36,146.36,146.285,146.367,-0.0006077200936844815,-0.0018763646288209996,pep,20200214
2020-02-14,10:15,10:15 AM,146.46,146.36,146.384,204,29862.34,3,146.494,146.35,146.444,3004,439918.308,22,146.36,146.46,146.37,146.46,-0.0004438405178596381,-0.0007914847161572999,pep,20200214
2020-02-14,10:16,10:16 AM,146.49,146.475,146.484,400,58593.5,4,146.54,146.47,146.496,1800,263692.5,18,146.475,146.49,146.47,146.54,0.00023899104807814726,-0.0004366812227073755,pep,20200214
2020-02-14,10:17,10:17 AM,146.55,146.46,146.51,300,43953.0,3,146.55,146.37,146.51,9587,1404589.666,32,146.55,146.46,146.55,146.44,0.0004165272552218084,-0.00034115720524025223,pep,20200214
2020-02-14,10:18,10:18 AM,146.49,146.39,146.424,214,31334.86,3,146.46,146.39,146.445,1925,281906.6681,15,146.49,146.39,146.46,146.39,-0.00017070789148444635,-0.0007846615720524637,pep,20200214
2020-02-14,10:19,10:19 AM,146.395,146.36,146.371,206,30152.37,3,146.429,146.36,146.405,3444,504220.4237,19,146.38,146.395,146.4,146.41,-0.0005326086214313717,-0.0010575873362445492,pep,20200214
2020-02-14,10:20,10:20 AM,146.43,146.4,146.423,308,45098.2,4,146.43,146.36,146.408,1718,251529.19,15,146.42,146.4,146.42,146.36,-0.00017753620714385524,-0.0010371179039302349,pep,20200214
2020-02-14,10:21,10:21 AM,146.37,146.37,146.37,100,14637.0,1,146.41,146.33,146.375,3040,444978.98,21,146.37,146.37,146.355,146.41,-0.0005394369370907805,-0.0012622816593886618,pep,20200214
2020-02-14,10:22,10:22 AM,146.38,146.34,146.36,200,29272.0,2,146.42,146.33,146.373,2446,358029.5,20,146.34,146.38,146.38,146.42,-0.0006077200936844815,-0.0012759279475983338,pep,20200214
2020-02-14,10:23,10:23 AM,146.4,146.375,146.394,500,73197.0,5,146.415,146.371,146.395,2505,366719.28,19,146.395,146.4,146.395,146.415,-0.0003755573612657431,-0.001125818777292522,pep,20200214
2020-02-14,10:24,10:24 AM,146.42,146.39,146.41,300,43923.0,3,146.43,146.39,146.417,3914,573077.32,29,146.42,146.42,146.42,146.41,-0.0002663043107157829,-0.0009757096069869042,pep,20200214
2020-02-14,10:25,10:25 AM,146.395,146.375,146.382,600,87829.5,6,146.42,146.34,146.381,4524,662228.1,37,146.395,146.39,146.395,146.4,-0.0004574971491782619,-0.0012213427947598394,pep,20200214
2020-02-14,10:26,10:26 AM,146.41,146.38,146.396,730,106869.27,7,146.421,146.38,146.4,4230,619273.42,34,146.39,146.4,146.38,146.39,-0.0003619007299471194,-0.0010917030567685357,pep,20200214
2020-02-14,10:27,10:27 AM,146.37,146.305,146.331,1000,146331.0,9,146.38,146.305,146.343,6723,983862.8134,51,146.37,146.36,146.38,146.36,-0.0008057412478065635,-0.0014806222707424465,pep,20200214
2020-02-14,10:28,10:28 AM,146.385,146.37,146.371,110,16100.85,2,146.38,146.34,146.365,2087,305464.6931,18,146.385,146.37,146.37,146.34,-0.0005326086214313717,-0.0013305131004366347,pep,20200214
2020-02-14,10:29,10:29 AM,146.35,146.28,146.302,700,102411.5,7,146.35,146.28,146.32,2400,351168.0,18,146.31,146.28,146.31,146.28,-0.0010037624019284513,-0.0016375545851529004,pep,20200214
2020-02-14,10:30,10:30 AM,146.285,146.25,146.262,405,59236.25,5,146.285,146.23,146.256,2599,380120.25,17,146.285,146.25,146.285,146.255,-0.001276895028303449,-0.002074235807860276,pep,20200214
2020-02-14,10:31,10:31 AM,146.26,146.21,146.248,900,131623.0,9,146.26,146.21,146.24,4200,614207.85,35,146.26,146.21,146.26,146.21,-0.0013724914475347855,-0.0021834061135370714,pep,20200214
2020-02-14,10:32,10:32 AM,146.24,146.22,146.231,535,78233.4,5,146.25,146.19,146.234,6533,955346.1185,41,146.225,146.22,146.25,146.22,-0.0014885728137441548,-0.002224344978165894,pep,20200214
2020-02-14,10:33,10:33 AM,146.18,146.1,146.143,650,94993.25,7,146.2,146.08,146.148,6682,976561.1631,42,146.175,146.1,146.19,146.08,-0.0020894645917692274,-0.002811135371179081,pep,20200214
2020-02-14,10:34,10:34 AM,146.14,146.08,146.126,215,31417.2,3,146.16,146.085,146.13,9287,1357112.77,30,146.08,146.14,146.09,146.135,-0.0022055459579785964,-0.0029339519650655485,pep,20200214
2020-02-14,10:35,10:35 AM,,,,0,0.0,0,146.25,146.11,146.191,4507,658882.875,26,,,146.125,146.2,,-0.0025177401746724875,pep,20200214
2020-02-14,10:36,10:36 AM,146.365,146.325,146.35,160,23416.0,3,146.365,146.23,146.313,1900,277994.0,14,146.325,146.365,146.23,146.33,-0.0006760032502783765,-0.0016853165938865591,pep,20200214
2020-02-14,10:37,10:37 AM,146.3,146.25,146.275,200,29255.0,2,146.37,146.24,146.305,2035,297731.414,18,146.3,146.25,146.312,146.24,-0.0011881269247315215,-0.0017399017467248598,pep,20200214
2020-02-14,10:38,10:38 AM,146.26,146.175,146.232,556,81304.745,8,146.28,146.16,146.212,4848,708835.844,40,146.22,146.21,146.215,146.22,-0.0014817444980847459,-0.0023744541484717057,pep,20200214
2020-02-14,10:39,10:39 AM,146.22,146.15,146.194,512,74851.14,6,146.215,146.15,146.198,2143,313302.49,18,146.21,146.15,146.21,146.15,-0.0017412204931411199,-0.002469978165938829,pep,20200214
2020-02-14,10:40,10:40 AM,146.255,146.135,146.192,400,58477.0,4,146.3,146.135,146.212,2000,292423.4,20,146.135,146.255,146.135,146.28,-0.0017548771244597435,-0.0023744541484717057,pep,20200214
2020-02-14,10:41,10:41 AM,,,,0,0.0,0,146.27,146.22,146.259,1278,186919.56,8,,,146.27,146.22,,-0.002053766375545962,pep,20200214
2020-02-14,10:42,10:42 AM,146.31,146.22,146.242,480,70196.1,3,146.31,146.22,146.264,2447,357908.1872,21,146.22,146.31,146.236,146.31,-0.0014134613414910448,-0.002019650655021781,pep,20200214
2020-02-14,10:43,10:43 AM,146.3,146.3,146.3,86,12581.8,1,146.32,146.25,146.292,1750,256012.0,17,146.3,146.3,146.32,146.25,-0.001017419033247075,-0.0018286026200873408,pep,20200214
2020-02-14,10:44,10:44 AM,146.27,146.27,146.27,103,15065.81,2,146.29,146.25,146.269,2970,434420.375,25,146.27,146.27,146.25,146.27,-0.0012222685030283719,-0.001985534934497795,pep,20200214
2020-02-14,10:45,10:45 AM,146.31,146.31,146.31,10,1463.1,1,146.32,146.26,146.292,2715,397184.0,17,146.31,146.31,146.3,146.28,-0.0009491358766533742,-0.0018286026200873408,pep,20200214
2020-02-14,10:46,10:46 AM,146.31,146.29,146.298,242,35404.18,3,146.31,146.29,146.303,2600,380387.0,25,146.29,146.31,146.31,146.3,-0.001031075664565893,-0.001753548034934532,pep,20200214
2020-02-14,10:47,10:47 AM,146.35,146.3,146.345,111,16244.3,2,146.41,146.29,146.327,1300,190225.51,13,146.3,146.35,146.3,146.41,-0.0007101448285752269,-0.0015897925764192418,pep,20200214
2020-02-14,10:48,10:48 AM,146.49,146.42,146.458,310,45402.0,4,146.5,146.42,146.463,3040,445247.908,21,146.49,146.42,146.452,146.42,6.145484093429201e-05,-0.0006618449781659963,pep,20200214
2020-02-14,10:49,10:49 AM,146.46,146.46,146.46,57,8348.22,2,146.46,146.42,146.442,1910,279704.5902,16,146.46,146.46,146.46,146.42,7.51114722531098e-05,-0.000805131004366778,pep,20200214
2020-02-14,10:50,10:50 AM,146.41,146.35,146.405,201,29427.42,4,146.43,146.36,146.404,3950,578295.701,25,146.4,146.35,146.42,146.36,-0.0003004458890126333,-0.0010644104803493853,pep,20200214
2020-02-14,10:51,10:51 AM,,,,0,0.0,0,146.42,146.33,146.356,3127,457653.815,28,,,146.345,146.42,,-0.0013919213973799655,pep,20200214
2020-02-14,10:52,10:52 AM,,,,0,0.0,0,146.45,146.401,146.422,1914,280252.3629,12,,,146.42,146.43,,-0.0009415938864629177,pep,20200214
2020-02-14,10:53,10:53 AM,146.4,146.395,146.398,200,29279.5,2,146.41,146.34,146.37,1940,283958.1,17,146.4,146.395,146.41,146.355,-0.0003482440986283016,-0.0012963973799126481,pep,20200214
2020-02-14,10:54,10:54 AM,146.4,146.4,146.4,200,29280.0,2,146.42,146.37,146.397,3732,546354.3704,17,146.4,146.4,146.37,146.42,-0.00033458746730948377,-0.0011121724890830438,pep,20200214
2020-02-14,10:55,10:55 AM,146.355,146.355,146.355,100,14635.5,1,146.4,146.34,146.36,2332,341311.36,14,146.355,146.355,146.4,146.34,-0.0006418616719815261,-0.0013646288209606212,pep,20200214
2020-02-14,10:56,10:56 AM,146.34,146.29,146.316,1034,151291.11,9,146.357,146.29,146.315,13782,2016512.077,45,146.34,146.33,146.34,146.31,-0.0009081659826971148,-0.001671670305676887,pep,20200214
2020-02-14,10:57,10:57 AM,146.285,146.28,146.283,167,24429.26,2,146.305,146.245,146.274,4897,716305.013,43,146.28,146.285,146.305,146.25,-0.0011335003994566383,-0.0019514192139738083,pep,20200214
2020-02-14,10:58,10:58 AM,146.26,146.255,146.258,300,43877.5,3,146.27,146.24,146.257,5564,813774.3434,29,146.26,146.255,146.25,146.25,-0.0013042082909408906,-0.0020674126637554397,pep,20200214
2020-02-14,10:59,10:59 AM,146.255,146.25,146.252,200,29250.5,2,146.28,146.24,146.253,2616,382597.91,21,146.255,146.25,146.25,146.28,-0.00134517818489715,-0.0020947052401747842,pep,20200214
2020-02-14,11:00,11 AM,146.27,146.26,146.269,110,16089.6,2,146.287,146.24,146.266,2500,365665.98,23,146.27,146.26,146.28,146.24,-0.0012290968186877808,-0.0020060043668123032,pep,20200214
2020-02-14,11:01,11:01 AM,146.26,146.26,146.26,23,3363.98,1,146.25,146.19,146.216,1700,248567.0,17,146.26,146.26,146.25,146.19,-0.0012905516596222668,-0.002347161572052361,pep,20200214
2020-02-14,11:02,11:02 AM,146.195,146.195,146.195,100,14619.5,1,146.235,146.19,146.218,2800,409410.49,22,146.195,146.195,146.195,146.23,-0.001734392177481711,-0.002333515283842883,pep,20200214
2020-02-14,11:03,11:03 AM,146.3,146.29,146.298,446,65248.8,6,146.34,146.235,146.313,6523,954398.31,35,146.29,146.3,146.24,146.34,-0.001031075664565893,-0.0016853165938865591,pep,20200214
2020-02-14,11:04,11:04 AM,146.39,146.36,146.387,110,16102.6,2,146.4,146.34,146.379,4555,666754.637,24,146.39,146.36,146.36,146.355,-0.0004233555708814114,-0.0012349890829695114,pep,20200214
2020-02-14,11:05,11:05 AM,146.38,146.355,146.365,300,43909.5,3,146.38,146.35,146.367,1000,146366.5,10,146.355,146.36,146.355,146.36,-0.000573578515387631,-0.0013168668122271565,pep,20200214
2020-02-14,11:06,11:06 AM,146.365,146.36,146.361,600,87816.5,6,146.38,146.36,146.369,1637,239606.1274,15,146.36,146.36,146.38,146.38,-0.0006008917780252666,-0.0013032205240174843,pep,20200214
2020-02-14,11:07,11:07 AM,146.375,146.375,146.375,29,4244.875,1,146.42,146.39,146.407,1442,211119.408,14,146.375,146.375,146.4,146.39,-0.0005052953587939301,-0.0010439410480348771,pep,20200214
2020-02-14,11:08,11:08 AM,146.395,146.355,146.376,210,30738.95,3,146.403,146.33,146.364,3150,461046.8091,25,146.395,146.355,146.4,146.35,-0.0004984670431345212,-0.0013373362445414708,pep,20200214
2020-02-14,11:09,11:09 AM,146.3,146.3,146.3,1,146.3,1,146.34,146.29,146.311,1350,197520.275,12,146.3,146.3,146.33,146.29,-0.001017419033247075,-0.0016989628820960373,pep,20200214
2020-02-14,11:10,11:10 AM,146.325,146.325,146.325,100,14632.5,1,146.36,146.31,146.333,2013,294569.302,17,146.325,146.325,146.31,146.36,-0.0008467111417628228,-0.0015488537117904193,pep,20200214
2020-02-14,11:11,11:11 AM,146.37,146.35,146.36,210,30735.55,3,146.38,146.34,146.356,2580,377598.0,24,146.355,146.37,146.38,146.35,-0.0006077200936844815,-0.0013919213973799655,pep,20200214
2020-02-14,11:12,11:12 AM,146.38,146.365,146.365,101,14782.88,2,146.415,146.34,146.364,2861,418747.44,28,146.365,146.38,146.365,146.415,-0.000573578515387631,-0.0013373362445414708,pep,20200214
2020-02-14,11:13,11:13 AM,146.48,146.43,146.455,200,29291.0,2,146.5,146.42,146.461,5524,809050.1355,29,146.43,146.48,146.42,146.5,4.096989395625936e-05,-0.0006754912663754745,pep,20200214
2020-02-14,11:14,11:14 AM,146.485,146.44,146.459,400,58583.5,4,146.515,146.43,146.486,4304,630476.588,34,146.485,146.44,146.5,146.49,6.828315659370091e-05,-0.0005049126637555423,pep,20200214
2020-02-14,11:15,11:15 AM,146.51,146.51,146.51,100,14651.0,1,146.55,146.5,146.512,2111,309286.4768,19,146.51,146.51,146.5,146.55,0.0004165272552218084,-0.0003275109170305801,pep,20200214
2020-02-14,11:16,11:16 AM,146.54,146.5,146.514,689,100948.04,7,146.54,146.5,146.52,2089,306080.39,20,146.54,146.51,146.54,146.5,0.00044384051785944405,-0.00027292576419208546,pep,20200214
2020-02-14,11:17,11:17 AM,146.44,146.4,146.42,400,58568.0,4,146.5,146.4,146.466,5022,735551.0567,36,146.41,146.44,146.5,146.46,-0.00019802115412208195,-0.000641375545851488,pep,20200214
2020-02-14,11:18,11:18 AM,146.46,146.4,146.43,300,43929.0,4,146.465,146.35,146.417,5079,743649.5,37,146.46,146.4,146.465,146.42,-0.00012973799752818697,-0.0009757096069869042,pep,20200214
2020-02-14,11:19,11:19 AM,146.41,146.395,146.403,200,29280.5,2,146.44,146.395,146.408,6022,881671.84,26,146.395,146.41,146.395,146.41,-0.0003141025203314511,-0.0010371179039302349,pep,20200214
2020-02-14,11:20,11:20 AM,146.44,146.4,146.425,300,43927.5,3,146.45,146.39,146.417,3201,468682.12,28,146.44,146.4,146.44,146.42,-0.00016387957582503744,-0.0009757096069869042,pep,20200214
2020-02-14,11:21,11:21 AM,146.45,146.42,146.436,210,30751.5,3,146.46,146.41,146.431,2641,386724.8485,19,146.45,146.42,146.45,146.41,-8.876810357192762e-05,-0.000880185589519587,pep,20200214
2020-02-14,11:22,11:22 AM,146.41,146.38,146.396,216,31621.58,3,146.42,146.371,146.399,1622,237458.494,14,146.41,146.38,146.41,146.4,-0.0003619007299471194,-0.0010985262008733718,pep,20200214
2020-02-14,11:23,11:23 AM,146.425,146.41,146.415,300,43924.5,3,146.44,146.41,146.418,2146,314212.55,19,146.41,146.41,146.41,146.41,-0.00023216273241893242,-0.0009688864628820681,pep,20200214
2020-02-14,11:24,11:24 AM,146.41,146.37,146.396,400,58558.5,4,146.41,146.37,146.399,1683,246389.38,16,146.4,146.37,146.407,146.37,-0.0003619007299471194,-0.0010985262008733718,pep,20200214
2020-02-14,11:25,11:25 AM,146.37,146.37,146.37,100,14637.0,1,146.38,146.348,146.362,1152,168609.4815,10,146.37,146.37,146.36,146.38,-0.0005394369370907805,-0.0013509825327511428,pep,20200214
2020-02-14,11:26,11:26 AM,146.4,146.38,146.386,900,131747.0,3,146.42,146.35,146.386,4793,701626.725,40,146.39,146.38,146.35,146.365,-0.0004301838865408203,-0.0011872270742358528,pep,20200214
2020-02-14,11:27,11:27 AM,146.37,146.37,146.37,100,14637.0,1,146.37,146.34,146.348,1100,160983.0,10,146.37,146.37,146.37,146.34,-0.0005394369370907805,-0.001446506550218266,pep,20200214
2020-02-14,11:28,11:28 AM,146.35,146.285,146.299,63,9216.845,3,146.35,146.26,146.289,4080,596860.228,32,146.35,146.285,146.35,146.275,-0.001024247348906484,-0.0018490720524018491,pep,20200214
2020-02-14,11:29,11:29 AM,146.26,146.26,146.26,2,292.52,1,146.27,146.25,146.259,2100,307143.75,18,146.26,146.26,146.265,146.25,-0.0012905516596222668,-0.002053766375545962,pep,20200214
2020-02-14,11:30,11:30 AM,,,,0,0.0,0,146.25,146.19,146.218,3000,438653.52,26,,,146.235,146.19,,-0.002333515283842883,pep,20200214
2020-02-14,11:31,11:31 AM,146.26,146.245,146.26,101,14772.245,2,146.3,146.21,146.253,3402,497552.51,33,146.245,146.26,146.21,146.3,-0.0012905516596222668,-0.0020947052401747842,pep,20200214
2020-02-14,11:32,11:32 AM,,,,0,0.0,0,146.35,146.31,146.328,2200,321921.5,22,,,146.32,146.34,,-0.0015829694323144059,pep,20200214
2020-02-14,11:33,11:33 AM,146.335,146.335,146.335,10,1463.35,1,146.35,146.33,146.336,2300,336572.5,12,146.335,146.335,146.345,146.33,-0.0007784279851689278,-0.0015283842794759112,pep,20200214
2020-02-14,11:34,11:34 AM,146.33,146.33,146.33,2,292.66,1,146.36,146.32,146.341,1755,256828.66,15,146.33,146.33,146.35,146.335,-0.0008125695634657782,-0.0014942685589519247,pep,20200214
2020-02-14,11:35,11:35 AM,146.33,146.32,146.32,43,6291.77,2,146.32,146.29,146.303,1300,190194.0,9,146.33,146.32,146.32,146.29,-0.0008808527200596732,-0.001753548034934532,pep,20200214
2020-02-14,11:36,11:36 AM,146.3,146.29,146.294,222,32477.38,3,146.31,146.29,146.299,1012,148055.0772,10,146.29,146.3,146.29,146.31,-0.0010583889272033345,-0.0017808406113536822,pep,20200214
2020-02-14,11:37,11:37 AM,146.315,146.315,146.315,43,6291.545,1,146.32,146.29,146.305,1020,149231.422,9,146.315,146.315,146.31,146.3,-0.0009149942983565238,-0.0017399017467248598,pep,20200214
2020-02-14,11:38,11:38 AM,146.29,146.29,146.29,100,14629.0,1,146.38,146.275,146.32,2307,337559.23,19,146.29,146.29,146.29,146.369,-0.00108570218984097,-0.0016375545851529004,pep,20200214
2020-02-14,11:39,11:39 AM,146.4,146.37,146.398,131,19178.1,3,146.4,146.36,146.392,3250,475773.5,24,146.4,146.37,146.38,146.39,-0.0003482440986283016,-0.0011462882096070304,pep,20200214
2020-02-14,11:40,11:40 AM,,,,0,0.0,0,146.375,146.37,146.373,219,32055.625,2,,,146.375,146.37,,-0.0012759279475983338,pep,20200214
2020-02-14,11:41,11:41 AM,146.34,146.34,146.34,1,146.34,1,146.375,146.35,146.362,1012,148118.0,10,146.34,146.34,146.375,146.35,-0.0007442864068720774,-0.0013509825327511428,pep,20200214
2020-02-14,11:42,11:42 AM,146.345,146.345,146.345,100,14634.5,1,146.355,146.33,146.349,1807,264453.19,11,146.345,146.345,146.33,146.35,-0.0007101448285752269,-0.001439683406113624,pep,20200214
2020-02-14,11:43,11:43 AM,146.315,146.315,146.315,10,1463.15,1,146.34,146.31,146.331,2939,430067.34,19,146.315,146.315,146.34,146.32,-0.0009149942983565238,-0.0015625000000000916,pep,20200214
2020-02-14,11:44,11:44 AM,,,,0,0.0,0,146.33,146.29,146.313,1793,262339.83,11,,,146.32,146.31,,-0.0016853165938865591,pep,20200214
2020-02-14,11:45,11:45 AM,,,,0,0.0,0,146.305,146.28,146.292,2588,378603.6864,25,,,146.28,146.305,,-0.0018286026200873408,pep,20200214
2020-02-14,11:46,11:46 AM,146.35,146.35,146.35,310,45368.5,2,146.36,146.305,146.33,3449,504692.195,20,146.35,146.35,146.305,146.35,-0.0006760032502783765,-0.0015693231441047336,pep,20200214
2020-02-14,11:47,11:47 AM,146.32,146.32,146.32,100,14632.0,1,146.36,146.32,146.341,3890,569265.5,27,146.32,146.32,146.35,146.36,-0.0008808527200596732,-0.0014942685589519247,pep,20200214
2020-02-14,11:48,11:48 AM,146.43,146.38,146.396,374,54752.26,3,146.43,146.38,146.407,6617,968776.96,52,146.38,146.43,146.38,146.43,-0.0003619007299471194,-0.0010439410480348771,pep,20200214
2020-02-14,11:49,11:49 AM,146.41,146.38,146.39,583,85345.54,2,146.425,146.38,146.398,4452,651761.8325,33,146.38,146.41,146.425,146.42,-0.00040287062390337877,-0.0011053493449782077,pep,20200214
2020-02-14,11:50,11:50 AM,146.43,146.43,146.43,101,14789.43,2,146.43,146.403,146.42,2814,412025.942,24,146.43,146.43,146.41,146.41,-0.00012973799752818697,-0.0009552401746725899,pep,20200214
2020-02-14,11:51,11:51 AM,146.445,146.415,146.43,213,31189.595,5,146.445,146.415,146.43,1510,221109.673,14,146.415,146.445,146.415,146.42,-0.00012973799752818697,-0.0008870087336244231,pep,20200214
2020-02-14,11:52,11:52 AM,146.42,146.42,146.42,1,146.42,1,146.425,146.4,146.415,2004,293416.0168,15,146.42,146.42,146.42,146.4,-0.00019802115412208195,-0.0009893558951965763,pep,20200214
2020-02-14,11:53,11:53 AM,146.38,146.38,146.38,130,19029.4,2,146.41,146.37,146.392,3215,470649.6168,27,146.38,146.38,146.38,146.385,-0.00047115378049707965,-0.0011462882096070304,pep,20200214
2020-02-14,11:54,11:54 AM,146.385,146.385,146.385,1,146.385,1,146.39,146.372,146.381,3000,439143.8,15,146.385,146.385,146.38,146.38,-0.0004370122022002292,-0.0012213427947598394,pep,20200214
2020-02-14,11:55,11:55 AM,146.41,146.38,146.401,7,1024.81,3,146.46,146.371,146.411,5011,733664.725,36,146.38,146.41,146.38,146.42,-0.0003277591516500749,-0.0010166484716157267,pep,20200214
2020-02-14,11:56,11:56 AM,146.425,146.425,146.425,2,292.85,1,146.43,146.39,146.411,1547,226498.1435,13,146.425,146.425,146.416,146.42,-0.00016387957582503744,-0.0010166484716157267,pep,20200214
2020-02-14,11:57,11:57 AM,146.41,146.4,146.405,210,30745.05,3,146.413,146.4,146.408,925,135427.825,9,146.41,146.4,146.41,146.4,-0.0003004458890126333,-0.0010371179039302349,pep,20200214
2020-02-14,11:58,11:58 AM,146.42,146.4,146.404,500,73202.0,6,146.42,146.4,146.409,2807,410969.87,25,146.4,146.42,146.4,146.42,-0.00030727420467204224,-0.001030294759825399,pep,20200214
2020-02-14,11:59,11:59 AM,146.43,146.42,146.425,217,31774.15,4,146.45,146.39,146.424,5640,825830.2,49,146.43,146.42,146.43,146.39,-0.00016387957582503744,-0.0009279475982532456,pep,20200214
2020-02-14,12:00,12 PM,,,,0,0.0,0,146.39,146.32,146.37,2841,415837.86,24,,,146.39,146.32,,-0.0012963973799126481,pep,20200214
2020-02-14,12:01,12:01 PM,146.35,146.35,146.35,5,731.75,1,146.38,146.315,146.364,5549,812173.03,30,146.35,146.35,146.315,146.37,-0.0006760032502783765,-0.0013373362445414708,pep,20200214
2020-02-14,12:02,12:02 PM,,,,0,0.0,0,146.38,146.34,146.351,2200,321972.0,15,,,146.38,146.35,,-0.0014260371179039518,pep,20200214
2020-02-14,12:03,12:03 PM,146.35,146.34,146.345,19,2780.55,2,146.34,146.33,146.335,300,43900.5,3,146.35,146.34,146.33,146.34,-0.0007101448285752269,-0.0015352074235807473,pep,20200214
2020-02-14,12:04,12:04 PM,146.31,146.31,146.31,1,146.31,1,146.33,146.27,146.297,2083,304737.005,19,146.31,146.31,146.33,146.27,-0.0009491358766533742,-0.0017944868995633544,pep,20200214
2020-02-14,12:05,12:05 PM,146.295,146.295,146.295,10,1462.95,2,146.31,146.265,146.287,4051,592609.1311,34,146.295,146.295,146.266,146.29,-0.0010515606115441196,-0.0018627183406113273,pep,20200214
2020-02-14,12:06,12:06 PM,,,,0,0.0,0,146.29,146.26,146.271,4912,718481.74,29,,,146.29,146.27,,-0.0019718886462883165,pep,20200214
2020-02-14,12:07,12:07 PM,,,,0,0.0,0,146.28,146.25,146.268,6208,908032.1265,52,,,146.275,146.251,,-0.001992358078602631,pep,20200214
2020-02-14,12:08,12:08 PM,146.26,146.26,146.26,100,14626.0,1,146.273,146.26,146.263,900,131636.64,6,146.26,146.26,146.26,146.26,-0.0012905516596222668,-0.0020264737991266173,pep,20200214
2020-02-14,12:09,12:09 PM,146.23,146.22,146.225,375,54834.5,5,146.26,146.2,146.228,1700,248588.0,17,146.23,146.22,146.26,146.2,-0.0015295427077004142,-0.0022652838427947163,pep,20200214
2020-02-14,12:10,12:10 PM,,,,0,0.0,0,146.24,146.19,146.207,3501,511871.5,28,,,146.203,146.24,,-0.002408569868995692,pep,20200214
2020-02-14,12:11,12:11 PM,146.275,146.275,146.275,100,14627.5,1,146.33,146.25,146.272,6186,904838.1706,45,146.275,146.275,146.25,146.33,-0.0011881269247315215,-0.0019650655021834803,pep,20200214
2020-02-14,12:12,12:12 PM,,,,0,0.0,0,146.33,146.31,146.318,2000,292635.75,20,,,146.315,146.32,,-0.0016512008733623787,pep,20200214
2020-02-14,12:13,12:13 PM,146.37,146.35,146.369,104,15222.4,2,146.37,146.319,146.336,2272,332475.836,22,146.35,146.37,146.325,146.37,-0.0005462652527501895,-0.0015283842794759112,pep,20200214
2020-02-14,12:14,12:14 PM,146.375,146.375,146.375,10,1463.75,1,146.4,146.36,146.383,2860,418654.6928,23,146.375,146.375,146.38,146.375,-0.0005052953587939301,-0.0012076965065501671,pep,20200214
2020-02-14,12:15,12:15 PM,146.39,146.36,146.369,450,65866.0,5,146.41,146.35,146.381,4619,676132.153,42,146.36,146.39,146.36,146.38,-0.0005462652527501895,-0.0012213427947598394,pep,20200214
2020-02-14,12:16,12:16 PM,146.38,146.38,146.38,1,146.38,1,146.385,146.37,146.375,1010,147838.35,8,146.38,146.38,146.37,146.37,-0.00047115378049707965,-0.0012622816593886618,pep,20200214
2020-02-14,12:17,12:17 PM,,,,0,0.0,0,146.369,146.34,146.355,1405,205628.7145,12,,,146.35,146.34,,-0.0013987445414848014,pep,20200214
2020-02-14,12:18,12:18 PM,146.375,146.375,146.375,100,14637.5,1,146.385,146.33,146.365,3825,559848.3125,34,146.375,146.375,146.34,146.375,-0.0005052953587939301,-0.0013305131004366347,pep,20200214
2020-02-14,12:19,12:19 PM,146.4,146.39,146.399,133,19471.14,3,146.41,146.368,146.394,9248,1353856.162,87,146.39,146.4,146.38,146.39,-0.0003414157829688927,-0.0011326419213973581,pep,20200214
2020-02-14,12:20,12:20 PM,,,,0,0.0,0,146.37,146.32,146.347,1115,163177.525,8,,,146.37,146.32,,-0.0014533296943231022,pep,20200214
2020-02-14,12:21,12:21 PM,146.42,146.42,146.42,1,146.42,1,146.44,146.34,146.387,5558,813621.94,54,146.42,146.42,146.34,146.42,-0.00019802115412208195,-0.0011804039301310167,pep,20200214
2020-02-14,12:22,12:22 PM,,,,0,0.0,0,146.46,146.4,146.422,2300,336771.7,21,,,146.41,146.45,,-0.0009415938864629177,pep,20200214
2020-02-14,12:23,12:23 PM,,,,0,0.0,0,146.455,146.43,146.446,1300,190379.5,12,,,146.44,146.455,,-0.0007778384279476277,pep,20200214
2020-02-14,12:24,12:24 PM,146.465,146.465,146.465,10,1464.65,1,146.466,146.46,146.464,880,128888.0192,5,146.465,146.465,146.466,146.46,0.00010925305054996026,-0.0006550218340611602,pep,20200214
2020-02-14,12:25,12:25 PM,,,,0,0.0,0,146.46,146.4,146.444,5853,857135.461,27,,,146.452,146.44,,-0.0007914847161572999,pep,20200214
2020-02-14,12:26,12:26 PM,146.465,146.445,146.455,307,44961.72,4,146.47,146.44,146.456,1707,250000.85,17,146.455,146.445,146.45,146.441,4.096989395625936e-05,-0.0007096069868996549,pep,20200214
2020-02-14,12:27,12:27 PM,146.45,146.45,146.45,300,43935.0,3,146.46,146.44,146.45,1500,219675.5,15,146.45,146.45,146.45,146.44,6.828315659214833e-06,-0.0007505458515284773,pep,20200214
2020-02-14,12:28,12:28 PM,146.445,146.43,146.433,208,30458.06,3,146.45,146.43,146.441,1675,245288.9804,15,146.445,146.43,146.45,146.43,-0.00010925305055015433,-0.0008119541484716142,pep,20200214
2020-02-14,12:29,12:29 PM,146.45,146.425,146.433,221,32361.75,6,146.45,146.41,146.439,1700,248946.0,11,146.43,146.45,146.42,146.44,-0.00010925305055015433,-0.0008256004366812863,pep,20200214
2020-02-14,12:30,12:30 PM,,,,0,0.0,0,146.43,146.35,146.399,3478,509175.152,28,,,146.43,146.35,,-0.0010985262008733718,pep,20200214
2020-02-14,12:31,12:31 PM,146.39,146.35,146.37,200,29274.0,2,146.41,146.35,146.383,1800,263489.0,18,146.35,146.39,146.35,146.39,-0.0005394369370907805,-0.0012076965065501671,pep,20200214
2020-02-14,12:32,12:32 PM,146.36,146.36,146.36,100,14636.0,1,146.38,146.348,146.37,1015,148565.2715,10,146.36,146.36,146.366,146.38,-0.0006077200936844815,-0.0012963973799126481,pep,20200214
2020-02-14,12:33,12:33 PM,146.41,146.39,146.398,332,48604.12,2,146.42,146.38,146.401,3608,528214.38,27,146.39,146.41,146.38,146.41,-0.0003482440986283016,-0.0010848799126636996,pep,20200214
2020-02-14,12:34,12:34 PM,146.39,146.39,146.39,10,1463.9,1,146.4,146.375,146.391,2163,316643.975,20,146.39,146.39,146.4,146.398,-0.00040287062390337877,-0.0011531113537118663,pep,20200214
2020-02-14,12:35,12:35 PM,146.39,146.39,146.39,100,14639.0,1,146.4,146.386,146.391,900,131752.14,9,146.39,146.39,146.39,146.386,-0.00040287062390337877,-0.0011531113537118663,pep,20200214
2020-02-14,12:36,12:36 PM,146.39,146.365,146.378,211,30885.78,4,146.39,146.36,146.371,4510,660132.31,21,146.39,146.365,146.38,146.365,-0.0004848104118158975,-0.0012895742358078122,pep,20200214
2020-02-14,12:37,12:37 PM,146.41,146.385,146.408,110,16104.85,2,146.446,146.37,146.417,3050,446573.09,29,146.385,146.41,146.37,146.43,-0.00027996094203460066,-0.0009757096069869042,pep,20200214
2020-02-14,12:38,12:38 PM,146.43,146.43,146.43,100,14643.0,1,146.44,146.415,146.429,1020,149357.3,10,146.43,146.43,146.43,146.415,-0.00012973799752818697,-0.0008938318777292592,pep,20200214
2020-02-14,12:39,12:39 PM,146.47,146.47,146.47,10,1464.7,1,146.49,146.42,146.456,2985,437172.091,25,146.47,146.47,146.42,146.485,0.00014339462884681073,-0.0007096069868996549,pep,20200214
2020-02-14,12:40,12:40 PM,146.495,146.49,146.493,200,29298.5,2,146.55,146.49,146.504,1972,288905.688,18,146.495,146.49,146.49,146.52,0.0003004458890124392,-0.00038209606986907473,pep,20200214
2020-02-14,12:41,12:41 PM,,,,0,0.0,0,146.52,146.49,146.498,1875,274682.9,9,,,146.52,146.49,,-0.0004230349344978973,pep,20200214
2020-02-14,12:42,12:42 PM,146.53,146.5,146.524,204,29891.0,4,146.53,146.5,146.514,3200,468845.66,22,146.5,146.53,146.5,146.52,0.000512123674453145,-0.00031386462882090796,pep,20200214
2020-02-14,12:43,12:43 PM,,,,0,0.0,0,146.54,146.495,146.509,1416,207456.99,12,,,146.54,146.495,,-0.0003479803493450883,pep,20200214
2020-02-14,12:44,12:44 PM,146.5,146.5,146.5,100,14650.0,1,146.535,146.48,146.508,4305,630719.15,28,146.5,146.5,146.51,146.48,0.0003482440986281075,-0.00035480349344973046,pep,20200214
2020-02-14,12:45,12:45 PM,,,,0,0.0,0,146.47,146.46,146.465,400,58586.0,4,,,146.47,146.46,,-0.0006481986899563241,pep,20200214
2020-02-14,12:46,12:46 PM,,,,0,0.0,0,146.48,146.45,146.468,1065,155988.05,10,,,146.465,146.48,,-0.0006277292576420098,pep,20200214
2020-02-14,12:47,12:47 PM,146.495,146.495,146.495,6,878.97,1,146.511,146.47,146.491,3155,462178.3477,21,146.495,146.495,146.49,146.5,0.00031410252033125705,-0.00047079694323136194,pep,20200214
2020-02-14,12:48,12:48 PM,146.51,146.48,146.507,245,35894.15,3,146.51,146.439,146.476,4157,608899.5081,25,146.51,146.48,146.51,146.458,0.00039604230824377576,-0.0005731441048035152,pep,20200214
2020-02-14,12:49,12:49 PM,,,,0,0.0,0,146.48,146.45,146.461,2025,296582.965,15,,,146.45,146.458,,-0.0006754912663754745,pep,20200214
2020-02-14,12:50,12:50 PM,,,,0,0.0,0,146.46,146.42,146.441,1328,194473.66,12,,,146.46,146.44,,-0.0008119541484716142,pep,20200214
2020-02-14,12:51,12:51 PM,,,,0,0.0,0,146.47,146.41,146.439,2303,337249.747,22,,,146.42,146.47,,-0.0008256004366812863,pep,20200214
2020-02-14,12:52,12:52 PM,,,,0,0.0,0,146.46,146.46,146.46,200,29292.0,2,,,146.46,146.46,,-0.0006823144104803106,pep,20200214
2020-02-14,12:53,12:53 PM,,,,0,0.0,0,146.47,146.44,146.455,1085,158903.727,9,,,146.442,146.457,,-0.000716430131004297,pep,20200214
2020-02-14,12:54,12:54 PM,146.47,146.45,146.464,210,30757.5,3,146.51,146.45,146.464,4116,602846.86,29,146.46,146.47,146.46,146.51,0.00010242473489055136,-0.0006550218340611602,pep,20200214
2020-02-14,12:55,12:55 PM,146.51,146.5,146.501,200,29300.24,2,146.515,146.48,146.498,2458,360090.97,20,146.5,146.51,146.5,146.485,0.0003550724142875164,-0.0004230349344978973,pep,20200214
2020-02-14,12:56,12:56 PM,146.51,146.48,146.482,329,48192.55,5,146.5,146.46,146.484,3515,514891.385,29,146.48,146.51,146.495,146.5,0.00022533441675932943,-0.0005185589519650205,pep,20200214
2020-02-14,12:57,12:57 PM,146.48,146.47,146.475,200,29295.0,2,146.5,146.46,146.486,1865,273196.5,15,146.48,146.47,146.48,146.49,0.00017753620714366117,-0.0005049126637555423,pep,20200214
2020-02-14,12:58,12:58 PM,,,,0,0.0,0,146.515,146.489,146.507,2966,434539.11,24,,,146.49,146.5,,-0.0003616266375545665,pep,20200214
2020-02-14,12:59,12:59 PM,146.515,146.515,146.515,1,146.515,1,146.515,146.48,146.506,4084,598330.26,32,146.515,146.515,146.51,146.5,0.00045066883351865887,-0.0003684497816594026,pep,20200214
2020-02-14,13:00,1 PM,146.485,146.485,146.485,10,1464.85,1,146.49,146.46,146.478,500,73239.0,5,146.485,146.485,146.49,146.46,0.0002458193637375562,-0.0005594978165938431,pep,20200214
2020-02-14,13:01,1:01 PM,146.465,146.455,146.464,110,16111.05,3,146.51,146.43,146.476,6180,905222.1,49,146.465,146.455,146.43,146.51,0.00010242473489055136,-0.0005731441048035152,pep,20200214
2020-02-14,13:02,1:02 PM,146.52,146.515,146.518,200,29303.5,2,146.55,146.48,146.511,7809,1144102.91,70,146.52,146.515,146.515,146.48,0.0004711537804968856,-0.00033433406113541616,pep,20200214
2020-02-14,13:03,1:03 PM,,,,0,0.0,0,146.49,146.45,146.47,1500,219705.5,14,,,146.48,146.48,,-0.0006140829694323376,pep,20200214
2020-02-14,13:04,1:04 PM,,,,0,0.0,0,146.44,146.415,146.427,2101,307642.51,20,,,146.44,146.42,,-0.0009074781659389313,pep,20200214
2020-02-14,13:05,1:05 PM,,,,0,0.0,0,146.47,146.45,146.46,1000,146460.0,9,,,146.45,146.45,,-0.0006823144104803106,pep,20200214
2020-02-14,13:06,1:06 PM,,,,0,0.0,0,146.47,146.43,146.449,800,117159.5,8,,,146.46,146.45,,-0.0007573689956331195,pep,20200214
2020-02-14,13:07,1:07 PM,,,,0,0.0,0,146.45,146.43,146.442,429,62823.76,4,,,146.44,146.43,,-0.000805131004366778,pep,20200214
2020-02-14,13:08,1:08 PM,146.4,146.4,146.4,100,14640.0,1,146.45,146.39,146.416,2470,361648.72,24,146.4,146.4,146.43,146.39,-0.00033458746730948377,-0.0009825327510917402,pep,20200214
2020-02-14,13:09,1:09 PM,,,,0,0.0,0,146.41,146.38,146.394,1867,273318.3,15,,,146.4,146.38,,-0.0011326419213973581,pep,20200214
2020-02-14,13:10,1:10 PM,,,,0,0.0,0,146.39,146.34,146.363,2772,405717.3826,25,,,146.375,146.38,,-0.001344159388646307,pep,20200214
2020-02-14,13:11,1:11 PM,146.46,146.4,146.449,122,17866.8,2,146.49,146.38,146.44,5243,767784.21,48,146.4,146.46,146.38,146.46,0.0,-0.0008187772925764502,pep,20200214
2020-02-14,13:12,1:12 PM,146.52,146.49,146.52,101,14798.49,2,146.53,146.47,146.506,6821,999319.6455,46,146.49,146.52,146.49,146.49,0.0004848104118157034,-0.0003684497816594026,pep,20200214
2020-02-14,13:13,1:13 PM,,,,0,0.0,0,146.48,146.45,146.458,600,87875.0,6,,,146.46,146.45,,-0.0006959606986899827,pep,20200214
2020-02-14,13:14,1:14 PM,146.445,146.445,146.445,100,14644.5,1,146.465,146.42,146.443,1204,176317.0546,11,146.445,146.445,146.462,146.42,-2.7313262637635623e-05,-0.000798307860261942,pep,20200214
2020-02-14,13:15,1:15 PM,146.45,146.435,146.443,564,82593.91,6,146.455,146.43,146.441,2858,418528.6587,22,146.45,146.435,146.445,146.43,-4.096989395625936e-05,-0.0008119541484716142,pep,20200214
2020-02-14,13:16,1:16 PM,,,,0,0.0,0,146.42,146.39,146.399,1500,219598.5,14,,,146.42,146.4,,-0.0010985262008733718,pep,20200214
2020-02-14,13:17,1:17 PM,,,,0,0.0,0,146.375,146.37,146.372,500,73186.0,5,,,146.375,146.37,,-0.001282751091702976,pep,20200214
2020-02-14,13:18,1:18 PM,146.375,146.375,146.375,100,14637.5,1,146.4,146.36,146.37,3118,456382.1364,25,146.375,146.375,146.365,146.36,-0.0005052953587939301,-0.0012963973799126481,pep,20200214
2020-02-14,13:19,1:19 PM,146.365,146.365,146.365,100,14636.5,1,146.38,146.35,146.365,4136,605366.831,32,146.365,146.365,146.36,146.38,-0.000573578515387631,-0.0013305131004366347,pep,20200214
2020-02-14,13:20,1:20 PM,146.43,146.42,146.43,100,14642.99,2,146.43,146.39,146.421,3300,483189.5,29,146.42,146.43,146.39,146.42,-0.00012973799752818697,-0.0009484170305677539,pep,20200214
2020-02-14,13:21,1:21 PM,146.43,146.43,146.43,100,14643.0,1,146.44,146.38,146.417,4958,725935.91,43,146.43,146.43,146.43,146.39,-0.00012973799752818697,-0.0009757096069869042,pep,20200214
2020-02-14,13:22,1:22 PM,146.4,146.4,146.4,200,29280.0,2,146.43,146.38,146.398,2500,365996.0,21,146.4,146.4,146.38,146.43,-0.00033458746730948377,-0.0011053493449782077,pep,20200214
2020-02-14,13:23,1:23 PM,146.4,146.4,146.4,100,14640.0,1,146.41,146.38,146.398,2300,336715.55,20,146.4,146.4,146.4,146.38,-0.00033458746730948377,-0.0011053493449782077,pep,20200214
2020-02-14,13:24,1:24 PM,146.375,146.375,146.375,10,1463.75,1,146.38,146.36,146.369,1950,285420.56,15,146.375,146.375,146.38,146.37,-0.0005052953587939301,-0.0013032205240174843,pep,20200214
2020-02-14,13:25,1:25 PM,,,,0,0.0,0,146.38,146.36,146.371,700,102459.5,6,,,146.38,146.37,,-0.0012895742358078122,pep,20200214
2020-02-14,13:26,1:26 PM,146.375,146.375,146.375,10,1463.75,1,146.38,146.32,146.351,4400,643945.7703,38,146.375,146.375,146.37,146.34,-0.0005052953587939301,-0.0014260371179039518,pep,20200214
2020-02-14,13:27,1:27 PM,,,,0,0.0,0,146.42,146.36,146.386,2700,395242.0,26,,,146.37,146.4,,-0.0011872270742358528,pep,20200214
2020-02-14,13:28,1:28 PM,146.395,146.395,146.395,10,1463.95,1,146.4,146.38,146.397,3832,560992.8,33,146.395,146.395,146.395,146.4,-0.00036872904560633423,-0.0011121724890830438,pep,20200214
2020-02-14,13:29,1:29 PM,146.36,146.36,146.36,100,14636.0,1,146.39,146.36,146.368,2604,381140.9784,18,146.36,146.36,146.39,146.36,-0.0006077200936844815,-0.0013100436681223204,pep,20200214
2020-02-14,13:30,1:30 PM,146.31,146.31,146.31,200,29262.0,2,146.345,146.28,146.304,3860,564735.7,38,146.31,146.31,146.345,146.315,-0.0009491358766533742,-0.0017467248908296959,pep,20200214
2020-02-14,13:31,1:31 PM,146.34,146.32,146.327,300,43898.0,4,146.34,146.3,146.316,3344,489281.4318,21,146.32,146.34,146.32,146.34,-0.0008330545104440049,-0.0016648471615720508,pep,20200214
2020-02-14,13:32,1:32 PM,,,,0,0.0,0,146.32,146.29,146.304,1987,290706.035,17,,,146.31,146.31,,-0.0017467248908296959,pep,20200214
2020-02-14,13:33,1:33 PM,,,,0,0.0,0,146.32,146.285,146.305,1500,219457.5,14,,,146.3,146.31,,-0.0017399017467248598,pep,20200214
2020-02-14,13:34,1:34 PM,,,,0,0.0,0,146.34,146.31,146.331,2805,410458.55,25,,,146.33,146.34,,-0.0015625000000000916,pep,20200214
2020-02-14,13:35,1:35 PM,,,,0,0.0,0,146.37,146.35,146.359,1800,263446.0,13,,,146.36,146.35,,-0.0013714519650654571,pep,20200214
2020-02-14,13:36,1:36 PM,146.35,146.34,146.345,200,29269.0,2,146.35,146.3,146.325,2715,397271.5,27,146.35,146.34,146.35,146.3,-0.0007101448285752269,-0.001603438864628914,pep,20200214
2020-02-14,13:37,1:37 PM,146.32,146.32,146.32,8,1170.56,1,146.33,146.29,146.306,2203,322311.4544,21,146.32,146.32,146.295,146.33,-0.0008808527200596732,-0.0017330786026200236,pep,20200214
2020-02-14,13:38,1:38 PM,146.33,146.33,146.33,2,292.66,1,146.35,146.328,146.337,1716,251114.4418,11,146.33,146.33,146.339,146.35,-0.0008125695634657782,-0.001521561135371269,pep,20200214
2020-02-14,13:39,1:39 PM,,,,0,0.0,0,146.37,146.34,146.36,1400,204904.0,13,,,146.35,146.37,,-0.0013646288209606212,pep,20200214
2020-02-14,13:40,1:40 PM,,,,0,0.0,0,146.39,146.35,146.359,2299,336478.833,18,,,146.36,146.39,,-0.0013714519650654571,pep,20200214
2020-02-14,13:41,1:41 PM,146.38,146.38,146.38,110,16101.8,2,146.39,146.36,146.37,900,131733.0,9,146.38,146.38,146.39,146.36,-0.00047115378049707965,-0.0012963973799126481,pep,20200214
2020-02-14,13:42,1:42 PM,146.385,146.365,146.375,200,29275.0,2,146.39,146.365,146.38,1773,259531.2586,12,146.365,146.385,146.365,146.38,-0.0005052953587939301,-0.0012281659388646753,pep,20200214
2020-02-14,13:43,1:43 PM,,,,0,0.0,0,146.4,146.37,146.393,5900,863717.4,43,,,146.39,146.37,,-0.0011394650655021943,pep,20200214
2020-02-14,13:44,1:44 PM,,,,0,0.0,0,146.42,146.39,146.399,4157,608581.8,23,,,146.39,146.41,,-0.0010985262008733718,pep,20200214
2020-02-14,13:45,1:45 PM,146.42,146.41,146.414,153,22401.35,3,146.44,146.41,146.427,3590,525671.35,22,146.415,146.42,146.415,146.44,-0.00023899104807834133,-0.0009074781659389313,pep,20200214
2020-02-14,13:46,1:46 PM,146.425,146.425,146.425,10,1464.25,1,146.44,146.405,146.42,1849,270729.905,16,146.425,146.425,146.44,146.43,-0.00016387957582503744,-0.0009552401746725899,pep,20200214
2020-02-14,13:47,1:47 PM,146.445,146.445,146.445,301,44079.945,4,146.46,146.415,146.444,4402,644647.93,43,146.445,146.445,146.415,146.44,-2.7313262637635623e-05,-0.0007914847161572999,pep,20200214
2020-02-14,13:48,1:48 PM,146.45,146.44,146.441,109,15962.05,2,146.45,146.43,146.446,3314,485322.6405,22,146.45,146.44,146.445,146.44,-5.4626525275077166e-05,-0.0007778384279476277,pep,20200214
2020-02-14,13:49,1:49 PM,,,,0,0.0,0,146.55,146.44,146.508,2781,407438.92,21,,,146.44,146.52,,-0.00035480349344973046,pep,20200214
2020-02-14,13:50,1:50 PM,146.55,146.55,146.55,15,2198.25,1,146.56,146.51,146.537,1730,253508.3658,15,146.55,146.55,146.51,146.56,0.0006896598815970002,-0.00015693231441045398,pep,20200214
2020-02-14,13:51,1:51 PM,146.56,146.56,146.56,9,1319.04,1,146.565,146.54,146.554,2767,405516.18,21,146.56,146.56,146.54,146.55,0.0007579430381907011,-4.093886462882251e-05,pep,20200214
2020-02-14,13:52,1:52 PM,146.55,146.55,146.55,110,16120.5,2,146.58,146.54,146.562,4002,586540.8016,14,146.55,146.55,146.55,146.561,0.0006896598815970002,1.3646288209672146e-05,pep,20200214
2020-02-14,13:53,1:53 PM,146.585,146.56,146.565,552,80903.74,10,146.585,146.56,146.573,4690,687427.3824,37,146.57,146.565,146.57,146.565,0.0007920846164875515,8.870087336248109e-05,pep,20200214
2020-02-14,13:54,1:54 PM,146.56,146.53,146.558,151,22130.23,6,146.57,146.52,146.538,3565,522408.93,29,146.555,146.53,146.57,146.538,0.0007442864068718833,-0.0001501091703056179,pep,20200214
2020-02-14,13:55,1:55 PM,146.565,146.54,146.554,426,62432.03,6,146.57,146.545,146.556,2320,340011.262,17,146.545,146.555,146.545,146.57,0.0007169731442344418,-2.7292576419150366e-05,pep,20200214
2020-02-14,13:56,1:56 PM,146.57,146.57,146.57,100,14657.0,1,146.58,146.55,146.567,3505,513719.1916,20,146.57,146.57,146.57,146.56,0.000826226194784402,4.7762008733658586e-05,pep,20200214
2020-02-14,13:57,1:57 PM,146.635,146.59,146.608,300,43982.5,3,146.65,146.568,146.605,6300,923614.4,49,146.59,146.635,146.57,146.62,0.001085702189840776,0.0003070414847160719,pep,20200214
2020-02-14,13:58,1:58 PM,,,,0,0.0,0,146.64,146.61,146.63,1762,258362.4964,13,,,146.62,146.61,,0.000477620087336198,pep,20200214
2020-02-14,13:59,1:59 PM,,,,0,0.0,0,146.69,146.64,146.669,2619,384125.9343,17,,,146.64,146.69,,0.0007437227074236413,pep,20200214
2020-02-14,14:00,2 PM,146.675,146.655,146.665,400,58666.0,4,146.69,146.65,146.664,3600,527990.9,22,146.675,146.66,146.69,146.66,0.0014749161824251429,0.0007096069868994609,pep,20200214
2020-02-14,14:01,2:01 PM,146.68,146.68,146.68,100,14668.0,1,146.74,146.68,146.722,2754,404071.61,17,146.68,146.68,146.68,146.74,0.0015773409173158884,0.0011053493449782077,pep,20200214
2020-02-14,14:02,2:02 PM,146.745,146.73,146.737,211,30961.55,4,146.76,146.72,146.736,3273,480265.72,27,146.74,146.745,146.74,146.745,0.001966554909900255,0.001200873362445331,pep,20200214
2020-02-14,14:03,2:03 PM,146.74,146.74,146.74,100,14674.0,1,146.74,146.69,146.713,4260,624999.275,37,146.74,146.74,146.74,146.695,0.0019870398568784817,0.0010439410480348771,pep,20200214
2020-02-14,14:04,2:04 PM,146.7,146.695,146.697,200,29339.5,2,146.74,146.67,146.702,5074,744367.65,34,146.695,146.7,146.69,146.74,0.0016934222835252575,0.0009688864628820681,pep,20200214
2020-02-14,14:05,2:05 PM,146.725,146.725,146.725,100,14672.5,1,146.725,146.645,146.666,2677,392624.334,24,146.725,146.725,146.725,146.663,0.0018846151219877364,0.000723253275109133,pep,20200214
2020-02-14,14:06,2:06 PM,146.68,146.675,146.675,210,30801.8,2,146.7,146.67,146.684,1900,278699.0,16,146.68,146.675,146.67,146.68,0.0015431993390190378,0.0008460698689956006,pep,20200214
2020-02-14,14:07,2:07 PM,146.695,146.68,146.688,200,29337.5,2,146.7,146.67,146.686,3204,469981.68,26,146.68,146.695,146.68,146.69,0.0016319674425907713,0.0008597161572052727,pep,20200214
2020-02-14,14:08,2:08 PM,146.655,146.655,146.655,10,1466.55,1,146.7,146.65,146.675,3725,546363.4075,32,146.655,146.655,146.68,146.69,0.001406633025831442,0.0007846615720524637,pep,20200214
2020-02-14,14:09,2:09 PM,146.675,146.67,146.675,102,14960.84,2,146.7,146.65,146.688,5167,757938.4,27,146.675,146.67,146.7,146.695,0.0015431993390190378,0.000873362445414751,pep,20200214
2020-02-14,14:10,2:10 PM,,,,0,0.0,0,146.73,146.7,146.714,2742,402289.59,22,,,146.7,146.705,,0.0010507641921397132,pep,20200214
2020-02-14,14:11,2:11 PM,146.67,146.67,146.67,100,14667.0,1,146.72,146.67,146.686,3589,526456.6257,27,146.67,146.67,146.695,146.715,0.0015090577607219933,0.0008597161572052727,pep,20200214
2020-02-14,14:12,2:12 PM,146.73,146.73,146.73,100,14673.0,1,146.75,146.72,146.734,2411,353775.971,22,146.73,146.73,146.73,146.73,0.0019187567002845868,0.0011872270742358528,pep,20200214
2020-02-14,14:13,2:13 PM,146.71,146.71,146.71,10,1467.1,1,146.72,146.7,146.709,1100,161380.5,9,146.71,146.71,146.71,146.705,0.0017821903870971852,0.0010166484716157267,pep,20200214
2020-02-14,14:14,2:14 PM,146.7,146.7,146.7,100,14670.0,1,146.7,146.65,146.673,1647,241570.99,14,146.7,146.7,146.69,146.66,0.00171390723050329,0.0007710152838427916,pep,20200214
2020-02-14,14:15,2:15 PM,,,,0,0.0,0,146.64,146.58,146.607,2600,381177.65,20,,,146.63,146.58,,0.000320687772925744,pep,20200214
2020-02-14,14:16,2:16 PM,,,,0,0.0,0,146.61,146.51,146.561,3532,517654.1,31,,,146.61,146.56,,6.823144104836073e-06,pep,20200214
2020-02-14,14:17,2:17 PM,146.585,146.585,146.585,1,146.585,1,146.61,146.54,146.576,1700,249178.5,16,146.585,146.585,146.56,146.61,0.0009286509296751475,0.00010917030567679539,pep,20200214
2020-02-14,14:18,2:18 PM,146.58,146.57,146.578,599,87800.42,6,146.59,146.52,146.567,5442,797616.3626,45,146.58,146.57,146.59,146.57,0.0008808527200594792,4.7762008733658586e-05,pep,20200214
2020-02-14,14:19,2:19 PM,146.53,146.53,146.53,100,14653.0,1,146.56,146.51,146.531,1107,162209.66,11,146.53,146.53,146.56,146.53,0.0005530935684094043,-0.00019787117903927648,pep,20200214
2020-02-14,14:20,2:20 PM,146.55,146.525,146.537,20,2930.75,2,146.575,146.525,146.542,2304,337631.62,19,146.525,146.55,146.53,146.54,0.0006008917780250725,-0.00012281659388646752,pep,20200214
2020-02-14,14:21,2:21 PM,146.59,146.57,146.58,200,29316.0,3,146.63,146.57,146.588,3210,470546.803,26,146.57,146.59,146.57,146.63,0.000894509351378297,0.0001910480349344404,pep,20200214
2020-02-14,14:22,2:22 PM,146.65,146.65,146.65,100,14665.0,1,146.7,146.633,146.657,2855,418706.3241,27,146.65,146.65,146.65,146.7,0.0013724914475345914,0.0006618449781659963,pep,20200214
2020-02-14,14:23,2:23 PM,146.73,146.73,146.73,75,11004.75,1,146.76,146.7,146.729,1698,249145.54,14,146.73,146.73,146.7,146.75,0.0019187567002845868,0.0011531113537118663,pep,20200214
2020-02-14,14:24,2:24 PM,146.79,146.76,146.775,200,29355.0,2,146.8,146.76,146.774,4220,619387.148,34,146.76,146.79,146.76,146.79,0.002226030904956629,0.0014601528384279383,pep,20200214
2020-02-14,14:25,2:25 PM,146.815,146.81,146.815,110,16149.6,2,146.85,146.79,146.819,3421,502267.69,26,146.81,146.815,146.79,146.83,0.0024991635313316267,0.0017671943231440102,pep,20200214
2020-02-14,14:26,2:26 PM,146.835,146.83,146.834,13,1908.84,2,146.853,146.81,146.832,3050,447837.0776,25,146.83,146.835,146.84,146.85,0.002628901528859814,0.0018558951965064912,pep,20200214
2020-02-14,14:27,2:27 PM,146.85,146.83,146.84,200,29368.0,2,146.86,146.82,146.84,400,58736.0,4,146.83,146.85,146.82,146.85,0.0026698714228160733,0.0019104803493449859,pep,20200214
2020-02-14,14:28,2:28 PM,146.86,146.855,146.855,101,14832.36,2,146.89,146.85,146.872,2236,328405.42,19,146.855,146.86,146.855,146.87,0.0027722961577066247,0.0021288209606987706,pep,20200214
2020-02-14,14:29,2:29 PM,146.865,146.865,146.865,100,14686.5,1,146.91,146.865,146.889,1954,287020.6758,15,146.865,146.865,146.875,146.89,0.0028405793143005194,0.002244814410480402,pep,20200214
2020-02-14,14:30,2:30 PM,146.87,146.87,146.87,59,8665.33,1,146.885,146.87,146.878,1178,173022.03,11,146.87,146.87,146.88,146.87,0.00287472089259737,0.002169759825327399,pep,20200214
2020-02-14,14:31,2:31 PM,,,,0,0.0,0,146.87,146.81,146.847,1400,205585.5,13,,,146.86,146.81,,0.0019582423580786447,pep,20200214
2020-02-14,14:32,2:32 PM,,,,0,0.0,0,146.81,146.781,146.796,2502,367283.03,16,,,146.781,146.81,,0.001610262008733556,pep,20200214
2020-02-14,14:33,2:33 PM,146.875,146.82,146.825,110,16150.75,2,146.87,146.82,146.838,4339,637129.87,25,146.82,146.875,146.82,146.87,0.002567446687925328,0.0018968340611353138,pep,20200214
2020-02-14,14:34,2:34 PM,146.85,146.85,146.85,44,6461.4,1,146.87,146.815,146.84,2915,428038.08,27,146.85,146.85,146.86,146.865,0.002738154579409774,0.0019104803493449859,pep,20200214
2020-02-14,14:35,2:35 PM,,,,0,0.0,0,146.9,146.86,146.883,4790,703568.8,38,,,146.86,146.89,,0.0022038755458515798,pep,20200214
2020-02-14,14:36,2:36 PM,,,,0,0.0,0,146.9,146.86,146.88,1657,243380.7018,15,,,146.89,146.89,,0.0021834061135370714,pep,20200214
2020-02-14,14:37,2:37 PM,146.92,146.92,146.92,100,14692.0,1,146.97,146.88,146.928,4377,643102.3041,31,146.92,146.92,146.88,146.97,0.0032161366755660684,0.0025109170305676514,pep,20200214
2020-02-14,14:38,2:38 PM,146.97,146.925,146.947,200,29389.5,2,146.97,146.925,146.946,4216,619525.6144,29,146.925,146.97,146.95,146.95,0.003400501198369333,0.002633733624454119,pep,20200214
2020-02-14,14:39,2:39 PM,146.93,146.93,146.93,10,1469.3,1,146.94,146.895,146.922,1443,212007.985,14,146.93,146.93,146.94,146.92,0.0032844198321599636,0.002469978165938829,pep,20200214
2020-02-14,14:40,2:40 PM,146.96,146.93,146.942,183,26890.33,5,146.96,146.92,146.938,1600,235100.0,16,146.93,146.96,146.94,146.92,0.0033663596200724823,0.0025791484716156244,pep,20200214
2020-02-14,14:41,2:41 PM,146.905,146.835,146.864,348,51108.54,4,146.912,146.835,146.86,5963,875729.0836,53,146.905,146.835,146.912,146.85,0.0028337509986411107,0.0020469432314411257,pep,20200214
2020-02-14,14:42,2:42 PM,146.84,146.82,146.83,200,29366.0,2,146.84,146.79,146.809,3788,556112.24,32,146.84,146.82,146.84,146.81,0.0026015882662223724,0.0016989628820960373,pep,20200214
2020-02-14,14:43,2:43 PM,146.81,146.81,146.81,100,14681.0,1,146.85,146.8,146.823,3550,521220.42,31,146.81,146.81,146.8,146.825,0.0024650219530347765,0.0017944868995633544,pep,20200214
2020-02-14,14:44,2:44 PM,,,,0,0.0,0,146.84,146.83,146.835,853,125250.4489,6,,,146.831,146.84,,0.0018763646288209996,pep,20200214
2020-02-14,14:45,2:45 PM,146.83,146.8,146.802,108,15854.64,2,146.87,146.8,146.817,7430,1090850.3,39,146.8,146.83,146.83,146.87,0.0024103954277596993,0.001753548034934532,pep,20200214
2020-02-14,14:46,2:46 PM,146.83,146.83,146.83,10,1468.3,1,146.87,146.82,146.847,2025,297365.674,17,146.83,146.83,146.86,146.83,0.0026015882662223724,0.0019582423580786447,pep,20200214
2020-02-14,14:47,2:47 PM,,,,0,0.0,0,146.84,146.785,146.82,2581,378941.5666,24,,,146.82,146.785,,0.0017740174672488463,pep,20200214
2020-02-14,14:48,2:48 PM,146.83,146.82,146.825,200,29365.0,2,146.84,146.8,146.822,3099,455001.66,28,146.83,146.82,146.8,146.82,0.002567446687925328,0.0017876637554585183,pep,20200214
2020-02-14,14:49,2:49 PM,,,,0,0.0,0,146.82,146.765,146.785,2388,350522.977,20,,,146.82,146.78,,0.0015352074235807473,pep,20200214
2020-02-14,14:50,2:50 PM,146.77,146.7,146.726,424,62211.64,5,146.77,146.7,146.733,9688,1421551.6158,69,146.77,146.7,146.77,146.71,0.0018914434376471453,0.0011804039301310167,pep,20200214
2020-02-14,14:51,2:51 PM,146.64,146.64,146.64,100,14664.0,1,146.68,146.61,146.645,4301,630721.719,33,146.64,146.64,146.68,146.65,0.0013042082909406965,0.0005799672489083512,pep,20200214
2020-02-14,14:52,2:52 PM,,,,0,0.0,0,146.65,146.59,146.609,2260,331337.3,20,,,146.65,146.6,,0.00033433406113541616,pep,20200214
2020-02-14,14:53,2:53 PM,,,,0,0.0,0,146.62,146.56,146.587,4857,711973.43,43,,,146.57,146.57,,0.00018422489082960434,pep,20200214
2020-02-14,14:54,2:54 PM,146.57,146.56,146.56,101,14802.57,2,146.57,146.52,146.549,4947,724978.0685,25,146.57,146.56,146.56,146.52,0.0007579430381907011,-7.505458515280896e-05,pep,20200214
2020-02-14,14:55,2:55 PM,146.58,146.56,146.57,200,29314.0,2,146.61,146.55,146.581,3907,572690.35,36,146.56,146.58,146.55,146.6,0.000826226194784402,0.00014328602620078182,pep,20200214
2020-02-14,14:56,2:56 PM,146.66,146.61,146.64,350,51324.0,4,146.67,146.61,146.644,9591,1406463.7301,41,146.61,146.66,146.61,146.657,0.0013042082909406965,0.0005731441048035152,pep,20200214
2020-02-14,14:57,2:57 PM,,,,0,0.0,0,146.65,146.6,146.633,1150,168628.5,10,,,146.64,146.6,,0.0004980895196507062,pep,20200214
2020-02-14,14:58,2:58 PM,146.63,146.62,146.621,110,16128.3,2,146.631,146.6,146.617,5000,733083.37,45,146.62,146.63,146.605,146.618,0.0011744702934127036,0.0003889192139737169,pep,20200214
2020-02-14,14:59,2:59 PM,,,,0,0.0,0,146.64,146.6,146.614,1422,208485.0051,13,,,146.63,146.605,,0.0003684497816594026,pep,20200214
2020-02-14,15:00,3 PM,146.515,146.505,146.51,200,29302.0,2,146.6,146.44,146.53,9894,1449772.59,73,146.515,146.505,146.6,146.505,0.0004165272552218084,-0.00020469432314411254,pep,20200214
2020-02-14,15:01,3:01 PM,146.53,146.53,146.53,12,1758.36,1,146.53,146.46,146.498,3420,501022.7,31,146.53,146.53,146.52,146.47,0.0005530935684094043,-0.0004230349344978973,pep,20200214
2020-02-14,15:02,3:02 PM,146.53,146.48,146.5,300,43950.0,3,146.55,146.48,146.52,1695,248350.7825,15,146.48,146.53,146.48,146.53,0.0003482440986281075,-0.00027292576419208546,pep,20200214
2020-02-14,15:03,3:03 PM,146.56,146.56,146.56,100,14656.0,1,146.56,146.5,146.526,1830,268142.2,17,146.56,146.56,146.52,146.55,0.0007579430381907011,-0.00023198689956326293,pep,20200214
2020-02-14,15:04,3:04 PM,146.52,146.52,146.52,300,43956.0,3,146.56,146.505,146.534,2118,310357.962,21,146.52,146.52,146.559,146.505,0.0004848104118157034,-0.00017740174672496218,pep,20200214
2020-02-14,15:05,3:05 PM,146.48,146.48,146.48,100,14648.0,1,146.51,146.48,146.503,5533,810599.195,43,146.48,146.48,146.51,146.48,0.00021167778544051163,-0.0003889192139739108,pep,20200214
2020-02-14,15:06,3:06 PM,146.48,146.48,146.48,300,43944.0,3,146.5,146.46,146.469,6272,918652.47,35,146.48,146.48,146.46,146.46,0.00021167778544051163,-0.0006209061135371738,pep,20200214
2020-02-14,15:07,3:07 PM,146.46,146.44,146.453,148,21675.12,2,146.46,146.42,146.447,2299,336681.05,20,146.44,146.46,146.46,146.46,2.7313262637441547e-05,-0.0007710152838427916,pep,20200214
2020-02-14,15:08,3:08 PM,146.51,146.46,146.485,310,45410.4,4,146.51,146.46,146.487,5136,752357.57,37,146.46,146.49,146.46,146.48,0.0002458193637375562,-0.0004980895196507062,pep,20200214
2020-02-14,15:09,3:09 PM,146.47,146.455,146.463,200,29292.5,2,146.48,146.44,146.463,3258,477176.5854,28,146.47,146.455,146.48,146.455,9.559641923114246e-05,-0.0006618449781659963,pep,20200214
2020-02-14,15:10,3:10 PM,146.48,146.465,146.475,517,75727.66,5,146.49,146.464,146.48,2797,409705.77,23,146.465,146.48,146.465,146.48,0.00017753620714366117,-0.0005458515283843648,pep,20200214
2020-02-14,15:11,3:11 PM,,,,0,0.0,0,146.49,146.41,146.464,3723,545287.1785,30,,,146.465,146.41,,-0.0006550218340611602,pep,20200214
2020-02-14,15:12,3:12 PM,146.41,146.41,146.41,1,146.41,1,146.43,146.38,146.409,3521,515505.2943,28,146.41,146.41,146.41,146.383,-0.0002663043107157829,-0.001030294759825399,pep,20200214
2020-02-14,15:13,3:13 PM,,,,0,0.0,0,146.355,146.31,146.336,1680,245844.621,16,,,146.352,146.31,,-0.0015283842794759112,pep,20200214
2020-02-14,15:14,3:14 PM,146.365,146.335,146.356,308,45077.785,5,146.38,146.31,146.352,5102,746686.85,37,146.335,146.365,146.31,146.36,-0.0006350333563221171,-0.0014192139737991157,pep,20200214
2020-02-14,15:15,3:15 PM,146.395,146.36,146.375,404,59135.545,8,146.4,146.36,146.378,4253,622545.711,36,146.37,146.37,146.365,146.375,-0.0005052953587939301,-0.0012418122270743475,pep,20200214
2020-02-14,15:16,3:16 PM,146.37,146.36,146.365,200,29273.0,2,146.37,146.355,146.357,1152,168603.6592,5,146.37,146.36,146.355,146.36,-0.000573578515387631,-0.0013850982532751294,pep,20200214
2020-02-14,15:17,3:17 PM,146.335,146.3,146.316,400,58526.5,4,146.36,146.29,146.319,2017,295125.485,19,146.335,146.3,146.36,146.29,-0.0009081659826971148,-0.0016443777292577365,pep,20200214
2020-02-14,15:18,3:18 PM,146.315,146.315,146.315,200,29263.0,2,146.33,146.29,146.305,4014,587270.1671,38,146.315,146.315,146.31,146.29,-0.0009149942983565238,-0.0017399017467248598,pep,20200214
2020-02-14,15:19,3:19 PM,146.34,146.335,146.339,112,16390.02,2,146.41,146.31,146.356,3636,532151.323,23,146.335,146.34,146.31,146.409,-0.0007511147225314862,-0.0013919213973799655,pep,20200214
2020-02-14,15:20,3:20 PM,146.495,146.39,146.473,511,74847.79,7,146.5,146.4,146.449,4150,607762.495,32,146.39,146.495,146.4,146.48,0.00016387957582503744,-0.0007573689956331195,pep,20200214
2020-02-14,15:21,3:21 PM,,,,0,0.0,0,146.52,146.48,146.497,5117,749626.6527,42,,,146.495,146.51,,-0.0004298580786025394,pep,20200214
2020-02-14,15:22,3:22 PM,146.59,146.515,146.551,400,58620.5,4,146.59,146.515,146.559,4190,614082.0354,34,146.515,146.59,146.52,146.58,0.000696488197256215,-6.823144104836073e-06,pep,20200214
2020-02-14,15:23,3:23 PM,146.535,146.535,146.535,12,1758.42,2,146.57,146.523,146.552,2912,426758.7245,26,146.535,146.535,146.57,146.53,0.0005872351467062548,-5.4585152838494654e-05,pep,20200214
2020-02-14,15:24,3:24 PM,146.56,146.555,146.555,107,15681.42,2,146.57,146.53,146.552,3550,520260.505,30,146.555,146.56,146.538,146.56,0.0007238014598938507,-5.4585152838494654e-05,pep,20200214
2020-02-14,15:25,3:25 PM,146.53,146.53,146.53,50,7326.5,1,146.55,146.53,146.538,1419,207937.26,13,146.53,146.53,146.55,146.53,0.0005530935684094043,-0.0001501091703056179,pep,20200214
2020-02-14,15:26,3:26 PM,146.58,146.58,146.58,1,146.58,1,146.58,146.534,146.548,2274,333249.3216,19,146.58,146.58,146.534,146.58,0.000894509351378297,-8.187772925764502e-05,pep,20200214
2020-02-14,15:27,3:27 PM,146.55,146.54,146.54,101,14800.55,2,146.59,146.54,146.554,1910,279918.521,19,146.54,146.55,146.57,146.562,0.0006213767250031052,-4.093886462882251e-05,pep,20200214
2020-02-14,15:28,3:28 PM,146.56,146.56,146.56,100,14656.0,1,146.58,146.54,146.564,1400,205189.5,12,146.56,146.56,146.58,146.56,0.0007579430381907011,2.7292576419150366e-05,pep,20200214
2020-02-14,15:29,3:29 PM,146.57,146.57,146.57,1,146.57,1,146.59,146.56,146.574,1657,242873.6573,12,146.57,146.57,146.57,146.56,0.000826226194784402,9.552401746731717e-05,pep,20200214
2020-02-14,15:30,3:30 PM,146.54,146.54,146.54,100,14654.0,1,146.6,146.525,146.552,4333,635008.7243,40,146.54,146.54,146.55,146.6,0.0006213767250031052,-5.4585152838494654e-05,pep,20200214
2020-02-14,15:31,3:31 PM,146.625,146.61,146.618,200,29323.5,2,146.63,146.58,146.608,2968,435133.86,26,146.61,146.625,146.59,146.63,0.001153985346434477,0.0003275109170305801,pep,20200214
2020-02-14,15:32,3:32 PM,146.59,146.59,146.59,100,14659.0,1,146.66,146.57,146.625,3100,454536.04,30,146.59,146.59,146.65,146.585,0.0009627925079719979,0.0004435043668122116,pep,20200214
2020-02-14,15:33,3:33 PM,146.64,146.605,146.623,200,29324.5,2,146.65,146.585,146.614,5373,787758.4346,46,146.605,146.64,146.585,146.64,0.0011881269247313274,0.0003684497816594026,pep,20200214
2020-02-14,15:34,3:34 PM,146.64,146.63,146.637,400,58655.0,4,146.65,146.617,146.629,5501,806605.1932,32,146.63,146.64,146.63,146.63,0.001283723343962664,0.00047079694323136194,pep,20200214
2020-02-14,15:35,3:35 PM,146.635,146.62,146.635,101,14810.12,2,146.64,146.62,146.633,2332,341948.889,19,146.62,146.635,146.64,146.63,0.001270066712643846,0.0004980895196507062,pep,20200214
2020-02-14,15:36,3:36 PM,146.7,146.655,146.669,332,48694.3,5,146.7,146.639,146.671,2876,421824.7536,25,146.655,146.69,146.65,146.7,0.0015022294450627784,0.0007573689956331195,pep,20200214
2020-02-14,15:37,3:37 PM,146.73,146.73,146.73,100,14673.0,1,146.74,146.67,146.709,2973,436167.07,26,146.73,146.73,146.68,146.73,0.0019187567002845868,0.0010166484716157267,pep,20200214
2020-02-14,15:38,3:38 PM,146.71,146.685,146.695,413,60584.905,4,146.71,146.67,146.694,1664,244099.638,14,146.7,146.685,146.7,146.67,0.0016797656522064396,0.0009143013100435735,pep,20200214
2020-02-14,15:39,3:39 PM,146.68,146.68,146.68,112,16428.16,2,146.71,146.655,146.679,3600,528044.5,31,146.68,146.68,146.66,146.71,0.0015773409173158884,0.0008119541484716142,pep,20200214
2020-02-14,15:40,3:40 PM,146.71,146.67,146.686,206,30217.26,3,146.72,146.67,146.689,2751,403540.5884,24,146.71,146.67,146.71,146.67,0.0016183108112721477,0.000880185589519587,pep,20200214
2020-02-14,15:41,3:41 PM,146.71,146.665,146.688,400,58675.0,4,146.72,146.66,146.685,5450,799431.28,44,146.665,146.71,146.67,146.72,0.0016319674425907713,0.0008528930131004367,pep,20200214
2020-02-14,15:42,3:42 PM,146.68,146.68,146.68,100,14668.0,1,146.73,146.671,146.688,3467,508568.5755,27,146.68,146.68,146.7,146.682,0.0015773409173158884,0.000873362445414751,pep,20200214
2020-02-14,15:43,3:43 PM,146.725,146.725,146.725,100,14672.5,1,146.74,146.68,146.706,2250,330088.5,18,146.725,146.725,146.68,146.74,0.0018846151219877364,0.0009961790393012186,pep,20200214
2020-02-14,15:44,3:44 PM,,,,0,0.0,0,146.75,146.73,146.738,3753,550709.3983,32,,,146.73,146.731,,0.0012145196506550032,pep,20200214
2020-02-14,15:45,3:45 PM,146.76,146.755,146.757,200,29351.5,2,146.78,146.71,146.754,9429,1383739.6415,79,146.755,146.76,146.74,146.71,0.002103121223087851,0.0013236899563317985,pep,20200214
2020-02-14,15:46,3:46 PM,146.74,146.7,146.715,401,58832.74,5,146.74,146.69,146.711,4517,662692.62,36,146.74,146.705,146.73,146.72,0.0018163319653940356,0.001030294759825399,pep,20200214
2020-02-14,15:47,3:47 PM,146.745,146.73,146.738,200,29347.5,2,146.75,146.72,146.735,4819,707117.5448,38,146.745,146.73,146.74,146.735,0.0019733832255596643,0.001194050218340689,pep,20200214
2020-02-14,15:48,3:48 PM,146.79,146.71,146.752,496,72788.86,9,146.79,146.7,146.73,6548,960791.0313,54,146.71,146.79,146.73,146.785,0.0020689796447910004,0.0011599344978165086,pep,20200214
2020-02-14,15:49,3:49 PM,146.83,146.79,146.815,463,67975.53,7,146.84,146.775,146.807,6716,985956.54,55,146.81,146.82,146.8,146.82,0.0024991635313316267,0.001685316593886365,pep,20200214
2020-02-14,15:50,3:50 PM,146.87,146.81,146.839,1065,156383.98,15,146.9,146.82,146.853,14880,2185167.3238,131,146.82,146.82,146.82,146.87,0.002663043107156664,0.001999181222707467,pep,20200214
2020-02-14,15:51,3:51 PM,146.9,146.83,146.865,689,101189.87,8,146.9,146.83,146.874,10066,1478432.8601,79,146.83,146.89,146.87,146.89,0.0028405793143005194,0.002142467248908249,pep,20200214
2020-02-14,15:52,3:52 PM,146.94,146.885,146.918,500,73459.0,5,146.95,146.88,146.909,10623,1560612.7566,94,146.885,146.94,146.89,146.94,0.003202480044247445,0.002381277292576348,pep,20200214
2020-02-14,15:53,3:53 PM,146.975,146.94,146.961,535,78624.12,7,146.99,146.91,146.954,12340,1813410.62,109,146.955,146.95,146.95,146.96,0.003496097617600669,0.002688318777292614,pep,20200214
2020-02-14,15:54,3:54 PM,146.99,146.93,146.945,1700,249807.16,21,147.03,146.91,146.963,31555,4637427.2,238,146.96,146.99,146.97,146.99,0.003386844567050515,0.0027497270742357503,pep,20200214
2020-02-14,15:55,3:55 PM,147.03,146.94,146.994,1382,203145.295,17,147.04,146.94,146.997,17313,2544962.59,139,146.995,147.01,146.995,147.0,0.0037214320343599986,0.002981713973799207,pep,20200214
2020-02-14,15:56,3:56 PM,147.04,146.99,147.009,732,107610.82,9,147.04,146.98,147.012,17037,2504651.0272,132,146.995,147.01,147.0,147.01,0.00382385676925055,0.0030840611353711665,pep,20200214
2020-02-14,15:57,3:57 PM,147.04,147.0,147.024,924,135850.55,15,147.04,147.0,147.02,19119,2810880.2412,164,147.01,147.01,147.01,147.01,0.003926281504141296,0.003138646288209661,pep,20200214
2020-02-14,15:58,3:58 PM,147.035,147.025,147.028,447,65721.475,13,147.04,147.0,147.026,15290,2248026.1601,131,147.025,147.025,147.01,147.025,0.003953594766778737,0.0031795851528384836,pep,20200214
2020-02-14,15:59,3:59 PM,147.03,146.92,146.965,565,83035.54,15,147.03,146.9,146.97,51692,7597159.3153,381,147.03,146.96,147.03,147.0,0.003523410880238111,0.002797489082969409,pep,20200214
