date,minute,label,high,low,average,volume,notional,numberOfTrades,marketHigh,marketLow,marketAverage,marketVolume,marketNotional,marketNumberOfTrades,open,close,marketOpen,marketClose,changeOverTime,marketChangeOverTime,tickerName,tickerDate
2020-01-30,09:30,09:30 AM,142.32,141.615,142.186,3533,502342.295,28,142.42,141.52,141.636,51556,7302197.239,95,142.32,142.285,142.32,142.285,0.0,0.0,pep,20200130
2020-01-30,09:31,09:31 AM,142.45,142.305,142.387,800,113910.0,7,142.64,142.161,142.417,12835,1827920.0148,102,142.305,142.385,142.161,142.64,0.0014136412867651765,0.005514134824479694,pep,20200130
2020-01-30,09:32,09:32 AM,142.345,142.345,142.345,200,28469.0,2,142.825,142.19,142.523,5483,781454.4075,42,142.345,142.345,142.37,142.773,0.001118253555202283,0.006262532124601094,pep,20200130
2020-01-30,09:33,09:33 AM,142.675,142.61,142.653,551,78601.755,8,142.7,142.45,142.639,5918,844139.47,52,142.675,142.61,142.69,142.6,0.0032844302533300363,0.0070815329436020105,pep,20200130
2020-01-30,09:34,09:34 AM,142.62,142.585,142.602,192,27379.54,2,142.62,142.43,142.521,3068,437255.6,30,142.62,142.585,142.5,142.43,0.002925745150718051,0.00624841142082515,pep,20200130
2020-01-30,09:35,09:35 AM,142.52,142.5,142.51,200,28502.0,2,142.57,142.01,142.374,7337,1044596.034,64,142.52,142.5,142.57,142.078,0.0022787053577706935,0.005210539693298311,pep,20200130
2020-01-30,09:36,09:36 AM,142.175,142.075,142.129,900,127916.5,9,142.24,142.053,142.15,5354,761073.0605,46,142.075,142.175,142.139,142.08,-0.0004008833499783127,0.0036290208704002516,pep,20200130
2020-01-30,09:37,09:37 AM,142.2,142.1,142.139,702,99781.9,8,142.25,142.08,142.163,2200,312759.5,22,142.1,142.195,142.08,142.25,-0.0003305529377013,0.0037208054449434837,pep,20200130
2020-01-30,09:38,09:38 AM,142.23,142.075,142.227,104,14791.62,4,142.23,142.09,142.16,2338,332369.685,20,142.23,142.135,142.216,142.09,0.0002883546903351723,0.003699624389279568,pep,20200130
2020-01-30,09:39,09:39 AM,142.155,141.995,142.041,18,2556.745,7,142.19,141.96,142.076,3061,434894.0688,23,142.155,141.995,142.13,141.99,-0.001019790978014785,0.0031065548306927456,pep,20200130
2020-01-30,09:40,09:40 AM,142.07,142.07,142.07,2,284.14,1,142.09,141.93,142.039,6652,944841.3052,58,142.07,142.07,142.007,142.04,-0.000815832782411868,0.002845321810838993,pep,20200130
2020-01-30,09:41,09:41 AM,142.08,141.95,142.02,209,29682.27,4,142.12,141.83,141.974,3927,557532.43,32,142.08,141.95,142.04,141.83,-0.0011674848437961318,0.002386398938123033,pep,20200130
2020-01-30,09:42,09:42 AM,141.91,141.85,141.887,400,56755.0,5,141.98,141.86,141.911,5642,800664.07,53,141.895,141.85,141.88,141.88,-0.0021028793270786617,0.0019415967691830162,pep,20200130
2020-01-30,09:43,09:43 AM,141.84,141.75,141.795,34,4821.03,2,141.9,141.77,141.828,3389,480655.72,32,141.84,141.75,141.83,141.85,-0.002749919120026019,0.0013555875624841657,pep,20200130
2020-01-30,09:44,09:44 AM,,,,0,0.0,0,141.87,141.679,141.765,5041,714635.7625,39,,,141.82,141.745,,0.0009107853935439484,pep,20200130
2020-01-30,09:45,09:45 AM,142.0,141.96,141.98,200,28396.0,2,142.0,141.73,141.868,6399,907812.71,47,141.96,142.0,141.78,142.0,-0.0014488064929037829,0.0016380016380016333,pep,20200130
2020-01-30,09:46,09:46 AM,141.97,141.93,141.936,119,16890.43,2,142.06,141.91,141.994,6664,946245.06,53,141.93,141.97,142.03,141.971,-0.001758260306921919,0.002527605975881867,pep,20200130
2020-01-30,09:47,09:47 AM,142.11,141.97,142.025,381,54111.675,7,142.11,141.98,142.037,2000,284075.0,18,141.97,142.11,142.0,142.11,-0.0011323196376577256,0.00283120110706325,pep,20200130
2020-01-30,09:48,09:48 AM,142.26,142.06,142.203,201,28582.86,3,142.26,141.99,142.17,5200,739282.0,49,142.26,142.06,142.16,141.99,0.00011956170087066171,0.003770227908158885,pep,20200130
2020-01-30,09:49,09:49 AM,142.05,141.92,142.015,317,45018.64,4,142.07,141.94,141.994,1800,255589.5,17,141.92,142.05,141.96,142.07,-0.0012026500499347382,0.002527605975881867,pep,20200130
2020-01-30,09:50,09:50 AM,141.97,141.875,141.95,217,30803.21,9,142.03,141.854,141.953,3484,494565.2805,31,141.97,141.875,142.03,141.91,-0.001659797729734421,0.0022381315484764274,pep,20200130
2020-01-30,09:51,09:51 AM,141.945,141.87,141.939,404,57343.48,3,141.97,141.91,141.936,1421,201691.32,11,141.87,141.945,141.91,141.93,-0.0017371611832389551,0.002118105566381509,pep,20200130
2020-01-30,09:52,09:52 AM,141.97,141.86,141.903,300,42571.0,3,142.024,141.85,141.931,4192,594975.9748,34,141.97,141.86,141.97,141.87,-0.001990350667435721,0.0020828038069418504,pep,20200130
2020-01-30,09:53,09:53 AM,141.91,141.91,141.91,100,14191.0,1,141.95,141.88,141.901,1000,141901.5,10,141.91,141.91,141.88,141.95,-0.0019411193788418722,0.0018709932503036995,pep,20200130
2020-01-30,09:54,09:54 AM,142.02,142.02,142.02,88,12497.76,2,142.03,141.948,141.982,4260,604843.706,27,142.02,142.02,141.948,141.98,-0.0011674848437961318,0.0024428817532266066,pep,20200130
2020-01-30,09:55,09:55 AM,142.04,142.01,142.04,201,28550.01,3,142.05,141.978,142.016,2593,368248.166,23,142.01,142.04,142.015,141.99,-0.0010268240192425062,0.002682933717416444,pep,20200130
2020-01-30,09:56,09:56 AM,142.03,141.95,141.99,2,283.98,2,142.1,141.96,142.024,1544,219284.94,14,141.95,142.03,141.96,142.1,-0.0013784760806267702,0.002739416532520018,pep,20200130
2020-01-30,09:57,09:57 AM,142.225,142.18,142.18,101,14360.225,2,142.28,142.15,142.223,4833,687364.34,35,142.225,142.18,142.15,142.16,-4.2198247366127654e-05,0.004144426558219785,pep,20200130
2020-01-30,09:58,09:58 AM,142.115,142.115,142.115,200,28423.0,2,142.19,142.1,142.141,2244,318965.395,21,142.115,142.115,142.14,142.19,-0.0004993459271658106,0.003565477703408706,pep,20200130
2020-01-30,09:59,09:59 AM,,,,0,0.0,0,142.24,142.11,142.185,3200,454990.5,31,,,142.18,142.13,,0.0038761331864780608,pep,20200130
2020-01-30,10:00,10 AM,142.285,142.18,142.232,200,28446.5,2,142.29,142.16,142.215,6092,866376.152,51,142.285,142.18,142.18,142.18,0.0003235198964735787,0.004087943743116212,pep,20200130
2020-01-30,10:01,10:01 AM,,,,0,0.0,0,142.27,142.16,142.243,2151,305964.69,21,,,142.16,142.27,,0.004285633595978419,pep,20200130
2020-01-30,10:02,10:02 AM,,,,0,0.0,0,142.28,142.21,142.256,1700,241835.54,14,,,142.22,142.24,,0.004377418170521651,pep,20200130
2020-01-30,10:03,10:03 AM,,,,0,0.0,0,142.28,142.18,142.228,1800,256010.66,18,,,142.25,142.19,,0.004179728317659444,pep,20200130
2020-01-30,10:04,10:04 AM,142.135,142.13,142.135,104,14782.02,2,142.23,142.07,142.129,6297,894988.044,50,142.13,142.135,142.23,142.135,-0.00035868510261218505,0.0034807534807534454,pep,20200130
2020-01-30,10:05,10:05 AM,142.195,142.12,142.141,203,28854.585,3,142.18,142.1,142.141,4143,588888.5811,25,142.195,142.12,142.145,142.12,-0.0003164868552460574,0.003565477703408706,pep,20200130
2020-01-30,10:06,10:06 AM,142.23,142.165,142.187,150,21328.0,2,142.25,142.13,142.184,2537,360720.603,22,142.165,142.23,142.13,142.19,7.033041227721258e-06,0.0038690728345900888,pep,20200130
2020-01-30,10:07,10:07 AM,142.19,142.19,142.19,100,14219.0,1,142.21,142.18,142.192,5900,838932.5,17,142.19,142.19,142.21,142.18,2.8132164910685142e-05,0.003925555649693662,pep,20200130
2020-01-30,10:08,10:08 AM,142.2,142.18,142.19,200,28438.0,2,142.25,142.18,142.201,2658,377969.9714,24,142.2,142.18,142.19,142.25,2.8132164910685142e-05,0.003989098816685008,pep,20200130
2020-01-30,10:09,10:09 AM,142.24,142.24,142.24,100,14224.0,1,142.24,142.2,142.226,2700,384011.0,26,142.24,142.24,142.24,142.2,0.00037978422629514894,0.0041656076138835004,pep,20200130
2020-01-30,10:10,10:10 AM,142.28,142.28,142.28,100,14228.0,1,142.29,142.24,142.26,1700,241841.92,17,142.28,142.28,142.24,142.26,0.0006611058754026,0.004405659578073338,pep,20200130
2020-01-30,10:11,10:11 AM,142.26,142.215,142.238,2,284.475,2,142.28,142.16,142.227,3550,504905.645,29,142.215,142.26,142.245,142.28,0.0003657181438397064,0.004172667965771472,pep,20200130
2020-01-30,10:12,10:12 AM,142.31,142.31,142.31,1,142.31,1,142.34,142.26,142.289,1748,248721.96,16,142.31,142.31,142.28,142.27,0.0008720971122332383,0.004610409782823516,pep,20200130
2020-01-30,10:13,10:13 AM,142.24,142.24,142.24,100,14224.0,1,142.277,142.23,142.245,2102,298998.2642,18,142.24,142.24,142.277,142.27,0.00037978422629514894,0.004299754299754362,pep,20200130
2020-01-30,10:14,10:14 AM,142.29,142.23,142.243,402,57181.53,6,142.3,142.2,142.25,3368,479096.9008,31,142.29,142.23,142.27,142.22,0.0004008833499781128,0.004335056059194021,pep,20200130
2020-01-30,10:15,10:15 AM,142.27,142.27,142.27,100,14227.0,1,142.27,142.18,142.21,2817,400605.37,26,142.27,142.27,142.21,142.26,0.0005907754631257872,0.0040526419836765535,pep,20200130
2020-01-30,10:16,10:16 AM,,,,0,0.0,0,142.264,142.24,142.246,1024,145660.484,8,,,142.26,142.24,,0.004306814651642335,pep,20200130
2020-01-30,10:17,10:17 AM,,,,0,0.0,0,142.21,142.105,142.166,2668,379299.7472,23,,,142.21,142.105,,0.0037419865006071986,pep,20200130
2020-01-30,10:18,10:18 AM,142.085,142.085,142.085,100,14208.5,1,142.12,142.04,142.09,6140,872430.64,47,142.085,142.085,142.09,142.07,-0.0007103371639964489,0.0032053997571239497,pep,20200130
2020-01-30,10:19,10:19 AM,,,,0,0.0,0,142.07,142.04,142.054,2131,302718.0716,20,,,142.04,142.06,,0.0029512270891581685,pep,20200130
2020-01-30,10:20,10:20 AM,,,,0,0.0,0,142.06,142.03,142.042,2232,317038.6,18,,,142.03,142.06,,0.0028665028665029084,pep,20200130
2020-01-30,10:21,10:21 AM,142.05,142.04,142.045,200,28409.0,2,142.07,142.02,142.047,4189,595036.055,36,142.05,142.04,142.06,142.05,-0.0009916588131041,0.002901804625942567,pep,20200130
2020-01-30,10:22,10:22 AM,142.05,142.05,142.05,100,14205.0,1,142.1,142.04,142.075,3825,543436.205,30,142.05,142.05,142.05,142.09,-0.0009564936069654936,0.003099494478804774,pep,20200130
2020-01-30,10:23,10:23 AM,,,,0,0.0,0,142.13,142.08,142.111,5448,774218.8,46,,,142.11,142.13,,0.003353667146770555,pep,20200130
2020-01-30,10:24,10:24 AM,,,,0,0.0,0,142.17,142.06,142.115,3767,535347.38,34,,,142.14,142.08,,0.0033819085543224424,pep,20200130
2020-01-30,10:25,10:25 AM,,,,0,0.0,0,142.17,142.09,142.129,1354,192442.8084,11,,,142.1,142.15,,0.0034807534807534454,pep,20200130
2020-01-30,10:26,10:26 AM,142.15,142.15,142.15,100,14215.0,1,142.17,142.14,142.151,2177,309463.8,19,142.15,142.15,142.17,142.15,-0.0002531894841967659,0.003636081222288223,pep,20200130
2020-01-30,10:27,10:27 AM,142.15,142.15,142.15,63,8955.45,2,142.2,142.13,142.158,1900,270100.5,18,142.15,142.15,142.14,142.19,-0.0002531894841967659,0.0036855036855036245,pep,20200130
2020-01-30,10:28,10:28 AM,,,,0,0.0,0,142.22,142.14,142.186,2000,284372.0,19,,,142.18,142.19,,0.0038831935383660324,pep,20200130
2020-01-30,10:29,10:29 AM,142.185,142.165,142.185,101,14360.665,2,142.22,142.17,142.195,1891,268890.5706,18,142.185,142.165,142.199,142.206,-7.033041227721258e-06,0.003946736705357378,pep,20200130
2020-01-30,10:30,10:30 AM,,,,0,0.0,0,142.332,142.16,142.236,5278,750722.8464,45,,,142.23,142.305,,0.0042362111327628165,pep,20200130
2020-01-30,10:31,10:31 AM,,,,0,0.0,0,142.354,142.24,142.304,3264,464480.8584,24,,,142.354,142.25,,0.004716315061142692,pep,20200130
2020-01-30,10:32,10:32 AM,142.235,142.235,142.235,200,28447.0,1,142.27,142.22,142.253,1549,220349.5665,14,142.235,142.235,142.245,142.235,0.00034461902015674254,0.004356237114857736,pep,20200130
2020-01-30,10:33,10:33 AM,,,,0,0.0,0,142.28,142.23,142.257,2700,384095.0,27,,,142.25,142.26,,0.004384478522409623,pep,20200130
2020-01-30,10:34,10:34 AM,142.27,142.27,142.27,200,28454.0,1,142.27,142.22,142.252,2875,408973.75,25,142.27,142.27,142.26,142.26,0.0005907754631257872,0.004349176762969965,pep,20200130
2020-01-30,10:35,10:35 AM,142.3,142.215,142.257,200,28451.5,2,142.3,142.2,142.241,5669,806364.965,40,142.215,142.3,142.28,142.28,0.0004993459271658106,0.004271512892202676,pep,20200130
2020-01-30,10:36,10:36 AM,142.25,142.25,142.25,100,14225.0,1,142.27,142.21,142.242,1373,195298.51,13,142.25,142.25,142.26,142.24,0.0004501146385719617,0.004278573244090447,pep,20200130
2020-01-30,10:37,10:37 AM,142.21,142.21,142.21,300,42663.0,2,142.22,142.16,142.201,1747,248425.9547,14,142.21,142.21,142.19,142.22,0.00016879298946451062,0.003989098816685008,pep,20200130
2020-01-30,10:38,10:38 AM,142.21,142.21,142.21,100,14221.0,1,142.23,142.17,142.204,3203,455480.1523,28,142.21,142.21,142.21,142.17,0.00016879298946451062,0.004010279872348923,pep,20200130
2020-01-30,10:39,10:39 AM,,,,0,0.0,0,142.19,142.08,142.124,2458,349339.5837,19,,,142.13,142.09,,0.0034454517213137873,pep,20200130
2020-01-30,10:40,10:40 AM,,,,0,0.0,0,142.12,142.01,142.063,4240,602347.64,34,,,142.1,142.01,,0.0030147702561495134,pep,20200130
2020-01-30,10:41,10:41 AM,,,,0,0.0,0,142.14,142.04,142.079,4311,612501.69,34,,,142.06,142.11,,0.0031277358863566612,pep,20200130
2020-01-30,10:42,10:42 AM,142.08,142.08,142.08,14,1989.12,1,142.14,142.02,142.056,5563,790255.7836,16,142.08,142.08,142.12,142.02,-0.0007455023701348553,0.002965347792934112,pep,20200130
2020-01-30,10:43,10:43 AM,142.03,142.03,142.03,127,18037.81,3,142.04,142.0,142.019,2437,346101.37,22,142.03,142.03,142.04,142.01,-0.0010971544315193191,0.0027041147730803594,pep,20200130
2020-01-30,10:44,10:44 AM,141.99,141.99,141.99,13,1845.87,1,142.03,141.95,142.004,4641,659042.44,36,141.99,141.99,142.01,141.95,-0.0013784760806267702,0.0025982094947611836,pep,20200130
2020-01-30,10:45,10:45 AM,141.97,141.97,141.97,100,14197.0,1,141.99,141.94,141.969,3611,512648.8,28,141.97,141.97,141.97,141.96,-0.0015191369051805958,0.0023510971786833744,pep,20200130
2020-01-30,10:46,10:46 AM,,,,0,0.0,0,142.05,141.97,142.007,3410,484242.903,22,,,141.97,142.031,,0.0026193905504250992,pep,20200130
2020-01-30,10:47,10:47 AM,142.12,142.12,142.12,100,14212.0,1,142.12,142.05,142.105,2929,416226.2833,13,142.12,142.12,142.05,142.1,-0.00046418072102740425,0.0033113050354429247,pep,20200130
2020-01-30,10:48,10:48 AM,,,,0,0.0,0,142.16,142.1,142.127,4325,614700.54,31,,,142.12,142.13,,0.0034666327769777025,pep,20200130
2020-01-30,10:49,10:49 AM,142.095,142.095,142.095,59,8383.605,1,142.15,142.08,142.113,3654,519280.32,33,142.095,142.095,142.15,142.14,-0.0006400067517196361,0.003367787850546499,pep,20200130
2020-01-30,10:50,10:50 AM,,,,0,0.0,0,142.2,142.1,142.148,2888,410524.45,23,,,142.129,142.19,,0.003614900166624308,pep,20200130
2020-01-30,10:51,10:51 AM,,,,0,0.0,0,142.19,142.16,142.173,2334,331832.6245,21,,,142.18,142.18,,0.0037914089638228002,pep,20200130
2020-01-30,10:52,10:52 AM,142.17,142.17,142.17,100,14217.0,1,142.26,142.14,142.19,4323,614688.7316,36,142.17,142.17,142.188,142.17,-0.00011252865964314035,0.003911434945917719,pep,20200130
2020-01-30,10:53,10:53 AM,,,,0,0.0,0,142.26,142.2,142.229,2293,326130.29,16,,,142.2,142.23,,0.004186788669547415,pep,20200130
2020-01-30,10:54,10:54 AM,142.25,142.24,142.249,106,15078.44,2,142.28,142.23,142.253,2550,362746.0,23,142.25,142.24,142.25,142.245,0.00044308159734424043,0.004356237114857736,pep,20200130
2020-01-30,10:55,10:55 AM,142.22,142.215,142.219,16,2275.505,4,142.26,142.21,142.233,2939,418024.36,27,142.22,142.215,142.23,142.26,0.00023209036051360216,0.004215030077099102,pep,20200130
2020-01-30,10:56,10:56 AM,142.335,142.305,142.305,102,14515.17,2,142.35,142.28,142.321,3450,491006.93,30,142.305,142.335,142.28,142.34,0.0008369319060948319,0.0048363410432376115,pep,20200130
2020-01-30,10:57,10:57 AM,142.4,142.355,142.361,208,29610.995,7,142.4,142.34,142.358,8042,1144846.9024,45,142.375,142.38,142.35,142.4,0.0012307822148452234,0.005097574063091364,pep,20200130
2020-01-30,10:58,10:58 AM,142.37,142.37,142.37,65,9254.05,2,142.46,142.365,142.394,2028,288776.14,19,142.37,142.37,142.43,142.37,0.0012940795858945148,0.0053517467310571455,pep,20200130
2020-01-30,10:59,10:59 AM,142.435,142.4,142.415,8,1139.32,4,142.44,142.37,142.415,4250,605261.81,39,142.425,142.4,142.41,142.4,0.0016105664411403724,0.00550001412070375,pep,20200130
2020-01-30,11:00,11 AM,142.36,142.33,142.34,506,72024.09,7,142.41,142.31,142.348,10949,1558566.79,53,142.36,142.345,142.41,142.345,0.0010830883490638766,0.005026970544212047,pep,20200130
2020-01-30,11:01,11:01 AM,142.45,142.41,142.43,4,569.72,2,142.45,142.336,142.406,2781,396031.0122,23,142.41,142.45,142.336,142.45,0.0017160620595557915,0.005436470953712406,pep,20200130
2020-01-30,11:02,11:02 AM,142.515,142.44,142.446,204,29058.955,7,142.514,142.42,142.463,6331,901930.47,55,142.45,142.515,142.45,142.48,0.001828590719198732,0.005838911011324791,pep,20200130
2020-01-30,11:03,11:03 AM,142.525,142.465,142.496,4,569.985,4,142.52,142.46,142.484,3255,463785.6604,27,142.495,142.465,142.49,142.494,0.0021802427805831955,0.005987178400971598,pep,20200130
2020-01-30,11:04,11:04 AM,142.525,142.49,142.502,3,427.505,2,142.56,142.47,142.522,2813,400913.25,19,142.49,142.525,142.473,142.55,0.0022224410279493233,0.006255471772713122,pep,20200130
2020-01-30,11:05,11:05 AM,142.655,142.565,142.637,140,19969.15,4,142.655,142.59,142.608,1996,284645.4335,17,142.565,142.655,142.59,142.655,0.0031719015936870956,0.006862662035075888,pep,20200130
2020-01-30,11:06,11:06 AM,142.62,142.62,142.62,100,14262.0,1,142.655,142.56,142.615,6835,974771.505,58,142.62,142.62,142.655,142.58,0.003052339892816434,0.006912084498291489,pep,20200130
2020-01-30,11:07,11:07 AM,,,,0,0.0,0,142.61,142.599,142.607,6566,936361.47,43,,,142.599,142.6,,0.006855601683187916,pep,20200130
2020-01-30,11:08,11:08 AM,142.645,142.645,142.645,200,28529.0,2,142.66,142.6,142.635,3555,507067.0892,24,142.645,142.645,142.61,142.66,0.0032281659235086657,0.007053291536050123,pep,20200130
2020-01-30,11:09,11:09 AM,142.655,142.655,142.655,100,14265.5,1,142.66,142.61,142.637,1522,217094.02,15,142.655,142.655,142.66,142.615,0.0032984963357854786,0.0070674122398260665,pep,20200130
2020-01-30,11:10,11:10 AM,142.66,142.66,142.66,24,3423.84,1,142.705,142.62,142.641,3472,495247.946,30,142.66,142.66,142.63,142.705,0.003333661541923885,0.007095653647377753,pep,20200130
2020-01-30,11:11,11:11 AM,,,,0,0.0,0,142.73,142.65,142.674,4327,617350.455,39,,,142.715,142.66,,0.00732864525967982,pep,20200130
2020-01-30,11:12,11:12 AM,142.655,142.64,142.645,300,42793.5,3,142.655,142.61,142.641,2315,330213.672,17,142.655,142.64,142.655,142.61,0.0032281659235086657,0.007095653647377753,pep,20200130
2020-01-30,11:13,11:13 AM,142.675,142.625,142.637,400,57055.0,3,142.695,142.625,142.656,3918,558925.3,33,142.625,142.675,142.625,142.65,0.0031719015936870956,0.007201558925696929,pep,20200130
2020-01-30,11:14,11:14 AM,,,,0,0.0,0,142.71,142.65,142.678,1530,218297.177,13,,,142.66,142.69,,0.007356886667231506,pep,20200130
2020-01-30,11:15,11:15 AM,,,,0,0.0,0,142.72,142.68,142.699,2415,344618.5584,19,,,142.715,142.72,,0.007505154056878312,pep,20200130
2020-01-30,11:16,11:16 AM,,,,0,0.0,0,142.721,142.6,142.669,3879,553412.3542,23,,,142.72,142.6,,0.007293343500240162,pep,20200130
2020-01-30,11:17,11:17 AM,142.615,142.615,142.615,100,14261.5,1,142.62,142.578,142.598,3402,485120.0032,28,142.615,142.615,142.6,142.61,0.0030171746866780274,0.006792058516196571,pep,20200130
2020-01-30,11:18,11:18 AM,142.59,142.59,142.59,100,14259.0,1,142.6,142.58,142.591,2760,393551.3,18,142.59,142.59,142.6,142.585,0.0028413486559857957,0.006742636052980969,pep,20200130
2020-01-30,11:19,11:19 AM,,,,0,0.0,0,142.63,142.6,142.622,3120,444980.1696,24,,,142.6,142.61,,0.006961506961507092,pep,20200130
2020-01-30,11:20,11:20 AM,,,,0,0.0,0,142.63,142.61,142.626,4272,609300.2,28,,,142.62,142.61,,0.006989748369058778,pep,20200130
2020-01-30,11:21,11:21 AM,,,,0,0.0,0,142.64,142.59,142.623,2730,389360.6013,19,,,142.62,142.63,,0.006968567313394863,pep,20200130
2020-01-30,11:22,11:22 AM,,,,0,0.0,0,142.71,142.65,142.668,7622,1087413.935,49,,,142.66,142.71,,0.007286283148352189,pep,20200130
2020-01-30,11:23,11:23 AM,142.695,142.695,142.695,300,42808.5,1,142.77,142.69,142.719,2951,421162.419,23,142.695,142.695,142.72,142.76,0.0035798179848929297,0.007646361094636946,pep,20200130
2020-01-30,11:24,11:24 AM,,,,0,0.0,0,142.8,142.765,142.782,6550,935219.97,47,,,142.77,142.8,,0.008091163263577164,pep,20200130
2020-01-30,11:25,11:25 AM,,,,0,0.0,0,142.76,142.705,142.734,4242,605479.4156,27,,,142.76,142.745,,0.0077522663729561216,pep,20200130
2020-01-30,11:26,11:26 AM,142.72,142.72,142.72,2,285.44,1,142.77,142.72,142.74,8864,1265250.733,65,142.72,142.72,142.739,142.721,0.0037556440155851615,0.007794628484283752,pep,20200130
2020-01-30,11:27,11:27 AM,,,,0,0.0,0,142.79,142.72,142.753,3091,441250.3464,21,,,142.75,142.73,,0.007886413058826784,pep,20200130
2020-01-30,11:28,11:28 AM,,,,0,0.0,0,142.77,142.66,142.708,3450,492344.1942,29,,,142.73,142.675,,0.007568697223869657,pep,20200130
2020-01-30,11:29,11:29 AM,,,,0,0.0,0,142.69,142.64,142.66,2454,350087.14,21,,,142.67,142.64,,0.007229800333248616,pep,20200130
2020-01-30,11:30,11:30 AM,142.69,142.615,142.644,215,30668.395,6,142.75,142.63,142.663,2688,383479.7535,20,142.615,142.69,142.63,142.75,0.0032211328822809447,0.007250981388912531,pep,20200130
2020-01-30,11:31,11:31 AM,142.73,142.73,142.73,1,142.73,1,142.764,142.712,142.739,1809,258215.574,15,142.73,142.73,142.764,142.75,0.0038259744278619744,0.00778756813239578,pep,20200130
2020-01-30,11:32,11:32 AM,142.77,142.75,142.769,103,14705.25,3,142.8,142.735,142.76,1874,267531.7132,15,142.75,142.77,142.735,142.8,0.004100263035741904,0.007935835522042385,pep,20200130
2020-01-30,11:33,11:33 AM,142.8,142.795,142.798,3,428.395,2,142.81,142.73,142.775,2079,296830.1766,18,142.8,142.795,142.79,142.732,0.004304221231344821,0.00804174080036156,pep,20200130
2020-01-30,11:34,11:34 AM,,,,0,0.0,0,142.81,142.73,142.765,3692,527087.0,20,,,142.73,142.74,,0.007971137281482044,pep,20200130
2020-01-30,11:35,11:35 AM,142.79,142.79,142.79,3,428.37,2,142.84,142.75,142.792,1895,270591.95,16,142.79,142.79,142.75,142.84,0.004247956901523251,0.008161766782456479,pep,20200130
2020-01-30,11:36,11:36 AM,142.94,142.87,142.917,3,428.75,2,142.96,142.84,142.893,3543,506271.3982,32,142.87,142.94,142.85,142.96,0.005141153137439653,0.00887486232313822,pep,20200130
2020-01-30,11:37,11:37 AM,142.98,142.955,142.964,422,60331.015,5,142.99,142.927,142.963,24117,3447840.926,112,142.97,142.98,142.96,142.99,0.005471706075140953,0.00936908695529384,pep,20200130
2020-01-30,11:38,11:38 AM,142.99,142.99,142.99,20,2859.8,1,143.02,142.93,142.984,8154,1165894.05,55,142.99,142.99,142.99,143.02,0.005654565147060906,0.009517354344940646,pep,20200130
2020-01-30,11:39,11:39 AM,142.97,142.97,142.97,100,14297.0,1,143.0,142.94,142.971,6139,877700.64,49,142.97,142.97,143.0,142.97,0.005513904322507081,0.009425569770397412,pep,20200130
2020-01-30,11:40,11:40 AM,,,,0,0.0,0,142.98,142.93,142.954,3763,537936.64,34,,,142.98,142.97,,0.009305543788302494,pep,20200130
2020-01-30,11:41,11:41 AM,,,,0,0.0,0,143.0,142.937,142.968,4416,631346.754,30,,,142.98,142.945,,0.009404388714733498,pep,20200130
2020-01-30,11:42,11:42 AM,142.99,142.99,142.99,54,7721.46,1,143.0,142.93,142.981,3355,479701.0736,30,142.99,142.99,142.96,142.962,0.005654565147060906,0.00949617328927673,pep,20200130
2020-01-30,11:43,11:43 AM,142.995,142.995,142.995,100,14299.5,1,143.021,142.992,143.005,2917,417144.597,24,142.995,142.995,142.992,143.01,0.005689730353199312,0.009665621734587251,pep,20200130
2020-01-30,11:44,11:44 AM,143.08,143.08,143.08,13,1860.04,1,143.1,143.0,143.069,2845,407030.8,19,143.08,143.08,143.01,143.1,0.006287538857552821,0.010117484255415239,pep,20200130
2020-01-30,11:45,11:45 AM,143.1,143.055,143.081,231,33051.705,3,143.1,142.98,143.039,5323,761395.691,47,143.1,143.055,143.1,142.98,0.006294571898780342,0.009905673698777089,pep,20200130
2020-01-30,11:46,11:46 AM,143.01,143.005,143.007,200,28601.5,2,143.03,142.98,143.008,1132,161885.13,11,143.01,143.005,142.98,143.02,0.005774126847931568,0.009686802790251166,pep,20200130
2020-01-30,11:47,11:47 AM,143.03,143.03,143.03,200,28606.0,2,143.07,143.01,143.043,2577,368622.85,21,143.03,143.03,143.02,143.07,0.005935886796168357,0.009933915106328975,pep,20200130
2020-01-30,11:48,11:48 AM,,,,0,0.0,0,143.104,143.07,143.093,2500,357731.73,24,,,143.08,143.09,,0.010286932700725759,pep,20200130
2020-01-30,11:49,11:49 AM,,,,0,0.0,0,143.115,143.08,143.098,1551,221944.627,11,,,143.115,143.11,,0.010322234460165619,pep,20200130
2020-01-30,11:50,11:50 AM,143.13,143.13,143.13,61,8730.93,1,143.14,143.1,143.118,5524,790586.16,45,143.13,143.13,143.11,143.11,0.006639190918937085,0.010463441497924253,pep,20200130
2020-01-30,11:51,11:51 AM,,,,0,0.0,0,143.12,143.05,143.083,3237,463161.406,30,,,143.11,143.05,,0.010216329181846442,pep,20200130
2020-01-30,11:52,11:52 AM,,,,0,0.0,0,143.085,143.01,143.046,2904,415404.6281,22,,,143.04,143.085,,0.00995509616199269,pep,20200130
2020-01-30,11:53,11:53 AM,,,,0,0.0,0,143.14,143.085,143.117,4392,628568.036,39,,,143.086,143.14,,0.010456381146036281,pep,20200130
2020-01-30,11:54,11:54 AM,,,,0,0.0,0,143.132,143.07,143.117,2812,402443.8475,17,,,143.13,143.07,,0.010456381146036281,pep,20200130
2020-01-30,11:55,11:55 AM,,,,0,0.0,0,143.11,143.03,143.074,2234,319627.5,20,,,143.09,143.03,,0.010152786014855099,pep,20200130
2020-01-30,11:56,11:56 AM,,,,0,0.0,0,143.055,143.01,143.031,1707,244153.885,17,,,143.04,143.02,,0.009849190883673715,pep,20200130
2020-01-30,11:57,11:57 AM,142.96,142.96,142.96,100,14296.0,1,143.013,142.93,142.977,3855,551178.22,35,142.96,142.96,143.01,142.945,0.005443573910230268,0.009467931881725043,pep,20200130
2020-01-30,11:58,11:58 AM,,,,0,0.0,0,143.0,142.95,142.975,2096,299676.58,20,,,142.96,142.95,,0.0094538111779491,pep,20200130
2020-01-30,11:59,11:59 AM,,,,0,0.0,0,142.96,142.9,142.933,1133,161942.84,11,,,142.96,142.91,,0.009157276398655689,pep,20200130
2020-01-30,12:00,12 PM,142.96,142.96,142.96,1,142.96,1,142.96,142.92,142.942,1475,210838.864,11,142.96,142.96,142.92,142.96,0.005443573910230268,0.009220819565647234,pep,20200130
2020-01-30,12:01,12:01 PM,,,,0,0.0,0,143.008,143.0,143.002,414,59202.9348,4,,,143.0,143.008,,0.009644440678923536,pep,20200130
2020-01-30,12:02,12:02 PM,142.94,142.94,142.94,1,142.94,1,143.01,142.94,142.975,2095,299532.7552,14,142.94,142.94,143.01,142.94,0.005302913085676443,0.0094538111779491,pep,20200130
2020-01-30,12:03,12:03 PM,,,,0,0.0,0,142.967,142.91,142.932,3200,457383.68,12,,,142.92,142.95,,0.009150216046767717,pep,20200130
2020-01-30,12:04,12:04 PM,142.96,142.96,142.96,3,428.88,1,142.98,142.952,142.962,1790,255901.1048,14,142.96,142.96,142.955,142.96,0.005443573910230268,0.009362026603405868,pep,20200130
2020-01-30,12:05,12:05 PM,,,,0,0.0,0,142.99,142.94,142.963,2507,358409.4288,20,,,142.985,142.95,,0.00936908695529384,pep,20200130
2020-01-30,12:06,12:06 PM,142.995,142.995,142.995,100,14299.5,1,143.0,142.95,142.988,896,128116.9928,8,142.995,142.995,142.95,143.0,0.005689730353199312,0.009545595752492331,pep,20200130
2020-01-30,12:07,12:07 PM,,,,0,0.0,0,143.02,142.99,143.005,1316,188194.12,11,,,143.0,142.99,,0.009665621734587251,pep,20200130
2020-01-30,12:08,12:08 PM,142.94,142.94,142.94,73,10434.62,2,142.99,142.96,142.979,600,85787.5,6,142.94,142.94,142.99,142.96,0.005302913085676443,0.009482052585500987,pep,20200130
2020-01-30,12:09,12:09 PM,,,,0,0.0,0,142.94,142.91,142.924,1599,228535.22,10,,,142.94,142.91,,0.009093733231664344,pep,20200130
2020-01-30,12:10,12:10 PM,142.93,142.905,142.93,1006,143787.455,3,142.93,142.87,142.906,3657,522607.6968,17,142.91,142.905,142.92,142.88,0.00523258267339963,0.008966646897681453,pep,20200130
2020-01-30,12:11,12:11 PM,142.89,142.89,142.89,1,142.89,1,142.9,142.84,142.865,1487,212440.81,13,142.89,142.89,142.88,142.85,0.004951261024291978,0.008677172470276013,pep,20200130
2020-01-30,12:12,12:12 PM,,,,0,0.0,0,142.855,142.83,142.84,1028,146839.9457,9,,,142.855,142.84,,0.008500663673077521,pep,20200130
2020-01-30,12:13,12:13 PM,,,,0,0.0,0,142.83,142.79,142.815,1100,157096.0,11,,,142.83,142.79,,0.00832415487587903,pep,20200130
2020-01-30,12:14,12:14 PM,,,,0,0.0,0,142.8,142.75,142.777,1722,245861.33,15,,,142.77,142.75,,0.008055861504137304,pep,20200130
2020-01-30,12:15,12:15 PM,142.75,142.75,142.75,100,14275.0,1,142.76,142.7,142.725,2433,347250.844,19,142.75,142.75,142.75,142.71,0.0039666352524158,0.007688723205964576,pep,20200130
2020-01-30,12:16,12:16 PM,142.73,142.71,142.73,1201,171418.65,2,142.74,142.66,142.711,5492,783766.7802,37,142.73,142.71,142.74,142.68,0.0038259744278619744,0.007589878279533573,pep,20200130
2020-01-30,12:17,12:17 PM,,,,0,0.0,0,142.66,142.61,142.641,1070,152626.1986,8,,,142.66,142.61,,0.007095653647377753,pep,20200130
2020-01-30,12:18,12:18 PM,142.62,142.62,142.62,100,14262.0,1,142.63,142.595,142.61,2000,285220.5,18,142.62,142.62,142.6,142.61,0.003052339892816434,0.006876782738851832,pep,20200130
2020-01-30,12:19,12:19 PM,,,,0,0.0,0,142.65,142.605,142.621,1312,187119.06,11,,,142.605,142.61,,0.00695444660961912,pep,20200130
2020-01-30,12:20,12:20 PM,142.62,142.61,142.62,51,7273.6,3,142.64,142.605,142.62,2195,313051.8,18,142.61,142.62,142.61,142.64,0.003052339892816434,0.006947386257731148,pep,20200130
2020-01-30,12:21,12:21 PM,142.63,142.63,142.63,100,14263.0,1,142.65,142.61,142.638,1226,174874.333,12,142.63,142.63,142.63,142.61,0.003122670305093247,0.007074472591714039,pep,20200130
2020-01-30,12:22,12:22 PM,,,,0,0.0,0,142.67,142.61,142.632,1519,216658.0131,13,,,142.61,142.67,,0.007032110480386409,pep,20200130
2020-01-30,12:23,12:23 PM,142.7,142.7,142.7,34,4851.8,1,142.7,142.67,142.686,1800,256835.0,16,142.7,142.7,142.67,142.69,0.003614983191031336,0.00741336948233508,pep,20200130
2020-01-30,12:24,12:24 PM,,,,0,0.0,0,142.695,142.62,142.653,2361,336803.54,23,,,142.68,142.62,,0.0071803778700330135,pep,20200130
2020-01-30,12:25,12:25 PM,,,,0,0.0,0,142.627,142.59,142.609,1548,220759.18,15,,,142.61,142.61,,0.006869722386963859,pep,20200130
2020-01-30,12:26,12:26 PM,142.58,142.58,142.58,1,142.58,1,142.61,142.55,142.58,3363,479496.9304,23,142.58,142.58,142.61,142.591,0.0027710182437089828,0.006664972182213681,pep,20200130
2020-01-30,12:27,12:27 PM,,,,0,0.0,0,142.63,142.57,142.605,1648,235013.232,12,,,142.61,142.57,,0.006841480979411972,pep,20200130
2020-01-30,12:28,12:28 PM,,,,0,0.0,0,142.61,142.56,142.581,1900,270903.5,19,,,142.57,142.61,,0.006672032534101452,pep,20200130
2020-01-30,12:29,12:29 PM,,,,0,0.0,0,142.63,142.55,142.599,2259,322132.15,19,,,142.63,142.56,,0.006799118868084342,pep,20200130
2020-01-30,12:30,12:30 PM,142.575,142.565,142.565,26,3706.7,2,142.585,142.54,142.558,3175,452621.235,25,142.575,142.565,142.55,142.565,0.002665522625293564,0.006509644440678902,pep,20200130
2020-01-30,12:31,12:31 PM,142.595,142.595,142.595,11,1568.545,1,142.6,142.504,142.542,4592,654554.96,42,142.595,142.595,142.57,142.55,0.002876513862124202,0.006396678810471955,pep,20200130
2020-01-30,12:32,12:32 PM,142.54,142.54,142.54,100,14254.0,1,142.54,142.52,142.535,1300,185295.0,13,142.54,142.54,142.54,142.54,0.0024896965946013317,0.006347256347256354,pep,20200130
2020-01-30,12:33,12:33 PM,,,,0,0.0,0,142.58,142.53,142.554,800,114043.0,7,,,142.58,142.53,,0.006481403033127216,pep,20200130
2020-01-30,12:34,12:34 PM,,,,0,0.0,0,142.52,142.47,142.502,800,114001.5,8,,,142.52,142.47,,0.006114264734954488,pep,20200130
2020-01-30,12:35,12:35 PM,,,,0,0.0,0,142.46,142.41,142.437,2735,389564.29,23,,,142.46,142.45,,0.005655341862238528,pep,20200130
2020-01-30,12:36,12:36 PM,,,,0,0.0,0,142.49,142.43,142.448,2149,306121.546,13,,,142.45,142.47,,0.005733005733005817,pep,20200130
2020-01-30,12:37,12:37 PM,142.45,142.45,142.45,2,284.9,2,142.46,142.4,142.434,3943,561618.93,34,142.45,142.45,142.46,142.4,0.001856722884109417,0.005634160806574613,pep,20200130
2020-01-30,12:38,12:38 PM,142.4,142.4,142.4,1,142.4,1,142.39,142.28,142.331,5062,720479.49,45,142.4,142.4,142.39,142.31,0.001505070822725153,0.0049069445621169275,pep,20200130
2020-01-30,12:39,12:39 PM,142.26,142.26,142.26,100,14226.0,1,142.3,142.235,142.269,4643,660554.2894,35,142.26,142.26,142.27,142.26,0.0005204450508487745,0.004469202745064883,pep,20200130
2020-01-30,12:40,12:40 PM,,,,0,0.0,0,142.33,142.23,142.274,5289,752485.72,40,,,142.25,142.33,,0.004504504504504542,pep,20200130
2020-01-30,12:41,12:41 PM,,,,0,0.0,0,142.36,142.32,142.342,1000,142342.0,9,,,142.33,142.33,,0.004984608432884417,pep,20200130
2020-01-30,12:42,12:42 PM,,,,0,0.0,0,142.32,142.26,142.287,1800,256116.18,16,,,142.3,142.293,,0.0045962890790477735,pep,20200130
2020-01-30,12:43,12:43 PM,,,,0,0.0,0,142.3,142.22,142.267,5238,745195.5222,38,,,142.26,142.3,,0.004455082041288939,pep,20200130
2020-01-30,12:44,12:44 PM,142.22,142.22,142.22,100,14222.0,1,142.275,142.22,142.25,1800,256049.5,16,142.22,142.22,142.275,142.27,0.00023912340174132342,0.004335056059194021,pep,20200130
2020-01-30,12:45,12:45 PM,,,,0,0.0,0,142.33,142.23,142.278,1997,284128.2088,17,,,142.264,142.33,,0.004532745912056228,pep,20200130
2020-01-30,12:46,12:46 PM,,,,0,0.0,0,142.335,142.28,142.308,2136,303969.7378,16,,,142.31,142.285,,0.004744556468694379,pep,20200130
2020-01-30,12:47,12:47 PM,,,,0,0.0,0,142.3,142.24,142.271,1300,184951.84,12,,,142.3,142.27,,0.004483323448840626,pep,20200130
2020-01-30,12:48,12:48 PM,142.27,142.27,142.27,100,14227.0,1,142.327,142.27,142.303,3243,461488.7013,23,142.27,142.27,142.273,142.32,0.0005907754631257872,0.0047092547092547205,pep,20200130
2020-01-30,12:49,12:49 PM,,,,0,0.0,0,142.35,142.282,142.299,1450,206333.82,12,,,142.29,142.35,,0.0046810133017030344,pep,20200130
2020-01-30,12:50,12:50 PM,,,,0,0.0,0,142.36,142.32,142.334,1453,206810.94,13,,,142.36,142.35,,0.004928125617780843,pep,20200130
2020-01-30,12:51,12:51 PM,,,,0,0.0,0,142.44,142.39,142.408,2184,311019.03,19,,,142.395,142.44,,0.005450591657488148,pep,20200130
2020-01-30,12:52,12:52 PM,,,,0,0.0,0,142.44,142.395,142.406,3512,500129.86,24,,,142.44,142.405,,0.005436470953712406,pep,20200130
2020-01-30,12:53,12:53 PM,142.38,142.38,142.38,100,14238.0,1,142.4,142.36,142.381,4665,664205.5445,36,142.38,142.38,142.4,142.38,0.0013644099981713277,0.005259962156513913,pep,20200130
2020-01-30,12:54,12:54 PM,,,,0,0.0,0,142.38,142.32,142.344,2700,384328.45,24,,,142.37,142.338,,0.00499872913666016,pep,20200130
2020-01-30,12:55,12:55 PM,,,,0,0.0,0,142.39,142.34,142.346,2101,299068.7845,21,,,142.34,142.39,,0.005012849840436103,pep,20200130
2020-01-30,12:56,12:56 PM,142.355,142.355,142.355,100,14235.5,1,142.41,142.355,142.387,1068,152069.4404,8,142.355,142.355,142.36,142.4,0.0011885839674790958,0.005302324267841543,pep,20200130
2020-01-30,12:57,12:57 PM,,,,0,0.0,0,142.4,142.37,142.386,500,71193.0,5,,,142.39,142.37,,0.005295263915953571,pep,20200130
2020-01-30,12:58,12:58 PM,,,,0,0.0,0,142.34,142.32,142.325,1709,243232.88,16,,,142.34,142.32,,0.0048645824507892975,pep,20200130
2020-01-30,12:59,12:59 PM,142.31,142.31,142.31,1,142.31,1,142.35,142.28,142.309,2100,298848.0,19,142.31,142.31,142.31,142.3,0.0008720971122332383,0.0047516168205823505,pep,20200130
2020-01-30,13:00,1 PM,,,,0,0.0,0,142.302,142.28,142.294,450,64032.525,3,,,142.302,142.29,,0.004645711542263376,pep,20200130
2020-01-30,13:01,1:01 PM,,,,0,0.0,0,142.355,142.31,142.342,1898,270165.295,16,,,142.31,142.35,,0.004984608432884417,pep,20200130
2020-01-30,13:02,1:02 PM,142.39,142.35,142.37,200,28474.0,2,142.39,142.34,142.362,2300,327432.3,22,142.35,142.39,142.35,142.38,0.0012940795858945148,0.00512581547064305,pep,20200130
2020-01-30,13:03,1:03 PM,142.44,142.44,142.44,95,13531.8,1,142.43,142.389,142.405,764,108797.62,6,142.44,142.44,142.389,142.41,0.0017863924718326042,0.005429410601824434,pep,20200130
2020-01-30,13:04,1:04 PM,142.415,142.415,142.415,50,7120.75,1,142.45,142.401,142.417,2620,373132.7143,12,142.415,142.415,142.41,142.418,0.0016105664411403724,0.005514134824479694,pep,20200130
2020-01-30,13:05,1:05 PM,142.39,142.39,142.39,10,1423.9,1,142.41,142.37,142.39,2471,351845.9643,19,142.39,142.39,142.41,142.402,0.0014347404104481404,0.005323505323505258,pep,20200130
2020-01-30,13:06,1:06 PM,142.39,142.37,142.38,200,28476.0,2,142.4,142.37,142.385,4412,628203.07,28,142.39,142.37,142.39,142.37,0.0013644099981713277,0.0052882035640656,pep,20200130
2020-01-30,13:07,1:07 PM,,,,0,0.0,0,142.4,142.375,142.382,600,85429.5,6,,,142.375,142.4,,0.0052670225084018845,pep,20200130
2020-01-30,13:08,1:08 PM,,,,0,0.0,0,142.39,142.37,142.381,2000,284761.66,16,,,142.39,142.38,,0.005259962156513913,pep,20200130
2020-01-30,13:09,1:09 PM,142.38,142.31,142.335,800,113868.0,8,142.38,142.31,142.346,15886,2261312.99,76,142.38,142.325,142.38,142.34,0.0010479231429254702,0.005012849840436103,pep,20200130
2020-01-30,13:10,1:10 PM,,,,0,0.0,0,142.43,142.36,142.404,4076,580440.21,31,,,142.36,142.415,,0.0054223502499364615,pep,20200130
2020-01-30,13:11,1:11 PM,142.47,142.46,142.465,200,28493.0,2,142.53,142.45,142.486,3687,525344.209,25,142.46,142.47,142.45,142.525,0.001962218502524836,0.006001299104747341,pep,20200130
2020-01-30,13:12,1:12 PM,,,,0,0.0,0,142.54,142.52,142.529,1438,204957.268,12,,,142.525,142.52,,0.006304894235928724,pep,20200130
2020-01-30,13:13,1:13 PM,142.53,142.53,142.53,100,14253.0,1,142.56,142.5,142.529,2604,371145.7772,23,142.53,142.53,142.521,142.52,0.0024193661823245192,0.006304894235928724,pep,20200130
2020-01-30,13:14,1:14 PM,,,,0,0.0,0,142.59,142.54,142.568,1676,238943.5375,14,,,142.54,142.59,,0.006580247959558421,pep,20200130
2020-01-30,13:15,1:15 PM,142.6,142.6,142.6,3,427.8,2,142.601,142.59,142.597,300,42779.1,3,142.6,142.6,142.59,142.6,0.0029116790682626086,0.006784998164308599,pep,20200130
2020-01-30,13:16,1:16 PM,,,,0,0.0,0,142.61,142.58,142.59,2240,319402.7783,15,,,142.586,142.6,,0.006735575701092998,pep,20200130
2020-01-30,13:17,1:17 PM,,,,0,0.0,0,142.59,142.59,142.59,100,14259.0,1,,,142.59,142.59,,0.006735575701092998,pep,20200130
2020-01-30,13:18,1:18 PM,142.55,142.54,142.54,104,14824.2,2,142.6,142.5,142.544,2765,394134.15,21,142.55,142.54,142.6,142.51,0.0024896965946013317,0.0064107995142478995,pep,20200130
2020-01-30,13:19,1:19 PM,,,,0,0.0,0,142.51,142.456,142.484,2648,377297.7525,20,,,142.51,142.483,,0.005987178400971598,pep,20200130
2020-01-30,13:20,1:20 PM,,,,0,0.0,0,142.46,142.43,142.441,1005,143153.3315,9,,,142.44,142.43,,0.005683583269790214,pep,20200130
2020-01-30,13:21,1:21 PM,,,,0,0.0,0,142.49,142.42,142.464,826,117675.22,7,,,142.42,142.48,,0.005845971363212764,pep,20200130
2020-01-30,13:22,1:22 PM,,,,0,0.0,0,142.52,142.5,142.51,1898,270483.583,12,,,142.51,142.5,,0.006170747550057861,pep,20200130
2020-01-30,13:23,1:23 PM,,,,0,0.0,0,142.52,142.49,142.5,862,122835.24,7,,,142.52,142.5,,0.006100144031178545,pep,20200130
2020-01-30,13:24,1:24 PM,,,,0,0.0,0,142.51,142.49,142.498,1158,165012.7202,11,,,142.492,142.51,,0.006086023327402601,pep,20200130
2020-01-30,13:25,1:25 PM,,,,0,0.0,0,142.57,142.52,142.544,2069,294923.555,18,,,142.52,142.57,,0.0064107995142478995,pep,20200130
2020-01-30,13:26,1:26 PM,,,,0,0.0,0,142.61,142.57,142.586,2076,296008.3806,15,,,142.57,142.595,,0.006707334293541311,pep,20200130
2020-01-30,13:27,1:27 PM,,,,0,0.0,0,142.62,142.61,142.615,800,114092.0,6,,,142.61,142.61,,0.006912084498291489,pep,20200130
2020-01-30,13:28,1:28 PM,,,,0,0.0,0,142.66,142.593,142.615,1905,271681.7829,17,,,142.615,142.66,,0.006912084498291489,pep,20200130
2020-01-30,13:29,1:29 PM,142.59,142.59,142.59,50,7129.5,1,142.62,142.558,142.581,1581,225419.791,14,142.59,142.59,142.62,142.57,0.0028413486559857957,0.006672032534101452,pep,20200130
2020-01-30,13:30,1:30 PM,,,,0,0.0,0,142.57,142.54,142.55,1800,256589.5,15,,,142.57,142.54,,0.0064531616255755295,pep,20200130
2020-01-30,13:31,1:31 PM,,,,0,0.0,0,142.59,142.55,142.574,2115,301544.264,19,,,142.55,142.59,,0.006622610070886051,pep,20200130
2020-01-30,13:32,1:32 PM,,,,0,0.0,0,142.64,142.58,142.606,2107,300471.4,7,,,142.58,142.64,,0.006848541331299945,pep,20200130
2020-01-30,13:33,1:33 PM,,,,0,0.0,0,142.68,142.64,142.66,2807,400445.638,24,,,142.654,142.661,,0.007229800333248616,pep,20200130
2020-01-30,13:34,1:34 PM,,,,0,0.0,0,142.63,142.6,142.61,3068,437528.4268,18,,,142.63,142.6,,0.006876782738851832,pep,20200130
2020-01-30,13:35,1:35 PM,,,,0,0.0,0,142.59,142.57,142.572,3500,499001.0,7,,,142.59,142.58,,0.006608489367110107,pep,20200130
2020-01-30,13:36,1:36 PM,142.625,142.61,142.625,209,29808.55,5,142.625,142.606,142.612,2016,287506.5324,11,142.61,142.625,142.62,142.61,0.0030875050989548404,0.006890903442627575,pep,20200130
2020-01-30,13:37,1:37 PM,142.665,142.665,142.665,90,12839.85,1,142.69,142.6,142.656,1895,270333.35,12,142.665,142.665,142.6,142.68,0.0033688267480622915,0.007201558925696929,pep,20200130
2020-01-30,13:38,1:38 PM,142.66,142.66,142.66,100,14266.0,1,142.68,142.65,142.668,2404,342974.52,20,142.66,142.66,142.67,142.67,0.003333661541923885,0.007286283148352189,pep,20200130
2020-01-30,13:39,1:39 PM,142.66,142.655,142.655,73,10413.835,3,142.67,142.65,142.66,2430,346664.85,10,142.66,142.655,142.67,142.655,0.0032984963357854786,0.007229800333248616,pep,20200130
2020-01-30,13:40,1:40 PM,142.65,142.65,142.65,48,6847.2,1,142.67,142.6,142.645,904,128951.5425,8,142.65,142.65,142.657,142.6,0.003263331129647072,0.007123895054929641,pep,20200130
2020-01-30,13:41,1:41 PM,,,,0,0.0,0,142.615,142.58,142.598,2755,392858.828,15,,,142.6,142.599,,0.006792058516196571,pep,20200130
2020-01-30,13:42,1:42 PM,142.62,142.62,142.62,100,14262.0,1,142.65,142.615,142.634,1100,156897.5,10,142.62,142.62,142.63,142.65,0.003052339892816434,0.007046231184162152,pep,20200130
2020-01-30,13:43,1:43 PM,,,,0,0.0,0,142.655,142.63,142.641,364,51921.295,2,,,142.63,142.655,,0.007095653647377753,pep,20200130
2020-01-30,13:44,1:44 PM,,,,0,0.0,0,142.68,142.63,142.653,1675,238943.75,13,,,142.67,142.65,,0.0071803778700330135,pep,20200130
2020-01-30,13:45,1:45 PM,,,,0,0.0,0,142.655,142.63,142.639,836,119246.4,7,,,142.64,142.635,,0.0070815329436020105,pep,20200130
2020-01-30,13:46,1:46 PM,,,,0,0.0,0,142.7,142.68,142.695,911,129994.7224,5,,,142.68,142.7,,0.007476912649326425,pep,20200130
2020-01-30,13:47,1:47 PM,,,,0,0.0,0,142.72,142.685,142.708,906,129293.61,6,,,142.71,142.685,,0.007568697223869657,pep,20200130
2020-01-30,13:48,1:48 PM,,,,0,0.0,0,142.68,142.65,142.666,1100,156932.98,9,,,142.68,142.65,,0.007272162444576246,pep,20200130
2020-01-30,13:49,1:49 PM,,,,0,0.0,0,142.62,142.612,142.615,1575,224619.3152,6,,,142.62,142.615,,0.006912084498291489,pep,20200130
2020-01-30,13:50,1:50 PM,142.61,142.61,142.61,24,3422.64,1,142.62,142.61,142.612,1011,144180.5494,8,142.61,142.61,142.61,142.61,0.002982009480539621,0.006890903442627575,pep,20200130
2020-01-30,13:51,1:51 PM,,,,0,0.0,0,142.64,142.61,142.622,1712,244168.6103,12,,,142.61,142.625,,0.006961506961507092,pep,20200130
2020-01-30,13:52,1:52 PM,142.66,142.61,142.659,102,14551.22,3,142.66,142.61,142.631,888,126656.62,8,142.61,142.66,142.615,142.64,0.0033266285006961637,0.007025050128498436,pep,20200130
2020-01-30,13:53,1:53 PM,,,,0,0.0,0,142.67,142.63,142.645,2477,353332.6527,20,,,142.65,142.635,,0.007123895054929641,pep,20200130
2020-01-30,13:54,1:54 PM,,,,0,0.0,0,142.69,142.64,142.67,2607,371941.83,19,,,142.66,142.64,,0.007300403852127933,pep,20200130
2020-01-30,13:55,1:55 PM,142.62,142.62,142.62,16,2281.92,3,142.64,142.62,142.631,739,105404.658,5,142.62,142.62,142.622,142.64,0.003052339892816434,0.007025050128498436,pep,20200130
2020-01-30,13:56,1:56 PM,,,,0,0.0,0,142.61,142.58,142.596,1876,267509.56,18,,,142.61,142.58,,0.006777937812420628,pep,20200130
2020-01-30,13:57,1:57 PM,142.58,142.58,142.58,3,427.74,1,142.59,142.56,142.577,1038,147995.23,9,142.58,142.58,142.585,142.56,0.0027710182437089828,0.006643791126549765,pep,20200130
2020-01-30,13:58,1:58 PM,,,,0,0.0,0,142.58,142.528,142.546,2373,338262.7107,9,,,142.56,142.528,,0.006424920218023642,pep,20200130
2020-01-30,13:59,1:59 PM,,,,0,0.0,0,142.54,142.54,142.54,100,14254.0,1,,,142.54,142.54,,0.006382558106696012,pep,20200130
2020-01-30,14:00,2 PM,,,,0,0.0,0,142.58,142.539,142.56,1403,200012.4439,10,,,142.56,142.539,,0.0065237651444548465,pep,20200130
2020-01-30,14:01,2:01 PM,,,,0,0.0,0,142.55,142.54,142.545,623,88805.42,5,,,142.55,142.54,,0.006417859866135671,pep,20200130
2020-01-30,14:02,2:02 PM,,,,0,0.0,0,142.53,142.476,142.5,2828,402989.128,22,,,142.53,142.49,,0.006100144031178545,pep,20200130
2020-01-30,14:03,2:03 PM,,,,0,0.0,0,142.52,142.5,142.512,257,36625.64,2,,,142.5,142.52,,0.006184868253833805,pep,20200130
2020-01-30,14:04,2:04 PM,,,,0,0.0,0,142.54,142.51,142.525,3552,506247.413,23,,,142.51,142.54,,0.006276652828377037,pep,20200130
2020-01-30,14:05,2:05 PM,142.52,142.52,142.52,49,6983.48,1,142.58,142.52,142.548,3162,450736.167,28,142.52,142.52,142.54,142.56,0.0023490357700477063,0.006439040921799586,pep,20200130
2020-01-30,14:06,2:06 PM,,,,0,0.0,0,142.57,142.525,142.552,1501,213970.06,13,,,142.56,142.525,,0.006467282329351272,pep,20200130
2020-01-30,14:07,2:07 PM,,,,0,0.0,0,142.57,142.53,142.551,1310,186741.4,11,,,142.57,142.53,,0.006460221977463301,pep,20200130
2020-01-30,14:08,2:08 PM,,,,0,0.0,0,142.58,142.52,142.542,1400,199559.06,12,,,142.52,142.58,,0.006396678810471955,pep,20200130
2020-01-30,14:09,2:09 PM,,,,0,0.0,0,142.64,142.561,142.616,4813,686410.33,35,,,142.561,142.64,,0.006919144850179462,pep,20200130
2020-01-30,14:10,2:10 PM,142.665,142.665,142.665,100,14266.5,1,142.7,142.62,142.653,3600,513551.42,30,142.665,142.665,142.65,142.7,0.0033688267480622915,0.0071803778700330135,pep,20200130
2020-01-30,14:11,2:11 PM,,,,0,0.0,0,142.71,142.645,142.67,3277,467528.43,26,,,142.68,142.667,,0.007300403852127933,pep,20200130
2020-01-30,14:12,2:12 PM,,,,0,0.0,0,142.69,142.65,142.676,2700,385225.28,19,,,142.69,142.68,,0.007342765963455563,pep,20200130
2020-01-30,14:13,2:13 PM,,,,0,0.0,0,142.67,142.6,142.627,11188,1595712.4325,83,,,142.67,142.6,,0.00699680872094675,pep,20200130
2020-01-30,14:14,2:14 PM,,,,0,0.0,0,142.64,142.61,142.621,523,74590.8664,5,,,142.617,142.64,,0.00695444660961912,pep,20200130
2020-01-30,14:15,2:15 PM,142.665,142.665,142.665,100,14266.5,1,142.69,142.654,142.673,842,120130.8718,7,142.665,142.665,142.654,142.68,0.0033688267480622915,0.007321584907791848,pep,20200130
2020-01-30,14:16,2:16 PM,142.67,142.665,142.667,194,27677.48,2,142.67,142.64,142.66,1487,212135.04,14,142.665,142.67,142.67,142.64,0.0033828928305177338,0.007229800333248616,pep,20200130
2020-01-30,14:17,2:17 PM,,,,0,0.0,0,142.68,142.65,142.668,920,131254.6,6,,,142.66,142.65,,0.007286283148352189,pep,20200130
2020-01-30,14:18,2:18 PM,,,,0,0.0,0,142.656,142.63,142.645,1237,176451.8212,8,,,142.63,142.656,,0.007123895054929641,pep,20200130
2020-01-30,14:19,2:19 PM,,,,0,0.0,0,142.72,142.67,142.692,1643,234442.6842,12,,,142.67,142.72,,0.00745573159366271,pep,20200130
2020-01-30,14:20,2:20 PM,,,,0,0.0,0,142.71,142.68,142.697,1500,214045.61,15,,,142.71,142.7,,0.007491033353102369,pep,20200130
2020-01-30,14:21,2:21 PM,,,,0,0.0,0,142.7,142.66,142.685,2555,364560.565,19,,,142.68,142.66,,0.007406309130447109,pep,20200130
2020-01-30,14:22,2:22 PM,,,,0,0.0,0,142.67,142.66,142.662,800,114130.0,8,,,142.67,142.66,,0.007243921037024559,pep,20200130
2020-01-30,14:23,2:23 PM,142.68,142.68,142.68,100,14268.0,1,142.69,142.65,142.672,1811,258378.6845,13,142.68,142.68,142.67,142.69,0.0034743223664777103,0.007314524555903876,pep,20200130
2020-01-30,14:24,2:24 PM,,,,0,0.0,0,142.73,142.69,142.72,2786,397616.92,20,,,142.72,142.69,,0.007653421446524917,pep,20200130
2020-01-30,14:25,2:25 PM,,,,0,0.0,0,142.7,142.7,142.7,580,82766.0,5,,,142.7,142.7,,0.007512214408766083,pep,20200130
2020-01-30,14:26,2:26 PM,,,,0,0.0,0,142.72,142.68,142.704,1376,196360.2,13,,,142.715,142.71,,0.00754045581631797,pep,20200130
2020-01-30,14:27,2:27 PM,142.72,142.72,142.72,100,14272.0,3,142.72,142.68,142.701,1033,147410.4533,10,142.72,142.72,142.72,142.68,0.0037556440155851615,0.007519274760654055,pep,20200130
2020-01-30,14:28,2:28 PM,,,,0,0.0,0,142.705,142.68,142.693,1732,247144.06,14,,,142.69,142.68,,0.007462791945550682,pep,20200130
2020-01-30,14:29,2:29 PM,,,,0,0.0,0,142.69,142.64,142.667,813,115988.275,6,,,142.69,142.64,,0.007279222796464218,pep,20200130
2020-01-30,14:30,2:30 PM,,,,0,0.0,0,142.63,142.62,142.625,200,28525.0,2,,,142.63,142.62,,0.006982688017170806,pep,20200130
2020-01-30,14:31,2:31 PM,,,,0,0.0,0,142.63,142.585,142.606,4619,658697.08,33,,,142.63,142.59,,0.006848541331299945,pep,20200130
2020-01-30,14:32,2:32 PM,142.59,142.59,142.59,100,14259.0,1,142.59,142.55,142.57,1818,259191.75,15,142.59,142.59,142.583,142.59,0.0028413486559857957,0.006594368663334163,pep,20200130
2020-01-30,14:33,2:33 PM,142.6,142.6,142.6,100,14260.0,1,142.6,142.57,142.582,1500,213873.49,14,142.6,142.6,142.59,142.58,0.0029116790682626086,0.0066790928859894235,pep,20200130
2020-01-30,14:34,2:34 PM,,,,0,0.0,0,142.595,142.57,142.582,4019,573035.52,35,,,142.58,142.59,,0.0066790928859894235,pep,20200130
2020-01-30,14:35,2:35 PM,142.57,142.56,142.567,4,570.27,2,142.59,142.54,142.574,8348,1190206.34,60,142.56,142.57,142.57,142.57,0.002679588707749006,0.006622610070886051,pep,20200130
2020-01-30,14:36,2:36 PM,142.58,142.58,142.58,32,4562.56,1,142.59,142.52,142.562,5369,765416.8077,44,142.58,142.58,142.59,142.54,0.0027710182437089828,0.00653788584823079,pep,20200130
2020-01-30,14:37,2:37 PM,,,,0,0.0,0,142.55,142.53,142.535,1737,247583.48,15,,,142.54,142.55,,0.006347256347256354,pep,20200130
2020-01-30,14:38,2:38 PM,,,,0,0.0,0,142.6,142.56,142.582,800,114065.5,8,,,142.56,142.6,,0.0066790928859894235,pep,20200130
2020-01-30,14:39,2:39 PM,,,,0,0.0,0,142.64,142.595,142.611,4257,607094.646,34,,,142.6,142.6,,0.006883843090739602,pep,20200130
2020-01-30,14:40,2:40 PM,,,,0,0.0,0,142.645,142.62,142.637,1188,169452.228,10,,,142.645,142.62,,0.0070674122398260665,pep,20200130
2020-01-30,14:41,2:41 PM,,,,0,0.0,0,142.7,142.63,142.676,5223,745197.738,30,,,142.63,142.69,,0.007342765963455563,pep,20200130
2020-01-30,14:42,2:42 PM,142.9,142.9,142.9,100,14290.0,1,142.96,142.69,142.843,19114,2730293.1778,166,142.9,142.9,142.69,142.88,0.005021591436568992,0.008521844728741236,pep,20200130
2020-01-30,14:43,2:43 PM,142.9,142.75,142.854,700,99998.0,7,142.9,142.64,142.75,19048,2719095.4,147,142.9,142.75,142.86,142.66,0.004698071540095413,0.007865232003163069,pep,20200130
2020-01-30,14:44,2:44 PM,142.73,142.66,142.708,501,71496.72,5,142.76,142.635,142.694,9803,1398824.455,77,142.66,142.71,142.67,142.73,0.0036712475208529063,0.007469852297438453,pep,20200130
2020-01-30,14:45,2:45 PM,142.68,142.68,142.68,100,14268.0,1,142.74,142.68,142.702,5724,816829.14,32,142.68,142.68,142.72,142.71,0.0034743223664777103,0.007526335112542027,pep,20200130
2020-01-30,14:46,2:46 PM,142.73,142.68,142.726,301,42960.68,4,142.77,142.68,142.716,5283,753970.1,38,142.73,142.68,142.7,142.72,0.0037978422629512893,0.0076251800389732305,pep,20200130
2020-01-30,14:47,2:47 PM,142.865,142.83,142.841,242,34567.5,6,142.98,142.73,142.844,11760,1679842.65,109,142.85,142.84,142.73,142.78,0.004606642004135436,0.008528905080629208,pep,20200130
2020-01-30,14:48,2:48 PM,142.82,142.82,142.82,42,5998.44,2,142.97,142.82,142.888,5393,770594.975,50,142.82,142.82,142.82,142.94,0.004458948138353889,0.008839560563698562,pep,20200130
2020-01-30,14:49,2:49 PM,142.91,142.91,142.91,100,14291.0,1,142.97,142.9,142.921,11492,1642446.4512,36,142.91,142.91,142.936,142.95,0.0050919218488458045,0.009072552176000429,pep,20200130
2020-01-30,14:50,2:50 PM,142.94,142.94,142.94,100,14294.0,1,143.0,142.9,142.958,3913,559395.41,34,142.94,142.94,143.0,142.91,0.005302913085676443,0.00933378519585418,pep,20200130
2020-01-30,14:51,2:51 PM,142.94,142.94,142.94,11,1572.34,1,142.99,142.93,142.946,5027,718587.625,39,142.94,142.94,142.94,142.935,0.005302913085676443,0.00924906097319892,pep,20200130
2020-01-30,14:52,2:52 PM,142.95,142.93,142.94,220,31446.8,4,142.972,142.844,142.924,5239,748779.934,46,142.94,142.93,142.94,142.844,0.005302913085676443,0.009093733231664344,pep,20200130
2020-01-30,14:53,2:53 PM,,,,0,0.0,0,142.96,142.89,142.932,3391,484682.274,31,,,142.93,142.95,,0.009150216046767717,pep,20200130
2020-01-30,14:54,2:54 PM,142.98,142.95,142.98,101,14440.95,2,143.07,142.94,143.022,7773,1111708.855,48,142.95,142.98,142.96,143.055,0.005584234734783894,0.00978564771668217,pep,20200130
2020-01-30,14:55,2:55 PM,,,,0,0.0,0,143.11,143.02,143.074,5147,736402.006,43,,,143.05,143.09,,0.010152786014855099,pep,20200130
2020-01-30,14:56,2:56 PM,143.17,143.09,143.138,192,27482.44,6,143.18,143.08,143.119,8939,1279344.5435,80,143.09,143.17,143.12,143.156,0.0066954552487586555,0.010470501849812224,pep,20200130
2020-01-30,14:57,2:57 PM,143.11,143.1,143.105,77,11019.12,2,143.16,143.1,143.128,3283,469890.13,27,143.11,143.1,143.155,143.11,0.006463364888244853,0.01053404501680357,pep,20200130
2020-01-30,14:58,2:58 PM,143.095,143.07,143.08,165,23608.175,2,143.11,143.07,143.085,2733,391052.772,16,143.095,143.07,143.11,143.084,0.006287538857552821,0.010230449885622387,pep,20200130
2020-01-30,14:59,2:59 PM,143.235,143.165,143.199,106,15179.06,4,143.23,143.11,143.186,5121,733258.549,43,143.2,143.235,143.11,143.23,0.007124470763647653,0.010943545426304128,pep,20200130
2020-01-30,15:00,3 PM,143.28,143.235,143.253,119,17047.095,8,143.28,143.19,143.244,7502,1074616.95,61,143.28,143.235,143.25,143.195,0.007504254989942602,0.011353045835804485,pep,20200130
2020-01-30,15:01,3:01 PM,143.23,143.23,143.23,3,429.69,1,143.31,143.2,143.259,6185,886055.6235,47,143.23,143.23,143.238,143.27,0.0073424950417058125,0.011458951114123461,pep,20200130
2020-01-30,15:02,3:02 PM,143.33,143.31,143.33,102,14619.62,2,143.36,143.27,143.302,6295,902087.125,52,143.31,143.33,143.28,143.36,0.00804579916447474,0.011762546245304845,pep,20200130
2020-01-30,15:03,3:03 PM,143.38,143.345,143.357,300,43007.0,2,143.41,143.33,143.36,5258,753786.428,46,143.345,143.38,143.345,143.39,0.008235691277622215,0.012172046654805403,pep,20200130
2020-01-30,15:04,3:04 PM,143.495,143.415,143.463,8,1147.7,4,143.52,143.38,143.461,6298,903516.07,47,143.415,143.495,143.385,143.505,0.00898119364775707,0.012885142195487144,pep,20200130
2020-01-30,15:05,3:05 PM,143.48,143.41,143.466,118,16928.96,6,143.48,143.4,143.417,10211,1464427.78,32,143.47,143.475,143.47,143.47,0.009002292771440233,0.012574486712417789,pep,20200130
2020-01-30,15:06,3:06 PM,143.465,143.325,143.398,129,18498.35,7,143.485,143.32,143.385,7256,1040399.7504,62,143.465,143.33,143.48,143.32,0.008524045967957387,0.012348555452003694,pep,20200130
2020-01-30,15:07,3:07 PM,143.37,143.345,143.367,121,17347.355,4,143.375,143.34,143.358,1300,186365.55,13,143.345,143.355,143.35,143.34,0.008306021689899027,0.012157925951029458,pep,20200130
2020-01-30,15:08,3:08 PM,143.38,143.29,143.375,380,54482.33,4,143.38,143.28,143.353,6237,894093.14,42,143.365,143.29,143.35,143.28,0.008362286019720598,0.012122624191589802,pep,20200130
2020-01-30,15:09,3:09 PM,143.27,143.26,143.27,31,4441.36,3,143.32,143.25,143.281,3888,557078.82,35,143.27,143.26,143.3,143.25,0.007623816690813463,0.01161427885565824,pep,20200130
2020-01-30,15:10,3:10 PM,143.275,143.24,143.258,67,9598.325,6,143.28,143.227,143.255,4560,653244.15,38,143.27,143.24,143.24,143.25,0.007539420196081208,0.011430709706571774,pep,20200130
2020-01-30,15:11,3:11 PM,143.245,143.235,143.242,29,4154.005,2,143.26,143.227,143.248,5157,738731.0812,40,143.245,143.235,143.23,143.25,0.007426891536438068,0.011381287243356172,pep,20200130
2020-01-30,15:12,3:12 PM,143.23,143.22,143.228,66,9453.08,4,143.24,143.16,143.211,3581,512838.82,29,143.23,143.23,143.22,143.22,0.00732842895925057,0.01112005422350262,pep,20200130
2020-01-30,15:13,3:13 PM,143.2,143.16,143.181,101,14461.28,2,143.21,143.14,143.191,2803,401364.6,25,143.2,143.16,143.2,143.14,0.00699787602154927,0.010978847185743787,pep,20200130
2020-01-30,15:14,3:14 PM,143.24,143.24,143.24,100,14324.0,1,143.24,143.15,143.218,4604,659375.074,39,143.24,143.24,143.15,143.21,0.007412825453982825,0.011169476686718022,pep,20200130
2020-01-30,15:15,3:15 PM,,,,0,0.0,0,143.24,143.16,143.201,2100,300721.24,18,,,143.24,143.16,,0.011049450704623104,pep,20200130
2020-01-30,15:16,3:16 PM,,,,0,0.0,0,143.22,143.17,143.201,3732,534425.3,25,,,143.205,143.182,,0.011049450704623104,pep,20200130
2020-01-30,15:17,3:17 PM,143.25,143.22,143.227,36,5156.16,2,143.27,143.2,143.234,5406,774324.285,43,143.22,143.25,143.2,143.27,0.007321395918022848,0.011282442316925169,pep,20200130
2020-01-30,15:18,3:18 PM,,,,0,0.0,0,143.35,143.26,143.309,10615,1521229.1415,88,,,143.27,143.33,,0.011811968708520446,pep,20200130
2020-01-30,15:19,3:19 PM,143.34,143.34,143.34,300,43002.0,3,143.35,143.3,143.331,7997,1146216.21,73,143.34,143.34,143.33,143.34,0.008116129576751552,0.011967296450055023,pep,20200130
2020-01-30,15:20,3:20 PM,,,,0,0.0,0,143.34,143.29,143.312,9004,1290380.2775,46,,,143.32,143.34,,0.011833149764184361,pep,20200130
2020-01-30,15:21,3:21 PM,143.36,143.315,143.338,200,28667.5,2,143.36,143.3,143.331,9067,1299582.2014,78,143.36,143.315,143.35,143.36,0.00810206349429611,0.011967296450055023,pep,20200130
2020-01-30,15:22,3:22 PM,143.435,143.42,143.431,159,22805.545,4,143.45,143.355,143.414,10921,1566229.2396,87,143.42,143.435,143.37,143.38,0.008756136328471189,0.012553305656753874,pep,20200130
2020-01-30,15:23,3:23 PM,,,,0,0.0,0,143.39,143.34,143.361,4410,632224.0804,36,,,143.36,143.39,,0.012179107006693174,pep,20200130
2020-01-30,15:24,3:24 PM,143.41,143.41,143.41,100,14341.0,1,143.44,143.39,143.416,11060,1586181.182,72,143.41,143.41,143.4,143.44,0.008608442462689643,0.012567426360529817,pep,20200130
2020-01-30,15:25,3:25 PM,143.44,143.42,143.421,103,14772.32,3,143.46,143.37,143.415,11177,1602948.6375,70,143.44,143.42,143.45,143.37,0.008685805916194176,0.012560366008641846,pep,20200130
2020-01-30,15:26,3:26 PM,143.31,143.31,143.31,1,143.31,1,143.41,143.29,143.351,5706,817963.466,43,143.31,143.31,143.38,143.295,0.007905138339920915,0.012108503487813857,pep,20200130
2020-01-30,15:27,3:27 PM,143.3,143.3,143.3,100,14330.0,1,143.35,143.29,143.312,6305,903585.062,49,143.3,143.3,143.29,143.35,0.007834807927644101,0.011833149764184361,pep,20200130
2020-01-30,15:28,3:28 PM,143.415,143.39,143.41,458,65681.57,2,143.415,143.35,143.388,7774,1114698.635,55,143.39,143.415,143.36,143.39,0.008608442462689643,0.01236973650766761,pep,20200130
2020-01-30,15:29,3:29 PM,143.35,143.35,143.35,15,2150.25,2,143.4,143.34,143.368,4605,660210.58,37,143.35,143.35,143.36,143.38,0.008186459989028366,0.012228529469908775,pep,20200130
2020-01-30,15:30,3:30 PM,143.38,143.35,143.362,500,71681.0,2,143.42,143.34,143.373,8686,1245340.3,66,143.35,143.38,143.37,143.41,0.008270856483760622,0.012263831229348434,pep,20200130
2020-01-30,15:31,3:31 PM,143.35,143.32,143.339,850,121838.25,6,143.39,143.32,143.354,6400,917465.45,52,143.35,143.34,143.38,143.37,0.008109096535523832,0.012129684543477773,pep,20200130
2020-01-30,15:32,3:32 PM,143.4,143.345,143.375,434,62224.6,2,143.43,143.335,143.392,3717,532988.5108,28,143.345,143.4,143.37,143.43,0.008362286019720598,0.012397977915219297,pep,20200130
2020-01-30,15:33,3:33 PM,143.47,143.47,143.47,200,28694.0,1,143.47,143.43,143.447,4088,586411.18,33,143.47,143.47,143.43,143.47,0.009030424936350919,0.01278629726905594,pep,20200130
2020-01-30,15:34,3:34 PM,143.49,143.49,143.49,100,14349.0,1,143.51,143.47,143.488,7739,1110457.155,50,143.49,143.49,143.47,143.51,0.009171085760904744,0.01307577169646138,pep,20200130
2020-01-30,15:35,3:35 PM,143.535,143.475,143.511,1592,228469.08,12,143.56,143.47,143.518,13280,1905913.9886,93,143.535,143.475,143.51,143.475,0.009318779626686091,0.01328758225309953,pep,20200130
2020-01-30,15:36,3:36 PM,143.5,143.47,143.483,800,114786.5,3,143.51,143.45,143.478,10251,1470791.6832,75,143.485,143.47,143.48,143.47,0.009121854472310896,0.013005168177582063,pep,20200130
2020-01-30,15:37,3:37 PM,143.435,143.38,143.385,606,86891.39,6,143.49,143.36,143.405,6945,995945.02,57,143.435,143.385,143.49,143.39,0.00843261643199741,0.012489762489762529,pep,20200130
2020-01-30,15:38,3:38 PM,143.42,143.365,143.389,637,91338.54,7,143.42,143.35,143.383,3285,471014.3604,29,143.365,143.42,143.37,143.42,0.008460748596908296,0.012334434748227952,pep,20200130
2020-01-30,15:39,3:39 PM,143.45,143.42,143.443,662,94959.4,8,143.48,143.42,143.45,7400,1061533.4,66,143.435,143.45,143.44,143.46,0.008840532823203445,0.012807478324719655,pep,20200130
2020-01-30,15:40,3:40 PM,143.57,143.47,143.565,100,14356.5,2,143.58,143.46,143.53,12711,1824404.0599,91,143.47,143.57,143.48,143.58,0.00969856385298124,0.01337230647575479,pep,20200130
2020-01-30,15:41,3:41 PM,143.58,143.505,143.56,704,101066.51,10,143.58,143.505,143.543,6807,977098.795,64,143.505,143.54,143.56,143.56,0.009663398646842833,0.013464091050298022,pep,20200130
2020-01-30,15:42,3:42 PM,143.635,143.56,143.619,1218,174927.73,14,143.65,143.53,143.603,8785,1261548.8799,71,143.56,143.63,143.56,143.63,0.010078348079276388,0.013887712163574324,pep,20200130
2020-01-30,15:43,3:43 PM,143.66,143.6,143.626,669,96085.58,10,143.66,143.6,143.634,9474,1360785.3396,64,143.63,143.66,143.634,143.66,0.010127579367870237,0.014106583072100247,pep,20200130
2020-01-30,15:44,3:44 PM,143.66,143.605,143.643,318,45678.395,6,143.68,143.6,143.627,16566,2379333.224,108,143.65,143.625,143.68,143.62,0.0102471410687409,0.014057160608884844,pep,20200130
2020-01-30,15:45,3:45 PM,143.62,143.57,143.599,1033,148338.01,10,143.62,143.55,143.596,13616,1955209.0044,102,143.61,143.57,143.62,143.57,0.009937687254722563,0.013838289700358723,pep,20200130
2020-01-30,15:46,3:46 PM,143.575,143.565,143.572,300,43071.5,2,143.58,143.51,143.557,7960,1142715.5931,76,143.575,143.565,143.57,143.51,0.009747795141575089,0.013562935976729026,pep,20200130
2020-01-30,15:47,3:47 PM,143.57,143.52,143.549,700,100484.5,7,143.61,143.48,143.55,12790,1836011.2601,121,143.53,143.57,143.48,143.61,0.0095860351933383,0.013513513513513625,pep,20200130
2020-01-30,15:48,3:48 PM,143.6,143.58,143.593,300,43077.98,4,143.639,143.57,143.597,7229,1038062.2217,66,143.59,143.59,143.62,143.639,0.009895489007356435,0.013845350052246694,pep,20200130
2020-01-30,15:49,3:49 PM,143.66,143.6,143.63,600,86178.0,6,143.67,143.595,143.635,13512,1940793.6011,111,143.61,143.65,143.62,143.65,0.010155711532780923,0.014113643423988218,pep,20200130
2020-01-30,15:50,3:50 PM,143.63,143.51,143.586,1426,204753.86,15,143.64,143.5,143.559,41624,5975486.1411,265,143.63,143.595,143.64,143.59,0.009846257718762786,0.013577056680504969,pep,20200130
2020-01-30,15:51,3:51 PM,143.65,143.57,143.608,730,104833.97,11,143.69,143.56,143.605,15715,2256749.4781,133,143.59,143.61,143.6,143.62,0.010000984625771855,0.013901832867350068,pep,20200130
2020-01-30,15:52,3:52 PM,143.66,143.62,143.641,420,60329.2,6,143.69,143.62,143.647,17074,2452629.2201,141,143.66,143.62,143.62,143.62,0.010233074986285458,0.014198367646643478,pep,20200130
2020-01-30,15:53,3:53 PM,143.7,143.58,143.612,542,77837.825,8,143.71,143.56,143.642,23371,3357055.9837,179,143.605,143.7,143.61,143.71,0.01002911679068254,0.01416306588720382,pep,20200130
2020-01-30,15:54,3:54 PM,143.7,143.64,143.671,1427,205018.12,19,143.71,143.63,143.676,27030,3883559.252,207,143.68,143.67,143.71,143.67,0.010444066223116095,0.014403117851393657,pep,20200130
2020-01-30,15:55,3:55 PM,143.73,143.62,143.671,1542,221541.275,24,143.74,143.61,143.679,21027,3021150.587,184,143.62,143.68,143.65,143.7,0.010444066223116095,0.014424298907057573,pep,20200130
2020-01-30,15:56,3:56 PM,143.78,143.7,143.744,935,134400.47,13,143.8,143.7,143.753,24031,3454525.8193,197,143.7,143.78,143.7,143.79,0.010957478232737348,0.014946764946764878,pep,20200130
2020-01-30,15:57,3:57 PM,143.82,143.74,143.782,2245,322789.7,28,143.84,143.73,143.791,27278,3922338.0213,222,143.775,143.82,143.77,143.84,0.011224733799389557,0.015215058318506603,pep,20200130
2020-01-30,15:58,3:58 PM,143.885,143.79,143.859,2102,302391.99,22,143.91,143.75,143.845,47548,6839539.3224,355,143.79,143.855,143.81,143.88,0.011766277973921496,0.015596317320455274,pep,20200130
2020-01-30,15:59,3:59 PM,143.94,143.83,143.9,3272,470841.12,30,143.96,143.82,143.888,94632,13616415.4598,605,143.915,143.84,143.88,143.85,0.012054632664256668,0.015899912451636657,pep,20200130
