date,minute,label,high,low,average,volume,notional,numberOfTrades,marketHigh,marketLow,marketAverage,marketVolume,marketNotional,marketNumberOfTrades,open,close,marketOpen,marketClose,changeOverTime,marketChangeOverTime,tickerName,tickerDate
2019-12-16,09:30,09:30 AM,137.22,136.92,137.094,7760,1063846.4,26,137.31,136.905,136.994,126587,17341721.4625,259,137.14,137.22,136.95,137.22,0.0,0.0,pep,20191216
2019-12-16,09:31,09:31 AM,137.175,137.01,137.099,1400,191938.5,13,137.28,137.01,137.133,16641,2282030.38,128,137.175,137.135,137.18,137.18,3.647132624327434e-05,0.001014642977064762,pep,20191216
2019-12-16,09:32,09:32 AM,137.49,137.15,137.331,502,68940.34,6,137.52,137.15,137.311,17592,2415569.96,103,137.15,137.485,137.17,137.38,0.001728740863932738,0.0023139699548885883,pep,20191216
2019-12-16,09:33,09:33 AM,137.43,137.27,137.344,737,101222.27,9,137.45,137.25,137.351,16823,2310654.4533,82,137.34,137.37,137.37,137.31,0.0018235663121653756,0.002605953545410743,pep,20191216
2019-12-16,09:34,09:34 AM,137.36,137.215,137.302,3196,438816.06,16,137.42,137.19,137.303,11748,1613032.2994,84,137.33,137.215,137.33,137.195,0.001517207171721581,0.0022555732367840744,pep,20191216
2019-12-16,09:35,09:35 AM,,,,0,0.0,0,137.22,136.85,137.012,17830,2442922.37,100,,,137.195,136.85,,0.00013139261573500067,pep,20191216
2019-12-16,09:36,09:36 AM,136.87,136.87,136.87,10,1368.7,1,136.97,136.76,136.882,11704,1602072.44,68,136.87,136.87,136.85,136.86,-0.0016339154157001003,-0.0008175540534621573,pep,20191216
2019-12-16,09:37,09:37 AM,136.85,136.85,136.85,100,13685.0,1,136.896,136.61,136.749,12034,1645638.7652,69,136.85,136.85,136.845,136.7,-0.001779800720673405,-0.0017883994919485858,pep,20191216
2019-12-16,09:38,09:38 AM,,,,0,0.0,0,136.66,136.53,136.607,4631,632626.97,43,,,136.616,136.62,,-0.002824941238302411,pep,20191216
2019-12-16,09:39,09:39 AM,136.52,136.38,136.507,110,15015.8,2,136.55,136.33,136.448,8767,1196238.05,55,136.52,136.38,136.55,136.435,-0.004281733700964223,-0.003985576010628146,pep,20191216
2019-12-16,09:40,09:40 AM,136.54,136.39,136.479,685,93487.925,6,136.61,136.36,136.444,15619,2131116.355,131,136.39,136.54,136.42,136.61,-0.004485973127926683,-0.004014774369680507,pep,20191216
2019-12-16,09:41,09:41 AM,136.62,136.525,136.566,1690,230796.35,9,136.764,136.48,136.588,19403,2650210.075,126,136.6,136.62,136.6,136.764,-0.003851372051293212,-0.0029636334438005014,pep,20191216
2019-12-16,09:42,09:42 AM,136.845,136.74,136.759,2000,273518.5,5,136.87,136.68,136.768,12176,1665287.5771,73,136.74,136.845,136.77,136.817,-0.0024435788583016616,-0.0016497072864504949,pep,20191216
2019-12-16,09:43,09:43 AM,136.76,136.42,136.645,1000,136645.0,7,136.82,136.41,136.61,8700,1188510.96,72,136.76,136.43,136.82,136.43,-0.003275125096648897,-0.0028030424690131403,pep,20191216
2019-12-16,09:44,09:44 AM,136.445,136.41,136.423,300,40927.0,3,136.48,136.41,136.447,7029,959088.3115,54,136.415,136.445,136.419,136.45,-0.004894451981851812,-0.003992875600391237,pep,20191216
2019-12-16,09:45,09:45 AM,136.42,136.4,136.409,400,54563.5,4,136.5,136.34,136.405,8733,1191226.3143,70,136.4,136.42,136.44,136.42,-0.004996571695333146,-0.004299458370439571,pep,20191216
2019-12-16,09:46,09:46 AM,136.5,136.47,136.485,200,27297.0,2,136.52,136.39,136.452,4217,575420.3165,37,136.5,136.47,136.39,136.5,-0.004442207536434713,-0.003956377651575993,pep,20191216
2019-12-16,09:47,09:47 AM,136.46,136.46,136.46,19,2592.74,1,136.56,136.44,136.495,3811,520181.1845,31,136.46,136.46,136.45,136.553,-0.0046245641676512916,-0.003642495291764568,pep,20191216
2019-12-16,09:48,09:48 AM,136.51,136.51,136.51,100,13651.0,1,136.57,136.47,136.518,5495,750169.125,41,136.51,136.51,136.54,136.57,-0.004259850905218341,-0.003474604727214324,pep,20191216
2019-12-16,09:49,09:49 AM,136.62,136.58,136.593,300,40978.0,3,136.64,136.57,136.608,3093,422530.0593,20,136.62,136.58,136.63,136.57,-0.0036544268895794475,-0.0028176416485393204,pep,20191216
2019-12-16,09:50,09:50 AM,136.56,136.52,136.547,711,97084.96,9,136.57,136.52,136.556,6640,906731.77,32,136.54,136.56,136.57,136.57,-0.00398996309101782,-0.003197220316218142,pep,20191216
2019-12-16,09:51,09:51 AM,136.54,136.535,136.536,528,72090.98,3,136.64,136.53,136.55,3097,422894.8762,24,136.535,136.54,136.54,136.64,-0.0040702000087530655,-0.003241017854796476,pep,20191216
2019-12-16,09:52,09:52 AM,136.65,136.615,136.635,405,55337.075,5,136.665,136.62,136.647,2030,277394.25,19,136.62,136.635,136.62,136.658,-0.003348067749135653,-0.0025329576477802563,pep,20191216
2019-12-16,09:53,09:53 AM,136.67,136.645,136.656,1000,136656.5,5,136.7,136.61,136.658,9407,1285544.7537,64,136.67,136.66,136.67,136.64,-0.003194888178913652,-0.002452662160386679,pep,20191216
2019-12-16,09:54,09:54 AM,136.64,136.54,136.581,1027,140268.49,12,136.64,136.54,136.583,6284,858287.38,55,136.63,136.54,136.63,136.54,-0.003741958072563389,-0.003000131392615745,pep,20191216
2019-12-16,09:55,09:55 AM,136.6,136.59,136.592,600,81955.0,4,136.6,136.55,136.583,5698,778251.6336,42,136.59,136.59,136.56,136.579,-0.0036617211548279367,-0.003000131392615745,pep,20191216
2019-12-16,09:56,09:56 AM,136.63,136.57,136.579,1008,137672.06,10,136.63,136.56,136.593,10274,1403357.885,74,136.58,136.57,136.58,136.57,-0.0037565466030605745,-0.002927135494985258,pep,20191216
2019-12-16,09:57,09:57 AM,136.56,136.53,136.546,793,108280.605,10,136.58,136.53,136.545,4500,614453.47,34,136.555,136.55,136.58,136.55,-0.003997257356266517,-0.0032775158036119265,pep,20191216
2019-12-16,09:58,09:58 AM,136.57,136.545,136.559,701,95728.005,10,136.58,136.53,136.553,7423,1013632.6096,52,136.545,136.545,136.55,136.53,-0.003902431908033879,-0.0032191190855074127,pep,20191216
2019-12-16,09:59,09:59 AM,136.58,136.515,136.538,901,123020.775,13,136.58,136.51,136.532,5725,781648.9475,50,136.525,136.58,136.52,136.58,-0.004055611478255673,-0.0033724104705314764,pep,20191216
2019-12-16,10:00,10 AM,136.555,136.45,136.494,600,81896.5,6,136.57,136.449,136.482,5024,685687.645,34,136.555,136.45,136.555,136.449,-0.00437655914919686,-0.0037373899586843253,pep,20191216
2019-12-16,10:01,10:01 AM,136.475,136.435,136.454,1300,177390.61,18,136.48,136.43,136.457,7020,957930.0,57,136.435,136.45,136.45,136.43,-0.004668329759143262,-0.00391987970276075,pep,20191216
2019-12-16,10:02,10:02 AM,136.46,136.43,136.44,544,74223.24,6,136.45,136.43,136.443,4451,607309.7525,37,136.45,136.43,136.43,136.43,-0.004770449472624596,-0.0040220739594433895,pep,20191216
2019-12-16,10:03,10:03 AM,136.41,136.345,136.387,1292,176211.67,15,136.42,136.345,136.384,15303,2087090.56,117,136.41,136.39,136.42,136.39,-0.005157045530803636,-0.004452749755463842,pep,20191216
2019-12-16,10:04,10:04 AM,136.45,136.375,136.41,1470,200522.3,16,136.45,136.37,136.418,8400,1145908.19,64,136.375,136.43,136.37,136.428,-0.004989277430084449,-0.004204563703519814,pep,20191216
2019-12-16,10:05,10:05 AM,136.415,136.35,136.387,800,109109.5,8,136.45,136.332,136.403,5460,744758.32,38,136.415,136.35,136.45,136.34,-0.005157045530803636,-0.004314057549965751,pep,20191216
2019-12-16,10:06,10:06 AM,136.31,136.25,136.299,313,42661.75,4,136.35,136.22,136.289,10243,1396007.8739,78,136.31,136.25,136.35,136.22,-0.005798940872685804,-0.00514621078295409,pep,20191216
2019-12-16,10:07,10:07 AM,136.25,136.22,136.238,749,102042.135,9,136.27,136.2,136.234,8593,1170657.7,69,136.235,136.24,136.235,136.23,-0.006243891052854207,-0.005547688219921974,pep,20191216
2019-12-16,10:08,10:08 AM,136.25,136.19,136.206,1304,177612.835,16,136.27,136.19,136.208,8073,1099605.055,62,136.21,136.25,136.22,136.27,-0.006477307540811453,-0.005737477553761488,pep,20191216
2019-12-16,10:09,10:09 AM,136.305,136.305,136.305,100,13630.5,1,136.33,136.25,136.278,2712,369586.7066,24,136.305,136.305,136.26,136.315,-0.0057551752811938325,-0.005226506270347666,pep,20191216
2019-12-16,10:10,10:10 AM,136.3,136.285,136.292,200,27258.5,2,136.31,136.285,136.295,4760,648764.5077,28,136.3,136.285,136.3,136.31,-0.005850000729426471,-0.005102413244375756,pep,20191216
2019-12-16,10:11,10:11 AM,136.31,136.285,136.297,626,85322.06,7,136.315,136.28,136.296,6739,918499.6664,48,136.295,136.29,136.29,136.28,-0.0058135294031831965,-0.005095113654612665,pep,20191216
2019-12-16,10:12,10:12 AM,136.345,136.285,136.31,500,68155.0,5,136.36,136.26,136.309,5670,772869.6582,53,136.285,136.345,136.29,136.345,-0.005718703954950558,-0.005000218987692908,pep,20191216
2019-12-16,10:13,10:13 AM,136.34,136.23,136.302,723,98546.51,9,136.34,136.24,136.272,4704,641021.9937,42,136.34,136.24,136.34,136.265,-0.005777058076939921,-0.005270303808926,pep,20191216
2019-12-16,10:14,10:14 AM,136.27,136.2,136.232,551,75063.995,7,136.27,136.2,136.231,5130,698865.95,24,136.27,136.2,136.26,136.21,-0.006287656644346177,-0.005569586989211245,pep,20191216
2019-12-16,10:15,10:15 AM,136.2,136.16,136.174,1438,195818.59,21,136.26,136.16,136.192,9754,1328413.78,70,136.19,136.17,136.202,136.25,-0.0067107240287684914,-0.005854270989970309,pep,20191216
2019-12-16,10:16,10:16 AM,136.33,136.22,136.294,1600,218070.0,16,136.34,136.22,136.285,7616,1037944.8725,65,136.22,136.33,136.25,136.33,-0.005835412198929078,-0.0051754091420062424,pep,20191216
2019-12-16,10:17,10:17 AM,136.37,136.315,136.345,974,132799.885,11,136.38,136.3,136.349,6328,862818.566,39,136.33,136.365,136.33,136.38,-0.005463404671247431,-0.004708235397170754,pep,20191216
2019-12-16,10:18,10:18 AM,136.53,136.45,136.492,1416,193273.34,17,136.537,136.39,136.501,9128,1245980.3275,69,136.45,136.505,136.39,136.505,-0.004391147679694253,-0.0035986977531862344,pep,20191216
2019-12-16,10:19,10:19 AM,136.54,136.47,136.504,1200,163804.5,13,136.555,136.47,136.506,3700,505072.26,34,136.54,136.5,136.505,136.5,-0.0043036164967103115,-0.003562199804370991,pep,20191216
2019-12-16,10:20,10:20 AM,136.54,136.5,136.512,652,89005.58,7,136.54,136.5,136.514,2200,300331.75,21,136.5,136.54,136.5,136.53,-0.004245262374720948,-0.0035038030862664772,pep,20191216
2019-12-16,10:21,10:21 AM,136.67,136.605,136.636,600,81981.5,6,136.7,136.51,136.641,8124,1110067.855,54,136.605,136.67,136.51,136.7,-0.0033407734838869566,-0.0025767551863585896,pep,20191216
2019-12-16,10:22,10:22 AM,136.715,136.665,136.686,2800,382721.0,26,136.72,136.663,136.686,16151,2207613.98,116,136.685,136.675,136.695,136.71,-0.0029760602214537984,-0.0022482736470209844,pep,20191216
2019-12-16,10:23,10:23 AM,136.75,136.7,136.732,800,109385.5,6,136.75,136.7,136.726,4100,560578.43,33,136.715,136.75,136.71,136.75,-0.002640524020015426,-0.0019562900564988298,pep,20191216
2019-12-16,10:24,10:24 AM,136.83,136.74,136.789,1488,203542.67,18,136.84,136.732,136.79,8899,1217290.029,59,136.75,136.83,136.732,136.826,-0.002224750900841808,-0.001489116311663341,pep,20191216
2019-12-16,10:25,10:25 AM,136.84,136.795,136.82,1500,205229.5,15,136.85,136.795,136.818,18173,2486388.1281,66,136.82,136.83,136.82,136.84,-0.0019986286781332584,-0.0012847277982976461,pep,20191216
2019-12-16,10:26,10:26 AM,136.84,136.755,136.794,3750,512978.0,24,136.87,136.75,136.814,21266,2909492.05,154,136.795,136.825,136.835,136.83,-0.0021882795745983264,-0.0013139261573500067,pep,20191216
2019-12-16,10:27,10:27 AM,136.85,136.78,136.821,812,111098.44,10,136.88,136.765,136.822,12762,1746129.31,74,136.85,136.78,136.82,136.765,-0.001991334412884562,-0.0012555294392454929,pep,20191216
2019-12-16,10:28,10:28 AM,136.8,136.715,136.742,1600,218787.0,14,136.82,136.7,136.773,19604,2681293.58,58,136.72,136.8,136.72,136.8,-0.0025675813675288773,-0.0016132093376352514,pep,20191216
2019-12-16,10:29,10:29 AM,136.845,136.78,136.812,2050,280465.11,17,136.851,136.778,136.816,8793,1203024.8652,62,136.81,136.8,136.81,136.8,-0.0020569828001224142,-0.0012993269778238264,pep,20191216
2019-12-16,10:30,10:30 AM,136.915,136.8,136.838,2394,327589.51,15,136.92,136.8,136.858,6544,895598.61,46,136.8,136.9,136.8,136.9,-0.0018673319036573463,-0.0009927442077754915,pep,20191216
2019-12-16,10:31,10:31 AM,136.865,136.805,136.822,3000,410467.0,14,136.895,136.8,136.818,23510,3216600.0,53,136.86,136.815,136.895,136.815,-0.0019840401476358656,-0.0012847277982976461,pep,20191216
2019-12-16,10:32,10:32 AM,136.855,136.81,136.836,1800,246305.5,19,136.86,136.8,136.834,7981,1092075.42,75,136.81,136.845,136.81,136.845,-0.0018819204341545316,-0.0011679343620888257,pep,20191216
2019-12-16,10:33,10:33 AM,136.875,136.835,136.859,800,109487.5,9,136.88,136.835,136.857,6097,834420.16,46,136.865,136.875,136.845,136.875,-0.0017141523334353453,-0.0010000437975385816,pep,20191216
2019-12-16,10:34,10:34 AM,136.88,136.85,136.861,401,54881.13,6,136.89,136.85,136.864,1800,246355.84,18,136.88,136.865,136.879,136.89,-0.00169956380293816,-0.000948946669197158,pep,20191216
2019-12-16,10:35,10:35 AM,136.925,136.87,136.903,614,84058.395,8,136.93,136.87,136.909,7807,1068852.0481,41,136.87,136.915,136.88,136.915,-0.0013932046624943652,-0.0006204651298597599,pep,20191216
2019-12-16,10:36,10:36 AM,137.015,136.88,136.94,1404,192263.68,16,137.02,136.88,136.952,14296,1957873.37,77,136.91,137.0,136.915,137.005,-0.001123316848293845,-0.0003065827700483349,pep,20191216
2019-12-16,10:37,10:37 AM,137.01,136.98,136.993,710,97265.3,9,137.02,136.985,136.998,5005,685673.98,35,137.01,136.99,137.01,137.005,-0.0007367207901148051,2.9198359052153217e-05,pep,20191216
2019-12-16,10:38,10:38 AM,137.01,136.965,136.99,903,123702.45,11,137.02,136.965,136.991,12687,1738008.437,77,136.995,136.995,137.0,137.014,-0.0007586035858606868,-2.1898769289063044e-05,pep,20191216
2019-12-16,10:39,10:39 AM,137.005,137.005,137.005,2,274.01,1,137.02,137.0,137.012,2880,394593.6933,14,137.005,137.005,137.01,137.01,-0.0006491896071308638,0.00013139261573500067,pep,20191216
2019-12-16,10:40,10:40 AM,137.005,136.99,136.994,602,82470.51,7,137.02,136.99,136.999,3424,469083.76,24,137.005,137.0,137.02,136.99,-0.0007294265248661088,3.649794881524339e-05,pep,20191216
2019-12-16,10:41,10:41 AM,136.985,136.91,136.962,897,122854.96,14,136.99,136.893,136.947,4420,605303.9798,34,136.985,136.91,136.99,136.9,-0.0009628430128233548,-0.0003430807188635783,pep,20191216
2019-12-16,10:42,10:42 AM,136.95,136.91,136.937,600,82162.0,6,136.95,136.91,136.931,2900,397099.5,23,136.91,136.925,136.91,136.925,-0.0011451996440397265,-0.00045987415507239864,pep,20191216
2019-12-16,10:43,10:43 AM,136.885,136.855,136.861,1200,164233.5,6,136.91,136.855,136.868,3698,506137.78,21,136.855,136.885,136.91,136.88,-0.00169956380293816,-0.0009197483101450047,pep,20191216
2019-12-16,10:44,10:44 AM,136.9,136.865,136.873,500,68436.5,5,136.9,136.86,136.875,2300,314813.5,21,136.87,136.9,136.88,136.89,-0.0016120326199542186,-0.000868651181803581,pep,20191216
2019-12-16,10:45,10:45 AM,136.99,136.91,136.946,510,69842.7,6,137.0,136.9,136.95,6063,830330.15,49,136.91,136.99,136.9,136.985,-0.0010795512568018742,-0.00032118194957451524,pep,20191216
2019-12-16,10:46,10:46 AM,136.98,136.93,136.957,318,43552.24,4,136.99,136.93,136.962,3134,429239.2913,24,136.98,136.93,136.99,136.93,-0.0009993143390666292,-0.00023358687241784812,pep,20191216
2019-12-16,10:47,10:47 AM,136.94,136.905,136.919,401,54904.44,5,136.935,136.905,136.919,3186,436225.33,28,136.94,136.925,136.935,136.915,-0.0012764964185156386,-0.0005474692322290657,pep,20191216
2019-12-16,10:48,10:48 AM,137.01,136.9,136.968,1606,219969.88,10,137.02,136.9,136.97,7615,1043025.13,48,136.9,137.01,136.915,137.01,-0.0009190774213313842,-0.00017519015431333423,pep,20191216
2019-12-16,10:49,10:49 AM,137.055,137.0,137.021,544,74539.31,7,137.05,136.99,137.017,4487,614795.166,38,137.0,137.02,137.02,137.015,-0.0005324813631523445,0.00016789056455024406,pep,20191216
2019-12-16,10:50,10:50 AM,137.05,137.01,137.037,1300,178148.5,13,137.07,137.01,137.037,8850,1212781.43,80,137.035,137.01,137.02,137.01,-0.00041577311917361773,0.0003138823598114251,pep,20191216
2019-12-16,10:51,10:51 AM,137.02,137.0,137.004,467,63981.0,4,137.03,136.985,137.007,7469,1023308.7268,62,137.0,137.0,137.01,137.03,-0.0006564838723795601,9.489466691975728e-05,pep,20191216
2019-12-16,10:52,10:52 AM,137.02,137.01,137.015,200,27403.0,2,137.03,137.0,137.014,1196,163868.52,9,137.02,137.01,137.0,137.01,-0.0005762469546443151,0.000145991795261181,pep,20191216
2019-12-16,10:53,10:53 AM,137.05,137.015,137.029,600,82217.5,6,137.08,137.0,137.038,4598,630101.92,41,137.02,137.05,137.01,137.07,-0.0004741272411629811,0.00032118194957451524,pep,20191216
2019-12-16,10:54,10:54 AM,137.12,137.12,137.12,4,548.48,2,137.16,137.08,137.114,2300,315363.0,20,137.12,137.12,137.08,137.16,0.00018965089646527536,0.0008759507715666711,pep,20191216
2019-12-16,10:55,10:55 AM,137.11,137.11,137.11,3,411.33,1,137.15,137.1,137.122,3390,464842.95,22,137.11,137.11,137.141,137.11,0.00011670824397872667,0.0009343474896711851,pep,20191216
2019-12-16,10:56,10:56 AM,137.12,137.09,137.12,302,41410.18,3,137.14,137.09,137.114,3508,480996.46,30,137.09,137.12,137.115,137.13,0.00018965089646527536,0.0008759507715666711,pep,20191216
2019-12-16,10:57,10:57 AM,137.08,137.08,137.08,100,13708.0,1,137.13,137.06,137.104,6580,902142.45,24,137.08,137.08,137.12,137.08,-0.0001021197134811267,0.0008029548739361844,pep,20191216
2019-12-16,10:58,10:58 AM,137.145,137.135,137.138,300,41141.5,3,137.15,137.07,137.126,3028,415216.33,24,137.145,137.135,137.07,137.135,0.0003209476709411874,0.0009635458487233383,pep,20191216
2019-12-16,10:59,10:59 AM,137.15,137.12,137.121,342,46895.36,9,137.15,137.12,137.131,2525,346257.25,24,137.125,137.15,137.13,137.145,0.0001969451617139717,0.0010000437975385816,pep,20191216
2019-12-16,11:00,11 AM,137.15,137.125,137.137,200,27427.5,2,137.15,137.07,137.119,3006,412181.4828,20,137.15,137.125,137.15,137.075,0.00031365340569249105,0.0009124487203819146,pep,20191216
2019-12-16,11:01,11:01 AM,137.08,137.05,137.071,501,68672.55,6,137.09,137.05,137.064,3682,504668.45,33,137.075,137.08,137.075,137.07,-0.00016776810071918638,0.0005109712834138224,pep,20191216
2019-12-16,11:02,11:02 AM,137.055,137.03,137.045,300,41113.5,3,137.07,137.03,137.047,3017,413470.47,28,137.055,137.05,137.07,137.04,-0.0003574189971844617,0.00038687825744191187,pep,20191216
2019-12-16,11:03,11:03 AM,137.04,137.005,137.026,400,54810.5,4,137.055,136.99,137.026,3046,417381.751,21,137.04,137.005,137.04,137.0,-0.0004960100369088628,0.00023358687241784812,pep,20191216
2019-12-16,11:04,11:04 AM,137.005,137.005,137.005,100,13700.5,1,137.025,136.99,137.009,1500,205514.0,15,137.005,137.005,136.99,137.005,-0.0006491896071308638,0.00010949384644573016,pep,20191216
2019-12-16,11:05,11:05 AM,136.985,136.96,136.972,506,69307.76,6,137.0,136.95,136.976,6636,908971.7133,44,136.985,136.965,137.0,136.95,-0.0008899003603365989,-0.00013139261573500067,pep,20191216
2019-12-16,11:06,11:06 AM,136.945,136.93,136.945,801,109692.93,2,136.96,136.93,136.941,3904,534617.5912,27,136.945,136.93,136.96,136.94,-0.0010868455220505704,-0.00038687825744191187,pep,20191216
2019-12-16,11:07,11:07 AM,137.03,136.985,137.007,200,27401.5,2,137.04,136.94,137.002,4882,668842.0673,43,136.985,137.03,136.96,137.035,-0.0006346010766334711,5.8396718104513896e-05,pep,20191216
2019-12-16,11:08,11:08 AM,137.02,136.99,137.01,300,41103.0,3,137.039,136.99,137.023,2383,326525.94,16,137.02,136.99,137.039,136.99,-0.0006127182808875894,0.00021168810312857761,pep,20191216
2019-12-16,11:09,11:09 AM,137.02,137.02,137.02,100,13702.0,1,137.03,136.98,137.005,3035,415809.474,19,137.02,137.02,136.98,137.03,-0.0005397756284008335,8.029548739357694e-05,pep,20191216
2019-12-16,11:10,11:10 AM,137.0,137.0,137.0,100,13700.0,1,137.01,136.99,137.001,1302,178375.725,11,137.0,137.0,137.01,136.995,-0.0006856609333741381,5.109712834142373e-05,pep,20191216
2019-12-16,11:11,11:11 AM,136.995,136.995,136.995,200,27399.0,2,137.05,136.993,137.012,2600,356230.79,23,136.995,136.995,137.0,137.05,-0.0007221322596174124,0.00013139261573500067,pep,20191216
2019-12-16,11:12,11:12 AM,137.015,136.96,137.014,102,13975.42,2,137.07,136.94,136.991,4227,579062.57,33,137.015,136.96,137.07,136.96,-0.0005835412198928041,-2.1898769289063044e-05,pep,20191216
2019-12-16,11:13,11:13 AM,137.01,137.01,137.01,100,13701.0,1,137.029,136.97,137.003,2557,350316.6156,23,137.01,137.01,136.98,137.01,-0.0006127182808875894,6.56963078673966e-05,pep,20191216
2019-12-16,11:14,11:14 AM,137.02,137.02,137.02,100,13702.0,1,137.03,137.01,137.02,1338,183333.01,13,137.02,137.02,137.02,137.01,-0.0005397756284008335,0.00018978933383951457,pep,20191216
2019-12-16,11:15,11:15 AM,136.98,136.935,136.964,1000,136963.5,6,137.01,136.925,136.952,7992,1094517.675,56,136.98,136.94,137.01,136.95,-0.0009482544823259622,-0.0003065827700483349,pep,20191216
2019-12-16,11:16,11:16 AM,136.925,136.925,136.925,100,13692.5,1,136.94,136.91,136.925,3832,524697.6014,29,136.925,136.925,136.94,136.925,-0.0012327308270236679,-0.0005036716936507321,pep,20191216
2019-12-16,11:17,11:17 AM,137.01,136.935,136.981,1706,233689.765,10,137.02,136.925,136.976,9747,1335100.742,65,136.935,137.0,136.925,137.01,-0.0008242519730987465,-0.00013139261573500067,pep,20191216
2019-12-16,11:18,11:18 AM,137.005,136.965,136.983,1508,206569.875,12,137.005,136.96,136.988,7918,1084673.9466,55,136.995,136.965,137.0,136.983,-0.0008096634426013539,-4.379753857833356e-05,pep,20191216
2019-12-16,11:19,11:19 AM,136.98,136.92,136.972,505,69171.12,6,136.98,136.92,136.962,11722,1605468.84,41,136.98,136.92,136.98,136.92,-0.0008899003603365989,-0.00023358687241784812,pep,20191216
2019-12-16,11:20,11:20 AM,137.0,136.94,136.975,500,68487.5,6,137.01,136.94,136.984,3372,461908.9225,32,136.94,137.0,136.94,137.0,-0.0008680175645907172,-7.299589763048677e-05,pep,20191216
2019-12-16,11:21,11:21 AM,,,,0,0.0,0,137.087,137.01,137.052,2387,327144.3072,20,,,137.01,137.05,,0.00042337620625715523,pep,20191216
2019-12-16,11:22,11:22 AM,137.02,137.02,137.02,67,9180.34,1,137.05,137.014,137.036,400,54814.37,4,137.02,137.02,137.05,137.014,-0.0005397756284008335,0.0003065827700483349,pep,20191216
2019-12-16,11:23,11:23 AM,137.02,137.015,137.018,200,27403.5,2,137.03,137.01,137.017,3159,432838.09,29,137.015,137.02,137.02,137.01,-0.0005543641588982261,0.00016789056455024406,pep,20191216
2019-12-16,11:24,11:24 AM,137.035,137.035,137.035,100,13703.5,1,137.035,137.02,137.026,1121,153606.13,11,137.035,137.035,137.02,137.03,-0.00043036164967101044,0.00023358687241784812,pep,20191216
2019-12-16,11:25,11:25 AM,137.04,137.04,137.04,213,29189.52,3,137.041,137.03,137.036,1265,173350.3583,11,137.04,137.04,137.03,137.034,-0.0003938903234277361,0.0003065827700483349,pep,20191216
2019-12-16,11:26,11:26 AM,137.115,137.045,137.08,501,68677.045,4,137.115,137.03,137.076,6085,834107.12,41,137.045,137.115,137.03,137.11,-0.0001021197134811267,0.0005985663605704895,pep,20191216
2019-12-16,11:27,11:27 AM,137.09,137.055,137.075,619,84849.17,10,137.105,137.06,137.079,4712,645916.0119,38,137.09,137.055,137.105,137.06,-0.00013859103972460834,0.0006204651298597599,pep,20191216
2019-12-16,11:28,11:28 AM,137.08,137.08,137.08,100,13708.0,1,137.09,137.06,137.076,2295,314588.735,21,137.08,137.08,137.06,137.09,-0.0001021197134811267,0.0005985663605704895,pep,20191216
2019-12-16,11:29,11:29 AM,137.08,137.06,137.068,124,16996.48,3,137.091,137.059,137.078,2446,335292.539,23,137.08,137.06,137.085,137.091,-0.00018965089646506803,0.0006131655400966698,pep,20191216
2019-12-16,11:30,11:30 AM,137.14,137.08,137.11,200,27422.0,2,137.18,137.07,137.124,6241,855788.135,48,137.08,137.14,137.08,137.17,0.00011670824397872667,0.000948946669197158,pep,20191216
2019-12-16,11:31,11:31 AM,137.16,137.13,137.131,118,16181.4,3,137.18,137.11,137.162,3429,470328.3,32,137.16,137.13,137.18,137.11,0.0002698878142005204,0.0012263310801933396,pep,20191216
2019-12-16,11:32,11:32 AM,137.105,137.1,137.102,300,41130.5,3,137.125,137.09,137.111,3930,538847.975,35,137.1,137.1,137.1,137.091,5.835412198936334e-05,0.0008540520022774006,pep,20191216
2019-12-16,11:33,11:33 AM,137.09,137.055,137.055,130,17817.22,4,137.09,137.055,137.068,2330,319367.967,20,137.09,137.055,137.09,137.06,-0.00028447634469770574,0.0005401696424661831,pep,20191216
2019-12-16,11:34,11:34 AM,137.04,137.04,137.04,100,13704.0,1,137.06,137.04,137.05,2738,375243.479,21,137.04,137.04,137.05,137.05,-0.0003938903234277361,0.00040877702673118235,pep,20191216
2019-12-16,11:35,11:35 AM,137.08,137.06,137.073,300,41122.0,3,137.095,137.05,137.075,3684,504984.68,30,137.08,137.06,137.05,137.06,-0.0001531795702217937,0.0005912667708073993,pep,20191216
2019-12-16,11:36,11:36 AM,137.0,137.0,137.0,200,27400.0,2,137.05,136.971,137.002,5417,742139.4739,33,137.0,137.0,137.05,136.99,-0.0006856609333741381,5.8396718104513896e-05,pep,20191216
2019-12-16,11:37,11:37 AM,136.98,136.98,136.98,100,13698.0,1,136.99,136.97,136.979,5063,693526.47,40,136.98,136.98,136.99,136.99,-0.0008315462383474429,-0.00010949384644573016,pep,20191216
2019-12-16,11:38,11:38 AM,136.97,136.96,136.964,238,32597.48,4,137.0,136.95,136.975,3640,498588.66,33,136.96,136.96,136.992,136.97,-0.0009482544823259622,-0.00013869220549809084,pep,20191216
2019-12-16,11:39,11:39 AM,,,,0,0.0,0,136.98,136.96,136.969,900,123272.0,8,,,136.97,136.98,,-0.0001824897440764244,pep,20191216
2019-12-16,11:40,11:40 AM,,,,0,0.0,0,136.99,136.98,136.981,2501,342589.0103,21,,,136.99,136.98,,-9.489466691975728e-05,pep,20191216
2019-12-16,11:41,11:41 AM,,,,0,0.0,0,136.984,136.98,136.981,1000,136980.54,6,,,136.98,136.98,,-9.489466691975728e-05,pep,20191216
2019-12-16,11:42,11:42 AM,,,,0,0.0,0,137.035,136.984,137.003,3135,429505.9535,26,,,136.984,137.035,,6.56963078673966e-05,pep,20191216
2019-12-16,11:43,11:43 AM,137.0,137.0,137.0,300,41100.0,3,137.025,136.96,137.003,2103,288117.5367,16,137.0,137.0,137.02,136.96,-0.0006856609333741381,6.56963078673966e-05,pep,20191216
2019-12-16,11:44,11:44 AM,136.975,136.96,136.961,1500,205442.0,6,137.0,136.95,136.969,3215,440354.83,21,136.975,136.96,136.97,136.96,-0.0009701372780718438,-0.0001824897440764244,pep,20191216
2019-12-16,11:45,11:45 AM,136.995,136.995,136.995,100,13699.5,1,136.995,136.97,136.981,920,126022.3,9,136.995,136.995,136.97,136.99,-0.0007221322596174124,-9.489466691975728e-05,pep,20191216
2019-12-16,11:46,11:46 AM,,,,0,0.0,0,136.98,136.955,136.963,1647,225577.8244,12,,,136.98,136.96,,-0.00022628728265475795,pep,20191216
2019-12-16,11:47,11:47 AM,136.94,136.935,136.939,700,95857.5,2,136.958,136.93,136.941,3425,469023.0375,23,136.94,136.935,136.95,136.958,-0.0011306111135425412,-0.00038687825744191187,pep,20191216
2019-12-16,11:48,11:48 AM,136.95,136.945,136.945,102,13968.4,2,136.97,136.94,136.952,4928,674898.4098,30,136.95,136.945,136.96,136.945,-0.0010868455220505704,-0.0003065827700483349,pep,20191216
2019-12-16,11:49,11:49 AM,136.935,136.935,136.935,100,13693.5,1,137.0,136.93,136.952,6800,931273.12,37,136.935,136.935,136.947,137.0,-0.0011597881745371193,-0.0003065827700483349,pep,20191216
2019-12-16,11:50,11:50 AM,136.965,136.95,136.95,101,13831.965,2,137.02,136.95,136.967,7747,1061083.9662,49,136.95,136.965,137.0,137.02,-0.0010503741958072961,-0.00019708892360239727,pep,20191216
2019-12-16,11:51,11:51 AM,137.0,136.98,137.0,101,13836.98,2,137.03,136.97,136.994,1678,229876.7686,11,137.0,136.98,137.03,136.98,-0.0006856609333741381,0.0,pep,20191216
2019-12-16,11:52,11:52 AM,137.01,137.01,137.01,2,274.02,1,137.05,136.98,137.017,4969,680838.79,26,137.01,137.01,136.98,137.05,-0.0006127182808875894,0.00016789056455024406,pep,20191216
2019-12-16,11:53,11:53 AM,,,,0,0.0,0,137.08,137.043,137.061,3410,467377.9083,12,,,137.043,137.08,,0.0004890725141247593,pep,20191216
2019-12-16,11:54,11:54 AM,137.07,137.07,137.07,1,137.07,1,137.09,137.05,137.067,3528,483572.8,21,137.07,137.07,137.05,137.09,-0.0001750623659678827,0.0005328700527030928,pep,20191216
2019-12-16,11:55,11:55 AM,137.08,137.08,137.08,79,10829.32,1,137.11,137.075,137.092,3641,499151.6854,18,137.08,137.08,137.075,137.1,-0.0001021197134811267,0.0007153597967795173,pep,20191216
2019-12-16,11:56,11:56 AM,137.11,137.11,137.11,100,13711.0,1,137.11,137.09,137.1,700,95970.0,6,137.11,137.11,137.09,137.1,0.00011670824397872667,0.0007737565148838237,pep,20191216
2019-12-16,11:57,11:57 AM,,,,0,0.0,0,137.125,137.07,137.092,1681,230452.338,15,,,137.09,137.096,,0.0007153597967795173,pep,20191216
2019-12-16,11:58,11:58 AM,,,,0,0.0,0,137.1,137.05,137.077,1820,249479.33,18,,,137.1,137.06,,0.0006058659503335797,pep,20191216
2019-12-16,11:59,11:59 AM,,,,0,0.0,0,137.106,137.08,137.095,1600,219352.25,16,,,137.096,137.08,,0.0007372585660685803,pep,20191216
2019-12-16,12:00,12 PM,,,,0,0.0,0,137.08,137.03,137.052,4286,587405.3282,33,,,137.07,137.06,,0.00042337620625715523,pep,20191216
2019-12-16,12:01,12:01 PM,,,,0,0.0,0,137.06,137.034,137.044,1185,162396.8135,11,,,137.041,137.06,,0.0003649794881528488,pep,20191216
2019-12-16,12:02,12:02 PM,137.02,137.02,137.02,101,13839.02,2,137.06,137.01,137.031,1418,194309.994,12,137.02,137.02,137.05,137.01,-0.0005397756284008335,0.00027008482123309154,pep,20191216
2019-12-16,12:03,12:03 PM,,,,0,0.0,0,137.048,136.99,137.012,2600,356232.22,22,,,137.03,137.03,,0.00013139261573500067,pep,20191216
2019-12-16,12:04,12:04 PM,,,,0,0.0,0,137.07,137.03,137.054,1117,153088.8672,10,,,137.042,137.06,,0.00043797538578333557,pep,20191216
2019-12-16,12:05,12:05 PM,,,,0,0.0,0,137.08,137.06,137.074,1900,260440.74,19,,,137.06,137.06,,0.0005839671810445166,pep,20191216
2019-12-16,12:06,12:06 PM,137.145,137.12,137.132,200,27426.5,2,137.15,137.06,137.116,12887,1767017.6901,100,137.12,137.145,137.06,137.12,0.0002771820794492167,0.0008905499510928515,pep,20191216
2019-12-16,12:07,12:07 PM,137.12,137.12,137.12,1,137.12,1,137.132,137.12,137.127,2278,312375.5946,15,137.12,137.12,137.125,137.125,0.00018965089646527536,0.0009708454384864284,pep,20191216
2019-12-16,12:08,12:08 PM,,,,0,0.0,0,137.165,137.12,137.145,1743,239043.45,16,,,137.12,137.165,,0.0011022380542214292,pep,20191216
2019-12-16,12:09,12:09 PM,137.14,137.14,137.14,100,13714.0,1,137.18,137.14,137.17,1101,151024.18,11,137.14,137.14,137.16,137.18,0.00033553620143837276,0.0012847277982976461,pep,20191216
2019-12-16,12:10,12:10 PM,,,,0,0.0,0,137.2,137.18,137.187,1091,149671.2044,6,,,137.19,137.2,,0.001408820824269764,pep,20191216
2019-12-16,12:11,12:11 PM,137.24,137.21,137.23,3,411.69,2,137.28,137.19,137.231,7506,1030059.346,65,137.24,137.21,137.19,137.2,0.0009920200738179328,0.0017300027738440717,pep,20191216
2019-12-16,12:12,12:12 PM,137.205,137.165,137.205,202,27715.34,4,137.21,137.16,137.182,4251,583162.0705,29,137.205,137.165,137.21,137.17,0.0008096634426015612,0.0013723228754543132,pep,20191216
2019-12-16,12:13,12:13 PM,137.17,137.17,137.17,1,137.17,1,137.21,137.17,137.186,2399,329109.16,22,137.17,137.17,137.17,137.173,0.0005543641588982261,0.0014015212345066738,pep,20191216
2019-12-16,12:14,12:14 PM,137.19,137.165,137.187,505,69279.325,4,137.21,137.16,137.183,2634,361339.66,24,137.175,137.19,137.17,137.21,0.0006783666681256491,0.0013796224652174033,pep,20191216
2019-12-16,12:15,12:15 PM,137.2,137.2,137.2,100,13720.0,1,137.26,137.198,137.225,1590,218187.333,7,137.2,137.2,137.2,137.26,0.0007731921163580794,0.0016862052352657382,pep,20191216
2019-12-16,12:16,12:16 PM,,,,0,0.0,0,137.245,137.2,137.221,2980,408918.52,26,,,137.245,137.21,,0.001657006876213585,pep,20191216
2019-12-16,12:17,12:17 PM,,,,0,0.0,0,137.24,137.203,137.228,2600,356792.57,20,,,137.23,137.235,,0.0017081040045550087,pep,20191216
2019-12-16,12:18,12:18 PM,,,,0,0.0,0,137.26,137.24,137.246,2500,343115.0,24,,,137.24,137.26,,0.0018394966202900094,pep,20191216
2019-12-16,12:19,12:19 PM,137.265,137.265,137.265,100,13726.5,1,137.289,137.26,137.275,2331,319988.8066,23,137.265,137.265,137.28,137.26,0.0012473193575210605,0.002051184723418587,pep,20191216
2019-12-16,12:20,12:20 PM,,,,0,0.0,0,137.36,137.285,137.313,3470,476475.852,33,,,137.285,137.36,,0.0023285691344145615,pep,20191216
2019-12-16,12:21,12:21 PM,137.35,137.35,137.35,100,13735.0,1,137.36,137.32,137.344,2215,304217.843,19,137.35,137.35,137.34,137.34,0.0018673319036573463,0.002554856417069319,pep,20191216
2019-12-16,12:22,12:22 PM,137.33,137.29,137.297,43,5903.77,4,137.34,137.29,137.31,2327,319519.3808,22,137.33,137.29,137.335,137.3,0.0014807358454783067,0.0023066703651254982,pep,20191216
2019-12-16,12:23,12:23 PM,137.27,137.27,137.27,1,137.27,1,137.31,137.26,137.284,1018,139755.22,10,137.27,137.27,137.31,137.26,0.0012837906837645423,0.0021168810312859835,pep,20191216
2019-12-16,12:24,12:24 PM,,,,0,0.0,0,137.27,137.25,137.258,2168,297575.9024,21,,,137.264,137.25,,0.0019270916974466765,pep,20191216
2019-12-16,12:25,12:25 PM,137.26,137.22,137.229,1304,178946.46,5,137.26,137.2,137.231,4000,548924.5,29,137.26,137.26,137.26,137.25,0.000984725808569444,0.0017300027738440717,pep,20191216
2019-12-16,12:26,12:26 PM,137.285,137.255,137.263,140,19216.9,2,137.31,137.25,137.276,4844,664966.5,42,137.255,137.285,137.26,137.31,0.0012327308270238752,0.0020584843131816774,pep,20191216
2019-12-16,12:27,12:27 PM,137.31,137.31,137.31,1,137.31,1,137.325,137.3,137.314,3209,440642.06,27,137.31,137.31,137.31,137.32,0.0015755612937109443,0.0023358687241776515,pep,20191216
2019-12-16,12:28,12:28 PM,137.31,137.3,137.31,102,14005.6,3,137.315,137.28,137.298,2503,343657.9631,23,137.31,137.3,137.308,137.28,0.0015755612937109443,0.002219075287968831,pep,20191216
2019-12-16,12:29,12:29 PM,,,,0,0.0,0,137.31,137.28,137.296,1469,201687.19,14,,,137.28,137.307,,0.0022044761084426506,pep,20191216
2019-12-16,12:30,12:30 PM,137.38,137.38,137.38,50,6869.0,1,137.389,137.31,137.354,2912,399976.2016,28,137.38,137.38,137.31,137.37,0.0020861598611172,0.0026278523147000134,pep,20191216
2019-12-16,12:31,12:31 PM,137.38,137.38,137.38,100,13738.0,1,137.39,137.36,137.373,2163,297136.978,20,137.38,137.38,137.37,137.38,0.0020861598611172,0.002766544520197897,pep,20191216
2019-12-16,12:32,12:32 PM,137.38,137.365,137.372,210,28848.2,3,137.38,137.365,137.374,2311,317471.57,21,137.37,137.365,137.38,137.365,0.0020278057391280436,0.002773844109960987,pep,20191216
2019-12-16,12:33,12:33 PM,137.335,137.335,137.335,100,13733.5,1,137.36,137.33,137.341,1050,144208.305,10,137.335,137.335,137.36,137.33,0.0017579179249275234,0.0025329576477802563,pep,20191216
2019-12-16,12:34,12:34 PM,137.355,137.33,137.342,375,51503.375,6,137.355,137.33,137.339,3080,423004.24,19,137.33,137.355,137.33,137.33,0.0018089777816681903,0.0025183584682540758,pep,20191216
2019-12-16,12:35,12:35 PM,137.35,137.35,137.35,1,137.35,1,137.36,137.33,137.347,2625,360535.4425,25,137.35,137.35,137.335,137.33,0.0018673319036573463,0.0025767551863585896,pep,20191216
2019-12-16,12:36,12:36 PM,137.305,137.305,137.305,100,13730.5,1,137.329,137.3,137.314,1800,247164.7,13,137.305,137.305,137.31,137.3,0.00153908996746767,0.0023358687241776515,pep,20191216
2019-12-16,12:37,12:37 PM,137.315,137.31,137.313,200,27462.5,2,137.34,137.3,137.314,3600,494329.15,25,137.31,137.315,137.3,137.34,0.001597444089456826,0.0023358687241776515,pep,20191216
2019-12-16,12:38,12:38 PM,137.32,137.3,137.32,101,13869.3,2,137.32,137.279,137.295,3431,471060.7725,23,137.32,137.3,137.32,137.279,0.001648503946197493,0.0021971765186795606,pep,20191216
2019-12-16,12:39,12:39 PM,137.265,137.26,137.264,5,686.32,2,137.28,137.26,137.273,3120,428290.676,30,137.265,137.26,137.27,137.26,0.0012400250922725716,0.002036585543892407,pep,20191216
2019-12-16,12:40,12:40 PM,,,,0,0.0,0,137.28,137.23,137.242,1600,219587.0,16,,,137.24,137.28,,0.0018102982612376488,pep,20191216
2019-12-16,12:41,12:41 PM,137.27,137.25,137.25,102,13999.52,3,137.27,137.236,137.255,4591,630136.5893,29,137.27,137.25,137.27,137.25,0.0011379053787912376,0.001905192928157406,pep,20191216
2019-12-16,12:42,12:42 PM,137.235,137.235,137.235,100,13723.5,1,137.245,137.23,137.238,2450,336232.66,23,137.235,137.235,137.24,137.24,0.0010284914000614144,0.0017810999021854955,pep,20191216
2019-12-16,12:43,12:43 PM,137.23,137.22,137.227,300,41168.0,3,137.245,137.21,137.231,2200,301907.5,21,137.23,137.22,137.24,137.24,0.0009701372780720512,0.0017300027738440717,pep,20191216
2019-12-16,12:44,12:44 PM,137.21,137.185,137.197,200,27439.5,2,137.24,137.185,137.205,1000,137205.0,10,137.21,137.185,137.24,137.185,0.0007513093206121978,0.0015402134400047647,pep,20191216
2019-12-16,12:45,12:45 PM,,,,0,0.0,0,137.24,137.19,137.216,2500,343040.0,22,,,137.19,137.23,,0.0016205089273983416,pep,20191216
2019-12-16,12:46,12:46 PM,137.185,137.18,137.183,300,41155.0,3,137.21,137.176,137.188,1195,163939.32,11,137.185,137.18,137.21,137.176,0.0006491896071308638,0.0014161204140326468,pep,20191216
2019-12-16,12:47,12:47 PM,137.165,137.165,137.165,100,13716.5,1,137.202,137.15,137.176,2973,407823.148,25,137.165,137.165,137.17,137.195,0.0005178928326549518,0.0013285253368759797,pep,20191216
2019-12-16,12:48,12:48 PM,,,,0,0.0,0,137.196,137.15,137.175,2720,373117.2428,17,,,137.196,137.173,,0.001321225747113097,pep,20191216
2019-12-16,12:49,12:49 PM,137.21,137.175,137.192,360,49389.3,4,137.216,137.17,137.195,2071,284131.652,20,137.18,137.2,137.17,137.2,0.0007148379943689234,0.0014672175423740704,pep,20191216
2019-12-16,12:50,12:50 PM,,,,0,0.0,0,137.195,137.17,137.176,2860,392324.14,15,,,137.195,137.18,,0.0013285253368759797,pep,20191216
2019-12-16,12:51,12:51 PM,137.175,137.175,137.175,100,13717.5,1,137.175,137.165,137.17,1600,219472.5,15,137.175,137.175,137.175,137.17,0.0005908354851417078,0.0012847277982976461,pep,20191216
2019-12-16,12:52,12:52 PM,137.165,137.165,137.165,200,27433.0,2,137.18,137.16,137.168,2500,342920.05,25,137.165,137.165,137.17,137.17,0.0005178928326549518,0.0012701286187716731,pep,20191216
2019-12-16,12:53,12:53 PM,137.175,137.15,137.156,223,30585.73,6,137.175,137.15,137.163,2110,289414.7885,18,137.175,137.15,137.165,137.16,0.0004522444454170994,0.0012336306699564298,pep,20191216
2019-12-16,12:54,12:54 PM,137.155,137.155,137.155,299,41009.345,4,137.175,137.15,137.162,3832,525603.7102,36,137.155,137.155,137.155,137.175,0.0004449501801684031,0.0012263310801933396,pep,20191216
2019-12-16,12:55,12:55 PM,137.17,137.17,137.17,98,13442.66,1,137.175,137.17,137.173,658,90260.1718,6,137.17,137.17,137.17,137.175,0.0005543641588982261,0.0013066265675869165,pep,20191216
2019-12-16,12:56,12:56 PM,137.175,137.16,137.17,104,14265.68,4,137.19,137.165,137.176,2830,388208.065,26,137.175,137.16,137.18,137.165,0.0005543641588982261,0.0013285253368759797,pep,20191216
2019-12-16,12:57,12:57 PM,137.155,137.145,137.145,306,41966.41,4,137.165,137.145,137.159,2792,382948.6224,14,137.155,137.145,137.165,137.145,0.00037200752768185437,0.001204432310904069,pep,20191216
2019-12-16,12:58,12:58 PM,137.14,137.135,137.135,103,14124.92,2,137.14,137.1,137.122,1800,246820.41,16,137.14,137.135,137.14,137.13,0.0002990648751950984,0.0009343474896711851,pep,20191216
2019-12-16,12:59,12:59 PM,137.14,137.14,137.14,5,685.7,1,137.15,137.135,137.142,1843,252752.02,16,137.14,137.14,137.14,137.14,0.00033553620143837276,0.0010803392849321586,pep,20191216
2019-12-16,13:00,1 PM,137.16,137.145,137.153,180,24687.6,2,137.17,137.13,137.149,4421,606334.14,25,137.145,137.16,137.145,137.16,0.00043036164967101044,0.0011314364132735822,pep,20191216
2019-12-16,13:01,1:01 PM,137.175,137.175,137.175,1700,233197.5,3,137.179,137.15,137.162,9314,1277523.6837,33,137.175,137.175,137.17,137.179,0.0005908354851417078,0.0012263310801933396,pep,20191216
2019-12-16,13:02,1:02 PM,,,,0,0.0,0,137.174,137.17,137.173,600,82303.56,3,,,137.174,137.17,,0.0013066265675869165,pep,20191216
2019-12-16,13:03,1:03 PM,137.205,137.19,137.202,390,53508.6,4,137.22,137.18,137.2,2806,384983.875,27,137.19,137.205,137.18,137.215,0.0007877806468554721,0.001503715491189314,pep,20191216
2019-12-16,13:04,1:04 PM,137.21,137.2,137.209,73,10016.28,2,137.22,137.19,137.206,2402,329568.76,22,137.21,137.2,137.22,137.19,0.0008388405035961392,0.0015475130297676475,pep,20191216
2019-12-16,13:05,1:05 PM,137.175,137.175,137.175,4,548.7,1,137.21,137.175,137.2,1907,261640.46,18,137.175,137.175,137.2,137.18,0.0005908354851417078,0.001503715491189314,pep,20191216
2019-12-16,13:06,1:06 PM,,,,0,0.0,0,137.2,137.18,137.19,1592,218406.0722,14,,,137.18,137.19,,0.001430719593558827,pep,20191216
2019-12-16,13:07,1:07 PM,,,,0,0.0,0,137.19,137.17,137.183,1900,260647.56,18,,,137.19,137.18,,0.0013796224652174033,pep,20191216
2019-12-16,13:08,1:08 PM,137.175,137.175,137.175,100,13717.5,1,137.175,137.165,137.17,1961,268991.065,17,137.175,137.175,137.175,137.17,0.0005908354851417078,0.0012847277982976461,pep,20191216
2019-12-16,13:09,1:09 PM,137.165,137.16,137.162,200,27432.5,2,137.165,137.16,137.162,1109,152112.485,11,137.16,137.165,137.16,137.165,0.0004960100369090701,0.0012263310801933396,pep,20191216
2019-12-16,13:10,1:10 PM,137.16,137.16,137.16,102,13990.32,2,137.165,137.155,137.161,1800,246889.89,17,137.16,137.16,137.164,137.16,0.0004814215064116774,0.0012190314904302493,pep,20191216
2019-12-16,13:11,1:11 PM,137.16,137.12,137.134,401,54990.655,4,137.165,137.113,137.137,3361,460916.7637,22,137.16,137.12,137.16,137.122,0.00029177060994640204,0.0010438413361169151,pep,20191216
2019-12-16,13:12,1:12 PM,,,,0,0.0,0,137.15,137.12,137.133,2558,350787.4536,25,,,137.12,137.14,,0.001014642977064762,pep,20191216
2019-12-16,13:13,1:13 PM,,,,0,0.0,0,137.14,137.13,137.136,1000,137135.5,8,,,137.14,137.135,,0.001036541746353825,pep,20191216
2019-12-16,13:14,1:14 PM,137.15,137.15,137.15,100,13715.0,1,137.155,137.13,137.143,1200,164571.5,11,137.15,137.15,137.13,137.155,0.00040847885392512873,0.0010876388746952487,pep,20191216
2019-12-16,13:15,1:15 PM,137.155,137.155,137.155,100,13715.5,1,137.17,137.155,137.161,2475,339472.2538,16,137.155,137.155,137.16,137.168,0.0004449501801684031,0.0012190314904302493,pep,20191216
2019-12-16,13:16,1:16 PM,137.16,137.155,137.157,305,41832.8,4,137.175,137.15,137.16,3200,438912.0,26,137.16,137.155,137.16,137.175,0.00045953871066579575,0.0012117319006671593,pep,20191216
2019-12-16,13:17,1:17 PM,137.175,137.175,137.175,100,13717.5,1,137.18,137.165,137.17,2823,387230.7734,19,137.175,137.175,137.18,137.175,0.0005908354851417078,0.0012847277982976461,pep,20191216
2019-12-16,13:18,1:18 PM,137.17,137.17,137.17,100,13717.0,1,137.18,137.17,137.173,1850,253769.902,15,137.17,137.17,137.17,137.175,0.0005543641588982261,0.0013066265675869165,pep,20191216
2019-12-16,13:19,1:19 PM,137.175,137.17,137.175,103,14129.01,4,137.19,137.17,137.181,1781,244319.89,16,137.17,137.175,137.18,137.17,0.0005908354851417078,0.0013650232856914305,pep,20191216
2019-12-16,13:20,1:20 PM,137.165,137.155,137.157,440,60349.145,5,137.165,137.15,137.156,2700,370322.31,26,137.165,137.155,137.16,137.15,0.00045953871066579575,0.001182533541615006,pep,20191216
2019-12-16,13:21,1:21 PM,137.15,137.135,137.142,211,28936.985,4,137.155,137.125,137.147,6030,826994.072,32,137.15,137.135,137.145,137.125,0.0003501247319357654,0.001116837233747402,pep,20191216
2019-12-16,13:22,1:22 PM,137.06,137.06,137.06,10,1370.6,1,137.11,137.055,137.084,2200,301585.45,20,137.06,137.06,137.104,137.055,-0.0002480050184544314,0.0006569630786750034,pep,20191216
2019-12-16,13:23,1:23 PM,,,,0,0.0,0,137.105,137.06,137.079,3268,447976.08,29,,,137.06,137.1,,0.0006204651298597599,pep,20191216
2019-12-16,13:24,1:24 PM,137.1,137.085,137.091,500,68545.5,3,137.12,137.08,137.095,2092,286803.2313,18,137.09,137.1,137.095,137.1,-2.188279574588168e-05,0.0007372585660685803,pep,20191216
2019-12-16,13:25,1:25 PM,137.145,137.135,137.144,9,1234.295,3,137.14,137.11,137.128,2274,311828.884,19,137.145,137.135,137.11,137.131,0.00036471326243315807,0.0009781450282493112,pep,20191216
2019-12-16,13:26,1:26 PM,137.13,137.13,137.13,100,13713.0,1,137.135,137.12,137.126,1930,264652.75,12,137.13,137.13,137.135,137.12,0.00026259354895182403,0.0009635458487233383,pep,20191216
2019-12-16,13:27,1:27 PM,,,,0,0.0,0,137.125,137.11,137.118,3000,411353.5,25,,,137.12,137.12,,0.0009051491306188244,pep,20191216
2019-12-16,13:28,1:28 PM,,,,0,0.0,0,137.2,137.13,137.17,4315,591889.0364,29,,,137.13,137.2,,0.0012847277982976461,pep,20191216
2019-12-16,13:29,1:29 PM,137.21,137.205,137.208,305,41848.525,4,137.22,137.2,137.209,3778,518375.84,30,137.21,137.205,137.2,137.21,0.0008315462383474429,0.0015694117990569178,pep,20191216
2019-12-16,13:30,1:30 PM,137.2,137.195,137.2,101,13857.195,2,137.22,137.195,137.205,2660,364966.1,22,137.2,137.195,137.21,137.22,0.0007731921163580794,0.0015402134400047647,pep,20191216
2019-12-16,13:31,1:31 PM,137.215,137.215,137.215,100,13721.5,1,137.22,137.2,137.214,1428,195940.9,14,137.215,137.215,137.22,137.21,0.0008826060950881098,0.0016059097478721613,pep,20191216
2019-12-16,13:32,1:32 PM,137.21,137.205,137.21,101,13858.205,2,137.213,137.2,137.208,1100,150928.25,11,137.21,137.205,137.2,137.2,0.0008461347688448355,0.0015621122092938278,pep,20191216
2019-12-16,13:33,1:33 PM,137.21,137.195,137.21,101,13858.195,2,137.22,137.2,137.211,1938,265914.6996,16,137.195,137.21,137.2,137.21,0.0008461347688448355,0.0015840109785830983,pep,20191216
2019-12-16,13:34,1:34 PM,,,,0,0.0,0,137.24,137.215,137.231,3308,453961.3,26,,,137.22,137.24,,0.0017300027738440717,pep,20191216
2019-12-16,13:35,1:35 PM,137.225,137.2,137.213,2,274.425,2,137.24,137.185,137.197,5100,699705.85,17,137.225,137.2,137.24,137.185,0.0008680175645907172,0.0014818167219002507,pep,20191216
2019-12-16,13:36,1:36 PM,137.205,137.195,137.204,868,119092.94,4,137.21,137.18,137.195,7064,969142.3925,46,137.205,137.205,137.185,137.2,0.0008023691773528647,0.0014672175423740704,pep,20191216
2019-12-16,13:37,1:37 PM,,,,0,0.0,0,137.206,137.185,137.195,1505,206478.528,12,,,137.206,137.185,,0.0014672175423740704,pep,20191216
2019-12-16,13:38,1:38 PM,137.2,137.18,137.19,353,48428.04,4,137.2,137.18,137.192,2300,315541.5,23,137.18,137.2,137.18,137.2,0.0007002494638715308,0.0014453187730850074,pep,20191216
2019-12-16,13:39,1:39 PM,,,,0,0.0,0,137.21,137.195,137.202,4095,561841.9298,23,,,137.2,137.21,,0.0015183146707154942,pep,20191216
2019-12-16,13:40,1:40 PM,137.225,137.21,137.21,103,14132.675,3,137.24,137.205,137.224,1802,247278.46,18,137.225,137.21,137.225,137.205,0.0008461347688448355,0.0016789056455026481,pep,20191216
2019-12-16,13:41,1:41 PM,137.205,137.19,137.203,1301,178501.7,6,137.21,137.184,137.199,12928,1773714.7875,55,137.205,137.19,137.205,137.2,0.0007950749121041684,0.0014964159014264312,pep,20191216
2019-12-16,13:42,1:42 PM,,,,0,0.0,0,137.23,137.205,137.211,2100,288143.0,21,,,137.205,137.23,,0.0015840109785830983,pep,20191216
2019-12-16,13:43,1:43 PM,137.195,137.195,137.195,5,685.975,1,137.22,137.18,137.2,3917,537413.815,31,137.195,137.195,137.22,137.195,0.0007367207901148051,0.001503715491189314,pep,20191216
2019-12-16,13:44,1:44 PM,137.21,137.18,137.189,1050,144048.25,6,137.215,137.175,137.189,6364,873069.8229,54,137.185,137.21,137.19,137.215,0.0006929551986228344,0.0014234200037957368,pep,20191216
2019-12-16,13:45,1:45 PM,137.245,137.245,137.245,1000,137245.0,1,137.245,137.195,137.226,4795,657997.2,33,137.245,137.245,137.215,137.245,0.0011014340525479633,0.0016935048250288284,pep,20191216
2019-12-16,13:46,1:46 PM,137.24,137.215,137.232,600,82339.0,4,137.26,137.21,137.229,9360,1284463.8,76,137.24,137.235,137.24,137.26,0.0010066086043153254,0.001715403594318099,pep,20191216
2019-12-16,13:47,1:47 PM,137.26,137.26,137.26,1000,137260.0,1,137.285,137.252,137.267,12312,1690033.3,69,137.26,137.26,137.27,137.255,0.0012108480312777862,0.001992788005314073,pep,20191216
2019-12-16,13:48,1:48 PM,137.26,137.23,137.252,467,64096.705,4,137.27,137.21,137.239,11885,1631086.71,66,137.235,137.26,137.255,137.255,0.0011524939092886302,0.0017883994919485858,pep,20191216
2019-12-16,13:49,1:49 PM,137.26,137.235,137.253,6772,929479.28,5,137.265,137.23,137.253,9693,1330394.02,29,137.255,137.235,137.25,137.235,0.0011597881745371193,0.0018905937486312257,pep,20191216
2019-12-16,13:50,1:50 PM,137.26,137.21,137.251,1700,233326.5,3,137.27,137.2,137.241,15542,2133003.0764,79,137.225,137.26,137.24,137.26,0.001145199644039934,0.001802998671474766,pep,20191216
2019-12-16,13:51,1:51 PM,,,,0,0.0,0,137.26,137.235,137.248,4858,666749.4042,22,,,137.255,137.24,,0.0018540957998159824,pep,20191216
2019-12-16,13:52,1:52 PM,137.25,137.225,137.237,201,27584.735,3,137.25,137.21,137.23,1958,268695.5116,19,137.25,137.225,137.25,137.22,0.0010430799305586,0.0017227031840809817,pep,20191216
2019-12-16,13:53,1:53 PM,137.225,137.22,137.222,201,27581.72,3,137.237,137.19,137.222,5222,716572.3262,48,137.225,137.22,137.225,137.237,0.0009336659518287768,0.0016643064659766752,pep,20191216
2019-12-16,13:54,1:54 PM,137.23,137.22,137.224,180,24700.4,2,137.24,137.22,137.229,1428,195963.66,13,137.22,137.23,137.23,137.235,0.0009482544823259622,0.001715403594318099,pep,20191216
2019-12-16,13:55,1:55 PM,137.255,137.23,137.24,1500,205860.0,4,137.26,137.21,137.234,10322,1416532.05,76,137.235,137.245,137.235,137.24,0.001064962726304689,0.0017519015431333423,pep,20191216
2019-12-16,13:56,1:56 PM,137.25,137.235,137.244,5,686.22,2,137.255,137.235,137.249,2585,354787.3783,23,137.25,137.235,137.245,137.235,0.0010941397872992668,0.0018613953895790724,pep,20191216
2019-12-16,13:57,1:57 PM,137.24,137.205,137.218,386,52966.225,7,137.24,137.2,137.22,6113,838827.0412,53,137.23,137.24,137.23,137.24,0.0009044888908339915,0.0016497072864504949,pep,20191216
2019-12-16,13:58,1:58 PM,137.25,137.21,137.235,519,71224.79,8,137.26,137.21,137.228,7378,1012469.574,47,137.25,137.225,137.25,137.225,0.0010284914000614144,0.0017081040045550087,pep,20191216
2019-12-16,13:59,1:59 PM,137.2,137.2,137.2,25,3430.0,2,137.21,137.13,137.156,2834,388701.74,27,137.2,137.2,137.21,137.13,0.0007731921163580794,0.001182533541615006,pep,20191216
2019-12-16,14:00,2 PM,,,,0,0.0,0,137.2,137.13,137.169,3573,490105.636,32,,,137.135,137.18,,0.0012774282085347634,pep,20191216
2019-12-16,14:01,2:01 PM,137.15,137.14,137.15,101,13852.14,2,137.178,137.12,137.153,4100,562325.9928,22,137.15,137.14,137.178,137.12,0.00040847885392512873,0.0011606347723257355,pep,20191216
2019-12-16,14:02,2:02 PM,137.11,137.09,137.104,215,29477.35,3,137.13,137.08,137.105,2520,345505.19,23,137.1,137.11,137.11,137.13,7.2942652486756e-05,0.000810254463699067,pep,20191216
2019-12-16,14:03,2:03 PM,,,,0,0.0,0,137.11,137.1,137.106,400,54842.5,4,,,137.11,137.105,,0.0008175540534621573,pep,20191216
2019-12-16,14:04,2:04 PM,137.095,137.08,137.083,206,28239.07,3,137.11,137.08,137.089,1716,235244.86,17,137.095,137.085,137.11,137.08,-8.023691773524501e-05,0.0006934610274902468,pep,20191216
2019-12-16,14:05,2:05 PM,,,,0,0.0,0,137.09,137.06,137.076,1953,267708.4845,18,,,137.08,137.06,,0.0005985663605704895,pep,20191216
2019-12-16,14:06,2:06 PM,137.04,137.04,137.04,100,13704.0,1,137.04,137.022,137.037,2250,308334.315,20,137.04,137.04,137.04,137.022,-0.0003938903234277361,0.0003138823598114251,pep,20191216
2019-12-16,14:07,2:07 PM,137.01,136.96,136.965,9,1232.69,2,137.03,136.96,137.003,8588,1176578.8101,39,137.01,136.96,137.02,136.96,-0.0009409602170772658,6.56963078673966e-05,pep,20191216
2019-12-16,14:08,2:08 PM,136.99,136.99,136.99,100,13699.0,1,137.0,136.97,136.986,2100,287670.18,21,136.99,136.99,136.98,137.0,-0.0007586035858606868,-5.8396718104513896e-05,pep,20191216
2019-12-16,14:09,2:09 PM,136.995,136.95,136.97,200,27394.01,3,137.0,136.93,136.964,2623,359258.1273,19,136.995,136.95,137.0,136.95,-0.0009044888908339915,-0.00021898769289166778,pep,20191216
2019-12-16,14:10,2:10 PM,136.965,136.965,136.965,100,13696.5,1,136.97,136.93,136.948,2790,382084.458,23,136.965,136.965,136.95,136.95,-0.0009409602170772658,-0.0003357811291004881,pep,20191216
2019-12-16,14:11,2:11 PM,,,,0,0.0,0,136.965,136.94,136.948,2642,361817.6275,21,,,136.965,136.955,,-0.0003357811291004881,pep,20191216
2019-12-16,14:12,2:12 PM,,,,0,0.0,0,136.952,136.93,136.94,2080,284834.464,10,,,136.952,136.93,,-0.000394177847205002,pep,20191216
2019-12-16,14:13,2:13 PM,,,,0,0.0,0,136.94,136.92,136.931,1401,191839.93,14,,,136.92,136.92,,-0.00045987415507239864,pep,20191216
2019-12-16,14:14,2:14 PM,,,,0,0.0,0,136.93,136.89,136.911,3907,534910.135,26,,,136.93,136.93,,-0.0006058659503335797,pep,20191216
2019-12-16,14:15,2:15 PM,136.9,136.88,136.89,200,27378.0,2,136.92,136.88,136.9,2122,290501.4845,16,136.9,136.88,136.92,136.88,-0.0014880301107270029,-0.0006861614377271566,pep,20191216
2019-12-16,14:16,2:16 PM,136.88,136.88,136.88,3,410.64,1,136.906,136.87,136.892,1403,192059.23,14,136.88,136.88,136.9,136.88,-0.0015609727632135517,-0.0007445581558316705,pep,20191216
2019-12-16,14:17,2:17 PM,136.86,136.86,136.86,100,13686.0,1,136.89,136.86,136.871,3113,426079.0,27,136.86,136.86,136.87,136.89,-0.001706858068186649,-0.0008978495408557342,pep,20191216
2019-12-16,14:18,2:18 PM,136.87,136.87,136.87,2,273.74,1,136.879,136.8,136.836,6763,925423.1976,42,136.87,136.87,136.879,136.846,-0.0016339154157001003,-0.0011533351825626455,pep,20191216
2019-12-16,14:19,2:19 PM,,,,0,0.0,0,136.9,136.845,136.872,4473,612227.2254,24,,,136.845,136.894,,-0.000890549951092644,pep,20191216
2019-12-16,14:20,2:20 PM,136.91,136.885,136.902,300,41070.5,2,136.91,136.87,136.893,4291,587409.1324,29,136.885,136.91,136.88,136.91,-0.0014004989277430616,-0.0007372585660685803,pep,20191216
2019-12-16,14:21,2:21 PM,136.87,136.87,136.87,6,821.22,1,136.9,136.851,136.879,1657,226809.301,15,136.87,136.87,136.9,136.87,-0.0016339154157001003,-0.0008394528227514277,pep,20191216
2019-12-16,14:22,2:22 PM,136.865,136.86,136.862,300,41058.5,5,136.861,136.83,136.854,4266,583819.721,16,136.865,136.86,136.86,136.83,-0.0016922695376894636,-0.0010219425668276448,pep,20191216
2019-12-16,14:23,2:23 PM,136.84,136.8,136.829,205,28050.01,4,136.85,136.8,136.832,3780,517226.135,24,136.81,136.84,136.82,136.83,-0.0019329802908951987,-0.001182533541615006,pep,20191216
2019-12-16,14:24,2:24 PM,,,,0,0.0,0,136.825,136.8,136.812,1406,192357.55,13,,,136.82,136.802,,-0.0013285253368759797,pep,20191216
2019-12-16,14:25,2:25 PM,136.81,136.81,136.81,72,9850.32,1,136.82,136.809,136.815,2219,303592.16,17,136.81,136.81,136.81,136.81,-0.002071571330619807,-0.0013066265675869165,pep,20191216
2019-12-16,14:26,2:26 PM,136.8,136.8,136.8,201,27496.8,3,136.8,136.795,136.799,973,133105.6,7,136.8,136.8,136.8,136.797,-0.0021445139831063557,-0.0014234200037957368,pep,20191216
2019-12-16,14:27,2:27 PM,136.81,136.81,136.81,36,4925.16,1,136.81,136.78,136.8,2405,329003.7925,21,136.81,136.81,136.79,136.809,-0.002071571330619807,-0.0014161204140326468,pep,20191216
2019-12-16,14:28,2:28 PM,136.8,136.795,136.798,200,27359.5,2,136.81,136.795,136.805,1954,267316.7,17,136.8,136.795,136.8,136.81,-0.0021591025136037485,-0.0013796224652174033,pep,20191216
2019-12-16,14:29,2:29 PM,136.84,136.82,136.84,101,13820.82,2,136.86,136.815,136.837,3939,539000.06,37,136.82,136.84,136.82,136.84,-0.0018527433731599537,-0.0011460355927997627,pep,20191216
2019-12-16,14:30,2:30 PM,136.84,136.84,136.84,100,13684.0,2,136.87,136.83,136.857,3611,494192.5016,29,136.84,136.84,136.842,136.87,-0.0018527433731599537,-0.0010000437975385816,pep,20191216
2019-12-16,14:31,2:31 PM,136.86,136.84,136.84,101,13820.86,2,136.865,136.81,136.852,2943,402756.99,27,136.86,136.84,136.86,136.86,-0.0018527433731599537,-0.001036541746353825,pep,20191216
2019-12-16,14:32,2:32 PM,136.86,136.83,136.85,217,29696.41,6,136.87,136.83,136.849,2609,357039.4239,22,136.86,136.85,136.86,136.83,-0.001779800720673405,-0.0010584405156430956,pep,20191216
2019-12-16,14:33,2:33 PM,136.845,136.825,136.832,171,23398.27,5,136.845,136.83,136.839,1225,167627.3765,10,136.825,136.83,136.83,136.83,-0.001911097495149317,-0.0011314364132735822,pep,20191216
2019-12-16,14:34,2:34 PM,136.84,136.835,136.835,103,14094.02,2,136.85,136.82,136.835,3500,478922.5,25,136.835,136.84,136.84,136.84,-0.001889214699403228,-0.0011606347723257355,pep,20191216
2019-12-16,14:35,2:35 PM,136.85,136.85,136.85,9,1231.65,1,136.86,136.82,136.839,2374,324856.945,22,136.85,136.85,136.84,136.84,-0.001779800720673405,-0.0011314364132735822,pep,20191216
2019-12-16,14:36,2:36 PM,136.87,136.84,136.854,325,44477.5,5,136.87,136.84,136.857,6658,911197.6716,59,136.87,136.84,136.85,136.86,-0.0017506236596786197,-0.0010000437975385816,pep,20191216
2019-12-16,14:37,2:37 PM,,,,0,0.0,0,136.85,136.826,136.837,1296,177340.305,9,,,136.847,136.826,,-0.0011460355927997627,pep,20191216
2019-12-16,14:38,2:38 PM,136.835,136.835,136.835,35,4789.225,1,136.855,136.83,136.847,2156,295041.59,17,136.835,136.835,136.83,136.85,-0.001889214699403228,-0.0010730396951690684,pep,20191216
2019-12-16,14:39,2:39 PM,136.87,136.87,136.87,1,136.87,1,136.89,136.82,136.854,4924,673871.26,44,136.87,136.87,136.85,136.89,-0.0016339154157001003,-0.0010219425668276448,pep,20191216
2019-12-16,14:40,2:40 PM,,,,0,0.0,0,136.9,136.85,136.876,4096,560643.9382,32,,,136.9,136.865,,-0.0008613515920404909,pep,20191216
2019-12-16,14:41,2:41 PM,,,,0,0.0,0,136.865,136.85,136.861,3030,414687.6003,26,,,136.865,136.864,,-0.0009708454384864284,pep,20191216
2019-12-16,14:42,2:42 PM,136.86,136.86,136.86,7,958.02,1,136.865,136.85,136.858,2400,328459.5,23,136.86,136.86,136.86,136.85,-0.001706858068186649,-0.0009927442077754915,pep,20191216
2019-12-16,14:43,2:43 PM,136.875,136.845,136.868,131,17929.695,2,136.88,136.83,136.856,8445,1155750.467,58,136.845,136.875,136.85,136.875,-0.001648503946197493,-0.0010073433873016718,pep,20191216
2019-12-16,14:44,2:44 PM,136.89,136.87,136.885,203,27787.61,5,136.89,136.84,136.871,10422,1426475.3161,68,136.89,136.87,136.87,136.84,-0.0015245014369702772,-0.0008978495408557342,pep,20191216
2019-12-16,14:45,2:45 PM,136.83,136.82,136.826,7,957.78,3,136.84,136.81,136.828,2598,355478.23,23,136.83,136.83,136.83,136.84,-0.0019548630866412877,-0.0012117319006671593,pep,20191216
2019-12-16,14:46,2:46 PM,136.825,136.825,136.825,100,13682.5,1,136.825,136.81,136.819,2115,289371.574,15,136.825,136.825,136.824,136.825,-0.001962157351889984,-0.0012774282085347634,pep,20191216
2019-12-16,14:47,2:47 PM,136.825,136.81,136.815,300,41044.5,3,136.83,136.81,136.822,3181,435230.79,26,136.825,136.81,136.82,136.82,-0.0020351000043765327,-0.0012555294392454929,pep,20191216
2019-12-16,14:48,2:48 PM,,,,0,0.0,0,136.845,136.81,136.829,5191,710281.8013,44,,,136.82,136.82,,-0.001204432310904069,pep,20191216
2019-12-16,14:49,2:49 PM,136.815,136.815,136.815,100,13681.5,1,136.85,136.805,136.823,4343,594223.32,42,136.815,136.815,136.81,136.85,-0.0020351000043765327,-0.0012482298494824026,pep,20191216
2019-12-16,14:50,2:50 PM,,,,0,0.0,0,136.85,136.82,136.836,3218,440336.996,26,,,136.85,136.83,,-0.0011533351825626455,pep,20191216
2019-12-16,14:51,2:51 PM,,,,0,0.0,0,136.85,136.824,136.841,3645,498786.1605,32,,,136.824,136.85,,-0.001116837233747402,pep,20191216
2019-12-16,14:52,2:52 PM,136.85,136.84,136.845,202,27642.7,4,136.86,136.827,136.841,3042,416269.2315,26,136.85,136.84,136.85,136.83,-0.0018162720469166794,-0.001116837233747402,pep,20191216
2019-12-16,14:53,2:53 PM,136.81,136.81,136.81,3,410.43,1,136.81,136.795,136.802,1547,211633.0502,10,136.81,136.81,136.8,136.807,-0.002071571330619807,-0.0014015212345066738,pep,20191216
2019-12-16,14:54,2:54 PM,,,,0,0.0,0,136.811,136.79,136.8,4448,608487.876,31,,,136.799,136.8,,-0.0014161204140326468,pep,20191216
2019-12-16,14:55,2:55 PM,136.795,136.76,136.788,112,15320.215,5,136.81,136.74,136.776,6575,899304.4525,46,136.785,136.79,136.79,136.79,-0.002232045166090297,-0.001591310568345981,pep,20191216
2019-12-16,14:56,2:56 PM,136.8,136.8,136.8,100,13680.0,1,136.83,136.79,136.814,8220,1124610.689,74,136.8,136.8,136.795,136.83,-0.0021445139831063557,-0.0013139261573500067,pep,20191216
2019-12-16,14:57,2:57 PM,,,,0,0.0,0,136.93,136.83,136.881,3068,419951.5175,20,,,136.83,136.91,,-0.0008248536432252474,pep,20191216
2019-12-16,14:58,2:58 PM,136.91,136.91,136.91,100,13691.0,1,136.92,136.89,136.903,4091,560068.8268,30,136.91,136.91,136.91,136.92,-0.0013421448057536983,-0.0006642626684380935,pep,20191216
2019-12-16,14:59,2:59 PM,136.93,136.93,136.93,200,27386.0,3,136.94,136.915,136.931,2006,274684.75,15,136.93,136.93,136.915,136.94,-0.0011962595007803936,-0.00045987415507239864,pep,20191216
2019-12-16,15:00,3 PM,136.9,136.9,136.9,4,547.6,4,136.93,136.91,136.915,1825,249870.3625,16,136.9,136.9,136.93,136.91,-0.001415087458240247,-0.0005766675912814264,pep,20191216
2019-12-16,15:01,3:01 PM,,,,0,0.0,0,136.98,136.9,136.937,2450,335496.0,24,,,136.9,136.98,,-0.0004160766164940651,pep,20191216
2019-12-16,15:02,3:02 PM,,,,0,0.0,0,136.99,136.975,136.983,2799,383416.02,26,,,136.98,136.99,,-8.029548739357694e-05,pep,20191216
2019-12-16,15:03,3:03 PM,137.01,137.0,137.006,234,32059.34,3,137.03,136.99,137.006,2173,297714.972,19,137.01,137.0,136.99,137.026,-0.0006418953418821674,8.759507715666711e-05,pep,20191216
2019-12-16,15:04,3:04 PM,137.04,137.03,137.037,309,42344.315,6,137.04,137.011,137.029,3388,464255.74,29,137.035,137.03,137.02,137.011,-0.00041577311917361773,0.0002554856417069112,pep,20191216
2019-12-16,15:05,3:05 PM,137.01,136.97,137.003,117,16029.355,6,137.02,136.97,136.995,3191,437151.176,25,136.995,136.97,137.01,136.97,-0.0006637781376282564,7.299589763090171e-06,pep,20191216
2019-12-16,15:06,3:06 PM,137.01,137.01,137.01,40,5480.4,1,137.02,136.98,136.993,2056,281658.12,18,137.01,137.01,136.98,137.0,-0.0006127182808875894,-7.299589763090171e-06,pep,20191216
2019-12-16,15:07,3:07 PM,136.98,136.98,136.98,100,13698.0,1,137.0,136.96,136.983,2955,404784.9,28,136.98,136.98,136.98,136.99,-0.0008315462383474429,-8.029548739357694e-05,pep,20191216
2019-12-16,15:08,3:08 PM,136.98,136.98,136.98,100,13698.0,1,136.99,136.959,136.966,1100,150662.43,10,136.98,136.98,136.98,136.96,-0.0008315462383474429,-0.00020438851336548744,pep,20191216
2019-12-16,15:09,3:09 PM,136.96,136.95,136.959,107,14654.66,3,136.97,136.94,136.961,2495,341718.8,21,136.95,136.96,136.97,136.94,-0.0009847258085692366,-0.00024088646218073083,pep,20191216
2019-12-16,15:10,3:10 PM,136.97,136.94,136.942,113,15474.51,3,136.96,136.9,136.935,3999,547603.61,31,136.95,136.97,136.94,136.96,-0.0011087283177964521,-0.0004306757960202454,pep,20191216
2019-12-16,15:11,3:11 PM,136.97,136.97,136.97,100,13697.0,1,137.04,136.95,136.977,7637,1046092.68,66,136.97,136.97,136.96,137.04,-0.0009044888908339915,-0.0001240930259719105,pep,20191216
2019-12-16,15:12,3:12 PM,137.08,137.05,137.051,205,28095.4,3,137.1,137.04,137.06,6797,931593.5488,63,137.05,137.08,137.05,137.04,-0.00031365340569249105,0.0004817729243616691,pep,20191216
2019-12-16,15:13,3:13 PM,137.04,137.02,137.039,104,14252.08,2,137.04,137.01,137.026,1700,232945.0,17,137.02,137.04,137.03,137.04,-0.0004011845886764324,0.00023358687241784812,pep,20191216
2019-12-16,15:14,3:14 PM,137.06,137.02,137.046,224,30698.36,5,137.06,137.02,137.04,3825,524176.2125,34,137.06,137.02,137.04,137.05,-0.0003501247319357654,0.0003357811291004881,pep,20191216
2019-12-16,15:15,3:15 PM,,,,0,0.0,0,137.1,137.05,137.074,3300,452345.49,31,,,137.05,137.09,,0.0005839671810445166,pep,20191216
2019-12-16,15:16,3:16 PM,137.075,137.07,137.072,200,27414.5,2,137.095,137.035,137.061,5436,745064.6435,45,137.075,137.07,137.095,137.038,-0.00016047383547049002,0.0004890725141247593,pep,20191216
2019-12-16,15:17,3:17 PM,,,,0,0.0,0,137.04,137.0,137.018,2267,310619.74,20,,,137.04,137.005,,0.00017519015431333423,pep,20191216
2019-12-16,15:18,3:18 PM,137.015,136.99,136.997,306,41921.09,4,137.015,136.99,137.007,4115,563785.9055,39,137.015,136.99,137.004,137.015,-0.0007075437291200198,9.489466691975728e-05,pep,20191216
2019-12-16,15:19,3:19 PM,137.025,137.015,137.022,144,19731.16,2,137.05,137.0,137.023,3312,453820.005,30,137.015,137.025,137.01,137.05,-0.0005251870979036481,0.00021168810312857761,pep,20191216
2019-12-16,15:20,3:20 PM,137.04,137.04,137.04,1,137.04,1,137.04,137.01,137.023,4821,660589.9975,40,137.04,137.04,137.04,137.031,-0.0003938903234277361,0.00021168810312857761,pep,20191216
2019-12-16,15:21,3:21 PM,137.07,137.03,137.043,704,96478.36,7,137.08,137.02,137.044,5050,692071.0775,41,137.03,137.05,137.03,137.02,-0.00037200752768164707,0.0003649794881528488,pep,20191216
2019-12-16,15:22,3:22 PM,,,,0,0.0,0,137.04,137.0,137.026,3772,516862.0876,34,,,137.03,137.04,,0.00023358687241784812,pep,20191216
2019-12-16,15:23,3:23 PM,,,,0,0.0,0,137.08,137.01,137.05,5102,699228.7375,47,,,137.02,137.07,,0.00040877702673118235,pep,20191216
2019-12-16,15:24,3:24 PM,137.08,137.08,137.08,1,137.08,1,137.1,137.04,137.069,5593,766625.0931,46,137.08,137.08,137.07,137.055,-0.0001021197134811267,0.0005474692322290657,pep,20191216
2019-12-16,15:25,3:25 PM,137.05,137.02,137.036,321,43988.42,4,137.06,137.02,137.041,2818,386181.618,28,137.05,137.02,137.06,137.03,-0.0004230673844223141,0.0003430807188635783,pep,20191216
2019-12-16,15:26,3:26 PM,137.035,137.01,137.029,130,17813.8,3,137.05,137.0,137.03,5994,821360.4324,43,137.01,137.035,137.01,137.028,-0.0004741272411629811,0.00026278523147000134,pep,20191216
2019-12-16,15:27,3:27 PM,137.04,137.02,137.029,231,31653.62,2,137.05,137.02,137.034,2370,324770.6633,21,137.02,137.04,137.028,137.038,-0.0004741272411629811,0.00029198359052215456,pep,20191216
2019-12-16,15:28,3:28 PM,137.05,137.05,137.05,100,13705.0,1,137.06,136.996,137.019,4456,610557.4395,28,137.05,137.05,137.05,137.0,-0.00032094767094098005,0.0001824897440764244,pep,20191216
2019-12-16,15:29,3:29 PM,137.02,137.01,137.015,200,27403.0,2,137.025,137.0,137.012,3299,452001.49,30,137.01,137.02,137.01,137.025,-0.0005762469546443151,0.00013139261573500067,pep,20191216
2019-12-16,15:30,3:30 PM,137.02,136.99,137.005,216,29593.16,3,137.035,136.98,137.001,9032,1237390.9604,74,137.01,137.02,137.02,137.035,-0.0006491896071308638,5.109712834142373e-05,pep,20191216
2019-12-16,15:31,3:31 PM,137.03,136.99,137.015,503,68918.53,6,137.03,136.99,137.008,6906,946180.4075,40,137.03,136.995,137.03,137.0,-0.0005762469546443151,0.00010219425668284745,pep,20191216
2019-12-16,15:32,3:32 PM,136.99,136.98,136.989,10,1369.89,2,136.985,136.97,136.978,2629,360115.33,24,136.98,136.99,136.98,136.98,-0.0007658978511093831,-0.00011679343620882033,pep,20191216
2019-12-16,15:33,3:33 PM,137.02,137.005,137.01,1950,267170.0,25,137.03,136.97,137.002,7916,1084509.704,58,137.005,137.02,136.97,137.03,-0.0006127182808875894,5.8396718104513896e-05,pep,20191216
2019-12-16,15:34,3:34 PM,137.055,137.015,137.044,503,68933.09,8,137.06,137.01,137.034,6670,914017.4406,57,137.015,137.02,137.015,137.03,-0.00036471326243295077,0.00029198359052215456,pep,20191216
2019-12-16,15:35,3:35 PM,137.05,137.01,137.04,405,55501.16,8,137.07,137.01,137.042,9015,1235433.8245,57,137.01,137.045,137.02,137.05,-0.0003938903234277361,0.00035038030862666845,pep,20191216
2019-12-16,15:36,3:36 PM,137.04,137.0,137.032,213,29187.81,5,137.04,136.97,137.009,6082,833289.1463,48,137.04,137.0,137.04,136.97,-0.0004522444454168921,0.00010949384644573016,pep,20191216
2019-12-16,15:37,3:37 PM,137.02,136.98,137.013,585,80152.6,8,137.02,136.96,136.992,6564,899216.8505,59,136.98,137.015,136.98,137.01,-0.0005908354851415005,-1.4599179526180341e-05,pep,20191216
2019-12-16,15:38,3:38 PM,137.02,136.985,137.005,202,27674.975,4,137.021,136.99,137.01,4619,632847.8342,39,137.02,136.99,137.02,137.01,-0.0006491896071308638,0.00011679343620882033,pep,20191216
2019-12-16,15:39,3:39 PM,137.01,136.96,136.98,300,41094.0,3,137.01,136.95,136.981,6194,848460.62,49,137.01,136.96,137.01,136.96,-0.0008315462383474429,-9.489466691975728e-05,pep,20191216
2019-12-16,15:40,3:40 PM,136.95,136.945,136.95,103,14105.835,2,136.97,136.94,136.957,3736,511670.7216,31,136.95,136.945,136.97,136.94,-0.0010503741958072961,-0.00027008482123309154,pep,20191216
2019-12-16,15:41,3:41 PM,136.96,136.945,136.955,201,27527.945,3,136.96,136.92,136.949,5448,746099.4731,49,136.96,136.945,136.95,136.94,-0.0010139028695638145,-0.00032848153933739797,pep,20191216
2019-12-16,15:42,3:42 PM,136.95,136.93,136.943,302,41356.86,4,136.96,136.92,136.942,5623,770024.8803,51,136.93,136.94,136.93,136.94,-0.001101434052547756,-0.00037957866767882167,pep,20191216
2019-12-16,15:43,3:43 PM,,,,0,0.0,0,137.0,136.94,136.964,4418,605108.2702,40,,,136.945,136.99,,-0.00021898769289166778,pep,20191216
2019-12-16,15:44,3:44 PM,137.0,136.965,136.971,124,16984.44,6,137.01,136.95,136.985,7633,1045608.8774,64,137.0,136.965,137.0,136.95,-0.0008971946255852952,-6.56963078673966e-05,pep,20191216
2019-12-16,15:45,3:45 PM,136.925,136.89,136.92,102,13965.815,3,136.95,136.89,136.912,7499,1026707.5501,63,136.925,136.89,136.95,136.915,-0.0012692021532671495,-0.0005985663605704895,pep,20191216
2019-12-16,15:46,3:46 PM,136.93,136.9,136.925,201,27521.9,3,136.94,136.9,136.923,8379,1147281.4578,70,136.93,136.9,136.92,136.94,-0.0012327308270236679,-0.0005182708731769125,pep,20191216
2019-12-16,15:47,3:47 PM,136.955,136.955,136.955,1,136.955,1,136.98,136.93,136.958,6563,898856.8706,61,136.955,136.955,136.93,136.98,-0.0010139028695638145,-0.00026278523147000134,pep,20191216
2019-12-16,15:48,3:48 PM,137.0,136.99,136.996,500,68498.0,5,137.02,136.98,136.999,11263,1543023.1104,85,137.0,136.99,136.985,136.99,-0.0007148379943687161,3.649794881524339e-05,pep,20191216
2019-12-16,15:49,3:49 PM,137.02,137.0,137.017,23,3151.385,3,137.05,136.99,137.016,14418,1975500.1473,121,137.0,137.005,137.0,137.05,-0.0005616584241469225,0.0001605909747871539,pep,20191216
2019-12-16,15:50,3:50 PM,137.06,136.975,137.007,2889,395814.825,22,137.09,136.97,137.015,28259,3871918.5511,211,137.05,136.975,137.05,136.99,-0.0006346010766334711,0.00015329138502406372,pep,20191216
2019-12-16,15:51,3:51 PM,136.98,136.95,136.965,303,41500.35,4,137.0,136.94,136.969,12909,1768130.1738,103,136.98,136.96,136.99,136.955,-0.0009409602170772658,-0.0001824897440764244,pep,20191216
2019-12-16,15:52,3:52 PM,136.95,136.94,136.949,545,74637.32,8,136.97,136.92,136.95,12789,1751449.337,101,136.95,136.94,136.955,136.945,-0.0010576684610557852,-0.00032118194957451524,pep,20191216
2019-12-16,15:53,3:53 PM,136.96,136.92,136.943,791,108321.7,19,136.97,136.92,136.946,12841,1758519.0571,93,136.96,136.94,136.95,136.95,-0.001101434052547756,-0.00035038030862666845,pep,20191216
2019-12-16,15:54,3:54 PM,137.04,136.94,136.992,749,102607.14,12,137.05,136.94,136.981,16533,2264709.84,123,136.94,137.03,136.955,137.015,-0.0007440150553635014,-9.489466691975728e-05,pep,20191216
2019-12-16,15:55,3:55 PM,137.01,137.0,137.0,209,28633.06,3,137.02,136.985,137.0,15527,2127200.12,134,137.0,137.01,137.01,137.02,-0.0006856609333741381,4.379753857833356e-05,pep,20191216
2019-12-16,15:56,3:56 PM,137.06,137.015,137.031,1503,205957.615,18,137.07,137.015,137.032,23122,3168450.9907,168,137.015,137.03,137.018,137.03,-0.00045953871066558845,0.0002773844109961817,pep,20191216
2019-12-16,15:57,3:57 PM,137.07,137.01,137.035,990,135664.47,17,137.08,137.005,137.046,17658,2419958.056,150,137.02,137.07,137.02,137.07,-0.00043036164967101044,0.00037957866767882167,pep,20191216
2019-12-16,15:58,3:58 PM,137.08,137.04,137.057,669,91691.235,9,137.08,137.04,137.059,17706,2426764.2078,156,137.075,137.065,137.07,137.06,-0.0002698878142005204,0.000474473334598579,pep,20191216
2019-12-16,15:59,3:59 PM,137.12,137.075,137.104,413,56623.82,5,137.13,137.01,137.084,63024,8639592.63,403,137.075,137.12,137.07,137.05,7.2942652486756e-05,0.0006569630786750034,pep,20191216
