date,minute,label,high,low,average,volume,notional,numberOfTrades,marketHigh,marketLow,marketAverage,marketVolume,marketNotional,marketNumberOfTrades,open,close,marketOpen,marketClose,changeOverTime,marketChangeOverTime,tickerName,tickerDate
2019-12-19,09:30,09:30 AM,136.34,136.245,136.321,245,33398.575,4,136.34,136.22,136.224,61607,8392375.29,32,136.245,136.335,136.22,136.34,0.0,0.0,pep,20191219
2019-12-19,09:31,09:31 AM,136.3,136.26,136.278,180,24530.0,2,136.36,136.22,136.27,2611,355800.0614,22,136.26,136.3,136.36,136.245,-0.0003154319583923707,0.00033767911674903613,pep,20191219
2019-12-19,09:32,09:32 AM,,,,0,0.0,0,136.42,136.245,136.339,3173,432603.26,25,,,136.245,136.37,,0.0008441977918722773,pep,20191219
2019-12-19,09:33,09:33 AM,136.45,136.33,136.369,900,122732.5,18,136.45,136.32,136.372,3764,513302.95,29,136.34,136.45,136.4,136.439,0.0003521100930891192,0.0010864458538878948,pep,20191219
2019-12-19,09:34,09:34 AM,136.52,136.37,136.448,604,82414.48,10,136.53,136.37,136.45,8357,1140311.27,53,136.43,136.52,136.445,136.53,0.0009316246212983293,0.0016590321822879898,pep,20191219
2019-12-19,09:35,09:35 AM,136.595,136.49,136.507,600,81904.5,10,136.62,136.471,136.535,3317,452885.165,28,136.49,136.595,136.525,136.58,0.001364426610720337,0.002283004463237073,pep,20191219
2019-12-19,09:36,09:36 AM,136.71,136.62,136.666,700,95666.25,10,136.74,136.59,136.681,9399,1284670.08,83,136.645,136.68,136.63,136.59,0.00253079129407794,0.0033547686163966856,pep,20191219
2019-12-19,09:37,09:37 AM,136.54,136.46,136.509,250,34127.25,5,136.58,136.46,136.547,1700,232129.32,17,136.54,136.46,136.58,136.47,0.0013790978645989113,0.0023710946676063506,pep,20191219
2019-12-19,09:38,09:38 AM,136.47,136.47,136.47,200,27294.0,2,136.56,136.46,136.5,6505,887934.3205,51,136.47,136.47,136.47,136.56,0.0010930084139641062,0.002026074700493382,pep,20191219
2019-12-19,09:39,09:39 AM,136.49,136.39,136.458,1000,136458.0,12,136.56,136.39,136.465,2008,274022.4,17,136.49,136.39,136.56,136.39,0.0010049808906918262,0.0017691449377496909,pep,20191219
2019-12-19,09:40,09:40 AM,136.47,136.47,136.47,100,13647.0,2,136.48,136.39,136.445,950,129623.0,9,136.47,136.47,136.39,136.46,0.0010930084139641062,0.0016223279304674921,pep,20191219
2019-12-19,09:41,09:41 AM,136.54,136.36,136.409,900,122768.5,7,136.54,136.34,136.403,3403,464179.622,26,136.42,136.54,136.42,136.54,0.0006455351706633158,0.001314012215175021,pep,20191219
2019-12-19,09:42,09:42 AM,136.55,136.55,136.55,100,13655.0,2,136.58,136.52,136.551,1780,243061.378,17,136.55,136.55,136.55,136.552,0.0016798585691127077,0.0024004580690627072,pep,20191219
2019-12-19,09:43,09:43 AM,136.56,136.56,136.56,84,11471.04,1,136.599,136.53,136.559,1869,255228.7315,15,136.56,136.56,136.57,136.54,0.0017532148385062047,0.002459184871975628,pep,20191219
2019-12-19,09:44,09:44 AM,136.5,136.44,136.481,1802,245938.88,3,136.52,136.43,136.482,3200,436741.0,15,136.5,136.48,136.52,136.48,0.0011737003102969944,0.0018939393939394658,pep,20191219
2019-12-19,09:45,09:45 AM,136.45,136.41,136.43,200,27286.0,3,136.48,136.41,136.443,1200,163732.0,12,136.45,136.41,136.45,136.42,0.0007995833363899096,0.0016076462297394184,pep,20191219
2019-12-19,09:46,09:46 AM,136.43,136.425,136.425,201,27421.43,3,136.441,136.39,136.409,1770,241443.2995,16,136.43,136.425,136.42,136.441,0.0007629052016931611,0.0013580573173596598,pep,20191219
2019-12-19,09:47,09:47 AM,136.4,136.365,136.388,309,42143.92,4,136.45,136.33,136.376,1520,207291.5,13,136.4,136.365,136.45,136.36,0.0004914870049369303,0.001115809255344251,pep,20191219
2019-12-19,09:48,09:48 AM,136.34,136.33,136.338,200,27267.5,3,136.38,136.33,136.351,43105,5877419.9,30,136.34,136.34,136.33,136.38,0.0001247056579690283,0.0009322879962415548,pep,20191219
2019-12-19,09:49,09:49 AM,136.365,136.28,136.326,1982,270198.84,70,136.38,136.28,136.343,19264,2626520.51,39,136.365,136.3,136.37,136.3,3.66781346967485e-05,0.0008735611933286336,pep,20191219
2019-12-19,09:50,09:50 AM,136.31,136.28,136.3,565,77009.485,7,136.32,136.27,136.293,4857,661975.86,44,136.3,136.295,136.31,136.29,-0.00015404816572638541,0.0005065186751234498,pep,20191219
2019-12-19,09:51,09:51 AM,136.27,136.26,136.265,600,81759.0,5,136.295,136.24,136.269,1833,249780.6,17,136.27,136.26,136.27,136.295,-0.0004107951086040419,0.0003303382663848949,pep,20191219
2019-12-19,09:52,09:52 AM,136.32,136.26,136.281,734,100030.6,13,136.33,136.26,136.286,2492,339624.678,19,136.295,136.32,136.28,136.29,-0.0002934250775741965,0.0004551327225746699,pep,20191219
2019-12-19,09:53,09:53 AM,136.29,136.24,136.261,1407,191718.82,14,136.31,136.235,136.268,3475,473532.04,28,136.29,136.24,136.3,136.235,-0.000440137616361399,0.00032299741602075365,pep,20191219
2019-12-19,09:54,09:54 AM,136.245,136.225,136.238,1700,231605.5,13,136.26,136.21,136.231,4895,666851.375,38,136.23,136.235,136.23,136.235,-0.0006088570359665673,5.138595254877997e-05,pep,20191219
2019-12-19,09:55,09:55 AM,136.275,136.205,136.234,2672,364018.79,8,136.29,136.205,136.255,13452,1832899.945,39,136.22,136.27,136.23,136.29,-0.0006381995437239243,0.00022756636128733494,pep,20191219
2019-12-19,09:56,09:56 AM,136.32,136.265,136.292,200,27258.5,2,136.34,136.265,136.3,2697,367601.6,21,136.265,136.32,136.3,136.34,-0.00021273318124130812,0.0005579046276722299,pep,20191219
2019-12-19,09:57,09:57 AM,,,,0,0.0,0,136.34,136.3,136.321,1500,204481.0,13,,,136.34,136.32,,0.0007120624853183611,pep,20191219
2019-12-19,09:58,09:58 AM,136.36,136.36,136.36,96,13090.56,1,136.38,136.33,136.355,2993,408110.48,24,136.36,136.36,136.33,136.37,0.0002860894506350136,0.0009616513976979111,pep,20191219
2019-12-19,09:59,09:59 AM,,,,0,0.0,0,136.41,136.38,136.39,1519,207176.79,11,,,136.38,136.4,,0.0012185811604416023,pep,20191219
2019-12-19,10:00,10 AM,136.38,136.38,136.38,100,13638.0,1,136.42,136.366,136.39,1965,268007.0845,17,136.38,136.38,136.39,136.4,0.0004328019894220076,0.0012185811604416023,pep,20191219
2019-12-19,10:01,10:01 AM,136.395,136.37,136.382,200,27276.5,2,136.395,136.345,136.365,2955,402960.27,24,136.395,136.37,136.395,136.35,0.0004474732433007904,0.0010350599013391147,pep,20191219
2019-12-19,10:02,10:02 AM,,,,0,0.0,0,136.35,136.3,136.321,2183,297587.9527,20,,,136.329,136.345,,0.0007120624853183611,pep,20191219
2019-12-19,10:03,10:03 AM,,,,0,0.0,0,136.41,136.36,136.387,2043,278637.86,16,,,136.36,136.4,,0.0011965586093493873,pep,20191219
2019-12-19,10:04,10:04 AM,136.43,136.43,136.43,100,13643.0,1,136.5,136.425,136.47,1498,204432.04,13,136.43,136.43,136.425,136.48,0.0007995833363899096,0.0018058491895701883,pep,20191219
2019-12-19,10:05,10:05 AM,136.56,136.53,136.558,2000,273115.0,5,136.59,136.5,136.563,5829,796023.204,37,136.54,136.56,136.5,136.59,0.001738543584627422,0.0024885482734319847,pep,20191219
2019-12-19,10:06,10:06 AM,136.61,136.545,136.579,492,67196.78,4,136.63,136.545,136.57,16931,2312274.15,126,136.61,136.56,136.6,136.555,0.0018925917503540158,0.0025399342259807647,pep,20191219
2019-12-19,10:07,10:07 AM,136.625,136.56,136.59,387,52860.375,4,136.65,136.55,136.603,4377,597912.2517,37,136.56,136.625,136.565,136.65,0.0019732836466869043,0.0027821822879963817,pep,20191219
2019-12-19,10:08,10:08 AM,136.665,136.645,136.652,300,40995.5,3,136.702,136.64,136.672,6897,942628.52,56,136.645,136.645,136.65,136.665,0.0024280925169268774,0.003288700963119623,pep,20191219
2019-12-19,10:09,10:09 AM,136.7,136.68,136.693,300,41008.0,2,136.702,136.65,136.683,7337,1002845.6511,56,136.7,136.68,136.65,136.69,0.002728853221440674,0.003369450317124759,pep,20191219
2019-12-19,10:10,10:10 AM,136.635,136.635,136.635,100,13663.5,1,136.661,136.62,136.639,1319,180227.1895,12,136.635,136.635,136.661,136.66,0.002303386858957849,0.0030464529011042145,pep,20191219
2019-12-19,10:11,10:11 AM,136.63,136.63,136.63,100,13663.0,1,136.63,136.62,136.628,600,81977.0,5,136.63,136.63,136.62,136.63,0.002266708724261101,0.0029657035470988693,pep,20191219
2019-12-19,10:12,10:12 AM,136.66,136.65,136.655,200,27331.0,2,136.66,136.61,136.641,2710,370297.035,24,136.65,136.66,136.63,136.61,0.0024500993977450516,0.003061134601832288,pep,20191219
2019-12-19,10:13,10:13 AM,136.57,136.57,136.57,100,13657.0,1,136.63,136.57,136.597,2886,394217.9344,22,136.57,136.57,136.62,136.6,0.0018265711078997017,0.002738137185811743,pep,20191219
2019-12-19,10:14,10:14 AM,136.555,136.555,136.555,100,13655.5,1,136.58,136.53,136.554,1527,208517.69,14,136.555,136.555,136.58,136.54,0.001716536703809456,0.0024224806201551307,pep,20191219
2019-12-19,10:15,10:15 AM,136.54,136.54,136.54,200,27308.0,2,136.54,136.52,136.529,1400,191140.0,14,136.54,136.54,136.53,136.52,0.001606502299719002,0.0022389593610524345,pep,20191219
2019-12-19,10:16,10:16 AM,136.53,136.465,136.503,501,68387.97,6,136.53,136.465,136.504,1612,220045.1544,16,136.52,136.47,136.53,136.465,0.0013350841029627714,0.0020554381019497383,pep,20191219
2019-12-19,10:17,10:17 AM,136.445,136.405,136.427,304,41473.755,6,136.46,136.405,136.428,2550,347891.25,23,136.43,136.445,136.46,136.445,0.0007775764555717354,0.0014975334742777173,pep,20191219
2019-12-19,10:18,10:18 AM,136.445,136.41,136.415,202,27555.87,4,136.45,136.4,136.418,2500,341044.0,21,136.445,136.41,136.45,136.41,0.0006895489322994556,0.0014241249706367222,pep,20191219
2019-12-19,10:19,10:19 AM,136.44,136.345,136.351,106,14453.175,8,136.44,136.35,136.388,3350,456900.19,29,136.44,136.35,136.43,136.35,0.0002200688081806995,0.0012038994597135286,pep,20191219
2019-12-19,10:20,10:20 AM,136.36,136.3,136.348,605,82490.67,11,136.38,136.29,136.344,5861,799112.8512,44,136.36,136.3,136.33,136.309,0.0001980619273627338,0.0008809020436927748,pep,20191219
2019-12-19,10:21,10:21 AM,136.3,136.27,136.274,277,37747.88,7,136.32,136.27,136.299,3436,468322.5679,24,136.295,136.27,136.29,136.27,-0.0003447744661497278,0.0005505637773080886,pep,20191219
2019-12-19,10:22,10:22 AM,136.23,136.21,136.225,209,28470.945,8,136.26,136.21,136.226,2888,393419.412,24,136.225,136.21,136.26,136.21,-0.0007042201861782384,1.468170072828246e-05,pep,20191219
2019-12-19,10:23,10:23 AM,136.22,136.215,136.216,4,544.865,4,136.24,136.2,136.214,3263,444465.1596,16,136.22,136.215,136.24,136.21,-0.000770240828632344,-7.340850364099502e-05,pep,20191219
2019-12-19,10:24,10:24 AM,136.18,136.16,136.165,402,54738.34,6,136.18,136.15,136.164,1200,163396.5,12,136.16,136.16,136.18,136.17,-0.0011443578025396375,-0.0004404510218463874,pep,20191219
2019-12-19,10:25,10:25 AM,136.17,136.13,136.14,266,36213.305,6,136.17,136.13,136.153,4325,588861.088,28,136.14,136.15,136.13,136.15,-0.0013277484760235885,-0.0005212003758515236,pep,20191219
2019-12-19,10:26,10:26 AM,136.14,136.115,136.13,619,84264.33,7,136.141,136.11,136.124,2736,372435.364,21,136.13,136.115,136.115,136.13,-0.0014011047454170855,-0.0007340850364105761,pep,20191219
2019-12-19,10:27,10:27 AM,136.14,136.12,136.126,245,33350.96,5,136.135,136.12,136.124,1945,264760.3912,15,136.14,136.12,136.13,136.13,-0.0014304472531744426,-0.0007340850364105761,pep,20191219
2019-12-19,10:28,10:28 AM,136.135,136.09,136.118,600,81670.5,6,136.16,136.09,136.131,8753,1191557.02,76,136.09,136.135,136.11,136.15,-0.0014891322686893652,-0.0006826990838617961,pep,20191219
2019-12-19,10:29,10:29 AM,136.14,136.12,136.13,200,27226.0,2,136.2,136.12,136.171,6314,859780.64,54,136.14,136.12,136.155,136.12,-0.0014011047454170855,-0.00038906506929760744,pep,20191219
2019-12-19,10:30,10:30 AM,136.085,136.05,136.066,400,54426.5,4,136.12,136.03,136.066,9366,1274398.1916,80,136.085,136.05,136.112,136.066,-0.0018705848695358416,-0.001159854357528681,pep,20191219
2019-12-19,10:31,10:31 AM,136.05,136.015,136.036,463,62984.76,5,136.07,136.015,136.051,4975,676855.6725,40,136.05,136.015,136.07,136.03,-0.002090653677716541,-0.0012699671129903823,pep,20191219
2019-12-19,10:32,10:32 AM,136.03,136.02,136.025,205,27885.125,4,136.055,136.02,136.033,2900,394495.0,21,136.025,136.02,136.03,136.055,-0.0021713455740494294,-0.0014021024195442985,pep,20191219
2019-12-19,10:33,10:33 AM,136.03,136.02,136.027,700,95218.89,7,136.04,136.02,136.033,3798,516652.93,36,136.02,136.03,136.04,136.04,-0.002156674320170855,-0.0014021024195442985,pep,20191219
2019-12-19,10:34,10:34 AM,136.025,135.975,136.0,404,54943.96,5,136.04,135.97,136.017,11548,1570723.1832,85,135.975,136.01,136.0,136.01,-0.0023547362475333806,-0.0015195560253699323,pep,20191219
2019-12-19,10:35,10:35 AM,135.965,135.965,135.965,200,27193.0,2,136.01,135.95,135.983,3930,534413.4,29,135.965,135.965,136.01,136.01,-0.0026114831904108285,-0.0017691449377494823,pep,20191219
2019-12-19,10:36,10:36 AM,136.02,136.0,136.015,400,54406.0,4,136.03,136.0,136.016,6149,836361.9274,44,136.02,136.0,136.02,136.03,-0.0022447018434431348,-0.0015268968757340734,pep,20191219
2019-12-19,10:37,10:37 AM,136.025,136.005,136.022,118,16050.615,3,136.025,135.99,136.002,1254,170547.0624,11,136.025,136.005,136.01,135.995,-0.0021933524548676036,-0.0016296687808314248,pep,20191219
2019-12-19,10:38,10:38 AM,135.995,135.955,135.971,400,54388.5,4,136.0,135.955,135.978,1310,178131.05,13,135.995,135.955,136.0,135.955,-0.0025674694287746887,-0.0018058491895699797,pep,20191219
2019-12-19,10:39,10:39 AM,135.965,135.955,135.96,400,54384.0,4,135.983,135.955,135.967,2023,275062.15,17,135.96,135.96,135.955,135.96,-0.002648161325107577,-0.001886598543575116,pep,20191219
2019-12-19,10:40,10:40 AM,135.99,135.96,135.972,400,54389.0,4,136.0,135.96,135.98,2697,366737.12,25,135.96,135.96,135.96,135.96,-0.002560133801835297,-0.001791167488841906,pep,20191219
2019-12-19,10:41,10:41 AM,135.97,135.96,135.965,200,27193.0,2,135.98,135.96,135.968,2273,309054.7927,21,135.96,135.97,135.96,135.96,-0.0026114831904108285,-0.0018792576932111834,pep,20191219
2019-12-19,10:42,10:42 AM,136.04,136.0,136.028,400,54411.0,4,136.07,135.98,136.022,3231,439487.9012,26,136.0,136.035,135.98,136.035,-0.0021493386932314638,-0.0014828517735494347,pep,20191219
2019-12-19,10:43,10:43 AM,136.045,136.045,136.045,100,13604.5,1,136.06,136.02,136.037,2400,326488.0,24,136.045,136.045,136.03,136.06,-0.0020246330352624354,-0.0013727390180877336,pep,20191219
2019-12-19,10:44,10:44 AM,136.04,135.98,136.008,481,65420.0,5,136.044,135.98,136.016,4433,602960.0102,31,136.04,135.98,136.03,135.98,-0.0022960512320184577,-0.0015268968757340734,pep,20191219
2019-12-19,10:45,10:45 AM,136.005,135.985,135.995,517,70309.575,6,136.013,135.96,135.987,2736,372060.32,24,135.99,136.0,135.99,136.0,-0.002391414382230129,-0.001739781536293126,pep,20191219
2019-12-19,10:46,10:46 AM,136.0,136.0,136.0,200,27200.0,2,136.0,135.98,135.996,1239,168498.5596,10,136.0,136.0,136.0,135.98,-0.0023547362475333806,-0.0016737138830160635,pep,20191219
2019-12-19,10:47,10:47 AM,136.01,135.98,135.993,500,67996.5,5,136.01,135.97,135.996,8536,1160861.3,45,135.995,136.01,135.995,136.01,-0.0024060856361089117,-0.0016737138830160635,pep,20191219
2019-12-19,10:48,10:48 AM,136.045,136.01,136.032,300,40809.5,3,136.045,136.01,136.029,700,95220.5,7,136.01,136.045,136.01,136.045,-0.0021199961854738983,-0.0014314658210006547,pep,20191219
2019-12-19,10:49,10:49 AM,136.065,136.04,136.054,1136,154557.54,12,136.07,136.04,136.054,3742,509113.2,34,136.04,136.06,136.04,136.07,-0.0019586123928081213,-0.0012479445618979585,pep,20191219
2019-12-19,10:50,10:50 AM,136.15,136.085,136.123,600,81673.5,6,136.15,136.085,136.134,2556,347958.372,25,136.085,136.135,136.085,136.137,-0.0014524541339926166,-0.0006606765327695811,pep,20191219
2019-12-19,10:51,10:51 AM,136.11,136.11,136.11,11,1497.21,1,136.15,136.09,136.135,2620,356673.08,25,136.11,136.11,136.15,136.09,-0.0015478172842040795,-0.0006533356824054399,pep,20191219
2019-12-19,10:52,10:52 AM,136.09,136.09,136.09,100,13609.0,1,136.09,136.07,136.076,910,123829.218,8,136.09,136.09,136.09,136.07,-0.0016945298229912819,-0.0010864458538876862,pep,20191219
2019-12-19,10:53,10:53 AM,136.05,136.035,136.036,430,58495.275,5,136.09,136.035,136.069,8861,1205706.185,33,136.035,136.05,136.07,136.088,-0.002090653677716541,-0.001137831806436466,pep,20191219
2019-12-19,10:54,10:54 AM,,,,0,0.0,0,136.1,136.08,136.083,991,134858.842,5,,,136.08,136.085,,-0.0010350599013389061,pep,20191219
2019-12-19,10:55,10:55 AM,136.11,136.08,136.089,500,68044.5,3,136.11,136.06,136.083,4400,598767.53,36,136.11,136.08,136.06,136.07,-0.0017018654499306733,-0.0010350599013389061,pep,20191219
2019-12-19,10:56,10:56 AM,136.085,136.085,136.085,100,13608.5,1,136.09,136.06,136.071,22103,3007580.31,25,136.085,136.085,136.085,136.085,-0.0017312079576880305,-0.0011231501057081836,pep,20191219
2019-12-19,10:57,10:57 AM,136.15,136.08,136.1,415,56481.35,5,136.16,136.08,136.096,2194,298594.095,14,136.08,136.15,136.085,136.13,-0.0016211735535977849,-0.0009396288466054874,pep,20191219
2019-12-19,10:58,10:58 AM,136.17,136.17,136.17,52,7080.84,2,136.17,136.15,136.16,702,95584.13,6,136.17,136.17,136.15,136.17,-0.001107679667842889,-0.0004698144233027437,pep,20191219
2019-12-19,10:59,10:59 AM,136.13,136.065,136.123,3604,490587.36,10,136.17,136.06,136.125,14956,2035884.8844,44,136.13,136.065,136.17,136.07,-0.0014524541339926166,-0.0007267441860464349,pep,20191219
2019-12-19,11:00,11 AM,136.095,136.095,136.095,100,13609.5,1,136.11,136.09,136.1,1100,149710.5,10,136.095,136.095,136.1,136.1,-0.0016578516882945335,-0.000910265445149131,pep,20191219
2019-12-19,11:01,11:01 AM,136.085,136.085,136.085,100,13608.5,1,136.15,136.07,136.117,1740,236843.63,16,136.085,136.085,136.085,136.14,-0.0017312079576880305,-0.0007854709889593561,pep,20191219
2019-12-19,11:02,11:02 AM,,,,0,0.0,0,136.175,136.15,136.159,1400,190622.0,11,,,136.15,136.16,,-0.00047715527366688494,pep,20191219
2019-12-19,11:03,11:03 AM,,,,0,0.0,0,136.16,136.07,136.12,2262,307904.5025,17,,,136.16,136.07,,-0.0007634484378669324,pep,20191219
2019-12-19,11:04,11:04 AM,136.1,136.07,136.099,2405,327317.4,6,136.13,136.06,136.108,12424,1691006.02,47,136.08,136.1,136.06,136.125,-0.0016285091805371763,-0.00085153864223621,pep,20191219
2019-12-19,11:05,11:05 AM,,,,0,0.0,0,136.14,136.08,136.114,3575,486606.62,30,,,136.12,136.12,,-0.0008074935400515711,pep,20191219
2019-12-19,11:06,11:06 AM,136.135,136.095,136.12,3500,476419.5,11,136.14,136.095,136.118,9041,1230639.76,45,136.12,136.095,136.1,136.13,-0.0014744610148105825,-0.0007781301385952149,pep,20191219
2019-12-19,11:07,11:07 AM,136.2,136.165,136.188,1522,207277.515,7,136.2,136.12,136.161,52022,7083385.715,75,136.165,136.175,136.135,136.175,-0.0009756383829344692,-0.00046247357293860246,pep,20191219
2019-12-19,11:08,11:08 AM,136.23,136.175,136.211,967,131715.66,9,136.24,136.175,136.185,29687,4042919.03,52,136.175,136.225,136.175,136.24,-0.0008069189633290925,-0.0002862931642000475,pep,20191219
2019-12-19,11:09,11:09 AM,136.225,136.16,136.219,1100,149841.0,4,136.24,136.15,136.204,5953,810822.205,38,136.225,136.16,136.24,136.21,-0.0007482339478143784,-0.00014681700728199005,pep,20191219
2019-12-19,11:10,11:10 AM,136.18,136.125,136.137,550,74875.5,6,136.2,136.125,136.166,7445,1013756.235,40,136.18,136.125,136.185,136.125,-0.0013497553568415541,-0.000425769321118105,pep,20191219
2019-12-19,11:11,11:11 AM,136.15,136.12,136.141,304,41386.98,4,136.18,136.11,136.144,4150,564999.195,36,136.125,136.15,136.125,136.11,-0.001320412849084197,-0.0005872680291283775,pep,20191219
2019-12-19,11:12,11:12 AM,136.12,136.1,136.113,300,40834.0,3,136.135,136.1,136.12,938,127680.5184,8,136.1,136.12,136.1,136.13,-0.0015258104033861138,-0.0007634484378669324,pep,20191219
2019-12-19,11:13,11:13 AM,136.135,136.115,136.123,300,40837.0,3,136.15,136.105,136.126,1700,231413.79,15,136.135,136.12,136.124,136.15,-0.0014524541339926166,-0.0007194033356822937,pep,20191219
2019-12-19,11:14,11:14 AM,136.13,136.13,136.13,200,27226.0,2,136.14,136.1,136.124,1520,206908.05,13,136.13,136.13,136.125,136.14,-0.0014011047454170855,-0.0007340850364105761,pep,20191219
2019-12-19,11:15,11:15 AM,136.155,136.15,136.153,200,27230.5,2,136.164,136.12,136.15,3867,526492.9405,27,136.155,136.15,136.14,136.15,-0.0012323853258119173,-0.0005432229269437387,pep,20191219
2019-12-19,11:16,11:16 AM,136.15,136.15,136.15,100,13615.0,1,136.18,136.15,136.161,917,124860.06,7,136.15,136.15,136.15,136.18,-0.001254392206629883,-0.00046247357293860246,pep,20191219
2019-12-19,11:17,11:17 AM,136.17,136.13,136.153,500,68076.5,3,136.17,136.13,136.144,2184,297339.345,12,136.17,136.13,136.15,136.13,-0.0012323853258119173,-0.0005872680291283775,pep,20191219
2019-12-19,11:18,11:18 AM,,,,0,0.0,0,136.16,136.13,136.142,1775,241652.5,15,,,136.13,136.14,,-0.0006019497298566599,pep,20191219
2019-12-19,11:19,11:19 AM,136.125,136.1,136.113,200,27222.5,2,136.16,136.1,136.129,2312,314730.94,19,136.125,136.1,136.16,136.12,-0.0015258104033861138,-0.0006973807845900786,pep,20191219
2019-12-19,11:20,11:20 AM,136.18,136.12,136.15,495,67394.1,6,136.18,136.103,136.148,6878,936425.9958,61,136.14,136.16,136.103,136.16,-0.001254392206629883,-0.0005579046276720211,pep,20191219
2019-12-19,11:21,11:21 AM,136.17,136.16,136.166,253,34450.01,2,136.18,136.15,136.169,3711,505323.76,32,136.17,136.16,136.15,136.171,-0.001137022175600246,-0.00040374677002568126,pep,20191219
2019-12-19,11:22,11:22 AM,136.18,136.18,136.18,200,27236.0,2,136.21,136.16,136.184,2827,384992.7255,23,136.18,136.18,136.189,136.2,-0.0010343233984491833,-0.00029363401456418875,pep,20191219
2019-12-19,11:23,11:23 AM,,,,0,0.0,0,136.22,136.167,136.195,1794,244333.775,15,,,136.2,136.17,,-0.0002128846605590525,pep,20191219
2019-12-19,11:24,11:24 AM,136.16,136.15,136.155,200,27231.0,2,136.18,136.14,136.158,2754,374980.2142,20,136.16,136.15,136.177,136.15,-0.0012177140719331345,-0.0004844961240310261,pep,20191219
2019-12-19,11:25,11:25 AM,,,,0,0.0,0,136.155,136.1,136.131,2187,297718.94,15,,,136.12,136.155,,-0.0006826990838617961,pep,20191219
2019-12-19,11:26,11:26 AM,136.145,136.145,136.145,100,13614.5,1,136.145,136.12,136.126,700,95288.5,6,136.145,136.145,136.145,136.12,-0.0012910703413266315,-0.0007194033356822937,pep,20191219
2019-12-19,11:27,11:27 AM,136.145,136.145,136.145,500,68072.5,4,136.16,136.12,136.128,13320,1813223.3111,22,136.145,136.145,136.12,136.145,-0.0012910703413266315,-0.0007047216349542199,pep,20191219
2019-12-19,11:28,11:28 AM,136.145,136.145,136.145,100,13614.5,1,136.16,136.129,136.144,3172,431848.798,20,136.145,136.145,136.158,136.129,-0.0012910703413266315,-0.0005872680291283775,pep,20191219
2019-12-19,11:29,11:29 AM,136.13,136.13,136.13,100,13613.0,1,136.13,136.09,136.111,700,95278.0,7,136.13,136.13,136.13,136.09,-0.0014011047454170855,-0.0008295160911439949,pep,20191219
2019-12-19,11:30,11:30 AM,136.12,136.1,136.11,300,40833.0,3,136.15,136.05,136.089,6970,948542.066,57,136.11,136.12,136.07,136.11,-0.0015478172842040795,-0.0009910147991542674,pep,20191219
2019-12-19,11:31,11:31 AM,136.16,136.12,136.14,200,27228.0,2,136.16,136.11,136.133,3074,418471.9816,26,136.16,136.12,136.14,136.12,-0.0013277484760235885,-0.0006680173831335137,pep,20191219
2019-12-19,11:32,11:32 AM,136.145,136.11,136.125,300,40837.5,3,136.16,136.11,136.145,3997,544171.7187,21,136.12,136.145,136.12,136.16,-0.0014377828801138339,-0.0005799271787642362,pep,20191219
2019-12-19,11:33,11:33 AM,,,,0,0.0,0,136.19,136.14,136.17,3957,538825.62,32,,,136.17,136.18,,-0.0003964059196617487,pep,20191219
2019-12-19,11:34,11:34 AM,,,,0,0.0,0,136.19,136.14,136.168,1374,187095.0066,9,,,136.19,136.14,,-0.0004110876203898225,pep,20191219
2019-12-19,11:35,11:35 AM,136.14,136.09,136.117,300,40835.0,3,136.15,136.08,136.126,5254,715206.701,36,136.14,136.09,136.14,136.1,-0.0014964678956287567,-0.0007194033356822937,pep,20191219
2019-12-19,11:36,11:36 AM,136.115,136.115,136.115,200,27223.0,2,136.14,136.1,136.114,2373,322999.682,19,136.115,136.115,136.11,136.101,-0.0015111391495073309,-0.0008074935400515711,pep,20191219
2019-12-19,11:37,11:37 AM,136.12,136.11,136.113,300,40834.0,3,136.128,136.1,136.115,2590,352537.5475,19,136.11,136.12,136.11,136.1,-0.0015258104033861138,-0.0008001526896874299,pep,20191219
2019-12-19,11:38,11:38 AM,136.1,136.1,136.1,92,12521.2,1,136.13,136.09,136.11,2209,300667.99,15,136.1,136.1,136.11,136.11,-0.0016211735535977849,-0.0008368569415079275,pep,20191219
2019-12-19,11:39,11:39 AM,136.1,136.09,136.095,200,27219.0,2,136.13,136.08,136.105,1300,176936.0,12,136.1,136.09,136.13,136.11,-0.0016578516882945335,-0.0008735611933286336,pep,20191219
2019-12-19,11:40,11:40 AM,136.105,136.085,136.095,300,40828.5,3,136.11,136.06,136.091,2482,337776.996,18,136.105,136.085,136.11,136.06,-0.0016578516882945335,-0.0009763330984259849,pep,20191219
2019-12-19,11:41,11:41 AM,136.115,136.08,136.097,200,27219.5,2,136.15,136.08,136.121,1800,245018.0,16,136.08,136.115,136.09,136.13,-0.0016431804344157507,-0.0007561075875027912,pep,20191219
2019-12-19,11:42,11:42 AM,136.14,136.13,136.134,400,54453.5,4,136.14,136.13,136.132,600,81679.5,6,136.13,136.13,136.13,136.13,-0.0013717622376597284,-0.000675358233497655,pep,20191219
2019-12-19,11:43,11:43 AM,136.12,136.12,136.12,500,68060.0,5,136.13,136.103,136.121,2333,317570.09,21,136.12,136.12,136.12,136.12,-0.0014744610148105825,-0.0007561075875027912,pep,20191219
2019-12-19,11:44,11:44 AM,136.14,136.135,136.137,200,27227.5,2,136.14,136.12,136.132,1010,137493.7,10,136.135,136.14,136.14,136.12,-0.0013497553568415541,-0.000675358233497655,pep,20191219
2019-12-19,11:45,11:45 AM,136.18,136.12,136.157,590,80332.74,8,136.18,136.12,136.156,2100,285928.0,21,136.12,136.16,136.12,136.17,-0.0012030428180543516,-0.0004991778247590999,pep,20191219
2019-12-19,11:46,11:46 AM,136.18,136.17,136.173,300,40852.0,3,136.2,136.16,136.181,1750,238317.0,15,136.17,136.18,136.16,136.19,-0.0010856727870247147,-0.00031565656565640376,pep,20191219
2019-12-19,11:47,11:47 AM,136.2,136.2,136.2,7,953.4,1,136.22,136.2,136.213,900,122592.0,8,136.2,136.2,136.2,136.21,-0.0008876108596621895,-8.074935400513625e-05,pep,20191219
2019-12-19,11:48,11:48 AM,136.25,136.205,136.232,451,61440.75,6,136.25,136.2,136.23,3858,525575.562,24,136.205,136.24,136.2,136.24,-0.0006528707976027071,4.4045102184638744e-05,pep,20191219
2019-12-19,11:49,11:49 AM,136.24,136.24,136.24,200,27248.0,2,136.26,136.19,136.228,5285,719965.83,39,136.24,136.24,136.25,136.19,-0.0005941857820877844,2.936340145656492e-05,pep,20191219
2019-12-19,11:50,11:50 AM,136.215,136.195,136.208,400,54483.0,4,136.23,136.18,136.209,2069,281815.87,19,136.215,136.205,136.19,136.205,-0.0008289258441472667,-0.00011011275546149254,pep,20191219
2019-12-19,11:51,11:51 AM,136.18,136.18,136.18,174,23695.32,2,136.195,136.16,136.181,3069,417940.38,25,136.18,136.18,136.19,136.19,-0.0010343233984491833,-0.00031565656565640376,pep,20191219
2019-12-19,11:52,11:52 AM,136.175,136.15,136.162,200,27232.5,2,136.19,136.15,136.171,600,81702.5,5,136.175,136.15,136.175,136.15,-0.0011663646833576032,-0.00038906506929760744,pep,20191219
2019-12-19,11:53,11:53 AM,136.19,136.155,136.179,600,81707.5,6,136.21,136.15,136.182,1530,208358.6,14,136.155,136.19,136.15,136.21,-0.0010416590253885748,-0.0003083157152924712,pep,20191219
2019-12-19,11:54,11:54 AM,136.215,136.215,136.215,100,13621.5,1,136.23,136.2,136.213,1704,232107.3085,9,136.215,136.215,136.2,136.2,-0.0007775764555717354,-8.074935400513625e-05,pep,20191219
2019-12-19,11:55,11:55 AM,136.2,136.19,136.195,200,27239.0,2,136.2,136.19,136.196,500,68098.0,5,136.19,136.2,136.19,136.2,-0.000924288994358938,-0.00020554381019491125,pep,20191219
2019-12-19,11:56,11:56 AM,136.205,136.205,136.205,84,11441.22,1,136.215,136.19,136.204,1521,207166.515,11,136.205,136.205,136.2,136.2,-0.0008509327249652325,-0.00014681700728199005,pep,20191219
2019-12-19,11:57,11:57 AM,136.215,136.215,136.215,100,13621.5,1,136.216,136.215,136.216,200,27243.15,2,136.215,136.215,136.215,136.216,-0.0007775764555717354,-5.872680291271256e-05,pep,20191219
2019-12-19,11:58,11:58 AM,136.205,136.165,136.185,205,27918.0,3,136.22,136.164,136.19,2073,282321.5587,18,136.205,136.165,136.2,136.164,-0.000997645263752435,-0.00024958891237954997,pep,20191219
2019-12-19,11:59,11:59 AM,136.13,136.13,136.13,100,13613.0,1,136.155,136.11,136.138,1837,250086.063,15,136.13,136.13,136.146,136.11,-0.0014011047454170855,-0.0006313131313130162,pep,20191219
2019-12-19,12:00,12 PM,136.12,136.12,136.12,100,13612.0,1,136.14,136.06,136.101,2805,381763.2248,23,136.12,136.12,136.14,136.06,-0.0014744610148105825,-0.0009029245947849899,pep,20191219
2019-12-19,12:01,12:01 PM,,,,0,0.0,0,136.07,136.02,136.04,4617,628094.6916,22,,,136.07,136.05,,-0.0013507164669955185,pep,20191219
2019-12-19,12:02,12:02 PM,,,,0,0.0,0,136.12,136.05,136.086,1862,253392.932,17,,,136.05,136.086,,-0.0010130373502464825,pep,20191219
2019-12-19,12:03,12:03 PM,136.13,136.13,136.13,200,27226.0,2,136.16,136.1,136.133,1500,204199.0,14,136.13,136.13,136.1,136.155,-0.0014011047454170855,-0.0006680173831335137,pep,20191219
2019-12-19,12:04,12:04 PM,136.19,136.17,136.181,615,83751.275,6,136.21,136.16,136.185,3428,466842.1637,30,136.17,136.185,136.16,136.21,-0.001026987771509792,-0.0002862931642000475,pep,20191219
2019-12-19,12:05,12:05 PM,136.21,136.2,136.208,160,21793.28,3,136.23,136.2,136.212,2926,398557.03,26,136.2,136.21,136.21,136.2,-0.0008289258441472667,-8.809020436927749e-05,pep,20191219
2019-12-19,12:06,12:06 PM,136.2,136.2,136.2,400,54480.0,3,136.24,136.19,136.21,3814,519503.766,31,136.2,136.2,136.2,136.21,-0.0008876108596621895,-0.0001027719050973513,pep,20191219
2019-12-19,12:07,12:07 PM,136.21,136.2,136.202,1000,136202.0,4,136.21,136.175,136.195,3184,433645.868,20,136.21,136.2,136.21,136.19,-0.0008729396057834066,-0.0002128846605590525,pep,20191219
2019-12-19,12:08,12:08 PM,136.19,136.19,136.19,1,136.19,1,136.22,136.18,136.2,3588,488686.7544,18,136.19,136.19,136.2,136.18,-0.0009609671290556865,-0.00017618040873855498,pep,20191219
2019-12-19,12:09,12:09 PM,136.185,136.18,136.184,342,46574.77,4,136.19,136.16,136.183,2790,379949.535,22,136.18,136.185,136.18,136.18,-0.0010049808906918262,-0.00030097486492832993,pep,20191219
2019-12-19,12:10,12:10 PM,136.16,136.145,136.15,131,17835.655,7,136.17,136.14,136.149,1200,163379.18,11,136.16,136.15,136.17,136.14,-0.001254392206629883,-0.00055056377730788,pep,20191219
2019-12-19,12:11,12:11 PM,136.18,136.18,136.18,200,27236.0,2,136.18,136.15,136.167,2500,340418.0,23,136.18,136.18,136.15,136.16,-0.0010343233984491833,-0.00041842847075396374,pep,20191219
2019-12-19,12:12,12:12 PM,136.16,136.16,136.16,202,27504.32,3,136.19,136.12,136.161,2097,285530.0396,15,136.16,136.16,136.17,136.12,-0.001181035937236386,-0.00046247357293860246,pep,20191219
2019-12-19,12:13,12:13 PM,136.135,136.135,136.135,170,23142.95,4,136.14,136.12,136.134,1622,220809.08,15,136.135,136.135,136.12,136.135,-0.001364426610720337,-0.0006606765327695811,pep,20191219
2019-12-19,12:14,12:14 PM,136.135,136.115,136.128,156,21235.94,3,136.15,136.115,136.128,2089,284370.8102,19,136.135,136.115,136.13,136.13,-0.0014157759992958683,-0.0007047216349542199,pep,20191219
2019-12-19,12:15,12:15 PM,,,,0,0.0,0,136.18,136.13,136.156,3621,493020.169,18,,,136.15,136.15,,-0.0004991778247590999,pep,20191219
2019-12-19,12:16,12:16 PM,136.175,136.175,136.175,100,13617.5,1,136.175,136.16,136.168,1000,136168.5,8,136.175,136.175,136.17,136.17,-0.001071001533145932,-0.0004110876203898225,pep,20191219
2019-12-19,12:17,12:17 PM,,,,0,0.0,0,136.19,136.155,136.169,1697,231078.83,15,,,136.175,136.17,,-0.00040374677002568126,pep,20191219
2019-12-19,12:18,12:18 PM,,,,0,0.0,0,136.22,136.17,136.194,1300,177052.05,11,,,136.17,136.22,,-0.0002202255109231937,pep,20191219
2019-12-19,12:19,12:19 PM,,,,0,0.0,0,136.26,136.22,136.236,2946,401352.5936,15,,,136.226,136.24,,8.809020436927749e-05,pep,20191219
2019-12-19,12:20,12:20 PM,,,,0,0.0,0,136.253,136.23,136.238,1400,190732.77,11,,,136.25,136.24,,0.00010277190509755994,pep,20191219
2019-12-19,12:21,12:21 PM,136.21,136.2,136.2,100,13620.01,2,136.25,136.19,136.217,1177,160327.6095,8,136.21,136.2,136.25,136.19,-0.0008876108596621895,-5.1385952548571335e-05,pep,20191219
2019-12-19,12:22,12:22 PM,,,,0,0.0,0,136.18,136.17,136.175,400,54470.0,3,,,136.18,136.18,,-0.00035970166784104254,pep,20191219
2019-12-19,12:23,12:23 PM,136.205,136.19,136.205,201,27377.19,3,136.213,136.18,136.196,1200,163435.28,9,136.205,136.19,136.18,136.2,-0.0008509327249652325,-0.00020554381019491125,pep,20191219
2019-12-19,12:24,12:24 PM,,,,0,0.0,0,136.21,136.18,136.19,1500,204285.72,9,,,136.21,136.2,,-0.00024958891237954997,pep,20191219
2019-12-19,12:25,12:25 PM,136.2,136.2,136.2,100,13620.0,1,136.2,136.14,136.162,3215,437762.05,29,136.2,136.2,136.19,136.14,-0.0008876108596621895,-0.0004551327225744612,pep,20191219
2019-12-19,12:26,12:26 PM,,,,0,0.0,0,136.18,136.15,136.171,3824,520717.46,14,,,136.15,136.15,,-0.00038906506929760744,pep,20191219
2019-12-19,12:27,12:27 PM,136.15,136.15,136.15,1,136.15,1,136.155,136.13,136.146,830,113000.909,8,136.15,136.15,136.149,136.155,-0.001254392206629883,-0.0005725863284003036,pep,20191219
2019-12-19,12:28,12:28 PM,136.185,136.185,136.185,100,13618.5,1,136.185,136.15,136.178,8895,1211306.6,14,136.185,136.185,136.17,136.16,-0.000997645263752435,-0.0003376791167488275,pep,20191219
2019-12-19,12:29,12:29 PM,,,,0,0.0,0,136.2,136.17,136.187,1726,235058.27,10,,,136.18,136.197,,-0.00027161146347176503,pep,20191219
2019-12-19,12:30,12:30 PM,136.22,136.22,136.22,202,27516.44,3,136.22,136.19,136.212,2079,283184.695,10,136.22,136.22,136.205,136.22,-0.0007408983208749869,-8.809020436927749e-05,pep,20191219
2019-12-19,12:31,12:31 PM,136.23,136.23,136.23,100,13623.0,1,136.23,136.2,136.212,600,81727.0,5,136.23,136.23,136.21,136.23,-0.0006675420514814899,-8.809020436927749e-05,pep,20191219
2019-12-19,12:32,12:32 PM,,,,0,0.0,0,136.24,136.21,136.227,600,81736.0,6,,,136.21,136.24,,2.202255109242369e-05,pep,20191219
2019-12-19,12:33,12:33 PM,136.265,136.265,136.265,100,13626.5,1,136.265,136.23,136.242,1900,258859.44,15,136.265,136.265,136.24,136.265,-0.0004107951086040419,0.00013213530655391623,pep,20191219
2019-12-19,12:34,12:34 PM,136.3,136.285,136.298,115,15674.275,2,136.3,136.28,136.296,1700,231704.0,16,136.285,136.3,136.28,136.3,-0.0001687194196051682,0.0005285412262156649,pep,20191219
2019-12-19,12:35,12:35 PM,136.33,136.3,136.315,12,1635.78,2,136.32,136.29,136.309,3670,500253.5,26,136.33,136.3,136.31,136.31,-4.40137616361399e-05,0.0006239722809490836,pep,20191219
2019-12-19,12:36,12:36 PM,,,,0,0.0,0,136.31,136.27,136.287,3579,487772.705,24,,,136.31,136.27,,0.0004624735729388111,pep,20191219
2019-12-19,12:37,12:37 PM,,,,0,0.0,0,136.29,136.25,136.272,3138,427622.41,22,,,136.28,136.25,,0.00035236081747710995,pep,20191219
2019-12-19,12:38,12:38 PM,,,,0,0.0,0,136.27,136.234,136.251,1210,164863.338,11,,,136.25,136.234,,0.00019820295983097866,pep,20191219
2019-12-19,12:39,12:39 PM,,,,0,0.0,0,136.26,136.23,136.247,1406,191563.2738,11,,,136.23,136.26,,0.00016883955837462236,pep,20191219
2019-12-19,12:40,12:40 PM,,,,0,0.0,0,136.265,136.26,136.264,500,68132.0,5,,,136.265,136.26,,0.00029363401456439735,pep,20191219
2019-12-19,12:41,12:41 PM,,,,0,0.0,0,136.27,136.26,136.268,500,68133.91,5,,,136.27,136.27,,0.00032299741602075365,pep,20191219
2019-12-19,12:42,12:42 PM,,,,0,0.0,0,136.28,136.27,136.278,400,54511.0,4,,,136.28,136.28,,0.0003964059196617487,pep,20191219
2019-12-19,12:43,12:43 PM,136.285,136.285,136.285,100,13628.5,1,136.3,136.27,136.278,1100,149905.5,8,136.285,136.285,136.27,136.3,-0.0002640825698168394,0.0003964059196617487,pep,20191219
2019-12-19,12:44,12:44 PM,,,,0,0.0,0,136.29,136.27,136.277,875,119242.3372,7,,,136.27,136.29,,0.00038906506929760744,pep,20191219
2019-12-19,12:45,12:45 PM,,,,0,0.0,0,136.3,136.25,136.274,2174,296260.3275,17,,,136.3,136.27,,0.0003670425182053924,pep,20191219
2019-12-19,12:46,12:46 PM,136.28,136.28,136.28,100,13628.0,1,136.31,136.27,136.283,1100,149911.0,10,136.28,136.28,136.27,136.31,-0.0003007607045135879,0.00043311017148224616,pep,20191219
2019-12-19,12:47,12:47 PM,,,,0,0.0,0,136.305,136.285,136.294,700,95406.0,6,,,136.285,136.29,,0.000513859525487591,pep,20191219
2019-12-19,12:48,12:48 PM,,,,0,0.0,0,136.298,136.298,136.298,1000,136298.4,1,,,136.298,136.298,,0.0005432229269439474,pep,20191219
2019-12-19,12:49,12:49 PM,136.31,136.31,136.31,100,13631.0,1,136.31,136.284,136.292,2142,291937.3321,19,136.31,136.31,136.29,136.29,-8.069189633288841e-05,0.0004991778247593087,pep,20191219
2019-12-19,12:50,12:50 PM,136.285,136.285,136.285,4,545.14,1,136.32,136.27,136.292,1937,263997.71,8,136.285,136.285,136.284,136.27,-0.0002640825698168394,0.0004991778247593087,pep,20191219
2019-12-19,12:51,12:51 PM,136.31,136.3,136.307,300,40892.0,4,136.32,136.28,136.305,2360,321679.3,22,136.3,136.31,136.3,136.32,-0.0001026987771510626,0.0005946088794927273,pep,20191219
2019-12-19,12:52,12:52 PM,,,,0,0.0,0,136.33,136.29,136.308,1435,195601.7,13,,,136.32,136.3,,0.0006166314305849423,pep,20191219
2019-12-19,12:53,12:53 PM,136.295,136.295,136.295,100,13629.5,1,136.3,136.25,136.28,3249,442775.27,22,136.295,136.295,136.3,136.25,-0.0001907263004233424,0.00041108762039003115,pep,20191219
2019-12-19,12:54,12:54 PM,,,,0,0.0,0,136.28,136.24,136.266,1793,244325.5313,16,,,136.24,136.25,,0.0003083157152924712,pep,20191219
2019-12-19,12:55,12:55 PM,136.285,136.28,136.282,300,40884.5,3,136.3,136.27,136.283,1199,163403.07,11,136.28,136.285,136.28,136.3,-0.00028608945063480514,0.00043311017148224616,pep,20191219
2019-12-19,12:56,12:56 PM,,,,0,0.0,0,136.31,136.29,136.303,2000,272605.86,18,,,136.3,136.304,,0.0005799271787644448,pep,20191219
2019-12-19,12:57,12:57 PM,136.28,136.28,136.28,5,681.4,1,136.31,136.28,136.29,2790,380250.4736,24,136.28,136.28,136.305,136.28,-0.0003007607045135879,0.0004844961240310261,pep,20191219
2019-12-19,12:58,12:58 PM,,,,0,0.0,0,136.28,136.28,136.28,108,14718.24,1,,,136.28,136.28,,0.00041108762039003115,pep,20191219
2019-12-19,12:59,12:59 PM,,,,0,0.0,0,136.283,136.254,136.265,1160,158067.932,7,,,136.283,136.28,,0.00030097486492832993,pep,20191219
2019-12-19,13:00,1 PM,,,,0,0.0,0,136.31,136.275,136.283,1600,218052.5,15,,,136.28,136.31,,0.00043311017148224616,pep,20191219
2019-12-19,13:01,1:01 PM,136.33,136.305,136.317,200,27263.5,2,136.34,136.29,136.317,2273,309849.86,12,136.305,136.33,136.305,136.32,-2.9342507757357103e-05,0.0006826990838620048,pep,20191219
2019-12-19,13:02,1:02 PM,,,,0,0.0,0,136.31,136.3,136.307,300,40892.0,3,,,136.31,136.3,,0.0006092905802208012,pep,20191219
2019-12-19,13:03,1:03 PM,,,,0,0.0,0,136.3,136.27,136.288,1000,136288.0,10,,,136.3,136.285,,0.00046981442330295235,pep,20191219
2019-12-19,13:04,1:04 PM,,,,0,0.0,0,136.3,136.27,136.28,4143,564608.13,23,,,136.285,136.3,,0.00041108762039003115,pep,20191219
2019-12-19,13:05,1:05 PM,,,,0,0.0,0,136.32,136.29,136.306,625,85191.3125,5,,,136.305,136.31,,0.0006019497298568686,pep,20191219
2019-12-19,13:06,1:06 PM,,,,0,0.0,0,136.3,136.28,136.294,1702,231972.1,15,,,136.3,136.3,,0.000513859525487591,pep,20191219
2019-12-19,13:07,1:07 PM,,,,0,0.0,0,136.31,136.27,136.295,1300,177184.0,13,,,136.29,136.28,,0.0005212003758515236,pep,20191219
2019-12-19,13:08,1:08 PM,,,,0,0.0,0,136.29,136.23,136.264,2720,370637.2,26,,,136.29,136.23,,0.00029363401456439735,pep,20191219
2019-12-19,13:09,1:09 PM,136.27,136.255,136.262,200,27252.5,2,136.28,136.25,136.256,2701,368027.75,24,136.27,136.255,136.28,136.27,-0.0004328019894220076,0.00023490721165147618,pep,20191219
2019-12-19,13:10,1:10 PM,136.26,136.26,136.26,101,13762.26,2,136.28,136.24,136.26,2401,327160.04,13,136.26,136.26,136.27,136.25,-0.0004474732433007904,0.00026427061310783245,pep,20191219
2019-12-19,13:11,1:11 PM,136.255,136.255,136.255,17,2316.335,1,136.29,136.255,136.269,810,110378.05,7,136.255,136.255,136.255,136.29,-0.0004841513779975389,0.0003303382663848949,pep,20191219
2019-12-19,13:12,1:12 PM,,,,0,0.0,0,136.285,136.28,136.281,1473,200741.44,3,,,136.285,136.28,,0.00041842847075417234,pep,20191219
2019-12-19,13:13,1:13 PM,,,,0,0.0,0,136.31,136.28,136.293,1500,204439.5,15,,,136.29,136.28,,0.0005065186751234498,pep,20191219
2019-12-19,13:14,1:14 PM,,,,0,0.0,0,136.34,136.315,136.325,1000,136324.5,10,,,136.32,136.32,,0.0007414258867747173,pep,20191219
2019-12-19,13:15,1:15 PM,,,,0,0.0,0,136.34,136.3,136.327,4518,615924.7985,33,,,136.335,136.3,,0.0007561075875029998,pep,20191219
2019-12-19,13:16,1:16 PM,,,,0,0.0,0,136.36,136.315,136.335,3147,429046.7786,28,,,136.329,136.36,,0.000814834390415921,pep,20191219
2019-12-19,13:17,1:17 PM,136.34,136.34,136.34,82,11179.88,1,136.35,136.34,136.346,903,123120.535,7,136.34,136.34,136.345,136.35,0.0001393769118478111,0.0008955837444210573,pep,20191219
2019-12-19,13:18,1:18 PM,136.345,136.345,136.345,6,818.07,1,136.36,136.34,136.348,2822,384773.53,24,136.345,136.345,136.35,136.355,0.0001760550465445596,0.0009102654451493398,pep,20191219
2019-12-19,13:19,1:19 PM,136.39,136.37,136.377,400,54551.0,4,136.4,136.355,136.382,3251,443378.77,25,136.37,136.39,136.355,136.38,0.0004107951086040419,0.0011598543575288896,pep,20191219
2019-12-19,13:20,1:20 PM,136.35,136.35,136.35,100,13635.0,1,136.36,136.32,136.347,1029,140300.9178,9,136.35,136.35,136.36,136.32,0.00021273318124130812,0.0009029245947851985,pep,20191219
2019-12-19,13:21,1:21 PM,,,,0,0.0,0,136.33,136.31,136.315,1400,190841.0,12,,,136.32,136.33,,0.0006680173831337224,pep,20191219
2019-12-19,13:22,1:22 PM,,,,0,0.0,0,136.33,136.31,136.32,1400,190848.5,14,,,136.32,136.31,,0.0007047216349542199,pep,20191219
2019-12-19,13:23,1:23 PM,,,,0,0.0,0,136.35,136.313,136.331,2132,290657.031,20,,,136.313,136.33,,0.0007854709889593561,pep,20191219
2019-12-19,13:24,1:24 PM,,,,0,0.0,0,136.31,136.29,136.304,999,136167.69,9,,,136.3,136.29,,0.0005872680291285861,pep,20191219
2019-12-19,13:25,1:25 PM,,,,0,0.0,0,136.32,136.29,136.31,1639,223412.492,11,,,136.304,136.32,,0.0006313131313132248,pep,20191219
2019-12-19,13:26,1:26 PM,,,,0,0.0,0,136.34,136.321,136.33,200,27266.06,2,,,136.34,136.321,,0.0007781301385954235,pep,20191219
2019-12-19,13:27,1:27 PM,,,,0,0.0,0,136.34,136.33,136.337,1270,173147.8,8,,,136.34,136.34,,0.0008295160911439949,pep,20191219
2019-12-19,13:28,1:28 PM,,,,0,0.0,0,136.39,136.34,136.362,1200,163633.86,11,,,136.36,136.39,,0.001013037350246691,pep,20191219
2019-12-19,13:29,1:29 PM,136.4,136.385,136.397,21,2864.34,2,136.4,136.35,136.361,3573,487218.0,15,136.4,136.385,136.4,136.37,0.0005575076473910359,0.0010056964998825498,pep,20191219
2019-12-19,13:30,1:30 PM,,,,0,0.0,0,136.38,136.35,136.354,829,113037.8084,7,,,136.38,136.35,,0.0009543105473339785,pep,20191219
2019-12-19,13:31,1:31 PM,136.37,136.37,136.37,100,13637.0,1,136.38,136.36,136.375,1000,136375.0,10,136.37,136.37,136.36,136.38,0.0003594457200285106,0.0011084684049801098,pep,20191219
2019-12-19,13:32,1:32 PM,,,,0,0.0,0,136.37,136.37,136.37,100,13637.0,1,,,136.37,136.37,,0.0010717641531596122,pep,20191219
2019-12-19,13:33,1:33 PM,136.36,136.36,136.36,100,13636.0,1,136.4,136.35,136.371,2681,365611.4539,15,136.36,136.36,136.39,136.35,0.0002860894506350136,0.0010791050035237535,pep,20191219
2019-12-19,13:34,1:34 PM,,,,0,0.0,0,136.39,136.35,136.373,1963,267700.81,19,,,136.35,136.39,,0.0010937867042518272,pep,20191219
2019-12-19,13:35,1:35 PM,,,,0,0.0,0,136.408,136.37,136.386,3726,508173.876,22,,,136.4,136.4,,0.001189217758985246,pep,20191219
2019-12-19,13:36,1:36 PM,,,,0,0.0,0,136.41,136.38,136.396,1500,204594.0,14,,,136.41,136.405,,0.001262626262626241,pep,20191219
2019-12-19,13:37,1:37 PM,,,,0,0.0,0,136.41,136.39,136.401,900,122761.0,9,,,136.4,136.39,,0.001299330514446947,pep,20191219
2019-12-19,13:38,1:38 PM,,,,0,0.0,0,136.431,136.4,136.418,4833,659308.7427,16,,,136.42,136.419,,0.0014241249706367222,pep,20191219
2019-12-19,13:39,1:39 PM,,,,0,0.0,0,136.44,136.425,136.433,1117,152395.976,8,,,136.428,136.44,,0.0015342377260982147,pep,20191219
2019-12-19,13:40,1:40 PM,,,,0,0.0,0,136.46,136.43,136.446,700,95512.0,7,,,136.445,136.445,,0.0016296687808316334,pep,20191219
2019-12-19,13:41,1:41 PM,,,,0,0.0,0,136.48,136.445,136.461,800,109168.5,7,,,136.445,136.48,,0.0017397815362933345,pep,20191219
2019-12-19,13:42,1:42 PM,,,,0,0.0,0,136.47,136.45,136.458,1735,236754.3003,9,,,136.452,136.464,,0.0017177589852009109,pep,20191219
2019-12-19,13:43,1:43 PM,,,,0,0.0,0,136.47,136.43,136.446,2068,282171.244,17,,,136.47,136.43,,0.0016296687808316334,pep,20191219
2019-12-19,13:44,1:44 PM,,,,0,0.0,0,136.44,136.41,136.431,1467,200144.5979,11,,,136.43,136.438,,0.001519556025370141,pep,20191219
2019-12-19,13:45,1:45 PM,,,,0,0.0,0,136.44,136.4,136.418,1945,265332.7995,16,,,136.41,136.42,,0.0014241249706367222,pep,20191219
2019-12-19,13:46,1:46 PM,136.42,136.42,136.42,200,27284.0,2,136.42,136.41,136.415,1287,175565.6887,12,136.42,136.42,136.42,136.42,0.0007262270669962041,0.0014021024195442985,pep,20191219
2019-12-19,13:47,1:47 PM,,,,0,0.0,0,136.44,136.41,136.42,2713,370107.187,22,,,136.43,136.419,,0.001438806671364796,pep,20191219
2019-12-19,13:48,1:48 PM,,,,0,0.0,0,136.424,136.398,136.409,1100,150049.67,11,,,136.41,136.41,,0.0013580573173596598,pep,20191219
2019-12-19,13:49,1:49 PM,136.41,136.4,136.402,167,22779.17,4,136.43,136.4,136.414,1770,241452.1468,15,136.4,136.41,136.401,136.43,0.0005941857820877844,0.0013947615691801572,pep,20191219
2019-12-19,13:50,1:50 PM,,,,0,0.0,0,136.44,136.41,136.43,900,122787.0,9,,,136.44,136.41,,0.0015122151750059996,pep,20191219
2019-12-19,13:51,1:51 PM,,,,0,0.0,0,136.433,136.4,136.416,800,109132.6,7,,,136.433,136.4,,0.0014094432699084398,pep,20191219
2019-12-19,13:52,1:52 PM,136.39,136.39,136.39,100,13639.0,1,136.42,136.39,136.404,1710,233250.1,15,136.39,136.39,136.4,136.41,0.0005061582588155047,0.0013213530655391621,pep,20191219
2019-12-19,13:53,1:53 PM,136.415,136.415,136.415,100,13641.5,1,136.455,136.415,136.439,970,132345.884,9,136.415,136.415,136.415,136.455,0.0006895489322994556,0.0015782828282828534,pep,20191219
2019-12-19,13:54,1:54 PM,136.45,136.45,136.45,100,13645.0,1,136.451,136.44,136.447,1330,181474.516,9,136.45,136.45,136.44,136.44,0.0009462958751769036,0.0016370096311957747,pep,20191219
2019-12-19,13:55,1:55 PM,136.455,136.455,136.455,100,13645.5,1,136.455,136.44,136.449,1254,171107.26,12,136.455,136.455,136.44,136.44,0.0009829740098738606,0.001651691331924057,pep,20191219
2019-12-19,13:56,1:56 PM,136.465,136.43,136.435,46,6276.025,2,136.46,136.44,136.446,1883,256928.0409,8,136.43,136.465,136.44,136.46,0.0008362614710866581,0.0016296687808316334,pep,20191219
2019-12-19,13:57,1:57 PM,136.51,136.475,136.492,207,28253.93,3,136.52,136.47,136.501,3400,464103.5,30,136.475,136.51,136.47,136.52,0.001254392206629883,0.0020334155508575234,pep,20191219
2019-12-19,13:58,1:58 PM,136.515,136.51,136.51,102,13924.03,2,136.53,136.51,136.517,907,123820.7847,7,136.51,136.515,136.52,136.515,0.0013864334915383027,0.002150869156683157,pep,20191219
2019-12-19,13:59,1:59 PM,136.53,136.53,136.53,100,13653.0,1,136.55,136.52,136.532,1000,136532.0,10,136.53,136.53,136.53,136.53,0.0015331460303255051,0.0022609819121448584,pep,20191219
2019-12-19,14:00,2 PM,136.53,136.525,136.53,236,32220.97,4,136.55,136.5,136.521,2695,367925.3,25,136.53,136.525,136.55,136.5,0.0015331460303255051,0.002180232558139513,pep,20191219
2019-12-19,14:01,2:01 PM,136.5,136.5,136.5,17,2320.5,1,136.51,136.49,136.501,1845,251843.76,14,136.5,136.5,136.5,136.5,0.0013130772221448055,0.0020334155508575234,pep,20191219
2019-12-19,14:02,2:02 PM,,,,0,0.0,0,136.52,136.5,136.512,600,81907.0,6,,,136.52,136.5,,0.0021141649048626596,pep,20191219
2019-12-19,14:03,2:03 PM,136.53,136.51,136.52,200,27304.0,2,136.54,136.5,136.525,2530,345408.3071,17,136.51,136.53,136.51,136.54,0.0014597897609320081,0.0022095959595960783,pep,20191219
2019-12-19,14:04,2:04 PM,,,,0,0.0,0,136.55,136.52,136.535,400,54614.0,3,,,136.55,136.52,,0.002283004463237073,pep,20191219
2019-12-19,14:05,2:05 PM,,,,0,0.0,0,136.57,136.54,136.549,2800,382337.0,26,,,136.54,136.55,,0.0023857763683346332,pep,20191219
2019-12-19,14:06,2:06 PM,136.56,136.56,136.56,100,13656.0,1,136.57,136.52,136.556,1773,242113.61,16,136.56,136.56,136.57,136.52,0.0017532148385062047,0.0024371623208834133,pep,20191219
2019-12-19,14:07,2:07 PM,136.52,136.515,136.519,110,15017.15,2,136.53,136.49,136.514,2800,382239.0,26,136.52,136.515,136.51,136.52,0.0014524541339926166,0.002128846605590942,pep,20191219
2019-12-19,14:08,2:08 PM,136.485,136.48,136.482,200,27296.5,3,136.53,136.48,136.5,1968,268632.41,18,136.485,136.48,136.53,136.48,0.001181035937236386,0.002026074700493382,pep,20191219
2019-12-19,14:09,2:09 PM,136.445,136.43,136.445,102,13917.36,2,136.47,136.4,136.445,2031,277119.82,16,136.445,136.43,136.46,136.4,0.0009096177404801551,0.0016223279304674921,pep,20191219
2019-12-19,14:10,2:10 PM,136.39,136.38,136.385,370,50462.3,4,136.41,136.38,136.392,3624,494285.5632,31,136.39,136.38,136.41,136.38,0.0004694801241187561,0.0012332628611698847,pep,20191219
2019-12-19,14:11,2:11 PM,136.3,136.3,136.3,100,13630.0,1,136.37,136.29,136.345,1593,217198.41,12,136.3,136.3,136.37,136.29,-0.00015404816572638541,0.0008882428940569161,pep,20191219
2019-12-19,14:12,2:12 PM,136.32,136.32,136.32,208,28354.56,3,136.33,136.28,136.311,3361,458140.06,27,136.32,136.32,136.306,136.31,-7.335626939391399e-06,0.000638653981677366,pep,20191219
2019-12-19,14:13,2:13 PM,,,,0,0.0,0,136.35,136.28,136.321,4370,595720.7,36,,,136.295,136.32,,0.0007120624853183611,pep,20191219
2019-12-19,14:14,2:14 PM,136.305,136.305,136.305,1,136.305,1,136.32,136.29,136.311,2393,326193.5,17,136.305,136.305,136.32,136.31,-0.0001173700310296369,0.000638653981677366,pep,20191219
2019-12-19,14:15,2:15 PM,136.305,136.295,136.3,216,29440.88,2,136.305,136.28,136.293,1338,182360.26,11,136.305,136.295,136.305,136.29,-0.00015404816572638541,0.0005065186751234498,pep,20191219
2019-12-19,14:16,2:16 PM,136.3,136.295,136.297,300,40889.0,3,136.3,136.28,136.296,2807,382581.48,19,136.295,136.3,136.29,136.28,-0.0001760550465445596,0.0005285412262156649,pep,20191219
2019-12-19,14:17,2:17 PM,136.27,136.27,136.27,13,1771.51,1,136.275,136.25,136.267,1586,216119.0312,13,136.27,136.27,136.27,136.258,-0.00037411697390708494,0.0003156565656566124,pep,20191219
2019-12-19,14:18,2:18 PM,136.245,136.245,136.245,100,13624.5,1,136.25,136.24,136.245,2718,370314.191,22,136.245,136.245,136.24,136.246,-0.0005575076473910359,0.00015415785764633991,pep,20191219
2019-12-19,14:19,2:19 PM,136.23,136.23,136.23,2,272.46,1,136.24,136.22,136.231,2300,313332.14,22,136.23,136.23,136.24,136.23,-0.0006675420514814899,5.138595254877997e-05,pep,20191219
2019-12-19,14:20,2:20 PM,136.3,136.25,136.277,203,27664.25,3,136.3,136.22,136.261,4108,559758.5659,30,136.25,136.3,136.24,136.3,-0.0003227675853317621,0.0002716114634719737,pep,20191219
2019-12-19,14:21,2:21 PM,,,,0,0.0,0,136.314,136.28,136.296,1232,167916.56,10,,,136.29,136.31,,0.0005285412262156649,pep,20191219
2019-12-19,14:22,2:22 PM,136.33,136.315,136.322,307,41850.81,4,136.33,136.3,136.301,102827,14015386.8369,31,136.33,136.325,136.31,136.33,7.335626939391399e-06,0.0005652454780361624,pep,20191219
2019-12-19,14:23,2:23 PM,136.34,136.34,136.34,1,136.34,1,136.38,136.35,136.373,1200,163647.0,11,136.34,136.34,136.35,136.38,0.0001393769118478111,0.0010937867042518272,pep,20191219
2019-12-19,14:24,2:24 PM,136.43,136.39,136.405,362,49378.72,5,136.43,136.39,136.411,3649,497764.7356,25,136.39,136.425,136.39,136.43,0.0006161926629059586,0.0013727390180879422,pep,20191219
2019-12-19,14:25,2:25 PM,136.39,136.39,136.39,200,27278.0,2,136.43,136.39,136.402,3164,431576.6,26,136.39,136.39,136.43,136.39,0.0005061582588155047,0.0013066713648108798,pep,20191219
2019-12-19,14:26,2:26 PM,,,,0,0.0,0,136.397,136.37,136.383,1277,174161.8251,11,,,136.39,136.387,,0.001167195207893031,pep,20191219
2019-12-19,14:27,2:27 PM,136.395,136.39,136.393,200,27278.5,2,136.4,136.38,136.388,2000,272776.5,18,136.39,136.395,136.38,136.39,0.0005281651396336788,0.0012038994597135286,pep,20191219
2019-12-19,14:28,2:28 PM,136.39,136.38,136.384,262,35732.56,3,136.4,136.36,136.378,4200,572789.5,36,136.38,136.38,136.37,136.36,0.00046214449717936473,0.0011304909560723249,pep,20191219
2019-12-19,14:29,2:29 PM,136.36,136.35,136.355,400,54542.0,4,136.372,136.34,136.356,3760,512697.9102,23,136.35,136.36,136.35,136.357,0.0002494113159380566,0.0009689922480620522,pep,20191219
2019-12-19,14:30,2:30 PM,136.37,136.37,136.37,100,13637.0,1,136.38,136.34,136.366,600,81819.5,6,136.37,136.37,136.34,136.355,0.0003594457200285106,0.001042400751703256,pep,20191219
2019-12-19,14:31,2:31 PM,136.375,136.355,136.368,300,40910.5,3,136.38,136.35,136.365,2100,286366.5,19,136.355,136.375,136.36,136.37,0.0003447744661497278,0.0010350599013391147,pep,20191219
2019-12-19,14:32,2:32 PM,136.39,136.37,136.377,300,40913.0,3,136.39,136.36,136.378,1721,234705.98,14,136.37,136.39,136.38,136.37,0.0004107951086040419,0.0011304909560723249,pep,20191219
2019-12-19,14:33,2:33 PM,136.385,136.38,136.384,452,61645.76,5,136.385,136.38,136.384,909,123972.92,9,136.38,136.385,136.385,136.385,0.00046214449717936473,0.0011745360582569636,pep,20191219
2019-12-19,14:34,2:34 PM,136.39,136.385,136.385,305,41597.45,4,136.39,136.37,136.38,2790,380501.2,27,136.385,136.39,136.385,136.39,0.0004694801241187561,0.0011451726568006072,pep,20191219
2019-12-19,14:35,2:35 PM,136.43,136.39,136.41,200,27282.0,2,136.43,136.38,136.405,800,109124.0,8,136.39,136.43,136.39,136.43,0.0006528707976027071,0.0013286939159033034,pep,20191219
2019-12-19,14:36,2:36 PM,136.43,136.395,136.413,338,46107.7,4,136.44,136.38,136.408,2699,368166.08,25,136.43,136.4,136.44,136.38,0.0006748776784208813,0.0013507164669955185,pep,20191219
2019-12-19,14:37,2:37 PM,136.4,136.38,136.385,400,54554.0,4,136.4,136.38,136.387,1200,163665.0,12,136.38,136.4,136.38,136.4,0.0004694801241187561,0.0011965586093493873,pep,20191219
2019-12-19,14:38,2:38 PM,136.43,136.39,136.399,427,58242.585,6,136.43,136.39,136.402,2402,327637.28,23,136.405,136.395,136.405,136.395,0.0005721789012698188,0.0013066713648108798,pep,20191219
2019-12-19,14:39,2:39 PM,136.39,136.39,136.39,100,13639.0,1,136.39,136.38,136.387,2202,300324.1274,17,136.39,136.39,136.39,136.386,0.0005061582588155047,0.0011965586093493873,pep,20191219
2019-12-19,14:40,2:40 PM,,,,0,0.0,0,136.39,136.37,136.38,1185,161610.1395,8,,,136.38,136.381,,0.0011451726568006072,pep,20191219
2019-12-19,14:41,2:41 PM,136.39,136.365,136.382,600,81829.5,6,136.39,136.365,136.379,1805,246164.35,18,136.38,136.38,136.38,136.38,0.0004474732433007904,0.001137831806436466,pep,20191219
2019-12-19,14:42,2:42 PM,,,,0,0.0,0,136.38,136.355,136.364,2352,320727.628,22,,,136.38,136.37,,0.0010277190509749734,pep,20191219
2019-12-19,14:43,2:43 PM,136.39,136.37,136.38,300,40914.0,3,136.39,136.37,136.382,1500,204573.0,14,136.37,136.39,136.37,136.39,0.0004328019894220076,0.0011598543575288896,pep,20191219
2019-12-19,14:44,2:44 PM,136.415,136.4,136.407,209,28509.1,3,136.43,136.38,136.408,5165,704546.0907,27,136.4,136.415,136.38,136.42,0.0006308639167847414,0.0013507164669955185,pep,20191219
2019-12-19,14:45,2:45 PM,136.41,136.41,136.41,1,136.41,1,136.41,136.38,136.397,3051,416146.5546,23,136.41,136.41,136.41,136.39,0.0006528707976027071,0.0012699671129903823,pep,20191219
2019-12-19,14:46,2:46 PM,136.41,136.405,136.407,200,27281.5,2,136.42,136.4,136.41,2284,311561.0188,20,136.405,136.41,136.41,136.407,0.0006308639167847414,0.0013653981677238009,pep,20191219
2019-12-19,14:47,2:47 PM,136.41,136.38,136.399,107,14594.72,3,136.4,136.368,136.386,1512,206216.0676,12,136.41,136.38,136.4,136.368,0.0005721789012698188,0.001189217758985246,pep,20191219
2019-12-19,14:48,2:48 PM,136.4,136.4,136.4,1,136.4,1,136.41,136.37,136.39,3415,465771.926,23,136.4,136.4,136.37,136.41,0.0005795145282092101,0.0012185811604416023,pep,20191219
2019-12-19,14:49,2:49 PM,136.45,136.4,136.425,200,27285.0,2,136.45,136.39,136.417,3100,422893.5,27,136.4,136.45,136.39,136.43,0.0007629052016931611,0.0014167841202725809,pep,20191219
2019-12-19,14:50,2:50 PM,136.425,136.425,136.425,100,13642.5,1,136.44,136.41,136.423,1511,206134.51,14,136.425,136.425,136.43,136.42,0.0007629052016931611,0.0014608292224572196,pep,20191219
2019-12-19,14:51,2:51 PM,,,,0,0.0,0,136.41,136.39,136.4,1800,245520.0,17,,,136.41,136.39,,0.001291989664082806,pep,20191219
2019-12-19,14:52,2:52 PM,136.41,136.41,136.41,120,16369.2,2,136.42,136.4,136.405,2017,275128.768,15,136.41,136.41,136.41,136.405,0.0006528707976027071,0.0013286939159033034,pep,20191219
2019-12-19,14:53,2:53 PM,,,,0,0.0,0,136.421,136.39,136.407,1600,218251.05,16,,,136.4,136.41,,0.001343375616631586,pep,20191219
2019-12-19,14:54,2:54 PM,136.45,136.43,136.449,105,14327.15,4,136.45,136.4,136.436,1724,235216.58,15,136.43,136.45,136.4,136.44,0.0009389602482377207,0.0015562602771906383,pep,20191219
2019-12-19,14:55,2:55 PM,136.46,136.46,136.46,100,13646.0,1,136.47,136.44,136.456,2762,376891.66,23,136.46,136.46,136.44,136.46,0.0010196521445706092,0.0017030772844726285,pep,20191219
2019-12-19,14:56,2:56 PM,,,,0,0.0,0,136.47,136.44,136.45,1434,195669.4568,13,,,136.44,136.44,,0.0016590321822879898,pep,20191219
2019-12-19,14:57,2:57 PM,,,,0,0.0,0,136.45,136.43,136.443,1500,204664.954,10,,,136.44,136.448,,0.0016076462297394184,pep,20191219
2019-12-19,14:58,2:58 PM,136.46,136.45,136.455,200,27291.0,2,136.47,136.45,136.458,2800,382084.0,26,136.45,136.46,136.45,136.47,0.0009829740098738606,0.0017177589852009109,pep,20191219
2019-12-19,14:59,2:59 PM,136.47,136.45,136.464,244,33297.23,5,136.49,136.45,136.468,2694,367645.18,22,136.47,136.46,136.47,136.47,0.0010489946523279663,0.001791167488841906,pep,20191219
2019-12-19,15:00,3 PM,,,,0,0.0,0,136.47,136.45,136.461,2083,284248.18,19,,,136.47,136.46,,0.0017397815362933345,pep,20191219
2019-12-19,15:01,3:01 PM,136.44,136.44,136.44,1,136.44,1,136.47,136.43,136.446,1934,263886.9124,16,136.44,136.44,136.47,136.45,0.0008729396057834066,0.0016296687808316334,pep,20191219
2019-12-19,15:02,3:02 PM,,,,0,0.0,0,136.43,136.421,136.428,1185,161666.871,10,,,136.43,136.421,,0.0014975334742777173,pep,20191219
2019-12-19,15:03,3:03 PM,136.46,136.425,136.426,102,13915.42,2,136.47,136.42,136.444,4485,611952.9002,37,136.425,136.46,136.42,136.44,0.000770240828632344,0.001614987080103351,pep,20191219
2019-12-19,15:04,3:04 PM,136.455,136.44,136.447,200,27289.5,2,136.455,136.43,136.447,2431,331702.987,16,136.44,136.455,136.43,136.445,0.000924288994358938,0.0016370096311957747,pep,20191219
2019-12-19,15:05,3:05 PM,136.45,136.45,136.45,100,13645.0,1,136.46,136.44,136.452,2554,348498.25,22,136.45,136.45,136.44,136.46,0.0009462958751769036,0.0016737138830162721,pep,20191219
2019-12-19,15:06,3:06 PM,136.47,136.47,136.47,105,14329.35,2,136.48,136.45,136.47,2205,300916.35,15,136.47,136.47,136.45,136.48,0.0010930084139641062,0.0018058491895701883,pep,20191219
2019-12-19,15:07,3:07 PM,136.49,136.47,136.478,497,67829.59,5,136.49,136.45,136.468,3229,440655.878,31,136.49,136.47,136.49,136.45,0.0011516934294790288,0.001791167488841906,pep,20191219
2019-12-19,15:08,3:08 PM,136.44,136.44,136.44,100,13644.0,1,136.47,136.44,136.456,1900,259266.01,16,136.44,136.44,136.45,136.45,0.0008729396057834066,0.0017030772844726285,pep,20191219
2019-12-19,15:09,3:09 PM,136.425,136.41,136.416,220,30011.5,3,136.46,136.41,136.43,3078,419930.7948,19,136.42,136.41,136.45,136.41,0.000696884559238847,0.0015122151750059996,pep,20191219
2019-12-19,15:10,3:10 PM,,,,0,0.0,0,136.435,136.41,136.419,2595,354008.265,22,,,136.41,136.41,,0.0014314658210008635,pep,20191219
2019-12-19,15:11,3:11 PM,136.41,136.4,136.405,200,27281.0,2,136.413,136.39,136.401,2815,383968.248,17,136.41,136.4,136.41,136.4,0.0006161926629059586,0.001299330514446947,pep,20191219
2019-12-19,15:12,3:12 PM,136.42,136.42,136.42,1,136.42,1,136.42,136.4,136.407,2299,313599.59,20,136.42,136.42,136.41,136.41,0.0007262270669962041,0.001343375616631586,pep,20191219
2019-12-19,15:13,3:13 PM,136.42,136.4,136.4,101,13776.42,2,136.41,136.39,136.402,1575,214833.115,11,136.42,136.4,136.41,136.405,0.0005795145282092101,0.0013066713648108798,pep,20191219
2019-12-19,15:14,3:14 PM,,,,0,0.0,0,136.41,136.39,136.405,2937,400621.3428,17,,,136.4,136.4,,0.0013286939159033034,pep,20191219
2019-12-19,15:15,3:15 PM,136.385,136.385,136.385,100,13638.5,1,136.41,136.37,136.38,3031,413366.86,26,136.385,136.385,136.4,136.37,0.0004694801241187561,0.0011451726568006072,pep,20191219
2019-12-19,15:16,3:16 PM,136.37,136.36,136.37,101,13773.36,2,136.39,136.36,136.371,2705,368883.4,26,136.37,136.36,136.37,136.37,0.0003594457200285106,0.0010791050035237535,pep,20191219
2019-12-19,15:17,3:17 PM,136.34,136.34,136.34,100,13634.0,1,136.37,136.34,136.355,1145,156125.91,11,136.34,136.34,136.37,136.34,0.0001393769118478111,0.0009616513976979111,pep,20191219
2019-12-19,15:18,3:18 PM,136.335,136.325,136.328,237,32309.845,5,136.34,136.32,136.329,2491,339596.5933,23,136.325,136.325,136.33,136.325,5.13493885755313e-05,0.0007707892882312823,pep,20191219
2019-12-19,15:19,3:19 PM,136.36,136.34,136.35,200,27270.0,2,136.36,136.325,136.34,2416,329397.97,19,136.34,136.36,136.33,136.35,0.00021273318124130812,0.0008515386422364186,pep,20191219
2019-12-19,15:20,3:20 PM,136.36,136.35,136.355,200,27271.0,2,136.36,136.33,136.346,3979,542523.04,36,136.35,136.36,136.35,136.36,0.0002494113159380566,0.0008955837444210573,pep,20191219
2019-12-19,15:21,3:21 PM,136.35,136.35,136.35,100,13635.0,1,136.36,136.315,136.341,2795,381072.141,25,136.35,136.35,136.36,136.32,0.00021273318124130812,0.0008588794926005597,pep,20191219
2019-12-19,15:22,3:22 PM,136.325,136.305,136.313,300,40894.0,3,136.33,136.3,136.321,2950,402146.795,27,136.325,136.305,136.32,136.32,-5.86850155149227e-05,0.0007120624853183611,pep,20191219
2019-12-19,15:23,3:23 PM,,,,0,0.0,0,136.31,136.29,136.298,1600,218076.0,14,,,136.31,136.29,,0.0005432229269439474,pep,20191219
2019-12-19,15:24,3:24 PM,136.28,136.24,136.26,238,32429.88,3,136.295,136.24,136.264,2879,392305.378,26,136.28,136.24,136.295,136.256,-0.0004474732433007904,0.00029363401456439735,pep,20191219
2019-12-19,15:25,3:25 PM,136.28,136.28,136.28,100,13628.0,1,136.29,136.26,136.275,2813,383341.328,26,136.28,136.28,136.26,136.28,-0.0003007607045135879,0.0003743833685695336,pep,20191219
2019-12-19,15:26,3:26 PM,136.29,136.29,136.29,200,27258.0,2,136.305,136.29,136.295,2390,325744.6,23,136.29,136.29,136.29,136.3,-0.0002274044351200909,0.0005212003758515236,pep,20191219
2019-12-19,15:27,3:27 PM,136.3,136.3,136.3,200,27260.0,2,136.3,136.28,136.291,3543,482878.7268,32,136.3,136.3,136.3,136.285,-0.00015404816572638541,0.0004918369743951674,pep,20191219
2019-12-19,15:28,3:28 PM,136.295,136.28,136.288,300,40886.5,3,136.31,136.28,136.292,4864,662925.9268,44,136.28,136.295,136.3,136.31,-0.0002420756889986652,0.0004991778247593087,pep,20191219
2019-12-19,15:29,3:29 PM,136.235,136.21,136.222,200,27244.5,2,136.3,136.21,136.261,6751,919901.215,54,136.235,136.21,136.3,136.21,-0.0007262270669962041,0.0002716114634719737,pep,20191219
2019-12-19,15:30,3:30 PM,136.24,136.23,136.233,312,42504.88,5,136.25,136.209,136.227,3622,493415.004,23,136.24,136.23,136.209,136.23,-0.0006455351706633158,2.202255109242369e-05,pep,20191219
2019-12-19,15:31,3:31 PM,136.23,136.23,136.23,200,27246.0,2,136.24,136.21,136.223,4173,568460.4122,29,136.23,136.23,136.22,136.22,-0.0006675420514814899,-7.340850363932591e-06,pep,20191219
2019-12-19,15:32,3:32 PM,136.25,136.225,136.237,500,68118.5,5,136.26,136.22,136.241,3721,506953.3173,32,136.225,136.25,136.23,136.26,-0.0006161926629059586,0.00012479445618998364,pep,20191219
2019-12-19,15:33,3:33 PM,136.26,136.215,136.247,211,28748.065,6,136.26,136.215,136.242,4717,642652.782,41,136.26,136.215,136.26,136.23,-0.0005428363935122532,0.00013213530655391623,pep,20191219
2019-12-19,15:34,3:34 PM,136.24,136.235,136.236,269,36647.56,3,136.24,136.22,136.228,2100,286079.23,20,136.235,136.24,136.235,136.24,-0.00062352828984535,2.936340145656492e-05,pep,20191219
2019-12-19,15:35,3:35 PM,136.255,136.24,136.25,201,27386.24,4,136.25,136.23,136.243,3422,466223.2602,29,136.255,136.245,136.24,136.24,-0.0005208295126942874,0.00013947615691805746,pep,20191219
2019-12-19,15:36,3:36 PM,136.235,136.21,136.21,201,27378.235,3,136.25,136.205,136.222,4433,603874.42,40,136.235,136.21,136.25,136.21,-0.0008142545902684839,-1.4681700728073821e-05,pep,20191219
2019-12-19,15:37,3:37 PM,,,,0,0.0,0,136.23,136.2,136.214,4549,619637.0664,37,,,136.205,136.21,,-7.340850364099502e-05,pep,20191219
2019-12-19,15:38,3:38 PM,136.23,136.225,136.23,202,27518.45,3,136.24,136.19,136.223,4468,608643.08,35,136.225,136.23,136.22,136.19,-0.0006675420514814899,-7.340850363932591e-06,pep,20191219
2019-12-19,15:39,3:39 PM,136.2,136.18,136.19,321,43716.99,4,136.21,136.18,136.193,4328,589444.0051,40,136.2,136.18,136.19,136.18,-0.0009609671290556865,-0.00022756636128712628,pep,20191219
2019-12-19,15:40,3:40 PM,136.21,136.19,136.204,504,68646.82,6,136.23,136.19,136.212,7300,994349.5,67,136.19,136.205,136.2,136.23,-0.0008582683519046239,-8.809020436927749e-05,pep,20191219
2019-12-19,15:41,3:41 PM,136.235,136.215,136.225,323,44000.575,5,136.24,136.205,136.225,2803,381839.2682,26,136.215,136.235,136.205,136.224,-0.0007042201861782384,7.34085036414123e-06,pep,20191219
2019-12-19,15:42,3:42 PM,136.215,136.215,136.215,100,13621.5,1,136.23,136.21,136.216,2650,360971.5,23,136.215,136.215,136.22,136.21,-0.0007775764555717354,-5.872680291271256e-05,pep,20191219
2019-12-19,15:43,3:43 PM,136.2,136.19,136.191,107,14572.4,3,136.2,136.185,136.194,2634,358735.94,24,136.2,136.19,136.2,136.185,-0.0009536315021162951,-0.0002202255109231937,pep,20191219
2019-12-19,15:44,3:44 PM,136.2,136.195,136.196,5,680.98,2,136.2,136.18,136.193,2861,389647.7105,25,136.2,136.195,136.19,136.19,-0.0009169533674195465,-0.00022756636128712628,pep,20191219
2019-12-19,15:45,3:45 PM,136.175,136.165,136.168,204,27778.2,3,136.18,136.16,136.172,2368,322454.6078,23,136.175,136.165,136.18,136.165,-0.0011223509217214633,-0.0003817242189334662,pep,20191219
2019-12-19,15:46,3:46 PM,136.17,136.155,136.161,413,56234.645,7,136.17,136.13,136.155,4330,589552.7403,38,136.17,136.155,136.17,136.13,-0.0011737003102969944,-0.0005065186751232412,pep,20191219
2019-12-19,15:47,3:47 PM,136.115,136.115,136.115,100,13611.5,1,136.142,136.11,136.124,3028,412182.4295,23,136.115,136.115,136.12,136.11,-0.0015111391495073309,-0.0007340850364105761,pep,20191219
2019-12-19,15:48,3:48 PM,136.135,136.125,136.129,400,54451.5,6,136.14,136.12,136.13,3707,504633.3135,33,136.135,136.125,136.135,136.13,-0.0014084403723564768,-0.0006900399342259374,pep,20191219
2019-12-19,15:49,3:49 PM,,,,0,0.0,0,136.168,136.13,136.142,4549,619311.7491,40,,,136.13,136.15,,-0.0006019497298566599,pep,20191219
2019-12-19,15:50,3:50 PM,136.16,136.07,136.082,1417,192828.315,11,136.25,136.04,136.143,21926,2985081.595,169,136.145,136.16,136.15,136.25,-0.0017532148385062047,-0.0005946088794925187,pep,20191219
2019-12-19,15:51,3:51 PM,136.27,136.205,136.235,1174,159940.4,8,136.28,136.21,136.242,14837,2021427.6927,98,136.22,136.26,136.24,136.26,-0.0006308639167845329,0.00013213530655391623,pep,20191219
2019-12-19,15:52,3:52 PM,136.26,136.25,136.26,255,34746.28,4,136.28,136.245,136.261,6983,951511.5408,62,136.25,136.26,136.27,136.27,-0.0004474732433007904,0.0002716114634719737,pep,20191219
2019-12-19,15:53,3:53 PM,136.33,136.305,136.317,200,27263.46,3,136.32,136.25,136.293,11250,1533296.36,85,136.31,136.33,136.25,136.32,-2.9342507757357103e-05,0.0005065186751234498,pep,20191219
2019-12-19,15:54,3:54 PM,136.425,136.295,136.352,2808,382875.31,29,136.44,136.28,136.367,59396,8099631.7824,403,136.34,136.425,136.33,136.375,0.0002274044351200909,0.0010497416020671885,pep,20191219
2019-12-19,15:55,3:55 PM,136.42,136.38,136.395,500,68197.5,5,136.45,136.37,136.404,18104,2469455.76,131,136.38,136.42,136.39,136.42,0.0005428363935124616,0.0013213530655391621,pep,20191219
2019-12-19,15:56,3:56 PM,136.35,136.335,136.344,402,54810.19,5,136.42,136.335,136.35,8953,1220738.5631,77,136.35,136.345,136.42,136.35,0.0001687194196051682,0.0009249471458774135,pep,20191219
2019-12-19,15:57,3:57 PM,136.4,136.345,136.373,1112,151646.485,13,136.4,136.335,136.37,14701,2004775.46,111,136.345,136.4,136.34,136.39,0.0003814526008464763,0.0010717641531596122,pep,20191219
2019-12-19,15:58,3:58 PM,136.4,136.375,136.391,703,95882.67,8,136.41,136.37,136.388,21803,2973679.5,168,136.385,136.4,136.38,136.395,0.000513493885754896,0.0012038994597135286,pep,20191219
2019-12-19,15:59,3:59 PM,136.47,136.4,136.438,1200,163725.5,11,136.5,136.395,136.458,66871,9125055.5234,366,136.4,136.425,136.395,136.46,0.0008582683519046239,0.0017177589852009109,pep,20191219
