date,minute,label,high,low,average,volume,notional,numberOfTrades,marketHigh,marketLow,marketAverage,marketVolume,marketNotional,marketNumberOfTrades,open,close,marketOpen,marketClose,changeOverTime,marketChangeOverTime,tickerName,tickerDate
2019-11-29,09:30,09:30 AM,,,,0,0,0,26.11,26.11,26.11,1152,30078.72,1,,,26.11,26.11,,0.0,via,20191129
2019-11-29,09:31,09:31 AM,,,,0,0,0,26.01,26.01,26.01,200,5202.0,2,,,26.01,26.01,,-0.00382995021064718,via,20191129
2019-11-29,09:32,09:32 AM,,,,0,0,0,,,,0,0.0,0,,,,,,,via,20191129
2019-11-29,09:33,09:33 AM,,,,0,0,0,,,,0,0.0,0,,,,,,,via,20191129
2019-11-29,09:34,09:34 AM,,,,0,0,0,,,,0,0.0,0,,,,,,,via,20191129
2019-11-29,09:35,09:35 AM,,,,0,0,0,26.01,26.01,26.01,200,5202.0,2,,,26.01,26.01,,-0.00382995021064718,via,20191129
2019-11-29,09:36,09:36 AM,,,,0,0,0,,,,0,0.0,0,,,,,,,via,20191129
2019-11-29,09:37,09:37 AM,,,,0,0,0,,,,0,0.0,0,,,,,,,via,20191129
2019-11-29,09:38,09:38 AM,,,,0,0,0,,,,0,0.0,0,,,,,,,via,20191129
2019-11-29,09:39,09:39 AM,,,,0,0,0,,,,0,0.0,0,,,,,,,via,20191129
2019-11-29,09:40,09:40 AM,,,,0,0,0,,,,0,0.0,0,,,,,,,via,20191129
2019-11-29,09:41,09:41 AM,,,,0,0,0,,,,0,0.0,0,,,,,,,via,20191129
2019-11-29,09:42,09:42 AM,,,,0,0,0,,,,0,0.0,0,,,,,,,via,20191129
2019-11-29,09:43,09:43 AM,,,,0,0,0,26.02,26.02,26.02,100,2602.0,1,,,26.02,26.02,,-0.00344695518958253,via,20191129
2019-11-29,09:44,09:44 AM,,,,0,0,0,,,,0,0.0,0,,,,,,,via,20191129
2019-11-29,09:45,09:45 AM,,,,0,0,0,,,,0,0.0,0,,,,,,,via,20191129
2019-11-29,09:46,09:46 AM,,,,0,0,0,,,,0,0.0,0,,,,,,,via,20191129
2019-11-29,09:47,09:47 AM,,,,0,0,0,,,,0,0.0,0,,,,,,,via,20191129
2019-11-29,09:48,09:48 AM,,,,0,0,0,,,,0,0.0,0,,,,,,,via,20191129
2019-11-29,09:49,09:49 AM,,,,0,0,0,,,,0,0.0,0,,,,,,,via,20191129
2019-11-29,09:50,09:50 AM,,,,0,0,0,,,,0,0.0,0,,,,,,,via,20191129
2019-11-29,09:51,09:51 AM,,,,0,0,0,,,,0,0.0,0,,,,,,,via,20191129
2019-11-29,09:52,09:52 AM,,,,0,0,0,,,,0,0.0,0,,,,,,,via,20191129
2019-11-29,09:53,09:53 AM,,,,0,0,0,,,,0,0.0,0,,,,,,,via,20191129
2019-11-29,09:54,09:54 AM,,,,0,0,0,,,,0,0.0,0,,,,,,,via,20191129
2019-11-29,09:55,09:55 AM,,,,0,0,0,,,,0,0.0,0,,,,,,,via,20191129
2019-11-29,09:56,09:56 AM,,,,0,0,0,,,,0,0.0,0,,,,,,,via,20191129
2019-11-29,09:57,09:57 AM,,,,0,0,0,,,,0,0.0,0,,,,,,,via,20191129
2019-11-29,09:58,09:58 AM,,,,0,0,0,26.165,26.165,26.165,500,13082.65,1,,,26.165,26.165,,0.002106472615855983,via,20191129
2019-11-29,09:59,09:59 AM,,,,0,0,0,,,,0,0.0,0,,,,,,,via,20191129
2019-11-29,10:00,10 AM,,,,0,0,0,26.189,26.189,26.189,100,2618.93,1,,,26.189,26.189,,0.0030256606664113605,via,20191129
2019-11-29,10:01,10:01 AM,,,,0,0,0,26.13,26.13,26.13,156,4076.28,1,,,26.13,26.13,,0.000765990042129436,via,20191129
2019-11-29,10:02,10:02 AM,,,,0,0,0,,,,0,0.0,0,,,,,,,via,20191129
2019-11-29,10:03,10:03 AM,,,,0,0,0,26.13,26.13,26.13,400,10452.0,4,,,26.13,26.13,,0.000765990042129436,via,20191129
2019-11-29,10:04,10:04 AM,,,,0,0,0,,,,0,0.0,0,,,,,,,via,20191129
2019-11-29,10:05,10:05 AM,,,,0,0,0,,,,0,0.0,0,,,,,,,via,20191129
2019-11-29,10:06,10:06 AM,,,,0,0,0,,,,0,0.0,0,,,,,,,via,20191129
2019-11-29,10:07,10:07 AM,,,,0,0,0,,,,0,0.0,0,,,,,,,via,20191129
2019-11-29,10:08,10:08 AM,,,,0,0,0,,,,0,0.0,0,,,,,,,via,20191129
2019-11-29,10:09,10:09 AM,,,,0,0,0,26.13,26.13,26.13,100,2613.0,1,,,26.13,26.13,,0.000765990042129436,via,20191129
2019-11-29,10:10,10:10 AM,,,,0,0,0,,,,0,0.0,0,,,,,,,via,20191129
2019-11-29,10:11,10:11 AM,,,,0,0,0,26.19,26.19,26.19,400,10475.84,1,,,26.19,26.19,,0.00306396016851788,via,20191129
2019-11-29,10:12,10:12 AM,,,,0,0,0,,,,0,0.0,0,,,,,,,via,20191129
2019-11-29,10:13,10:13 AM,,,,0,0,0,,,,0,0.0,0,,,,,,,via,20191129
2019-11-29,10:14,10:14 AM,,,,0,0,0,,,,0,0.0,0,,,,,,,via,20191129
2019-11-29,10:15,10:15 AM,,,,0,0,0,26.219,26.196,26.203,585,15328.9335,2,,,26.196,26.219,,0.003561853695901952,via,20191129
2019-11-29,10:16,10:16 AM,,,,0,0,0,26.17,26.17,26.17,100,2617.0,1,,,26.17,26.17,,0.0022979701263884443,via,20191129
2019-11-29,10:17,10:17 AM,,,,0,0,0,,,,0,0.0,0,,,,,,,via,20191129
2019-11-29,10:18,10:18 AM,,,,0,0,0,,,,0,0.0,0,,,,,,,via,20191129
2019-11-29,10:19,10:19 AM,,,,0,0,0,,,,0,0.0,0,,,,,,,via,20191129
2019-11-29,10:20,10:20 AM,,,,0,0,0,,,,0,0.0,0,,,,,,,via,20191129
2019-11-29,10:21,10:21 AM,,,,0,0,0,,,,0,0.0,0,,,,,,,via,20191129
2019-11-29,10:22,10:22 AM,,,,0,0,0,26.28,26.26,26.267,1490,39137.35,7,,,26.28,26.26,,0.006013021830716202,via,20191129
2019-11-29,10:23,10:23 AM,,,,0,0,0,26.26,26.26,26.26,100,2626.0,1,,,26.26,26.26,,0.005744925315970974,via,20191129
2019-11-29,10:24,10:24 AM,,,,0,0,0,,,,0,0.0,0,,,,,,,via,20191129
2019-11-29,10:25,10:25 AM,,,,0,0,0,,,,0,0.0,0,,,,,,,via,20191129
2019-11-29,10:26,10:26 AM,,,,0,0,0,,,,0,0.0,0,,,,,,,via,20191129
2019-11-29,10:27,10:27 AM,,,,0,0,0,26.314,26.314,26.314,300,7894.08,1,,,26.314,26.314,,0.007813098429720437,via,20191129
2019-11-29,10:28,10:28 AM,,,,0,0,0,,,,0,0.0,0,,,,,,,via,20191129
2019-11-29,10:29,10:29 AM,,,,0,0,0,26.27,26.27,26.27,100,2627.0,1,,,26.27,26.27,,0.0061279203370356245,via,20191129
2019-11-29,10:30,10:30 AM,,,,0,0,0,26.35,26.35,26.35,100,2635.0,1,,,26.35,26.35,,0.009191880505553505,via,20191129
2019-11-29,10:31,10:31 AM,,,,0,0,0,,,,0,0.0,0,,,,,,,via,20191129
2019-11-29,10:32,10:32 AM,,,,0,0,0,,,,0,0.0,0,,,,,,,via,20191129
2019-11-29,10:33,10:33 AM,,,,0,0,0,26.326,26.326,26.326,100,2632.57,1,,,26.326,26.326,,0.008272692454998126,via,20191129
2019-11-29,10:34,10:34 AM,,,,0,0,0,,,,0,0.0,0,,,,,,,via,20191129
2019-11-29,10:35,10:35 AM,,,,0,0,0,,,,0,0.0,0,,,,,,,via,20191129
2019-11-29,10:36,10:36 AM,,,,0,0,0,26.331,26.3,26.323,400,10529.24,2,,,26.3,26.331,,0.008157793948678705,via,20191129
2019-11-29,10:37,10:37 AM,,,,0,0,0,,,,0,0.0,0,,,,,,,via,20191129
2019-11-29,10:38,10:38 AM,,,,0,0,0,,,,0,0.0,0,,,,,,,via,20191129
2019-11-29,10:39,10:39 AM,,,,0,0,0,,,,0,0.0,0,,,,,,,via,20191129
2019-11-29,10:40,10:40 AM,,,,0,0,0,,,,0,0.0,0,,,,,,,via,20191129
2019-11-29,10:41,10:41 AM,,,,0,0,0,26.35,26.29,26.318,1300,34214.0,9,,,26.35,26.29,,0.00796629643814638,via,20191129
2019-11-29,10:42,10:42 AM,,,,0,0,0,26.276,26.26,26.268,380,9982.0,2,,,26.26,26.276,,0.006051321332822721,via,20191129
2019-11-29,10:43,10:43 AM,,,,0,0,0,,,,0,0.0,0,,,,,,,via,20191129
2019-11-29,10:44,10:44 AM,,,,0,0,0,,,,0,0.0,0,,,,,,,via,20191129
2019-11-29,10:45,10:45 AM,,,,0,0,0,,,,0,0.0,0,,,,,,,via,20191129
2019-11-29,10:46,10:46 AM,,,,0,0,0,,,,0,0.0,0,,,,,,,via,20191129
2019-11-29,10:47,10:47 AM,,,,0,0,0,,,,0,0.0,0,,,,,,,via,20191129
2019-11-29,10:48,10:48 AM,,,,0,0,0,26.28,26.24,26.273,3190,83811.3,19,,,26.28,26.24,,0.006242818843355046,via,20191129
2019-11-29,10:49,10:49 AM,,,,0,0,0,,,,0,0.0,0,,,,,,,via,20191129
2019-11-29,10:50,10:50 AM,,,,0,0,0,,,,0,0.0,0,,,,,,,via,20191129
2019-11-29,10:51,10:51 AM,,,,0,0,0,26.236,26.236,26.236,100,2623.6,1,,,26.236,26.236,,0.004825737265415597,via,20191129
2019-11-29,10:52,10:52 AM,,,,0,0,0,26.23,26.23,26.23,100,2623.0,1,,,26.23,26.23,,0.004595940252776752,via,20191129
2019-11-29,10:53,10:53 AM,,,,0,0,0,,,,0,0.0,0,,,,,,,via,20191129
2019-11-29,10:54,10:54 AM,,,,0,0,0,26.2,26.2,26.2,100,2620.0,1,,,26.2,26.2,,0.00344695518958253,via,20191129
2019-11-29,10:55,10:55 AM,,,,0,0,0,26.19,26.19,26.19,300,7857.0,3,,,26.19,26.19,,0.00306396016851788,via,20191129
2019-11-29,10:56,10:56 AM,,,,0,0,0,26.2,26.2,26.2,400,10480.0,4,,,26.2,26.2,,0.00344695518958253,via,20191129
2019-11-29,10:57,10:57 AM,,,,0,0,0,,,,0,0.0,0,,,,,,,via,20191129
2019-11-29,10:58,10:58 AM,,,,0,0,0,,,,0,0.0,0,,,,,,,via,20191129
2019-11-29,10:59,10:59 AM,,,,0,0,0,26.211,26.211,26.211,130,3407.482,1,,,26.211,26.211,,0.0038682497127536996,via,20191129
2019-11-29,11:00,11 AM,,,,0,0,0,26.194,26.194,26.194,250,6548.5,1,,,26.194,26.194,,0.0032171581769436857,via,20191129
2019-11-29,11:01,11:01 AM,,,,0,0,0,26.2,26.2,26.2,100,2620.0,1,,,26.2,26.2,,0.00344695518958253,via,20191129
2019-11-29,11:02,11:02 AM,,,,0,0,0,26.196,26.196,26.196,250,6549.0,1,,,26.196,26.196,,0.0032937571811567246,via,20191129
2019-11-29,11:03,11:03 AM,,,,0,0,0,26.19,26.18,26.189,2401,62879.19,14,,,26.19,26.18,,0.0030256606664113605,via,20191129
2019-11-29,11:04,11:04 AM,,,,0,0,0,26.19,26.19,26.19,500,13095.0,5,,,26.19,26.19,,0.00306396016851788,via,20191129
2019-11-29,11:05,11:05 AM,,,,0,0,0,26.18,26.18,26.18,1400,36652.0,14,,,26.18,26.18,,0.002680965147453094,via,20191129
2019-11-29,11:06,11:06 AM,,,,0,0,0,,,,0,0.0,0,,,,,,,via,20191129
2019-11-29,11:07,11:07 AM,,,,0,0,0,,,,0,0.0,0,,,,,,,via,20191129
2019-11-29,11:08,11:08 AM,,,,0,0,0,26.21,26.21,26.21,100,2621.0,1,,,26.21,26.21,,0.003829950210647316,via,20191129
2019-11-29,11:09,11:09 AM,,,,0,0,0,,,,0,0.0,0,,,,,,,via,20191129
2019-11-29,11:10,11:10 AM,,,,0,0,0,26.27,26.2,26.235,200,5247.0,2,,,26.27,26.2,,0.004787437763309077,via,20191129
2019-11-29,11:11,11:11 AM,,,,0,0,0,26.2,26.18,26.198,1000,26198.0,7,,,26.2,26.18,,0.0033703561853696273,via,20191129
2019-11-29,11:12,11:12 AM,,,,0,0,0,26.17,26.15,26.16,733,19175.28,5,,,26.17,26.15,,0.001914975105323658,via,20191129
2019-11-29,11:13,11:13 AM,,,,0,0,0,,,,0,0.0,0,,,,,,,via,20191129
2019-11-29,11:14,11:14 AM,,,,0,0,0,,,,0,0.0,0,,,,,,,via,20191129
2019-11-29,11:15,11:15 AM,,,,0,0,0,26.15,26.15,26.15,200,5230.0,2,,,26.15,26.15,,0.001531980084258872,via,20191129
2019-11-29,11:16,11:16 AM,,,,0,0,0,,,,0,0.0,0,,,,,,,via,20191129
2019-11-29,11:17,11:17 AM,,,,0,0,0,,,,0,0.0,0,,,,,,,via,20191129
2019-11-29,11:18,11:18 AM,,,,0,0,0,,,,0,0.0,0,,,,,,,via,20191129
2019-11-29,11:19,11:19 AM,,,,0,0,0,,,,0,0.0,0,,,,,,,via,20191129
2019-11-29,11:20,11:20 AM,,,,0,0,0,,,,0,0.0,0,,,,,,,via,20191129
2019-11-29,11:21,11:21 AM,,,,0,0,0,,,,0,0.0,0,,,,,,,via,20191129
2019-11-29,11:22,11:22 AM,,,,0,0,0,26.18,26.18,26.18,500,13090.0,5,,,26.18,26.18,,0.002680965147453094,via,20191129
2019-11-29,11:23,11:23 AM,,,,0,0,0,26.17,26.17,26.17,100,2617.0,1,,,26.17,26.17,,0.0022979701263884443,via,20191129
2019-11-29,11:24,11:24 AM,,,,0,0,0,,,,0,0.0,0,,,,,,,via,20191129
2019-11-29,11:25,11:25 AM,,,,0,0,0,,,,0,0.0,0,,,,,,,via,20191129
2019-11-29,11:26,11:26 AM,,,,0,0,0,,,,0,0.0,0,,,,,,,via,20191129
2019-11-29,11:27,11:27 AM,,,,0,0,0,,,,0,0.0,0,,,,,,,via,20191129
2019-11-29,11:28,11:28 AM,,,,0,0,0,,,,0,0.0,0,,,,,,,via,20191129
2019-11-29,11:29,11:29 AM,,,,0,0,0,,,,0,0.0,0,,,,,,,via,20191129
2019-11-29,11:30,11:30 AM,,,,0,0,0,26.18,26.18,26.18,100,2618.0,1,,,26.18,26.18,,0.002680965147453094,via,20191129
2019-11-29,11:31,11:31 AM,,,,0,0,0,,,,0,0.0,0,,,,,,,via,20191129
2019-11-29,11:32,11:32 AM,,,,0,0,0,,,,0,0.0,0,,,,,,,via,20191129
2019-11-29,11:33,11:33 AM,,,,0,0,0,,,,0,0.0,0,,,,,,,via,20191129
2019-11-29,11:34,11:34 AM,,,,0,0,0,,,,0,0.0,0,,,,,,,via,20191129
2019-11-29,11:35,11:35 AM,,,,0,0,0,,,,0,0.0,0,,,,,,,via,20191129
2019-11-29,11:36,11:36 AM,,,,0,0,0,,,,0,0.0,0,,,,,,,via,20191129
2019-11-29,11:37,11:37 AM,,,,0,0,0,26.21,26.21,26.21,100,2621.0,1,,,26.21,26.21,,0.003829950210647316,via,20191129
2019-11-29,11:38,11:38 AM,,,,0,0,0,26.247,26.247,26.247,300,7873.98,1,,,26.247,26.247,,0.005247031788586766,via,20191129
2019-11-29,11:39,11:39 AM,,,,0,0,0,,,,0,0.0,0,,,,,,,via,20191129
2019-11-29,11:40,11:40 AM,,,,0,0,0,,,,0,0.0,0,,,,,,,via,20191129
2019-11-29,11:41,11:41 AM,,,,0,0,0,,,,0,0.0,0,,,,,,,via,20191129
2019-11-29,11:42,11:42 AM,,,,0,0,0,26.25,26.24,26.245,200,5249.0,2,,,26.25,26.24,,0.005170432784373863,via,20191129
2019-11-29,11:43,11:43 AM,,,,0,0,0,,,,0,0.0,0,,,,,,,via,20191129
2019-11-29,11:44,11:44 AM,,,,0,0,0,,,,0,0.0,0,,,,,,,via,20191129
2019-11-29,11:45,11:45 AM,,,,0,0,0,26.31,26.31,26.31,100,2631.0,1,,,26.31,26.31,,0.0076599004212944966,via,20191129
2019-11-29,11:46,11:46 AM,,,,0,0,0,,,,0,0.0,0,,,,,,,via,20191129
2019-11-29,11:47,11:47 AM,,,,0,0,0,,,,0,0.0,0,,,,,,,via,20191129
2019-11-29,11:48,11:48 AM,,,,0,0,0,,,,0,0.0,0,,,,,,,via,20191129
2019-11-29,11:49,11:49 AM,,,,0,0,0,,,,0,0.0,0,,,,,,,via,20191129
2019-11-29,11:50,11:50 AM,,,,0,0,0,,,,0,0.0,0,,,,,,,via,20191129
2019-11-29,11:51,11:51 AM,,,,0,0,0,26.29,26.26,26.283,600,15770.0,6,,,26.29,26.26,,0.006625813864419832,via,20191129
2019-11-29,11:52,11:52 AM,,,,0,0,0,26.25,26.25,26.25,300,7875.0,3,,,26.25,26.25,,0.005361930294906188,via,20191129
2019-11-29,11:53,11:53 AM,,,,0,0,0,,,,0,0.0,0,,,,,,,via,20191129
2019-11-29,11:54,11:54 AM,,,,0,0,0,26.28,26.28,26.28,296,7778.88,2,,,26.28,26.28,,0.00651091535810041,via,20191129
2019-11-29,11:55,11:55 AM,,,,0,0,0,26.251,26.25,26.25,2180,57226.3,10,,,26.251,26.25,,0.005361930294906188,via,20191129
2019-11-29,11:56,11:56 AM,,,,0,0,0,,,,0,0.0,0,,,,,,,via,20191129
2019-11-29,11:57,11:57 AM,,,,0,0,0,26.37,26.28,26.282,4179,109833.12,2,,,26.28,26.37,,0.006587514362313313,via,20191129
2019-11-29,11:58,11:58 AM,,,,0,0,0,26.36,26.32,26.325,925,24350.584,3,,,26.36,26.321,,0.008234392952891608,via,20191129
2019-11-29,11:59,11:59 AM,,,,0,0,0,26.34,26.34,26.34,100,2634.0,1,,,26.34,26.34,,0.008808885484488719,via,20191129
2019-11-29,12:00,12 PM,,,,0,0,0,,,,0,0.0,0,,,,,,,via,20191129
2019-11-29,12:01,12:01 PM,,,,0,0,0,26.35,26.25,26.3,875,23012.5,5,,,26.35,26.25,,0.007276905400229846,via,20191129
2019-11-29,12:02,12:02 PM,,,,0,0,0,,,,0,0.0,0,,,,,,,via,20191129
2019-11-29,12:03,12:03 PM,,,,0,0,0,,,,0,0.0,0,,,,,,,via,20191129
2019-11-29,12:04,12:04 PM,,,,0,0,0,,,,0,0.0,0,,,,,,,via,20191129
2019-11-29,12:05,12:05 PM,,,,0,0,0,,,,0,0.0,0,,,,,,,via,20191129
2019-11-29,12:06,12:06 PM,,,,0,0,0,,,,0,0.0,0,,,,,,,via,20191129
2019-11-29,12:07,12:07 PM,,,,0,0,0,,,,0,0.0,0,,,,,,,via,20191129
2019-11-29,12:08,12:08 PM,,,,0,0,0,26.29,26.29,26.29,1000,26290.0,1,,,26.29,26.29,,0.00689391037916506,via,20191129
2019-11-29,12:09,12:09 PM,,,,0,0,0,,,,0,0.0,0,,,,,,,via,20191129
2019-11-29,12:10,12:10 PM,,,,0,0,0,,,,0,0.0,0,,,,,,,via,20191129
2019-11-29,12:11,12:11 PM,,,,0,0,0,,,,0,0.0,0,,,,,,,via,20191129
2019-11-29,12:12,12:12 PM,,,,0,0,0,26.28,26.21,26.266,500,13133.0,5,,,26.28,26.21,,0.005974722328609683,via,20191129
2019-11-29,12:13,12:13 PM,,,,0,0,0,26.27,26.26,26.265,200,5253.0,2,,,26.27,26.26,,0.005936422826503299,via,20191129
2019-11-29,12:14,12:14 PM,,,,0,0,0,,,,0,0.0,0,,,,,,,via,20191129
2019-11-29,12:15,12:15 PM,,,,0,0,0,,,,0,0.0,0,,,,,,,via,20191129
2019-11-29,12:16,12:16 PM,,,,0,0,0,,,,0,0.0,0,,,,,,,via,20191129
2019-11-29,12:17,12:17 PM,,,,0,0,0,26.29,26.29,26.29,100,2629.0,1,,,26.29,26.29,,0.00689391037916506,via,20191129
2019-11-29,12:18,12:18 PM,,,,0,0,0,,,,0,0.0,0,,,,,,,via,20191129
2019-11-29,12:19,12:19 PM,,,,0,0,0,,,,0,0.0,0,,,,,,,via,20191129
2019-11-29,12:20,12:20 PM,,,,0,0,0,26.29,26.29,26.29,100,2629.0,1,,,26.29,26.29,,0.00689391037916506,via,20191129
2019-11-29,12:21,12:21 PM,,,,0,0,0,,,,0,0.0,0,,,,,,,via,20191129
2019-11-29,12:22,12:22 PM,,,,0,0,0,,,,0,0.0,0,,,,,,,via,20191129
2019-11-29,12:23,12:23 PM,,,,0,0,0,,,,0,0.0,0,,,,,,,via,20191129
2019-11-29,12:24,12:24 PM,,,,0,0,0,26.31,26.31,26.31,100,2631.0,1,,,26.31,26.31,,0.0076599004212944966,via,20191129
2019-11-29,12:25,12:25 PM,,,,0,0,0,,,,0,0.0,0,,,,,,,via,20191129
2019-11-29,12:26,12:26 PM,,,,0,0,0,26.3,26.3,26.3,200,5260.0,2,,,26.3,26.3,,0.007276905400229846,via,20191129
2019-11-29,12:27,12:27 PM,,,,0,0,0,,,,0,0.0,0,,,,,,,via,20191129
2019-11-29,12:28,12:28 PM,,,,0,0,0,,,,0,0.0,0,,,,,,,via,20191129
2019-11-29,12:29,12:29 PM,,,,0,0,0,26.3,26.29,26.297,300,7889.0,3,,,26.3,26.29,,0.007162006893910424,via,20191129
2019-11-29,12:30,12:30 PM,,,,0,0,0,,,,0,0.0,0,,,,,,,via,20191129
2019-11-29,12:31,12:31 PM,,,,0,0,0,26.33,26.27,26.292,1000,26292.0,9,,,26.31,26.27,,0.006970509383378099,via,20191129
2019-11-29,12:32,12:32 PM,,,,0,0,0,26.25,26.25,26.25,100,2625.0,1,,,26.25,26.25,,0.005361930294906188,via,20191129
2019-11-29,12:33,12:33 PM,,,,0,0,0,26.27,26.27,26.27,100,2627.0,1,,,26.27,26.27,,0.0061279203370356245,via,20191129
2019-11-29,12:34,12:34 PM,,,,0,0,0,,,,0,0.0,0,,,,,,,via,20191129
2019-11-29,12:35,12:35 PM,,,,0,0,0,,,,0,0.0,0,,,,,,,via,20191129
2019-11-29,12:36,12:36 PM,,,,0,0,0,,,,0,0.0,0,,,,,,,via,20191129
2019-11-29,12:37,12:37 PM,,,,0,0,0,,,,0,0.0,0,,,,,,,via,20191129
2019-11-29,12:38,12:38 PM,,,,0,0,0,26.26,26.26,26.26,100,2626.0,1,,,26.26,26.26,,0.005744925315970974,via,20191129
2019-11-29,12:39,12:39 PM,,,,0,0,0,26.26,26.26,26.26,100,2626.0,1,,,26.26,26.26,,0.005744925315970974,via,20191129
2019-11-29,12:40,12:40 PM,,,,0,0,0,,,,0,0.0,0,,,,,,,via,20191129
2019-11-29,12:41,12:41 PM,,,,0,0,0,26.23,26.22,26.227,314,8235.22,3,,,26.23,26.23,,0.00448104174645733,via,20191129
2019-11-29,12:42,12:42 PM,,,,0,0,0,26.19,26.19,26.19,100,2619.02,1,,,26.19,26.19,,0.00306396016851788,via,20191129
2019-11-29,12:43,12:43 PM,,,,0,0,0,26.17,26.17,26.17,100,2617.0,1,,,26.17,26.17,,0.0022979701263884443,via,20191129
2019-11-29,12:44,12:44 PM,,,,0,0,0,,,,0,0.0,0,,,,,,,via,20191129
2019-11-29,12:45,12:45 PM,,,,0,0,0,,,,0,0.0,0,,,,,,,via,20191129
2019-11-29,12:46,12:46 PM,,,,0,0,0,,,,0,0.0,0,,,,,,,via,20191129
2019-11-29,12:47,12:47 PM,,,,0,0,0,,,,0,0.0,0,,,,,,,via,20191129
2019-11-29,12:48,12:48 PM,,,,0,0,0,26.16,26.16,26.16,100,2616.0,1,,,26.16,26.16,,0.001914975105323658,via,20191129
2019-11-29,12:49,12:49 PM,,,,0,0,0,,,,0,0.0,0,,,,,,,via,20191129
2019-11-29,12:50,12:50 PM,,,,0,0,0,26.17,26.16,26.169,933,24415.61,9,,,26.17,26.16,,0.002259670624281925,via,20191129
2019-11-29,12:51,12:51 PM,,,,0,0,0,26.19,26.17,26.181,1100,28799.0,11,,,26.19,26.17,,0.0027192646495596134,via,20191129
2019-11-29,12:52,12:52 PM,,,,0,0,0,,,,0,0.0,0,,,,,,,via,20191129
2019-11-29,12:53,12:53 PM,,,,0,0,0,26.16,26.09,26.148,2133,55772.95,15,,,26.16,26.09,,0.0014553810800459692,via,20191129
2019-11-29,12:54,12:54 PM,,,,0,0,0,26.108,26.08,26.099,300,7829.6,2,,,26.108,26.08,,-0.00042129452317116937,via,20191129
2019-11-29,12:55,12:55 PM,,,,0,0,0,26.08,26.08,26.08,100,2608.0,1,,,26.08,26.08,,-0.0011489850631942221,via,20191129
2019-11-29,12:56,12:56 PM,,,,0,0,0,26.09,26.08,26.082,524,13667.16,5,,,26.08,26.08,,-0.0010723860589811833,via,20191129
2019-11-29,12:57,12:57 PM,,,,0,0,0,26.08,26.07,26.073,300,7822.0,3,,,26.08,26.07,,-0.0014170815779394497,via,20191129
2019-11-29,12:58,12:58 PM,,,,0,0,0,26.05,26.05,26.05,100,2605.0,1,,,26.05,26.05,,-0.002297970126388308,via,20191129
2019-11-29,12:59,12:59 PM,,,,0,0,0,26.13,26.09,26.112,1132,29558.8,8,,,26.09,26.11,,7.659900421290278e-05,via,20191129
