date,minute,label,high,low,average,volume,notional,numberOfTrades,marketHigh,marketLow,marketAverage,marketVolume,marketNotional,marketNumberOfTrades,open,close,marketOpen,marketClose,changeOverTime,marketChangeOverTime,tickerName,tickerDate
2019-11-18,09:30,09:30 AM,,,,0,0.0,0,27.25,26.9,27.086,11026,298653.652,19,,,27.13,26.9,,0.0,via,20191118
2019-11-18,09:31,09:31 AM,,,,0,0.0,0,,,,0,0.0,0,,,,,,,via,20191118
2019-11-18,09:32,09:32 AM,,,,0,0.0,0,27.0,26.697,26.851,1795,48197.5775,12,,,26.79,27.0,,-0.008676068817839454,via,20191118
2019-11-18,09:33,09:33 AM,,,,0,0.0,0,26.82,26.82,26.82,630,16896.6,3,,,26.82,26.82,,-0.00982057151295866,via,20191118
2019-11-18,09:34,09:34 AM,,,,0,0.0,0,,,,0,0.0,0,,,,,,,via,20191118
2019-11-18,09:35,09:35 AM,,,,0,0.0,0,,,,0,0.0,0,,,,,,,via,20191118
2019-11-18,09:36,09:36 AM,,,,0,0.0,0,26.781,26.781,26.781,250,6695.225,1,,,26.781,26.781,,-0.011260429742302286,via,20191118
2019-11-18,09:37,09:37 AM,,,,0,0.0,0,,,,0,0.0,0,,,,,,,via,20191118
2019-11-18,09:38,09:38 AM,,,,0,0.0,0,26.82,26.786,26.805,489,13107.79,3,,,26.8,26.786,,-0.010374363139629285,via,20191118
2019-11-18,09:39,09:39 AM,,,,0,0.0,0,,,,0,0.0,0,,,,,,,via,20191118
2019-11-18,09:40,09:40 AM,,,,0,0.0,0,26.82,26.82,26.82,226,6061.32,2,,,26.82,26.82,,-0.00982057151295866,via,20191118
2019-11-18,09:41,09:41 AM,,,,0,0.0,0,26.85,26.805,26.815,1049,28128.69,8,,,26.81,26.85,,-0.010005168721848824,via,20191118
2019-11-18,09:42,09:42 AM,,,,0,0.0,0,26.86,26.83,26.841,3408,91473.79,10,,,26.86,26.83,,-0.009045263235619784,via,20191118
2019-11-18,09:43,09:43 AM,,,,0,0.0,0,26.8,26.7,26.747,3139,83957.46,11,,,26.8,26.7,,-0.012515690762755617,via,20191118
2019-11-18,09:44,09:44 AM,,,,0,0.0,0,26.769,26.56,26.658,525,13995.61,4,,,26.769,26.56,,-0.015801521081001156,via,20191118
2019-11-18,09:45,09:45 AM,,,,0,0.0,0,26.572,26.572,26.572,700,18600.33,1,,,26.572,26.572,,-0.0189765930739127,via,20191118
2019-11-18,09:46,09:46 AM,,,,0,0.0,0,26.652,26.57,26.607,550,14633.95,3,,,26.57,26.652,,-0.017684412611681282,via,20191118
2019-11-18,09:47,09:47 AM,,,,0,0.0,0,,,,0,0.0,0,,,,,,,via,20191118
2019-11-18,09:48,09:48 AM,,,,0,0.0,0,,,,0,0.0,0,,,,,,,via,20191118
2019-11-18,09:49,09:49 AM,,,,0,0.0,0,26.596,26.596,26.596,375,9973.65,1,,,26.596,26.596,,-0.0180905264712397,via,20191118
2019-11-18,09:50,09:50 AM,26.63,26.63,26.63,100,2663.0,1,26.65,26.6,26.631,900,23968.0,8,26.63,26.63,26.63,26.65,,-0.016798346009008282,via,20191118
2019-11-18,09:51,09:51 AM,26.635,26.635,26.635,400,10654.0,1,26.72,26.6,26.645,2500,66612.46,15,26.635,26.635,26.6,26.634,,-0.016281473824115742,via,20191118
2019-11-18,09:52,09:52 AM,,,,0,0.0,0,26.7,26.63,26.674,1413,37691.1,12,,,26.63,26.7,,-0.015210810012552575,via,20191118
2019-11-18,09:53,09:53 AM,26.74,26.74,26.74,1800,48132.0,4,26.78,26.7,26.738,2300,61498.0,9,26.74,26.74,26.71,26.78,,-0.012847965738757993,via,20191118
2019-11-18,09:54,09:54 AM,,,,0,0.0,0,26.71,26.7,26.703,300,8011.0,3,,,26.71,26.7,,-0.01414014620098941,via,20191118
2019-11-18,09:55,09:55 AM,,,,0,0.0,0,26.78,26.7,26.757,700,18730.0,7,,,26.7,26.78,,-0.012146496344975156,via,20191118
2019-11-18,09:56,09:56 AM,,,,0,0.0,0,26.81,26.73,26.784,800,21426.9,8,,,26.73,26.8,,-0.011149671416968161,via,20191118
2019-11-18,09:57,09:57 AM,,,,0,0.0,0,26.8,26.71,26.752,2300,61530.0,12,,,26.8,26.71,,-0.012331093553865453,via,20191118
2019-11-18,09:58,09:58 AM,,,,0,0.0,0,26.75,26.69,26.709,2260,60361.4,8,,,26.75,26.69,,-0.013918629550321159,via,20191118
2019-11-18,09:59,09:59 AM,,,,0,0.0,0,26.71,26.69,26.7,200,5340.0,2,,,26.71,26.69,,-0.014250904526323535,via,20191118
2019-11-18,10:00,10 AM,,,,0,0.0,0,,,,0,0.0,0,,,,,,,via,20191118
2019-11-18,10:01,10:01 AM,,,,0,0.0,0,26.72,26.71,26.715,200,5343.0,2,,,26.72,26.71,,-0.013697112899652909,via,20191118
2019-11-18,10:02,10:02 AM,,,,0,0.0,0,,,,0,0.0,0,,,,,,,via,20191118
2019-11-18,10:03,10:03 AM,,,,0,0.0,0,,,,0,0.0,0,,,,,,,via,20191118
2019-11-18,10:04,10:04 AM,,,,0,0.0,0,26.9,26.9,26.9,100,2690.0,1,,,26.9,26.9,,-0.006867016170715497,via,20191118
2019-11-18,10:05,10:05 AM,,,,0,0.0,0,,,,0,0.0,0,,,,,,,via,20191118
2019-11-18,10:06,10:06 AM,,,,0,0.0,0,,,,0,0.0,0,,,,,,,via,20191118
2019-11-18,10:07,10:07 AM,,,,0,0.0,0,,,,0,0.0,0,,,,,,,via,20191118
2019-11-18,10:08,10:08 AM,26.79,26.79,26.79,50,1339.5,1,26.95,26.81,26.891,2575,69243.8,9,26.79,26.79,26.925,26.81,,-0.007199291146717872,via,20191118
2019-11-18,10:09,10:09 AM,,,,0,0.0,0,26.83,26.82,26.823,800,21458.0,7,,,26.83,26.82,,-0.009709813187624535,via,20191118
2019-11-18,10:10,10:10 AM,,,,0,0.0,0,,,,0,0.0,0,,,,,,,via,20191118
2019-11-18,10:11,10:11 AM,,,,0,0.0,0,26.885,26.82,26.848,424,11383.68,4,,,26.885,26.875,,-0.00878682714317358,via,20191118
2019-11-18,10:12,10:12 AM,,,,0,0.0,0,26.9,26.82,26.847,300,8054.0,3,,,26.9,26.82,,-0.008823746584951534,via,20191118
2019-11-18,10:13,10:13 AM,,,,0,0.0,0,,,,0,0.0,0,,,,,,,via,20191118
2019-11-18,10:14,10:14 AM,,,,0,0.0,0,26.82,26.78,26.802,1261,33796.8,3,,,26.82,26.78,,-0.01048512146496341,via,20191118
2019-11-18,10:15,10:15 AM,,,,0,0.0,0,,,,0,0.0,0,,,,,,,via,20191118
2019-11-18,10:16,10:16 AM,,,,0,0.0,0,,,,0,0.0,0,,,,,,,via,20191118
2019-11-18,10:17,10:17 AM,,,,0,0.0,0,26.74,26.64,26.69,200,5338.0,2,,,26.74,26.64,,-0.014620098944103864,via,20191118
2019-11-18,10:18,10:18 AM,,,,0,0.0,0,,,,0,0.0,0,,,,,,,via,20191118
2019-11-18,10:19,10:19 AM,,,,0,0.0,0,26.701,26.62,26.647,300,7994.11,3,,,26.62,26.62,,-0.0162076349405597,via,20191118
2019-11-18,10:20,10:20 AM,,,,0,0.0,0,,,,0,0.0,0,,,,,,,via,20191118
2019-11-18,10:21,10:21 AM,,,,0,0.0,0,,,,0,0.0,0,,,,,,,via,20191118
2019-11-18,10:22,10:22 AM,,,,0,0.0,0,,,,0,0.0,0,,,,,,,via,20191118
2019-11-18,10:23,10:23 AM,,,,0,0.0,0,,,,0,0.0,0,,,,,,,via,20191118
2019-11-18,10:24,10:24 AM,,,,0,0.0,0,26.62,26.62,26.62,200,5324.0,1,,,26.62,26.62,,-0.017204459868566696,via,20191118
2019-11-18,10:25,10:25 AM,,,,0,0.0,0,26.62,26.56,26.609,569,15140.78,3,,,26.62,26.56,,-0.017610573728125113,via,20191118
2019-11-18,10:26,10:26 AM,,,,0,0.0,0,,,,0,0.0,0,,,,,,,via,20191118
2019-11-18,10:27,10:27 AM,,,,0,0.0,0,,,,0,0.0,0,,,,,,,via,20191118
2019-11-18,10:28,10:28 AM,,,,0,0.0,0,26.67,26.614,26.63,1100,29293.0,11,,,26.63,26.67,,-0.01683526545078637,via,20191118
2019-11-18,10:29,10:29 AM,,,,0,0.0,0,26.77,26.63,26.695,1100,29365.0,11,,,26.64,26.77,,-0.014435501735213699,via,20191118
2019-11-18,10:30,10:30 AM,,,,0,0.0,0,26.7,26.66,26.68,200,5336.0,2,,,26.7,26.66,,-0.014989293361884325,via,20191118
2019-11-18,10:31,10:31 AM,,,,0,0.0,0,26.71,26.7,26.705,200,5341.0,2,,,26.7,26.71,,-0.01406630731743337,via,20191118
2019-11-18,10:32,10:32 AM,,,,0,0.0,0,26.782,26.73,26.759,225,6020.8125,2,,,26.782,26.73,,-0.012072657461419117,via,20191118
2019-11-18,10:33,10:33 AM,,,,0,0.0,0,26.83,26.75,26.798,250,6699.56,2,,,26.75,26.83,,-0.010632799232075621,via,20191118
2019-11-18,10:34,10:34 AM,,,,0,0.0,0,,,,0,0.0,0,,,,,,,via,20191118
2019-11-18,10:35,10:35 AM,,,,0,0.0,0,26.74,26.73,26.735,200,5347.0,2,,,26.73,26.74,,-0.012958724064092118,via,20191118
2019-11-18,10:36,10:36 AM,,,,0,0.0,0,26.77,26.77,26.77,200,5354.0,2,,,26.77,26.77,,-0.011666543601860702,via,20191118
2019-11-18,10:37,10:37 AM,26.84,26.84,26.84,500,13420.0,1,26.9,26.83,26.872,1907,51245.3,11,26.84,26.84,26.83,26.84,,-0.007900760540500578,via,20191118
2019-11-18,10:38,10:38 AM,,,,0,0.0,0,,,,0,0.0,0,,,,,,,via,20191118
2019-11-18,10:39,10:39 AM,,,,0,0.0,0,,,,0,0.0,0,,,,,,,via,20191118
2019-11-18,10:40,10:40 AM,26.77,26.77,26.77,300,8031.0,1,26.813,26.75,26.78,755,20218.85,4,26.77,26.77,26.813,26.75,,-0.01129734918408024,via,20191118
2019-11-18,10:41,10:41 AM,,,,0,0.0,0,26.75,26.75,26.75,126,3370.5,1,,,26.75,26.75,,-0.012404932437421492,via,20191118
2019-11-18,10:42,10:42 AM,,,,0,0.0,0,,,,0,0.0,0,,,,,,,via,20191118
2019-11-18,10:43,10:43 AM,,,,0,0.0,0,,,,0,0.0,0,,,,,,,via,20191118
2019-11-18,10:44,10:44 AM,,,,0,0.0,0,26.745,26.745,26.745,100,2674.5,1,,,26.745,26.745,,-0.012589529646311657,via,20191118
2019-11-18,10:45,10:45 AM,,,,0,0.0,0,,,,0,0.0,0,,,,,,,via,20191118
2019-11-18,10:46,10:46 AM,,,,0,0.0,0,26.828,26.75,26.797,250,6699.185,2,,,26.75,26.828,,-0.010669718673853575,via,20191118
2019-11-18,10:47,10:47 AM,,,,0,0.0,0,26.78,26.78,26.78,300,8034.0,1,,,26.78,26.78,,-0.01129734918408024,via,20191118
2019-11-18,10:48,10:48 AM,,,,0,0.0,0,,,,0,0.0,0,,,,,,,via,20191118
2019-11-18,10:49,10:49 AM,,,,0,0.0,0,,,,0,0.0,0,,,,,,,via,20191118
2019-11-18,10:50,10:50 AM,,,,0,0.0,0,26.76,26.76,26.76,100,2676.0,1,,,26.76,26.76,,-0.01203573801964103,via,20191118
2019-11-18,10:51,10:51 AM,,,,0,0.0,0,,,,0,0.0,0,,,,,,,via,20191118
2019-11-18,10:52,10:52 AM,,,,0,0.0,0,,,,0,0.0,0,,,,,,,via,20191118
2019-11-18,10:53,10:53 AM,,,,0,0.0,0,26.78,26.737,26.759,200,5351.72,2,,,26.78,26.737,,-0.012072657461419117,via,20191118
2019-11-18,10:54,10:54 AM,,,,0,0.0,0,,,,0,0.0,0,,,,,,,via,20191118
2019-11-18,10:55,10:55 AM,26.71,26.71,26.71,5,133.55,1,,,,0,0.0,0,26.71,26.71,,,,-0.013881710108543074,via,20191118
2019-11-18,10:56,10:56 AM,,,,0,0.0,0,26.79,26.79,26.79,100,2679.0,1,,,26.79,26.79,,-0.010928154766299911,via,20191118
2019-11-18,10:57,10:57 AM,26.71,26.71,26.71,5,133.55,1,,,,0,0.0,0,26.71,26.71,,,,-0.013881710108543074,via,20191118
2019-11-18,10:58,10:58 AM,,,,0,0.0,0,,,,0,0.0,0,,,,,,,via,20191118
2019-11-18,10:59,10:59 AM,26.71,26.71,26.71,5,133.55,1,26.748,26.748,26.748,500,13374.0,1,26.71,26.71,26.748,26.748,,-0.012478771320977532,via,20191118
2019-11-18,11:00,11 AM,,,,0,0.0,0,26.85,26.793,26.83,1200,32195.6,5,,,26.85,26.834,,-0.00945137709517833,via,20191118
2019-11-18,11:01,11:01 AM,26.75,26.75,26.75,5,133.75,1,26.92,26.815,26.878,1569,42171.56,11,26.75,26.75,26.86,26.92,,-0.007679243889832327,via,20191118
2019-11-18,11:02,11:02 AM,,,,0,0.0,0,26.95,26.841,26.891,1440,38723.25,10,,,26.89,26.95,,-0.007199291146717872,via,20191118
2019-11-18,11:03,11:03 AM,,,,0,0.0,0,26.95,26.93,26.948,927,24980.65,6,,,26.93,26.95,,-0.005094882965369495,via,20191118
2019-11-18,11:04,11:04 AM,,,,0,0.0,0,,,,0,0.0,0,,,,,,,via,20191118
2019-11-18,11:05,11:05 AM,,,,0,0.0,0,,,,0,0.0,0,,,,,,,via,20191118
2019-11-18,11:06,11:06 AM,,,,0,0.0,0,26.969,26.9,26.946,300,8083.8,2,,,26.969,26.9,,-0.005168721848925534,via,20191118
2019-11-18,11:07,11:07 AM,,,,0,0.0,0,26.932,26.87,26.919,1900,51146.24,7,,,26.932,26.926,,-0.006165546776932661,via,20191118
2019-11-18,11:08,11:08 AM,,,,0,0.0,0,26.84,26.84,26.84,100,2684.0,1,,,26.84,26.84,,-0.009082182677397868,via,20191118
2019-11-18,11:09,11:09 AM,,,,0,0.0,0,,,,0,0.0,0,,,,,,,via,20191118
2019-11-18,11:10,11:10 AM,,,,0,0.0,0,26.77,26.77,26.77,159,4256.43,1,,,26.77,26.77,,-0.011666543601860702,via,20191118
2019-11-18,11:11,11:11 AM,,,,0,0.0,0,26.94,26.823,26.893,3229,86837.51,14,,,26.83,26.84,,-0.007125452263161702,via,20191118
2019-11-18,11:12,11:12 AM,,,,0,0.0,0,26.89,26.84,26.866,800,21492.5,7,,,26.875,26.85,,-0.008122277191168828,via,20191118
2019-11-18,11:13,11:13 AM,,,,0,0.0,0,26.85,26.85,26.85,200,5370.0,2,,,26.85,26.85,,-0.008712988259617409,via,20191118
2019-11-18,11:14,11:14 AM,,,,0,0.0,0,26.85,26.84,26.845,600,16107.0,6,,,26.84,26.85,,-0.008897585468507704,via,20191118
2019-11-18,11:15,11:15 AM,,,,0,0.0,0,26.85,26.79,26.823,400,10729.0,4,,,26.85,26.79,,-0.009709813187624535,via,20191118
2019-11-18,11:16,11:16 AM,,,,0,0.0,0,26.83,26.794,26.803,400,10721.23,2,,,26.794,26.83,,-0.010448202023185325,via,20191118
2019-11-18,11:17,11:17 AM,,,,0,0.0,0,,,,0,0.0,0,,,,,,,via,20191118
2019-11-18,11:18,11:18 AM,,,,0,0.0,0,,,,0,0.0,0,,,,,,,via,20191118
2019-11-18,11:19,11:19 AM,,,,0,0.0,0,26.83,26.76,26.813,2251,60356.82,10,,,26.82,26.78,,-0.010079007605404994,via,20191118
2019-11-18,11:20,11:20 AM,,,,0,0.0,0,26.8,26.76,26.777,300,8033.0,3,,,26.8,26.76,,-0.011408107509414366,via,20191118
2019-11-18,11:21,11:21 AM,,,,0,0.0,0,,,,0,0.0,0,,,,,,,via,20191118
2019-11-18,11:22,11:22 AM,,,,0,0.0,0,,,,0,0.0,0,,,,,,,via,20191118
2019-11-18,11:23,11:23 AM,,,,0,0.0,0,26.82,26.733,26.757,1000,26756.9,8,,,26.733,26.82,,-0.012146496344975156,via,20191118
2019-11-18,11:24,11:24 AM,,,,0,0.0,0,26.85,26.761,26.808,210,5629.6,2,,,26.761,26.85,,-0.01026360481429516,via,20191118
2019-11-18,11:25,11:25 AM,,,,0,0.0,0,26.81,26.76,26.785,200,5357.0,2,,,26.81,26.76,,-0.011112751975190075,via,20191118
2019-11-18,11:26,11:26 AM,,,,0,0.0,0,26.77,26.77,26.77,200,5354.0,2,,,26.77,26.77,,-0.011666543601860702,via,20191118
2019-11-18,11:27,11:27 AM,,,,0,0.0,0,26.805,26.76,26.767,1300,34796.56,8,,,26.76,26.77,,-0.011777301927194827,via,20191118
2019-11-18,11:28,11:28 AM,,,,0,0.0,0,26.877,26.8,26.84,600,16103.73,6,,,26.84,26.8,,-0.009082182677397868,via,20191118
2019-11-18,11:29,11:29 AM,,,,0,0.0,0,26.81,26.81,26.81,200,5362.0,2,,,26.81,26.81,,-0.010189765930739121,via,20191118
2019-11-18,11:30,11:30 AM,,,,0,0.0,0,26.81,26.8,26.805,200,5361.0,2,,,26.8,26.81,,-0.010374363139629285,via,20191118
2019-11-18,11:31,11:31 AM,,,,0,0.0,0,26.81,26.81,26.81,200,5362.0,2,,,26.81,26.81,,-0.010189765930739121,via,20191118
2019-11-18,11:32,11:32 AM,,,,0,0.0,0,26.8,26.8,26.8,300,8040.0,2,,,26.8,26.8,,-0.01055896034851945,via,20191118
2019-11-18,11:33,11:33 AM,,,,0,0.0,0,26.82,26.82,26.82,100,2682.0,1,,,26.82,26.82,,-0.00982057151295866,via,20191118
2019-11-18,11:34,11:34 AM,,,,0,0.0,0,,,,0,0.0,0,,,,,,,via,20191118
2019-11-18,11:35,11:35 AM,,,,0,0.0,0,26.77,26.77,26.77,200,5354.0,2,,,26.77,26.77,,-0.011666543601860702,via,20191118
2019-11-18,11:36,11:36 AM,,,,0,0.0,0,,,,0,0.0,0,,,,,,,via,20191118
2019-11-18,11:37,11:37 AM,26.725,26.725,26.725,300,8017.5,1,26.725,26.7,26.711,1032,27566.22,7,26.725,26.725,26.725,26.71,,-0.01384479066676512,via,20191118
2019-11-18,11:38,11:38 AM,,,,0,0.0,0,26.72,26.72,26.72,200,5343.97,2,,,26.72,26.72,,-0.013512515690762743,via,20191118
2019-11-18,11:39,11:39 AM,,,,0,0.0,0,26.717,26.717,26.717,100,2671.72,1,,,26.717,26.717,,-0.01362327401609687,via,20191118
2019-11-18,11:40,11:40 AM,,,,0,0.0,0,,,,0,0.0,0,,,,,,,via,20191118
2019-11-18,11:41,11:41 AM,,,,0,0.0,0,26.75,26.75,26.75,400,10700.0,4,,,26.75,26.75,,-0.012404932437421492,via,20191118
2019-11-18,11:42,11:42 AM,,,,0,0.0,0,26.85,26.76,26.83,800,21464.0,4,,,26.76,26.85,,-0.00945137709517833,via,20191118
2019-11-18,11:43,11:43 AM,,,,0,0.0,0,26.79,26.74,26.771,1000,26771.4,10,,,26.74,26.74,,-0.011629624160082615,via,20191118
2019-11-18,11:44,11:44 AM,,,,0,0.0,0,26.72,26.72,26.72,100,2672.0,1,,,26.72,26.72,,-0.013512515690762743,via,20191118
2019-11-18,11:45,11:45 AM,,,,0,0.0,0,26.745,26.745,26.745,100,2674.5,1,,,26.745,26.745,,-0.012589529646311657,via,20191118
2019-11-18,11:46,11:46 AM,,,,0,0.0,0,26.725,26.71,26.717,216,5770.86,2,,,26.725,26.71,,-0.01362327401609687,via,20191118
2019-11-18,11:47,11:47 AM,,,,0,0.0,0,,,,0,0.0,0,,,,,,,via,20191118
2019-11-18,11:48,11:48 AM,,,,0,0.0,0,,,,0,0.0,0,,,,,,,via,20191118
2019-11-18,11:49,11:49 AM,,,,0,0.0,0,,,,0,0.0,0,,,,,,,via,20191118
2019-11-18,11:50,11:50 AM,,,,0,0.0,0,,,,0,0.0,0,,,,,,,via,20191118
2019-11-18,11:51,11:51 AM,,,,0,0.0,0,,,,0,0.0,0,,,,,,,via,20191118
2019-11-18,11:52,11:52 AM,,,,0,0.0,0,,,,0,0.0,0,,,,,,,via,20191118
2019-11-18,11:53,11:53 AM,,,,0,0.0,0,26.71,26.71,26.71,100,2671.0,1,,,26.71,26.71,,-0.013881710108543074,via,20191118
2019-11-18,11:54,11:54 AM,,,,0,0.0,0,,,,0,0.0,0,,,,,,,via,20191118
2019-11-18,11:55,11:55 AM,,,,0,0.0,0,26.72,26.71,26.717,300,8015.0,3,,,26.71,26.72,,-0.01362327401609687,via,20191118
2019-11-18,11:56,11:56 AM,,,,0,0.0,0,,,,0,0.0,0,,,,,,,via,20191118
2019-11-18,11:57,11:57 AM,,,,0,0.0,0,26.74,26.73,26.737,300,8021.0,3,,,26.73,26.74,,-0.012884885180536078,via,20191118
2019-11-18,11:58,11:58 AM,,,,0,0.0,0,,,,0,0.0,0,,,,,,,via,20191118
2019-11-18,11:59,11:59 AM,,,,0,0.0,0,,,,0,0.0,0,,,,,,,via,20191118
2019-11-18,12:00,12 PM,,,,0,0.0,0,,,,0,0.0,0,,,,,,,via,20191118
2019-11-18,12:01,12:01 PM,,,,0,0.0,0,,,,0,0.0,0,,,,,,,via,20191118
2019-11-18,12:02,12:02 PM,,,,0,0.0,0,,,,0,0.0,0,,,,,,,via,20191118
2019-11-18,12:03,12:03 PM,,,,0,0.0,0,,,,0,0.0,0,,,,,,,via,20191118
2019-11-18,12:04,12:04 PM,,,,0,0.0,0,26.74,26.74,26.74,200,5348.0,2,,,26.74,26.74,,-0.012774126855201953,via,20191118
2019-11-18,12:05,12:05 PM,,,,0,0.0,0,26.73,26.73,26.73,100,2673.0,1,,,26.73,26.73,,-0.013143321272982282,via,20191118
2019-11-18,12:06,12:06 PM,,,,0,0.0,0,26.83,26.729,26.794,1122,30063.2,5,,,26.73,26.83,,-0.0107804769991877,via,20191118
2019-11-18,12:07,12:07 PM,,,,0,0.0,0,,,,0,0.0,0,,,,,,,via,20191118
2019-11-18,12:08,12:08 PM,,,,0,0.0,0,,,,0,0.0,0,,,,,,,via,20191118
2019-11-18,12:09,12:09 PM,,,,0,0.0,0,,,,0,0.0,0,,,,,,,via,20191118
2019-11-18,12:10,12:10 PM,,,,0,0.0,0,,,,0,0.0,0,,,,,,,via,20191118
2019-11-18,12:11,12:11 PM,,,,0,0.0,0,,,,0,0.0,0,,,,,,,via,20191118
2019-11-18,12:12,12:12 PM,,,,0,0.0,0,,,,0,0.0,0,,,,,,,via,20191118
2019-11-18,12:13,12:13 PM,,,,0,0.0,0,,,,0,0.0,0,,,,,,,via,20191118
2019-11-18,12:14,12:14 PM,,,,0,0.0,0,,,,0,0.0,0,,,,,,,via,20191118
2019-11-18,12:15,12:15 PM,,,,0,0.0,0,26.73,26.67,26.706,900,24035.33,9,,,26.67,26.69,,-0.014029387875655283,via,20191118
2019-11-18,12:16,12:16 PM,,,,0,0.0,0,,,,0,0.0,0,,,,,,,via,20191118
2019-11-18,12:17,12:17 PM,,,,0,0.0,0,,,,0,0.0,0,,,,,,,via,20191118
2019-11-18,12:18,12:18 PM,,,,0,0.0,0,,,,0,0.0,0,,,,,,,via,20191118
2019-11-18,12:19,12:19 PM,,,,0,0.0,0,,,,0,0.0,0,,,,,,,via,20191118
2019-11-18,12:20,12:20 PM,,,,0,0.0,0,26.796,26.717,26.76,1038,27776.8806,6,,,26.73,26.74,,-0.01203573801964103,via,20191118
2019-11-18,12:21,12:21 PM,,,,0,0.0,0,26.73,26.72,26.723,400,10689.0,4,,,26.73,26.72,,-0.013401757365428618,via,20191118
2019-11-18,12:22,12:22 PM,,,,0,0.0,0,26.73,26.73,26.73,100,2673.0,1,,,26.73,26.73,,-0.013143321272982282,via,20191118
2019-11-18,12:23,12:23 PM,,,,0,0.0,0,26.715,26.715,26.715,300,8014.5,1,,,26.715,26.715,,-0.013697112899652909,via,20191118
2019-11-18,12:24,12:24 PM,,,,0,0.0,0,26.74,26.73,26.736,500,13368.1,5,,,26.73,26.74,,-0.012921804622314032,via,20191118
2019-11-18,12:25,12:25 PM,,,,0,0.0,0,,,,0,0.0,0,,,,,,,via,20191118
2019-11-18,12:26,12:26 PM,,,,0,0.0,0,,,,0,0.0,0,,,,,,,via,20191118
2019-11-18,12:27,12:27 PM,,,,0,0.0,0,,,,0,0.0,0,,,,,,,via,20191118
2019-11-18,12:28,12:28 PM,,,,0,0.0,0,26.73,26.715,26.725,315,8418.45,3,,,26.73,26.715,,-0.013327918481872448,via,20191118
2019-11-18,12:29,12:29 PM,,,,0,0.0,0,,,,0,0.0,0,,,,,,,via,20191118
2019-11-18,12:30,12:30 PM,,,,0,0.0,0,26.705,26.69,26.701,800,21360.5,7,,,26.7,26.705,,-0.014213985084545449,via,20191118
2019-11-18,12:31,12:31 PM,,,,0,0.0,0,26.7,26.7,26.7,150,4005.0,1,,,26.7,26.7,,-0.014250904526323535,via,20191118
2019-11-18,12:32,12:32 PM,,,,0,0.0,0,,,,0,0.0,0,,,,,,,via,20191118
2019-11-18,12:33,12:33 PM,,,,0,0.0,0,,,,0,0.0,0,,,,,,,via,20191118
2019-11-18,12:34,12:34 PM,,,,0,0.0,0,26.69,26.66,26.675,200,5335.0,2,,,26.69,26.66,,-0.015173890570774489,via,20191118
2019-11-18,12:35,12:35 PM,,,,0,0.0,0,,,,0,0.0,0,,,,,,,via,20191118
2019-11-18,12:36,12:36 PM,,,,0,0.0,0,,,,0,0.0,0,,,,,,,via,20191118
2019-11-18,12:37,12:37 PM,,,,0,0.0,0,,,,0,0.0,0,,,,,,,via,20191118
2019-11-18,12:38,12:38 PM,,,,0,0.0,0,,,,0,0.0,0,,,,,,,via,20191118
2019-11-18,12:39,12:39 PM,,,,0,0.0,0,26.67,26.67,26.67,1500,40005.0,1,,,26.67,26.67,,-0.015358487779664655,via,20191118
2019-11-18,12:40,12:40 PM,,,,0,0.0,0,,,,0,0.0,0,,,,,,,via,20191118
2019-11-18,12:41,12:41 PM,,,,0,0.0,0,,,,0,0.0,0,,,,,,,via,20191118
2019-11-18,12:42,12:42 PM,,,,0,0.0,0,26.69,26.63,26.68,600,16007.95,2,,,26.63,26.69,,-0.014989293361884325,via,20191118
2019-11-18,12:43,12:43 PM,,,,0,0.0,0,26.63,26.63,26.63,500,13315.05,1,,,26.63,26.63,,-0.01683526545078637,via,20191118
2019-11-18,12:44,12:44 PM,,,,0,0.0,0,,,,0,0.0,0,,,,,,,via,20191118
2019-11-18,12:45,12:45 PM,,,,0,0.0,0,,,,0,0.0,0,,,,,,,via,20191118
2019-11-18,12:46,12:46 PM,,,,0,0.0,0,,,,0,0.0,0,,,,,,,via,20191118
2019-11-18,12:47,12:47 PM,,,,0,0.0,0,,,,0,0.0,0,,,,,,,via,20191118
2019-11-18,12:48,12:48 PM,,,,0,0.0,0,26.635,26.63,26.631,800,21305.0,6,,,26.635,26.63,,-0.016798346009008282,via,20191118
2019-11-18,12:49,12:49 PM,,,,0,0.0,0,,,,0,0.0,0,,,,,,,via,20191118
2019-11-18,12:50,12:50 PM,,,,0,0.0,0,,,,0,0.0,0,,,,,,,via,20191118
2019-11-18,12:51,12:51 PM,,,,0,0.0,0,,,,0,0.0,0,,,,,,,via,20191118
2019-11-18,12:52,12:52 PM,,,,0,0.0,0,,,,0,0.0,0,,,,,,,via,20191118
2019-11-18,12:53,12:53 PM,,,,0,0.0,0,,,,0,0.0,0,,,,,,,via,20191118
2019-11-18,12:54,12:54 PM,,,,0,0.0,0,,,,0,0.0,0,,,,,,,via,20191118
2019-11-18,12:55,12:55 PM,,,,0,0.0,0,26.615,26.615,26.615,100,2661.5,1,,,26.615,26.615,,-0.01738905707745699,via,20191118
2019-11-18,12:56,12:56 PM,,,,0,0.0,0,26.615,26.6,26.608,200,5321.5,2,,,26.6,26.615,,-0.017647493169903196,via,20191118
2019-11-18,12:57,12:57 PM,,,,0,0.0,0,26.6,26.6,26.6,100,2660.0,1,,,26.6,26.6,,-0.017942848704127486,via,20191118
2019-11-18,12:58,12:58 PM,,,,0,0.0,0,,,,0,0.0,0,,,,,,,via,20191118
2019-11-18,12:59,12:59 PM,,,,0,0.0,0,,,,0,0.0,0,,,,,,,via,20191118
2019-11-18,13:00,1 PM,,,,0,0.0,0,26.58,26.58,26.58,100,2658.0,1,,,26.58,26.58,,-0.01868123753968841,via,20191118
2019-11-18,13:01,1:01 PM,,,,0,0.0,0,26.61,26.61,26.61,400,10643.96,2,,,26.61,26.61,,-0.01757365428634716,via,20191118
2019-11-18,13:02,1:02 PM,,,,0,0.0,0,26.61,26.592,26.601,700,18620.54,7,,,26.6,26.592,,-0.017905929262349532,via,20191118
2019-11-18,13:03,1:03 PM,,,,0,0.0,0,,,,0,0.0,0,,,,,,,via,20191118
2019-11-18,13:04,1:04 PM,,,,0,0.0,0,26.63,26.63,26.63,100,2663.0,1,,,26.63,26.63,,-0.01683526545078637,via,20191118
2019-11-18,13:05,1:05 PM,,,,0,0.0,0,,,,0,0.0,0,,,,,,,via,20191118
2019-11-18,13:06,1:06 PM,,,,0,0.0,0,26.64,26.61,26.634,500,13317.0,2,,,26.64,26.61,,-0.016687587683674156,via,20191118
2019-11-18,13:07,1:07 PM,,,,0,0.0,0,26.61,26.61,26.61,500,13305.0,2,,,26.61,26.61,,-0.01757365428634716,via,20191118
2019-11-18,13:08,1:08 PM,,,,0,0.0,0,26.61,26.61,26.61,100,2661.0,1,,,26.61,26.61,,-0.01757365428634716,via,20191118
2019-11-18,13:09,1:09 PM,,,,0,0.0,0,,,,0,0.0,0,,,,,,,via,20191118
2019-11-18,13:10,1:10 PM,,,,0,0.0,0,,,,0,0.0,0,,,,,,,via,20191118
2019-11-18,13:11,1:11 PM,,,,0,0.0,0,,,,0,0.0,0,,,,,,,via,20191118
2019-11-18,13:12,1:12 PM,,,,0,0.0,0,,,,0,0.0,0,,,,,,,via,20191118
2019-11-18,13:13,1:13 PM,,,,0,0.0,0,,,,0,0.0,0,,,,,,,via,20191118
2019-11-18,13:14,1:14 PM,,,,0,0.0,0,,,,0,0.0,0,,,,,,,via,20191118
2019-11-18,13:15,1:15 PM,,,,0,0.0,0,,,,0,0.0,0,,,,,,,via,20191118
2019-11-18,13:16,1:16 PM,,,,0,0.0,0,26.57,26.57,26.57,100,2657.0,1,,,26.57,26.57,,-0.01905043195746874,via,20191118
2019-11-18,13:17,1:17 PM,,,,0,0.0,0,26.583,26.583,26.583,375,9968.475,1,,,26.583,26.583,,-0.018570479214354285,via,20191118
2019-11-18,13:18,1:18 PM,,,,0,0.0,0,26.689,26.629,26.661,800,21328.54,5,,,26.63,26.629,,-0.01569076275566703,via,20191118
2019-11-18,13:19,1:19 PM,,,,0,0.0,0,26.669,26.669,26.669,382,10187.558,1,,,26.669,26.669,,-0.01539540722144274,via,20191118
2019-11-18,13:20,1:20 PM,,,,0,0.0,0,26.655,26.62,26.635,300,7990.5,3,,,26.63,26.655,,-0.01665066824189607,via,20191118
2019-11-18,13:21,1:21 PM,,,,0,0.0,0,26.615,26.58,26.596,600,15957.53,4,,,26.615,26.58,,-0.0180905264712397,via,20191118
2019-11-18,13:22,1:22 PM,,,,0,0.0,0,26.76,26.64,26.725,2503,66892.28,15,,,26.64,26.76,,-0.013327918481872448,via,20191118
2019-11-18,13:23,1:23 PM,,,,0,0.0,0,26.7,26.69,26.695,200,5339.0,2,,,26.7,26.69,,-0.014435501735213699,via,20191118
2019-11-18,13:24,1:24 PM,,,,0,0.0,0,26.69,26.69,26.69,100,2669.0,1,,,26.69,26.69,,-0.014620098944103864,via,20191118
2019-11-18,13:25,1:25 PM,,,,0,0.0,0,26.643,26.643,26.643,300,7993.05,1,,,26.643,26.643,,-0.016355312707671783,via,20191118
2019-11-18,13:26,1:26 PM,,,,0,0.0,0,26.65,26.65,26.65,100,2665.0,1,,,26.65,26.65,,-0.016096876615225575,via,20191118
2019-11-18,13:27,1:27 PM,,,,0,0.0,0,,,,0,0.0,0,,,,,,,via,20191118
2019-11-18,13:28,1:28 PM,,,,0,0.0,0,26.669,26.669,26.669,100,2666.9,1,,,26.669,26.669,,-0.01539540722144274,via,20191118
2019-11-18,13:29,1:29 PM,,,,0,0.0,0,,,,0,0.0,0,,,,,,,via,20191118
2019-11-18,13:30,1:30 PM,,,,0,0.0,0,,,,0,0.0,0,,,,,,,via,20191118
2019-11-18,13:31,1:31 PM,,,,0,0.0,0,,,,0,0.0,0,,,,,,,via,20191118
2019-11-18,13:32,1:32 PM,,,,0,0.0,0,26.66,26.66,26.66,100,2666.0,1,,,26.66,26.66,,-0.015727682197445116,via,20191118
2019-11-18,13:33,1:33 PM,,,,0,0.0,0,26.749,26.64,26.681,800,21344.67,6,,,26.64,26.749,,-0.01495237392010624,via,20191118
2019-11-18,13:34,1:34 PM,,,,0,0.0,0,,,,0,0.0,0,,,,,,,via,20191118
2019-11-18,13:35,1:35 PM,,,,0,0.0,0,,,,0,0.0,0,,,,,,,via,20191118
2019-11-18,13:36,1:36 PM,,,,0,0.0,0,26.74,26.68,26.715,1300,34729.78,6,,,26.68,26.68,,-0.013697112899652909,via,20191118
2019-11-18,13:37,1:37 PM,,,,0,0.0,0,26.695,26.68,26.688,200,5337.5,2,,,26.68,26.695,,-0.014693937827660035,via,20191118
2019-11-18,13:38,1:38 PM,,,,0,0.0,0,,,,0,0.0,0,,,,,,,via,20191118
2019-11-18,13:39,1:39 PM,,,,0,0.0,0,,,,0,0.0,0,,,,,,,via,20191118
2019-11-18,13:40,1:40 PM,,,,0,0.0,0,,,,0,0.0,0,,,,,,,via,20191118
2019-11-18,13:41,1:41 PM,,,,0,0.0,0,26.59,26.59,26.59,100,2659.0,1,,,26.59,26.59,,-0.01831204312190795,via,20191118
2019-11-18,13:42,1:42 PM,,,,0,0.0,0,,,,0,0.0,0,,,,,,,via,20191118
2019-11-18,13:43,1:43 PM,,,,0,0.0,0,26.636,26.636,26.636,200,5327.12,1,,,26.636,26.636,,-0.016613748800118115,via,20191118
2019-11-18,13:44,1:44 PM,,,,0,0.0,0,,,,0,0.0,0,,,,,,,via,20191118
2019-11-18,13:45,1:45 PM,,,,0,0.0,0,,,,0,0.0,0,,,,,,,via,20191118
2019-11-18,13:46,1:46 PM,,,,0,0.0,0,,,,0,0.0,0,,,,,,,via,20191118
2019-11-18,13:47,1:47 PM,,,,0,0.0,0,,,,0,0.0,0,,,,,,,via,20191118
2019-11-18,13:48,1:48 PM,,,,0,0.0,0,,,,0,0.0,0,,,,,,,via,20191118
2019-11-18,13:49,1:49 PM,,,,0,0.0,0,26.615,26.615,26.615,100,2661.5,1,,,26.615,26.615,,-0.01738905707745699,via,20191118
2019-11-18,13:50,1:50 PM,,,,0,0.0,0,,,,0,0.0,0,,,,,,,via,20191118
2019-11-18,13:51,1:51 PM,,,,0,0.0,0,,,,0,0.0,0,,,,,,,via,20191118
2019-11-18,13:52,1:52 PM,,,,0,0.0,0,,,,0,0.0,0,,,,,,,via,20191118
2019-11-18,13:53,1:53 PM,,,,0,0.0,0,,,,0,0.0,0,,,,,,,via,20191118
2019-11-18,13:54,1:54 PM,,,,0,0.0,0,,,,0,0.0,0,,,,,,,via,20191118
2019-11-18,13:55,1:55 PM,,,,0,0.0,0,26.62,26.62,26.62,100,2662.0,1,,,26.62,26.62,,-0.017204459868566696,via,20191118
2019-11-18,13:56,1:56 PM,,,,0,0.0,0,,,,0,0.0,0,,,,,,,via,20191118
2019-11-18,13:57,1:57 PM,,,,0,0.0,0,,,,0,0.0,0,,,,,,,via,20191118
2019-11-18,13:58,1:58 PM,,,,0,0.0,0,26.62,26.62,26.62,100,2662.0,1,,,26.62,26.62,,-0.017204459868566696,via,20191118
2019-11-18,13:59,1:59 PM,,,,0,0.0,0,,,,0,0.0,0,,,,,,,via,20191118
2019-11-18,14:00,2 PM,,,,0,0.0,0,,,,0,0.0,0,,,,,,,via,20191118
2019-11-18,14:01,2:01 PM,,,,0,0.0,0,26.66,26.63,26.645,200,5329.0,2,,,26.63,26.66,,-0.016281473824115742,via,20191118
2019-11-18,14:02,2:02 PM,,,,0,0.0,0,,,,0,0.0,0,,,,,,,via,20191118
2019-11-18,14:03,2:03 PM,,,,0,0.0,0,,,,0,0.0,0,,,,,,,via,20191118
2019-11-18,14:04,2:04 PM,,,,0,0.0,0,,,,0,0.0,0,,,,,,,via,20191118
2019-11-18,14:05,2:05 PM,,,,0,0.0,0,,,,0,0.0,0,,,,,,,via,20191118
2019-11-18,14:06,2:06 PM,,,,0,0.0,0,26.61,26.61,26.61,100,2661.0,1,,,26.61,26.61,,-0.01757365428634716,via,20191118
2019-11-18,14:07,2:07 PM,,,,0,0.0,0,26.63,26.63,26.63,100,2663.0,1,,,26.63,26.63,,-0.01683526545078637,via,20191118
2019-11-18,14:08,2:08 PM,,,,0,0.0,0,26.63,26.63,26.63,100,2663.0,1,,,26.63,26.63,,-0.01683526545078637,via,20191118
2019-11-18,14:09,2:09 PM,,,,0,0.0,0,26.63,26.63,26.63,100,2663.04,1,,,26.63,26.63,,-0.01683526545078637,via,20191118
2019-11-18,14:10,2:10 PM,,,,0,0.0,0,26.64,26.62,26.624,500,13312.04,2,,,26.64,26.62,,-0.01705678210145462,via,20191118
2019-11-18,14:11,2:11 PM,,,,0,0.0,0,,,,0,0.0,0,,,,,,,via,20191118
2019-11-18,14:12,2:12 PM,,,,0,0.0,0,26.623,26.623,26.623,300,7986.96,1,,,26.623,26.623,,-0.017093701543232573,via,20191118
2019-11-18,14:13,2:13 PM,,,,0,0.0,0,26.65,26.65,26.65,300,7995.0,1,,,26.65,26.65,,-0.016096876615225575,via,20191118
2019-11-18,14:14,2:14 PM,,,,0,0.0,0,26.636,26.636,26.636,188,5007.4928,1,,,26.636,26.636,,-0.016613748800118115,via,20191118
2019-11-18,14:15,2:15 PM,,,,0,0.0,0,26.65,26.65,26.65,300,7995.0,1,,,26.65,26.65,,-0.016096876615225575,via,20191118
2019-11-18,14:16,2:16 PM,,,,0,0.0,0,26.621,26.621,26.621,111,2954.8866,1,,,26.621,26.621,,-0.01716754042678874,via,20191118
2019-11-18,14:17,2:17 PM,,,,0,0.0,0,,,,0,0.0,0,,,,,,,via,20191118
2019-11-18,14:18,2:18 PM,,,,0,0.0,0,,,,0,0.0,0,,,,,,,via,20191118
2019-11-18,14:19,2:19 PM,,,,0,0.0,0,,,,0,0.0,0,,,,,,,via,20191118
2019-11-18,14:20,2:20 PM,,,,0,0.0,0,26.62,26.62,26.62,100,2662.0,1,,,26.62,26.62,,-0.017204459868566696,via,20191118
2019-11-18,14:21,2:21 PM,,,,0,0.0,0,,,,0,0.0,0,,,,,,,via,20191118
2019-11-18,14:22,2:22 PM,,,,0,0.0,0,,,,0,0.0,0,,,,,,,via,20191118
2019-11-18,14:23,2:23 PM,,,,0,0.0,0,,,,0,0.0,0,,,,,,,via,20191118
2019-11-18,14:24,2:24 PM,,,,0,0.0,0,,,,0,0.0,0,,,,,,,via,20191118
2019-11-18,14:25,2:25 PM,,,,0,0.0,0,,,,0,0.0,0,,,,,,,via,20191118
2019-11-18,14:26,2:26 PM,,,,0,0.0,0,26.661,26.661,26.661,100,2666.14,1,,,26.661,26.661,,-0.01569076275566703,via,20191118
2019-11-18,14:27,2:27 PM,,,,0,0.0,0,26.645,26.6,26.616,350,9315.5,3,,,26.645,26.61,,-0.01735213763567891,via,20191118
2019-11-18,14:28,2:28 PM,,,,0,0.0,0,,,,0,0.0,0,,,,,,,via,20191118
2019-11-18,14:29,2:29 PM,,,,0,0.0,0,,,,0,0.0,0,,,,,,,via,20191118
2019-11-18,14:30,2:30 PM,,,,0,0.0,0,,,,0,0.0,0,,,,,,,via,20191118
2019-11-18,14:31,2:31 PM,,,,0,0.0,0,26.61,26.61,26.61,100,2661.0,1,,,26.61,26.61,,-0.01757365428634716,via,20191118
2019-11-18,14:32,2:32 PM,,,,0,0.0,0,,,,0,0.0,0,,,,,,,via,20191118
2019-11-18,14:33,2:33 PM,,,,0,0.0,0,,,,0,0.0,0,,,,,,,via,20191118
2019-11-18,14:34,2:34 PM,,,,0,0.0,0,26.634,26.631,26.633,305,8123.0365,2,,,26.631,26.634,,-0.016724507125452242,via,20191118
2019-11-18,14:35,2:35 PM,,,,0,0.0,0,,,,0,0.0,0,,,,,,,via,20191118
2019-11-18,14:36,2:36 PM,,,,0,0.0,0,26.65,26.65,26.65,100,2665.0,1,,,26.65,26.65,,-0.016096876615225575,via,20191118
2019-11-18,14:37,2:37 PM,26.64,26.64,26.64,400,10656.0,2,26.64,26.64,26.64,400,10656.0,2,26.64,26.64,26.64,26.64,,-0.016466071033005906,via,20191118
2019-11-18,14:38,2:38 PM,26.64,26.64,26.64,400,10656.0,1,26.64,26.64,26.64,400,10656.0,1,26.64,26.64,26.64,26.64,,-0.016466071033005906,via,20191118
2019-11-18,14:39,2:39 PM,26.64,26.64,26.64,200,5328.0,2,26.64,26.63,26.637,300,7991.0,3,26.64,26.64,26.63,26.64,,-0.016576829358340033,via,20191118
2019-11-18,14:40,2:40 PM,26.64,26.64,26.64,900,23976.0,2,26.64,26.64,26.64,900,23976.0,2,26.64,26.64,26.64,26.64,,-0.016466071033005906,via,20191118
2019-11-18,14:41,2:41 PM,,,,0,0.0,0,,,,0,0.0,0,,,,,,,via,20191118
2019-11-18,14:42,2:42 PM,26.64,26.64,26.64,200,5328.0,2,26.65,26.64,26.646,467,12443.55,4,26.64,26.64,26.65,26.65,,-0.016244554382337656,via,20191118
2019-11-18,14:43,2:43 PM,,,,0,0.0,0,26.7,26.69,26.692,500,13346.0,4,,,26.69,26.7,,-0.014546260060547824,via,20191118
2019-11-18,14:44,2:44 PM,,,,0,0.0,0,,,,0,0.0,0,,,,,,,via,20191118
2019-11-18,14:45,2:45 PM,,,,0,0.0,0,26.72,26.72,26.72,100,2672.0,1,,,26.72,26.72,,-0.013512515690762743,via,20191118
2019-11-18,14:46,2:46 PM,,,,0,0.0,0,,,,0,0.0,0,,,,,,,via,20191118
2019-11-18,14:47,2:47 PM,,,,0,0.0,0,,,,0,0.0,0,,,,,,,via,20191118
2019-11-18,14:48,2:48 PM,,,,0,0.0,0,26.679,26.679,26.679,100,2667.94,1,,,26.679,26.679,,-0.01502621280366241,via,20191118
2019-11-18,14:49,2:49 PM,,,,0,0.0,0,,,,0,0.0,0,,,,,,,via,20191118
2019-11-18,14:50,2:50 PM,,,,0,0.0,0,26.7,26.7,26.7,100,2670.0,1,,,26.7,26.7,,-0.014250904526323535,via,20191118
2019-11-18,14:51,2:51 PM,,,,0,0.0,0,,,,0,0.0,0,,,,,,,via,20191118
2019-11-18,14:52,2:52 PM,,,,0,0.0,0,,,,0,0.0,0,,,,,,,via,20191118
2019-11-18,14:53,2:53 PM,,,,0,0.0,0,26.72,26.72,26.72,100,2672.0,1,,,26.72,26.72,,-0.013512515690762743,via,20191118
2019-11-18,14:54,2:54 PM,,,,0,0.0,0,26.715,26.715,26.715,200,5342.96,1,,,26.715,26.715,,-0.013697112899652909,via,20191118
2019-11-18,14:55,2:55 PM,,,,0,0.0,0,26.74,26.701,26.725,1484,39659.7904,5,,,26.701,26.735,,-0.013327918481872448,via,20191118
2019-11-18,14:56,2:56 PM,,,,0,0.0,0,,,,0,0.0,0,,,,,,,via,20191118
2019-11-18,14:57,2:57 PM,,,,0,0.0,0,,,,0,0.0,0,,,,,,,via,20191118
2019-11-18,14:58,2:58 PM,,,,0,0.0,0,26.75,26.75,26.75,200,5349.96,1,,,26.75,26.75,,-0.012404932437421492,via,20191118
2019-11-18,14:59,2:59 PM,,,,0,0.0,0,,,,0,0.0,0,,,,,,,via,20191118
2019-11-18,15:00,3 PM,,,,0,0.0,0,26.748,26.71,26.742,613,16392.724,2,,,26.71,26.748,,-0.012700287971645782,via,20191118
2019-11-18,15:01,3:01 PM,,,,0,0.0,0,,,,0,0.0,0,,,,,,,via,20191118
2019-11-18,15:02,3:02 PM,,,,0,0.0,0,,,,0,0.0,0,,,,,,,via,20191118
2019-11-18,15:03,3:03 PM,,,,0,0.0,0,26.72,26.72,26.72,300,8016.0,1,,,26.72,26.72,,-0.013512515690762743,via,20191118
2019-11-18,15:04,3:04 PM,,,,0,0.0,0,,,,0,0.0,0,,,,,,,via,20191118
2019-11-18,15:05,3:05 PM,,,,0,0.0,0,,,,0,0.0,0,,,,,,,via,20191118
2019-11-18,15:06,3:06 PM,,,,0,0.0,0,,,,0,0.0,0,,,,,,,via,20191118
2019-11-18,15:07,3:07 PM,,,,0,0.0,0,26.76,26.76,26.76,100,2676.0,1,,,26.76,26.76,,-0.01203573801964103,via,20191118
2019-11-18,15:08,3:08 PM,,,,0,0.0,0,,,,0,0.0,0,,,,,,,via,20191118
2019-11-18,15:09,3:09 PM,,,,0,0.0,0,,,,0,0.0,0,,,,,,,via,20191118
2019-11-18,15:10,3:10 PM,,,,0,0.0,0,,,,0,0.0,0,,,,,,,via,20191118
2019-11-18,15:11,3:11 PM,,,,0,0.0,0,,,,0,0.0,0,,,,,,,via,20191118
2019-11-18,15:12,3:12 PM,,,,0,0.0,0,,,,0,0.0,0,,,,,,,via,20191118
2019-11-18,15:13,3:13 PM,,,,0,0.0,0,,,,0,0.0,0,,,,,,,via,20191118
2019-11-18,15:14,3:14 PM,,,,0,0.0,0,,,,0,0.0,0,,,,,,,via,20191118
2019-11-18,15:15,3:15 PM,,,,0,0.0,0,26.823,26.79,26.798,1700,45557.33,9,,,26.823,26.805,,-0.010632799232075621,via,20191118
2019-11-18,15:16,3:16 PM,,,,0,0.0,0,26.85,26.814,26.835,900,24151.45,3,,,26.85,26.818,,-0.009266779886288034,via,20191118
2019-11-18,15:17,3:17 PM,,,,0,0.0,0,26.806,26.79,26.798,400,10719.16,2,,,26.806,26.79,,-0.010632799232075621,via,20191118
2019-11-18,15:18,3:18 PM,,,,0,0.0,0,26.834,26.834,26.834,180,4830.03,1,,,26.834,26.834,,-0.00930369932806612,via,20191118
2019-11-18,15:19,3:19 PM,,,,0,0.0,0,,,,0,0.0,0,,,,,,,via,20191118
2019-11-18,15:20,3:20 PM,,,,0,0.0,0,26.81,26.81,26.81,100,2681.0,1,,,26.81,26.81,,-0.010189765930739121,via,20191118
2019-11-18,15:21,3:21 PM,26.815,26.815,26.815,72,1930.68,1,26.83,26.83,26.83,200,5366.0,2,26.815,26.815,26.83,26.83,,-0.00945137709517833,via,20191118
2019-11-18,15:22,3:22 PM,,,,0,0.0,0,26.825,26.825,26.825,100,2682.5,1,,,26.825,26.825,,-0.009635974304068495,via,20191118
2019-11-18,15:23,3:23 PM,,,,0,0.0,0,,,,0,0.0,0,,,,,,,via,20191118
2019-11-18,15:24,3:24 PM,26.855,26.855,26.855,100,2685.5,1,26.86,26.83,26.842,2201,59078.84,13,26.855,26.855,26.86,26.84,,-0.00900834379384183,via,20191118
2019-11-18,15:25,3:25 PM,,,,0,0.0,0,26.85,26.85,26.85,100,2685.0,1,,,26.85,26.85,,-0.008712988259617409,via,20191118
2019-11-18,15:26,3:26 PM,,,,0,0.0,0,,,,0,0.0,0,,,,,,,via,20191118
2019-11-18,15:27,3:27 PM,,,,0,0.0,0,,,,0,0.0,0,,,,,,,via,20191118
2019-11-18,15:28,3:28 PM,,,,0,0.0,0,,,,0,0.0,0,,,,,,,via,20191118
2019-11-18,15:29,3:29 PM,,,,0,0.0,0,,,,0,0.0,0,,,,,,,via,20191118
2019-11-18,15:30,3:30 PM,,,,0,0.0,0,26.841,26.841,26.841,100,2684.1,1,,,26.841,26.841,,-0.009045263235619784,via,20191118
2019-11-18,15:31,3:31 PM,,,,0,0.0,0,,,,0,0.0,0,,,,,,,via,20191118
2019-11-18,15:32,3:32 PM,,,,0,0.0,0,26.848,26.82,26.839,650,17445.66,3,,,26.82,26.83,,-0.009119102119175954,via,20191118
2019-11-18,15:33,3:33 PM,,,,0,0.0,0,26.87,26.85,26.867,1012,27189.41,5,,,26.85,26.87,,-0.008085357749390742,via,20191118
2019-11-18,15:34,3:34 PM,,,,0,0.0,0,,,,0,0.0,0,,,,,,,via,20191118
2019-11-18,15:35,3:35 PM,,,,0,0.0,0,,,,0,0.0,0,,,,,,,via,20191118
2019-11-18,15:36,3:36 PM,,,,0,0.0,0,26.87,26.84,26.86,1634,43889.37,8,,,26.84,26.84,,-0.008343793841837078,via,20191118
2019-11-18,15:37,3:37 PM,,,,0,0.0,0,,,,0,0.0,0,,,,,,,via,20191118
2019-11-18,15:38,3:38 PM,,,,0,0.0,0,,,,0,0.0,0,,,,,,,via,20191118
2019-11-18,15:39,3:39 PM,,,,0,0.0,0,,,,0,0.0,0,,,,,,,via,20191118
2019-11-18,15:40,3:40 PM,,,,0,0.0,0,26.84,26.84,26.84,199,5341.16,1,,,26.84,26.84,,-0.009082182677397868,via,20191118
2019-11-18,15:41,3:41 PM,,,,0,0.0,0,26.85,26.84,26.842,500,13421.0,4,,,26.84,26.84,,-0.00900834379384183,via,20191118
2019-11-18,15:42,3:42 PM,,,,0,0.0,0,,,,0,0.0,0,,,,,,,via,20191118
2019-11-18,15:43,3:43 PM,,,,0,0.0,0,26.85,26.84,26.845,200,5369.0,2,,,26.84,26.85,,-0.008897585468507704,via,20191118
2019-11-18,15:44,3:44 PM,,,,0,0.0,0,26.89,26.86,26.877,401,10777.87,4,,,26.86,26.89,,-0.007716163331610413,via,20191118
2019-11-18,15:45,3:45 PM,,,,0,0.0,0,26.92,26.89,26.899,1954,52561.6,7,,,26.89,26.92,,-0.006903935612493452,via,20191118
2019-11-18,15:46,3:46 PM,26.925,26.925,26.925,100,2692.5,1,26.925,26.89,26.901,1300,34971.58,13,26.925,26.925,26.9,26.9,,-0.006830096728937411,via,20191118
2019-11-18,15:47,3:47 PM,,,,0,0.0,0,26.976,26.96,26.968,400,10787.2,4,,,26.96,26.976,,-0.004356494129808704,via,20191118
2019-11-18,15:48,3:48 PM,,,,0,0.0,0,27.03,26.947,26.977,1933,52147.5488,17,,,26.98,26.96,,-0.004024219153806329,via,20191118
2019-11-18,15:49,3:49 PM,,,,0,0.0,0,,,,0,0.0,0,,,,,,,via,20191118
2019-11-18,15:50,3:50 PM,,,,0,0.0,0,26.96,26.94,26.953,301,8112.96,3,,,26.96,26.96,,-0.00491028575647933,via,20191118
2019-11-18,15:51,3:51 PM,,,,0,0.0,0,26.93,26.93,26.93,100,2693.0,1,,,26.93,26.93,,-0.005759432917374245,via,20191118
2019-11-18,15:52,3:52 PM,26.91,26.91,26.91,10,269.1,1,26.97,26.97,26.97,100,2697.0,1,26.91,26.91,26.97,26.97,,-0.004282655246252664,via,20191118
2019-11-18,15:53,3:53 PM,,,,0,0.0,0,26.97,26.97,26.97,200,5394.0,2,,,26.97,26.97,,-0.004282655246252664,via,20191118
2019-11-18,15:54,3:54 PM,,,,0,0.0,0,,,,0,0.0,0,,,,,,,via,20191118
2019-11-18,15:55,3:55 PM,,,,0,0.0,0,26.95,26.95,26.95,200,5390.0,2,,,26.95,26.95,,-0.005021044081813455,via,20191118
2019-11-18,15:56,3:56 PM,,,,0,0.0,0,26.98,26.94,26.965,400,10786.0,4,,,26.94,26.98,,-0.004467252455142829,via,20191118
2019-11-18,15:57,3:57 PM,,,,0,0.0,0,27.05,27.0,27.024,943,25483.27,8,,,27.0,27.03,,-0.0022890053902384117,via,20191118
2019-11-18,15:58,3:58 PM,,,,0,0.0,0,27.05,27.04,27.045,400,10818.0,4,,,27.05,27.05,,-0.0015136971128995355,via,20191118
2019-11-18,15:59,3:59 PM,,,,0,0.0,0,27.09,27.05,27.078,1751,47414.135,12,,,27.05,27.09,,-0.00029535553422429,via,20191118
