date,minute,label,high,low,average,volume,notional,numberOfTrades,marketHigh,marketLow,marketAverage,marketVolume,marketNotional,marketNumberOfTrades,open,close,marketOpen,marketClose,changeOverTime,marketChangeOverTime,tickerName,tickerDate
2019-12-11,09:30,09:30 AM,,,,0,0.0,0,26.83,26.79,26.83,43032,1154536.56,9,,,26.83,26.82,,0.0,wu,20191211
2019-12-11,09:31,09:31 AM,,,,0,0.0,0,26.89,26.82,26.856,3127,83979.33,27,,,26.82,26.86,,0.0009690644800597598,wu,20191211
2019-12-11,09:32,09:32 AM,,,,0,0.0,0,26.88,26.85,26.864,4601,123600.86,33,,,26.86,26.87,,0.0012672381662319223,wu,20191211
2019-12-11,09:33,09:33 AM,26.86,26.86,26.86,100,2686.0,1,26.88,26.86,26.871,4522,121511.14,29,26.86,26.86,26.88,26.88,,0.0015281401416325148,wu,20191211
2019-12-11,09:34,09:34 AM,26.87,26.825,26.837,614,16477.83,8,26.88,26.825,26.849,5320,142838.54,42,26.87,26.825,26.875,26.84,,0.0007081625046590349,wu,20191211
2019-12-11,09:35,09:35 AM,,,,0,0.0,0,26.85,26.83,26.839,2600,69781.0,20,,,26.83,26.835,,0.00033544539694373247,wu,20191211
2019-12-11,09:36,09:36 AM,26.835,26.835,26.835,200,5367.0,1,26.84,26.835,26.836,2200,59039.5,9,26.835,26.835,26.835,26.835,,0.00022363026462915496,wu,20191211
2019-12-11,09:37,09:37 AM,26.85,26.835,26.84,310,8320.5,4,26.86,26.83,26.845,4801,128883.85,39,26.835,26.85,26.835,26.85,,0.0005590756615728874,wu,20191211
2019-12-11,09:38,09:38 AM,26.855,26.85,26.853,290,7787.5,3,26.86,26.85,26.856,1100,29541.5,10,26.85,26.85,26.855,26.855,,0.0009690644800597598,wu,20191211
2019-12-11,09:39,09:39 AM,26.855,26.855,26.855,500,13427.5,4,26.86,26.85,26.855,4237,113786.135,32,26.855,26.855,26.86,26.855,,0.0009317927692881899,wu,20191211
2019-12-11,09:40,09:40 AM,26.855,26.83,26.84,300,8052.0,3,26.855,26.83,26.843,3726,100016.95,34,26.855,26.835,26.855,26.835,,0.0004845322400298799,wu,20191211
2019-12-11,09:41,09:41 AM,26.835,26.835,26.835,100,2683.5,1,26.85,26.83,26.841,4372,117347.23,33,26.835,26.835,26.83,26.845,,0.00040998881848687237,wu,20191211
2019-12-11,09:42,09:42 AM,26.845,26.845,26.845,600,16107.0,5,26.85,26.84,26.845,3500,93957.3,30,26.845,26.845,26.845,26.85,,0.0005590756615728874,wu,20191211
2019-12-11,09:43,09:43 AM,26.845,26.845,26.845,200,5369.0,2,26.85,26.84,26.845,1963,52696.735,13,26.845,26.845,26.84,26.845,,0.0005590756615728874,wu,20191211
2019-12-11,09:44,09:44 AM,26.845,26.83,26.837,1301,34914.84,12,26.855,26.83,26.842,13433,360571.525,88,26.845,26.83,26.84,26.835,,0.0004472605292583099,wu,20191211
2019-12-11,09:45,09:45 AM,26.835,26.835,26.835,1100,29518.5,5,26.84,26.83,26.834,3600,96604.0,20,26.835,26.835,26.84,26.835,,0.00014908684308614746,wu,20191211
2019-12-11,09:46,09:46 AM,26.835,26.835,26.835,900,24151.5,7,26.84,26.835,26.835,4500,120759.5,29,26.835,26.835,26.835,26.835,,0.00018635855385771741,wu,20191211
2019-12-11,09:47,09:47 AM,26.835,26.835,26.835,1900,50986.5,5,26.84,26.835,26.835,4954,132942.54,21,26.835,26.835,26.835,26.835,,0.00018635855385771741,wu,20191211
2019-12-11,09:48,09:48 AM,26.835,26.835,26.835,1300,34885.5,8,26.84,26.83,26.836,8845,237365.015,51,26.835,26.835,26.835,26.83,,0.00022363026462915496,wu,20191211
2019-12-11,09:49,09:49 AM,26.84,26.835,26.835,3400,91240.5,15,26.84,26.835,26.836,9400,252260.85,53,26.835,26.835,26.835,26.84,,0.00022363026462915496,wu,20191211
2019-12-11,09:50,09:50 AM,26.84,26.835,26.835,2702,72508.18,10,26.84,26.83,26.835,5530,148397.4,32,26.835,26.835,26.835,26.835,,0.00018635855385771741,wu,20191211
2019-12-11,09:51,09:51 AM,26.835,26.835,26.835,4149,111338.415,9,26.84,26.83,26.835,5049,135490.415,16,26.835,26.835,26.835,26.835,,0.00018635855385771741,wu,20191211
2019-12-11,09:52,09:52 AM,26.835,26.835,26.835,3811,102268.185,14,26.84,26.83,26.835,4811,129105.685,24,26.835,26.835,26.835,26.835,,0.00018635855385771741,wu,20191211
2019-12-11,09:53,09:53 AM,26.84,26.835,26.835,4400,118074.5,12,26.84,26.83,26.835,6800,182481.6,24,26.835,26.835,26.835,26.83,,0.00018635855385771741,wu,20191211
2019-12-11,09:54,09:54 AM,26.835,26.835,26.835,3360,90165.6,7,26.84,26.83,26.834,10411,279365.85,45,26.835,26.835,26.83,26.837,,0.00014908684308614746,wu,20191211
2019-12-11,09:55,09:55 AM,26.835,26.835,26.835,4097,109942.995,13,26.84,26.835,26.835,6259,167963.075,23,26.835,26.835,26.835,26.835,,0.00018635855385771741,wu,20191211
2019-12-11,09:56,09:56 AM,26.835,26.835,26.835,3300,88555.5,10,26.84,26.83,26.836,7872,211252.26,35,26.835,26.835,26.835,26.84,,0.00022363026462915496,wu,20191211
2019-12-11,09:57,09:57 AM,26.845,26.84,26.845,1337,35891.58,7,26.85,26.835,26.841,11038,296268.26,56,26.84,26.845,26.835,26.845,,0.00040998881848687237,wu,20191211
2019-12-11,09:58,09:58 AM,26.845,26.845,26.845,1700,45636.5,9,26.85,26.84,26.845,5247,140854.715,31,26.845,26.845,26.845,26.84,,0.0005590756615728874,wu,20191211
2019-12-11,09:59,09:59 AM,26.865,26.855,26.857,600,16114.0,3,26.865,26.84,26.852,11144,299235.63,76,26.865,26.855,26.845,26.855,,0.0008199776369736124,wu,20191211
2019-12-11,10:00,10 AM,26.855,26.85,26.852,200,5370.5,2,26.86,26.85,26.855,2179,58517.46,12,26.855,26.85,26.86,26.85,,0.0009317927692881899,wu,20191211
2019-12-11,10:01,10:01 AM,26.855,26.825,26.834,932,25009.4,8,26.855,26.82,26.835,9314,249940.56,56,26.855,26.825,26.855,26.825,,0.00018635855385771741,wu,20191211
2019-12-11,10:02,10:02 AM,26.825,26.825,26.825,200,5365.0,2,26.83,26.82,26.824,700,18777.0,6,26.825,26.825,26.825,26.83,,-0.00022363026462902255,wu,20191211
2019-12-11,10:03,10:03 AM,26.825,26.825,26.825,300,8047.5,3,26.83,26.825,26.825,1100,29508.0,6,26.825,26.825,26.83,26.825,,-0.000186358553857585,wu,20191211
2019-12-11,10:04,10:04 AM,26.825,26.815,26.819,752,20167.88,6,26.825,26.81,26.821,2850,76439.24,22,26.825,26.815,26.82,26.81,,-0.00033544539694360003,wu,20191211
2019-12-11,10:05,10:05 AM,26.825,26.825,26.825,100,2682.5,1,26.83,26.815,26.821,4300,115328.9,25,26.825,26.825,26.82,26.823,,-0.00033544539694360003,wu,20191211
2019-12-11,10:06,10:06 AM,26.82,26.805,26.81,1049,28123.495,11,26.83,26.8,26.815,23913,641233.385,148,26.82,26.805,26.82,26.805,,-0.000559075661572755,wu,20191211
2019-12-11,10:07,10:07 AM,26.805,26.8,26.804,124,3323.7,2,26.805,26.8,26.802,900,24121.5,8,26.805,26.8,26.805,26.805,,-0.001043607901602635,wu,20191211
2019-12-11,10:08,10:08 AM,26.805,26.805,26.805,203,5441.415,1,26.81,26.805,26.807,903,24206.415,8,26.805,26.805,26.81,26.805,,-0.0008572493477450499,wu,20191211
2019-12-11,10:09,10:09 AM,26.805,26.805,26.805,100,2680.5,1,26.805,26.8,26.803,600,16082.0,6,26.805,26.805,26.805,26.8,,-0.001006336190831065,wu,20191211
2019-12-11,10:10,10:10 AM,26.805,26.8,26.805,745,19969.625,6,26.81,26.805,26.806,925,24795.625,7,26.805,26.805,26.805,26.805,,-0.0008945210585164875,wu,20191211
2019-12-11,10:11,10:11 AM,26.805,26.805,26.805,300,8041.5,3,26.81,26.8,26.805,820,21980.5,8,26.805,26.805,26.805,26.81,,-0.0009317927692880574,wu,20191211
2019-12-11,10:12,10:12 AM,26.805,26.785,26.797,1000,26796.5,9,26.81,26.78,26.794,7243,194071.92,60,26.805,26.785,26.81,26.78,,-0.0013417815877747974,wu,20191211
2019-12-11,10:13,10:13 AM,26.78,26.78,26.78,100,2678.0,1,26.785,26.78,26.783,300,8035.0,3,26.78,26.78,26.785,26.785,,-0.0017517704062615374,wu,20191211
2019-12-11,10:14,10:14 AM,26.785,26.78,26.783,300,8035.0,3,26.785,26.78,26.782,700,18747.5,7,26.785,26.78,26.785,26.78,,-0.0017890421170331074,wu,20191211
2019-12-11,10:15,10:15 AM,26.785,26.77,26.775,1600,42840.5,6,26.785,26.77,26.776,4608,123384.74,26,26.785,26.775,26.785,26.775,,-0.002012672381662262,wu,20191211
2019-12-11,10:16,10:16 AM,26.77,26.76,26.765,700,18735.5,5,26.77,26.76,26.765,3210,85915.635,26,26.77,26.765,26.77,26.765,,-0.0024226612001490024,wu,20191211
2019-12-11,10:17,10:17 AM,26.765,26.76,26.762,200,5352.5,2,26.765,26.76,26.76,2963,79291.22,10,26.76,26.765,26.76,26.765,,-0.0026090197540065874,wu,20191211
2019-12-11,10:18,10:18 AM,26.76,26.75,26.754,1400,37455.5,11,26.76,26.75,26.756,5063,135463.19,41,26.76,26.75,26.76,26.75,,-0.002758106597092735,wu,20191211
2019-12-11,10:19,10:19 AM,26.75,26.74,26.745,975,26076.5,9,26.75,26.74,26.747,4400,117688.0,38,26.75,26.745,26.75,26.75,,-0.0030935519940364672,wu,20191211
2019-12-11,10:20,10:20 AM,26.765,26.74,26.76,3434,91893.685,13,26.765,26.74,26.756,11293,302151.185,68,26.745,26.765,26.75,26.765,,-0.002758106597092735,wu,20191211
2019-12-11,10:21,10:21 AM,26.765,26.765,26.765,200,5353.0,2,26.765,26.76,26.765,1135,30377.775,10,26.765,26.765,26.765,26.765,,-0.0024226612001490024,wu,20191211
2019-12-11,10:22,10:22 AM,26.785,26.765,26.768,1311,35093.135,8,26.8,26.76,26.777,7948,212826.48,56,26.765,26.785,26.77,26.8,,-0.0019754006708906924,wu,20191211
2019-12-11,10:23,10:23 AM,26.795,26.795,26.795,300,8038.5,3,26.8,26.79,26.794,1935,51845.825,16,26.795,26.795,26.8,26.795,,-0.0013417815877747974,wu,20191211
2019-12-11,10:24,10:24 AM,26.805,26.79,26.8,500,13400.0,4,26.81,26.79,26.803,2415,64729.425,22,26.79,26.805,26.795,26.805,,-0.001006336190831065,wu,20191211
2019-12-11,10:25,10:25 AM,26.81,26.805,26.806,600,16083.5,6,26.81,26.8,26.806,1716,45999.74,16,26.81,26.805,26.8,26.805,,-0.0008945210585164875,wu,20191211
2019-12-11,10:26,10:26 AM,26.805,26.805,26.805,1000,26805.0,9,26.81,26.805,26.807,2400,64337.5,22,26.805,26.805,26.81,26.81,,-0.0008572493477450499,wu,20191211
2019-12-11,10:27,10:27 AM,26.805,26.805,26.805,500,13402.5,4,26.81,26.805,26.808,1300,34850.0,12,26.805,26.805,26.805,26.81,,-0.00081997763697348,wu,20191211
2019-12-11,10:28,10:28 AM,26.805,26.805,26.805,560,15010.8,3,26.81,26.805,26.808,1760,47182.3,14,26.805,26.805,26.81,26.81,,-0.00081997763697348,wu,20191211
2019-12-11,10:29,10:29 AM,26.8,26.785,26.79,1100,29469.5,9,26.81,26.76,26.787,14544,389596.57,102,26.8,26.785,26.81,26.765,,-0.0016026835631755224,wu,20191211
2019-12-11,10:30,10:30 AM,26.775,26.775,26.775,600,16065.0,6,26.78,26.76,26.778,22849,611852.81,36,26.775,26.775,26.76,26.775,,-0.0019381289601192548,wu,20191211
2019-12-11,10:31,10:31 AM,,,,0,0.0,0,26.775,26.755,26.762,2002,53578.4396,15,,,26.775,26.755,,-0.0025344763324635796,wu,20191211
2019-12-11,10:32,10:32 AM,26.755,26.755,26.755,100,2675.5,1,26.76,26.75,26.754,400,10701.5,4,26.755,26.755,26.76,26.755,,-0.002832650018635742,wu,20191211
2019-12-11,10:33,10:33 AM,,,,0,0.0,0,26.755,26.75,26.752,300,8025.5,3,,,26.755,26.75,,-0.0029071934401788822,wu,20191211
2019-12-11,10:34,10:34 AM,26.755,26.735,26.742,1845,49338.88,19,26.755,26.73,26.738,14128,377751.747,89,26.755,26.745,26.755,26.745,,-0.0034289973909801996,wu,20191211
2019-12-11,10:35,10:35 AM,26.74,26.735,26.738,7,187.165,3,26.74,26.73,26.738,4931,131843.99,25,26.74,26.735,26.74,26.73,,-0.0034289973909801996,wu,20191211
2019-12-11,10:36,10:36 AM,,,,0,0.0,0,26.735,26.73,26.732,300,8019.5,3,,,26.73,26.735,,-0.0036526276556093544,wu,20191211
2019-12-11,10:37,10:37 AM,26.735,26.735,26.735,944,25237.84,13,26.74,26.73,26.735,32362,865185.555,58,26.735,26.735,26.74,26.735,,-0.0035408125232947773,wu,20191211
2019-12-11,10:38,10:38 AM,26.735,26.735,26.735,118,3154.73,1,26.735,26.735,26.735,618,16522.23,5,26.735,26.735,26.735,26.735,,-0.0035408125232947773,wu,20191211
2019-12-11,10:39,10:39 AM,26.735,26.715,26.724,15,400.865,6,26.735,26.71,26.723,8124,217094.62,69,26.735,26.715,26.73,26.71,,-0.003988073052553087,wu,20191211
2019-12-11,10:40,10:40 AM,26.715,26.71,26.71,12,320.525,2,26.715,26.71,26.711,1226,32748.09,12,26.715,26.71,26.71,26.715,,-0.004435333581811397,wu,20191211
2019-12-11,10:41,10:41 AM,26.725,26.715,26.717,2103,56186.645,17,26.725,26.705,26.718,6875,183684.505,47,26.715,26.725,26.71,26.725,,-0.004174431606410672,wu,20191211
2019-12-11,10:42,10:42 AM,26.73,26.725,26.726,1207,32258.075,12,26.73,26.725,26.726,2300,61470.5,20,26.725,26.725,26.73,26.725,,-0.0038762579202385097,wu,20191211
2019-12-11,10:43,10:43 AM,26.725,26.705,26.711,146,3899.77,5,26.72,26.7,26.71,3855,102966.465,31,26.725,26.705,26.72,26.7,,-0.004472605292582835,wu,20191211
2019-12-11,10:44,10:44 AM,26.695,26.685,26.688,210,5604.38,8,26.7,26.68,26.689,9584,255783.36,58,26.695,26.685,26.7,26.68,,-0.005255311218784877,wu,20191211
2019-12-11,10:45,10:45 AM,26.695,26.68,26.692,634,16922.86,8,26.7,26.68,26.689,12572,335536.015,85,26.685,26.695,26.68,26.69,,-0.005255311218784877,wu,20191211
2019-12-11,10:46,10:46 AM,26.695,26.695,26.695,201,5365.695,3,26.695,26.69,26.692,800,21354.03,6,26.695,26.695,26.69,26.695,,-0.0051434960864703,wu,20191211
2019-12-11,10:47,10:47 AM,26.695,26.695,26.695,427,11398.765,4,26.7,26.69,26.695,926,24719.57,8,26.695,26.695,26.69,26.69,,-0.005031680954155722,wu,20191211
2019-12-11,10:48,10:48 AM,26.695,26.685,26.687,1617,43152.74,17,26.695,26.685,26.689,8892,237322.945,67,26.69,26.695,26.69,26.69,,-0.005255311218784877,wu,20191211
2019-12-11,10:49,10:49 AM,26.705,26.695,26.701,481,12843.125,7,26.705,26.69,26.699,4646,124044.525,25,26.695,26.705,26.695,26.705,,-0.004882594111069574,wu,20191211
2019-12-11,10:50,10:50 AM,26.705,26.705,26.705,602,16076.41,5,26.71,26.7,26.702,1805,48197.5,12,26.705,26.705,26.705,26.7,,-0.004770778978754997,wu,20191211
2019-12-11,10:51,10:51 AM,26.705,26.695,26.702,839,22403.345,10,26.71,26.69,26.702,3213,85793.535,25,26.705,26.695,26.705,26.695,,-0.004770778978754997,wu,20191211
2019-12-11,10:52,10:52 AM,26.695,26.685,26.686,1627,43418.015,15,26.7,26.685,26.689,5508,147002.9,38,26.695,26.69,26.69,26.7,,-0.005255311218784877,wu,20191211
2019-12-11,10:53,10:53 AM,26.685,26.685,26.685,7,186.795,2,26.69,26.68,26.689,3297,87993.43,20,26.685,26.685,26.69,26.68,,-0.005255311218784877,wu,20191211
2019-12-11,10:54,10:54 AM,26.695,26.685,26.69,1127,30079.525,11,26.7,26.68,26.69,7254,193610.605,28,26.685,26.695,26.685,26.69,,-0.005218039508013307,wu,20191211
2019-12-11,10:55,10:55 AM,26.695,26.69,26.694,477,12733.015,5,26.697,26.69,26.693,1440,38438.3956,10,26.69,26.695,26.697,26.695,,-0.005106224375698729,wu,20191211
2019-12-11,10:56,10:56 AM,26.695,26.69,26.695,2212,59049.19,7,26.7,26.69,26.693,6465,172569.065,24,26.69,26.695,26.69,26.69,,-0.005106224375698729,wu,20191211
2019-12-11,10:57,10:57 AM,26.695,26.69,26.69,207,5524.865,3,26.7,26.69,26.696,1876,50081.32,14,26.695,26.69,26.7,26.695,,-0.004994409243384152,wu,20191211
2019-12-11,10:58,10:58 AM,26.695,26.695,26.695,11,293.645,2,26.7,26.69,26.696,700,18687.0,7,26.695,26.695,26.69,26.695,,-0.004994409243384152,wu,20191211
2019-12-11,10:59,10:59 AM,26.695,26.69,26.694,601,16043.195,7,26.7,26.69,26.698,2536,67705.52,24,26.695,26.695,26.695,26.7,,-0.0049198658218411444,wu,20191211
2019-12-11,11:00,11 AM,26.695,26.695,26.695,4,106.78,3,26.7,26.69,26.694,1671,44606.35,13,26.695,26.695,26.7,26.7,,-0.005068952664927292,wu,20191211
2019-12-11,11:01,11:01 AM,26.695,26.675,26.68,290,7737.065,7,26.69,26.675,26.683,4571,121970.415,37,26.695,26.675,26.69,26.675,,-0.005478941483414032,wu,20191211
2019-12-11,11:02,11:02 AM,26.675,26.675,26.675,100,2667.5,1,26.675,26.67,26.673,300,8002.0,3,26.675,26.675,26.675,26.675,,-0.005851658591129334,wu,20191211
2019-12-11,11:03,11:03 AM,26.675,26.675,26.675,430,11470.25,4,26.68,26.67,26.674,1229,32783.075,10,26.675,26.675,26.675,26.67,,-0.0058143868803577645,wu,20191211
2019-12-11,11:04,11:04 AM,26.675,26.67,26.672,302,8054.85,4,26.68,26.67,26.677,1194,31851.92,9,26.675,26.67,26.68,26.67,,-0.0057025717480431865,wu,20191211
2019-12-11,11:05,11:05 AM,26.675,26.675,26.675,336,8962.8,6,26.68,26.67,26.674,2233,59562.275,16,26.675,26.675,26.675,26.675,,-0.0058143868803577645,wu,20191211
2019-12-11,11:06,11:06 AM,26.675,26.67,26.67,201,5360.675,3,26.675,26.67,26.673,1133,30220.775,11,26.675,26.67,26.675,26.67,,-0.005851658591129334,wu,20191211
2019-12-11,11:07,11:07 AM,26.675,26.645,26.649,6515,173621.25,64,26.68,26.64,26.655,49945,1331313.16,282,26.665,26.655,26.67,26.655,,-0.006522549385016667,wu,20191211
2019-12-11,11:08,11:08 AM,26.66,26.655,26.655,704,18765.14,8,26.66,26.65,26.656,4880,130082.104,36,26.655,26.655,26.66,26.65,,-0.006485277674245229,wu,20191211
2019-12-11,11:09,11:09 AM,26.66,26.65,26.655,1202,32038.835,12,26.66,26.65,26.657,5932,158129.745,42,26.65,26.655,26.65,26.655,,-0.006448005963473659,wu,20191211
2019-12-11,11:10,11:10 AM,26.67,26.655,26.662,1197,31914.015,14,26.67,26.655,26.661,5280,140772.469,37,26.655,26.665,26.655,26.665,,-0.006298919120387512,wu,20191211
2019-12-11,11:11,11:11 AM,26.67,26.66,26.664,405,10798.83,6,26.67,26.66,26.662,1502,40046.33,10,26.665,26.67,26.67,26.665,,-0.006261647409616074,wu,20191211
2019-12-11,11:12,11:12 AM,26.67,26.665,26.665,202,5386.34,3,26.668,26.66,26.665,1300,34664.3,12,26.665,26.665,26.665,26.665,,-0.006149832277301497,wu,20191211
2019-12-11,11:13,11:13 AM,26.67,26.66,26.664,636,16958.46,6,26.67,26.66,26.666,1832,48851.78,14,26.665,26.67,26.67,26.66,,-0.006112560566529927,wu,20191211
2019-12-11,11:14,11:14 AM,26.675,26.665,26.669,2298,61285.73,19,26.675,26.665,26.669,7672,204606.74,46,26.665,26.67,26.665,26.67,,-0.0060007454342153495,wu,20191211
2019-12-11,11:15,11:15 AM,26.68,26.675,26.675,306,8162.575,8,26.68,26.67,26.675,2734,72929.43,18,26.675,26.68,26.675,26.67,,-0.005777115169586194,wu,20191211
2019-12-11,11:16,11:16 AM,26.67,26.67,26.67,300,8001.0,3,26.675,26.67,26.672,800,21337.5,8,26.67,26.67,26.675,26.67,,-0.005888930301900771,wu,20191211
2019-12-11,11:17,11:17 AM,26.675,26.67,26.674,600,16004.5,5,26.68,26.67,26.674,2495,66551.6014,18,26.675,26.675,26.675,26.67,,-0.0058143868803577645,wu,20191211
2019-12-11,11:18,11:18 AM,26.67,26.66,26.665,500,13332.5,5,26.67,26.66,26.667,4624,123310.4833,29,26.67,26.66,26.67,26.66,,-0.006075288855758356,wu,20191211
2019-12-11,11:19,11:19 AM,26.66,26.65,26.655,200,5331.0,2,26.67,26.65,26.658,2155,57448.44,15,26.66,26.65,26.66,26.65,,-0.00641073425270209,wu,20191211
2019-12-11,11:20,11:20 AM,26.655,26.65,26.654,900,23989.0,5,26.66,26.65,26.656,2984,79542.44,22,26.655,26.65,26.65,26.655,,-0.006485277674245229,wu,20191211
2019-12-11,11:21,11:21 AM,26.65,26.65,26.65,100,2665.0,1,26.655,26.65,26.653,300,7996.0,3,26.65,26.65,26.655,26.65,,-0.0065970928065598065,wu,20191211
2019-12-11,11:22,11:22 AM,26.655,26.65,26.653,300,7996.0,3,26.66,26.65,26.655,2806,74793.77,11,26.655,26.655,26.655,26.651,,-0.006522549385016667,wu,20191211
2019-12-11,11:23,11:23 AM,26.65,26.645,26.647,300,7994.0,3,26.655,26.645,26.648,4838,128925.64,29,26.65,26.645,26.65,26.645,,-0.0067834513604173915,wu,20191211
2019-12-11,11:24,11:24 AM,26.645,26.64,26.642,300,7992.5,3,26.65,26.64,26.644,6048,161144.72,29,26.64,26.645,26.645,26.64,,-0.006932538203503539,wu,20191211
2019-12-11,11:25,11:25 AM,26.635,26.635,26.635,940,25036.9,7,26.64,26.63,26.638,7372,196378.38,42,26.635,26.635,26.64,26.635,,-0.0071561684681325614,wu,20191211
2019-12-11,11:26,11:26 AM,26.64,26.64,26.64,100,2664.0,1,26.645,26.635,26.641,6619,176334.215,41,26.64,26.64,26.635,26.645,,-0.007044353335818117,wu,20191211
2019-12-11,11:27,11:27 AM,26.645,26.645,26.645,100,2664.5,1,26.65,26.64,26.644,600,15986.5,6,26.645,26.645,26.645,26.64,,-0.006932538203503539,wu,20191211
2019-12-11,11:28,11:28 AM,,,,0,0.0,0,26.645,26.64,26.641,1400,37297.0,7,,,26.645,26.64,,-0.007044353335818117,wu,20191211
2019-12-11,11:29,11:29 AM,26.645,26.645,26.645,100,2664.5,1,26.645,26.64,26.642,1000,26642.46,8,26.645,26.645,26.64,26.645,,-0.007007081625046547,wu,20191211
2019-12-11,11:30,11:30 AM,26.645,26.645,26.645,200,5329.0,2,26.65,26.643,26.647,2291,61047.8079,16,26.645,26.645,26.645,26.643,,-0.006820723071188962,wu,20191211
2019-12-11,11:31,11:31 AM,26.64,26.64,26.64,100,2664.0,2,26.65,26.64,26.643,5056,134706.385,32,26.64,26.64,26.645,26.645,,-0.0069698099142749765,wu,20191211
2019-12-11,11:32,11:32 AM,26.645,26.645,26.645,100,2664.5,1,26.645,26.64,26.642,2200,58613.5,17,26.645,26.645,26.645,26.645,,-0.007007081625046547,wu,20191211
2019-12-11,11:33,11:33 AM,26.645,26.645,26.645,100,2664.5,1,26.645,26.635,26.639,5688,151522.915,38,26.645,26.645,26.64,26.635,,-0.007118896757361124,wu,20191211
2019-12-11,11:34,11:34 AM,26.645,26.635,26.638,900,23974.5,10,26.65,26.635,26.639,5369,143026.255,42,26.635,26.64,26.635,26.64,,-0.007118896757361124,wu,20191211
2019-12-11,11:35,11:35 AM,26.64,26.635,26.636,756,20136.56,5,26.65,26.63,26.636,12374,329590.3541,58,26.64,26.635,26.64,26.63,,-0.007230711889675702,wu,20191211
2019-12-11,11:36,11:36 AM,26.635,26.635,26.635,320,8523.2,3,26.64,26.63,26.635,3464,92263.877,14,26.635,26.635,26.63,26.635,,-0.0072679836004471395,wu,20191211
2019-12-11,11:37,11:37 AM,26.635,26.635,26.635,500,13317.5,5,26.64,26.635,26.636,3727,99273.28,28,26.635,26.635,26.635,26.635,,-0.007230711889675702,wu,20191211
2019-12-11,11:38,11:38 AM,26.635,26.625,26.63,210,5592.3,4,26.635,26.62,26.626,7535,200630.31,43,26.635,26.625,26.635,26.62,,-0.007603428997390872,wu,20191211
2019-12-11,11:39,11:39 AM,26.62,26.62,26.62,3,79.86,1,26.625,26.62,26.621,1100,29283.0,10,26.62,26.62,26.625,26.62,,-0.007789787551248589,wu,20191211
2019-12-11,11:40,11:40 AM,,,,0,0.0,0,26.63,26.62,26.625,3314,88235.905,27,,,26.62,26.625,,-0.007640700708162441,wu,20191211
2019-12-11,11:41,11:41 AM,26.625,26.625,26.625,300,7987.5,3,26.625,26.62,26.624,1600,42598.5,12,26.625,26.625,26.625,26.62,,-0.0076779724189340115,wu,20191211
2019-12-11,11:42,11:42 AM,,,,0,0.0,0,26.625,26.62,26.623,900,23961.0,7,,,26.625,26.625,,-0.007715244129705449,wu,20191211
2019-12-11,11:43,11:43 AM,,,,0,0.0,0,26.625,26.62,26.622,1224,32585.5,9,,,26.62,26.62,,-0.007752515840477019,wu,20191211
2019-12-11,11:44,11:44 AM,26.625,26.625,26.625,200,5325.0,1,26.63,26.625,26.626,6252,166465.015,39,26.625,26.625,26.625,26.625,,-0.007603428997390872,wu,20191211
2019-12-11,11:45,11:45 AM,26.615,26.615,26.615,100,2661.5,1,26.625,26.61,26.617,6484,172587.74,55,26.615,26.615,26.625,26.615,,-0.007938874394334603,wu,20191211
2019-12-11,11:46,11:46 AM,,,,0,0.0,0,26.615,26.61,26.612,1352,35979.13,10,,,26.615,26.61,,-0.008125232948192321,wu,20191211
2019-12-11,11:47,11:47 AM,26.615,26.615,26.615,100,2661.5,1,26.617,26.6,26.614,8668,230688.2602,25,26.615,26.615,26.615,26.605,,-0.008050689526649182,wu,20191211
2019-12-11,11:48,11:48 AM,,,,0,0.0,0,26.605,26.59,26.595,3619,96247.32,20,,,26.605,26.59,,-0.008758852031308216,wu,20191211
2019-12-11,11:49,11:49 AM,,,,0,0.0,0,26.595,26.59,26.593,715,19014.001,6,,,26.593,26.595,,-0.008833395452851224,wu,20191211
2019-12-11,11:50,11:50 AM,,,,0,0.0,0,26.6,26.59,26.594,3852,102439.2,20,,,26.595,26.595,,-0.008796123742079654,wu,20191211
2019-12-11,11:51,11:51 AM,,,,0,0.0,0,26.595,26.59,26.591,1200,31909.0,12,,,26.59,26.59,,-0.008907938874394231,wu,20191211
2019-12-11,11:52,11:52 AM,26.595,26.585,26.586,942,25044.07,5,26.595,26.58,26.586,7674,204024.065,45,26.595,26.585,26.595,26.58,,-0.009094297428251949,wu,20191211
2019-12-11,11:53,11:53 AM,26.58,26.58,26.58,10,265.8,1,26.585,26.58,26.582,1000,26582.0,10,26.58,26.58,26.58,26.58,,-0.009243384271337965,wu,20191211
2019-12-11,11:54,11:54 AM,26.585,26.585,26.585,100,2658.5,1,26.585,26.58,26.582,1663,44205.32,12,26.585,26.585,26.585,26.58,,-0.009243384271337965,wu,20191211
2019-12-11,11:55,11:55 AM,26.585,26.585,26.585,400,10634.0,4,26.585,26.58,26.583,2000,53166.0,20,26.585,26.585,26.585,26.58,,-0.009206112560566526,wu,20191211
2019-12-11,11:56,11:56 AM,26.575,26.575,26.575,410,10895.75,4,26.585,26.57,26.574,4231,112436.67,31,26.575,26.575,26.58,26.57,,-0.009541557957510126,wu,20191211
2019-12-11,11:57,11:57 AM,26.575,26.56,26.566,715,18994.92,6,26.575,26.56,26.566,3674,97603.48,28,26.575,26.56,26.57,26.56,,-0.00983973164368242,wu,20191211
2019-12-11,11:58,11:58 AM,26.565,26.565,26.565,200,5313.0,2,26.565,26.56,26.562,1600,42499.0,14,26.565,26.565,26.565,26.56,,-0.009988818486768436,wu,20191211
2019-12-11,11:59,11:59 AM,26.56,26.545,26.557,500,13278.5,4,26.565,26.545,26.557,26875,713728.455,123,26.545,26.56,26.56,26.565,,-0.010175177040626154,wu,20191211
2019-12-11,12:00,12 PM,26.56,26.545,26.55,300,7965.0,2,26.565,26.545,26.55,14367,381448.44,88,26.56,26.545,26.56,26.55,,-0.010436079016026747,wu,20191211
2019-12-11,12:01,12:01 PM,,,,0,0.0,0,26.56,26.55,26.553,300,7966.0,3,,,26.56,26.55,,-0.01032426388371217,wu,20191211
2019-12-11,12:02,12:02 PM,,,,0,0.0,0,26.555,26.55,26.552,400,10621.0,4,,,26.555,26.555,,-0.010361535594483738,wu,20191211
2019-12-11,12:03,12:03 PM,26.56,26.555,26.558,952,25283.58,11,26.565,26.55,26.559,30140,800489.17,122,26.555,26.56,26.555,26.55,,-0.010100633619083014,wu,20191211
2019-12-11,12:04,12:04 PM,26.555,26.555,26.555,100,2655.5,1,26.555,26.555,26.555,700,18588.5,5,26.555,26.555,26.555,26.555,,-0.010249720462169161,wu,20191211
2019-12-11,12:05,12:05 PM,,,,0,0.0,0,26.555,26.55,26.554,400,10621.5,4,,,26.555,26.555,,-0.010286992172940731,wu,20191211
2019-12-11,12:06,12:06 PM,26.555,26.55,26.552,300,7965.5,3,26.555,26.55,26.553,700,18587.0,7,26.55,26.55,26.55,26.555,,-0.01032426388371217,wu,20191211
2019-12-11,12:07,12:07 PM,26.545,26.545,26.545,603,16006.635,8,26.555,26.54,26.547,9708,257715.625,63,26.545,26.545,26.55,26.545,,-0.010547894148341324,wu,20191211
2019-12-11,12:08,12:08 PM,,,,0,0.0,0,26.545,26.54,26.543,2539,67393.56,14,,,26.545,26.54,,-0.010696980991427471,wu,20191211
2019-12-11,12:09,12:09 PM,,,,0,0.0,0,26.545,26.54,26.543,1077,28586.965,10,,,26.545,26.54,,-0.010696980991427471,wu,20191211
2019-12-11,12:10,12:10 PM,26.545,26.545,26.545,100,2654.5,1,26.545,26.54,26.542,1683,44670.975,12,26.545,26.545,26.545,26.54,,-0.010734252702198908,wu,20191211
2019-12-11,12:11,12:11 PM,26.545,26.545,26.545,337,8945.665,3,26.545,26.54,26.543,1537,40797.165,15,26.545,26.545,26.545,26.54,,-0.010696980991427471,wu,20191211
2019-12-11,12:12,12:12 PM,,,,0,0.0,0,26.545,26.54,26.544,1500,39815.7,10,,,26.545,26.54,,-0.010659709280655901,wu,20191211
2019-12-11,12:13,12:13 PM,26.545,26.545,26.545,120,3185.4,1,26.545,26.54,26.543,1320,35036.4,13,26.545,26.545,26.545,26.54,,-0.010696980991427471,wu,20191211
2019-12-11,12:14,12:14 PM,26.535,26.53,26.534,1617,42905.53,15,26.545,26.53,26.537,34736,921785.835,183,26.535,26.53,26.545,26.53,,-0.010920611256056626,wu,20191211
2019-12-11,12:15,12:15 PM,26.535,26.53,26.534,912,24199.45,8,26.54,26.53,26.535,7502,199066.01,45,26.535,26.53,26.535,26.53,,-0.010995154677599634,wu,20191211
2019-12-11,12:16,12:16 PM,26.545,26.54,26.542,1197,31771.365,9,26.55,26.535,26.54,17978,477132.47,76,26.54,26.545,26.54,26.545,,-0.010808796123742049,wu,20191211
2019-12-11,12:17,12:17 PM,26.545,26.545,26.545,200,5309.0,1,26.55,26.54,26.546,4950,131404.064,28,26.545,26.545,26.545,26.54,,-0.010585165859112894,wu,20191211
2019-12-11,12:18,12:18 PM,26.545,26.545,26.545,317,8414.765,3,26.55,26.54,26.545,5190,137766.55,29,26.545,26.545,26.545,26.545,,-0.010622437569884331,wu,20191211
2019-12-11,12:19,12:19 PM,26.545,26.545,26.545,100,2654.5,1,26.55,26.54,26.543,3355,89052.7,27,26.545,26.545,26.545,26.54,,-0.010696980991427471,wu,20191211
2019-12-11,12:20,12:20 PM,26.54,26.525,26.535,1512,40120.36,11,26.55,26.52,26.537,37074,983816.8278,165,26.54,26.525,26.54,26.525,,-0.010920611256056626,wu,20191211
2019-12-11,12:21,12:21 PM,26.525,26.525,26.525,610,16180.25,5,26.53,26.52,26.525,3606,95649.37,24,26.525,26.525,26.525,26.525,,-0.011367871785314936,wu,20191211
2019-12-11,12:22,12:22 PM,26.525,26.525,26.525,100,2652.5,1,26.53,26.52,26.524,4100,108748.8262,22,26.525,26.525,26.52,26.52,,-0.011405143496086373,wu,20191211
2019-12-11,12:23,12:23 PM,26.52,26.51,26.515,551,14609.72,8,26.525,26.51,26.517,13190,349763.78,93,26.52,26.51,26.525,26.51,,-0.0116660454714871,wu,20191211
2019-12-11,12:24,12:24 PM,26.545,26.515,26.523,1120,29705.9,8,26.55,26.51,26.525,46948,1245291.53,225,26.515,26.545,26.515,26.54,,-0.011367871785314936,wu,20191211
2019-12-11,12:25,12:25 PM,26.565,26.565,26.565,300,7969.5,3,26.57,26.54,26.553,7465,198221.11,50,26.565,26.565,26.545,26.56,,-0.01032426388371217,wu,20191211
2019-12-11,12:26,12:26 PM,26.57,26.57,26.57,534,14188.38,3,26.59,26.565,26.581,7649,203316.075,45,26.57,26.57,26.565,26.59,,-0.009280655982109533,wu,20191211
2019-12-11,12:27,12:27 PM,,,,0,0.0,0,26.6,26.59,26.593,4696,124880.0294,32,,,26.59,26.595,,-0.008833395452851224,wu,20191211
2019-12-11,12:28,12:28 PM,26.6,26.6,26.6,10,266.0,1,26.62,26.595,26.602,5251,139687.6,37,26.6,26.6,26.6,26.62,,-0.008497950055907491,wu,20191211
2019-12-11,12:29,12:29 PM,26.615,26.615,26.615,10,266.15,1,26.62,26.61,26.618,2476,65905.24,23,26.615,26.615,26.62,26.62,,-0.007901602683563167,wu,20191211
2019-12-11,12:30,12:30 PM,,,,0,0.0,0,26.64,26.62,26.631,5870,156323.39,40,,,26.62,26.635,,-0.007417070443533287,wu,20191211
2019-12-11,12:31,12:31 PM,,,,0,0.0,0,26.64,26.635,26.639,1645,43821.295,11,,,26.64,26.64,,-0.007118896757361124,wu,20191211
2019-12-11,12:32,12:32 PM,26.64,26.64,26.64,100,2664.0,1,26.65,26.635,26.642,2000,53284.5,14,26.64,26.64,26.64,26.65,,-0.007007081625046547,wu,20191211
2019-12-11,12:33,12:33 PM,26.645,26.635,26.64,315,8391.6,5,26.65,26.635,26.641,7600,202469.5,60,26.645,26.64,26.64,26.645,,-0.007044353335818117,wu,20191211
2019-12-11,12:34,12:34 PM,,,,0,0.0,0,26.66,26.65,26.652,2939,78329.85,26,,,26.65,26.65,,-0.006634364517331244,wu,20191211
2019-12-11,12:35,12:35 PM,26.665,26.665,26.665,100,2666.5,1,26.67,26.65,26.659,2126,56677.66,20,26.665,26.665,26.65,26.67,,-0.006373462541930652,wu,20191211
2019-12-11,12:36,12:36 PM,26.66,26.66,26.66,11,293.26,1,26.66,26.655,26.66,4664,124341.7168,37,26.66,26.66,26.66,26.66,,-0.006336190831159082,wu,20191211
2019-12-11,12:37,12:37 PM,,,,0,0.0,0,26.68,26.66,26.669,2007,53525.68,16,,,26.66,26.675,,-0.0060007454342153495,wu,20191211
2019-12-11,12:38,12:38 PM,,,,0,0.0,0,26.68,26.675,26.68,1000,26679.5,10,,,26.675,26.68,,-0.005590756615728609,wu,20191211
2019-12-11,12:39,12:39 PM,,,,0,0.0,0,26.7,26.68,26.685,3356,89556.18,28,,,26.68,26.7,,-0.005404398061871024,wu,20191211
2019-12-11,12:40,12:40 PM,26.72,26.72,26.72,9,240.48,1,26.72,26.7,26.711,4400,117529.0,37,26.72,26.72,26.7,26.72,,-0.004435333581811397,wu,20191211
2019-12-11,12:41,12:41 PM,26.735,26.725,26.73,200,5346.0,2,26.745,26.72,26.734,6759,180697.66,55,26.725,26.735,26.72,26.735,,-0.003578084234066215,wu,20191211
2019-12-11,12:42,12:42 PM,26.715,26.705,26.71,1535,40999.675,15,26.74,26.7,26.72,24749,661292.63,138,26.715,26.705,26.735,26.7,,-0.004099888184867665,wu,20191211
2019-12-11,12:43,12:43 PM,26.715,26.705,26.713,600,16028.0,6,26.715,26.705,26.711,3159,84379.89,27,26.705,26.715,26.705,26.715,,-0.004435333581811397,wu,20191211
2019-12-11,12:44,12:44 PM,,,,0,0.0,0,26.72,26.71,26.715,1781,47578.915,14,,,26.715,26.715,,-0.00428624673872525,wu,20191211
2019-12-11,12:45,12:45 PM,26.72,26.715,26.716,333,8896.595,4,26.72,26.71,26.715,4200,112201.0,31,26.72,26.715,26.715,26.715,,-0.00428624673872525,wu,20191211
2019-12-11,12:46,12:46 PM,,,,0,0.0,0,26.72,26.71,26.717,1300,34732.5,12,,,26.72,26.72,,-0.004211703317182242,wu,20191211
2019-12-11,12:47,12:47 PM,26.72,26.72,26.72,15,400.8,1,26.73,26.72,26.722,3465,92591.3,25,26.72,26.72,26.72,26.73,,-0.004025344763324524,wu,20191211
2019-12-11,12:48,12:48 PM,26.725,26.725,26.725,600,16035.0,6,26.73,26.72,26.727,2900,77507.5,28,26.725,26.725,26.73,26.72,,-0.0038389862094669394,wu,20191211
2019-12-11,12:49,12:49 PM,26.72,26.71,26.712,43,1148.63,2,26.72,26.71,26.719,6408,171215.26,25,26.72,26.71,26.72,26.71,,-0.0041371598956391024,wu,20191211
2019-12-11,12:50,12:50 PM,26.71,26.705,26.705,2467,65881.57,11,26.71,26.7,26.706,7825,208972.25,40,26.71,26.705,26.71,26.7,,-0.004621692135668982,wu,20191211
2019-12-11,12:51,12:51 PM,26.705,26.705,26.705,100,2670.5,1,26.705,26.7,26.703,1500,40055.0,10,26.705,26.705,26.7,26.705,,-0.0047335072679835595,wu,20191211
2019-12-11,12:52,12:52 PM,,,,0,0.0,0,26.7,26.7,26.7,200,5340.0,2,,,26.7,26.7,,-0.004845322400298137,wu,20191211
2019-12-11,12:53,12:53 PM,26.695,26.695,26.695,921,24586.095,10,26.7,26.69,26.698,9244,246793.87,55,26.695,26.695,26.7,26.695,,-0.0049198658218411444,wu,20191211
2019-12-11,12:54,12:54 PM,26.685,26.675,26.675,319,8509.425,5,26.7,26.67,26.684,12264,327252.97,61,26.685,26.675,26.7,26.67,,-0.005441669772642462,wu,20191211
2019-12-11,12:55,12:55 PM,26.67,26.67,26.67,192,5120.64,2,26.675,26.66,26.669,15053,401449.85,69,26.67,26.67,26.67,26.67,,-0.0060007454342153495,wu,20191211
2019-12-11,12:56,12:56 PM,26.675,26.675,26.675,202,5388.35,2,26.675,26.675,26.675,302,8055.85,3,26.675,26.675,26.675,26.675,,-0.005777115169586194,wu,20191211
2019-12-11,12:57,12:57 PM,26.67,26.67,26.67,26,693.42,3,26.67,26.67,26.67,2901,77369.67,13,26.67,26.67,26.67,26.67,,-0.005963473723443779,wu,20191211
2019-12-11,12:58,12:58 PM,26.665,26.665,26.665,300,7999.5,2,26.67,26.66,26.664,4299,114628.875,23,26.665,26.665,26.67,26.665,,-0.0061871039880729345,wu,20191211
2019-12-11,12:59,12:59 PM,26.665,26.66,26.663,200,5332.5,2,26.67,26.65,26.66,3927,104692.3,21,26.66,26.665,26.66,26.651,,-0.006336190831159082,wu,20191211
2019-12-11,13:00,1 PM,,,,0,0.0,0,26.665,26.65,26.658,13799,367859.84,65,,,26.65,26.66,,-0.00641073425270209,wu,20191211
2019-12-11,13:01,1:01 PM,,,,0,0.0,0,26.67,26.66,26.666,1341,35758.765,11,,,26.66,26.665,,-0.006112560566529927,wu,20191211
2019-12-11,13:02,1:02 PM,,,,0,0.0,0,26.665,26.66,26.66,1890,50388.4,12,,,26.66,26.66,,-0.006336190831159082,wu,20191211
2019-12-11,13:03,1:03 PM,26.655,26.655,26.655,400,10662.0,4,26.66,26.65,26.659,13062,348219.8,90,26.655,26.655,26.66,26.655,,-0.006373462541930652,wu,20191211
2019-12-11,13:04,1:04 PM,26.655,26.655,26.655,700,18658.5,6,26.66,26.65,26.656,3692,98412.885,31,26.655,26.655,26.65,26.65,,-0.006485277674245229,wu,20191211
2019-12-11,13:05,1:05 PM,26.665,26.665,26.665,100,2666.5,1,26.67,26.65,26.66,6344,169134.0368,38,26.665,26.665,26.655,26.665,,-0.006336190831159082,wu,20191211
2019-12-11,13:06,1:06 PM,26.665,26.655,26.659,1137,30310.81,11,26.67,26.65,26.66,17554,467981.61,104,26.66,26.665,26.665,26.66,,-0.006336190831159082,wu,20191211
2019-12-11,13:07,1:07 PM,26.665,26.64,26.647,454,12097.96,4,26.665,26.62,26.641,56413,1502897.1529,255,26.665,26.64,26.665,26.645,,-0.007044353335818117,wu,20191211
2019-12-11,13:08,1:08 PM,26.665,26.65,26.66,1000,26659.5,9,26.67,26.64,26.656,9900,263892.0,68,26.65,26.665,26.645,26.665,,-0.006485277674245229,wu,20191211
2019-12-11,13:09,1:09 PM,26.66,26.66,26.66,100,2666.0,1,26.67,26.66,26.665,1700,45330.5,13,26.66,26.66,26.67,26.665,,-0.006149832277301497,wu,20191211
2019-12-11,13:10,1:10 PM,26.665,26.665,26.665,200,5333.0,2,26.665,26.66,26.661,2000,53321.5,10,26.665,26.665,26.66,26.665,,-0.006298919120387512,wu,20191211
2019-12-11,13:11,1:11 PM,,,,0,0.0,0,26.66,26.65,26.656,8008,213460.52,48,,,26.66,26.65,,-0.006485277674245229,wu,20191211
2019-12-11,13:12,1:12 PM,26.655,26.655,26.655,200,5331.0,2,26.66,26.65,26.656,1300,34653.0,12,26.655,26.655,26.655,26.655,,-0.006485277674245229,wu,20191211
2019-12-11,13:13,1:13 PM,26.655,26.655,26.655,400,10662.0,4,26.655,26.65,26.651,5978,159320.2,35,26.655,26.655,26.65,26.65,,-0.006671636228102814,wu,20191211
2019-12-11,13:14,1:14 PM,,,,0,0.0,0,26.655,26.65,26.651,5004,133362.6,44,,,26.655,26.65,,-0.006671636228102814,wu,20191211
2019-12-11,13:15,1:15 PM,26.65,26.645,26.647,163,4343.45,3,26.655,26.645,26.65,10847,289070.135,76,26.65,26.65,26.655,26.645,,-0.0067089079388743846,wu,20191211
2019-12-11,13:16,1:16 PM,26.64,26.64,26.64,5,133.2,1,26.645,26.64,26.64,3001,79947.64,17,26.64,26.64,26.645,26.64,,-0.0070816250465895545,wu,20191211
2019-12-11,13:17,1:17 PM,26.665,26.655,26.66,363,9677.58,4,26.67,26.64,26.655,22990,612811.72,105,26.655,26.665,26.64,26.66,,-0.006522549385016667,wu,20191211
2019-12-11,13:18,1:18 PM,,,,0,0.0,0,26.665,26.66,26.66,3600,95976.5,21,,,26.66,26.66,,-0.006336190831159082,wu,20191211
2019-12-11,13:19,1:19 PM,26.665,26.66,26.663,300,7999.0,3,26.67,26.66,26.661,9190,245016.9,44,26.665,26.66,26.66,26.66,,-0.006298919120387512,wu,20191211
2019-12-11,13:20,1:20 PM,26.665,26.66,26.663,200,5332.5,2,26.665,26.655,26.66,6747,179875.02,44,26.66,26.665,26.66,26.66,,-0.006336190831159082,wu,20191211
2019-12-11,13:21,1:21 PM,26.66,26.66,26.66,64,1706.24,1,26.665,26.655,26.66,4841,129061.56,25,26.66,26.66,26.665,26.66,,-0.006336190831159082,wu,20191211
2019-12-11,13:22,1:22 PM,,,,0,0.0,0,26.665,26.65,26.66,3160,84244.1,22,,,26.655,26.66,,-0.006336190831159082,wu,20191211
2019-12-11,13:23,1:23 PM,26.66,26.655,26.655,406,10821.96,6,26.66,26.65,26.658,5400,143954.0,38,26.655,26.66,26.66,26.655,,-0.00641073425270209,wu,20191211
2019-12-11,13:24,1:24 PM,26.655,26.655,26.655,124,3305.22,4,26.66,26.655,26.657,900,23991.5,9,26.655,26.655,26.655,26.655,,-0.006448005963473659,wu,20191211
2019-12-11,13:25,1:25 PM,26.655,26.655,26.655,8,213.24,4,26.655,26.65,26.65,2288,60976.2,15,26.655,26.655,26.65,26.655,,-0.0067089079388743846,wu,20191211
2019-12-11,13:26,1:26 PM,26.66,26.655,26.655,609,16232.9,8,26.66,26.65,26.657,6000,159941.5,52,26.655,26.655,26.655,26.65,,-0.006448005963473659,wu,20191211
2019-12-11,13:27,1:27 PM,26.655,26.655,26.655,3,79.965,3,26.66,26.65,26.655,500,13327.5,5,26.655,26.655,26.65,26.655,,-0.006522549385016667,wu,20191211
2019-12-11,13:28,1:28 PM,26.655,26.655,26.655,2,53.31,2,26.66,26.65,26.657,943,25137.38,5,26.655,26.655,26.66,26.655,,-0.006448005963473659,wu,20191211
2019-12-11,13:29,1:29 PM,26.655,26.655,26.655,802,21377.31,6,26.66,26.65,26.657,4302,114677.31,35,26.655,26.655,26.655,26.655,,-0.006448005963473659,wu,20191211
2019-12-11,13:30,1:30 PM,26.665,26.655,26.655,726,19351.79,8,26.67,26.655,26.658,8056,214758.76,56,26.655,26.665,26.655,26.67,,-0.00641073425270209,wu,20191211
2019-12-11,13:31,1:31 PM,26.665,26.665,26.665,101,2693.165,2,26.67,26.66,26.665,859,22905.235,8,26.665,26.665,26.665,26.665,,-0.006149832277301497,wu,20191211
2019-12-11,13:32,1:32 PM,26.665,26.665,26.665,100,2666.5,1,26.665,26.66,26.663,600,15997.5,6,26.665,26.665,26.66,26.665,,-0.006224375698844504,wu,20191211
2019-12-11,13:33,1:33 PM,26.665,26.665,26.665,1,26.665,1,26.67,26.66,26.665,1101,29358.665,10,26.665,26.665,26.665,26.67,,-0.006149832277301497,wu,20191211
2019-12-11,13:34,1:34 PM,26.67,26.67,26.67,300,8001.0,2,26.67,26.665,26.669,862,22989.04,6,26.67,26.67,26.67,26.67,,-0.0060007454342153495,wu,20191211
2019-12-11,13:35,1:35 PM,,,,0,0.0,0,26.68,26.67,26.673,5200,138699.0,37,,,26.67,26.675,,-0.005851658591129334,wu,20191211
2019-12-11,13:36,1:36 PM,,,,0,0.0,0,26.68,26.675,26.677,1300,34679.5,9,,,26.675,26.68,,-0.0057025717480431865,wu,20191211
2019-12-11,13:37,1:37 PM,26.675,26.665,26.666,128,3413.27,6,26.68,26.663,26.67,7601,202715.725,41,26.675,26.665,26.67,26.665,,-0.005963473723443779,wu,20191211
2019-12-11,13:38,1:38 PM,26.665,26.665,26.665,100,2666.5,1,26.665,26.66,26.663,500,13331.5,5,26.665,26.665,26.665,26.66,,-0.006224375698844504,wu,20191211
2019-12-11,13:39,1:39 PM,26.66,26.66,26.66,2,53.32,1,26.665,26.655,26.66,8617,229729.12,44,26.66,26.66,26.665,26.655,,-0.006336190831159082,wu,20191211
2019-12-11,13:40,1:40 PM,,,,0,0.0,0,26.66,26.65,26.657,700,18660.0,6,,,26.65,26.655,,-0.006448005963473659,wu,20191211
2019-12-11,13:41,1:41 PM,26.665,26.665,26.665,3,79.995,1,26.665,26.66,26.66,4300,114640.0,27,26.665,26.665,26.66,26.66,,-0.006336190831159082,wu,20191211
2019-12-11,13:42,1:42 PM,26.675,26.665,26.665,502,13385.85,5,26.67,26.66,26.667,10336,275632.08,53,26.665,26.675,26.665,26.67,,-0.006075288855758356,wu,20191211
2019-12-11,13:43,1:43 PM,26.675,26.675,26.675,102,2720.85,2,26.68,26.675,26.675,2000,53351.0,16,26.675,26.675,26.675,26.68,,-0.005777115169586194,wu,20191211
2019-12-11,13:44,1:44 PM,26.675,26.665,26.665,312,8319.55,5,26.67,26.66,26.669,13821,368590.105,90,26.67,26.665,26.67,26.665,,-0.0060007454342153495,wu,20191211
2019-12-11,13:45,1:45 PM,26.665,26.66,26.664,800,21331.5,4,26.67,26.66,26.664,5504,146757.88,28,26.665,26.66,26.67,26.665,,-0.0061871039880729345,wu,20191211
2019-12-11,13:46,1:46 PM,26.665,26.665,26.665,1300,34664.5,2,26.67,26.665,26.666,4114,109703.81,19,26.665,26.665,26.665,26.665,,-0.006112560566529927,wu,20191211
2019-12-11,13:47,1:47 PM,26.665,26.665,26.665,300,7999.5,1,26.67,26.665,26.665,2100,55997.0,10,26.665,26.665,26.665,26.665,,-0.006149832277301497,wu,20191211
2019-12-11,13:48,1:48 PM,26.665,26.665,26.665,407,10852.655,4,26.67,26.66,26.661,11449,305237.365,53,26.665,26.665,26.665,26.66,,-0.006298919120387512,wu,20191211
2019-12-11,13:49,1:49 PM,26.665,26.665,26.665,200,5333.0,2,26.665,26.66,26.661,1890,50390.21,15,26.665,26.665,26.66,26.66,,-0.006298919120387512,wu,20191211
2019-12-11,13:50,1:50 PM,26.665,26.665,26.665,100,2666.5,1,26.67,26.66,26.662,2125,56657.5,15,26.665,26.665,26.66,26.66,,-0.006261647409616074,wu,20191211
2019-12-11,13:51,1:51 PM,,,,0,0.0,0,26.665,26.66,26.662,1300,34660.5,8,,,26.665,26.66,,-0.006261647409616074,wu,20191211
2019-12-11,13:52,1:52 PM,,,,0,0.0,0,26.665,26.66,26.66,1000,26660.5,7,,,26.66,26.665,,-0.006336190831159082,wu,20191211
2019-12-11,13:53,1:53 PM,26.675,26.665,26.666,727,19385.95,8,26.675,26.66,26.668,17391,463782.77,86,26.665,26.675,26.665,26.675,,-0.006038017144986919,wu,20191211
2019-12-11,13:54,1:54 PM,26.675,26.675,26.675,317,8455.975,2,26.675,26.67,26.674,1526,40704.05,12,26.675,26.675,26.67,26.675,,-0.0058143868803577645,wu,20191211
2019-12-11,13:55,1:55 PM,26.67,26.66,26.665,1138,30344.545,14,26.67,26.66,26.668,16014,427058.795,81,26.67,26.665,26.67,26.66,,-0.006038017144986919,wu,20191211
2019-12-11,13:56,1:56 PM,26.665,26.665,26.665,100,2666.5,1,26.67,26.66,26.665,1127,30051.422,10,26.665,26.665,26.665,26.665,,-0.006149832277301497,wu,20191211
2019-12-11,13:57,1:57 PM,,,,0,0.0,0,26.67,26.66,26.664,1632,43515.5712,11,,,26.66,26.66,,-0.0061871039880729345,wu,20191211
2019-12-11,13:58,1:58 PM,,,,0,0.0,0,26.665,26.66,26.661,1026,27354.32,8,,,26.665,26.66,,-0.006298919120387512,wu,20191211
2019-12-11,13:59,1:59 PM,26.66,26.66,26.66,1,26.66,1,26.67,26.66,26.663,4090,109053.295,29,26.66,26.66,26.66,26.665,,-0.006224375698844504,wu,20191211
2019-12-11,14:00,2 PM,26.665,26.655,26.66,109,2905.915,6,26.665,26.65,26.66,9563,254952.4046,48,26.665,26.655,26.66,26.665,,-0.006336190831159082,wu,20191211
2019-12-11,14:01,2:01 PM,26.68,26.665,26.668,211,5626.92,4,26.67,26.66,26.668,13311,354981.37,81,26.67,26.665,26.665,26.66,,-0.006038017144986919,wu,20191211
2019-12-11,14:02,2:02 PM,,,,0,0.0,0,26.665,26.66,26.662,1500,39993.0,9,,,26.665,26.66,,-0.006261647409616074,wu,20191211
2019-12-11,14:03,2:03 PM,26.67,26.665,26.668,9,240.01,4,26.665,26.66,26.661,2100,55988.5,16,26.665,26.67,26.66,26.66,,-0.006298919120387512,wu,20191211
2019-12-11,14:04,2:04 PM,26.665,26.665,26.665,1,26.665,1,26.67,26.66,26.667,4489,119707.29,33,26.665,26.665,26.66,26.665,,-0.006075288855758356,wu,20191211
2019-12-11,14:05,2:05 PM,26.665,26.665,26.665,207,5519.655,5,26.665,26.66,26.662,3300,87986.0,27,26.665,26.665,26.665,26.66,,-0.006261647409616074,wu,20191211
2019-12-11,14:06,2:06 PM,,,,0,0.0,0,26.67,26.66,26.665,1000,26665.0,10,,,26.665,26.66,,-0.006149832277301497,wu,20191211
2019-12-11,14:07,2:07 PM,26.665,26.645,26.664,127,3386.31,7,26.665,26.644,26.658,11867,316349.52,71,26.665,26.645,26.665,26.644,,-0.00641073425270209,wu,20191211
2019-12-11,14:08,2:08 PM,26.645,26.645,26.645,100,2664.5,1,26.645,26.63,26.638,4890,130258.6,42,26.645,26.645,26.645,26.63,,-0.0071561684681325614,wu,20191211
2019-12-11,14:09,2:09 PM,,,,0,0.0,0,26.64,26.63,26.634,4366,116285.265,31,,,26.635,26.63,,-0.007305255311218709,wu,20191211
2019-12-11,14:10,2:10 PM,26.625,26.625,26.625,3,79.875,1,26.635,26.62,26.625,15534,413588.43,71,26.625,26.625,26.635,26.625,,-0.007640700708162441,wu,20191211
2019-12-11,14:11,2:11 PM,26.635,26.605,26.61,138,3672.24,5,26.64,26.605,26.619,37960,1010463.7421,181,26.635,26.625,26.63,26.625,,-0.007864330972791597,wu,20191211
2019-12-11,14:12,2:12 PM,26.625,26.62,26.62,102,2715.25,3,26.63,26.62,26.622,10259,273115.08,46,26.62,26.625,26.625,26.62,,-0.007752515840477019,wu,20191211
2019-12-11,14:13,2:13 PM,26.615,26.615,26.615,1,26.615,1,26.62,26.6,26.613,12010,319620.6,72,26.615,26.615,26.62,26.6,,-0.008087961237420751,wu,20191211
2019-12-11,14:14,2:14 PM,26.61,26.6,26.605,716,19049.6,10,26.62,26.595,26.605,20400,542743.25,103,26.6,26.61,26.605,26.62,,-0.008386134923592914,wu,20191211
2019-12-11,14:15,2:15 PM,26.655,26.635,26.647,500,13323.5,7,26.655,26.62,26.64,10103,269149.53,62,26.635,26.655,26.62,26.655,,-0.0070816250465895545,wu,20191211
2019-12-11,14:16,2:16 PM,,,,0,0.0,0,26.66,26.65,26.654,1100,29320.0,11,,,26.65,26.655,,-0.006559821095788237,wu,20191211
2019-12-11,14:17,2:17 PM,26.67,26.66,26.665,108,2879.85,3,26.665,26.65,26.66,8200,218610.0,58,26.665,26.66,26.66,26.655,,-0.006336190831159082,wu,20191211
2019-12-11,14:18,2:18 PM,26.655,26.655,26.655,100,2665.5,1,26.66,26.65,26.657,4291,114383.66,33,26.655,26.655,26.66,26.655,,-0.006448005963473659,wu,20191211
2019-12-11,14:19,2:19 PM,26.65,26.635,26.645,113,3010.875,3,26.655,26.63,26.645,17430,464425.64,85,26.65,26.635,26.655,26.63,,-0.0068952664927319695,wu,20191211
2019-12-11,14:20,2:20 PM,,,,0,0.0,0,26.64,26.63,26.635,2805,74710.675,26,,,26.635,26.635,,-0.0072679836004471395,wu,20191211
2019-12-11,14:21,2:21 PM,26.63,26.63,26.63,100,2663.0,1,26.64,26.63,26.634,5100,135834.5,28,26.63,26.63,26.635,26.635,,-0.007305255311218709,wu,20191211
2019-12-11,14:22,2:22 PM,26.64,26.62,26.629,237,6311.005,5,26.64,26.62,26.63,25578,681134.695,144,26.63,26.62,26.635,26.625,,-0.007454342154304856,wu,20191211
2019-12-11,14:23,2:23 PM,26.64,26.635,26.636,240,6392.6,2,26.64,26.62,26.63,11060,294524.3,55,26.635,26.64,26.625,26.64,,-0.007454342154304856,wu,20191211
2019-12-11,14:24,2:24 PM,26.635,26.635,26.635,111,2956.485,4,26.636,26.63,26.632,3630,96675.092,26,26.635,26.635,26.635,26.635,,-0.007379798732761717,wu,20191211
2019-12-11,14:25,2:25 PM,26.635,26.635,26.635,3,79.905,1,26.635,26.63,26.633,500,13316.5,5,26.635,26.635,26.635,26.635,,-0.007342527021990279,wu,20191211
2019-12-11,14:26,2:26 PM,26.63,26.625,26.625,1314,34985.82,10,26.635,26.62,26.629,13138,349856.44,77,26.63,26.63,26.635,26.63,,-0.007491613865076294,wu,20191211
2019-12-11,14:27,2:27 PM,26.63,26.62,26.625,235,6256.88,4,26.63,26.61,26.622,7400,197003.0,52,26.63,26.62,26.625,26.61,,-0.007752515840477019,wu,20191211
2019-12-11,14:28,2:28 PM,26.61,26.61,26.61,6,159.66,3,26.615,26.61,26.611,7414,197293.11,38,26.61,26.61,26.61,26.615,,-0.00816250465896376,wu,20191211
2019-12-11,14:29,2:29 PM,26.625,26.62,26.623,100,2662.27,2,26.63,26.61,26.62,6735,179288.46,47,26.62,26.625,26.615,26.63,,-0.007827059262020026,wu,20191211
2019-12-11,14:30,2:30 PM,26.64,26.63,26.633,318,8469.42,6,26.64,26.63,26.633,10274,273623.53,65,26.64,26.635,26.63,26.635,,-0.007342527021990279,wu,20191211
2019-12-11,14:31,2:31 PM,,,,0,0.0,0,26.635,26.635,26.635,400,10654.0,4,,,26.635,26.635,,-0.0072679836004471395,wu,20191211
2019-12-11,14:32,2:32 PM,26.635,26.63,26.634,225,5992.75,3,26.64,26.62,26.632,11546,307498.57,74,26.635,26.63,26.635,26.635,,-0.007379798732761717,wu,20191211
2019-12-11,14:33,2:33 PM,26.635,26.635,26.635,44,1171.94,1,26.64,26.625,26.633,7796,207632.98,48,26.635,26.635,26.635,26.63,,-0.007342527021990279,wu,20191211
2019-12-11,14:34,2:34 PM,,,,0,0.0,0,26.64,26.63,26.635,4003,106619.14,29,,,26.63,26.64,,-0.0072679836004471395,wu,20191211
2019-12-11,14:35,2:35 PM,,,,0,0.0,0,26.64,26.63,26.633,8129,216501.5471,44,,,26.64,26.63,,-0.007342527021990279,wu,20191211
2019-12-11,14:36,2:36 PM,,,,0,0.0,0,26.64,26.63,26.633,2200,58592.0,13,,,26.635,26.64,,-0.007342527021990279,wu,20191211
2019-12-11,14:37,2:37 PM,26.645,26.645,26.645,100,2664.5,1,26.655,26.63,26.642,10810,288000.9,62,26.645,26.645,26.63,26.655,,-0.007007081625046547,wu,20191211
2019-12-11,14:38,2:38 PM,26.665,26.665,26.665,240,6399.6,3,26.665,26.655,26.66,5131,136793.46,42,26.665,26.665,26.66,26.66,,-0.006336190831159082,wu,20191211
2019-12-11,14:39,2:39 PM,26.66,26.66,26.66,105,2799.3,3,26.665,26.655,26.66,17086,455515.26,83,26.66,26.66,26.66,26.655,,-0.006336190831159082,wu,20191211
2019-12-11,14:40,2:40 PM,26.655,26.65,26.652,200,5330.5,2,26.655,26.645,26.651,5328,141998.95,42,26.65,26.655,26.655,26.655,,-0.006671636228102814,wu,20191211
2019-12-11,14:41,2:41 PM,,,,0,0.0,0,26.67,26.655,26.66,8300,221274.5,49,,,26.66,26.67,,-0.006336190831159082,wu,20191211
2019-12-11,14:42,2:42 PM,26.675,26.675,26.675,100,2667.5,1,26.675,26.66,26.669,13978,372781.6,75,26.675,26.675,26.665,26.66,,-0.0060007454342153495,wu,20191211
2019-12-11,14:43,2:43 PM,26.665,26.66,26.663,300,7999.0,3,26.67,26.65,26.66,7319,195124.54,49,26.665,26.66,26.66,26.66,,-0.006336190831159082,wu,20191211
2019-12-11,14:44,2:44 PM,26.655,26.655,26.655,500,13327.5,5,26.66,26.65,26.659,3861,102928.76,25,26.655,26.655,26.66,26.655,,-0.006373462541930652,wu,20191211
2019-12-11,14:45,2:45 PM,26.65,26.65,26.65,100,2665.0,1,26.655,26.645,26.65,6207,165417.385,38,26.65,26.65,26.655,26.65,,-0.0067089079388743846,wu,20191211
2019-12-11,14:46,2:46 PM,,,,0,0.0,0,26.655,26.645,26.649,8357,222704.505,47,,,26.65,26.65,,-0.006746179649645822,wu,20191211
2019-12-11,14:47,2:47 PM,26.66,26.66,26.66,200,5332.0,2,26.66,26.65,26.657,2843,75787.165,21,26.66,26.66,26.65,26.66,,-0.006448005963473659,wu,20191211
2019-12-11,14:48,2:48 PM,,,,0,0.0,0,26.67,26.66,26.664,688,18344.7925,6,,,26.67,26.665,,-0.0061871039880729345,wu,20191211
2019-12-11,14:49,2:49 PM,26.665,26.665,26.665,400,10666.0,4,26.67,26.66,26.665,3507,93513.155,32,26.665,26.665,26.66,26.665,,-0.006149832277301497,wu,20191211
2019-12-11,14:50,2:50 PM,26.665,26.66,26.665,215,5732.9,4,26.67,26.655,26.661,7563,201635.9984,49,26.665,26.66,26.665,26.655,,-0.006298919120387512,wu,20191211
2019-12-11,14:51,2:51 PM,,,,0,0.0,0,26.66,26.65,26.655,3101,82656.15,28,,,26.655,26.65,,-0.006522549385016667,wu,20191211
2019-12-11,14:52,2:52 PM,26.655,26.655,26.655,1326,35344.53,12,26.66,26.65,26.657,2626,70000.53,24,26.655,26.655,26.655,26.66,,-0.006448005963473659,wu,20191211
2019-12-11,14:53,2:53 PM,26.67,26.66,26.666,624,16639.34,8,26.675,26.655,26.666,15987,426317.035,103,26.66,26.665,26.66,26.665,,-0.006112560566529927,wu,20191211
2019-12-11,14:54,2:54 PM,26.665,26.665,26.665,500,13332.5,5,26.67,26.66,26.666,3000,79997.5,27,26.665,26.665,26.665,26.665,,-0.006112560566529927,wu,20191211
2019-12-11,14:55,2:55 PM,,,,0,0.0,0,26.67,26.66,26.668,4108,109551.24,30,,,26.665,26.67,,-0.006038017144986919,wu,20191211
2019-12-11,14:56,2:56 PM,,,,0,0.0,0,26.67,26.66,26.668,1571,41895.86,13,,,26.67,26.67,,-0.006038017144986919,wu,20191211
2019-12-11,14:57,2:57 PM,,,,0,0.0,0,26.685,26.67,26.672,20012,533757.36,116,,,26.67,26.68,,-0.005888930301900771,wu,20191211
2019-12-11,14:58,2:58 PM,,,,0,0.0,0,26.68,26.67,26.678,2570,68562.6,18,,,26.68,26.68,,-0.005665300037271617,wu,20191211
2019-12-11,14:59,2:59 PM,26.68,26.68,26.68,718,19156.24,5,26.68,26.67,26.677,2926,78056.415,21,26.68,26.68,26.68,26.675,,-0.0057025717480431865,wu,20191211
2019-12-11,15:00,3 PM,26.68,26.67,26.679,1882,50210.26,12,26.68,26.67,26.678,6148,164019.59,45,26.68,26.675,26.68,26.675,,-0.005665300037271617,wu,20191211
2019-12-11,15:01,3:01 PM,26.685,26.685,26.685,109,2908.665,1,26.685,26.675,26.68,4741,126489.925,30,26.685,26.685,26.68,26.68,,-0.005590756615728609,wu,20191211
2019-12-11,15:02,3:02 PM,26.675,26.675,26.675,100,2667.5,1,26.675,26.67,26.672,1927,51396.725,14,26.675,26.675,26.67,26.675,,-0.005888930301900771,wu,20191211
2019-12-11,15:03,3:03 PM,26.675,26.675,26.675,200,5335.0,2,26.68,26.67,26.675,2722,72610.325,25,26.675,26.675,26.68,26.67,,-0.005777115169586194,wu,20191211
2019-12-11,15:04,3:04 PM,26.665,26.66,26.665,307,8186.12,4,26.675,26.655,26.665,10804,288089.38,78,26.66,26.665,26.67,26.665,,-0.006149832277301497,wu,20191211
2019-12-11,15:05,3:05 PM,26.665,26.665,26.665,300,7999.5,3,26.665,26.66,26.663,2495,66525.311,22,26.665,26.665,26.665,26.66,,-0.006224375698844504,wu,20191211
2019-12-11,15:06,3:06 PM,26.665,26.665,26.665,200,5333.0,2,26.67,26.66,26.666,2500,66666.0,24,26.665,26.665,26.66,26.665,,-0.006112560566529927,wu,20191211
2019-12-11,15:07,3:07 PM,26.665,26.665,26.665,300,7999.5,2,26.67,26.66,26.666,1300,34665.5,12,26.665,26.665,26.665,26.665,,-0.006112560566529927,wu,20191211
2019-12-11,15:08,3:08 PM,26.665,26.66,26.662,203,5412.48,3,26.665,26.66,26.66,1243,33138.88,11,26.665,26.66,26.665,26.66,,-0.006336190831159082,wu,20191211
2019-12-11,15:09,3:09 PM,26.665,26.665,26.665,2,53.33,1,26.665,26.66,26.662,1300,34661.0,11,26.665,26.665,26.66,26.665,,-0.006261647409616074,wu,20191211
2019-12-11,15:10,3:10 PM,26.665,26.665,26.665,100,2666.5,1,26.67,26.66,26.662,7972,212548.495,41,26.665,26.665,26.67,26.66,,-0.006261647409616074,wu,20191211
2019-12-11,15:11,3:11 PM,26.66,26.65,26.654,820,21856.1,7,26.66,26.65,26.655,9363,249570.38,62,26.66,26.65,26.66,26.65,,-0.006522549385016667,wu,20191211
2019-12-11,15:12,3:12 PM,26.655,26.655,26.655,100,2665.5,1,26.655,26.65,26.651,2807,74808.53,21,26.655,26.655,26.65,26.65,,-0.006671636228102814,wu,20191211
2019-12-11,15:13,3:13 PM,26.63,26.63,26.63,100,2663.0,1,26.65,26.63,26.642,9594,255603.875,56,26.63,26.63,26.65,26.63,,-0.007007081625046547,wu,20191211
2019-12-11,15:14,3:14 PM,26.63,26.63,26.63,200,5326.0,2,26.63,26.63,26.63,2100,55923.0,10,26.63,26.63,26.63,26.63,,-0.007454342154304856,wu,20191211
2019-12-11,15:15,3:15 PM,26.63,26.625,26.625,110,2928.8,2,26.63,26.62,26.626,11329,301646.27,67,26.63,26.625,26.63,26.62,,-0.007603428997390872,wu,20191211
2019-12-11,15:16,3:16 PM,26.62,26.62,26.62,1,26.62,1,26.63,26.62,26.621,2880,76668.27,20,26.62,26.62,26.62,26.62,,-0.007789787551248589,wu,20191211
2019-12-11,15:17,3:17 PM,,,,0,0.0,0,26.625,26.62,26.62,2696,71769.135,13,,,26.62,26.62,,-0.007827059262020026,wu,20191211
2019-12-11,15:18,3:18 PM,26.625,26.625,26.625,100,2662.5,1,26.625,26.62,26.621,2600,69215.0,17,26.625,26.625,26.62,26.62,,-0.007789787551248589,wu,20191211
2019-12-11,15:19,3:19 PM,26.62,26.62,26.62,100,2662.0,1,26.625,26.62,26.62,4896,130333.02,29,26.62,26.62,26.625,26.62,,-0.007827059262020026,wu,20191211
2019-12-11,15:20,3:20 PM,26.625,26.61,26.622,900,23959.5,4,26.625,26.61,26.618,9699,258171.0146,48,26.625,26.61,26.62,26.61,,-0.007901602683563167,wu,20191211
2019-12-11,15:21,3:21 PM,26.615,26.61,26.615,1401,37287.11,8,26.62,26.61,26.615,8041,214010.42,41,26.615,26.61,26.615,26.61,,-0.008013417815877744,wu,20191211
2019-12-11,15:22,3:22 PM,26.615,26.615,26.615,100,2661.5,1,26.615,26.61,26.61,3902,103833.72,24,26.615,26.615,26.615,26.61,,-0.00819977636973533,wu,20191211
2019-12-11,15:23,3:23 PM,26.62,26.61,26.616,669,17806.26,9,26.63,26.61,26.619,18710,498037.73,93,26.61,26.62,26.615,26.62,,-0.007864330972791597,wu,20191211
2019-12-11,15:24,3:24 PM,26.615,26.61,26.613,400,10645.0,4,26.62,26.605,26.612,33489,891222.455,162,26.61,26.615,26.62,26.615,,-0.008125232948192321,wu,20191211
2019-12-11,15:25,3:25 PM,26.625,26.62,26.624,339,9025.68,7,26.625,26.61,26.619,12075,321426.435,54,26.62,26.625,26.615,26.62,,-0.007864330972791597,wu,20191211
2019-12-11,15:26,3:26 PM,26.625,26.62,26.622,400,10649.0,4,26.625,26.62,26.621,3273,87131.76,27,26.62,26.625,26.62,26.625,,-0.007789787551248589,wu,20191211
2019-12-11,15:27,3:27 PM,26.625,26.62,26.625,202,5378.24,4,26.63,26.62,26.621,3860,102758.05,19,26.625,26.62,26.625,26.62,,-0.007789787551248589,wu,20191211
2019-12-11,15:28,3:28 PM,,,,0,0.0,0,26.625,26.62,26.62,3688,98176.06,21,,,26.625,26.62,,-0.007827059262020026,wu,20191211
2019-12-11,15:29,3:29 PM,26.625,26.615,26.617,2454,65317.48,24,26.63,26.615,26.619,30511,812184.47,173,26.62,26.625,26.62,26.625,,-0.007864330972791597,wu,20191211
2019-12-11,15:30,3:30 PM,26.64,26.63,26.637,440,11720.2,5,26.64,26.625,26.631,7972,212302.165,48,26.63,26.64,26.63,26.64,,-0.007417070443533287,wu,20191211
2019-12-11,15:31,3:31 PM,26.655,26.655,26.655,100,2665.5,1,26.655,26.64,26.648,24445,651412.785,121,26.655,26.655,26.64,26.65,,-0.0067834513604173915,wu,20191211
2019-12-11,15:32,3:32 PM,26.655,26.655,26.655,100,2665.5,1,26.66,26.65,26.654,2100,55973.0,14,26.655,26.655,26.655,26.655,,-0.006559821095788237,wu,20191211
2019-12-11,15:33,3:33 PM,26.655,26.655,26.655,400,10662.0,3,26.655,26.65,26.651,2543,67774.165,15,26.655,26.655,26.65,26.655,,-0.006671636228102814,wu,20191211
2019-12-11,15:34,3:34 PM,26.65,26.64,26.647,530,14122.85,5,26.66,26.64,26.648,27267,726615.08,128,26.65,26.645,26.65,26.655,,-0.0067834513604173915,wu,20191211
2019-12-11,15:35,3:35 PM,26.655,26.655,26.655,100,2665.5,1,26.655,26.65,26.654,2396,63863.38,20,26.655,26.655,26.655,26.655,,-0.006559821095788237,wu,20191211
2019-12-11,15:36,3:36 PM,26.655,26.65,26.652,1300,34648.0,11,26.66,26.65,26.652,4683,124813.1876,39,26.655,26.655,26.655,26.655,,-0.006634364517331244,wu,20191211
2019-12-11,15:37,3:37 PM,26.65,26.645,26.648,200,5329.5,2,26.655,26.64,26.648,17773,473624.578,96,26.65,26.645,26.655,26.645,,-0.0067834513604173915,wu,20191211
2019-12-11,15:38,3:38 PM,26.65,26.635,26.644,509,13561.76,5,26.65,26.635,26.643,21455,571619.035,133,26.65,26.635,26.645,26.64,,-0.0069698099142749765,wu,20191211
2019-12-11,15:39,3:39 PM,26.645,26.64,26.641,400,10656.5,4,26.645,26.63,26.64,16511,439857.185,63,26.64,26.645,26.63,26.64,,-0.0070816250465895545,wu,20191211
2019-12-11,15:40,3:40 PM,26.635,26.63,26.634,1036,27593.36,9,26.645,26.63,26.638,11601,309024.155,72,26.635,26.635,26.64,26.635,,-0.0071561684681325614,wu,20191211
2019-12-11,15:41,3:41 PM,26.635,26.63,26.632,300,7989.5,3,26.64,26.63,26.634,4297,114447.85,30,26.63,26.635,26.63,26.64,,-0.007305255311218709,wu,20191211
2019-12-11,15:42,3:42 PM,26.635,26.63,26.634,800,21307.5,3,26.64,26.63,26.636,7602,202484.27,41,26.635,26.635,26.635,26.635,,-0.007230711889675702,wu,20191211
2019-12-11,15:43,3:43 PM,26.635,26.625,26.631,351,9347.43,6,26.635,26.62,26.629,22466,598258.094,103,26.63,26.625,26.63,26.625,,-0.007491613865076294,wu,20191211
2019-12-11,15:44,3:44 PM,26.625,26.62,26.624,887,23615.33,7,26.63,26.62,26.624,36638,975466.6758,101,26.62,26.625,26.625,26.62,,-0.0076779724189340115,wu,20191211
2019-12-11,15:45,3:45 PM,26.625,26.61,26.617,784,20867.77,8,26.625,26.61,26.616,48839,1299890.125,169,26.62,26.61,26.62,26.61,,-0.007976146105106174,wu,20191211
2019-12-11,15:46,3:46 PM,26.615,26.605,26.61,500,13305.0,4,26.615,26.6,26.609,31140,828606.315,149,26.61,26.615,26.61,26.6,,-0.008237048080506766,wu,20191211
2019-12-11,15:47,3:47 PM,,,,0,0.0,0,26.605,26.59,26.599,24120,641581.81,104,,,26.6,26.59,,-0.008609765188222068,wu,20191211
2019-12-11,15:48,3:48 PM,26.59,26.59,26.59,100,2659.0,1,26.6,26.59,26.591,10350,275219.332,45,26.59,26.59,26.59,26.59,,-0.008907938874394231,wu,20191211
2019-12-11,15:49,3:49 PM,26.595,26.59,26.594,495,13164.05,5,26.6,26.59,26.592,8073,214674.355,43,26.595,26.595,26.59,26.595,,-0.008870667163622795,wu,20191211
2019-12-11,15:50,3:50 PM,26.605,26.595,26.597,2583,68699.625,12,26.61,26.59,26.599,37499,997447.085,182,26.595,26.605,26.6,26.605,,-0.008609765188222068,wu,20191211
2019-12-11,15:51,3:51 PM,26.605,26.605,26.605,100,2660.5,1,26.61,26.6,26.608,23743,631767.145,106,26.605,26.605,26.61,26.61,,-0.008274319791278337,wu,20191211
2019-12-11,15:52,3:52 PM,26.61,26.605,26.605,123,3272.48,4,26.61,26.6,26.603,13657,363320.715,88,26.605,26.61,26.61,26.605,,-0.00846067834513592,wu,20191211
2019-12-11,15:53,3:53 PM,26.605,26.6,26.601,150,3990.2,3,26.61,26.59,26.601,30966,823720.755,152,26.605,26.6,26.61,26.59,,-0.008535221766679061,wu,20191211
2019-12-11,15:54,3:54 PM,26.62,26.6,26.604,745,19820.13,9,26.63,26.59,26.608,56805,1511473.915,239,26.6,26.62,26.595,26.62,,-0.008274319791278337,wu,20191211
2019-12-11,15:55,3:55 PM,26.625,26.615,26.625,803,21379.865,9,26.63,26.61,26.619,32596,867657.455,132,26.625,26.615,26.625,26.61,,-0.007864330972791597,wu,20191211
2019-12-11,15:56,3:56 PM,26.615,26.605,26.609,897,23868.615,17,26.62,26.605,26.61,40678,1082435.3477,193,26.615,26.61,26.61,26.61,,-0.00819977636973533,wu,20191211
2019-12-11,15:57,3:57 PM,26.615,26.605,26.614,1365,36328.38,13,26.62,26.605,26.61,58639,1560391.4782,228,26.615,26.61,26.61,26.61,,-0.00819977636973533,wu,20191211
2019-12-11,15:58,3:58 PM,26.615,26.605,26.611,2896,77064.76,28,26.62,26.6,26.61,95943,2553065.125,359,26.615,26.615,26.615,26.61,,-0.00819977636973533,wu,20191211
2019-12-11,15:59,3:59 PM,26.625,26.585,26.606,5576,148352.97,51,26.625,26.58,26.602,270150,7186496.905,717,26.61,26.585,26.615,26.58,,-0.008497950055907491,wu,20191211
