date,minute,label,high,low,average,volume,notional,numberOfTrades,marketHigh,marketLow,marketAverage,marketVolume,marketNotional,marketNumberOfTrades,open,close,marketOpen,marketClose,changeOverTime,marketChangeOverTime,tickerName,tickerDate
2019-11-20,09:30,09:30 AM,,,,0,0.0,0,,,,0,0.0,0,,,,,,,wu,20191120
2019-11-20,09:31,09:31 AM,,,,0,0.0,0,27.23,27.19,27.21,200,5442.0,2,,,27.19,27.23,,,wu,20191120
2019-11-20,09:32,09:32 AM,,,,0,0.0,0,27.18,27.16,27.167,300,8150.0,3,,,27.18,27.16,,,wu,20191120
2019-11-20,09:33,09:33 AM,27.23,27.23,27.23,100,2723.0,2,27.25,27.17,27.215,49264,1340723.75,104,27.23,27.23,27.21,27.24,,,wu,20191120
2019-11-20,09:34,09:34 AM,,,,0,0.0,0,27.25,27.2,27.226,15169,412993.02,81,,,27.25,27.24,,,wu,20191120
2019-11-20,09:35,09:35 AM,27.26,27.26,27.26,100,2726.0,1,27.27,27.24,27.257,2437,66424.93,20,27.26,27.26,27.24,27.265,,,wu,20191120
2019-11-20,09:36,09:36 AM,27.27,27.27,27.27,11,299.97,2,27.28,27.27,27.274,6111,166669.97,49,27.27,27.27,27.27,27.28,,,wu,20191120
2019-11-20,09:37,09:37 AM,,,,0,0.0,0,27.28,27.27,27.275,6334,172758.79,33,,,27.27,27.275,,,wu,20191120
2019-11-20,09:38,09:38 AM,27.24,27.24,27.24,8,217.92,1,27.27,27.24,27.26,11128,303354.5,64,27.24,27.24,27.27,27.24,,,wu,20191120
2019-11-20,09:39,09:39 AM,27.275,27.23,27.269,16,436.31,5,27.29,27.23,27.253,15104,411629.98,91,27.23,27.275,27.24,27.29,,,wu,20191120
2019-11-20,09:40,09:40 AM,27.31,27.29,27.297,4,109.19,3,27.33,27.29,27.311,20542,561028.51,90,27.29,27.31,27.29,27.31,,,wu,20191120
2019-11-20,09:41,09:41 AM,27.3,27.28,27.29,200,5458.0,4,27.3,27.26,27.288,11784,321564.52,56,27.3,27.28,27.3,27.26,,,wu,20191120
2019-11-20,09:42,09:42 AM,27.26,27.26,27.26,85,2317.1,1,27.264,27.25,27.26,7907,215544.62,45,27.26,27.26,27.26,27.26,,,wu,20191120
2019-11-20,09:43,09:43 AM,,,,0,0.0,0,27.265,27.25,27.259,3979,108464.54,24,,,27.265,27.25,,,wu,20191120
2019-11-20,09:44,09:44 AM,,,,0,0.0,0,27.25,27.24,27.248,7686,209430.1,35,,,27.25,27.24,,,wu,20191120
2019-11-20,09:45,09:45 AM,27.25,27.25,27.25,313,8529.25,4,27.25,27.23,27.246,14495,394930.72,82,27.25,27.25,27.245,27.23,,,wu,20191120
2019-11-20,09:46,09:46 AM,27.21,27.19,27.199,450,12239.5,4,27.23,27.19,27.205,17200,467929.45,117,27.21,27.195,27.23,27.19,,,wu,20191120
2019-11-20,09:47,09:47 AM,,,,0,0.0,0,27.19,27.185,27.19,4820,131055.3,36,,,27.19,27.185,,,wu,20191120
2019-11-20,09:48,09:48 AM,27.22,27.19,27.209,182,4952.01,3,27.23,27.185,27.212,13276,361264.94,101,27.19,27.22,27.185,27.21,,,wu,20191120
2019-11-20,09:49,09:49 AM,,,,0,0.0,0,27.24,27.22,27.226,3026,82385.38,17,,,27.22,27.24,,,wu,20191120
2019-11-20,09:50,09:50 AM,27.255,27.255,27.255,200,5451.0,2,27.26,27.24,27.251,14040,382610.92,92,27.255,27.255,27.24,27.245,,,wu,20191120
2019-11-20,09:51,09:51 AM,,,,0,0.0,0,27.26,27.24,27.25,7472,203611.5,49,,,27.245,27.255,,,wu,20191120
2019-11-20,09:52,09:52 AM,,,,0,0.0,0,27.255,27.24,27.249,8903,242599.75,55,,,27.25,27.255,,,wu,20191120
2019-11-20,09:53,09:53 AM,27.255,27.25,27.251,506,13789.0,5,27.255,27.245,27.25,5251,143091.2637,31,27.25,27.255,27.253,27.25,,,wu,20191120
2019-11-20,09:54,09:54 AM,27.255,27.25,27.253,400,10901.0,4,27.26,27.24,27.252,8753,238537.25,70,27.255,27.25,27.255,27.245,,,wu,20191120
2019-11-20,09:55,09:55 AM,,,,0,0.0,0,27.255,27.24,27.248,6637,180848.67,53,,,27.25,27.255,,,wu,20191120
2019-11-20,09:56,09:56 AM,27.255,27.25,27.252,705,19212.75,5,27.26,27.24,27.251,11255,306715.0,77,27.255,27.25,27.26,27.24,,,wu,20191120
2019-11-20,09:57,09:57 AM,,,,0,0.0,0,27.24,27.23,27.237,3811,103801.03,24,,,27.24,27.235,,,wu,20191120
2019-11-20,09:58,09:58 AM,,,,0,0.0,0,27.23,27.21,27.223,10053,273671.81,63,,,27.23,27.21,,,wu,20191120
2019-11-20,09:59,09:59 AM,27.215,27.215,27.215,100,2721.5,1,27.215,27.21,27.211,1500,40817.0,13,27.215,27.215,27.21,27.21,,,wu,20191120
2019-11-20,10:00,10 AM,,,,0,0.0,0,27.21,27.2,27.207,9013,245222.03,35,,,27.21,27.2,,,wu,20191120
2019-11-20,10:01,10:01 AM,27.205,27.205,27.205,100,2720.5,1,27.205,27.2,27.2,1600,43520.5,15,27.205,27.205,27.2,27.2,,,wu,20191120
2019-11-20,10:02,10:02 AM,27.195,27.195,27.195,100,2719.5,1,27.2,27.19,27.197,13059,355167.56,70,27.195,27.195,27.2,27.195,,,wu,20191120
2019-11-20,10:03,10:03 AM,27.19,27.19,27.19,101,2746.19,2,27.19,27.19,27.19,1000,27190.0,10,27.19,27.19,27.19,27.19,,,wu,20191120
2019-11-20,10:04,10:04 AM,27.24,27.2,27.225,205,5581.08,5,27.25,27.19,27.222,23806,648057.2672,149,27.2,27.24,27.19,27.235,,,wu,20191120
2019-11-20,10:05,10:05 AM,,,,0,0.0,0,27.235,27.23,27.23,3413,92936.49,22,,,27.23,27.23,,,wu,20191120
2019-11-20,10:06,10:06 AM,,,,0,0.0,0,27.24,27.23,27.232,3236,88122.7138,15,,,27.23,27.23,,,wu,20191120
2019-11-20,10:07,10:07 AM,27.22,27.22,27.22,101,2749.22,2,27.23,27.22,27.228,8821,240179.63,31,27.22,27.22,27.23,27.224,,,wu,20191120
2019-11-20,10:08,10:08 AM,27.235,27.22,27.23,401,10919.22,4,27.25,27.22,27.233,9485,258307.2,49,27.22,27.235,27.22,27.247,,,wu,20191120
2019-11-20,10:09,10:09 AM,27.245,27.245,27.245,200,5449.0,1,27.25,27.24,27.244,1700,46314.0,13,27.245,27.245,27.24,27.245,,,wu,20191120
2019-11-20,10:10,10:10 AM,,,,0,0.0,0,27.245,27.24,27.241,3035,82677.4,16,,,27.245,27.245,,,wu,20191120
2019-11-20,10:11,10:11 AM,27.24,27.23,27.236,269,7326.56,2,27.25,27.22,27.238,12121,330152.68,58,27.24,27.23,27.245,27.22,,,wu,20191120
2019-11-20,10:12,10:12 AM,,,,0,0.0,0,27.225,27.22,27.222,2425,66013.625,15,,,27.225,27.22,,,wu,20191120
2019-11-20,10:13,10:13 AM,27.225,27.225,27.225,800,21780.0,4,27.23,27.22,27.226,5999,163327.7424,32,27.225,27.225,27.22,27.23,,,wu,20191120
2019-11-20,10:14,10:14 AM,,,,0,0.0,0,27.23,27.22,27.222,2150,58527.825,20,,,27.23,27.22,,,wu,20191120
2019-11-20,10:15,10:15 AM,27.225,27.22,27.222,159,4328.28,4,27.225,27.2,27.216,13164,358273.16,57,27.225,27.22,27.225,27.2,,,wu,20191120
2019-11-20,10:16,10:16 AM,,,,0,0.0,0,27.21,27.19,27.2,10039,273060.025,61,,,27.19,27.2,,,wu,20191120
2019-11-20,10:17,10:17 AM,,,,0,0.0,0,27.21,27.2,27.205,1005,27341.235,8,,,27.205,27.205,,,wu,20191120
2019-11-20,10:18,10:18 AM,,,,0,0.0,0,27.21,27.2,27.205,2639,71795.2404,15,,,27.2,27.21,,,wu,20191120
2019-11-20,10:19,10:19 AM,27.2,27.19,27.2,201,5467.19,4,27.205,27.19,27.198,11853,322372.22,58,27.2,27.19,27.205,27.19,,,wu,20191120
2019-11-20,10:20,10:20 AM,27.19,27.19,27.19,200,5438.0,4,27.195,27.18,27.19,7708,209580.4876,35,27.19,27.19,27.195,27.18,,,wu,20191120
2019-11-20,10:21,10:21 AM,27.175,27.17,27.174,500,13587.0,5,27.18,27.17,27.177,6220,169042.77,45,27.17,27.175,27.18,27.17,,,wu,20191120
2019-11-20,10:22,10:22 AM,,,,0,0.0,0,27.18,27.17,27.171,1863,50619.3237,14,,,27.17,27.17,,,wu,20191120
2019-11-20,10:23,10:23 AM,27.18,27.155,27.171,565,15351.375,6,27.18,27.145,27.166,20228,549506.225,114,27.175,27.155,27.17,27.145,,,wu,20191120
2019-11-20,10:24,10:24 AM,27.155,27.15,27.154,400,10861.5,3,27.16,27.14,27.15,20963,569145.02,119,27.15,27.155,27.145,27.14,,,wu,20191120
2019-11-20,10:25,10:25 AM,,,,0,0.0,0,27.15,27.14,27.144,1300,35287.0,11,,,27.145,27.145,,,wu,20191120
2019-11-20,10:26,10:26 AM,,,,0,0.0,0,27.15,27.14,27.145,2568,69709.2,20,,,27.145,27.14,,,wu,20191120
2019-11-20,10:27,10:27 AM,27.155,27.15,27.152,200,5430.5,2,27.16,27.14,27.151,11790,320110.0,79,27.15,27.155,27.14,27.15,,,wu,20191120
2019-11-20,10:28,10:28 AM,,,,0,0.0,0,27.16,27.13,27.148,12890,349941.05,42,,,27.15,27.13,,,wu,20191120
2019-11-20,10:29,10:29 AM,,,,0,0.0,0,27.13,27.12,27.125,8663,234981.164,68,,,27.13,27.12,,,wu,20191120
2019-11-20,10:30,10:30 AM,,,,0,0.0,0,27.13,27.12,27.123,1936,52509.364,18,,,27.12,27.13,,,wu,20191120
2019-11-20,10:31,10:31 AM,,,,0,0.0,0,27.13,27.12,27.123,4932,133770.84,33,,,27.12,27.12,,,wu,20191120
2019-11-20,10:32,10:32 AM,27.11,27.11,27.11,100,2711.0,1,27.12,27.1,27.113,14533,394039.3,62,27.11,27.11,27.12,27.1,,,wu,20191120
2019-11-20,10:33,10:33 AM,27.1,27.095,27.097,1500,40646.0,5,27.1,27.09,27.099,11234,304429.4,60,27.095,27.1,27.1,27.1,,,wu,20191120
2019-11-20,10:34,10:34 AM,27.11,27.105,27.106,500,13553.0,4,27.11,27.1,27.108,2760,74819.1,26,27.105,27.11,27.1,27.11,,,wu,20191120
2019-11-20,10:35,10:35 AM,27.125,27.105,27.114,365,9896.7,5,27.125,27.1,27.115,20256,549243.83,93,27.11,27.105,27.11,27.1,,,wu,20191120
2019-11-20,10:36,10:36 AM,27.11,27.095,27.102,711,19269.6,7,27.115,27.095,27.103,10871,294634.825,69,27.1,27.11,27.105,27.115,,,wu,20191120
2019-11-20,10:37,10:37 AM,27.105,27.105,27.105,200,5421.0,1,27.12,27.1,27.111,9255,250909.05,57,27.105,27.105,27.115,27.1,,,wu,20191120
2019-11-20,10:38,10:38 AM,,,,0,0.0,0,27.11,27.1,27.105,2377,64429.09,16,,,27.105,27.1,,,wu,20191120
2019-11-20,10:39,10:39 AM,,,,0,0.0,0,27.105,27.1,27.101,1300,35231.0,11,,,27.1,27.105,,,wu,20191120
2019-11-20,10:40,10:40 AM,,,,0,0.0,0,27.107,27.1,27.102,4628,125430.2,25,,,27.105,27.1,,,wu,20191120
2019-11-20,10:41,10:41 AM,27.09,27.085,27.085,213,5769.17,3,27.105,27.08,27.097,10077,273057.535,52,27.09,27.085,27.105,27.08,,,wu,20191120
2019-11-20,10:42,10:42 AM,,,,0,0.0,0,27.08,27.07,27.075,3420,92597.162,28,,,27.08,27.07,,,wu,20191120
2019-11-20,10:43,10:43 AM,,,,0,0.0,0,27.075,27.07,27.072,3299,89310.425,25,,,27.07,27.07,,,wu,20191120
2019-11-20,10:44,10:44 AM,27.065,27.065,27.065,100,2706.5,1,27.075,27.06,27.068,6524,176591.9,44,27.065,27.065,27.07,27.065,,,wu,20191120
2019-11-20,10:45,10:45 AM,27.07,27.065,27.067,200,5413.5,2,27.07,27.06,27.069,12840,347571.3,57,27.065,27.07,27.065,27.07,,,wu,20191120
2019-11-20,10:46,10:46 AM,,,,0,0.0,0,27.075,27.06,27.069,7278,197005.96,41,,,27.065,27.07,,,wu,20191120
2019-11-20,10:47,10:47 AM,27.075,27.075,27.075,100,2707.5,1,27.08,27.07,27.072,900,24364.5,8,27.075,27.075,27.07,27.07,,,wu,20191120
2019-11-20,10:48,10:48 AM,27.08,27.075,27.076,195,5279.91,3,27.08,27.07,27.078,5753,155779.24,38,27.075,27.075,27.07,27.075,,,wu,20191120
2019-11-20,10:49,10:49 AM,27.085,27.085,27.085,28,758.38,1,27.09,27.07,27.083,4447,120436.76,36,27.085,27.085,27.07,27.085,,,wu,20191120
2019-11-20,10:50,10:50 AM,27.08,27.06,27.079,566,15326.7,3,27.09,27.06,27.078,18821,509628.06,52,27.08,27.06,27.085,27.06,,,wu,20191120
2019-11-20,10:51,10:51 AM,,,,0,0.0,0,27.07,27.06,27.062,789,21352.23,6,,,27.06,27.06,,,wu,20191120
2019-11-20,10:52,10:52 AM,27.065,27.065,27.065,100,2706.5,1,27.09,27.06,27.073,10248,277440.72,48,27.065,27.065,27.06,27.08,,,wu,20191120
2019-11-20,10:53,10:53 AM,27.09,27.09,27.09,248,6718.32,4,27.1,27.09,27.099,59110,1601799.12,46,27.09,27.09,27.09,27.09,,,wu,20191120
2019-11-20,10:54,10:54 AM,,,,0,0.0,0,27.095,27.09,27.09,14006,379423.54,62,,,27.095,27.09,,,wu,20191120
2019-11-20,10:55,10:55 AM,27.085,27.085,27.085,297,8044.245,2,27.09,27.08,27.088,4300,116477.5,23,27.085,27.085,27.09,27.08,,,wu,20191120
2019-11-20,10:56,10:56 AM,27.085,27.085,27.085,100,2708.5,1,27.085,27.08,27.083,1300,35207.5,12,27.085,27.085,27.08,27.085,,,wu,20191120
2019-11-20,10:57,10:57 AM,27.085,27.085,27.085,400,10834.0,2,27.09,27.08,27.088,4664,126339.26,42,27.085,27.085,27.085,27.09,,,wu,20191120
2019-11-20,10:58,10:58 AM,,,,0,0.0,0,27.09,27.08,27.083,2749,74451.92,22,,,27.09,27.085,,,wu,20191120
2019-11-20,10:59,10:59 AM,27.08,27.08,27.08,1,27.08,1,27.085,27.08,27.081,3790,102639.2,24,27.08,27.08,27.085,27.08,,,wu,20191120
2019-11-20,11:00,11 AM,27.085,27.085,27.085,100,2708.5,1,27.09,27.08,27.083,5159,139721.015,32,27.085,27.085,27.08,27.08,,,wu,20191120
2019-11-20,11:01,11:01 AM,27.08,27.08,27.08,62,1678.96,2,27.09,27.08,27.086,1508,40845.68,15,27.08,27.08,27.085,27.085,,,wu,20191120
2019-11-20,11:02,11:02 AM,27.08,27.065,27.074,639,17300.12,6,27.09,27.06,27.076,24643,667238.24,95,27.08,27.065,27.085,27.06,,,wu,20191120
2019-11-20,11:03,11:03 AM,27.08,27.07,27.076,315,8529.05,4,27.08,27.06,27.071,9434,255387.87,49,27.075,27.07,27.06,27.075,,,wu,20191120
2019-11-20,11:04,11:04 AM,27.08,27.08,27.08,100,2708.0,1,27.08,27.07,27.079,4691,127028.78,25,27.08,27.08,27.08,27.075,,,wu,20191120
2019-11-20,11:05,11:05 AM,27.055,27.055,27.055,200,5411.0,2,27.075,27.04,27.061,17091,462502.13,87,27.055,27.055,27.075,27.045,,,wu,20191120
2019-11-20,11:06,11:06 AM,27.025,27.005,27.009,1100,29709.5,7,27.04,27.005,27.023,33431,903395.05,191,27.025,27.005,27.04,27.005,,,wu,20191120
2019-11-20,11:07,11:07 AM,27.01,27.005,27.006,900,24305.5,5,27.01,27.0,27.004,25676,693353.615,144,27.005,27.01,27.005,27.005,,,wu,20191120
2019-11-20,11:08,11:08 AM,27.02,27.005,27.011,195,5267.15,3,27.04,27.0,27.013,22186,599310.465,124,27.005,27.02,27.0,27.03,,,wu,20191120
2019-11-20,11:09,11:09 AM,,,,0,0.0,0,27.04,27.035,27.037,600,16222.0,5,,,27.035,27.035,,,wu,20191120
2019-11-20,11:10,11:10 AM,,,,0,0.0,0,27.03,27.01,27.025,14708,397490.03,82,,,27.03,27.013,,,wu,20191120
2019-11-20,11:11,11:11 AM,,,,0,0.0,0,27.04,27.01,27.027,7790,210539.3,48,,,27.02,27.04,,,wu,20191120
2019-11-20,11:12,11:12 AM,,,,0,0.0,0,27.04,27.03,27.038,600,16223.0,6,,,27.03,27.04,,,wu,20191120
2019-11-20,11:13,11:13 AM,27.045,27.045,27.045,271,7329.195,4,27.05,27.04,27.043,9371,253420.67,44,27.045,27.045,27.04,27.04,,,wu,20191120
2019-11-20,11:14,11:14 AM,27.05,27.05,27.05,159,4300.95,1,27.06,27.05,27.052,5012,135583.1,29,27.05,27.05,27.05,27.055,,,wu,20191120
2019-11-20,11:15,11:15 AM,27.06,27.05,27.05,941,25454.6,5,27.07,27.05,27.052,27705,749484.03,119,27.055,27.06,27.055,27.06,,,wu,20191120
2019-11-20,11:16,11:16 AM,27.065,27.045,27.052,500,13526.0,5,27.065,27.04,27.054,15117,408974.95,87,27.065,27.045,27.065,27.045,,,wu,20191120
2019-11-20,11:17,11:17 AM,27.04,27.025,27.033,900,24330.0,5,27.05,27.02,27.036,7581,204963.14,54,27.04,27.025,27.04,27.023,,,wu,20191120
2019-11-20,11:18,11:18 AM,,,,0,0.0,0,27.03,27.02,27.022,3490,94307.07,29,,,27.025,27.02,,,wu,20191120
2019-11-20,11:19,11:19 AM,,,,0,0.0,0,27.03,27.02,27.021,1700,45935.99,15,,,27.02,27.02,,,wu,20191120
2019-11-20,11:20,11:20 AM,,,,0,0.0,0,27.03,27.02,27.023,2308,62368.2,20,,,27.02,27.02,,,wu,20191120
2019-11-20,11:21,11:21 AM,27.035,27.03,27.032,226,6109.28,5,27.04,27.02,27.03,10649,287841.91,71,27.03,27.035,27.025,27.035,,,wu,20191120
2019-11-20,11:22,11:22 AM,27.04,27.025,27.031,277,7487.58,5,27.045,27.01,27.032,24082,650995.865,123,27.04,27.025,27.04,27.02,,,wu,20191120
2019-11-20,11:23,11:23 AM,27.03,27.03,27.03,100,2703.0,1,27.035,27.01,27.022,7585,204965.2,51,27.03,27.03,27.02,27.035,,,wu,20191120
2019-11-20,11:24,11:24 AM,27.035,27.035,27.035,78,2108.73,1,27.04,27.03,27.04,3800,102751.0,21,27.035,27.035,27.04,27.04,,,wu,20191120
2019-11-20,11:25,11:25 AM,27.045,27.045,27.045,119,3218.355,2,27.045,27.03,27.039,9040,244435.85,60,27.045,27.045,27.04,27.04,,,wu,20191120
2019-11-20,11:26,11:26 AM,,,,0,0.0,0,27.05,27.045,27.047,1000,27047.0,8,,,27.045,27.045,,,wu,20191120
2019-11-20,11:27,11:27 AM,27.05,27.05,27.05,100,2705.0,1,27.05,27.04,27.048,3090,83577.75,22,27.05,27.05,27.045,27.04,,,wu,20191120
2019-11-20,11:28,11:28 AM,,,,0,0.0,0,27.045,27.04,27.04,9509,257126.86,54,,,27.045,27.04,,,wu,20191120
2019-11-20,11:29,11:29 AM,,,,0,0.0,0,27.045,27.03,27.038,5131,138731.18,28,,,27.045,27.03,,,wu,20191120
2019-11-20,11:30,11:30 AM,,,,0,0.0,0,27.04,27.03,27.03,7098,191861.94,36,,,27.03,27.03,,,wu,20191120
2019-11-20,11:31,11:31 AM,27.025,27.015,27.024,1168,31564.7,4,27.03,27.01,27.023,16085,434661.09,90,27.025,27.025,27.03,27.03,,,wu,20191120
2019-11-20,11:32,11:32 AM,27.03,27.03,27.03,100,2703.0,1,27.035,27.02,27.03,2796,75575.88,20,27.03,27.03,27.02,27.03,,,wu,20191120
2019-11-20,11:33,11:33 AM,27.04,27.04,27.04,100,2704.0,1,27.05,27.03,27.04,3600,97344.0,33,27.04,27.04,27.03,27.05,,,wu,20191120
2019-11-20,11:34,11:34 AM,27.055,27.055,27.055,200,5411.0,2,27.06,27.047,27.051,9798,265050.0405,42,27.055,27.055,27.047,27.06,,,wu,20191120
2019-11-20,11:35,11:35 AM,,,,0,0.0,0,27.065,27.06,27.061,4201,113684.06,28,,,27.06,27.065,,,wu,20191120
2019-11-20,11:36,11:36 AM,27.075,27.065,27.071,241,6524.07,4,27.08,27.065,27.072,3514,95129.32,26,27.065,27.075,27.065,27.08,,,wu,20191120
2019-11-20,11:37,11:37 AM,27.09,27.085,27.088,145,3927.825,2,27.09,27.075,27.084,4041,109445.53,28,27.085,27.09,27.075,27.08,,,wu,20191120
2019-11-20,11:38,11:38 AM,,,,0,0.0,0,27.1,27.09,27.097,6083,164831.87,39,,,27.09,27.095,,,wu,20191120
2019-11-20,11:39,11:39 AM,,,,0,0.0,0,27.1,27.09,27.099,2900,78586.5,17,,,27.1,27.1,,,wu,20191120
2019-11-20,11:40,11:40 AM,,,,0,0.0,0,27.1,27.09,27.099,3300,89427.0,16,,,27.1,27.1,,,wu,20191120
2019-11-20,11:41,11:41 AM,27.09,27.065,27.077,900,24369.0,9,27.095,27.06,27.082,37518,1016049.2486,149,27.09,27.065,27.095,27.07,,,wu,20191120
2019-11-20,11:42,11:42 AM,,,,0,0.0,0,27.08,27.07,27.077,1000,27077.0,10,,,27.075,27.08,,,wu,20191120
2019-11-20,11:43,11:43 AM,,,,0,0.0,0,27.09,27.08,27.082,3390,91809.7,20,,,27.08,27.09,,,wu,20191120
2019-11-20,11:44,11:44 AM,27.09,27.09,27.09,100,2709.0,1,27.09,27.08,27.088,900,24379.0,7,27.09,27.09,27.09,27.08,,,wu,20191120
2019-11-20,11:45,11:45 AM,27.09,27.09,27.09,200,5418.0,1,27.1,27.08,27.09,13115,355285.4558,43,27.09,27.09,27.09,27.083,,,wu,20191120
2019-11-20,11:46,11:46 AM,27.075,27.075,27.075,100,2707.5,1,27.09,27.07,27.078,5776,156403.205,37,27.075,27.075,27.08,27.075,,,wu,20191120
2019-11-20,11:47,11:47 AM,,,,0,0.0,0,27.075,27.07,27.072,900,24365.0,9,,,27.07,27.075,,,wu,20191120
2019-11-20,11:48,11:48 AM,27.08,27.08,27.08,93,2518.44,3,27.09,27.07,27.081,10784,292046.22,60,27.08,27.08,27.07,27.09,,,wu,20191120
2019-11-20,11:49,11:49 AM,27.09,27.09,27.09,299,8099.91,3,27.09,27.08,27.084,2889,78246.1201,12,27.09,27.09,27.082,27.09,,,wu,20191120
2019-11-20,11:50,11:50 AM,27.085,27.085,27.085,200,5417.0,1,27.085,27.08,27.08,8306,224928.53,52,27.085,27.085,27.08,27.08,,,wu,20191120
2019-11-20,11:51,11:51 AM,27.085,27.085,27.085,27,731.295,1,27.09,27.08,27.082,5000,135408.57,23,27.085,27.085,27.08,27.085,,,wu,20191120
2019-11-20,11:52,11:52 AM,27.08,27.08,27.08,100,2708.0,1,27.09,27.07,27.081,4658,126141.64,33,27.08,27.08,27.08,27.07,,,wu,20191120
2019-11-20,11:53,11:53 AM,,,,0,0.0,0,27.08,27.075,27.079,2880,77987.4,22,,,27.075,27.08,,,wu,20191120
2019-11-20,11:54,11:54 AM,27.08,27.08,27.08,1,27.08,1,27.09,27.08,27.081,5352,144939.16,27,27.08,27.08,27.08,27.08,,,wu,20191120
2019-11-20,11:55,11:55 AM,,,,0,0.0,0,27.09,27.08,27.084,1456,39434.98,10,,,27.09,27.08,,,wu,20191120
2019-11-20,11:56,11:56 AM,,,,0,0.0,0,27.09,27.08,27.089,1300,35215.5,11,,,27.09,27.09,,,wu,20191120
2019-11-20,11:57,11:57 AM,27.09,27.09,27.09,1,27.09,1,27.1,27.09,27.094,4573,123901.57,21,27.09,27.09,27.09,27.1,,,wu,20191120
2019-11-20,11:58,11:58 AM,27.095,27.09,27.093,621,16824.89,7,27.1,27.09,27.091,80290,2175133.8,179,27.09,27.095,27.1,27.095,,,wu,20191120
2019-11-20,11:59,11:59 AM,,,,0,0.0,0,27.095,27.09,27.09,26900,728734.0,23,,,27.09,27.095,,,wu,20191120
2019-11-20,12:00,12 PM,27.095,27.09,27.095,221,5987.89,3,27.095,27.09,27.091,36120,978542.8,74,27.095,27.09,27.09,27.095,,,wu,20191120
2019-11-20,12:01,12:01 PM,27.09,27.075,27.083,600,16250.0,5,27.1,27.07,27.085,21781,589930.0,122,27.09,27.075,27.1,27.07,,,wu,20191120
2019-11-20,12:02,12:02 PM,27.07,27.045,27.058,200,5411.5,2,27.07,27.04,27.058,13744,371882.24,66,27.07,27.045,27.07,27.04,,,wu,20191120
2019-11-20,12:03,12:03 PM,27.045,27.035,27.038,721,19494.34,7,27.05,27.03,27.036,14874,402131.01,85,27.045,27.035,27.045,27.03,,,wu,20191120
2019-11-20,12:04,12:04 PM,27.03,27.0,27.01,462,12478.735,7,27.03,26.99,27.016,44622,1205522.63,217,27.03,27.0,27.03,26.99,,,wu,20191120
2019-11-20,12:05,12:05 PM,,,,0,0.0,0,27.0,26.998,27.0,10685,288493.647,42,,,26.998,27.0,,,wu,20191120
2019-11-20,12:06,12:06 PM,,,,0,0.0,0,26.99,26.98,26.989,6176,166686.4,30,,,26.99,26.98,,,wu,20191120
2019-11-20,12:07,12:07 PM,26.98,26.98,26.98,100,2698.0,2,26.985,26.98,26.982,978,26387.94,7,26.98,26.98,26.985,26.98,,,wu,20191120
2019-11-20,12:08,12:08 PM,26.99,26.99,26.99,1,26.99,1,26.99,26.987,26.99,2546,68716.24,15,26.99,26.99,26.99,26.99,,,wu,20191120
2019-11-20,12:09,12:09 PM,,,,0,0.0,0,26.995,26.99,26.992,2198,59328.02,14,,,26.995,26.99,,,wu,20191120
2019-11-20,12:10,12:10 PM,,,,0,0.0,0,26.99,26.99,26.99,200,5398.0,1,,,26.99,26.99,,,wu,20191120
2019-11-20,12:11,12:11 PM,,,,0,0.0,0,27.0,26.99,26.998,1100,29697.5,11,,,26.995,27.0,,,wu,20191120
2019-11-20,12:12,12:12 PM,,,,0,0.0,0,27.0,26.99,26.995,1772,47835.27,17,,,26.995,26.995,,,wu,20191120
2019-11-20,12:13,12:13 PM,,,,0,0.0,0,26.995,26.99,26.991,2000,53983.0,17,,,26.99,26.99,,,wu,20191120
2019-11-20,12:14,12:14 PM,27.0,26.99,26.994,786,21217.15,11,27.005,26.985,26.995,18647,503378.15,94,27.0,26.99,27.0,27.0,,,wu,20191120
2019-11-20,12:15,12:15 PM,,,,0,0.0,0,27.01,26.99,27.0,19629,529987.25,77,,,26.995,27.0,,,wu,20191120
2019-11-20,12:16,12:16 PM,,,,0,0.0,0,26.995,26.99,26.99,1200,32388.5,8,,,26.99,26.99,,,wu,20191120
2019-11-20,12:17,12:17 PM,,,,0,0.0,0,27.0,26.995,26.997,300,8099.0,3,,,26.995,27.0,,,wu,20191120
2019-11-20,12:18,12:18 PM,,,,0,0.0,0,26.995,26.99,26.992,1102,29744.79,11,,,26.995,26.99,,,wu,20191120
2019-11-20,12:19,12:19 PM,26.99,26.99,26.99,201,5424.99,2,27.0,26.99,26.992,4101,110693.49,25,26.99,26.99,26.99,26.995,,,wu,20191120
2019-11-20,12:20,12:20 PM,26.99,26.99,26.99,2,53.98,1,27.0,26.99,26.997,2884,77859.0,27,26.99,26.99,26.99,26.99,,,wu,20191120
2019-11-20,12:21,12:21 PM,26.99,26.99,26.99,201,5424.99,3,27.0,26.99,26.996,1300,35095.0,8,26.99,26.99,27.0,26.99,,,wu,20191120
2019-11-20,12:22,12:22 PM,,,,0,0.0,0,26.997,26.99,26.994,650,17545.8,4,,,26.995,26.997,,,wu,20191120
2019-11-20,12:23,12:23 PM,26.99,26.99,26.99,87,2348.13,1,27.0,26.99,26.994,900,24295.0,9,26.99,26.99,26.99,26.99,,,wu,20191120
2019-11-20,12:24,12:24 PM,,,,0,0.0,0,27.0,26.99,26.999,5750,155243.3,39,,,26.995,26.995,,,wu,20191120
2019-11-20,12:25,12:25 PM,,,,0,0.0,0,27.0,26.99,26.997,3311,89387.445,25,,,27.0,26.995,,,wu,20191120
2019-11-20,12:26,12:26 PM,27.0,26.985,26.996,691,18654.505,10,27.005,26.98,26.998,49915,1347611.945,183,27.0,26.985,26.995,26.985,,,wu,20191120
2019-11-20,12:27,12:27 PM,26.995,26.99,26.994,400,10797.5,4,27.005,26.985,26.994,17513,472751.57,82,26.99,26.995,26.99,26.995,,,wu,20191120
2019-11-20,12:28,12:28 PM,26.99,26.99,26.99,2,53.98,1,26.995,26.99,26.992,1100,29691.0,9,26.99,26.99,26.99,26.995,,,wu,20191120
2019-11-20,12:29,12:29 PM,,,,0,0.0,0,26.995,26.99,26.992,400,10797.0,4,,,26.995,26.99,,,wu,20191120
2019-11-20,12:30,12:30 PM,26.985,26.985,26.985,98,2644.53,1,26.995,26.98,26.99,4307,116245.43,22,26.985,26.985,26.99,26.99,,,wu,20191120
2019-11-20,12:31,12:31 PM,26.99,26.99,26.99,10,269.9,1,26.99,26.99,26.99,3200,86368.0,17,26.99,26.99,26.99,26.99,,,wu,20191120
2019-11-20,12:32,12:32 PM,26.99,26.99,26.99,1,26.99,1,,,,0,0.0,0,26.99,26.99,,,,,wu,20191120
2019-11-20,12:33,12:33 PM,26.99,26.99,26.99,401,10822.99,5,26.997,26.99,26.99,6319,170552.8056,36,26.99,26.99,26.99,26.995,,,wu,20191120
2019-11-20,12:34,12:34 PM,26.99,26.99,26.99,162,4372.38,2,26.995,26.99,26.992,1622,43781.39,10,26.99,26.99,26.995,26.99,,,wu,20191120
2019-11-20,12:35,12:35 PM,,,,0,0.0,0,27.0,26.99,26.991,1600,43186.0,11,,,26.99,26.99,,,wu,20191120
2019-11-20,12:36,12:36 PM,26.995,26.995,26.995,300,8098.5,3,27.0,26.99,26.997,4803,129666.5,46,26.995,26.995,27.0,26.995,,,wu,20191120
2019-11-20,12:37,12:37 PM,,,,0,0.0,0,27.0,26.99,26.993,1500,40489.0,12,,,26.99,26.995,,,wu,20191120
2019-11-20,12:38,12:38 PM,,,,0,0.0,0,27.0,26.99,26.992,1500,40488.0,8,,,26.995,27.0,,,wu,20191120
2019-11-20,12:39,12:39 PM,27.0,27.0,27.0,100,2700.0,1,27.01,26.995,27.0,14658,395768.6904,64,27.0,27.0,26.995,27.01,,,wu,20191120
2019-11-20,12:40,12:40 PM,27.015,27.01,27.015,102,2755.52,2,27.015,27.01,27.011,9620,259844.815,43,27.01,27.015,27.01,27.015,,,wu,20191120
2019-11-20,12:41,12:41 PM,,,,0,0.0,0,27.015,27.01,27.014,1800,48626.0,9,,,27.015,27.01,,,wu,20191120
2019-11-20,12:42,12:42 PM,,,,0,0.0,0,27.016,27.01,27.012,5389,145569.287,27,,,27.015,27.015,,,wu,20191120
2019-11-20,12:43,12:43 PM,,,,0,0.0,0,27.015,27.01,27.014,1500,40521.5,8,,,27.015,27.015,,,wu,20191120
2019-11-20,12:44,12:44 PM,,,,0,0.0,0,27.015,27.01,27.014,2800,75640.44,12,,,27.01,27.015,,,wu,20191120
2019-11-20,12:45,12:45 PM,,,,0,0.0,0,27.015,27.01,27.014,2900,78342.0,17,,,27.015,27.015,,,wu,20191120
2019-11-20,12:46,12:46 PM,27.01,27.0,27.001,221,5967.21,3,27.015,26.995,27.004,35384,955502.615,139,27.01,27.0,27.01,27.0,,,wu,20191120
2019-11-20,12:47,12:47 PM,,,,0,0.0,0,27.0,26.995,27.0,12370,333989.0,43,,,26.995,27.0,,,wu,20191120
2019-11-20,12:48,12:48 PM,,,,0,0.0,0,27.0,26.995,26.999,1038,28025.0,9,,,26.995,27.0,,,wu,20191120
2019-11-20,12:49,12:49 PM,26.99,26.95,26.977,1172,31616.78,6,27.0,26.945,26.967,104183,2809480.94,351,26.99,26.955,26.993,26.95,,,wu,20191120
2019-11-20,12:50,12:50 PM,,,,0,0.0,0,26.96,26.95,26.954,3420,92183.415,13,,,26.95,26.96,,,wu,20191120
2019-11-20,12:51,12:51 PM,,,,0,0.0,0,26.955,26.95,26.951,2999,80827.55,24,,,26.95,26.95,,,wu,20191120
2019-11-20,12:52,12:52 PM,,,,0,0.0,0,26.96,26.93,26.945,31650,852823.402,125,,,26.95,26.955,,,wu,20191120
2019-11-20,12:53,12:53 PM,26.96,26.96,26.96,352,9489.92,4,26.965,26.95,26.959,9281,250207.83,66,26.96,26.96,26.96,26.96,,,wu,20191120
2019-11-20,12:54,12:54 PM,26.96,26.96,26.96,101,2722.96,2,26.965,26.96,26.961,764,20598.26,7,26.96,26.96,26.96,26.96,,,wu,20191120
2019-11-20,12:55,12:55 PM,26.96,26.915,26.929,908,24451.68,9,26.96,26.89,26.928,77026,2074144.51,456,26.96,26.92,26.96,26.95,,,wu,20191120
2019-11-20,12:56,12:56 PM,26.94,26.94,26.94,200,5388.0,1,26.94,26.91,26.925,12915,347737.885,91,26.94,26.94,26.94,26.92,,,wu,20191120
2019-11-20,12:57,12:57 PM,,,,0,0.0,0,26.93,26.92,26.924,3200,86157.0,25,,,26.92,26.925,,,wu,20191120
2019-11-20,12:58,12:58 PM,26.92,26.91,26.914,371,9985.12,4,26.93,26.895,26.913,29425,791926.85,151,26.92,26.91,26.93,26.9,,,wu,20191120
2019-11-20,12:59,12:59 PM,26.915,26.905,26.905,5558,149538.23,36,26.92,26.9,26.906,20781,559143.29,109,26.905,26.91,26.9,26.905,,,wu,20191120
2019-11-20,13:00,1 PM,26.91,26.905,26.906,800,21524.5,4,26.92,26.9,26.909,9601,258355.055,64,26.91,26.905,26.91,26.9,,,wu,20191120
2019-11-20,13:01,1:01 PM,26.905,26.895,26.901,103,2770.81,13,26.91,26.89,26.905,18531,498569.22,106,26.905,26.895,26.91,26.89,,,wu,20191120
2019-11-20,13:02,1:02 PM,26.895,26.885,26.886,1343,36107.935,14,26.9,26.88,26.889,15717,422609.645,99,26.895,26.895,26.89,26.885,,,wu,20191120
2019-11-20,13:03,1:03 PM,26.905,26.89,26.895,97,2608.805,15,26.905,26.89,26.897,14422,387909.78,87,26.895,26.905,26.89,26.905,,,wu,20191120
2019-11-20,13:04,1:04 PM,26.905,26.905,26.905,7,188.335,6,26.906,26.9,26.901,2900,78011.78,26,26.905,26.905,26.9,26.9,,,wu,20191120
2019-11-20,13:05,1:05 PM,26.895,26.89,26.895,503,13527.955,7,26.9,26.88,26.898,17658,474963.26,98,26.895,26.89,26.9,26.88,,,wu,20191120
2019-11-20,13:06,1:06 PM,,,,0,0.0,0,26.885,26.88,26.88,2800,75264.5,28,,,26.88,26.88,,,wu,20191120
2019-11-20,13:07,1:07 PM,26.86,26.86,26.86,8,214.88,2,26.88,26.86,26.865,9009,242025.22,73,26.86,26.86,26.88,26.86,,,wu,20191120
2019-11-20,13:08,1:08 PM,26.855,26.855,26.855,4,107.42,1,26.865,26.85,26.854,10888,292386.91,59,26.855,26.855,26.86,26.85,,,wu,20191120
2019-11-20,13:09,1:09 PM,26.86,26.86,26.86,32,859.52,1,26.88,26.85,26.862,16504,443337.99,75,26.86,26.86,26.85,26.875,,,wu,20191120
2019-11-20,13:10,1:10 PM,26.86,26.855,26.858,200,5371.5,2,26.87,26.855,26.865,3872,104020.64,31,26.86,26.855,26.87,26.855,,,wu,20191120
2019-11-20,13:11,1:11 PM,26.855,26.85,26.851,495,13291.25,2,26.86,26.84,26.849,14840,398443.02,58,26.855,26.85,26.85,26.84,,,wu,20191120
2019-11-20,13:12,1:12 PM,26.84,26.835,26.835,201,5393.84,3,26.85,26.83,26.843,8200,220111.5,67,26.84,26.835,26.84,26.85,,,wu,20191120
2019-11-20,13:13,1:13 PM,26.85,26.845,26.849,650,17452.0,3,26.86,26.84,26.85,8125,218158.78,46,26.85,26.845,26.85,26.84,,,wu,20191120
2019-11-20,13:14,1:14 PM,26.84,26.84,26.84,100,2684.0,1,26.85,26.84,26.843,3100,83213.52,26,26.84,26.84,26.85,26.84,,,wu,20191120
2019-11-20,13:15,1:15 PM,26.84,26.825,26.831,266,7137.175,8,26.84,26.82,26.835,17201,461592.16,70,26.84,26.825,26.84,26.82,,,wu,20191120
2019-11-20,13:16,1:16 PM,,,,0,0.0,0,26.825,26.81,26.819,3288,88179.66,20,,,26.825,26.81,,,wu,20191120
2019-11-20,13:17,1:17 PM,26.825,26.815,26.817,431,11557.935,7,26.825,26.81,26.818,20070,538230.12,99,26.82,26.815,26.81,26.82,,,wu,20191120
2019-11-20,13:18,1:18 PM,,,,0,0.0,0,26.83,26.81,26.821,7115,190834.52,44,,,26.82,26.82,,,wu,20191120
2019-11-20,13:19,1:19 PM,,,,0,0.0,0,26.825,26.82,26.82,2299,61659.68,17,,,26.82,26.82,,,wu,20191120
2019-11-20,13:20,1:20 PM,26.825,26.82,26.825,2924,78436.165,2,26.83,26.82,26.824,6197,166228.615,30,26.82,26.825,26.82,26.825,,,wu,20191120
2019-11-20,13:21,1:21 PM,26.84,26.835,26.838,10,268.385,3,26.85,26.825,26.84,17614,472759.445,86,26.835,26.84,26.83,26.84,,,wu,20191120
2019-11-20,13:22,1:22 PM,26.85,26.85,26.85,100,2685.0,1,26.85,26.84,26.848,6150,165115.5,32,26.85,26.85,26.845,26.84,,,wu,20191120
2019-11-20,13:23,1:23 PM,26.845,26.845,26.845,600,16107.0,6,26.85,26.84,26.845,2800,75166.0,27,26.845,26.845,26.845,26.845,,,wu,20191120
2019-11-20,13:24,1:24 PM,26.84,26.835,26.839,518,13902.62,2,26.84,26.83,26.838,7500,201289.1214,36,26.84,26.835,26.84,26.83,,,wu,20191120
2019-11-20,13:25,1:25 PM,26.835,26.835,26.835,2100,56353.5,15,26.84,26.83,26.837,21453,575738.555,136,26.835,26.835,26.83,26.835,,,wu,20191120
2019-11-20,13:26,1:26 PM,26.86,26.835,26.836,4607,123631.75,29,26.87,26.83,26.841,49868,1338524.69,315,26.835,26.86,26.84,26.87,,,wu,20191120
2019-11-20,13:27,1:27 PM,26.865,26.865,26.865,1000,26865.0,8,26.87,26.86,26.866,4182,112354.34,32,26.865,26.865,26.87,26.865,,,wu,20191120
2019-11-20,13:28,1:28 PM,26.86,26.85,26.857,1402,37652.815,5,26.867,26.835,26.852,19587,525947.805,79,26.86,26.85,26.867,26.835,,,wu,20191120
2019-11-20,13:29,1:29 PM,,,,0,0.0,0,26.835,26.83,26.831,3038,81513.54,18,,,26.835,26.83,,,wu,20191120
2019-11-20,13:30,1:30 PM,26.835,26.83,26.834,524,14060.92,5,26.84,26.82,26.833,6038,162019.63,41,26.835,26.83,26.835,26.82,,,wu,20191120
2019-11-20,13:31,1:31 PM,26.825,26.825,26.825,700,18777.5,4,26.83,26.82,26.827,2928,78548.74,21,26.825,26.825,26.82,26.825,,,wu,20191120
2019-11-20,13:32,1:32 PM,26.82,26.815,26.815,532,14265.74,6,26.82,26.814,26.819,4919,131920.382,34,26.82,26.815,26.82,26.815,,,wu,20191120
2019-11-20,13:33,1:33 PM,,,,0,0.0,0,26.815,26.815,26.815,100,2681.5,1,,,26.815,26.815,,,wu,20191120
2019-11-20,13:34,1:34 PM,26.82,26.815,26.816,1002,26869.64,12,26.82,26.8,26.815,24947,668945.54,127,26.815,26.82,26.81,26.81,,,wu,20191120
2019-11-20,13:35,1:35 PM,26.815,26.815,26.815,1200,32178.0,10,26.82,26.81,26.816,6678,179077.015,58,26.815,26.815,26.815,26.815,,,wu,20191120
2019-11-20,13:36,1:36 PM,,,,0,0.0,0,26.82,26.81,26.814,1605,43035.94,14,,,26.815,26.815,,,wu,20191120
2019-11-20,13:37,1:37 PM,26.815,26.815,26.815,200,5363.0,1,26.82,26.81,26.814,2265,60734.475,11,26.815,26.815,26.81,26.815,,,wu,20191120
2019-11-20,13:38,1:38 PM,26.815,26.815,26.815,500,13407.5,4,26.82,26.81,26.812,7754,207903.84,53,26.815,26.815,26.82,26.81,,,wu,20191120
2019-11-20,13:39,1:39 PM,26.81,26.81,26.81,100,2681.0,1,26.82,26.8,26.814,17067,457629.338,59,26.81,26.81,26.81,26.8,,,wu,20191120
2019-11-20,13:40,1:40 PM,26.805,26.805,26.805,590,15814.95,6,26.81,26.8,26.806,8755,234686.815,50,26.805,26.805,26.805,26.805,,,wu,20191120
2019-11-20,13:41,1:41 PM,26.805,26.805,26.805,300,8041.5,3,26.81,26.8,26.806,2603,69776.43,24,26.805,26.805,26.805,26.8,,,wu,20191120
2019-11-20,13:42,1:42 PM,26.815,26.805,26.806,1602,42944.12,8,26.815,26.8,26.808,44024,1180207.77,153,26.81,26.805,26.805,26.805,,,wu,20191120
2019-11-20,13:43,1:43 PM,26.82,26.81,26.81,607,16273.74,2,26.83,26.805,26.815,8429,226026.75,40,26.81,26.82,26.805,26.83,,,wu,20191120
2019-11-20,13:44,1:44 PM,26.84,26.83,26.834,2033,54553.26,6,26.84,26.83,26.835,11218,301034.01,50,26.835,26.83,26.835,26.84,,,wu,20191120
2019-11-20,13:45,1:45 PM,26.855,26.855,26.855,3,80.565,2,26.87,26.85,26.857,5123,137588.28,29,26.855,26.855,26.85,26.87,,,wu,20191120
2019-11-20,13:46,1:46 PM,,,,0,0.0,0,26.885,26.865,26.873,2615,70273.125,21,,,26.865,26.88,,,wu,20191120
2019-11-20,13:47,1:47 PM,26.895,26.89,26.89,30,806.715,7,26.9,26.88,26.891,8932,240187.0076,63,26.89,26.89,26.88,26.88,,,wu,20191120
2019-11-20,13:48,1:48 PM,26.875,26.875,26.875,406,10911.25,7,26.885,26.87,26.878,8596,231047.48,46,26.875,26.875,26.88,26.87,,,wu,20191120
2019-11-20,13:49,1:49 PM,26.875,26.87,26.872,200,5374.5,2,26.88,26.87,26.875,2434,65413.115,23,26.87,26.875,26.873,26.875,,,wu,20191120
2019-11-20,13:50,1:50 PM,26.875,26.875,26.875,300,8062.5,3,26.88,26.87,26.872,6332,170153.52,36,26.875,26.875,26.875,26.87,,,wu,20191120
2019-11-20,13:51,1:51 PM,26.85,26.845,26.849,400,10739.5,4,26.87,26.84,26.861,16193,434967.145,56,26.85,26.845,26.87,26.84,,,wu,20191120
2019-11-20,13:52,1:52 PM,26.88,26.85,26.86,599,16089.195,11,26.89,26.84,26.862,44729,1201505.495,256,26.85,26.865,26.845,26.86,,,wu,20191120
2019-11-20,13:53,1:53 PM,26.875,26.855,26.871,1535,41246.675,14,26.88,26.85,26.865,37984,1020433.94,161,26.865,26.875,26.86,26.875,,,wu,20191120
2019-11-20,13:54,1:54 PM,26.875,26.87,26.872,200,5374.5,3,26.88,26.86,26.872,4231,113693.635,31,26.875,26.87,26.875,26.86,,,wu,20191120
2019-11-20,13:55,1:55 PM,,,,0,0.0,0,26.87,26.85,26.861,5257,141210.81,31,,,26.86,26.85,,,wu,20191120
2019-11-20,13:56,1:56 PM,26.84,26.84,26.84,101,2710.84,2,26.855,26.84,26.847,6528,175258.8148,28,26.84,26.84,26.85,26.845,,,wu,20191120
2019-11-20,13:57,1:57 PM,26.84,26.835,26.835,101,2710.34,2,26.85,26.83,26.839,29498,791703.32,106,26.835,26.84,26.845,26.835,,,wu,20191120
2019-11-20,13:58,1:58 PM,26.855,26.84,26.841,215,5770.735,4,26.85,26.835,26.842,18248,489821.35,121,26.845,26.84,26.845,26.835,,,wu,20191120
2019-11-20,13:59,1:59 PM,26.84,26.835,26.837,400,10735.0,2,26.84,26.83,26.837,10484,281360.505,78,26.84,26.835,26.835,26.84,,,wu,20191120
2019-11-20,14:00,2 PM,26.83,26.83,26.83,100,2683.0,1,26.835,26.83,26.83,8241,221107.03,27,26.83,26.83,26.83,26.83,,,wu,20191120
2019-11-20,14:01,2:01 PM,26.835,26.835,26.835,1,26.835,1,26.84,26.83,26.837,1200,32205.0,11,26.835,26.835,26.84,26.83,,,wu,20191120
2019-11-20,14:02,2:02 PM,26.835,26.835,26.835,102,2737.17,4,26.84,26.83,26.835,1700,45619.5,13,26.835,26.835,26.835,26.835,,,wu,20191120
2019-11-20,14:03,2:03 PM,26.84,26.835,26.835,104,2790.85,5,26.84,26.83,26.838,1600,42941.0,15,26.835,26.84,26.83,26.84,,,wu,20191120
2019-11-20,14:04,2:04 PM,26.86,26.855,26.856,412,11064.76,12,26.86,26.83,26.849,8679,233020.98,57,26.855,26.855,26.84,26.85,,,wu,20191120
2019-11-20,14:05,2:05 PM,26.86,26.855,26.857,201,5398.355,3,26.86,26.85,26.853,2200,59076.0,18,26.855,26.86,26.85,26.86,,,wu,20191120
2019-11-20,14:06,2:06 PM,26.855,26.855,26.855,117,3142.035,4,26.86,26.85,26.852,11753,315596.55,60,26.855,26.855,26.86,26.855,,,wu,20191120
2019-11-20,14:07,2:07 PM,26.855,26.845,26.85,491,13183.26,11,26.86,26.84,26.847,26604,714246.19,145,26.855,26.855,26.85,26.855,,,wu,20191120
2019-11-20,14:08,2:08 PM,26.855,26.855,26.855,122,3276.31,7,26.86,26.85,26.852,9416,252839.85,59,26.855,26.855,26.855,26.85,,,wu,20191120
2019-11-20,14:09,2:09 PM,26.855,26.855,26.855,1,26.855,1,26.86,26.85,26.855,2800,75194.7,25,26.855,26.855,26.852,26.85,,,wu,20191120
2019-11-20,14:10,2:10 PM,26.855,26.855,26.855,102,2739.21,2,26.86,26.85,26.854,3725,100030.25,27,26.855,26.855,26.86,26.855,,,wu,20191120
2019-11-20,14:11,2:11 PM,26.885,26.86,26.863,806,21651.285,7,26.885,26.85,26.868,23258,624904.5116,125,26.86,26.88,26.86,26.875,,,wu,20191120
2019-11-20,14:12,2:12 PM,26.885,26.875,26.883,26,698.95,2,26.89,26.875,26.88,3326,89403.88,21,26.875,26.885,26.875,26.88,,,wu,20191120
2019-11-20,14:13,2:13 PM,26.89,26.89,26.89,200,5378.0,2,26.9,26.88,26.893,3633,97700.87,24,26.89,26.89,26.885,26.89,,,wu,20191120
2019-11-20,14:14,2:14 PM,26.895,26.89,26.89,479,12880.5,9,26.9,26.89,26.891,15328,412184.92,61,26.895,26.895,26.895,26.895,,,wu,20191120
2019-11-20,14:15,2:15 PM,26.895,26.895,26.895,2,53.79,2,26.9,26.89,26.893,1797,48327.33,17,26.895,26.895,26.9,26.895,,,wu,20191120
2019-11-20,14:16,2:16 PM,26.905,26.895,26.898,17,457.26,8,26.905,26.89,26.898,11140,299650.0,49,26.895,26.895,26.9,26.89,,,wu,20191120
2019-11-20,14:17,2:17 PM,26.905,26.895,26.895,150,4034.29,4,26.91,26.89,26.901,4284,115246.1,23,26.895,26.905,26.89,26.91,,,wu,20191120
2019-11-20,14:18,2:18 PM,26.915,26.915,26.915,1,26.915,1,26.93,26.91,26.918,3300,88829.5,22,26.915,26.915,26.91,26.93,,,wu,20191120
2019-11-20,14:19,2:19 PM,26.935,26.935,26.935,1,26.935,1,26.93,26.93,26.93,1100,29623.0,11,26.935,26.935,26.93,26.93,,,wu,20191120
2019-11-20,14:20,2:20 PM,26.945,26.945,26.945,108,2910.06,3,26.95,26.94,26.942,4019,108279.86,32,26.945,26.945,26.94,26.95,,,wu,20191120
2019-11-20,14:21,2:21 PM,26.955,26.955,26.955,52,1401.66,5,26.96,26.95,26.953,4799,129349.04,36,26.955,26.955,26.95,26.96,,,wu,20191120
2019-11-20,14:22,2:22 PM,26.975,26.955,26.959,216,5823.09,4,26.98,26.95,26.965,20027,540039.35,100,26.955,26.975,26.955,26.98,,,wu,20191120
2019-11-20,14:23,2:23 PM,26.985,26.965,26.977,736,19854.87,10,26.99,26.96,26.974,27910,752832.74,129,26.985,26.965,26.98,26.96,,,wu,20191120
2019-11-20,14:24,2:24 PM,26.975,26.975,26.975,21,566.475,3,26.98,26.95,26.962,8233,221979.99,43,26.975,26.975,26.96,26.97,,,wu,20191120
2019-11-20,14:25,2:25 PM,26.995,26.97,26.975,210,5664.83,7,26.995,26.97,26.978,8987,242453.611,55,26.97,26.995,26.97,26.99,,,wu,20191120
2019-11-20,14:26,2:26 PM,26.995,26.995,26.995,1,26.995,1,27.0,26.99,26.998,3500,94492.5,33,26.995,26.995,26.99,27.0,,,wu,20191120
2019-11-20,14:27,2:27 PM,26.995,26.99,26.992,205,5533.475,4,27.0,26.99,26.995,2715,73292.2071,18,26.995,26.995,26.997,26.995,,,wu,20191120
2019-11-20,14:28,2:28 PM,26.995,26.995,26.995,1504,40600.48,4,27.0,26.99,26.995,18000,485914.0,43,26.995,26.995,27.0,26.995,,,wu,20191120
2019-11-20,14:29,2:29 PM,26.995,26.995,26.995,20,539.9,3,27.0,26.99,26.996,4407,118970.145,31,26.995,26.995,27.0,26.995,,,wu,20191120
2019-11-20,14:30,2:30 PM,26.995,26.985,26.986,13,350.825,3,27.0,26.98,26.99,12528,338131.72,56,26.995,26.985,26.995,26.985,,,wu,20191120
2019-11-20,14:31,2:31 PM,27.015,26.985,27.0,450,12149.835,11,27.015,26.985,27.002,17078,461134.83,105,26.985,27.015,26.985,27.015,,,wu,20191120
2019-11-20,14:32,2:32 PM,27.015,27.015,27.015,6,162.09,3,27.015,27.01,27.014,5705,154114.575,20,27.015,27.015,27.015,27.015,,,wu,20191120
2019-11-20,14:33,2:33 PM,27.015,27.005,27.014,795,21476.24,11,27.02,27.005,27.011,19053,514637.7481,81,27.015,27.005,27.01,27.005,,,wu,20191120
2019-11-20,14:34,2:34 PM,27.005,27.0,27.0,1005,27135.005,17,27.005,27.0,27.001,11347,306378.5,60,27.0,27.0,27.005,27.0,,,wu,20191120
2019-11-20,14:35,2:35 PM,27.015,26.995,27.014,385,10400.385,8,27.02,26.985,27.0,41124,1110350.665,181,26.995,27.015,27.0,27.015,,,wu,20191120
2019-11-20,14:36,2:36 PM,27.01,26.975,26.998,716,19330.905,6,27.02,26.97,26.994,25198,680194.55,122,27.01,26.975,27.01,26.98,,,wu,20191120
2019-11-20,14:37,2:37 PM,,,,0,0.0,0,27.0,26.98,26.987,5688,153501.12,23,,,26.98,26.99,,,wu,20191120
2019-11-20,14:38,2:38 PM,,,,0,0.0,0,27.0,26.99,26.995,200,5399.0,2,,,27.0,26.99,,,wu,20191120
2019-11-20,14:39,2:39 PM,,,,0,0.0,0,27.005,26.99,26.997,18096,488543.3746,102,,,26.995,26.99,,,wu,20191120
2019-11-20,14:40,2:40 PM,26.975,26.975,26.975,100,2697.5,1,26.99,26.97,26.98,5749,155105.94,38,26.975,26.975,26.99,26.97,,,wu,20191120
2019-11-20,14:41,2:41 PM,26.975,26.96,26.974,103,2778.38,2,26.975,26.96,26.97,11609,313100.22,66,26.975,26.96,26.975,26.965,,,wu,20191120
2019-11-20,14:42,2:42 PM,26.95,26.94,26.946,7,188.62,2,26.96,26.92,26.943,18711,504136.424,90,26.95,26.94,26.96,26.925,,,wu,20191120
2019-11-20,14:43,2:43 PM,26.92,26.92,26.92,10,269.2,1,26.925,26.92,26.922,2700,72688.5,20,26.92,26.92,26.92,26.925,,,wu,20191120
2019-11-20,14:44,2:44 PM,26.925,26.91,26.913,42,1130.355,2,26.93,26.905,26.919,26205,705408.19,121,26.91,26.925,26.92,26.92,,,wu,20191120
2019-11-20,14:45,2:45 PM,26.925,26.915,26.918,201,5410.425,3,26.93,26.91,26.92,19760,531937.7,108,26.915,26.92,26.925,26.925,,,wu,20191120
2019-11-20,14:46,2:46 PM,26.915,26.91,26.915,201,5409.91,3,26.915,26.91,26.911,2300,61894.5,18,26.915,26.91,26.91,26.915,,,wu,20191120
2019-11-20,14:47,2:47 PM,26.915,26.9,26.911,406,10925.895,5,26.915,26.895,26.905,12450,334970.62,47,26.91,26.9,26.91,26.9,,,wu,20191120
2019-11-20,14:48,2:48 PM,26.895,26.895,26.895,202,5432.79,3,26.91,26.89,26.898,15991,430132.62,90,26.895,26.895,26.9,26.89,,,wu,20191120
2019-11-20,14:49,2:49 PM,26.91,26.905,26.905,208,5596.28,3,26.92,26.89,26.904,8807,236944.0,37,26.905,26.91,26.89,26.917,,,wu,20191120
2019-11-20,14:50,2:50 PM,26.935,26.92,26.931,302,8133.34,6,26.94,26.91,26.926,4676,125905.18,33,26.92,26.935,26.915,26.935,,,wu,20191120
2019-11-20,14:51,2:51 PM,26.935,26.92,26.922,192,5169.13,4,26.94,26.92,26.931,13004,350215.22,45,26.935,26.92,26.94,26.925,,,wu,20191120
2019-11-20,14:52,2:52 PM,26.915,26.905,26.91,183,4924.615,3,26.925,26.905,26.913,20039,539318.93,54,26.915,26.905,26.92,26.905,,,wu,20191120
2019-11-20,14:53,2:53 PM,26.925,26.91,26.915,210,5652.25,5,26.925,26.905,26.915,12391,333502.64,44,26.91,26.925,26.905,26.925,,,wu,20191120
2019-11-20,14:54,2:54 PM,,,,0,0.0,0,26.925,26.92,26.922,1736,46736.62,14,,,26.925,26.925,,,wu,20191120
2019-11-20,14:55,2:55 PM,26.925,26.915,26.915,952,25623.1,5,26.925,26.91,26.918,17043,458755.25,62,26.915,26.925,26.92,26.92,,,wu,20191120
2019-11-20,14:56,2:56 PM,26.925,26.925,26.925,738,19870.65,3,26.93,26.92,26.928,10438,281073.35,48,26.925,26.925,26.92,26.93,,,wu,20191120
2019-11-20,14:57,2:57 PM,26.925,26.925,26.925,200,5385.0,2,26.93,26.92,26.926,2718,73185.94,25,26.925,26.925,26.925,26.925,,,wu,20191120
2019-11-20,14:58,2:58 PM,26.935,26.935,26.935,353,9508.055,4,26.94,26.93,26.935,5114,137746.33,47,26.935,26.935,26.93,26.94,,,wu,20191120
2019-11-20,14:59,2:59 PM,26.945,26.945,26.945,162,4365.09,5,26.95,26.925,26.933,22138,596252.84,97,26.945,26.945,26.94,26.945,,,wu,20191120
2019-11-20,15:00,3 PM,,,,0,0.0,0,26.95,26.94,26.949,2700,72761.5,21,,,26.945,26.95,,,wu,20191120
2019-11-20,15:01,3:01 PM,,,,0,0.0,0,26.96,26.945,26.954,4100,110511.5,33,,,26.945,26.96,,,wu,20191120
2019-11-20,15:02,3:02 PM,,,,0,0.0,0,26.96,26.95,26.958,3799,102413.54,29,,,26.955,26.955,,,wu,20191120
2019-11-20,15:03,3:03 PM,26.965,26.945,26.956,1099,29624.165,16,26.965,26.94,26.953,36402,981137.69,178,26.965,26.945,26.96,26.95,,,wu,20191120
2019-11-20,15:04,3:04 PM,26.945,26.945,26.945,200,5389.0,2,26.95,26.94,26.945,2100,56585.5,13,26.945,26.945,26.95,26.95,,,wu,20191120
2019-11-20,15:05,3:05 PM,26.97,26.97,26.97,106,2858.82,2,26.975,26.95,26.959,7050,190063.4,41,26.97,26.97,26.95,26.97,,,wu,20191120
2019-11-20,15:06,3:06 PM,,,,0,0.0,0,26.98,26.97,26.979,4226,114012.98,35,,,26.98,26.975,,,wu,20191120
2019-11-20,15:07,3:07 PM,26.995,26.985,26.987,372,10039.07,8,27.0,26.98,26.988,10382,280195.46,56,26.985,26.995,26.98,26.99,,,wu,20191120
2019-11-20,15:08,3:08 PM,26.995,26.995,26.995,13,350.935,5,27.0,26.985,26.991,15330,413764.865,49,26.995,26.995,26.99,26.99,,,wu,20191120
2019-11-20,15:09,3:09 PM,26.985,26.985,26.985,1200,32382.0,4,26.99,26.98,26.985,3250,87703.0,20,26.985,26.985,26.985,26.98,,,wu,20191120
2019-11-20,15:10,3:10 PM,26.985,26.985,26.985,224,6044.64,6,26.99,26.98,26.988,4217,113806.8717,33,26.985,26.985,26.985,26.98,,,wu,20191120
2019-11-20,15:11,3:11 PM,26.995,26.985,26.994,471,12714.135,14,27.0,26.98,26.991,7131,192469.69,43,26.985,26.995,26.99,26.995,,,wu,20191120
2019-11-20,15:12,3:12 PM,27.005,26.995,27.0,225,6075.025,8,27.0,26.99,26.998,18408,496986.5,112,26.995,26.995,26.995,26.99,,,wu,20191120
2019-11-20,15:13,3:13 PM,26.995,26.995,26.995,3,80.985,3,27.0,26.99,26.993,3062,82651.88,19,26.995,26.995,26.99,26.99,,,wu,20191120
2019-11-20,15:14,3:14 PM,26.995,26.985,26.985,316,8527.42,7,27.0,26.98,26.99,14968,403981.82,80,26.995,26.995,26.99,27.0,,,wu,20191120
2019-11-20,15:15,3:15 PM,26.995,26.985,26.985,211,5693.865,7,26.99,26.98,26.988,10442,281805.58,59,26.995,26.985,26.99,26.985,,,wu,20191120
2019-11-20,15:16,3:16 PM,26.985,26.985,26.985,2,53.97,2,26.99,26.98,26.987,2600,70165.5,12,26.985,26.985,26.99,26.985,,,wu,20191120
2019-11-20,15:17,3:17 PM,26.985,26.985,26.985,102,2752.47,3,26.985,26.98,26.983,1406,37938.01,14,26.985,26.985,26.985,26.98,,,wu,20191120
2019-11-20,15:18,3:18 PM,26.985,26.975,26.979,50,1348.925,5,26.99,26.97,26.98,25599,690661.74,98,26.985,26.975,26.99,26.975,,,wu,20191120
2019-11-20,15:19,3:19 PM,26.975,26.965,26.973,175,4720.225,8,26.975,26.96,26.97,13330,359506.4,85,26.975,26.965,26.975,26.96,,,wu,20191120
2019-11-20,15:20,3:20 PM,26.975,26.965,26.965,410,11055.75,5,26.98,26.96,26.969,14960,403463.2,80,26.965,26.965,26.96,26.965,,,wu,20191120
2019-11-20,15:21,3:21 PM,26.965,26.965,26.965,109,2939.185,5,26.965,26.96,26.963,2013,54276.28,15,26.965,26.965,26.96,26.965,,,wu,20191120
2019-11-20,15:22,3:22 PM,26.965,26.965,26.965,1,26.965,1,26.97,26.96,26.965,1682,45354.54,16,26.965,26.965,26.96,26.965,,,wu,20191120
2019-11-20,15:23,3:23 PM,26.985,26.97,26.983,175,4722.045,6,26.985,26.965,26.974,10652,287324.86,67,26.97,26.985,26.97,26.985,,,wu,20191120
2019-11-20,15:24,3:24 PM,26.985,26.985,26.985,102,2752.47,3,26.99,26.98,26.984,2100,56666.0,17,26.985,26.985,26.99,26.985,,,wu,20191120
2019-11-20,15:25,3:25 PM,26.985,26.975,26.976,1160,31292.305,10,26.985,26.97,26.98,22499,607018.02,103,26.985,26.975,26.985,26.975,,,wu,20191120
2019-11-20,15:26,3:26 PM,26.985,26.985,26.985,232,6260.52,7,26.985,26.975,26.982,9075,244863.0,55,26.985,26.985,26.98,26.985,,,wu,20191120
2019-11-20,15:27,3:27 PM,26.985,26.985,26.985,202,5450.97,4,26.985,26.98,26.984,1700,45872.5,14,26.985,26.985,26.985,26.985,,,wu,20191120
2019-11-20,15:28,3:28 PM,26.985,26.975,26.977,986,26599.795,13,26.985,26.97,26.979,26940,726819.0622,123,26.98,26.975,26.98,26.98,,,wu,20191120
2019-11-20,15:29,3:29 PM,26.975,26.97,26.971,164,4423.235,6,26.98,26.97,26.973,4600,124074.0,40,26.975,26.975,26.98,26.97,,,wu,20191120
2019-11-20,15:30,3:30 PM,26.975,26.975,26.975,5,134.875,5,26.98,26.97,26.973,4895,132032.625,41,26.975,26.975,26.97,26.97,,,wu,20191120
2019-11-20,15:31,3:31 PM,26.975,26.96,26.964,179,4826.605,8,26.975,26.96,26.969,32809,884839.855,154,26.975,26.975,26.97,26.97,,,wu,20191120
2019-11-20,15:32,3:32 PM,26.965,26.965,26.965,9,242.685,4,26.97,26.96,26.966,8594,231745.74,47,26.965,26.965,26.965,26.965,,,wu,20191120
2019-11-20,15:33,3:33 PM,26.975,26.965,26.97,254,6850.355,11,26.975,26.965,26.969,14256,384468.82,71,26.965,26.975,26.965,26.975,,,wu,20191120
2019-11-20,15:34,3:34 PM,26.975,26.97,26.974,5,134.87,5,26.98,26.97,26.974,4136,111566.1396,21,26.975,26.975,26.975,26.975,,,wu,20191120
2019-11-20,15:35,3:35 PM,26.975,26.955,26.968,826,22275.455,19,26.975,26.95,26.964,32429,874423.705,139,26.975,26.955,26.975,26.955,,,wu,20191120
2019-11-20,15:36,3:36 PM,26.955,26.945,26.945,1492,40202.71,18,26.955,26.94,26.949,36567,985452.9581,154,26.945,26.955,26.95,26.953,,,wu,20191120
2019-11-20,15:37,3:37 PM,26.955,26.95,26.952,3,80.855,3,26.96,26.95,26.955,5740,154723.74,40,26.95,26.955,26.955,26.955,,,wu,20191120
2019-11-20,15:38,3:38 PM,26.955,26.95,26.95,208,5605.605,7,26.96,26.95,26.953,4383,118132.85,38,26.95,26.95,26.95,26.95,,,wu,20191120
2019-11-20,15:39,3:39 PM,26.955,26.95,26.955,103,2776.36,3,26.96,26.95,26.953,5643,152094.35,43,26.95,26.955,26.955,26.955,,,wu,20191120
2019-11-20,15:40,3:40 PM,26.965,26.955,26.957,1254,33803.66,11,26.965,26.95,26.959,25211,679666.14,143,26.955,26.965,26.955,26.965,,,wu,20191120
2019-11-20,15:41,3:41 PM,26.97,26.965,26.966,600,16179.5,4,26.97,26.965,26.968,12400,334400.33,50,26.965,26.965,26.965,26.965,,,wu,20191120
2019-11-20,15:42,3:42 PM,26.975,26.97,26.972,2324,62682.82,14,26.98,26.965,26.971,36537,985459.57,186,26.97,26.975,26.97,26.975,,,wu,20191120
2019-11-20,15:43,3:43 PM,26.975,26.975,26.975,1000,26975.0,9,26.98,26.97,26.977,10904,294156.6089,56,26.975,26.975,26.975,26.975,,,wu,20191120
2019-11-20,15:44,3:44 PM,26.985,26.975,26.977,448,12085.54,11,26.99,26.97,26.982,18499,499132.805,115,26.975,26.98,26.975,26.985,,,wu,20191120
2019-11-20,15:45,3:45 PM,26.99,26.985,26.988,453,12225.47,5,26.99,26.985,26.987,10315,278369.51,70,26.99,26.985,26.985,26.985,,,wu,20191120
2019-11-20,15:46,3:46 PM,26.99,26.98,26.983,1430,38586.2,12,26.995,26.98,26.987,15884,428659.955,109,26.985,26.99,26.985,26.995,,,wu,20191120
2019-11-20,15:47,3:47 PM,26.995,26.995,26.995,418,11283.91,6,27.0,26.99,26.997,14810,399830.5,85,26.995,26.995,26.995,26.995,,,wu,20191120
2019-11-20,15:48,3:48 PM,26.995,26.99,26.991,541,14602.23,11,27.0,26.99,26.99,48576,1311089.625,196,26.995,26.99,26.99,26.995,,,wu,20191120
2019-11-20,15:49,3:49 PM,26.995,26.99,26.994,976,26345.83,12,26.995,26.99,26.991,8177,220706.7784,53,26.995,26.995,26.99,26.99,,,wu,20191120
2019-11-20,15:50,3:50 PM,26.995,26.99,26.994,3848,103872.26,27,27.0,26.99,26.991,36134,975301.89,139,26.995,26.995,26.99,26.99,,,wu,20191120
2019-11-20,15:51,3:51 PM,27.0,26.99,26.994,3190,86111.205,29,27.0,26.99,26.995,43790,1182099.115,227,26.995,26.995,26.99,26.995,,,wu,20191120
2019-11-20,15:52,3:52 PM,27.0,26.99,26.995,2364,63816.4,23,27.0,26.99,26.996,31372,846914.625,125,26.995,26.995,26.99,26.995,,,wu,20191120
2019-11-20,15:53,3:53 PM,27.0,26.99,26.994,3625,97852.42,26,27.0,26.99,26.994,38836,1048320.785,172,26.995,26.995,26.995,26.99,,,wu,20191120
2019-11-20,15:54,3:54 PM,27.0,26.995,26.995,2190,59119.43,18,27.0,26.99,26.995,42203,1139288.72,231,26.995,26.995,26.995,26.995,,,wu,20191120
2019-11-20,15:55,3:55 PM,27.01,26.995,27.001,17199,464390.925,79,27.01,26.99,27.002,153107,4134165.615,525,26.995,27.005,26.99,27.005,,,wu,20191120
2019-11-20,15:56,3:56 PM,27.005,26.99,27.001,4969,134166.23,27,27.01,26.99,27.0,77706,2098098.985,338,27.005,26.995,27.0,26.995,,,wu,20191120
2019-11-20,15:57,3:57 PM,26.985,26.975,26.982,3801,102559.505,36,26.995,26.975,26.982,60665,1636885.645,322,26.985,26.975,26.99,26.975,,,wu,20191120
2019-11-20,15:58,3:58 PM,26.975,26.97,26.975,4138,111621.04,41,26.98,26.97,26.973,45102,1216555.805,318,26.975,26.975,26.975,26.97,,,wu,20191120
2019-11-20,15:59,3:59 PM,26.985,26.965,26.978,1549,41788.36,16,26.99,26.96,26.976,121258,3271041.695,508,26.975,26.965,26.97,26.97,,,wu,20191120
