date,minute,label,high,low,average,volume,notional,numberOfTrades,marketHigh,marketLow,marketAverage,marketVolume,marketNotional,marketNumberOfTrades,open,close,marketOpen,marketClose,changeOverTime,marketChangeOverTime,tickerName,tickerDate
2020-01-29,09:30,09:30 AM,27.625,27.54,27.567,400,11027.0,4,27.625,27.51,27.558,27891,768606.96,36,27.625,27.545,27.56,27.51,0.0,0.0,wu,20200129
2020-01-29,09:31,09:31 AM,,,,0,0.0,0,27.53,27.49,27.51,5104,140412.58,33,,,27.52,27.51,,-0.0017417809710428285,wu,20200129
2020-01-29,09:32,09:32 AM,27.52,27.5,27.509,273,7509.93,4,27.52,27.5,27.511,3018,83028.84,19,27.5,27.515,27.5,27.515,-0.002103964885551559,-0.0017054938674795194,wu,20200129
2020-01-29,09:33,09:33 AM,27.52,27.49,27.502,300,8250.5,3,27.52,27.48,27.503,10475,288096.57,75,27.52,27.495,27.515,27.495,-0.0023578916820836972,-0.001995790695986636,wu,20200129
2020-01-29,09:34,09:34 AM,27.49,27.475,27.477,330,9067.355,4,27.48,27.47,27.479,3426,94142.375,24,27.49,27.48,27.48,27.475,-0.003264773098269665,-0.002866681181508115,wu,20200129
2020-01-29,09:35,09:35 AM,27.52,27.46,27.466,219,6015.125,4,27.515,27.45,27.481,5396,148288.085,35,27.46,27.52,27.475,27.505,-0.0036638009213914857,-0.002794106974381239,wu,20200129
2020-01-29,09:36,09:36 AM,27.52,27.515,27.515,202,5558.04,4,27.53,27.505,27.515,2442,67190.76,17,27.52,27.515,27.505,27.515,-0.001886313345666906,-0.0015603454532258968,wu,20200129
2020-01-29,09:37,09:37 AM,27.52,27.505,27.505,206,5666.12,3,27.51,27.5,27.506,1783,49042.84,13,27.52,27.505,27.51,27.51,-0.002249065912141371,-0.0018869293852964513,wu,20200129
2020-01-29,09:38,09:38 AM,,,,0,0.0,0,27.52,27.51,27.517,600,16510.0,6,,,27.52,27.515,,-0.0014877712460991499,wu,20200129
2020-01-29,09:39,09:39 AM,27.51,27.5,27.507,331,9104.685,8,27.52,27.495,27.506,4115,113186.575,26,27.51,27.51,27.515,27.505,-0.0021765153988464003,-0.0018869293852964513,wu,20200129
2020-01-29,09:40,09:40 AM,27.51,27.51,27.51,188,5171.88,2,27.525,27.505,27.515,2037,56048.37,13,27.51,27.51,27.505,27.525,-0.002067689628904074,-0.0015603454532258968,wu,20200129
2020-01-29,09:41,09:41 AM,27.55,27.55,27.55,100,2755.0,1,27.55,27.525,27.533,2773,76350.19,20,27.55,27.55,27.525,27.545,-0.0006166793630064737,-0.0009071775890847877,wu,20200129
2020-01-29,09:42,09:42 AM,27.53,27.53,27.53,300,8259.0,1,27.54,27.525,27.532,5500,151426.0,36,27.53,27.53,27.54,27.53,-0.0013421844959552738,-0.0009434646926482256,wu,20200129
2020-01-29,09:43,09:43 AM,,,,0,0.0,0,27.55,27.53,27.541,2627,72349.58,19,,,27.53,27.55,,-0.0006168807605776711,wu,20200129
2020-01-29,09:44,09:44 AM,27.55,27.525,27.537,300,8261.0,4,27.56,27.52,27.544,3500,96405.5,30,27.55,27.525,27.555,27.52,-0.0010882576994232646,-0.0005080194498874863,wu,20200129
2020-01-29,09:45,09:45 AM,,,,0,0.0,0,27.52,27.505,27.513,5300,145819.5,33,,,27.52,27.51,,-0.0016329196603526437,wu,20200129
2020-01-29,09:46,09:46 AM,27.515,27.515,27.515,200,5503.0,1,27.515,27.5,27.506,2100,57763.5,16,27.515,27.515,27.51,27.505,-0.001886313345666906,-0.0018869293852964513,wu,20200129
2020-01-29,09:47,09:47 AM,,,,0,0.0,0,27.52,27.51,27.511,1667,45860.17,15,,,27.51,27.51,,-0.0017054938674795194,wu,20200129
2020-01-29,09:48,09:48 AM,27.51,27.495,27.495,341,9375.84,3,27.51,27.495,27.504,5670,155950.47,27,27.51,27.495,27.51,27.495,-0.0026118184786157062,-0.001959503592423198,wu,20200129
2020-01-29,09:49,09:49 AM,,,,0,0.0,0,27.505,27.495,27.5,3290,90473.5,21,,,27.495,27.505,,-0.002104652006676821,wu,20200129
2020-01-29,09:50,09:50 AM,27.51,27.51,27.51,300,8253.0,1,27.53,27.495,27.511,3053,83990.0,19,27.51,27.51,27.5,27.53,-0.002067689628904074,-0.0017054938674795194,wu,20200129
2020-01-29,09:51,09:51 AM,,,,0,0.0,0,27.54,27.52,27.531,6200,170691.915,50,,,27.525,27.52,,-0.0009797517962116635,wu,20200129
2020-01-29,09:52,09:52 AM,27.515,27.515,27.515,100,2751.5,1,27.535,27.51,27.526,2700,74319.5,24,27.515,27.515,27.52,27.51,-0.001886313345666906,-0.0011611873140285952,wu,20200129
2020-01-29,09:53,09:53 AM,27.51,27.51,27.51,100,2751.0,1,27.52,27.505,27.509,5579,153471.8,33,27.51,27.51,27.51,27.51,-0.002067689628904074,-0.0017780680746062663,wu,20200129
2020-01-29,09:54,09:54 AM,27.505,27.505,27.505,200,5501.0,1,27.51,27.495,27.504,8978,246931.89,35,27.505,27.505,27.51,27.495,-0.002249065912141371,-0.001959503592423198,wu,20200129
2020-01-29,09:55,09:55 AM,27.495,27.495,27.495,814,22380.93,2,27.5,27.49,27.494,6214,170847.93,29,27.495,27.495,27.495,27.49,-0.0026118184786157062,-0.0023223746280571903,wu,20200129
2020-01-29,09:56,09:56 AM,,,,0,0.0,0,27.5,27.48,27.491,6388,175615.19,32,,,27.49,27.5,,-0.0024312359387473753,wu,20200129
2020-01-29,09:57,09:57 AM,27.495,27.49,27.493,310,8522.95,3,27.51,27.485,27.495,12598,346386.54,42,27.49,27.495,27.5,27.51,-0.0026843689919106763,-0.0022860875244937527,wu,20200129
2020-01-29,09:58,09:58 AM,27.505,27.505,27.505,200,5501.0,1,27.52,27.5,27.51,2700,74276.0,15,27.505,27.505,27.505,27.52,-0.002249065912141371,-0.0017417809710428285,wu,20200129
2020-01-29,09:59,09:59 AM,27.51,27.51,27.51,63,1733.13,1,27.52,27.51,27.513,1319,36289.785,13,27.51,27.51,27.52,27.515,-0.002067689628904074,-0.0016329196603526437,wu,20200129
2020-01-29,10:00,10 AM,27.51,27.49,27.498,737,20266.37,8,27.51,27.49,27.497,23359,642302.31,86,27.51,27.49,27.51,27.49,-0.00250299270867338,-0.002213513317367006,wu,20200129
2020-01-29,10:01,10:01 AM,27.495,27.485,27.488,1588,43650.18,9,27.495,27.48,27.487,18898,519451.53,66,27.495,27.495,27.495,27.49,-0.0028657452751478445,-0.002576384353000998,wu,20200129
2020-01-29,10:02,10:02 AM,27.5,27.5,27.5,7,192.5,1,27.51,27.49,27.501,6282,172760.6,35,27.5,27.5,27.5,27.505,-0.0024304421953785385,-0.002068364903113383,wu,20200129
2020-01-29,10:03,10:03 AM,27.505,27.505,27.505,1500,41257.5,4,27.515,27.503,27.508,12009,330341.02,31,27.505,27.505,27.505,27.505,-0.002249065912141371,-0.0018143551781697044,wu,20200129
2020-01-29,10:04,10:04 AM,27.505,27.48,27.494,1100,30243.0,6,27.505,27.48,27.494,12305,338307.695,52,27.5,27.48,27.505,27.49,-0.0026480937352631913,-0.0023223746280571903,wu,20200129
2020-01-29,10:05,10:05 AM,27.49,27.49,27.49,4,109.96,1,27.495,27.485,27.492,13654,375370.96,54,27.49,27.49,27.485,27.485,-0.002793194761853003,-0.0023949488351839377,wu,20200129
2020-01-29,10:06,10:06 AM,27.485,27.48,27.484,700,19239.0,4,27.485,27.48,27.485,4136,113676.46,14,27.485,27.485,27.485,27.485,-0.003010846301737527,-0.0026489585601277453,wu,20200129
2020-01-29,10:07,10:07 AM,,,,0,0.0,0,27.49,27.48,27.483,10995,302179.33,42,,,27.485,27.48,,-0.002721532767254492,wu,20200129
2020-01-29,10:08,10:08 AM,27.485,27.455,27.48,1000,27479.5,3,27.485,27.45,27.468,22106,607213.4151,70,27.485,27.46,27.485,27.465,-0.0031559473283273385,-0.003265839320705416,wu,20200129
2020-01-29,10:09,10:09 AM,27.48,27.465,27.473,1189,32665.295,9,27.48,27.465,27.472,9116,250432.59,49,27.465,27.475,27.465,27.465,-0.0034098741248594767,-0.0031206909064517936,wu,20200129
2020-01-29,10:10,10:10 AM,27.48,27.46,27.466,406,11151.26,5,27.485,27.455,27.474,56221,1544638.39,71,27.46,27.46,27.46,27.46,-0.0036638009213914857,-0.0030481166993250467,wu,20200129
2020-01-29,10:11,10:11 AM,,,,0,0.0,0,27.455,27.44,27.447,2180,59835.1,18,,,27.45,27.445,,-0.00402786849553671,wu,20200129
2020-01-29,10:12,10:12 AM,,,,0,0.0,0,27.45,27.42,27.432,6548,179625.64,39,,,27.445,27.45,,-0.004572175048987634,wu,20200129
2020-01-29,10:13,10:13 AM,27.455,27.445,27.448,300,8234.5,2,27.46,27.44,27.452,6374,174980.315,37,27.455,27.445,27.44,27.445,-0.004316755541045445,-0.0038464329777196495,wu,20200129
2020-01-29,10:14,10:14 AM,27.465,27.45,27.458,500,13729.0,3,27.47,27.45,27.461,4729,129863.55,27,27.45,27.465,27.45,27.46,-0.003954002974571109,-0.003519849045649224,wu,20200129
2020-01-29,10:15,10:15 AM,27.465,27.435,27.452,901,24734.45,8,27.465,27.43,27.445,20235,555347.24,68,27.465,27.435,27.465,27.435,-0.004171654514455633,-0.004100442702663457,wu,20200129
2020-01-29,10:16,10:16 AM,,,,0,0.0,0,27.44,27.43,27.433,1759,48255.69,12,,,27.43,27.435,,-0.004535887945424196,wu,20200129
2020-01-29,10:17,10:17 AM,27.44,27.44,27.44,100,2744.0,1,27.445,27.42,27.434,4309,118212.37,31,27.44,27.44,27.43,27.445,-0.004606957594224939,-0.0044996008418607585,wu,20200129
2020-01-29,10:18,10:18 AM,27.445,27.435,27.441,320,8781.2,4,27.45,27.435,27.443,7518,206315.22,45,27.435,27.445,27.44,27.445,-0.004570682337577583,-0.004173016909790204,wu,20200129
2020-01-29,10:19,10:19 AM,27.45,27.445,27.447,300,8234.0,2,27.45,27.43,27.442,3954,108507.76,35,27.45,27.445,27.44,27.43,-0.00435303079769293,-0.004209304013353642,wu,20200129
2020-01-29,10:20,10:20 AM,27.44,27.43,27.433,300,8230.0,3,27.44,27.42,27.43,7291,199990.3754,44,27.43,27.44,27.43,27.44,-0.004860884390757077,-0.004644749256114381,wu,20200129
2020-01-29,10:21,10:21 AM,27.455,27.455,27.455,300,8236.5,1,27.455,27.44,27.447,5241,143850.88,31,27.455,27.455,27.44,27.455,-0.004062828744513435,-0.00402786849553671,wu,20200129
2020-01-29,10:22,10:22 AM,,,,0,0.0,0,27.46,27.45,27.456,2578,70781.345,18,,,27.46,27.455,,-0.0037012845634661557,wu,20200129
2020-01-29,10:23,10:23 AM,27.45,27.45,27.45,200,5490.0,1,27.46,27.45,27.455,2800,76875.12,16,27.45,27.45,27.45,27.455,-0.004244205027750603,-0.0037375716670295933,wu,20200129
2020-01-29,10:24,10:24 AM,27.46,27.46,27.46,100,2746.0,1,27.47,27.46,27.463,5187,142451.78,33,27.46,27.46,27.46,27.47,-0.003881452461276139,-0.003447274838522348,wu,20200129
2020-01-29,10:25,10:25 AM,27.485,27.47,27.475,401,11017.47,5,27.49,27.465,27.479,24040,660583.89,113,27.47,27.485,27.465,27.485,-0.0033373236115645066,-0.002866681181508115,wu,20200129
2020-01-29,10:26,10:26 AM,27.485,27.485,27.485,400,10994.0,1,27.49,27.48,27.486,4484,123245.89,31,27.485,27.485,27.48,27.48,-0.002974571045090171,-0.002612671456564307,wu,20200129
2020-01-29,10:27,10:27 AM,27.5,27.5,27.5,100,2750.0,1,27.5,27.48,27.492,2373,65238.27,17,27.5,27.5,27.48,27.5,-0.0024304421953785385,-0.0023949488351839377,wu,20200129
2020-01-29,10:28,10:28 AM,27.51,27.51,27.51,100,2751.0,1,27.53,27.505,27.516,3266,89866.6,27,27.51,27.51,27.505,27.53,-0.002067689628904074,-0.0015240583496625877,wu,20200129
2020-01-29,10:29,10:29 AM,27.53,27.525,27.527,401,11038.53,5,27.53,27.525,27.529,1500,41293.0,15,27.525,27.53,27.53,27.53,-0.0014510102658976004,-0.0010523260033384104,wu,20200129
2020-01-29,10:30,10:30 AM,27.525,27.525,27.525,202,5560.05,3,27.53,27.52,27.527,2330,64137.988,18,27.525,27.525,27.53,27.525,-0.0015235607791925705,-0.0011249002104651573,wu,20200129
2020-01-29,10:31,10:31 AM,27.525,27.52,27.523,400,11009.0,4,27.53,27.52,27.523,2765,76102.625,26,27.525,27.52,27.525,27.525,-0.0015961112924874118,-0.0012700486247187801,wu,20200129
2020-01-29,10:32,10:32 AM,27.52,27.52,27.52,74,2036.48,2,27.525,27.52,27.523,1600,44036.0,15,27.52,27.52,27.52,27.52,-0.0017049370624297384,-0.0012700486247187801,wu,20200129
2020-01-29,10:33,10:33 AM,27.52,27.505,27.514,428,11776.04,7,27.53,27.5,27.516,10860,298825.84,71,27.52,27.51,27.52,27.52,-0.0019225886023143913,-0.0015240583496625877,wu,20200129
2020-01-29,10:34,10:34 AM,27.52,27.52,27.52,100,2752.0,1,27.52,27.51,27.516,800,22013.0,8,27.52,27.52,27.515,27.51,-0.0017049370624297384,-0.0015240583496625877,wu,20200129
2020-01-29,10:35,10:35 AM,27.52,27.52,27.52,100,2752.0,1,27.525,27.5,27.516,6914,190247.81,42,27.52,27.52,27.515,27.5,-0.0017049370624297384,-0.0015240583496625877,wu,20200129
2020-01-29,10:36,10:36 AM,27.5,27.49,27.495,400,10998.0,4,27.505,27.48,27.497,6300,173229.0,45,27.5,27.49,27.505,27.49,-0.0026118184786157062,-0.002213513317367006,wu,20200129
2020-01-29,10:37,10:37 AM,,,,0,0.0,0,27.49,27.48,27.485,1821,50051.185,13,,,27.48,27.48,,-0.0026489585601277453,wu,20200129
2020-01-29,10:38,10:38 AM,27.485,27.48,27.483,200,5496.5,2,27.49,27.48,27.487,1700,46728.0,10,27.48,27.485,27.485,27.485,-0.003047121558385012,-0.002576384353000998,wu,20200129
2020-01-29,10:39,10:39 AM,27.49,27.485,27.488,165,4535.525,2,27.49,27.48,27.488,3758,103299.425,29,27.49,27.485,27.48,27.49,-0.0028657452751478445,-0.0025400972494375603,wu,20200129
2020-01-29,10:40,10:40 AM,27.51,27.49,27.505,201,5528.49,3,27.51,27.49,27.499,3700,101747.0,28,27.49,27.51,27.49,27.51,-0.002249065912141371,-0.002140939110240259,wu,20200129
2020-01-29,10:41,10:41 AM,27.525,27.52,27.522,300,8256.5,3,27.53,27.505,27.517,4036,111057.86,34,27.52,27.525,27.51,27.525,-0.001632386549134897,-0.0014877712460991499,wu,20200129
2020-01-29,10:42,10:42 AM,27.545,27.545,27.545,100,2754.5,1,27.55,27.53,27.538,3116,85809.73,29,27.545,27.545,27.53,27.545,-0.0007980556462436415,-0.0007257420712678559,wu,20200129
2020-01-29,10:43,10:43 AM,27.54,27.54,27.54,100,2754.0,1,27.545,27.53,27.539,4927,135685.065,34,27.54,27.54,27.54,27.53,-0.0009794319294809382,-0.000689454967704418,wu,20200129
2020-01-29,10:44,10:44 AM,27.535,27.535,27.535,100,2753.5,1,27.54,27.53,27.536,621,17099.735,6,27.535,27.535,27.535,27.535,-0.001160808212718106,-0.0007983162783946028,wu,20200129
2020-01-29,10:45,10:45 AM,27.55,27.53,27.54,300,8262.0,4,27.552,27.53,27.541,6455,177778.9269,42,27.53,27.55,27.54,27.552,-0.0009794319294809382,-0.0006168807605776711,wu,20200129
2020-01-29,10:46,10:46 AM,27.56,27.555,27.557,165,4546.9,2,27.56,27.555,27.558,843,23231.365,8,27.56,27.555,27.56,27.555,-0.0003627525664744645,0.0,wu,20200129
2020-01-29,10:47,10:47 AM,27.56,27.56,27.56,100,2756.0,1,27.57,27.56,27.565,1600,44104.0,13,27.56,27.56,27.56,27.57,-0.00025392679653213807,0.0002540097249438076,wu,20200129
2020-01-29,10:48,10:48 AM,27.58,27.575,27.578,400,11031.0,4,27.585,27.57,27.58,8517,234896.695,66,27.575,27.58,27.57,27.575,0.00039902782312182074,0.0007983162783946028,wu,20200129
2020-01-29,10:49,10:49 AM,,,,0,0.0,0,27.58,27.575,27.579,1813,50001.04,15,,,27.58,27.575,,0.0007620291748312939,wu,20200129
2020-01-29,10:50,10:50 AM,,,,0,0.0,0,27.58,27.575,27.579,1858,51241.35,16,,,27.58,27.575,,0.0007620291748312939,wu,20200129
2020-01-29,10:51,10:51 AM,27.585,27.585,27.585,100,2758.5,1,27.59,27.575,27.582,4987,137552.195,21,27.585,27.585,27.575,27.59,0.0006529546196539588,0.0008708904855214787,wu,20200129
2020-01-29,10:52,10:52 AM,27.6,27.595,27.597,193,5326.3,3,27.6,27.585,27.594,3683,101629.6443,27,27.595,27.6,27.585,27.6,0.0010882576994232646,0.001306335728282218,wu,20200129
2020-01-29,10:53,10:53 AM,27.6,27.59,27.594,400,11037.5,5,27.6,27.59,27.593,5630,155347.7,44,27.6,27.59,27.595,27.59,0.0009794319294809382,0.0012700486247187801,wu,20200129
2020-01-29,10:54,10:54 AM,,,,0,0.0,0,27.59,27.58,27.585,2756,76025.04,22,,,27.58,27.59,,0.0009797517962116635,wu,20200129
2020-01-29,10:55,10:55 AM,,,,0,0.0,0,27.59,27.59,27.59,300,8277.0,3,,,27.59,27.59,,0.0011611873140285952,wu,20200129
2020-01-29,10:56,10:56 AM,27.585,27.585,27.585,100,2758.5,1,27.59,27.58,27.585,700,19309.5,7,27.585,27.585,27.585,27.59,0.0006529546196539588,0.0009797517962116635,wu,20200129
2020-01-29,10:57,10:57 AM,27.59,27.59,27.59,100,2759.0,1,27.59,27.585,27.589,800,22071.0,8,27.59,27.59,27.585,27.59,0.0008343309028911267,0.0011249002104651573,wu,20200129
2020-01-29,10:58,10:58 AM,27.585,27.585,27.585,100,2758.5,1,27.59,27.585,27.586,1500,41379.5,13,27.585,27.585,27.585,27.585,0.0006529546196539588,0.0010160388997749726,wu,20200129
2020-01-29,10:59,10:59 AM,27.585,27.585,27.585,105,2896.425,2,27.59,27.585,27.587,2000,55175.0,17,27.585,27.585,27.59,27.585,0.0006529546196539588,0.0010523260033384104,wu,20200129
2020-01-29,11:00,11 AM,27.595,27.59,27.593,217,5987.58,4,27.6,27.587,27.593,8218,226763.565,40,27.59,27.595,27.59,27.59,0.000943156672833453,0.0012700486247187801,wu,20200129
2020-01-29,11:01,11:01 AM,27.59,27.575,27.579,1294,35687.595,12,27.59,27.57,27.584,7815,215566.79,55,27.59,27.575,27.59,27.57,0.00043530307976930586,0.0009434646926482256,wu,20200129
2020-01-29,11:02,11:02 AM,27.575,27.575,27.575,100,2757.5,1,27.58,27.575,27.576,600,16545.5,5,27.575,27.575,27.58,27.575,0.00029020205317949427,0.000653167864141109,wu,20200129
2020-01-29,11:03,11:03 AM,,,,0,0.0,0,27.58,27.57,27.578,945,26061.04,9,,,27.58,27.575,,0.0007257420712678559,wu,20200129
2020-01-29,11:04,11:04 AM,,,,0,0.0,0,27.59,27.58,27.582,4252,117280.09,29,,,27.58,27.59,,0.0008708904855214787,wu,20200129
2020-01-29,11:05,11:05 AM,,,,0,0.0,0,27.59,27.58,27.584,3580,98749.27,25,,,27.585,27.58,,0.0009434646926482256,wu,20200129
2020-01-29,11:06,11:06 AM,,,,0,0.0,0,27.59,27.58,27.584,1700,46892.0,17,,,27.58,27.58,,0.0009434646926482256,wu,20200129
2020-01-29,11:07,11:07 AM,,,,0,0.0,0,27.585,27.58,27.582,800,22066.0,8,,,27.58,27.58,,0.0008708904855214787,wu,20200129
2020-01-29,11:08,11:08 AM,27.605,27.585,27.596,413,11397.275,6,27.608,27.585,27.593,6879,189808.86,58,27.585,27.605,27.59,27.608,0.0010519824427757795,0.0012700486247187801,wu,20200129
2020-01-29,11:09,11:09 AM,,,,0,0.0,0,27.61,27.61,27.61,736,20320.96,4,,,27.61,27.61,,0.0018869293852964513,wu,20200129
2020-01-29,11:10,11:10 AM,27.62,27.61,27.614,501,13834.61,6,27.63,27.6,27.613,16998,469359.25,122,27.61,27.61,27.61,27.605,0.0017049370624297384,0.001995790695986636,wu,20200129
2020-01-29,11:11,11:11 AM,27.605,27.595,27.6,200,5520.0,3,27.605,27.58,27.593,3181,87774.945,29,27.605,27.595,27.6,27.58,0.0011970834693655911,0.0012700486247187801,wu,20200129
2020-01-29,11:12,11:12 AM,,,,0,0.0,0,27.57,27.55,27.556,2042,56269.047,12,,,27.57,27.55,,-7.257420712674692e-05,wu,20200129
2020-01-29,11:13,11:13 AM,27.575,27.56,27.573,308,8492.48,4,27.575,27.55,27.565,4308,118748.48,33,27.56,27.575,27.55,27.57,0.00021765153988465293,0.0002540097249438076,wu,20200129
2020-01-29,11:14,11:14 AM,27.58,27.58,27.58,100,2758.0,1,27.585,27.57,27.579,4082,112576.06,33,27.58,27.58,27.57,27.575,0.0004715783364166621,0.0007620291748312939,wu,20200129
2020-01-29,11:15,11:15 AM,27.58,27.58,27.58,6,165.48,1,27.59,27.57,27.581,4117,113552.03,28,27.58,27.58,27.57,27.582,0.0004715783364166621,0.0008346033819580408,wu,20200129
2020-01-29,11:16,11:16 AM,,,,0,0.0,0,27.59,27.58,27.585,3076,84853.175,26,,,27.59,27.58,,0.0009797517962116635,wu,20200129
2020-01-29,11:17,11:17 AM,27.58,27.565,27.572,304,8381.82,4,27.585,27.56,27.575,7557,208382.0329,45,27.58,27.565,27.58,27.56,0.00018137628323716782,0.0006168807605776711,wu,20200129
2020-01-29,11:18,11:18 AM,,,,0,0.0,0,27.565,27.555,27.561,2200,60635.5,19,,,27.565,27.555,,0.00010886131069018484,wu,20200129
2020-01-29,11:19,11:19 AM,27.555,27.555,27.555,200,5511.0,2,27.56,27.55,27.554,15000,413310.0,45,27.555,27.555,27.55,27.55,-0.00043530307976930586,-0.00014514841425362275,wu,20200129
2020-01-29,11:20,11:20 AM,27.555,27.55,27.55,101,2782.555,2,27.555,27.55,27.552,3152,86843.86,29,27.555,27.55,27.55,27.55,-0.0006166793630064737,-0.00021772262138036968,wu,20200129
2020-01-29,11:21,11:21 AM,,,,0,0.0,0,27.56,27.55,27.558,631,17388.86,3,,,27.555,27.55,,0.0,wu,20200129
2020-01-29,11:22,11:22 AM,27.555,27.55,27.555,11,303.1,2,27.56,27.55,27.555,1750,48220.5,16,27.555,27.55,27.56,27.555,-0.00043530307976930586,-0.00010886131069018484,wu,20200129
2020-01-29,11:23,11:23 AM,27.57,27.55,27.558,301,8295.065,4,27.57,27.55,27.56,6371,175587.26,30,27.55,27.57,27.55,27.565,-0.0003264773098269794,7.257420712674692e-05,wu,20200129
2020-01-29,11:24,11:24 AM,27.565,27.565,27.565,100,2756.5,1,27.6,27.565,27.575,5371,148105.47,36,27.565,27.565,27.565,27.6,-7.255051329484135e-05,0.0006168807605776711,wu,20200129
2020-01-29,11:25,11:25 AM,27.6,27.595,27.598,300,8279.5,3,27.6,27.595,27.599,3762,103828.2,21,27.595,27.6,27.595,27.6,0.0011245329560706208,0.0014877712460991499,wu,20200129
2020-01-29,11:26,11:26 AM,27.6,27.6,27.6,100,2760.0,1,27.61,27.595,27.605,2866,79115.4,22,27.6,27.6,27.6,27.61,0.0011970834693655911,0.0017054938674795194,wu,20200129
2020-01-29,11:27,11:27 AM,27.615,27.595,27.607,317,8751.44,5,27.615,27.595,27.607,9646,266295.155,56,27.615,27.595,27.61,27.595,0.0014510102658976004,0.0017780680746062663,wu,20200129
2020-01-29,11:28,11:28 AM,27.595,27.595,27.595,400,11038.0,4,27.595,27.59,27.593,1786,49281.67,17,27.595,27.595,27.595,27.595,0.0010157071861282944,0.0012700486247187801,wu,20200129
2020-01-29,11:29,11:29 AM,,,,0,0.0,0,27.595,27.58,27.587,2500,68967.5,24,,,27.59,27.58,,0.0010523260033384104,wu,20200129
2020-01-29,11:30,11:30 AM,27.575,27.575,27.575,200,5515.0,2,27.59,27.575,27.58,3582,98791.06,28,27.575,27.575,27.585,27.59,0.00029020205317949427,0.0007983162783946028,wu,20200129
2020-01-29,11:31,11:31 AM,,,,0,0.0,0,27.59,27.58,27.588,1100,30346.5,11,,,27.58,27.59,,0.0010886131069018483,wu,20200129
2020-01-29,11:32,11:32 AM,27.585,27.585,27.585,100,2758.5,1,27.59,27.585,27.586,700,19310.5,6,27.585,27.585,27.59,27.585,0.0006529546196539588,0.0010160388997749726,wu,20200129
2020-01-29,11:33,11:33 AM,27.58,27.58,27.58,100,2758.0,1,27.59,27.58,27.583,3231,89121.48,23,27.58,27.58,27.58,27.585,0.0004715783364166621,0.0009071775890847877,wu,20200129
2020-01-29,11:34,11:34 AM,27.585,27.58,27.582,200,5516.5,4,27.59,27.57,27.578,6598,181958.34,48,27.58,27.58,27.59,27.57,0.0005441288497116323,0.0007257420712678559,wu,20200129
2020-01-29,11:35,11:35 AM,,,,0,0.0,0,27.59,27.57,27.575,5135,141596.8,29,,,27.57,27.585,,0.0006168807605776711,wu,20200129
2020-01-29,11:36,11:36 AM,27.61,27.605,27.61,108,2981.855,3,27.62,27.59,27.608,17437,481407.855,93,27.605,27.61,27.59,27.6,0.0015598360358399267,0.0018143551781697044,wu,20200129
2020-01-29,11:37,11:37 AM,27.6,27.6,27.6,100,2760.0,1,27.605,27.6,27.603,1000,27603.33,8,27.6,27.6,27.6,27.6,0.0011970834693655911,0.0016329196603527725,wu,20200129
2020-01-29,11:38,11:38 AM,27.6,27.6,27.6,100,2760.0,1,27.61,27.6,27.602,1847,50980.635,9,27.6,27.6,27.61,27.605,0.0011970834693655911,0.0015966325567893346,wu,20200129
2020-01-29,11:39,11:39 AM,27.595,27.595,27.595,300,8278.5,3,27.6,27.59,27.599,3096,85446.6,25,27.595,27.595,27.6,27.59,0.0010157071861282944,0.0014877712460991499,wu,20200129
2020-01-29,11:40,11:40 AM,27.6,27.6,27.6,70,1932.0,1,27.6,27.595,27.598,300,8279.5,3,27.6,27.6,27.6,27.6,0.0011970834693655911,0.0014514841425357118,wu,20200129
2020-01-29,11:41,11:41 AM,27.6,27.6,27.6,3,82.8,2,27.61,27.595,27.601,3753,103587.8,22,27.6,27.6,27.595,27.605,0.0011970834693655911,0.0015603454532258968,wu,20200129
2020-01-29,11:42,11:42 AM,,,,0,0.0,0,27.61,27.6,27.6,124321,3431274.6769,16,,,27.609,27.61,,0.0015240583496625877,wu,20200129
2020-01-29,11:43,11:43 AM,27.605,27.605,27.605,200,5521.0,2,27.605,27.6,27.604,1000,27604.0,10,27.605,27.605,27.605,27.6,0.001378459752602759,0.0016692067639160816,wu,20200129
2020-01-29,11:44,11:44 AM,27.6,27.59,27.598,600,16558.5,8,27.605,27.59,27.6,9902,273291.7,61,27.6,27.59,27.605,27.6,0.0011245329560706208,0.0015240583496625877,wu,20200129
2020-01-29,11:45,11:45 AM,,,,0,0.0,0,27.6,27.59,27.597,1718,47411.359,12,,,27.595,27.59,,0.0014151970389724028,wu,20200129
2020-01-29,11:46,11:46 AM,27.6,27.6,27.6,200,5520.0,2,27.6,27.59,27.599,6173,170369.3,45,27.6,27.6,27.6,27.6,0.0011970834693655911,0.0014877712460991499,wu,20200129
2020-01-29,11:47,11:47 AM,27.595,27.595,27.595,100,2759.5,1,27.595,27.59,27.595,1000,27594.5,9,27.595,27.595,27.595,27.595,0.0010157071861282944,0.001342622831845527,wu,20200129
2020-01-29,11:48,11:48 AM,27.595,27.59,27.593,300,8278.0,3,27.6,27.59,27.596,1469,40538.8,13,27.595,27.595,27.6,27.595,0.000943156672833453,0.001378909935408965,wu,20200129
2020-01-29,11:49,11:49 AM,27.595,27.58,27.588,1000,27588.0,10,27.595,27.58,27.587,5557,153303.835,50,27.595,27.58,27.595,27.58,0.0007617803895962852,0.0010523260033384104,wu,20200129
2020-01-29,11:50,11:50 AM,27.585,27.58,27.581,500,13790.5,5,27.585,27.58,27.583,3199,88237.415,28,27.58,27.58,27.58,27.585,0.0005078535930641472,0.0009071775890847877,wu,20200129
2020-01-29,11:51,11:51 AM,27.585,27.585,27.585,100,2758.5,1,27.59,27.58,27.585,3715,102477.275,27,27.585,27.585,27.585,27.585,0.0006529546196539588,0.0009797517962116635,wu,20200129
2020-01-29,11:52,11:52 AM,27.585,27.58,27.584,500,13792.0,4,27.59,27.58,27.586,3839,105902.501,32,27.585,27.58,27.585,27.58,0.0006166793630064737,0.0010160388997749726,wu,20200129
2020-01-29,11:53,11:53 AM,27.585,27.58,27.582,400,11033.0,4,27.59,27.58,27.587,3213,88635.6028,26,27.58,27.58,27.585,27.58,0.0005441288497116323,0.0010523260033384104,wu,20200129
2020-01-29,11:54,11:54 AM,27.585,27.58,27.582,300,8274.5,3,27.588,27.58,27.584,2821,77815.885,21,27.585,27.58,27.588,27.58,0.0005441288497116323,0.0009434646926482256,wu,20200129
2020-01-29,11:55,11:55 AM,27.58,27.58,27.58,100,2758.0,1,27.585,27.58,27.581,700,19306.5,7,27.58,27.58,27.58,27.58,0.0004715783364166621,0.0008346033819580408,wu,20200129
2020-01-29,11:56,11:56 AM,27.585,27.58,27.585,202,5572.16,3,27.59,27.58,27.585,3507,96742.13,26,27.585,27.58,27.585,27.585,0.0006529546196539588,0.0009797517962116635,wu,20200129
2020-01-29,11:57,11:57 AM,27.585,27.585,27.585,100,2758.5,1,27.585,27.58,27.584,1808,49871.68,17,27.585,27.585,27.58,27.585,0.0006529546196539588,0.0009434646926482256,wu,20200129
2020-01-29,11:58,11:58 AM,27.585,27.58,27.583,300,8275.0,3,27.59,27.58,27.587,4096,112995.64,36,27.585,27.585,27.585,27.585,0.0005804041063589885,0.0010523260033384104,wu,20200129
2020-01-29,11:59,11:59 AM,27.58,27.555,27.564,800,22051.0,8,27.585,27.545,27.571,17019,469235.6,98,27.58,27.555,27.585,27.555,-0.00010882576994232646,0.0004717323463241773,wu,20200129
2020-01-29,12:00,12 PM,27.555,27.555,27.555,100,2755.5,1,27.56,27.555,27.557,3040,83772.7,29,27.555,27.555,27.555,27.56,-0.00043530307976930586,-3.6287103563437916e-05,wu,20200129
2020-01-29,12:01,12:01 PM,27.555,27.55,27.553,300,8266.0,3,27.56,27.55,27.555,2100,57866.0,16,27.55,27.555,27.56,27.555,-0.0005078535930641472,-0.00010886131069018484,wu,20200129
2020-01-29,12:02,12:02 PM,,,,0,0.0,0,27.56,27.55,27.553,900,24798.0,9,,,27.555,27.55,,-0.00018143551781693175,wu,20200129
2020-01-29,12:03,12:03 PM,27.555,27.555,27.555,200,5511.0,2,27.56,27.555,27.556,1400,38578.0,10,27.555,27.555,27.555,27.555,-0.00043530307976930586,-7.257420712674692e-05,wu,20200129
2020-01-29,12:04,12:04 PM,27.555,27.555,27.555,100,2755.5,1,27.56,27.555,27.556,1400,38579.0,14,27.555,27.555,27.56,27.56,-0.00043530307976930586,-7.257420712674692e-05,wu,20200129
2020-01-29,12:05,12:05 PM,27.555,27.555,27.555,100,2755.5,1,27.56,27.55,27.556,1800,49601.0,17,27.555,27.555,27.56,27.555,-0.00043530307976930586,-7.257420712674692e-05,wu,20200129
2020-01-29,12:06,12:06 PM,27.59,27.555,27.578,315,8687.17,6,27.6,27.555,27.579,21274,586718.595,118,27.555,27.59,27.555,27.59,0.00039902782312182074,0.0007620291748312939,wu,20200129
2020-01-29,12:07,12:07 PM,,,,0,0.0,0,27.6,27.59,27.598,3318,91568.79,23,,,27.595,27.595,,0.0014514841425357118,wu,20200129
2020-01-29,12:08,12:08 PM,27.6,27.6,27.6,400,11040.0,4,27.62,27.6,27.607,2945,81303.46,21,27.6,27.6,27.6,27.615,0.0011970834693655911,0.0017780680746062663,wu,20200129
2020-01-29,12:09,12:09 PM,27.62,27.62,27.62,4,110.48,1,27.62,27.61,27.616,1375,37972.32,12,27.62,27.62,27.615,27.615,0.0019225886023143913,0.002104652006676821,wu,20200129
2020-01-29,12:10,12:10 PM,27.61,27.59,27.601,700,19321.0,6,27.61,27.59,27.602,11318,312404.49,75,27.61,27.59,27.61,27.59,0.0012333587260129474,0.0015966325567893346,wu,20200129
2020-01-29,12:11,12:11 PM,,,,0,0.0,0,27.6,27.59,27.595,1940,53533.5,18,,,27.595,27.595,,0.001342622831845527,wu,20200129
2020-01-29,12:12,12:12 PM,27.595,27.595,27.595,300,8278.5,3,27.6,27.59,27.596,4160,114801.5,32,27.595,27.595,27.595,27.595,0.0010157071861282944,0.001378909935408965,wu,20200129
2020-01-29,12:13,12:13 PM,27.6,27.595,27.597,164,4525.9,2,27.6,27.59,27.596,1088,30024.69,10,27.6,27.595,27.595,27.595,0.0010882576994232646,0.001378909935408965,wu,20200129
2020-01-29,12:14,12:14 PM,27.6,27.595,27.598,305,8417.5,4,27.6,27.595,27.598,1400,38636.5,14,27.6,27.6,27.595,27.6,0.0011245329560706208,0.0014514841425357118,wu,20200129
2020-01-29,12:15,12:15 PM,27.6,27.6,27.6,100,2760.0,1,27.6,27.59,27.595,1500,41392.5,13,27.6,27.6,27.6,27.59,0.0011970834693655911,0.001342622831845527,wu,20200129
2020-01-29,12:16,12:16 PM,27.595,27.59,27.593,200,5518.5,2,27.595,27.59,27.593,500,13796.5,5,27.595,27.59,27.595,27.59,0.000943156672833453,0.0012700486247187801,wu,20200129
2020-01-29,12:17,12:17 PM,27.605,27.6,27.603,332,9164.36,6,27.62,27.59,27.607,7432,205171.625,55,27.6,27.605,27.595,27.615,0.0013059092393079175,0.0017780680746062663,wu,20200129
2020-01-29,12:18,12:18 PM,27.62,27.62,27.62,531,14666.22,5,27.62,27.615,27.619,1765,48747.65,14,27.62,27.62,27.62,27.615,0.0019225886023143913,0.002213513317367006,wu,20200129
2020-01-29,12:19,12:19 PM,27.62,27.615,27.619,542,14969.54,6,27.62,27.61,27.616,2595,71662.4,22,27.62,27.615,27.615,27.615,0.001886313345666906,0.002104652006676821,wu,20200129
2020-01-29,12:20,12:20 PM,27.615,27.615,27.615,216,5964.84,2,27.62,27.61,27.612,6922,191132.0,51,27.615,27.615,27.61,27.61,0.0017412123190770946,0.001959503592423198,wu,20200129
2020-01-29,12:21,12:21 PM,27.615,27.615,27.615,300,8284.5,3,27.615,27.61,27.613,700,19329.0,7,27.615,27.615,27.615,27.615,0.0017412123190770946,0.001995790695986636,wu,20200129
2020-01-29,12:22,12:22 PM,27.615,27.615,27.615,100,2761.5,1,27.62,27.615,27.617,500,13808.5,5,27.615,27.615,27.62,27.615,0.0017412123190770946,0.002140939110240259,wu,20200129
2020-01-29,12:23,12:23 PM,27.61,27.595,27.601,1100,30361.5,6,27.615,27.595,27.603,12297,339439.2,78,27.61,27.6,27.61,27.605,0.0012333587260129474,0.0016329196603527725,wu,20200129
2020-01-29,12:24,12:24 PM,27.6,27.59,27.595,70,1931.63,3,27.605,27.59,27.596,2800,77270.0,26,27.6,27.59,27.6,27.595,0.0010157071861282944,0.001378909935408965,wu,20200129
2020-01-29,12:25,12:25 PM,27.595,27.59,27.591,363,10015.67,5,27.6,27.59,27.59,6328,174592.52,42,27.59,27.595,27.59,27.59,0.0008706061595386117,0.0011611873140285952,wu,20200129
2020-01-29,12:26,12:26 PM,,,,0,0.0,0,27.595,27.59,27.592,3773,104105.07,24,,,27.595,27.595,,0.0012337615211553423,wu,20200129
2020-01-29,12:27,12:27 PM,27.605,27.6,27.602,601,16588.6,8,27.605,27.595,27.6,13545,373839.5,64,27.6,27.605,27.6,27.595,0.0012696339826604325,0.0015240583496625877,wu,20200129
2020-01-29,12:28,12:28 PM,27.59,27.59,27.59,100,2759.0,1,27.595,27.59,27.592,2473,68234.435,21,27.59,27.59,27.595,27.59,0.0008343309028911267,0.0012337615211553423,wu,20200129
2020-01-29,12:29,12:29 PM,27.595,27.595,27.595,200,5519.0,2,27.6,27.59,27.596,2999,82760.935,26,27.595,27.595,27.591,27.595,0.0010157071861282944,0.001378909935408965,wu,20200129
2020-01-29,12:30,12:30 PM,27.595,27.595,27.595,100,2759.5,1,27.6,27.59,27.594,1346,37141.87,13,27.595,27.595,27.595,27.59,0.0010157071861282944,0.001306335728282218,wu,20200129
2020-01-29,12:31,12:31 PM,27.595,27.595,27.595,100,2759.5,1,27.6,27.59,27.595,1477,40757.2,14,27.595,27.595,27.59,27.595,0.0010157071861282944,0.001342622831845527,wu,20200129
2020-01-29,12:32,12:32 PM,27.6,27.59,27.596,390,10762.5,3,27.6,27.59,27.594,1588,43819.81,14,27.6,27.59,27.6,27.6,0.0010519824427757795,0.001306335728282218,wu,20200129
2020-01-29,12:33,12:33 PM,27.59,27.585,27.587,300,8276.0,3,27.6,27.58,27.588,6581,181559.79,45,27.59,27.585,27.595,27.58,0.0007255051329488002,0.0010886131069018483,wu,20200129
2020-01-29,12:34,12:34 PM,27.585,27.58,27.585,102,2813.66,2,27.585,27.58,27.582,1408,38835.68,13,27.585,27.58,27.58,27.58,0.0006529546196539588,0.0008708904855214787,wu,20200129
2020-01-29,12:35,12:35 PM,27.58,27.575,27.577,198,5460.34,2,27.58,27.575,27.578,4025,111002.74,28,27.58,27.575,27.58,27.575,0.0003627525664744645,0.0007257420712678559,wu,20200129
2020-01-29,12:36,12:36 PM,27.575,27.575,27.575,1,27.575,1,27.575,27.575,27.575,1083,29863.725,8,27.575,27.575,27.575,27.575,0.00029020205317949427,0.0006168807605776711,wu,20200129
2020-01-29,12:37,12:37 PM,,,,0,0.0,0,27.58,27.57,27.573,3199,88205.93,20,,,27.575,27.575,,0.0005443065534509241,wu,20200129
2020-01-29,12:38,12:38 PM,27.58,27.575,27.576,112,3088.46,4,27.58,27.575,27.578,1700,46883.0,14,27.58,27.575,27.58,27.58,0.0003264773098269794,0.0007257420712678559,wu,20200129
2020-01-29,12:39,12:39 PM,27.58,27.575,27.578,280,7722.0,2,27.58,27.575,27.579,1679,46304.82,13,27.58,27.575,27.58,27.575,0.00039902782312182074,0.0007620291748312939,wu,20200129
2020-01-29,12:40,12:40 PM,,,,0,0.0,0,27.58,27.575,27.578,1379,38030.105,13,,,27.58,27.58,,0.0007257420712678559,wu,20200129
2020-01-29,12:41,12:41 PM,27.6,27.58,27.595,362,9989.38,11,27.6,27.575,27.587,8976,247623.3,54,27.58,27.6,27.58,27.59,0.0010157071861282944,0.0010523260033384104,wu,20200129
2020-01-29,12:42,12:42 PM,27.59,27.57,27.58,200,5516.0,4,27.595,27.565,27.58,8245,227393.85,61,27.59,27.57,27.59,27.565,0.0004715783364166621,0.0007983162783946028,wu,20200129
2020-01-29,12:43,12:43 PM,27.565,27.565,27.565,400,11026.0,2,27.57,27.563,27.566,2098,57833.2582,13,27.565,27.565,27.565,27.565,-7.255051329484135e-05,0.0002902968285071166,wu,20200129
2020-01-29,12:44,12:44 PM,27.56,27.54,27.559,104,2866.16,2,27.565,27.545,27.555,4280,117937.835,31,27.56,27.54,27.565,27.545,-0.00029020205317949427,-0.00010886131069018484,wu,20200129
2020-01-29,12:45,12:45 PM,27.545,27.545,27.545,100,2754.5,1,27.55,27.54,27.547,1775,48895.735,17,27.545,27.545,27.55,27.54,-0.0007980556462436415,-0.0003991581391973014,wu,20200129
2020-01-29,12:46,12:46 PM,27.545,27.54,27.543,200,5508.5,2,27.55,27.54,27.546,2626,72336.3,25,27.54,27.545,27.54,27.545,-0.0008706061595386117,-0.00043544524276073937,wu,20200129
2020-01-29,12:47,12:47 PM,27.545,27.545,27.545,100,2754.5,1,27.55,27.54,27.544,900,24790.0,8,27.545,27.545,27.54,27.545,-0.0007980556462436415,-0.0005080194498874863,wu,20200129
2020-01-29,12:48,12:48 PM,27.585,27.545,27.558,600,16535.0,4,27.59,27.545,27.567,25416,700636.49,127,27.545,27.585,27.545,27.56,-0.0003264773098269794,0.0003265839320705545,wu,20200129
2020-01-29,12:49,12:49 PM,,,,0,0.0,0,27.565,27.56,27.564,1201,33104.065,12,,,27.56,27.56,,0.00021772262138036968,wu,20200129
2020-01-29,12:50,12:50 PM,27.57,27.565,27.567,626,17256.82,6,27.58,27.565,27.569,4556,125604.92,31,27.565,27.57,27.57,27.575,0.0,0.0003991581391973014,wu,20200129
2020-01-29,12:51,12:51 PM,,,,0,0.0,0,27.58,27.57,27.576,2100,57910.5,15,,,27.58,27.58,,0.000653167864141109,wu,20200129
2020-01-29,12:52,12:52 PM,,,,0,0.0,0,27.58,27.57,27.58,26900,741892.0,17,,,27.575,27.58,,0.0007983162783946028,wu,20200129
2020-01-29,12:53,12:53 PM,27.575,27.575,27.575,100,2757.5,1,27.58,27.57,27.574,2404,66288.78,15,27.575,27.575,27.575,27.57,0.00029020205317949427,0.0005805936570143621,wu,20200129
2020-01-29,12:54,12:54 PM,27.57,27.57,27.57,400,11028.0,4,27.57,27.56,27.569,9018,248615.26,65,27.57,27.57,27.57,27.565,0.00010882576994232646,0.0003991581391973014,wu,20200129
2020-01-29,12:55,12:55 PM,27.565,27.565,27.565,200,5513.0,2,27.57,27.56,27.564,2233,61551.645,15,27.565,27.565,27.56,27.565,-7.255051329484135e-05,0.00021772262138036968,wu,20200129
2020-01-29,12:56,12:56 PM,27.56,27.55,27.555,200,5511.0,2,27.565,27.55,27.559,3100,85433.0,24,27.56,27.55,27.565,27.56,-0.00043530307976930586,3.6287103563437916e-05,wu,20200129
2020-01-29,12:57,12:57 PM,27.545,27.545,27.545,100,2754.5,1,27.555,27.54,27.547,4270,117623.79,31,27.545,27.545,27.55,27.545,-0.0007980556462436415,-0.0003991581391973014,wu,20200129
2020-01-29,12:58,12:58 PM,27.55,27.545,27.546,500,13773.0,5,27.56,27.54,27.549,4860,133891.0,26,27.545,27.55,27.54,27.56,-0.0007617803895962852,-0.0003265839320705545,wu,20200129
2020-01-29,12:59,12:59 PM,27.565,27.555,27.561,400,11024.5,4,27.57,27.555,27.564,3985,109842.535,33,27.555,27.565,27.56,27.565,-0.00021765153988465293,0.00021772262138036968,wu,20200129
2020-01-29,13:00,1 PM,27.575,27.575,27.575,1,27.575,1,27.57,27.56,27.565,3317,91434.19,20,27.575,27.575,27.56,27.57,0.00029020205317949427,0.0002540097249438076,wu,20200129
2020-01-29,13:01,1:01 PM,,,,0,0.0,0,27.58,27.57,27.576,1020,28127.62,9,,,27.57,27.571,,0.000653167864141109,wu,20200129
2020-01-29,13:02,1:02 PM,27.575,27.575,27.575,100,2757.5,1,27.575,27.57,27.573,700,19301.0,6,27.575,27.575,27.57,27.575,0.00029020205317949427,0.0005443065534509241,wu,20200129
2020-01-29,13:03,1:03 PM,27.575,27.575,27.575,100,2757.5,1,27.58,27.575,27.578,700,19304.5,5,27.575,27.575,27.575,27.58,0.00029020205317949427,0.0007257420712678559,wu,20200129
2020-01-29,13:04,1:04 PM,27.585,27.585,27.585,202,5572.17,5,27.59,27.57,27.58,9434,260188.72,60,27.585,27.585,27.58,27.57,0.0006529546196539588,0.0007983162783946028,wu,20200129
2020-01-29,13:05,1:05 PM,,,,0,0.0,0,27.58,27.57,27.576,1900,52395.5,17,,,27.57,27.58,,0.000653167864141109,wu,20200129
2020-01-29,13:06,1:06 PM,27.57,27.57,27.57,100,2757.0,2,27.58,27.565,27.57,5064,139614.98,33,27.57,27.57,27.58,27.57,0.00010882576994232646,0.00043544524276073937,wu,20200129
2020-01-29,13:07,1:07 PM,,,,0,0.0,0,27.57,27.56,27.565,2336,64391.84,19,,,27.565,27.57,,0.0002540097249438076,wu,20200129
2020-01-29,13:08,1:08 PM,27.57,27.57,27.57,25,689.25,1,27.57,27.565,27.569,700,19298.5,6,27.57,27.57,27.565,27.57,0.00010882576994232646,0.0003991581391973014,wu,20200129
2020-01-29,13:09,1:09 PM,,,,0,0.0,0,27.57,27.565,27.567,500,13783.5,5,,,27.57,27.565,,0.0003265839320705545,wu,20200129
2020-01-29,13:10,1:10 PM,27.57,27.565,27.567,177,4879.39,4,27.57,27.56,27.567,1500,41350.0,15,27.565,27.57,27.565,27.57,0.0,0.0003265839320705545,wu,20200129
2020-01-29,13:11,1:11 PM,27.58,27.565,27.572,202,5569.64,4,27.58,27.565,27.571,3361,92665.27,24,27.565,27.58,27.57,27.58,0.00018137628323716782,0.0004717323463241773,wu,20200129
2020-01-29,13:12,1:12 PM,27.585,27.58,27.583,300,8275.0,3,27.585,27.58,27.581,5459,150565.585,41,27.585,27.585,27.58,27.58,0.0005804041063589885,0.0008346033819580408,wu,20200129
2020-01-29,13:13,1:13 PM,27.585,27.585,27.585,100,2758.5,1,27.59,27.585,27.587,1960,54071.4,17,27.585,27.585,27.585,27.585,0.0006529546196539588,0.0010523260033384104,wu,20200129
2020-01-29,13:14,1:14 PM,27.595,27.59,27.595,161,4442.79,4,27.595,27.58,27.589,5402,149037.18,46,27.59,27.595,27.59,27.585,0.0010157071861282944,0.0011249002104651573,wu,20200129
2020-01-29,13:15,1:15 PM,,,,0,0.0,0,27.59,27.585,27.586,2496,68855.66,22,,,27.585,27.59,,0.0010160388997749726,wu,20200129
2020-01-29,13:16,1:16 PM,27.6,27.6,27.6,264,7286.4,3,27.6,27.585,27.596,3019,83313.47,24,27.6,27.6,27.59,27.6,0.0011970834693655911,0.001378909935408965,wu,20200129
2020-01-29,13:17,1:17 PM,27.61,27.605,27.608,300,8282.5,3,27.61,27.6,27.605,3250,89718.0,25,27.605,27.61,27.6,27.605,0.0014872855225450854,0.0017054938674795194,wu,20200129
2020-01-29,13:18,1:18 PM,27.62,27.61,27.615,1074,29658.38,8,27.63,27.605,27.616,17411,480819.655,104,27.61,27.62,27.61,27.63,0.0017412123190770946,0.002104652006676821,wu,20200129
2020-01-29,13:19,1:19 PM,27.635,27.61,27.62,300,8286.0,4,27.635,27.61,27.622,8172,225723.362,60,27.635,27.61,27.63,27.61,0.0019225886023143913,0.0023223746280571903,wu,20200129
2020-01-29,13:20,1:20 PM,,,,0,0.0,0,27.61,27.6,27.605,4021,111000.205,34,,,27.605,27.6,,0.0017054938674795194,wu,20200129
2020-01-29,13:21,1:21 PM,,,,0,0.0,0,27.61,27.6,27.606,1375,37958.0,10,,,27.605,27.6,,0.0017417809710429575,wu,20200129
2020-01-29,13:22,1:22 PM,27.605,27.605,27.605,9,248.445,1,27.61,27.6,27.606,1500,41409.5,14,27.605,27.605,27.605,27.61,0.001378459752602759,0.0017417809710429575,wu,20200129
2020-01-29,13:23,1:23 PM,,,,0,0.0,0,27.605,27.605,27.605,500,13802.5,5,,,27.605,27.605,,0.0017054938674795194,wu,20200129
2020-01-29,13:24,1:24 PM,27.61,27.61,27.61,100,2761.0,1,27.61,27.6,27.607,1600,44171.5,15,27.61,27.61,27.605,27.61,0.0015598360358399267,0.0017780680746062663,wu,20200129
2020-01-29,13:25,1:25 PM,27.61,27.61,27.61,399,11016.39,4,27.61,27.6,27.604,2000,55207.5,16,27.61,27.61,27.61,27.605,0.0015598360358399267,0.0016692067639160816,wu,20200129
2020-01-29,13:26,1:26 PM,27.605,27.605,27.605,200,5521.0,2,27.61,27.6,27.606,2529,69814.88,21,27.605,27.605,27.6,27.6,0.001378459752602759,0.0017417809710429575,wu,20200129
2020-01-29,13:27,1:27 PM,27.62,27.61,27.615,800,22092.0,6,27.62,27.6,27.613,8203,226513.588,49,27.61,27.62,27.6,27.615,0.0017412123190770946,0.001995790695986636,wu,20200129
2020-01-29,13:28,1:28 PM,,,,0,0.0,0,27.62,27.615,27.616,400,11046.5,4,,,27.62,27.615,,0.002104652006676821,wu,20200129
2020-01-29,13:29,1:29 PM,27.635,27.63,27.631,700,19341.5,2,27.64,27.62,27.629,6776,187217.395,42,27.63,27.635,27.62,27.635,0.002321616425436212,0.002576384353000998,wu,20200129
2020-01-29,13:30,1:30 PM,27.63,27.61,27.62,600,16572.0,8,27.64,27.61,27.624,12408,342758.81,83,27.63,27.615,27.635,27.625,0.0019225886023143913,0.0023949488351839377,wu,20200129
2020-01-29,13:31,1:31 PM,27.62,27.61,27.615,200,5523.0,3,27.62,27.605,27.616,3959,109331.07,28,27.62,27.61,27.62,27.61,0.0017412123190770946,0.002104652006676821,wu,20200129
2020-01-29,13:32,1:32 PM,,,,0,0.0,0,27.62,27.603,27.613,2813,77675.3148,21,,,27.603,27.62,,0.001995790695986636,wu,20200129
2020-01-29,13:33,1:33 PM,,,,0,0.0,0,27.63,27.61,27.621,2174,60047.38,20,,,27.62,27.625,,0.0022860875244937527,wu,20200129
2020-01-29,13:34,1:34 PM,27.63,27.625,27.628,200,5525.5,2,27.63,27.62,27.628,2611,72137.43,22,27.625,27.63,27.63,27.63,0.0022127906554938854,0.0025400972494375603,wu,20200129
2020-01-29,13:35,1:35 PM,27.63,27.63,27.63,100,2763.0,1,27.63,27.62,27.624,1452,40109.56,13,27.63,27.63,27.62,27.625,0.0022853411687887267,0.0023949488351839377,wu,20200129
2020-01-29,13:36,1:36 PM,27.635,27.635,27.635,160,4421.6,2,27.635,27.625,27.631,2200,60787.5,21,27.635,27.635,27.625,27.63,0.0024667174520260236,0.0026489585601277453,wu,20200129
2020-01-29,13:37,1:37 PM,27.64,27.64,27.64,100,2764.0,1,27.64,27.635,27.639,3869,106935.415,19,27.64,27.64,27.635,27.635,0.0026480937352631913,0.0029392553886348617,wu,20200129
2020-01-29,13:38,1:38 PM,27.64,27.64,27.64,10,276.4,1,27.645,27.63,27.639,1591,43973.74,15,27.64,27.64,27.635,27.645,0.0026480937352631913,0.0029392553886348617,wu,20200129
2020-01-29,13:39,1:39 PM,27.65,27.65,27.65,200,5530.0,2,27.65,27.64,27.646,2896,80062.9,27,27.65,27.65,27.645,27.65,0.003010846301737527,0.0031932651135786693,wu,20200129
2020-01-29,13:40,1:40 PM,,,,0,0.0,0,27.655,27.645,27.65,2810,77697.5,22,,,27.65,27.655,,0.003338413527832163,wu,20200129
2020-01-29,13:41,1:41 PM,27.655,27.645,27.651,648,17918.2,7,27.66,27.645,27.651,17373,480389.89,101,27.655,27.655,27.655,27.655,0.003047121558385012,0.003374700631395601,wu,20200129
2020-01-29,13:42,1:42 PM,27.65,27.645,27.646,400,11058.5,5,27.66,27.645,27.651,5879,162557.85,41,27.65,27.645,27.655,27.655,0.0028657452751478445,0.003374700631395601,wu,20200129
2020-01-29,13:43,1:43 PM,27.655,27.655,27.655,200,5531.0,2,27.655,27.65,27.651,5168,142902.43,36,27.655,27.655,27.655,27.655,0.0031922225849748236,0.003374700631395601,wu,20200129
2020-01-29,13:44,1:44 PM,27.655,27.655,27.655,200,5531.0,2,27.66,27.655,27.655,4966,137335.23,43,27.655,27.655,27.655,27.655,0.0031922225849748236,0.003519849045649224,wu,20200129
2020-01-29,13:45,1:45 PM,27.655,27.65,27.654,500,13827.0,5,27.66,27.65,27.655,6252,172897.584,52,27.655,27.655,27.655,27.65,0.0031559473283273385,0.003519849045649224,wu,20200129
2020-01-29,13:46,1:46 PM,27.655,27.65,27.652,300,8295.5,4,27.655,27.64,27.649,7731,213755.625,53,27.65,27.655,27.65,27.645,0.003083396815032497,0.0033021264242688543,wu,20200129
2020-01-29,13:47,1:47 PM,27.645,27.635,27.638,449,12409.615,5,27.645,27.635,27.639,5403,149332.675,49,27.645,27.635,27.64,27.635,0.00257554322196835,0.0029392553886348617,wu,20200129
2020-01-29,13:48,1:48 PM,27.635,27.635,27.635,147,4062.345,1,27.64,27.63,27.636,2947,81443.845,25,27.635,27.635,27.64,27.63,0.0024667174520260236,0.0028303940779446767,wu,20200129
2020-01-29,13:49,1:49 PM,27.64,27.635,27.638,301,8319.14,4,27.65,27.635,27.64,10648,294308.72,53,27.64,27.635,27.64,27.64,0.00257554322196835,0.0029755424921982998,wu,20200129
2020-01-29,13:50,1:50 PM,27.64,27.635,27.638,300,8291.5,3,27.64,27.63,27.637,1749,48337.825,14,27.64,27.64,27.64,27.635,0.00257554322196835,0.002866681181508115,wu,20200129
2020-01-29,13:51,1:51 PM,27.63,27.615,27.622,200,5524.5,2,27.635,27.605,27.621,7970,220140.95,63,27.63,27.615,27.635,27.605,0.0019951391156092326,0.0022860875244937527,wu,20200129
2020-01-29,13:52,1:52 PM,27.605,27.605,27.605,125,3450.625,3,27.61,27.6,27.606,2505,69153.05,20,27.605,27.605,27.605,27.6,0.001378459752602759,0.0017417809710429575,wu,20200129
2020-01-29,13:53,1:53 PM,,,,0,0.0,0,27.605,27.6,27.604,700,19322.5,7,,,27.605,27.605,,0.0016692067639160816,wu,20200129
2020-01-29,13:54,1:54 PM,27.605,27.595,27.602,400,11041.0,4,27.605,27.595,27.601,10500,289806.0,66,27.605,27.605,27.605,27.605,0.0012696339826604325,0.0015603454532258968,wu,20200129
2020-01-29,13:55,1:55 PM,,,,0,0.0,0,27.61,27.6,27.606,1103,30449.315,11,,,27.61,27.61,,0.0017417809710429575,wu,20200129
2020-01-29,13:56,1:56 PM,27.62,27.61,27.615,200,5523.0,2,27.63,27.605,27.615,13699,378300.025,78,27.61,27.62,27.61,27.615,0.0017412123190770946,0.002068364903113383,wu,20200129
2020-01-29,13:57,1:57 PM,,,,0,0.0,0,27.62,27.615,27.616,700,19331.5,5,,,27.615,27.62,,0.002104652006676821,wu,20200129
2020-01-29,13:58,1:58 PM,27.61,27.605,27.607,610,16840.565,8,27.615,27.6,27.61,7711,212898.435,56,27.61,27.605,27.615,27.61,0.0014510102658976004,0.0018869293852964513,wu,20200129
2020-01-29,13:59,1:59 PM,27.605,27.56,27.587,1032,28470.36,11,27.6,27.545,27.581,9695,267403.605,72,27.6,27.56,27.6,27.545,0.0007255051329488002,0.0008346033819580408,wu,20200129
2020-01-29,14:00,2 PM,27.545,27.545,27.545,300,8263.5,1,27.59,27.54,27.563,7371,203170.33,53,27.545,27.545,27.545,27.58,-0.0007980556462436415,0.00018143551781693175,wu,20200129
2020-01-29,14:01,2:01 PM,27.585,27.58,27.583,300,8275.0,3,27.59,27.58,27.585,1355,37377.175,13,27.585,27.585,27.585,27.585,0.0005804041063589885,0.0009797517962116635,wu,20200129
2020-01-29,14:02,2:02 PM,,,,0,0.0,0,27.6,27.585,27.593,3538,97622.65,27,,,27.59,27.595,,0.0012700486247187801,wu,20200129
2020-01-29,14:03,2:03 PM,27.595,27.595,27.595,100,2759.5,1,27.61,27.595,27.601,5313,146642.3,34,27.595,27.595,27.595,27.61,0.0010157071861282944,0.0015603454532258968,wu,20200129
2020-01-29,14:04,2:04 PM,27.625,27.625,27.625,200,5525.0,2,27.63,27.605,27.617,9202,254131.27,69,27.625,27.625,27.61,27.625,0.002103964885551559,0.002140939110240259,wu,20200129
2020-01-29,14:05,2:05 PM,,,,0,0.0,0,27.63,27.62,27.625,2633,72735.515,23,,,27.62,27.625,,0.0024312359387473753,wu,20200129
2020-01-29,14:06,2:06 PM,27.63,27.63,27.63,2,55.26,1,27.65,27.625,27.635,4916,135852.6,43,27.63,27.63,27.625,27.64,0.0022853411687887267,0.002794106974381368,wu,20200129
2020-01-29,14:07,2:07 PM,27.645,27.64,27.642,300,8292.5,3,27.65,27.635,27.64,6230,172200.7,48,27.645,27.64,27.64,27.635,0.0027206442485580326,0.0029755424921982998,wu,20200129
2020-01-29,14:08,2:08 PM,27.64,27.64,27.64,100,2764.0,1,27.64,27.63,27.634,1600,44215.0,14,27.64,27.64,27.64,27.63,0.0026480937352631913,0.00275781987081793,wu,20200129
2020-01-29,14:09,2:09 PM,27.63,27.63,27.63,90,2486.7,1,27.64,27.625,27.63,4900,135388.03,42,27.63,27.63,27.63,27.63,0.0022853411687887267,0.002612671456564307,wu,20200129
2020-01-29,14:10,2:10 PM,27.63,27.615,27.622,800,22098.0,7,27.63,27.61,27.624,9776,270051.54,68,27.63,27.62,27.63,27.62,0.0019951391156092326,0.0023949488351839377,wu,20200129
2020-01-29,14:11,2:11 PM,27.625,27.625,27.625,100,2762.5,1,27.63,27.62,27.623,2864,79113.96,21,27.625,27.625,27.62,27.63,0.002103964885551559,0.0023586617316206284,wu,20200129
2020-01-29,14:12,2:12 PM,27.625,27.61,27.616,800,22093.0,8,27.625,27.61,27.616,13661,377263.7,91,27.625,27.615,27.62,27.615,0.0017774875757245797,0.002104652006676821,wu,20200129
2020-01-29,14:13,2:13 PM,,,,0,0.0,0,27.62,27.61,27.614,1300,35898.0,11,,,27.615,27.615,,0.002032077799550074,wu,20200129
2020-01-29,14:14,2:14 PM,27.615,27.605,27.61,400,11044.0,4,27.615,27.6,27.61,3903,107760.33,31,27.615,27.605,27.615,27.6,0.0015598360358399267,0.0018869293852964513,wu,20200129
2020-01-29,14:15,2:15 PM,27.61,27.61,27.61,200,5522.0,1,27.61,27.605,27.61,7998,220823.07,43,27.61,27.61,27.605,27.61,0.0015598360358399267,0.0018869293852964513,wu,20200129
2020-01-29,14:16,2:16 PM,27.62,27.61,27.613,400,11045.0,4,27.62,27.605,27.613,4281,118212.4,34,27.62,27.61,27.61,27.61,0.0016686618057822533,0.001995790695986636,wu,20200129
2020-01-29,14:17,2:17 PM,27.615,27.615,27.615,100,2761.5,1,27.615,27.61,27.611,2808,77532.42,24,27.615,27.615,27.615,27.61,0.0017412123190770946,0.0019232164888598891,wu,20200129
2020-01-29,14:18,2:18 PM,27.62,27.61,27.617,300,8285.0,3,27.625,27.61,27.619,9105,251476.32,50,27.61,27.62,27.61,27.625,0.0018137628323720647,0.002213513317367006,wu,20200129
2020-01-29,14:19,2:19 PM,27.625,27.625,27.625,100,2762.5,1,27.63,27.62,27.624,2533,69972.11,21,27.625,27.625,27.625,27.63,0.002103964885551559,0.0023949488351839377,wu,20200129
2020-01-29,14:20,2:20 PM,27.625,27.625,27.625,100,2762.5,1,27.63,27.62,27.627,2301,63568.63,22,27.625,27.625,27.63,27.62,0.002103964885551559,0.0025038101458741222,wu,20200129
2020-01-29,14:21,2:21 PM,27.625,27.61,27.617,800,22093.5,9,27.625,27.61,27.619,7790,215150.8,67,27.62,27.61,27.625,27.61,0.0018137628323720647,0.002213513317367006,wu,20200129
2020-01-29,14:22,2:22 PM,27.62,27.61,27.613,375,10355.0,4,27.62,27.61,27.616,1600,44185.0,14,27.615,27.61,27.615,27.615,0.0016686618057822533,0.002104652006676821,wu,20200129
2020-01-29,14:23,2:23 PM,27.62,27.615,27.618,426,11765.12,5,27.62,27.61,27.618,4020,111023.77,30,27.615,27.62,27.615,27.615,0.001850038089019421,0.0021772262138035677,wu,20200129
2020-01-29,14:24,2:24 PM,27.615,27.615,27.615,100,2761.5,1,27.62,27.61,27.614,1900,52466.0,19,27.615,27.615,27.61,27.615,0.0017412123190770946,0.002032077799550074,wu,20200129
2020-01-29,14:25,2:25 PM,27.62,27.61,27.614,483,13337.77,7,27.63,27.61,27.618,5456,150682.7687,42,27.61,27.62,27.61,27.625,0.0017049370624297384,0.0021772262138035677,wu,20200129
2020-01-29,14:26,2:26 PM,,,,0,0.0,0,27.63,27.62,27.625,3100,85639.0,29,,,27.625,27.625,,0.0024312359387473753,wu,20200129
2020-01-29,14:27,2:27 PM,27.62,27.605,27.609,1000,27609.0,9,27.62,27.6,27.612,7900,218134.015,67,27.62,27.605,27.62,27.61,0.0015235607791925705,0.001959503592423198,wu,20200129
2020-01-29,14:28,2:28 PM,27.62,27.61,27.611,159,4390.23,3,27.62,27.605,27.611,6617,182702.37,40,27.61,27.62,27.61,27.61,0.0015961112924874118,0.0019232164888598891,wu,20200129
2020-01-29,14:29,2:29 PM,27.615,27.615,27.615,100,2761.5,1,27.62,27.61,27.615,4032,111345.3397,35,27.615,27.615,27.61,27.615,0.0017412123190770946,0.002068364903113383,wu,20200129
2020-01-29,14:30,2:30 PM,,,,0,0.0,0,27.62,27.61,27.614,4900,135309.5,41,,,27.615,27.61,,0.002032077799550074,wu,20200129
2020-01-29,14:31,2:31 PM,27.615,27.61,27.613,200,5522.5,2,27.615,27.61,27.613,2505,69171.075,21,27.61,27.615,27.61,27.615,0.0016686618057822533,0.001995790695986636,wu,20200129
2020-01-29,14:32,2:32 PM,27.625,27.62,27.622,200,5524.5,2,27.63,27.615,27.62,10374,286535.38,60,27.62,27.625,27.615,27.625,0.0019951391156092326,0.0022498004209304434,wu,20200129
2020-01-29,14:33,2:33 PM,27.63,27.62,27.625,366,10110.92,3,27.63,27.62,27.625,4866,134421.145,45,27.62,27.63,27.625,27.63,0.002103964885551559,0.0024312359387473753,wu,20200129
2020-01-29,14:34,2:34 PM,27.635,27.635,27.635,101,2791.135,2,27.65,27.63,27.636,6033,166728.98,43,27.635,27.635,27.63,27.645,0.0024667174520260236,0.0028303940779446767,wu,20200129
2020-01-29,14:35,2:35 PM,27.64,27.62,27.632,550,15197.5,9,27.645,27.61,27.629,13310,367741.165,97,27.64,27.62,27.64,27.625,0.0023578916820836972,0.002576384353000998,wu,20200129
2020-01-29,14:36,2:36 PM,27.625,27.625,27.625,200,5525.0,2,27.63,27.615,27.622,10143,280174.62,66,27.625,27.625,27.625,27.625,0.002103964885551559,0.0023223746280571903,wu,20200129
2020-01-29,14:37,2:37 PM,,,,0,0.0,0,27.63,27.625,27.627,600,16576.0,6,,,27.625,27.625,,0.0025038101458741222,wu,20200129
2020-01-29,14:38,2:38 PM,27.625,27.625,27.625,100,2762.5,1,27.625,27.62,27.622,1400,38671.0,14,27.625,27.625,27.625,27.625,0.002103964885551559,0.0023223746280571903,wu,20200129
2020-01-29,14:39,2:39 PM,27.63,27.62,27.626,900,24863.5,8,27.635,27.62,27.627,8061,222704.4414,63,27.625,27.63,27.625,27.625,0.002140240142199044,0.0025038101458741222,wu,20200129
2020-01-29,14:40,2:40 PM,,,,0,0.0,0,27.63,27.62,27.628,400,11051.0,4,,,27.62,27.63,,0.0025400972494375603,wu,20200129
2020-01-29,14:41,2:41 PM,27.62,27.61,27.618,123,3397.03,3,27.62,27.61,27.614,11313,312396.76,75,27.62,27.61,27.62,27.61,0.001850038089019421,0.002032077799550074,wu,20200129
2020-01-29,14:42,2:42 PM,27.61,27.6,27.605,600,16563.0,6,27.615,27.595,27.606,6126,169114.08,52,27.605,27.61,27.605,27.615,0.001378459752602759,0.0017417809710429575,wu,20200129
2020-01-29,14:43,2:43 PM,27.61,27.56,27.587,900,24828.0,9,27.615,27.56,27.575,18237,502882.85,97,27.61,27.565,27.61,27.565,0.0007255051329488002,0.0006168807605776711,wu,20200129
2020-01-29,14:44,2:44 PM,27.58,27.56,27.575,636,17537.99,11,27.585,27.56,27.573,32463,895109.875,207,27.56,27.57,27.565,27.56,0.00029020205317949427,0.0005443065534509241,wu,20200129
2020-01-29,14:45,2:45 PM,27.56,27.56,27.56,300,8268.0,2,27.565,27.56,27.561,5887,162250.72,34,27.56,27.56,27.56,27.565,-0.00025392679653213807,0.00010886131069018484,wu,20200129
2020-01-29,14:46,2:46 PM,,,,0,0.0,0,27.565,27.56,27.562,1644,45312.3848,16,,,27.56,27.56,,0.00014514841425362275,wu,20200129
2020-01-29,14:47,2:47 PM,27.565,27.56,27.565,102,2811.62,2,27.565,27.56,27.562,1986,54737.5,18,27.565,27.56,27.565,27.565,-7.255051329484135e-05,0.00014514841425362275,wu,20200129
2020-01-29,14:48,2:48 PM,27.565,27.55,27.558,1002,27613.62,13,27.59,27.55,27.564,14859,409573.815,95,27.56,27.56,27.56,27.585,-0.0003264773098269794,0.00021772262138036968,wu,20200129
2020-01-29,14:49,2:49 PM,27.585,27.575,27.581,408,11253.115,5,27.595,27.57,27.58,10302,284127.7,64,27.585,27.58,27.585,27.595,0.0005078535930641472,0.0007983162783946028,wu,20200129
2020-01-29,14:50,2:50 PM,,,,0,0.0,0,27.6,27.59,27.594,2300,63467.0,21,,,27.595,27.59,,0.001306335728282218,wu,20200129
2020-01-29,14:51,2:51 PM,27.59,27.59,27.59,300,8277.0,2,27.6,27.58,27.591,8307,229195.6,56,27.59,27.59,27.59,27.595,0.0008343309028911267,0.0011974744175920332,wu,20200129
2020-01-29,14:52,2:52 PM,27.59,27.585,27.588,397,10952.395,6,27.595,27.58,27.587,7646,210930.8372,52,27.59,27.585,27.595,27.59,0.0007617803895962852,0.0010523260033384104,wu,20200129
2020-01-29,14:53,2:53 PM,27.585,27.575,27.578,705,19442.9,11,27.59,27.575,27.581,6227,171745.16,51,27.58,27.58,27.585,27.585,0.00039902782312182074,0.0008346033819580408,wu,20200129
2020-01-29,14:54,2:54 PM,27.585,27.585,27.585,100,2758.5,1,27.59,27.58,27.584,4018,110834.53,32,27.585,27.585,27.585,27.585,0.0006529546196539588,0.0009434646926482256,wu,20200129
2020-01-29,14:55,2:55 PM,27.58,27.58,27.58,100,2758.0,1,27.59,27.58,27.584,2900,79994.5,25,27.58,27.58,27.59,27.585,0.0004715783364166621,0.0009434646926482256,wu,20200129
2020-01-29,14:56,2:56 PM,27.585,27.58,27.584,600,16550.5,6,27.59,27.58,27.586,4923,135806.34,46,27.58,27.585,27.585,27.585,0.0006166793630064737,0.0010160388997749726,wu,20200129
2020-01-29,14:57,2:57 PM,27.595,27.58,27.589,600,16553.5,5,27.6,27.58,27.588,14007,386423.37,74,27.58,27.595,27.59,27.595,0.0007980556462436415,0.0010886131069018483,wu,20200129
2020-01-29,14:58,2:58 PM,27.6,27.6,27.6,57,1573.2,1,27.6,27.59,27.595,3843,106047.085,28,27.6,27.6,27.595,27.595,0.0011970834693655911,0.001342622831845527,wu,20200129
2020-01-29,14:59,2:59 PM,27.6,27.585,27.593,1300,35870.5,9,27.6,27.585,27.591,11575,319371.53,81,27.6,27.585,27.595,27.585,0.000943156672833453,0.0011974744175920332,wu,20200129
2020-01-29,15:00,3 PM,27.59,27.575,27.581,1000,27580.5,7,27.59,27.575,27.583,11642,321123.6242,79,27.59,27.575,27.59,27.575,0.0005078535930641472,0.0009071775890847877,wu,20200129
2020-01-29,15:01,3:01 PM,27.585,27.57,27.58,420,11583.56,6,27.59,27.575,27.581,8532,235323.06,68,27.58,27.575,27.575,27.575,0.0004715783364166621,0.0008346033819580408,wu,20200129
2020-01-29,15:02,3:02 PM,27.57,27.555,27.558,516,14219.84,11,27.57,27.55,27.56,8562,235969.72,67,27.57,27.555,27.57,27.555,-0.0003264773098269794,7.257420712674692e-05,wu,20200129
2020-01-29,15:03,3:03 PM,27.55,27.54,27.546,1425,39253.585,23,27.555,27.54,27.548,11747,323605.651,77,27.55,27.55,27.55,27.55,-0.0007617803895962852,-0.0003628710356339924,wu,20200129
2020-01-29,15:04,3:04 PM,27.555,27.545,27.554,914,25184.205,18,27.56,27.54,27.552,5273,145284.65,44,27.545,27.555,27.55,27.555,-0.00047157833641679097,-0.00021772262138036968,wu,20200129
2020-01-29,15:05,3:05 PM,27.565,27.55,27.559,832,22929.41,16,27.57,27.555,27.561,11095,305788.54,74,27.555,27.565,27.555,27.565,-0.00029020205317949427,0.00010886131069018484,wu,20200129
2020-01-29,15:06,3:06 PM,27.575,27.56,27.57,738,20347.075,17,27.58,27.56,27.568,8592,236864.872,70,27.57,27.565,27.57,27.565,0.00010882576994232646,0.0003628710356339924,wu,20200129
2020-01-29,15:07,3:07 PM,27.565,27.55,27.561,827,22792.645,11,27.57,27.54,27.556,12288,338608.8496,79,27.565,27.56,27.565,27.56,-0.00021765153988465293,-7.257420712674692e-05,wu,20200129
2020-01-29,15:08,3:08 PM,27.57,27.56,27.563,376,10363.56,6,27.57,27.555,27.563,4904,135168.28,43,27.56,27.57,27.56,27.565,-0.0001451010265898116,0.00018143551781693175,wu,20200129
2020-01-29,15:09,3:09 PM,27.575,27.57,27.57,203,5596.715,5,27.58,27.565,27.573,3152,86911.64,28,27.57,27.575,27.565,27.58,0.00010882576994232646,0.0005443065534509241,wu,20200129
2020-01-29,15:10,3:10 PM,27.575,27.56,27.572,815,22470.92,12,27.58,27.56,27.57,10251,282617.11,70,27.575,27.565,27.58,27.56,0.00018137628323716782,0.00043544524276073937,wu,20200129
2020-01-29,15:11,3:11 PM,27.57,27.56,27.569,419,11551.31,7,27.58,27.56,27.567,9923,273543.43,75,27.565,27.57,27.56,27.575,7.255051329484135e-05,0.0003265839320705545,wu,20200129
2020-01-29,15:12,3:12 PM,27.575,27.57,27.574,400,11029.5,4,27.58,27.57,27.573,7824,215735.505,63,27.575,27.57,27.575,27.575,0.00025392679653213807,0.0005443065534509241,wu,20200129
2020-01-29,15:13,3:13 PM,27.57,27.545,27.547,1400,38565.5,8,27.57,27.54,27.556,15994,440738.75,103,27.57,27.545,27.57,27.545,-0.0007255051329488002,-7.257420712674692e-05,wu,20200129
2020-01-29,15:14,3:14 PM,27.555,27.545,27.546,1700,46828.0,15,27.56,27.54,27.545,22081,608218.075,162,27.545,27.555,27.545,27.555,-0.0007617803895962852,-0.00047173234632404837,wu,20200129
2020-01-29,15:15,3:15 PM,27.56,27.55,27.555,1112,30641.66,11,27.56,27.55,27.553,8538,235251.3925,62,27.56,27.555,27.555,27.555,-0.00043530307976930586,-0.00018143551781693175,wu,20200129
2020-01-29,15:16,3:16 PM,27.565,27.555,27.557,610,16809.65,6,27.57,27.55,27.56,8463,233240.28,60,27.555,27.565,27.555,27.565,-0.0003627525664744645,7.257420712674692e-05,wu,20200129
2020-01-29,15:17,3:17 PM,27.565,27.56,27.565,414,11411.9,8,27.57,27.56,27.565,4318,119025.08,37,27.565,27.565,27.57,27.565,-7.255051329484135e-05,0.0002540097249438076,wu,20200129
2020-01-29,15:18,3:18 PM,27.565,27.545,27.548,2935,80854.155,24,27.565,27.54,27.553,17268,475781.615,100,27.56,27.545,27.56,27.545,-0.0006892298763014439,-0.00018143551781693175,wu,20200129
2020-01-29,15:19,3:19 PM,27.565,27.54,27.549,406,11184.77,9,27.57,27.54,27.55,13805,380329.41,85,27.545,27.565,27.545,27.565,-0.0006529546196539588,-0.0002902968285071166,wu,20200129
2020-01-29,15:20,3:20 PM,27.565,27.545,27.549,721,19863.09,27,27.565,27.54,27.551,14940,411618.01,109,27.565,27.545,27.565,27.54,-0.0006529546196539588,-0.0002540097249438076,wu,20200129
2020-01-29,15:21,3:21 PM,27.545,27.535,27.54,230,6334.3,18,27.545,27.535,27.54,8500,234086.865,62,27.545,27.54,27.54,27.54,-0.0009794319294809382,-0.000653167864141109,wu,20200129
2020-01-29,15:22,3:22 PM,27.535,27.525,27.525,378,10404.62,22,27.535,27.52,27.528,5537,152420.435,47,27.535,27.525,27.53,27.525,-0.0015235607791925705,-0.0010886131069018483,wu,20200129
2020-01-29,15:23,3:23 PM,27.525,27.51,27.518,403,11089.595,19,27.53,27.505,27.517,9664,265923.97,76,27.525,27.515,27.53,27.51,-0.0017774875757245797,-0.0014877712460991499,wu,20200129
2020-01-29,15:24,3:24 PM,27.525,27.505,27.513,483,13288.785,14,27.535,27.505,27.521,15346,422343.605,86,27.51,27.525,27.51,27.52,-0.0019588638589617476,-0.001342622831845527,wu,20200129
2020-01-29,15:25,3:25 PM,27.54,27.515,27.529,248,6827.14,5,27.54,27.515,27.529,7415,204129.64,55,27.515,27.535,27.52,27.54,-0.001378459752602759,-0.0010523260033384104,wu,20200129
2020-01-29,15:26,3:26 PM,27.545,27.545,27.545,20,550.9,1,27.55,27.535,27.543,3401,93674.125,27,27.545,27.545,27.54,27.55,-0.0007980556462436415,-0.0005443065534509241,wu,20200129
2020-01-29,15:27,3:27 PM,27.545,27.54,27.541,400,11016.5,4,27.545,27.54,27.541,3269,90031.76,26,27.545,27.54,27.54,27.545,-0.000943156672833453,-0.0006168807605776711,wu,20200129
2020-01-29,15:28,3:28 PM,27.55,27.545,27.547,403,11101.635,5,27.56,27.545,27.552,9878,272161.61,73,27.55,27.55,27.545,27.555,-0.0007255051329488002,-0.00021772262138036968,wu,20200129
2020-01-29,15:29,3:29 PM,27.555,27.54,27.541,137,3773.1,4,27.555,27.53,27.546,15462,425909.17,99,27.555,27.54,27.555,27.535,-0.000943156672833453,-0.00043544524276073937,wu,20200129
2020-01-29,15:30,3:30 PM,27.535,27.525,27.529,476,13103.76,10,27.54,27.525,27.53,7533,207381.49,56,27.535,27.525,27.54,27.53,-0.001378459752602759,-0.0010160388997749726,wu,20200129
2020-01-29,15:31,3:31 PM,27.54,27.525,27.535,1520,41853.495,13,27.545,27.525,27.535,17404,479214.49,113,27.53,27.535,27.53,27.535,-0.001160808212718106,-0.0008346033819580408,wu,20200129
2020-01-29,15:32,3:32 PM,27.535,27.535,27.535,100,2753.5,1,27.54,27.535,27.538,7137,196540.143,36,27.535,27.535,27.54,27.535,-0.001160808212718106,-0.0007257420712678559,wu,20200129
2020-01-29,15:33,3:33 PM,27.57,27.54,27.553,788,21711.595,10,27.57,27.535,27.553,13756,379017.64,91,27.54,27.57,27.54,27.57,-0.0005078535930641472,-0.00018143551781693175,wu,20200129
2020-01-29,15:34,3:34 PM,27.575,27.565,27.569,1798,49568.36,13,27.58,27.565,27.569,14654,403990.78,88,27.565,27.575,27.565,27.575,7.255051329484135e-05,0.0003991581391973014,wu,20200129
2020-01-29,15:35,3:35 PM,27.57,27.565,27.57,1400,38597.5,6,27.58,27.56,27.571,19842,547070.05,83,27.57,27.565,27.57,27.565,0.00010882576994232646,0.0004717323463241773,wu,20200129
2020-01-29,15:36,3:36 PM,,,,0,0.0,0,27.57,27.56,27.566,4606,126969.475,25,,,27.57,27.565,,0.0002902968285071166,wu,20200129
2020-01-29,15:37,3:37 PM,27.57,27.565,27.566,140,3859.3,5,27.57,27.56,27.563,7637,210496.31,44,27.57,27.57,27.565,27.565,-3.627525664748511e-05,0.00018143551781693175,wu,20200129
2020-01-29,15:38,3:38 PM,27.565,27.545,27.558,1814,49991.24,18,27.57,27.545,27.555,31049,855565.7073,180,27.565,27.56,27.565,27.56,-0.0003264773098269794,-0.00010886131069018484,wu,20200129
2020-01-29,15:39,3:39 PM,27.56,27.555,27.557,396,10912.76,7,27.57,27.555,27.56,10290,283594.605,70,27.56,27.555,27.56,27.565,-0.0003627525664744645,7.257420712674692e-05,wu,20200129
2020-01-29,15:40,3:40 PM,27.565,27.545,27.555,2511,69191.045,13,27.565,27.54,27.555,24527,675840.445,113,27.565,27.545,27.565,27.545,-0.00043530307976930586,-0.00010886131069018484,wu,20200129
2020-01-29,15:41,3:41 PM,27.54,27.54,27.54,200,5508.0,2,27.545,27.54,27.541,3951,108814.82,27,27.54,27.54,27.54,27.545,-0.0009794319294809382,-0.0006168807605776711,wu,20200129
2020-01-29,15:42,3:42 PM,27.555,27.535,27.543,2100,57840.0,16,27.56,27.535,27.543,32018,881882.6952,191,27.545,27.555,27.54,27.555,-0.0008706061595386117,-0.0005443065534509241,wu,20200129
2020-01-29,15:43,3:43 PM,27.56,27.54,27.55,1020,28100.65,8,27.56,27.535,27.546,18288,503767.4,113,27.56,27.54,27.555,27.54,-0.0006166793630064737,-0.00043544524276073937,wu,20200129
2020-01-29,15:44,3:44 PM,27.55,27.535,27.537,807,22222.29,12,27.545,27.535,27.54,8513,234446.12,48,27.535,27.55,27.535,27.545,-0.0010882576994232646,-0.000653167864141109,wu,20200129
2020-01-29,15:45,3:45 PM,27.545,27.54,27.545,1805,49718.225,13,27.55,27.54,27.544,13960,384517.655,92,27.545,27.545,27.545,27.55,-0.0007980556462436415,-0.0005080194498874863,wu,20200129
2020-01-29,15:46,3:46 PM,27.55,27.545,27.546,2060,56744.185,13,27.55,27.54,27.546,26279,723892.935,137,27.545,27.545,27.55,27.55,-0.0007617803895962852,-0.00043544524276073937,wu,20200129
2020-01-29,15:47,3:47 PM,27.545,27.545,27.545,300,8263.5,2,27.55,27.54,27.543,7497,206493.535,54,27.545,27.545,27.545,27.55,-0.0007980556462436415,-0.0005443065534509241,wu,20200129
2020-01-29,15:48,3:48 PM,27.58,27.55,27.565,1420,39141.97,12,27.59,27.545,27.561,63976,1763243.04,242,27.55,27.58,27.545,27.585,-7.255051329484135e-05,0.00010886131069018484,wu,20200129
2020-01-29,15:49,3:49 PM,27.58,27.56,27.567,1613,44465.48,10,27.59,27.56,27.571,29075,801620.895,152,27.58,27.565,27.59,27.565,0.0,0.0004717323463241773,wu,20200129
2020-01-29,15:50,3:50 PM,27.57,27.565,27.565,1760,48515.1,13,27.575,27.56,27.568,35909,989933.31,169,27.565,27.565,27.565,27.56,-7.255051329484135e-05,0.0003628710356339924,wu,20200129
2020-01-29,15:51,3:51 PM,27.565,27.545,27.555,1014,27941.27,8,27.565,27.54,27.55,14715,405396.115,97,27.565,27.545,27.56,27.54,-0.00043530307976930586,-0.0002902968285071166,wu,20200129
2020-01-29,15:52,3:52 PM,27.545,27.54,27.543,1010,27818.9,6,27.55,27.53,27.541,30807,848445.065,158,27.545,27.545,27.545,27.55,-0.0008706061595386117,-0.0006168807605776711,wu,20200129
2020-01-29,15:53,3:53 PM,27.545,27.54,27.545,713,19639.57,7,27.55,27.54,27.544,10962,301942.365,68,27.54,27.545,27.545,27.545,-0.0007980556462436415,-0.0005080194498874863,wu,20200129
2020-01-29,15:54,3:54 PM,27.545,27.51,27.528,1011,27830.405,15,27.545,27.51,27.523,58197,1601731.385,265,27.545,27.52,27.545,27.515,-0.001414735009250244,-0.0012700486247187801,wu,20200129
2020-01-29,15:55,3:55 PM,27.52,27.515,27.519,535,14722.69,6,27.52,27.515,27.52,38737,1066024.5,204,27.52,27.52,27.52,27.52,-0.0017412123190772234,-0.001378909935408965,wu,20200129
2020-01-29,15:56,3:56 PM,27.525,27.515,27.517,622,17115.54,10,27.53,27.515,27.52,30312,834202.45,185,27.515,27.525,27.52,27.53,-0.0018137628323720647,-0.001378909935408965,wu,20200129
2020-01-29,15:57,3:57 PM,27.525,27.5,27.512,3043,83720.43,20,27.53,27.5,27.512,64764,1781819.11,303,27.525,27.51,27.53,27.51,-0.0019951391156092326,-0.0016692067639160816,wu,20200129
2020-01-29,15:58,3:58 PM,27.53,27.51,27.523,1585,43623.965,17,27.53,27.51,27.52,27415,754449.075,173,27.51,27.525,27.51,27.53,-0.0015961112924874118,-0.001378909935408965,wu,20200129
2020-01-29,15:59,3:59 PM,27.535,27.52,27.529,1264,34796.1,10,27.54,27.52,27.526,102249,2814566.39,354,27.525,27.53,27.525,27.52,-0.001378459752602759,-0.0011611873140285952,wu,20200129
