date,minute,label,high,low,average,volume,notional,numberOfTrades,marketHigh,marketLow,marketAverage,marketVolume,marketNotional,marketNumberOfTrades,open,close,marketOpen,marketClose,changeOverTime,marketChangeOverTime,tickerName,tickerDate
2020-01-30,09:30,09:30 AM,63.83,63.73,63.776,1454,92730.16,14,63.84,63.66,63.794,619503,39520823.8034,428,63.74,63.79,63.78,63.807,0.0,0.0,xom,20200130
2020-01-30,09:31,09:31 AM,63.99,63.84,63.909,4861,310662.06,23,64.0,63.78,63.893,121915,7789479.2886,443,63.85,63.91,63.78,63.91,0.0020854239839437337,0.001551870081825936,xom,20200130
2020-01-30,09:32,09:32 AM,63.9,63.78,63.831,2089,133342.61,15,63.93,63.76,63.832,55650,3552236.6765,292,63.865,63.89,63.93,63.88,0.0008623933768188615,0.0005956673041352449,xom,20200130
2020-01-30,09:33,09:33 AM,63.885,63.825,63.843,1621,103489.27,16,63.91,63.81,63.86,64443,4115306.35,221,63.87,63.83,63.87,63.84,0.0010505519317611667,0.001034580054550624,xom,20200130
2020-01-30,09:34,09:34 AM,63.91,63.81,63.845,700,44691.5,7,63.917,63.794,63.835,78383,5003608.6225,278,63.85,63.82,63.85,63.87,0.0010819116909181433,0.0006426936702511823,xom,20200130
2020-01-30,09:35,09:35 AM,64.03,63.855,63.934,1212,77487.555,17,64.05,63.85,63.952,97948,6263941.5863,382,63.855,64.01,63.87,64.01,0.0024774209734068323,0.0024767219487726315,xom,20200130
2020-01-30,09:36,09:36 AM,64.04,63.915,63.976,2509,160515.05,18,64.04,63.91,63.989,34744,2223224.5,173,63.995,63.93,64.0,63.91,0.0031359759157049004,0.003056713797535823,xom,20200130
2020-01-30,09:37,09:37 AM,63.96,63.92,63.942,597,38173.31,10,63.98,63.92,63.943,25175,1609772.9488,154,63.94,63.92,63.92,63.94,0.002602860010035073,0.0023356428504248193,xom,20200130
2020-01-30,09:38,09:38 AM,63.98,63.95,63.966,700,44776.0,7,64.0,63.94,63.964,25507,1631518.5782,130,63.98,63.955,63.94,63.95,0.002979177119919683,0.0026648274132363816,xom,20200130
2020-01-30,09:39,09:39 AM,63.945,63.86,63.891,900,57501.5,9,63.965,63.85,63.906,45280,2893660.8829,223,63.945,63.875,63.945,63.865,0.001803186151530276,0.0017556510016616279,xom,20200130
2020-01-30,09:40,09:40 AM,63.945,63.855,63.926,16846,1076904.115,27,63.945,63.852,63.898,53467,3416449.0777,220,63.865,63.945,63.87,63.93,0.002351981936778703,0.0016302473586858688,xom,20200130
2020-01-30,09:41,09:41 AM,63.945,63.895,63.925,12800,818235.5,38,63.95,63.89,63.913,83239,5320068.4238,410,63.935,63.93,63.935,63.94,0.0023363020572001033,0.0018653791892654446,xom,20200130
2020-01-30,09:42,09:42 AM,64.005,63.935,63.975,3314,212011.86,22,64.02,63.935,63.979,39119,2502809.877,192,63.935,64.0,63.935,63.985,0.003120296036126412,0.0028999592438160686,xom,20200130
2020-01-30,09:43,09:43 AM,64.05,63.95,64.016,1946,124574.94,20,64.06,63.95,64.013,32196,2060953.8838,168,63.995,64.05,64.0,64.05,0.0037631710988459918,0.003432924726463434,xom,20200130
2020-01-30,09:44,09:44 AM,64.105,64.045,64.066,4033,258376.66,36,64.11,64.04,64.069,57726,3698459.1437,264,64.045,64.105,64.05,64.108,0.0045471650777721894,0.0043107502272941925,xom,20200130
2020-01-30,09:45,09:45 AM,64.2,64.115,64.151,4237,271809.72,37,64.205,64.1,64.148,90047,5776318.3065,450,64.13,64.185,64.12,64.185,0.005879954841946702,0.005549111201680397,xom,20200130
2020-01-30,09:46,09:46 AM,64.175,64.075,64.111,1800,115399.0,12,64.18,64.06,64.122,41804,2680574.302,223,64.175,64.075,64.18,64.108,0.005252759658805834,0.005141549362009013,xom,20200130
2020-01-30,09:47,09:47 AM,64.195,64.105,64.153,1404,90070.7,13,64.2,64.105,64.167,30001,1925066.3162,155,64.105,64.175,64.11,64.16,0.005911314601103902,0.005846944853748075,xom,20200130
2020-01-30,09:48,09:48 AM,64.17,64.125,64.153,910,58379.615,12,64.19,64.12,64.159,31828,2042043.9336,160,64.155,64.17,64.16,64.184,0.005911314601103902,0.0057215412107723155,xom,20200130
2020-01-30,09:49,09:49 AM,64.185,64.1,64.118,2901,186007.125,15,64.19,64.09,64.119,51105,3276817.9918,213,64.185,64.1,64.18,64.095,0.005362518815855363,0.005094522995893075,xom,20200130
2020-01-30,09:50,09:50 AM,64.115,64.015,64.082,3705,237422.0,22,64.12,64.0,64.06,86097,5515340.727,394,64.075,64.015,64.1,64.01,0.004798043151028448,0.00416967112894638,xom,20200130
2020-01-30,09:51,09:51 AM,64.015,63.93,63.962,6600,422149.5,34,64.015,63.921,63.956,50920,3256668.7117,209,64.015,63.935,64.005,63.94,0.0029164576016056185,0.0025394237702606225,xom,20200130
2020-01-30,09:52,09:52 AM,63.97,63.915,63.932,6402,409294.83,31,63.975,63.9,63.941,51641,3301966.2422,269,63.955,63.915,63.95,63.92,0.0024460612142498555,0.002304291939680935,xom,20200130
2020-01-30,09:53,09:53 AM,63.965,63.905,63.916,2857,182608.62,16,63.97,63.9,63.927,45615,2916038.509,222,63.91,63.945,63.92,63.945,0.0021951831409933744,0.00208483556447319,xom,20200130
2020-01-30,09:54,09:54 AM,63.92,63.89,63.907,321,20514.19,5,63.97,63.88,63.914,51492,3291055.3438,289,63.89,63.91,63.945,63.915,0.002054064224786646,0.0018810546446374982,xom,20200130
2020-01-30,09:55,09:55 AM,63.94,63.885,63.916,800,51132.5,9,63.96,63.885,63.923,29420,1880628.4374,128,63.91,63.935,63.92,63.952,0.0021951831409933744,0.0020221337429853106,xom,20200130
2020-01-30,09:56,09:56 AM,63.955,63.91,63.928,500,31964.0,5,63.96,63.9,63.925,17987,1149819.9248,109,63.945,63.915,63.95,63.9,0.0023833416959356795,0.0020534846537291944,xom,20200130
2020-01-30,09:57,09:57 AM,63.915,63.895,63.903,600,38341.5,6,63.95,63.87,63.906,21183,1353727.1605,138,63.905,63.915,63.91,63.938,0.001991344706472581,0.0017556510016616279,xom,20200130
2020-01-30,09:58,09:58 AM,64.005,63.995,64.0,200,12800.0,2,64.01,63.92,63.978,14689,939769.66,74,64.005,63.995,63.93,63.99,0.0035122930255895106,0.0028842837884441265,xom,20200130
2020-01-30,09:59,09:59 AM,63.975,63.935,63.952,809,51737.005,10,63.989,63.929,63.955,32261,2063256.033,161,63.975,63.955,63.989,63.96,0.00275965880582029,0.002523748314888569,xom,20200130
2020-01-30,10:00,10 AM,63.955,63.895,63.923,2063,131872.8,16,63.956,63.89,63.915,41901,2678102.6752,198,63.955,63.895,63.954,63.896,0.002304942298043127,0.00189673010000944,xom,20200130
2020-01-30,10:01,10:01 AM,63.915,63.86,63.881,1200,76657.5,13,63.923,63.86,63.893,19676,1257166.9377,102,63.885,63.89,63.89,63.88,0.0016463873557450589,0.001551870081825936,xom,20200130
2020-01-30,10:02,10:02 AM,63.91,63.88,63.895,628,40126.245,8,63.91,63.87,63.891,38633,2468307.175,164,63.885,63.895,63.885,63.9,0.001865905669844452,0.0015205191710819404,xom,20200130
2020-01-30,10:03,10:03 AM,63.955,63.885,63.911,1196,76438.0,13,63.956,63.88,63.911,18067,1154687.6149,106,63.905,63.885,63.9,63.89,0.002116783743100822,0.0018340282785215605,xom,20200130
2020-01-30,10:04,10:04 AM,63.91,63.895,63.903,766,48949.775,10,63.917,63.89,63.902,14345,916668.6302,85,63.905,63.895,63.9,63.89,0.001991344706472581,0.0016929491801737483,xom,20200130
2020-01-30,10:05,10:05 AM,63.935,63.865,63.893,1680,107340.195,24,63.94,63.86,63.895,32111,2051736.1512,174,63.885,63.895,63.89,63.89,0.001834545910687364,0.0015832209925699314,xom,20200130
2020-01-30,10:06,10:06 AM,63.95,63.9,63.928,709,45325.325,9,63.95,63.896,63.923,13222,845191.2845,99,63.92,63.95,63.896,63.905,0.0023833416959356795,0.0020221337429853106,xom,20200130
2020-01-30,10:07,10:07 AM,63.925,63.88,63.904,857,54765.66,10,63.94,63.875,63.903,32340,2066617.49,163,63.91,63.925,63.9,63.91,0.0020070245860511807,0.0017086246355456902,xom,20200130
2020-01-30,10:08,10:08 AM,63.895,63.885,63.893,1199,76607.495,13,63.915,63.88,63.893,18586,1187509.1927,122,63.885,63.885,63.91,63.9,0.001834545910687364,0.001551870081825936,xom,20200130
2020-01-30,10:09,10:09 AM,63.97,63.935,63.956,707,45217.045,8,63.97,63.907,63.946,19659,1257118.6929,109,63.94,63.96,63.91,63.95,0.002822378324134466,0.0023826692165407567,xom,20200130
2020-01-30,10:10,10:10 AM,63.93,63.885,63.898,1600,102237.0,9,63.955,63.88,63.904,23390,1494715.2876,116,63.93,63.885,63.955,63.885,0.0019129453085800282,0.0017243000909177436,xom,20200130
2020-01-30,10:11,10:11 AM,63.895,63.83,63.861,3958,252761.665,35,63.9,63.83,63.857,29493,1883330.8708,157,63.875,63.84,63.88,63.84,0.001332789764174513,0.0009875536884346866,xom,20200130
2020-01-30,10:12,10:12 AM,63.84,63.805,63.825,3483,222302.265,33,63.84,63.77,63.817,65057,4151742.1662,257,63.835,63.805,63.835,63.78,0.000768314099347709,0.0003605354735555576,xom,20200130
2020-01-30,10:13,10:13 AM,63.825,63.75,63.788,1078,68763.7,12,63.83,63.75,63.792,44125,2814826.0129,249,63.79,63.75,63.79,63.75,0.00018815855494219374,-3.1350910743884045e-05,xom,20200130
2020-01-30,10:14,10:14 AM,63.81,63.76,63.777,994,63394.82,7,63.81,63.76,63.779,24655,1572464.4718,141,63.765,63.76,63.76,63.76,1.567987957848829e-05,-0.00023513183057957587,xom,20200130
2020-01-30,10:15,10:15 AM,63.8,63.745,63.763,2058,131224.73,16,63.805,63.745,63.773,44428,2833314.5761,236,63.745,63.8,63.76,63.775,-0.00020383843452090488,-0.00032918456281145076,xom,20200130
2020-01-30,10:16,10:16 AM,63.785,63.765,63.782,121,7717.565,3,63.805,63.765,63.779,11862,756545.299,84,63.785,63.765,63.78,63.765,9.407927747104117e-05,-0.00023513183057957587,xom,20200130
2020-01-30,10:17,10:17 AM,63.785,63.745,63.766,1000,63765.5,10,63.79,63.74,63.767,41118,2621951.4815,193,63.77,63.745,63.77,63.75,-0.00015679879578532857,-0.0004232372950433257,xom,20200130
2020-01-30,10:18,10:18 AM,63.775,63.76,63.768,500,31884.0,5,63.78,63.74,63.761,12183,776798.7366,78,63.76,63.765,63.75,63.745,-0.0001254390366282406,-0.0005172900272752005,xom,20200130
2020-01-30,10:19,10:19 AM,63.785,63.745,63.76,400,25504.0,4,63.805,63.74,63.758,23693,1510610.4246,98,63.745,63.785,63.74,63.8,-0.0002508780732564812,-0.0005643163933911381,xom,20200130
2020-01-30,10:20,10:20 AM,63.8,63.765,63.788,1100,70166.5,11,63.8,63.75,63.781,17572,1120759.763,132,63.765,63.78,63.79,63.79,0.00018815855494219374,-0.00020378091983569183,xom,20200130
2020-01-30,10:21,10:21 AM,63.77,63.765,63.767,800,51013.5,8,63.796,63.76,63.772,34790,2218642.885,150,63.765,63.765,63.796,63.78,-0.00014111891620672887,-0.0003448600181835042,xom,20200130
2020-01-30,10:22,10:22 AM,63.785,63.705,63.73,1618,103114.76,20,63.79,63.7,63.731,81050,5165389.158,413,63.785,63.725,63.79,63.71,-0.000721274460612244,-0.0009875536884345751,xom,20200130
2020-01-30,10:23,10:23 AM,63.715,63.675,63.689,1500,95533.0,12,63.715,63.66,63.688,30258,1927064.0028,180,63.705,63.685,63.7,63.68,-0.0013641495233317124,-0.0016615982694296414,xom,20200130
2020-01-30,10:24,10:24 AM,63.69,63.675,63.681,6248,397881.405,19,63.699,63.67,63.682,26107,1662541.0112,132,63.69,63.685,63.685,63.69,-0.001489588559959953,-0.0017556510016615164,xom,20200130
2020-01-30,10:25,10:25 AM,63.725,63.685,63.703,688,43827.415,5,63.735,63.68,63.709,18904,1204359.5958,112,63.685,63.725,63.69,63.73,-0.0011446312092323193,-0.0013324137066180793,xom,20200130
2020-01-30,10:26,10:26 AM,63.745,63.695,63.721,8500,541628.5,11,63.749,63.69,63.718,72384,4612166.4756,203,63.72,63.715,63.73,63.72,-0.000862393376818973,-0.001191334608270267,xom,20200130
2020-01-30,10:27,10:27 AM,63.725,63.725,63.725,100,6372.5,1,63.77,63.705,63.729,20521,1307791.8114,114,63.725,63.725,63.725,63.74,-0.000799673858504797,-0.0010189045991785706,xom,20200130
2020-01-30,10:28,10:28 AM,63.79,63.74,63.755,414,26394.52,6,63.8,63.735,63.763,22637,1443399.0994,112,63.74,63.785,63.735,63.785,-0.000329277471149034,-0.00048593911653131656,xom,20200130
2020-01-30,10:29,10:29 AM,63.815,63.78,63.806,414,26415.91,5,63.82,63.75,63.783,20767,1324588.6764,115,63.78,63.815,63.787,63.815,0.0004703963873556515,-0.00017243000909169642,xom,20200130
2020-01-30,10:30,10:30 AM,63.815,63.78,63.797,200,12759.5,2,63.82,63.755,63.785,27133,1730678.6227,136,63.815,63.78,63.82,63.77,0.0003292774711489226,-0.00014107909834781235,xom,20200130
2020-01-30,10:31,10:31 AM,63.765,63.75,63.757,500,31878.5,5,63.78,63.74,63.757,32460,2069536.5966,176,63.765,63.76,63.765,63.77,-0.00029791771199205746,-0.0005799918487631914,xom,20200130
2020-01-30,10:32,10:32 AM,63.795,63.75,63.773,1690,107776.645,17,63.8,63.74,63.77,60950,3886780.1264,338,63.755,63.79,63.76,63.775,-4.703963873557629e-05,-0.0003762109289273882,xom,20200130
2020-01-30,10:33,10:33 AM,63.765,63.755,63.759,678,43228.715,8,63.79,63.74,63.76,22732,1449384.6516,137,63.765,63.755,63.78,63.755,-0.00026655795283496946,-0.000532965482647254,xom,20200130
2020-01-30,10:34,10:34 AM,63.755,63.72,63.735,526,33524.415,8,63.76,63.71,63.734,15654,997693.6305,117,63.72,63.755,63.757,63.745,-0.0006428750627195797,-0.0009405273223186376,xom,20200130
2020-01-30,10:35,10:35 AM,63.725,63.71,63.716,350,22300.75,4,63.75,63.71,63.719,20997,1337902.787,113,63.725,63.715,63.747,63.73,-0.0009407927747115258,-0.001175659152898325,xom,20200130
2020-01-30,10:36,10:36 AM,63.71,63.685,63.704,1600,101926.5,7,63.72,63.68,63.695,29868,1902450.9032,102,63.71,63.685,63.72,63.69,-0.001128951329653831,-0.0015518700818258244,xom,20200130
2020-01-30,10:37,10:37 AM,63.695,63.675,63.688,424,27003.64,7,63.709,63.675,63.686,16817,1071002.6861,109,63.675,63.695,63.69,63.705,-0.0013798294029102008,-0.0016929491801736369,xom,20200130
2020-01-30,10:38,10:38 AM,63.705,63.66,63.679,353,22478.785,6,63.715,63.66,63.688,25453,1621038.916,109,63.705,63.67,63.71,63.666,-0.0015209483191169295,-0.0016615982694296414,xom,20200130
2020-01-30,10:39,10:39 AM,63.68,63.645,63.678,215,13690.825,4,63.68,63.65,63.66,31947,2033755.8095,152,63.68,63.645,63.66,63.65,-0.0015366281986955294,-0.002100511019845132,xom,20200130
2020-01-30,10:40,10:40 AM,63.665,63.6,63.623,625,39764.365,8,63.67,63.6,63.625,53509,3404503.6178,229,63.665,63.615,63.64,63.61,-0.002399021575514391,-0.002649151957864328,xom,20200130
2020-01-30,10:41,10:41 AM,63.57,63.545,63.552,613,38957.15,7,63.61,63.54,63.57,68818,4374738.7916,193,63.57,63.545,63.61,63.55,-0.003512293025589622,-0.0035113020033231443,xom,20200130
2020-01-30,10:42,10:42 AM,63.565,63.525,63.548,3864,245550.71,35,63.57,63.51,63.536,77812,4943901.7679,316,63.565,63.525,63.559,63.52,-0.0035750125439036867,-0.004044267485970398,xom,20200130
2020-01-30,10:43,10:43 AM,63.525,63.515,63.52,450,28584.09,6,63.53,63.51,63.522,35057,2226902.657,135,63.52,63.52,63.52,63.519,-0.0040140491721023614,-0.004263723861178143,xom,20200130
2020-01-30,10:44,10:44 AM,63.515,63.49,63.499,5082,322704.39,45,63.52,63.48,63.5,122811,7798529.7613,358,63.515,63.49,63.519,63.49,-0.0043433266432513955,-0.004608583879361647,xom,20200130
2020-01-30,10:45,10:45 AM,63.5,63.465,63.48,1000,63480.5,10,63.5,63.46,63.479,53197,3376894.0919,195,63.48,63.5,63.49,63.47,-0.004641244355243453,-0.00493776844217321,xom,20200130
2020-01-30,10:46,10:46 AM,63.505,63.485,63.496,1320,83814.6,16,63.51,63.475,63.495,40117,2547229.128,207,63.485,63.495,63.475,63.5,-0.004390366281986972,-0.004686961156221581,xom,20200130
2020-01-30,10:47,10:47 AM,63.565,63.485,63.511,415,26356.925,5,63.565,63.48,63.525,40011,2541706.6064,238,63.495,63.565,63.5,63.53,-0.004155168088309091,-0.004216697495062206,xom,20200130
2020-01-30,10:48,10:48 AM,63.55,63.515,63.529,600,38117.5,6,63.55,63.505,63.53,36165,2297567.6343,208,63.525,63.55,63.529,63.55,-0.003872930255895633,-0.004138320218202273,xom,20200130
2020-01-30,10:49,10:49 AM,63.555,63.495,63.533,900,57180.0,9,63.58,63.49,63.529,33358,2119188.551,182,63.545,63.495,63.548,63.49,-0.003810210737581568,-0.004153995673574215,xom,20200130
2020-01-30,10:50,10:50 AM,63.49,63.48,63.483,228,14474.13,4,63.5,63.475,63.488,24218,1537555.9264,121,63.49,63.485,63.495,63.49,-0.004594204716507877,-0.004796689343825398,xom,20200130
2020-01-30,10:51,10:51 AM,63.48,63.465,63.476,502,31864.93,6,63.49,63.46,63.47,27096,1719790.0767,103,63.48,63.48,63.48,63.465,-0.004703963873557517,-0.005078847540521022,xom,20200130
2020-01-30,10:52,10:52 AM,63.455,63.45,63.454,1101,69862.95,6,63.485,63.445,63.458,66233,4203041.1057,193,63.455,63.455,63.469,63.445,-0.00504892122428504,-0.005266953004984772,xom,20200130
2020-01-30,10:53,10:53 AM,63.5,63.445,63.486,996,63232.02,9,63.515,63.445,63.486,59800,3796455.1312,223,63.445,63.49,63.45,63.46,-0.0045471650777723005,-0.004828040254569393,xom,20200130
2020-01-30,10:54,10:54 AM,63.455,63.43,63.443,400,25377.0,4,63.461,63.43,63.441,24093,1528474.9863,108,63.455,63.435,63.46,63.44,-0.005221399899648857,-0.005533435746308343,xom,20200130
2020-01-30,10:55,10:55 AM,63.45,63.435,63.443,184,11673.54,2,63.46,63.43,63.444,19673,1248138.8577,111,63.45,63.435,63.44,63.44,-0.005221399899648857,-0.005486409380192406,xom,20200130
2020-01-30,10:56,10:56 AM,63.485,63.475,63.482,310,19679.3,4,63.49,63.441,63.479,106996,6792025.0532,167,63.485,63.475,63.442,63.476,-0.004609884596086365,-0.00493776844217321,xom,20200130
2020-01-30,10:57,10:57 AM,63.525,63.515,63.52,200,12704.0,2,63.54,63.49,63.513,23001,1460867.2884,73,63.525,63.515,63.49,63.515,-0.0040140491721023614,-0.004404802959525955,xom,20200130
2020-01-30,10:58,10:58 AM,63.525,63.465,63.494,210,13333.675,4,63.53,63.455,63.485,21970,1394765.413,74,63.525,63.465,63.525,63.47,-0.00442172604114406,-0.004843715709941335,xom,20200130
2020-01-30,10:59,10:59 AM,63.475,63.445,63.455,390,24747.43,7,63.48,63.435,63.454,45793,2905771.7839,172,63.475,63.445,63.47,63.45,-0.005033241344706551,-0.005329654826472651,xom,20200130
2020-01-30,11:00,11 AM,63.505,63.45,63.473,450,28562.72,7,63.51,63.435,63.48,40606,2577689.2917,164,63.45,63.505,63.45,63.49,-0.004751003512293094,-0.004922092986801268,xom,20200130
2020-01-30,11:01,11:01 AM,63.535,63.48,63.488,1520,96502.1,14,63.54,63.475,63.498,34887,2215252.553,135,63.495,63.535,63.485,63.525,-0.004515805318615213,-0.004639934790105643,xom,20200130
2020-01-30,11:02,11:02 AM,63.56,63.515,63.526,703,44659.105,4,63.56,63.51,63.529,48587,3086681.2478,179,63.535,63.56,63.52,63.56,-0.003919969894631209,-0.004153995673574215,xom,20200130
2020-01-30,11:03,11:03 AM,63.565,63.545,63.562,137,8707.935,3,63.58,63.545,63.561,17368,1103931.5736,103,63.545,63.56,63.55,63.555,-0.0033554942298044048,-0.0036523811016709565,xom,20200130
2020-01-30,11:04,11:04 AM,63.545,63.525,63.533,1838,116773.71,4,63.55,63.52,63.533,25200,1601028.7046,123,63.545,63.525,63.55,63.53,-0.003810210737581568,-0.004091293852086336,xom,20200130
2020-01-30,11:05,11:05 AM,63.565,63.555,63.562,300,19068.5,3,63.58,63.52,63.548,20605,1309400.9344,132,63.555,63.565,63.53,63.58,-0.0033554942298044048,-0.0038561620215066482,xom,20200130
2020-01-30,11:06,11:06 AM,63.595,63.585,63.589,717,45593.525,6,63.6,63.571,63.583,32107,2041454.1602,134,63.585,63.59,63.575,63.595,-0.0029321374811842184,-0.003307521083487452,xom,20200130
2020-01-30,11:07,11:07 AM,63.625,63.605,63.617,1615,102741.225,13,63.63,63.585,63.615,41836,2661417.4415,214,63.62,63.615,63.595,63.61,-0.0024931008529855436,-0.0028059065115840823,xom,20200130
2020-01-30,11:08,11:08 AM,63.61,63.57,63.582,600,38149.0,6,63.61,63.565,63.58,31857,2025457.0624,150,63.61,63.575,63.61,63.58,-0.003041896638233859,-0.00335454744960339,xom,20200130
2020-01-30,11:09,11:09 AM,63.58,63.535,63.56,664,42204.12,7,63.59,63.53,63.559,26768,1701353.9935,108,63.575,63.545,63.59,63.545,-0.0033868539889613815,-0.0036837320124149518,xom,20200130
2020-01-30,11:10,11:10 AM,63.58,63.545,63.558,1197,76079.315,12,63.59,63.54,63.568,14530,923644.2273,97,63.545,63.575,63.547,63.58,-0.0034182137481184693,-0.0035426529140671396,xom,20200130
2020-01-30,11:11,11:11 AM,63.61,63.58,63.589,887,56403.46,7,63.63,63.578,63.593,25343,1611630.8946,123,63.585,63.61,63.583,63.63,-0.0029321374811842184,-0.0031507665297675867,xom,20200130
2020-01-30,11:12,11:12 AM,63.635,63.6,63.615,1001,63679.1,9,63.635,63.59,63.609,30948,1968589.6993,94,63.635,63.605,63.63,63.59,-0.00252446061214252,-0.002899959243815957,xom,20200130
2020-01-30,11:13,11:13 AM,63.655,63.595,63.622,676,43008.72,6,63.66,63.59,63.628,24760,1575428.4201,141,63.595,63.655,63.59,63.66,-0.002414701455092879,-0.0026021255917483906,xom,20200130
2020-01-30,11:14,11:14 AM,63.655,63.64,63.649,3637,231491.225,18,63.67,63.63,63.651,53496,3405084.155,221,63.655,63.645,63.654,63.665,-0.0019913447064726923,-0.002241590118192833,xom,20200130
2020-01-30,11:15,11:15 AM,63.66,63.625,63.633,1130,71905.25,10,63.67,63.615,63.641,28145,1791164.1796,163,63.66,63.645,63.667,63.645,-0.0022422227797290624,-0.002398344671912699,xom,20200130
2020-01-30,11:16,11:16 AM,63.67,63.605,63.651,605,38508.625,7,63.67,63.6,63.639,22073,1404715.276,100,63.67,63.605,63.65,63.609,-0.0019599849473156046,-0.0024296955826565826,xom,20200130
2020-01-30,11:17,11:17 AM,63.625,63.605,63.614,1300,82698.5,13,63.64,63.6,63.618,19564,1244633.3805,115,63.605,63.625,63.605,63.635,-0.0025401404917211197,-0.002758880145468145,xom,20200130
2020-01-30,11:18,11:18 AM,63.68,63.625,63.651,1627,103560.345,16,63.68,63.624,63.648,28738,1829125.4137,153,63.635,63.675,63.635,63.664,-0.0019599849473156046,-0.0022886164843087704,xom,20200130
2020-01-30,11:19,11:19 AM,63.695,63.665,63.675,400,25470.0,4,63.7,63.66,63.683,31689,2018062.655,133,63.665,63.675,63.67,63.69,-0.0015836678374311056,-0.0017399755462895743,xom,20200130
2020-01-30,11:20,11:20 AM,63.695,63.695,63.695,230,14649.85,3,63.705,63.66,63.688,59788,3807783.7012,98,63.695,63.695,63.7,63.69,-0.0012700702458605599,-0.0016615982694296414,xom,20200130
2020-01-30,11:21,11:21 AM,63.715,63.685,63.688,338,21526.52,6,63.72,63.68,63.694,35193,2241571.079,135,63.685,63.715,63.69,63.71,-0.0013798294029102008,-0.0015675455371977666,xom,20200130
2020-01-30,11:22,11:22 AM,63.72,63.685,63.702,815,51917.14,6,63.725,63.664,63.69,28935,1842877.9445,116,63.72,63.685,63.72,63.664,-0.001160311088810919,-0.0016302473586857573,xom,20200130
2020-01-30,11:23,11:23 AM,63.7,63.675,63.686,1200,76423.46,9,63.7,63.665,63.678,34513,2197733.6296,128,63.675,63.7,63.665,63.7,-0.0014111891620672888,-0.0018183528231495072,xom,20200130
2020-01-30,11:24,11:24 AM,63.8,63.715,63.765,4355,277698.415,14,63.81,63.7,63.754,44905,2862886.004,235,63.715,63.79,63.7,63.79,-0.00017247867536381687,-0.0006270182148791289,xom,20200130
2020-01-30,11:25,11:25 AM,63.8,63.78,63.792,523,33363.44,6,63.815,63.775,63.794,17854,1138971.3924,114,63.78,63.8,63.79,63.796,0.0002508780732563697,0.0,xom,20200130
2020-01-30,11:26,11:26 AM,63.815,63.77,63.792,870,55499.05,10,63.83,63.735,63.779,39763,2536044.834,211,63.795,63.77,63.795,63.77,0.0002508780732563697,-0.00023513183057957587,xom,20200130
2020-01-30,11:27,11:27 AM,63.8,63.775,63.775,101,6441.3,2,63.81,63.77,63.795,56093,3578466.3763,139,63.775,63.8,63.775,63.79,-1.5679879578599707e-05,1.5675455372053404e-05,xom,20200130
2020-01-30,11:28,11:28 AM,63.78,63.765,63.772,327,20853.56,6,63.795,63.755,63.778,67863,4328148.0525,140,63.78,63.765,63.795,63.76,-6.2719518314176e-05,-0.00025080728595162926,xom,20200130
2020-01-30,11:29,11:29 AM,63.775,63.75,63.758,1410,89898.5,12,63.785,63.74,63.761,36937,2355151.776,191,63.76,63.775,63.76,63.757,-0.00028223783241345773,-0.0005172900272752005,xom,20200130
2020-01-30,11:30,11:30 AM,63.785,63.755,63.776,482,30740.13,10,63.79,63.755,63.769,23395,1491875.7117,135,63.755,63.775,63.76,63.78,0.0,-0.00039188638429944164,xom,20200130
2020-01-30,11:31,11:31 AM,63.805,63.77,63.796,411,26220.085,8,63.809,63.76,63.782,17814,1136220.1518,121,63.775,63.785,63.775,63.78,0.00031359759157043433,-0.0001881054644637498,xom,20200130
2020-01-30,11:32,11:32 AM,63.795,63.785,63.788,251,16010.805,6,63.8,63.78,63.791,18545,1182998.9625,87,63.785,63.785,63.785,63.785,0.00018815855494219374,-4.702636611593745e-05,xom,20200130
2020-01-30,11:33,11:33 AM,63.82,63.785,63.798,795,50719.475,12,63.82,63.785,63.803,25871,1650639.1833,131,63.79,63.785,63.79,63.79,0.00034495735072752234,0.00014107909834781235,xom,20200130
2020-01-30,11:34,11:34 AM,63.79,63.775,63.785,313,19964.645,8,63.795,63.77,63.781,16510,1053022.371,77,63.785,63.775,63.785,63.775,0.00014111891620661746,-0.00020378091983569183,xom,20200130
2020-01-30,11:35,11:35 AM,63.765,63.705,63.721,1153,73469.915,9,63.778,63.7,63.736,36070,2298972.5436,142,63.755,63.705,63.778,63.71,-0.000862393376818973,-0.0009091764115747536,xom,20200130
2020-01-30,11:36,11:36 AM,63.735,63.715,63.73,800,50983.935,7,63.745,63.71,63.73,27886,1777169.9336,121,63.715,63.735,63.71,63.73,-0.000721274460612244,-0.0010032291438066285,xom,20200130
2020-01-30,11:37,11:37 AM,63.745,63.705,63.722,222,14146.27,6,63.76,63.705,63.74,9136,582333.8909,69,63.735,63.705,63.735,63.705,-0.0008467134972403732,-0.0008464745900867627,xom,20200130
2020-01-30,11:38,11:38 AM,63.695,63.695,63.695,120,7643.4,7,63.71,63.69,63.699,17777,1132380.839,89,63.695,63.695,63.706,63.702,-0.0012700702458605599,-0.0014891682603379451,xom,20200130
2020-01-30,11:39,11:39 AM,63.72,63.695,63.702,1400,89183.465,14,63.72,63.69,63.697,32163,2048675.4707,121,63.705,63.71,63.705,63.71,-0.001160311088810919,-0.0015205191710818292,xom,20200130
2020-01-30,11:40,11:40 AM,63.75,63.705,63.736,534,34035.04,12,63.755,63.71,63.735,19163,1221361.8363,116,63.705,63.745,63.71,63.747,-0.0006271951831410915,-0.0009248518669466956,xom,20200130
2020-01-30,11:41,11:41 AM,63.825,63.755,63.782,614,39162.18,12,63.83,63.75,63.792,54635,3485292.3983,267,63.765,63.825,63.75,63.825,9.407927747104117e-05,-3.1350910743884045e-05,xom,20200130
2020-01-30,11:42,11:42 AM,63.875,63.825,63.859,1300,83017.41,17,63.88,63.82,63.849,31768,2028343.2662,186,63.835,63.865,63.83,63.87,0.0013014300050175364,0.0008621500454588162,xom,20200130
2020-01-30,11:43,11:43 AM,63.86,63.84,63.853,1105,70557.755,11,63.87,63.84,63.855,57136,3648437.2462,232,63.86,63.855,63.865,63.857,0.0012073507275463839,0.0009562027776906911,xom,20200130
2020-01-30,11:44,11:44 AM,63.835,63.825,63.835,601,38364.825,7,63.86,63.82,63.837,11532,736164.1328,65,63.835,63.825,63.85,63.82,0.0009251128951329261,0.0006740445809951777,xom,20200130
2020-01-30,11:45,11:45 AM,63.855,63.835,63.848,900,57463.5,7,63.86,63.83,63.846,18578,1186123.045,120,63.835,63.855,63.83,63.855,0.0011289513296537195,0.0008151236793428787,xom,20200130
2020-01-30,11:46,11:46 AM,63.885,63.87,63.877,200,12775.5,2,63.89,63.855,63.872,20727,1323870.4565,103,63.87,63.885,63.855,63.856,0.001583667837430994,0.0012226855190143738,xom,20200130
2020-01-30,11:47,11:47 AM,63.87,63.84,63.854,400,25541.5,4,63.88,63.83,63.85,24885,1588907.9134,154,63.85,63.87,63.853,63.879,0.0012230306071248722,0.0008778255008308696,xom,20200130
2020-01-30,11:48,11:48 AM,63.875,63.865,63.872,300,19161.5,3,63.89,63.858,63.875,35180,2247110.4707,146,63.875,63.865,63.87,63.86,0.00150526843953833,0.0012697118851303112,xom,20200130
2020-01-30,11:49,11:49 AM,63.885,63.88,63.884,400,25553.5,4,63.886,63.851,63.869,14543,928841.5,77,63.88,63.885,63.86,63.852,0.001693426994480635,0.0011756591528984362,xom,20200130
2020-01-30,11:50,11:50 AM,63.87,63.825,63.846,714,45586.07,9,63.87,63.82,63.837,42180,2692641.151,187,63.845,63.87,63.855,63.87,0.0010975915704966315,0.0006740445809951777,xom,20200130
2020-01-30,11:51,11:51 AM,63.89,63.85,63.874,400,25549.5,4,63.89,63.85,63.872,23311,1488923.3213,145,63.85,63.885,63.865,63.89,0.001536628198695418,0.0012226855190143738,xom,20200130
2020-01-30,11:52,11:52 AM,63.85,63.85,63.85,100,6385.0,1,63.885,63.845,63.86,17799,1136648.3216,106,63.85,63.85,63.884,63.87,0.0011603110888108075,0.001034580054550624,xom,20200130
2020-01-30,11:53,11:53 AM,63.875,63.875,63.875,200,12775.0,2,63.89,63.866,63.881,7489,478403.5695,37,63.875,63.875,63.866,63.88,0.001552308078273906,0.001363764617362186,xom,20200130
2020-01-30,11:54,11:54 AM,63.885,63.875,63.88,200,12776.0,2,63.9,63.87,63.885,14936,954188.9356,62,63.885,63.875,63.883,63.88,0.0016307074761665705,0.0014264664388500656,xom,20200130
2020-01-30,11:55,11:55 AM,63.875,63.81,63.843,1000,63843.0,10,63.878,63.81,63.836,31594,2016829.7014,183,63.875,63.81,63.878,63.83,0.0010505519317611667,0.0006583691256231243,xom,20200130
2020-01-30,11:56,11:56 AM,63.845,63.835,63.838,900,57454.44,7,63.86,63.81,63.839,11808,753807.3654,85,63.835,63.835,63.834,63.81,0.0009721525338685024,0.0007053954917390617,xom,20200130
2020-01-30,11:57,11:57 AM,63.805,63.79,63.798,320,20415.5,4,63.817,63.78,63.801,31459,2007128.121,162,63.8,63.79,63.81,63.79,0.00034495735072752234,0.00010972818760392831,xom,20200130
2020-01-30,11:58,11:58 AM,63.785,63.77,63.781,412,26277.8,5,63.8,63.77,63.784,14940,952933.5581,83,63.785,63.775,63.79,63.77,7.839939789255288e-05,-0.00015675455371975437,xom,20200130
2020-01-30,11:59,11:59 AM,63.8,63.77,63.779,703,44836.34,5,63.8,63.76,63.781,12831,818370.1567,87,63.77,63.78,63.77,63.785,4.703963873557629e-05,-0.00020378091983569183,xom,20200130
2020-01-30,12:00,12 PM,63.815,63.8,63.807,200,12761.5,2,63.815,63.78,63.793,8143,519463.9015,59,63.8,63.815,63.78,63.813,0.0004860762669342512,-1.5675455371942023e-05,xom,20200130
2020-01-30,12:01,12:01 PM,63.84,63.825,63.832,204,13021.82,3,63.86,63.81,63.849,30503,1947586.8984,73,63.825,63.84,63.81,63.854,0.0008780732563973498,0.0008621500454588162,xom,20200130
2020-01-30,12:02,12:02 PM,63.865,63.83,63.845,3000,191536.0,7,63.87,63.81,63.841,61145,3903549.7686,212,63.86,63.835,63.86,63.815,0.0010819116909181433,0.0007367464024830572,xom,20200130
2020-01-30,12:03,12:03 PM,63.81,63.805,63.806,7,446.64,2,63.83,63.8,63.818,14837,946864.1412,72,63.81,63.805,63.811,63.807,0.0004703963873556515,0.0003762109289274996,xom,20200130
2020-01-30,12:04,12:04 PM,63.81,63.805,63.805,152,9698.42,3,63.82,63.78,63.8,20930,1335336.7236,73,63.805,63.805,63.805,63.78,0.00045471650777716323,9.40527322318749e-05,xom,20200130
2020-01-30,12:05,12:05 PM,63.815,63.765,63.791,530,33809.5,7,63.818,63.765,63.79,15551,992001.2,109,63.805,63.77,63.785,63.775,0.00023519819367777005,-6.270182148787948e-05,xom,20200130
2020-01-30,12:06,12:06 PM,63.79,63.775,63.781,1058,67480.14,6,63.79,63.775,63.782,8667,552794.9533,36,63.775,63.79,63.775,63.79,7.839939789255288e-05,-0.0001881054644637498,xom,20200130
2020-01-30,12:07,12:07 PM,63.79,63.78,63.786,98,6250.99,3,63.79,63.77,63.782,17285,1102473.853,112,63.79,63.785,63.785,63.777,0.00015679879578521717,-0.0001881054644637498,xom,20200130
2020-01-30,12:08,12:08 PM,63.775,63.745,63.762,778,49607.035,10,63.78,63.71,63.754,28612,1824125.6248,146,63.775,63.745,63.77,63.71,-0.00021951831409939315,-0.0006270182148791289,xom,20200130
2020-01-30,12:09,12:09 PM,63.725,63.72,63.724,1450,92400.25,10,63.74,63.715,63.727,32418,2065916.5977,126,63.72,63.725,63.719,63.725,-0.0008153537380833967,-0.001050255509922566,xom,20200130
2020-01-30,12:10,12:10 PM,63.735,63.735,63.735,100,6373.5,1,63.736,63.72,63.728,17742,1130663.9432,109,63.735,63.735,63.729,63.72,-0.0006428750627195797,-0.0010345800545505125,xom,20200130
2020-01-30,12:11,12:11 PM,63.74,63.73,63.74,102,6501.46,2,63.75,63.72,63.729,27686,1764401.6067,120,63.73,63.74,63.73,63.75,-0.0005644756648269155,-0.0010189045991785706,xom,20200130
2020-01-30,12:12,12:12 PM,63.75,63.735,63.741,401,25560.25,5,63.755,63.69,63.738,50056,3190478.3306,171,63.75,63.735,63.75,63.7,-0.0005487957852484272,-0.0008778255008307582,xom,20200130
2020-01-30,12:13,12:13 PM,63.695,63.695,63.695,200,12739.0,2,63.71,63.69,63.697,7423,472826.341,44,63.695,63.695,63.71,63.695,-0.0012700702458605599,-0.0015205191710818292,xom,20200130
2020-01-30,12:14,12:14 PM,63.725,63.715,63.718,300,19115.5,3,63.73,63.69,63.704,51060,3252738.5854,165,63.715,63.725,63.69,63.69,-0.0009094330155544378,-0.0014107909834780122,xom,20200130
2020-01-30,12:15,12:15 PM,63.695,63.695,63.695,100,6369.5,1,63.71,63.69,63.699,14751,939617.0533,90,63.695,63.695,63.69,63.695,-0.0012700702458605599,-0.0014891682603379451,xom,20200130
2020-01-30,12:16,12:16 PM,63.7,63.695,63.696,800,50956.5,8,63.71,63.69,63.702,21519,1370809.7654,78,63.7,63.695,63.695,63.7,-0.0012543903662820715,-0.0014421418942220077,xom,20200130
2020-01-30,12:17,12:17 PM,63.695,63.67,63.684,702,44706.39,7,63.695,63.67,63.684,28405,1808946.6408,150,63.695,63.68,63.695,63.675,-0.0014425489212243768,-0.0017243000909176324,xom,20200130
2020-01-30,12:18,12:18 PM,63.665,63.655,63.662,1800,114591.415,17,63.67,63.65,63.663,39829,2535638.385,195,63.665,63.665,63.67,63.67,-0.001787506271951899,-0.0020534846537291944,xom,20200130
2020-01-30,12:19,12:19 PM,63.665,63.655,63.662,300,19098.5,3,63.67,63.645,63.658,15599,993006.4725,102,63.655,63.665,63.665,63.66,-0.001787506271951899,-0.002131861930589016,xom,20200130
2020-01-30,12:20,12:20 PM,63.71,63.66,63.697,1576,100385.7,22,63.71,63.66,63.689,40565,2583548.71,187,63.66,63.71,63.66,63.71,-0.0012387104867034719,-0.0016459228140576995,xom,20200130
2020-01-30,12:21,12:21 PM,63.71,63.685,63.698,1318,83953.855,17,63.71,63.68,63.696,21981,1400104.6023,123,63.71,63.69,63.71,63.69,-0.0012230306071249835,-0.0015361946264538825,xom,20200130
2020-01-30,12:22,12:22 PM,63.68,63.67,63.68,201,12799.67,3,63.69,63.665,63.676,11331,721517.0151,61,63.67,63.68,63.68,63.68,-0.0015052684395384414,-0.0018497037338933912,xom,20200130
2020-01-30,12:23,12:23 PM,63.69,63.68,63.683,1109,70624.62,12,63.69,63.67,63.681,15210,968595.2404,106,63.685,63.68,63.68,63.69,-0.001458228800802865,-0.0017713264570335698,xom,20200130
2020-01-30,12:24,12:24 PM,63.74,63.695,63.717,500,31858.5,5,63.74,63.69,63.724,25594,1630955.8322,166,63.695,63.725,63.69,63.737,-0.0009251128951330375,-0.0010972818760385033,xom,20200130
2020-01-30,12:25,12:25 PM,63.745,63.715,63.735,1185,75525.9,11,63.745,63.71,63.728,27486,1751634.1674,164,63.715,63.735,63.73,63.739,-0.0006428750627195797,-0.0010345800545505125,xom,20200130
2020-01-30,12:26,12:26 PM,63.745,63.735,63.741,600,38244.5,6,63.75,63.73,63.737,18123,1155101.6342,84,63.74,63.74,63.74,63.73,-0.0005487957852484272,-0.0008935009562027002,xom,20200130
2020-01-30,12:27,12:27 PM,63.74,63.69,63.713,1188,75690.685,13,63.74,63.69,63.71,24485,1559936.92,128,63.74,63.695,63.735,63.69,-0.0009878324134471022,-0.0013167382512461372,xom,20200130
2020-01-30,12:28,12:28 PM,63.685,63.68,63.684,900,57316.0,9,63.7,63.68,63.686,17042,1085343.82,88,63.685,63.685,63.7,63.685,-0.0014425489212243768,-0.0016929491801736369,xom,20200130
2020-01-30,12:29,12:29 PM,63.685,63.635,63.66,700,44562.0,7,63.69,63.63,63.661,23877,1520027.7334,143,63.685,63.635,63.68,63.63,-0.001818866031108987,-0.0020848355644730787,xom,20200130
2020-01-30,12:30,12:30 PM,63.645,63.63,63.642,935,59505.075,10,63.65,63.63,63.641,14136,899635.27,85,63.635,63.645,63.635,63.65,-0.0021011038635223335,-0.002398344671912699,xom,20200130
2020-01-30,12:31,12:31 PM,63.67,63.645,63.651,1309,83318.805,11,63.67,63.64,63.65,32911,2094778.4466,119,63.645,63.655,63.645,63.655,-0.0019599849473156046,-0.002257265573564886,xom,20200130
2020-01-30,12:32,12:32 PM,63.69,63.67,63.675,6036,384345.16,29,63.69,63.655,63.676,31991,2037063.0198,161,63.675,63.69,63.659,63.685,-0.0015836678374311056,-0.0018497037338933912,xom,20200130
2020-01-30,12:33,12:33 PM,63.705,63.68,63.693,1108,70572.1,12,63.705,63.672,63.69,29388,1871726.493,121,63.7,63.7,63.69,63.7,-0.0013014300050176479,-0.0016302473586857573,xom,20200130
2020-01-30,12:34,12:34 PM,63.675,63.66,63.667,978,62266.76,8,63.69,63.65,63.668,37214,2369349.1546,151,63.675,63.67,63.69,63.67,-0.0017091068740592347,-0.0019751073768692617,xom,20200130
2020-01-30,12:35,12:35 PM,63.65,63.65,63.65,100,6365.0,1,63.67,63.64,63.659,16678,1061699.8365,86,63.65,63.65,63.66,63.641,-0.0019756648268942044,-0.002116186475217074,xom,20200130
2020-01-30,12:36,12:36 PM,63.69,63.625,63.646,1400,89104.0,14,63.695,63.62,63.651,25170,1602083.2408,160,63.63,63.69,63.641,63.695,-0.002038384345208269,-0.002241590118192833,xom,20200130
2020-01-30,12:37,12:37 PM,63.715,63.685,63.711,2546,162207.34,25,63.72,63.68,63.701,62570,3985795.9504,269,63.695,63.705,63.69,63.7,-0.0010191921726041902,-0.0014578173495939496,xom,20200130
2020-01-30,12:38,12:38 PM,63.715,63.655,63.676,1701,108313.67,15,63.73,63.64,63.689,57756,3678433.48,323,63.705,63.68,63.705,63.67,-0.001567987957852506,-0.0016459228140576995,xom,20200130
2020-01-30,12:39,12:39 PM,63.67,63.645,63.658,500,31829.0,4,63.685,63.64,63.66,17278,1099918.21,113,63.67,63.655,63.66,63.64,-0.0018502257902659636,-0.002100511019845132,xom,20200130
2020-01-30,12:40,12:40 PM,63.65,63.61,63.636,1000,63635.5,7,63.65,63.605,63.625,17048,1084682.2325,102,63.62,63.65,63.63,63.65,-0.002195183140993486,-0.002649151957864328,xom,20200130
2020-01-30,12:41,12:41 PM,63.665,63.65,63.658,500,31829.0,5,63.675,63.64,63.661,17587,1119604.1265,116,63.655,63.65,63.65,63.65,-0.0018502257902659636,-0.0020848355644730787,xom,20200130
2020-01-30,12:42,12:42 PM,63.645,63.63,63.638,281,17882.245,3,63.645,63.623,63.634,10069,640733.8078,71,63.64,63.63,63.64,63.636,-0.0021638233818365095,-0.0025080728595165158,xom,20200130
2020-01-30,12:43,12:43 PM,63.635,63.61,63.629,1100,69991.5,11,63.635,63.61,63.624,18132,1153626.7136,118,63.63,63.63,63.63,63.625,-0.0023049422980432385,-0.00266482741323627,xom,20200130
2020-01-30,12:44,12:44 PM,63.65,63.645,63.647,521,33160.045,4,63.66,63.625,63.648,20214,1286576.1288,118,63.645,63.65,63.625,63.645,-0.0020227044656297806,-0.0022886164843087704,xom,20200130
2020-01-30,12:45,12:45 PM,63.635,63.63,63.635,2895,184222.825,10,63.64,63.609,63.633,36696,2335061.3581,180,63.635,63.635,63.64,63.609,-0.0022108630205720857,-0.0025237483148884575,xom,20200130
2020-01-30,12:46,12:46 PM,63.635,63.605,63.619,1320,83977.2,11,63.64,63.597,63.615,36226,2304508.8822,210,63.61,63.635,63.61,63.612,-0.0024617410938284554,-0.0028059065115840823,xom,20200130
2020-01-30,12:47,12:47 PM,63.635,63.61,63.622,900,57259.5,8,63.64,63.605,63.624,20309,1292147.755,134,63.61,63.635,63.61,63.64,-0.002414701455092879,-0.00266482741323627,xom,20200130
2020-01-30,12:48,12:48 PM,63.635,63.605,63.62,400,25448.0,4,63.64,63.605,63.628,33467,2129434.0102,159,63.635,63.605,63.635,63.605,-0.002446061214249967,-0.0026021255917483906,xom,20200130
2020-01-30,12:49,12:49 PM,63.625,63.6,63.611,700,44528.0,7,63.625,63.59,63.605,18663,1187051.9464,98,63.605,63.625,63.608,63.623,-0.002587180130456696,-0.002962661065303948,xom,20200130
2020-01-30,12:50,12:50 PM,63.64,63.615,63.627,1221,77688.335,9,63.64,63.61,63.625,12898,820631.94,70,63.615,63.63,63.63,63.63,-0.002336302057200215,-0.002649151957864328,xom,20200130
2020-01-30,12:51,12:51 PM,63.69,63.635,63.662,1226,78049.55,14,63.7,63.635,63.663,61863,3938357.978,317,63.635,63.685,63.635,63.69,-0.001787506271951899,-0.0020534846537291944,xom,20200130
2020-01-30,12:52,12:52 PM,63.705,63.68,63.692,700,44584.5,7,63.71,63.68,63.693,21997,1401060.0399,127,63.685,63.68,63.685,63.685,-0.001317109884596136,-0.00158322099256982,xom,20200130
2020-01-30,12:53,12:53 PM,63.685,63.675,63.677,519,33048.51,6,63.695,63.67,63.681,27953,1780086.6527,115,63.685,63.675,63.68,63.67,-0.0015523080782740175,-0.0017713264570335698,xom,20200130
2020-01-30,12:54,12:54 PM,63.675,63.67,63.674,600,38204.5,5,63.68,63.665,63.672,10564,672635.23,57,63.675,63.675,63.674,63.67,-0.001599347717009594,-0.0019124055553813822,xom,20200130
2020-01-30,12:55,12:55 PM,63.675,63.665,63.67,1302,82897.83,9,63.679,63.66,63.669,12857,818586.0347,70,63.675,63.665,63.67,63.663,-0.0016620672353236585,-0.0019594319214973196,xom,20200130
2020-01-30,12:56,12:56 PM,63.675,63.64,63.656,1030,65565.355,12,63.68,63.635,63.656,21311,1356571.471,148,63.655,63.675,63.66,63.68,-0.0018815855494230516,-0.0021632128413330114,xom,20200130
2020-01-30,12:57,12:57 PM,63.685,63.68,63.683,1320,84062.1,10,63.69,63.67,63.68,15946,1015447.5972,91,63.68,63.685,63.673,63.68,-0.001458228800802865,-0.001787001912405512,xom,20200130
2020-01-30,12:58,12:58 PM,63.675,63.655,63.663,700,44564.0,7,63.685,63.65,63.665,34007,2165058.0927,134,63.675,63.655,63.67,63.683,-0.0017718263923734107,-0.002022133742985199,xom,20200130
2020-01-30,12:59,12:59 PM,63.69,63.665,63.677,1066,67879.71,10,63.69,63.66,63.673,17591,1120074.7579,79,63.69,63.665,63.69,63.67,-0.0015523080782740175,-0.0018967301000093286,xom,20200130
2020-01-30,13:00,1 PM,63.68,63.675,63.676,500,31838.0,5,63.685,63.67,63.675,9596,611027.8233,67,63.68,63.675,63.67,63.675,-0.001567987957852506,-0.0018653791892654446,xom,20200130
2020-01-30,13:01,1:01 PM,63.675,63.655,63.663,3023,192453.825,29,63.675,63.65,63.661,25058,1595230.7218,128,63.675,63.655,63.675,63.65,-0.0017718263923734107,-0.0020848355644730787,xom,20200130
2020-01-30,13:02,1:02 PM,63.655,63.63,63.642,2002,127410.86,17,63.662,63.63,63.649,16571,1054722.806,125,63.655,63.655,63.65,63.662,-0.0021011038635223335,-0.0022729410289368283,xom,20200130
2020-01-30,13:03,1:03 PM,63.715,63.665,63.685,1784,113614.455,17,63.72,63.655,63.685,32666,2080343.5794,171,63.665,63.715,63.665,63.715,-0.001426869041645777,-0.001708624635545579,xom,20200130
2020-01-30,13:04,1:04 PM,63.735,63.71,63.723,1800,114701.0,12,63.74,63.7,63.722,35152,2239953.2505,161,63.715,63.715,63.715,63.71,-0.000831033617661885,-0.0011286327867823876,xom,20200130
2020-01-30,13:05,1:05 PM,63.715,63.695,63.704,1800,114668.0,13,63.715,63.69,63.704,12953,825155.99,86,63.715,63.695,63.71,63.695,-0.001128951329653831,-0.0014107909834780122,xom,20200130
2020-01-30,13:06,1:06 PM,63.695,63.685,63.694,3200,203821.5,15,63.7,63.68,63.693,16877,1074950.119,67,63.695,63.685,63.69,63.685,-0.0012857501254390483,-0.00158322099256982,xom,20200130
2020-01-30,13:07,1:07 PM,63.69,63.665,63.679,2867,182568.73,13,63.69,63.655,63.678,17827,1135184.66,94,63.685,63.665,63.68,63.665,-0.0015209483191169295,-0.0018183528231495072,xom,20200130
2020-01-30,13:08,1:08 PM,63.665,63.64,63.646,2240,142567.7,14,63.665,63.64,63.648,10245,652073.757,59,63.665,63.645,63.665,63.645,-0.002038384345208269,-0.0022886164843087704,xom,20200130
2020-01-30,13:09,1:09 PM,63.65,63.645,63.647,2528,160899.645,19,63.65,63.64,63.648,16758,1066612.7082,84,63.645,63.65,63.641,63.645,-0.0020227044656297806,-0.0022886164843087704,xom,20200130
2020-01-30,13:10,1:10 PM,63.705,63.645,63.684,1958,124693.02,14,63.705,63.645,63.676,26359,1678429.0693,153,63.645,63.69,63.645,63.7,-0.0014425489212243768,-0.0018497037338933912,xom,20200130
2020-01-30,13:11,1:11 PM,63.725,63.71,63.715,1682,107169.04,15,63.73,63.705,63.717,17661,1125311.1656,105,63.715,63.725,63.705,63.73,-0.0009564726542900141,-0.0012070100636423203,xom,20200130
2020-01-30,13:12,1:12 PM,63.745,63.725,63.735,1764,112428.77,15,63.75,63.72,63.735,14129,900516.5605,99,63.725,63.745,63.725,63.745,-0.0006428750627195797,-0.0009248518669466956,xom,20200130
2020-01-30,13:13,1:13 PM,63.755,63.735,63.747,2383,151909.835,19,63.755,63.735,63.748,51832,3304181.735,184,63.745,63.745,63.75,63.745,-0.00045471650777727463,-0.0007210709471110039,xom,20200130
2020-01-30,13:14,1:14 PM,63.755,63.725,63.744,2000,127487.5,16,63.76,63.72,63.744,24580,1566833.9902,129,63.755,63.725,63.75,63.725,-0.0005017561465128509,-0.0007837727685988833,xom,20200130
2020-01-30,13:15,1:15 PM,63.74,63.72,63.726,801,51044.74,9,63.74,63.72,63.729,11459,730271.3203,76,63.725,63.735,63.725,63.74,-0.0007839939789263087,-0.0010189045991785706,xom,20200130
2020-01-30,13:16,1:16 PM,63.765,63.73,63.75,1300,82875.0,13,63.775,63.725,63.748,23272,1483537.2489,137,63.73,63.765,63.74,63.765,-0.00040767686904169835,-0.0007210709471110039,xom,20200130
2020-01-30,13:17,1:17 PM,63.77,63.75,63.76,1219,77723.535,12,63.77,63.745,63.758,17689,1127816.8063,110,63.76,63.765,63.76,63.765,-0.0002508780732564812,-0.0005643163933911381,xom,20200130
2020-01-30,13:18,1:18 PM,63.765,63.725,63.756,1613,102838.925,17,63.767,63.72,63.751,23555,1501650.8322,117,63.765,63.735,63.765,63.73,-0.00031359759157054574,-0.0006740445809950663,xom,20200130
2020-01-30,13:19,1:19 PM,63.74,63.715,63.732,2179,138871.275,22,63.74,63.71,63.729,36125,2302224.8598,171,63.73,63.715,63.73,63.71,-0.000689914701455156,-0.0010189045991785706,xom,20200130
2020-01-30,13:20,1:20 PM,63.725,63.7,63.71,1409,89767.345,15,63.73,63.7,63.716,26161,1666883.92,131,63.705,63.705,63.71,63.705,-0.0010348720521826784,-0.0012226855190142624,xom,20200130
2020-01-30,13:21,1:21 PM,63.755,63.725,63.745,1007,64191.785,11,63.76,63.702,63.736,33502,2135268.3275,197,63.725,63.755,63.705,63.76,-0.00048607626693436263,-0.0009091764115747536,xom,20200130
2020-01-30,13:22,1:22 PM,63.755,63.745,63.752,526,33533.63,5,63.756,63.74,63.748,13046,831662.7144,80,63.755,63.745,63.755,63.74,-0.00037631710988461034,-0.0007210709471110039,xom,20200130
2020-01-30,13:23,1:23 PM,63.75,63.74,63.745,521,33211.095,7,63.75,63.73,63.744,23709,1511304.9227,112,63.75,63.745,63.745,63.745,-0.00048607626693436263,-0.0007837727685988833,xom,20200130
2020-01-30,13:24,1:24 PM,63.745,63.735,63.737,1700,108353.0,18,63.75,63.73,63.737,22296,1421090.0717,159,63.745,63.735,63.745,63.73,-0.0006115153035624917,-0.0008935009562027002,xom,20200130
2020-01-30,13:25,1:25 PM,63.735,63.72,63.73,900,57357.0,8,63.74,63.71,63.728,11766,749828.36,81,63.73,63.72,63.73,63.71,-0.000721274460612244,-0.0010345800545505125,xom,20200130
2020-01-30,13:26,1:26 PM,63.725,63.7,63.715,1176,74928.34,11,63.725,63.7,63.712,21521,1371137.4442,119,63.71,63.7,63.716,63.701,-0.0009564726542900141,-0.001285387340502142,xom,20200130
2020-01-30,13:27,1:27 PM,63.715,63.71,63.711,500,31855.5,3,63.72,63.705,63.713,12774,813869.0378,88,63.715,63.71,63.71,63.71,-0.0010191921726041902,-0.0012697118851301998,xom,20200130
2020-01-30,13:28,1:28 PM,63.725,63.71,63.719,1596,101695.64,9,63.73,63.71,63.718,20284,1292462.6769,122,63.715,63.715,63.718,63.71,-0.0008937531359759495,-0.001191334608270267,xom,20200130
2020-01-30,13:29,1:29 PM,63.715,63.695,63.706,416,26501.78,6,63.72,63.695,63.705,13544,862817.424,91,63.71,63.695,63.71,63.7,-0.001097591570496743,-0.00139511552810607,xom,20200130
2020-01-30,13:30,1:30 PM,63.72,63.7,63.706,1786,113779.63,18,63.73,63.69,63.709,48629,3098111.595,186,63.705,63.705,63.705,63.708,-0.001097591570496743,-0.0013324137066180793,xom,20200130
2020-01-30,13:31,1:31 PM,63.745,63.705,63.728,1112,70865.82,12,63.75,63.7,63.724,22356,1424607.3426,145,63.705,63.745,63.705,63.75,-0.0007526342197692207,-0.0010972818760385033,xom,20200130
2020-01-30,13:32,1:32 PM,63.775,63.775,63.775,300,19132.5,3,63.78,63.745,63.769,10438,665623.6365,59,63.775,63.775,63.745,63.775,-1.5679879578599707e-05,-0.00039188638429944164,xom,20200130
2020-01-30,13:33,1:33 PM,63.825,63.77,63.815,2225,141988.125,22,63.83,63.77,63.811,60711,3874057.655,267,63.77,63.825,63.77,63.825,0.0006115153035623804,0.0002664827413236827,xom,20200130
2020-01-30,13:34,1:34 PM,63.825,63.81,63.823,1547,98734.105,16,63.83,63.81,63.821,35298,2252751.9005,153,63.825,63.825,63.825,63.825,0.000736954340190621,0.0004232372950434371,xom,20200130
2020-01-30,13:35,1:35 PM,63.82,63.81,63.816,367,23420.44,4,63.83,63.81,63.819,18124,1156653.826,114,63.81,63.815,63.825,63.815,0.0006271951831409801,0.00039188638429955304,xom,20200130
2020-01-30,13:36,1:36 PM,63.825,63.815,63.821,900,57438.5,10,63.83,63.81,63.816,21426,1367320.2,105,63.815,63.825,63.81,63.82,0.000705594581033533,0.0003448600181836156,xom,20200130
2020-01-30,13:37,1:37 PM,63.83,63.81,63.822,584,37272.22,6,63.84,63.8,63.818,42900,2737785.7999,188,63.815,63.83,63.82,63.825,0.0007212744606121327,0.0003762109289274996,xom,20200130
2020-01-30,13:38,1:38 PM,63.82,63.81,63.813,400,25525.0,3,63.825,63.77,63.804,25697,1639577.936,137,63.82,63.81,63.825,63.806,0.0005801555444054037,0.00015675455371986577,xom,20200130
2020-01-30,13:39,1:39 PM,63.825,63.81,63.815,401,25589.82,4,63.83,63.804,63.818,7467,476527.3237,50,63.815,63.825,63.804,63.83,0.0006115153035623804,0.0003762109289274996,xom,20200130
2020-01-30,13:40,1:40 PM,63.845,63.825,63.838,744,47495.5,10,63.85,63.82,63.838,16866,1076685.9597,113,63.825,63.835,63.825,63.835,0.0009721525338685024,0.0006897200363671197,xom,20200130
2020-01-30,13:41,1:41 PM,63.85,63.835,63.84,300,19152.0,4,63.85,63.83,63.841,55150,3520809.144,136,63.835,63.85,63.835,63.845,0.0010035122930255904,0.0007367464024830572,xom,20200130
2020-01-30,13:42,1:42 PM,63.845,63.845,63.845,100,6384.5,1,63.85,63.821,63.838,18339,1170726.8902,80,63.845,63.845,63.845,63.83,0.0010819116909181433,0.0006897200363671197,xom,20200130
2020-01-30,13:43,1:43 PM,63.85,63.84,63.846,400,25538.5,4,63.87,63.825,63.843,37978,2424616.204,157,63.84,63.85,63.83,63.87,0.0010975915704966315,0.0007680973132270526,xom,20200130
2020-01-30,13:44,1:44 PM,63.86,63.83,63.845,600,38307.0,6,63.87,63.83,63.843,23442,1496616.8351,107,63.86,63.84,63.867,63.85,0.0010819116909181433,0.0007680973132270526,xom,20200130
2020-01-30,13:45,1:45 PM,63.855,63.855,63.855,100,6385.5,1,63.86,63.85,63.854,15384,982327.5704,72,63.855,63.855,63.85,63.85,0.0012387104867033604,0.0009405273223187491,xom,20200130
2020-01-30,13:46,1:46 PM,63.88,63.87,63.876,600,38325.5,5,63.89,63.85,63.878,21621,1381111.825,85,63.875,63.88,63.85,63.88,0.0015679879578523945,0.0013167382512462487,xom,20200130
2020-01-30,13:47,1:47 PM,63.88,63.88,63.88,300,19164.0,2,63.89,63.87,63.881,7900,504656.9912,54,63.88,63.88,63.88,63.88,0.0016307074761665705,0.001363764617362186,xom,20200130
2020-01-30,13:48,1:48 PM,63.87,63.83,63.852,277,17687.095,4,63.89,63.825,63.857,17837,1139017.4479,103,63.87,63.83,63.881,63.83,0.0011916708479677842,0.0009875536884346866,xom,20200130
2020-01-30,13:49,1:49 PM,63.83,63.795,63.802,1600,102083.5,8,63.84,63.79,63.806,22577,1440543.3997,104,63.83,63.795,63.83,63.79,0.0004076768690415869,0.0001881054644637498,xom,20200130
2020-01-30,13:50,1:50 PM,,,,0,0.0,0,63.8,63.775,63.786,12333,786677.7214,72,,,63.79,63.779,,-0.00012540364297575896,xom,20200130
2020-01-30,13:51,1:51 PM,63.775,63.765,63.771,323,20598.095,4,63.78,63.76,63.773,19235,1226668.1586,106,63.765,63.765,63.779,63.775,-7.839939789266428e-05,-0.00032918456281145076,xom,20200130
2020-01-30,13:52,1:52 PM,63.775,63.775,63.775,200,12755.0,2,63.78,63.76,63.767,28550,1820558.1851,92,63.775,63.775,63.78,63.77,-1.5679879578599707e-05,-0.0004232372950433257,xom,20200130
2020-01-30,13:53,1:53 PM,63.795,63.78,63.782,900,57404.0,5,63.8,63.775,63.784,23941,1527062.4073,140,63.78,63.78,63.775,63.775,9.407927747104117e-05,-0.00015675455371975437,xom,20200130
2020-01-30,13:54,1:54 PM,63.775,63.775,63.775,300,19132.5,3,63.78,63.75,63.766,6136,391266.2196,52,63.775,63.775,63.775,63.755,-1.5679879578599707e-05,-0.0004389127504153791,xom,20200130
2020-01-30,13:55,1:55 PM,63.755,63.75,63.754,400,25501.5,5,63.76,63.75,63.754,15285,974475.2177,88,63.755,63.755,63.756,63.756,-0.00034495735072763374,-0.0006270182148791289,xom,20200130
2020-01-30,13:56,1:56 PM,63.76,63.755,63.758,200,12751.5,2,63.78,63.75,63.763,18969,1209514.2346,135,63.76,63.755,63.75,63.75,-0.00028223783241345773,-0.00048593911653131656,xom,20200130
2020-01-30,13:57,1:57 PM,63.755,63.74,63.749,216,13769.84,4,63.76,63.735,63.745,15233,971034.7902,102,63.755,63.745,63.754,63.735,-0.0004233567486201866,-0.0007680973132269413,xom,20200130
2020-01-30,13:58,1:58 PM,63.74,63.735,63.737,973,62016.52,7,63.75,63.73,63.74,20203,1287738.8193,123,63.735,63.74,63.735,63.75,-0.0006115153035624917,-0.0008464745900867627,xom,20200130
2020-01-30,13:59,1:59 PM,63.765,63.75,63.762,629,40106.435,6,63.778,63.75,63.761,21232,1353771.318,120,63.755,63.75,63.75,63.778,-0.00021951831409939315,-0.0005172900272752005,xom,20200130
2020-01-30,14:00,2 PM,63.785,63.78,63.781,560,35717.3,7,63.8,63.775,63.785,11931,761013.1109,94,63.78,63.78,63.78,63.785,7.839939789255288e-05,-0.00014107909834781235,xom,20200130
2020-01-30,14:01,2:01 PM,63.835,63.8,63.818,661,42184.02,9,63.84,63.781,63.817,43286,2762393.3296,212,63.81,63.835,63.781,63.83,0.0006585549422979567,0.0003605354735555576,xom,20200130
2020-01-30,14:02,2:02 PM,63.83,63.81,63.82,300,19146.0,3,63.83,63.795,63.811,13239,844788.7812,86,63.83,63.82,63.83,63.825,0.0006899147014550447,0.0002664827413236827,xom,20200130
2020-01-30,14:03,2:03 PM,63.83,63.82,63.825,756,48251.48,5,63.83,63.805,63.82,8101,517003.6358,62,63.83,63.82,63.825,63.805,0.000768314099347709,0.00040756183967149506,xom,20200130
2020-01-30,14:04,2:04 PM,63.815,63.795,63.8,250,15949.93,4,63.82,63.785,63.805,20259,1292626.2659,128,63.815,63.795,63.805,63.795,0.0003763171098844989,0.0001724300090918078,xom,20200130
2020-01-30,14:05,2:05 PM,63.785,63.785,63.785,100,6378.5,1,63.8,63.78,63.789,11254,717878.2068,80,63.785,63.785,63.795,63.785,0.00014111891620661746,-7.83772768598215e-05,xom,20200130
2020-01-30,14:06,2:06 PM,63.79,63.785,63.786,910,58045.35,9,63.805,63.775,63.79,25543,1629383.096,139,63.785,63.79,63.785,63.8,0.00015679879578521717,-6.270182148787948e-05,xom,20200130
2020-01-30,14:07,2:07 PM,63.775,63.775,63.775,450,28698.75,5,63.81,63.76,63.778,12088,770948.1038,64,63.775,63.775,63.8,63.775,-1.5679879578599707e-05,-0.00025080728595162926,xom,20200130
2020-01-30,14:08,2:08 PM,63.795,63.77,63.783,843,53768.825,10,63.81,63.76,63.783,20812,1327451.031,157,63.775,63.775,63.775,63.76,0.00010975915704964087,-0.00017243000909169642,xom,20200130
2020-01-30,14:09,2:09 PM,63.795,63.775,63.79,723,46120.485,9,63.8,63.765,63.788,24908,1588837.3932,151,63.775,63.785,63.765,63.785,0.00021951831409928175,-9.40527322318749e-05,xom,20200130
2020-01-30,14:10,2:10 PM,63.785,63.765,63.775,1638,104463.88,22,63.79,63.76,63.779,21286,1357591.3875,161,63.775,63.785,63.788,63.785,-1.5679879578599707e-05,-0.00023513183057957587,xom,20200130
2020-01-30,14:11,2:11 PM,63.78,63.765,63.773,1272,81119.07,20,63.79,63.76,63.774,16523,1053741.7096,103,63.775,63.775,63.78,63.775,-4.703963873557629e-05,-0.00031350910743950874,xom,20200130
2020-01-30,14:12,2:12 PM,63.775,63.75,63.767,469,29906.82,6,63.78,63.74,63.764,29159,1859306.8412,168,63.775,63.75,63.78,63.74,-0.00014111891620672887,-0.00047026366115926314,xom,20200130
2020-01-30,14:13,2:13 PM,63.76,63.745,63.754,449,28625.755,7,63.78,63.74,63.76,19092,1217297.3189,140,63.755,63.755,63.75,63.78,-0.00034495735072763374,-0.000532965482647254,xom,20200130
2020-01-30,14:14,2:14 PM,63.745,63.73,63.735,340,21669.9,6,63.77,63.725,63.743,13495,860214.1573,87,63.745,63.735,63.77,63.73,-0.0006428750627195797,-0.0007994482239708253,xom,20200130
2020-01-30,14:15,2:15 PM,63.76,63.725,63.743,967,61639.245,10,63.77,63.725,63.745,40725,2596018.0214,201,63.735,63.76,63.73,63.765,-0.0005174360260913392,-0.0007680973132269413,xom,20200130
2020-01-30,14:16,2:16 PM,63.76,63.76,63.76,100,6376.0,1,63.78,63.75,63.764,19765,1260288.2425,118,63.76,63.76,63.77,63.77,-0.0002508780732564812,-0.00047026366115926314,xom,20200130
2020-01-30,14:17,2:17 PM,63.785,63.765,63.778,300,19133.5,3,63.79,63.76,63.773,13618,868466.4374,82,63.765,63.785,63.77,63.785,3.135975915697658e-05,-0.00032918456281145076,xom,20200130
2020-01-30,14:18,2:18 PM,63.805,63.785,63.799,948,60481.585,9,63.815,63.785,63.802,25634,1635499.3044,154,63.785,63.805,63.785,63.8,0.0003606372303060106,0.00012540364297587033,xom,20200130
2020-01-30,14:19,2:19 PM,63.81,63.805,63.807,300,19142.0,3,63.81,63.79,63.803,15562,992895.6378,103,63.805,63.805,63.805,63.805,0.0004860762669342512,0.00014107909834781235,xom,20200130
2020-01-30,14:20,2:20 PM,63.805,63.8,63.805,3941,251454.005,23,63.81,63.795,63.804,17336,1106099.3013,85,63.805,63.805,63.81,63.808,0.00045471650777716323,0.00015675455371986577,xom,20200130
2020-01-30,14:21,2:21 PM,63.845,63.805,63.823,708,45186.56,8,63.85,63.803,63.827,31303,1997990.5359,177,63.81,63.845,63.805,63.85,0.000736954340190621,0.000517290027275312,xom,20200130
2020-01-30,14:22,2:22 PM,63.885,63.855,63.875,2700,172463.5,20,63.89,63.845,63.872,20861,1332427.0215,153,63.855,63.875,63.85,63.86,0.001552308078273906,0.0012226855190143738,xom,20200130
2020-01-30,14:23,2:23 PM,63.885,63.86,63.873,859,54867.415,9,63.895,63.86,63.875,27165,1735173.3905,178,63.875,63.885,63.86,63.895,0.001520948319116818,0.0012697118851303112,xom,20200130
2020-01-30,14:24,2:24 PM,63.895,63.885,63.893,3001,191744.165,17,63.9,63.88,63.889,29552,1888053.9648,144,63.895,63.885,63.9,63.885,0.001834545910687364,0.0014891682603380564,xom,20200130
2020-01-30,14:25,2:25 PM,63.915,63.89,63.899,1088,69521.73,15,63.925,63.885,63.903,30905,1974930.8189,192,63.89,63.905,63.89,63.925,0.0019286251881585165,0.0017086246355456902,xom,20200130
2020-01-30,14:26,2:26 PM,63.935,63.925,63.928,400,25571.0,3,63.94,63.92,63.932,14315,915188.9687,101,63.935,63.925,63.925,63.94,0.0023833416959356795,0.002163212841333123,xom,20200130
2020-01-30,14:27,2:27 PM,63.925,63.925,63.925,500,31962.5,5,63.93,63.91,63.923,14164,905402.932,101,63.925,63.925,63.925,63.93,0.0023363020572001033,0.0020221337429853106,xom,20200130
2020-01-30,14:28,2:28 PM,63.93,63.915,63.922,406,25952.55,5,63.94,63.9,63.924,38197,2441722.2424,215,63.93,63.925,63.925,63.925,0.002289262418464527,0.0020378091983572523,xom,20200130
2020-01-30,14:29,2:29 PM,63.92,63.875,63.891,770,49195.95,8,63.93,63.875,63.902,22654,1447634.4355,124,63.92,63.885,63.92,63.885,0.001803186151530276,0.0016929491801737483,xom,20200130
2020-01-30,14:30,2:30 PM,63.89,63.865,63.877,916,58511.74,10,63.89,63.86,63.875,17768,1134931.205,109,63.885,63.875,63.88,63.875,0.001583667837430994,0.0012697118851303112,xom,20200130
2020-01-30,14:31,2:31 PM,63.885,63.885,63.885,160,10221.6,3,63.89,63.87,63.88,13867,885818.6052,105,63.885,63.885,63.88,63.885,0.0017091068740591234,0.0013480891619902441,xom,20200130
2020-01-30,14:32,2:32 PM,63.895,63.885,63.892,666,42551.87,11,63.9,63.88,63.89,25146,1606573.6146,115,63.885,63.895,63.885,63.9,0.0018188660311088756,0.0015048437157099985,xom,20200130
2020-01-30,14:33,2:33 PM,63.895,63.88,63.889,796,50855.49,10,63.9,63.88,63.886,21064,1345687.866,120,63.89,63.895,63.883,63.89,0.0017718263923732994,0.001442141894222119,xom,20200130
2020-01-30,14:34,2:34 PM,63.875,63.85,63.854,742,47379.755,10,63.9,63.845,63.862,26890,1717254.5762,163,63.875,63.85,63.895,63.845,0.0012230306071248722,0.0010659309652946193,xom,20200130
2020-01-30,14:35,2:35 PM,63.845,63.835,63.839,400,25535.5,5,63.85,63.83,63.838,8804,562028.8972,48,63.845,63.835,63.85,63.836,0.0009878324134469907,0.0006897200363671197,xom,20200130
2020-01-30,14:36,2:36 PM,63.83,63.8,63.815,604,38544.22,9,63.84,63.8,63.828,32088,2048126.4693,208,63.83,63.8,63.835,63.803,0.0006115153035623804,0.0005329654826473654,xom,20200130
2020-01-30,14:37,2:37 PM,63.8,63.79,63.795,300,19138.5,3,63.8,63.785,63.795,16347,1042859.1919,90,63.8,63.79,63.8,63.79,0.00029791771199194606,1.5675455372053404e-05,xom,20200130
2020-01-30,14:38,2:38 PM,63.81,63.795,63.804,830,52957.65,9,63.82,63.77,63.804,49590,3164028.0477,216,63.8,63.81,63.79,63.78,0.0004390366281986749,0.00015675455371986577,xom,20200130
2020-01-30,14:39,2:39 PM,63.775,63.76,63.772,215,13710.9,3,63.78,63.75,63.763,22137,1411520.3172,93,63.775,63.76,63.776,63.758,-6.2719518314176e-05,-0.00048593911653131656,xom,20200130
2020-01-30,14:40,2:40 PM,63.745,63.735,63.739,1170,74574.65,7,63.76,63.73,63.742,46566,2968199.0543,218,63.735,63.745,63.75,63.74,-0.0005801555444055152,-0.0008151236793428787,xom,20200130
2020-01-30,14:41,2:41 PM,63.76,63.735,63.745,857,54629.25,8,63.77,63.73,63.745,51713,3296467.3459,261,63.735,63.75,63.74,63.73,-0.00048607626693436263,-0.0007680973132269413,xom,20200130
2020-01-30,14:42,2:42 PM,63.93,63.735,63.825,1701,108565.965,20,63.95,63.73,63.849,130128,8308524.7259,630,63.74,63.89,63.73,63.905,0.000768314099347709,0.0008621500454588162,xom,20200130
2020-01-30,14:43,2:43 PM,63.995,63.775,63.869,2462,157245.525,29,64.02,63.75,63.881,193969,12390937.9508,886,63.905,63.78,63.9,63.76,0.0014582288008027535,0.001363764617362186,xom,20200130
2020-01-30,14:44,2:44 PM,63.78,63.735,63.761,1121,71475.695,12,63.795,63.73,63.771,76396,4871856.2364,354,63.74,63.77,63.76,63.775,-0.00023519819367788145,-0.0003605354735554462,xom,20200130
2020-01-30,14:45,2:45 PM,63.8,63.77,63.782,400,25513.0,3,63.83,63.75,63.779,57910,3693463.938,219,63.77,63.8,63.774,63.75,9.407927747104117e-05,-0.00023513183057957587,xom,20200130
2020-01-30,14:46,2:46 PM,63.75,63.71,63.73,1736,110635.0,17,63.76,63.71,63.734,38055,2425408.9323,248,63.735,63.75,63.745,63.75,-0.000721274460612244,-0.0009405273223186376,xom,20200130
2020-01-30,14:47,2:47 PM,63.92,63.77,63.833,3828,244352.33,26,63.92,63.74,63.843,80579,5144406.9815,428,63.77,63.82,63.74,63.838,0.0008937531359758381,0.0007680973132270526,xom,20200130
2020-01-30,14:48,2:48 PM,63.89,63.835,63.859,740,47255.9,8,63.9,63.805,63.858,33442,2135531.2336,213,63.84,63.89,63.84,63.85,0.0013014300050175364,0.0010032291438066285,xom,20200130
2020-01-30,14:49,2:49 PM,63.88,63.835,63.857,605,38633.31,7,63.9,63.82,63.847,45580,2910133.3931,195,63.86,63.84,63.85,63.832,0.0012700702458604484,0.0008307991347149321,xom,20200130
2020-01-30,14:50,2:50 PM,63.885,63.86,63.867,507,32380.625,6,63.9,63.84,63.861,26799,1711423.6727,193,63.86,63.885,63.84,63.844,0.0014268690416456655,0.001050255509922566,xom,20200130
2020-01-30,14:51,2:51 PM,63.86,63.83,63.84,568,36261.435,7,63.86,63.8,63.837,26626,1699721.6602,177,63.86,63.83,63.845,63.84,0.0010035122930255904,0.0006740445809951777,xom,20200130
2020-01-30,14:52,2:52 PM,63.85,63.83,63.839,317,20236.865,4,63.86,63.83,63.85,48876,3120729.9875,245,63.845,63.85,63.85,63.86,0.0009878324134469907,0.0008778255008308696,xom,20200130
2020-01-30,14:53,2:53 PM,63.91,63.835,63.867,2557,163307.3,22,63.91,63.82,63.867,122121,7799473.6386,632,63.835,63.91,63.85,63.91,0.0014268690416456655,0.001144308242154441,xom,20200130
2020-01-30,14:54,2:54 PM,63.92,63.905,63.911,925,59117.625,12,63.94,63.89,63.91,48262,3084437.3206,216,63.905,63.915,63.9,63.916,0.002116783743100822,0.0018183528231495072,xom,20200130
2020-01-30,14:55,2:55 PM,63.975,63.915,63.949,579,37026.72,11,63.98,63.917,63.963,35553,2274082.941,185,63.915,63.97,63.92,63.97,0.0027126191670847136,0.0026491519578644394,xom,20200130
2020-01-30,14:56,2:56 PM,64.035,63.98,63.986,414,26490.04,6,64.07,63.97,64.003,29756,1904486.8299,153,63.98,64.035,63.97,64.03,0.0032927747114901177,0.0032761701727435683,xom,20200130
2020-01-30,14:57,2:57 PM,64.04,64.02,64.022,1068,68375.72,7,64.05,64.0,64.024,23456,1501749.716,149,64.02,64.04,64.038,64.025,0.0038572503763171445,0.0036053547355551305,xom,20200130
2020-01-30,14:58,2:58 PM,64.025,64.005,64.014,1227,78544.975,14,64.04,63.99,64.012,42947,2749128.9565,204,64.025,64.02,64.02,64.025,0.0037318113396887925,0.0034172492710913805,xom,20200130
2020-01-30,14:59,2:59 PM,64.125,64.03,64.097,2192,140501.715,24,64.13,64.021,64.09,45922,2943144.5093,241,64.03,64.125,64.021,64.13,0.0050332413447063285,0.004639934790105754,xom,20200130
2020-01-30,15:00,3 PM,64.16,64.105,64.126,1177,75475.94,14,64.16,64.105,64.138,40650,2607205.7482,196,64.16,64.145,64.135,64.14,0.005487957852483715,0.005392356647960754,xom,20200130
2020-01-30,15:01,3:01 PM,64.175,64.095,64.128,642,41170.495,10,64.18,64.085,64.138,32280,2070363.4747,150,64.14,64.135,64.14,64.15,0.005519317611640691,0.005392356647960754,xom,20200130
2020-01-30,15:02,3:02 PM,64.185,64.15,64.178,700,44924.5,7,64.19,64.144,64.167,31330,2010344.3363,196,64.18,64.185,64.16,64.175,0.006303311590566889,0.005846944853748075,xom,20200130
2020-01-30,15:03,3:03 PM,64.265,64.185,64.221,2140,137431.88,27,64.28,64.173,64.209,57429,3687430.559,280,64.185,64.265,64.173,64.28,0.006977546412443556,0.006505313979371199,xom,20200130
2020-01-30,15:04,3:04 PM,64.375,64.265,64.325,4355,280136.36,27,64.39,64.255,64.313,67307,4328726.3114,412,64.27,64.375,64.275,64.39,0.008608253888610126,0.008135561338056957,xom,20200130
2020-01-30,15:05,3:05 PM,64.365,64.29,64.332,4217,271285.975,31,64.4,64.29,64.336,73840,4750558.4537,480,64.365,64.325,64.4,64.325,0.008718013045659657,0.008496096811612402,xom,20200130
2020-01-30,15:06,3:06 PM,64.33,64.25,64.294,1700,109300.0,17,64.34,64.23,64.293,47784,3072170.3437,335,64.33,64.255,64.33,64.256,0.008122177621675764,0.007822052230617448,xom,20200130
2020-01-30,15:07,3:07 PM,64.3,64.26,64.289,3503,225204.81,20,64.32,64.255,64.287,50091,3220210.8798,241,64.26,64.285,64.26,64.28,0.008043778223783212,0.0077279994983855725,xom,20200130
2020-01-30,15:08,3:08 PM,64.3,64.28,64.291,1520,97722.905,15,64.31,64.28,64.296,37871,2434951.0608,231,64.28,64.285,64.28,64.305,0.008075137982940189,0.007869078596733385,xom,20200130
2020-01-30,15:09,3:09 PM,64.305,64.27,64.293,2004,128843.08,16,64.31,64.25,64.285,34656,2227871.5681,222,64.305,64.285,64.31,64.25,0.008106497742097388,0.007696648587641466,xom,20200130
2020-01-30,15:10,3:10 PM,64.3,64.25,64.284,460,29570.52,8,64.305,64.245,64.276,27189,1747592.8624,149,64.25,64.25,64.25,64.25,0.007965378825890658,0.007555569489293654,xom,20200130
2020-01-30,15:11,3:11 PM,64.27,64.215,64.242,809,51971.81,11,64.27,64.215,64.244,28567,1835259.5456,187,64.25,64.24,64.24,64.245,0.00730682388359259,0.007053954917390395,xom,20200130
2020-01-30,15:12,3:12 PM,64.245,64.205,64.222,1112,71415.105,11,64.255,64.2,64.23,51881,3332298.7668,278,64.22,64.225,64.245,64.22,0.0069932262920219335,0.006834498542182761,xom,20200130
2020-01-30,15:13,3:13 PM,64.21,64.205,64.206,1300,83467.5,7,64.22,64.181,64.204,23318,1497118.6528,133,64.21,64.205,64.22,64.195,0.006742348218765675,0.0064269367025111546,xom,20200130
2020-01-30,15:14,3:14 PM,64.23,64.2,64.205,220,14125.02,5,64.23,64.17,64.205,39520,2537392.4716,219,64.21,64.23,64.2,64.205,0.006726668339187075,0.006442612157883209,xom,20200130
2020-01-30,15:15,3:15 PM,64.215,64.165,64.186,622,39923.42,7,64.22,64.164,64.195,17656,1133433.0205,124,64.21,64.215,64.205,64.215,0.006428750627195241,0.006285857604163342,xom,20200130
2020-01-30,15:16,3:16 PM,64.215,64.175,64.197,1112,71386.6,10,64.24,64.165,64.215,49274,3164115.048,219,64.215,64.175,64.22,64.165,0.006601229302558946,0.006599366711603074,xom,20200130
2020-01-30,15:17,3:17 PM,64.245,64.175,64.212,1100,70633.0,10,64.258,64.17,64.233,46429,2982273.1765,200,64.175,64.245,64.17,64.258,0.006836427496236828,0.006881524908298698,xom,20200130
2020-01-30,15:18,3:18 PM,64.32,64.255,64.287,1785,114753.22,18,64.33,64.25,64.3,43866,2820588.143,243,64.255,64.32,64.26,64.32,0.008012418464626235,0.007931780418221153,xom,20200130
2020-01-30,15:19,3:19 PM,64.325,64.275,64.311,3374,216987.215,21,64.339,64.27,64.311,56030,3603329.145,289,64.325,64.28,64.33,64.28,0.008388735574510845,0.008104210427313073,xom,20200130
2020-01-30,15:20,3:20 PM,64.335,64.285,64.314,1523,97949.74,17,64.35,64.28,64.315,23155,1489212.8219,166,64.285,64.335,64.289,64.35,0.008435775213246198,0.008166912248800841,xom,20200130
2020-01-30,15:21,3:21 PM,64.39,64.325,64.353,1641,105602.76,19,64.4,64.32,64.36,31913,2053915.4052,191,64.34,64.37,64.348,64.37,0.00904729051680869,0.008872307740539903,xom,20200130
2020-01-30,15:22,3:22 PM,64.395,64.355,64.389,2245,144553.7,9,64.42,64.355,64.393,49304,3174823.8999,217,64.365,64.395,64.37,64.4,0.009611766181635607,0.009389597767815214,xom,20200130
2020-01-30,15:23,3:23 PM,64.415,64.365,64.393,1549,99744.63,18,64.44,64.36,64.404,43898,2827222.2041,239,64.385,64.415,64.388,64.425,0.009674485699949782,0.009562027776906911,xom,20200130
2020-01-30,15:24,3:24 PM,64.445,64.405,64.429,1708,110044.47,14,64.46,64.405,64.433,43624,2810803.4033,219,64.425,64.44,64.425,64.459,0.010238961364776698,0.010016615982694455,xom,20200130
2020-01-30,15:25,3:25 PM,64.47,64.41,64.44,1106,71270.45,10,64.48,64.4,64.429,38082,2453592.374,192,64.47,64.41,64.46,64.405,0.010411440040140402,0.009953914161206464,xom,20200130
2020-01-30,15:26,3:26 PM,64.44,64.395,64.417,1654,106545.97,15,64.45,64.39,64.418,28557,1839600.1864,185,64.395,64.415,64.395,64.39,0.010050802809834392,0.009781484152114767,xom,20200130
2020-01-30,15:27,3:27 PM,64.43,64.365,64.398,1516,97627.72,16,64.44,64.36,64.398,33095,2131246.5266,187,64.395,64.39,64.39,64.41,0.009752885097842334,0.009467975044675036,xom,20200130
2020-01-30,15:28,3:28 PM,64.445,64.415,64.432,1617,104186.015,12,64.46,64.41,64.437,41816,2694485.6523,236,64.415,64.44,64.41,64.445,0.010286001003512273,0.010079317804182223,xom,20200130
2020-01-30,15:29,3:29 PM,64.435,64.395,64.413,910,58616.1,7,64.44,64.39,64.41,32350,2083665.7278,195,64.43,64.41,64.435,64.405,0.009988083291520216,0.009656080509138786,xom,20200130
2020-01-30,15:30,3:30 PM,64.445,64.365,64.419,4801,309275.93,24,64.45,64.362,64.415,37278,2401253.774,259,64.405,64.445,64.4,64.438,0.010082162568991368,0.00973445778599883,xom,20200130
2020-01-30,15:31,3:31 PM,64.455,64.415,64.436,2400,154646.775,20,64.46,64.41,64.435,35919,2314438.1068,221,64.435,64.445,64.435,64.446,0.01034872052182645,0.010047966893438339,xom,20200130
2020-01-30,15:32,3:32 PM,64.48,64.445,64.457,2016,129944.9,20,64.48,64.44,64.461,41861,2698402.8766,260,64.445,64.465,64.45,64.455,0.010677997992975261,0.010455528733109723,xom,20200130
2020-01-30,15:33,3:33 PM,64.47,64.425,64.447,2735,176261.255,18,64.48,64.42,64.442,41754,2690730.1142,227,64.445,64.435,64.45,64.44,0.010521199197190155,0.010157695081042044,xom,20200130
2020-01-30,15:34,3:34 PM,64.495,64.445,64.472,1600,103155.08,16,64.495,64.433,64.471,36450,2349981.2747,207,64.445,64.495,64.435,64.495,0.010913196186653143,0.010612283286829588,xom,20200130
2020-01-30,15:35,3:35 PM,64.535,64.495,64.507,3785,244161.215,20,64.54,64.475,64.509,63705,4109572.925,305,64.495,64.515,64.5,64.516,0.011461991971901682,0.011207950590964721,xom,20200130
2020-01-30,15:36,3:36 PM,64.57,64.515,64.541,3303,213179.545,28,64.58,64.51,64.544,55526,3583879.6564,339,64.515,64.535,64.515,64.53,0.011995107877571397,0.011756591528983918,xom,20200130
2020-01-30,15:37,3:37 PM,64.525,64.475,64.504,3459,223120.215,20,64.54,64.475,64.505,34634,2234081.826,191,64.525,64.515,64.531,64.51,0.011414952333166105,0.01114524876947673,xom,20200130
2020-01-30,15:38,3:38 PM,64.525,64.475,64.496,1510,97388.4,14,64.53,64.475,64.501,38178,2462503.439,210,64.525,64.49,64.52,64.485,0.011289513296537752,0.011082546947988962,xom,20200130
2020-01-30,15:39,3:39 PM,64.53,64.465,64.491,3099,199856.9,26,64.54,64.455,64.492,44081,2842886.6421,269,64.485,64.525,64.489,64.525,0.0112111138986452,0.01094146784964115,xom,20200130
2020-01-30,15:40,3:40 PM,64.575,64.505,64.555,2208,142538.36,20,64.58,64.505,64.55,59425,3835865.5779,250,64.505,64.575,64.53,64.58,0.012214626191670902,0.011850644261215793,xom,20200130
2020-01-30,15:41,3:41 PM,64.635,64.565,64.587,5059,326747.42,29,64.64,64.565,64.594,73444,4744013.062,324,64.575,64.635,64.575,64.64,0.01271638233818364,0.0125403642975828,xom,20200130
2020-01-30,15:42,3:42 PM,64.665,64.64,64.648,5040,325823.905,41,64.68,64.631,64.651,77550,5013671.4034,347,64.645,64.665,64.64,64.66,0.013672854992473544,0.013433865253785612,xom,20200130
2020-01-30,15:43,3:43 PM,64.675,64.64,64.657,2907,187959.595,25,64.68,64.635,64.654,58841,3804324.7049,316,64.645,64.675,64.66,64.67,0.013813973908680274,0.01348089161990155,xom,20200130
2020-01-30,15:44,3:44 PM,64.675,64.585,64.629,4699,303689.505,41,64.68,64.57,64.629,97357,6292112.8247,508,64.675,64.585,64.676,64.575,0.013374937280481709,0.013089005235602219,xom,20200130
2020-01-30,15:45,3:45 PM,64.68,64.575,64.639,4711,304512.52,48,64.69,64.57,64.634,99698,6443882.3381,514,64.575,64.645,64.58,64.645,0.013531736076266815,0.013167382512462042,xom,20200130
2020-01-30,15:46,3:46 PM,64.645,64.6,64.624,4104,265217.035,32,64.65,64.6,64.632,65463,4231043.7076,378,64.645,64.645,64.645,64.65,0.013296537882588933,0.013136031601718157,xom,20200130
2020-01-30,15:47,3:47 PM,64.73,64.65,64.686,1966,127173.605,25,64.73,64.644,64.683,67362,4357175.326,380,64.65,64.725,64.644,64.725,0.014268690416457659,0.013935479825689094,xom,20200130
2020-01-30,15:48,3:48 PM,64.785,64.72,64.744,3559,230424.095,29,64.8,64.71,64.75,97129,6289080.6418,493,64.74,64.785,64.73,64.785,0.015178123432011985,0.014985735335611549,xom,20200130
2020-01-30,15:49,3:49 PM,64.785,64.745,64.766,5030,325772.515,47,64.79,64.74,64.768,72947,4724602.6044,380,64.785,64.76,64.781,64.76,0.01552308078273962,0.015267893532307173,xom,20200130
2020-01-30,15:50,3:50 PM,64.805,64.74,64.772,3655,236741.2,38,64.81,64.738,64.768,92662,6001575.1277,470,64.75,64.795,64.755,64.79,0.015617160060210772,0.015267893532307173,xom,20200130
2020-01-30,15:51,3:51 PM,64.775,64.735,64.754,2467,159747.6,25,64.79,64.735,64.758,63560,4116026.8368,380,64.735,64.755,64.79,64.75,0.015334922227797313,0.015111138978587308,xom,20200130
2020-01-30,15:52,3:52 PM,64.76,64.705,64.735,2310,149538.81,20,64.77,64.7,64.736,88977,5760034.0131,440,64.755,64.705,64.755,64.705,0.015037004515805256,0.014766278960403915,xom,20200130
2020-01-30,15:53,3:53 PM,64.77,64.685,64.724,2249,145565.22,24,64.78,64.68,64.72,101153,6546671.9822,524,64.685,64.77,64.7,64.77,0.014864525840441551,0.014515471674452173,xom,20200130
2020-01-30,15:54,3:54 PM,64.79,64.75,64.768,1741,112761.22,21,64.805,64.74,64.765,123215,7979984.3962,653,64.755,64.755,64.76,64.765,0.015554440541896596,0.015220867166191235,xom,20200130
2020-01-30,15:55,3:55 PM,64.8,64.745,64.778,10268,665140.55,48,64.805,64.74,64.768,120316,7792681.2999,603,64.755,64.785,64.765,64.785,0.015711239337681922,0.015267893532307173,xom,20200130
2020-01-30,15:56,3:56 PM,64.805,64.77,64.788,5424,351410.0,41,64.81,64.76,64.787,129695,8402568.8693,668,64.79,64.795,64.79,64.79,0.01586803813346703,0.015565727184374852,xom,20200130
2020-01-30,15:57,3:57 PM,64.82,64.785,64.798,8952,580075.275,54,64.82,64.78,64.802,188567,12219452.6769,802,64.79,64.8,64.795,64.8,0.01602483692925236,0.015800859014954538,xom,20200130
2020-01-30,15:58,3:58 PM,64.805,64.735,64.768,8429,545930.25,54,64.81,64.73,64.769,198688,12868917.6396,1056,64.805,64.795,64.805,64.8,0.015554440541896596,0.015283568987679226,xom,20200130
2020-01-30,15:59,3:59 PM,64.875,64.775,64.837,14611,947333.88,120,64.88,64.76,64.828,239126,15502034.7392,1185,64.8,64.78,64.8,64.76,0.01663635223281485,0.016208420854625923,xom,20200130
