date,minute,label,high,low,average,volume,notional,numberOfTrades,marketHigh,marketLow,marketAverage,marketVolume,marketNotional,marketNumberOfTrades,open,close,marketOpen,marketClose,changeOverTime,marketChangeOverTime,tickerName,tickerDate
2020-02-14,09:30,09:30 AM,,,,0,0.0,0,61.16,61.1,61.13,246808,15087361.8442,50,,,61.15,61.1,,0.0,xom,20200214
2020-02-14,09:31,09:31 AM,,,,0,0.0,0,61.09,61.04,61.064,28741,1755033.5161,94,,,61.08,61.05,,-0.0010796662849665059,xom,20200214
2020-02-14,09:32,09:32 AM,,,,0,0.0,0,61.06,60.955,61.01,31600,1927905.2228,131,,,61.05,61.0,,-0.0019630296090300107,xom,20200214
2020-02-14,09:33,09:33 AM,60.99,60.83,60.898,1108,67475.04,9,61.0,60.83,60.92,44078,2685245.3378,176,60.98,60.85,60.99,60.85,,-0.003435301815802402,xom,20200214
2020-02-14,09:34,09:34 AM,60.835,60.835,60.835,100,6083.5,1,60.86,60.78,60.822,17381,1057147.7966,77,60.835,60.835,60.86,60.78,,-0.0050384426631768335,xom,20200214
2020-02-14,09:35,09:35 AM,60.76,60.73,60.739,282,17128.35,2,60.79,60.73,60.756,44365,2695457.398,120,60.73,60.76,60.78,60.77,,-0.006118108948143339,xom,20200214
2020-02-14,09:36,09:36 AM,60.86,60.78,60.801,1310,79649.9,23,60.86,60.78,60.803,50021,3041440.5697,198,60.79,60.795,60.78,60.799,,-0.005349255684606663,xom,20200214
2020-02-14,09:37,09:37 AM,60.825,60.76,60.791,692,42067.085,17,60.85,60.75,60.776,44324,2693827.9318,180,60.775,60.825,60.79,60.83,,-0.005790937346638298,xom,20200214
2020-02-14,09:38,09:38 AM,60.815,60.785,60.794,16,972.71,2,60.83,60.72,60.785,17771,1080207.3774,91,60.815,60.785,60.83,60.73,,-0.005643710125961164,xom,20200214
2020-02-14,09:39,09:39 AM,60.77,60.72,60.758,374,22723.69,8,60.78,60.7,60.733,45599,2769349.5843,147,60.745,60.77,60.735,60.765,,-0.00649435628987413,xom,20200214
2020-02-14,09:40,09:40 AM,60.79,60.72,60.744,389,23629.385,7,60.796,60.72,60.76,38001,2308946.1565,157,60.765,60.72,60.76,60.735,,-0.006052674627842377,xom,20200214
2020-02-14,09:41,09:41 AM,60.775,60.685,60.763,1713,104087.365,9,60.786,60.68,60.747,44897,2727368.3409,200,60.685,60.77,60.737,60.785,,-0.00626533616882059,xom,20200214
2020-02-14,09:42,09:42 AM,60.845,60.775,60.808,800,48646.5,6,60.86,60.772,60.804,30576,1859148.1966,134,60.775,60.84,60.781,60.84,,-0.005332897104531335,xom,20200214
2020-02-14,09:43,09:43 AM,60.86,60.805,60.833,560,34066.3,7,60.87,60.805,60.824,17263,1049998.796,122,60.805,60.86,60.84,60.87,,-0.00500572550302641,xom,20200214
2020-02-14,09:44,09:44 AM,60.925,60.865,60.889,1000,60888.5,8,60.93,60.85,60.894,18838,1147113.7052,112,60.865,60.92,60.855,60.917,,-0.003860624897758943,xom,20200214
2020-02-14,09:45,09:45 AM,60.945,60.905,60.921,700,42644.5,5,60.96,60.89,60.922,20770,1265351.313,110,60.93,60.905,60.915,60.92,,-0.0034025846556519795,xom,20200214
2020-02-14,09:46,09:46 AM,60.9,60.885,60.898,600,36538.5,3,60.91,60.87,60.897,14016,853537.0872,58,60.885,60.9,60.9,60.9,,-0.003811549157533193,xom,20200214
2020-02-14,09:47,09:47 AM,60.935,60.875,60.907,612,37275.0,6,60.935,60.86,60.9,18389,1119899.0134,65,60.875,60.935,60.89,60.925,,-0.0037624734173074426,xom,20200214
2020-02-14,09:48,09:48 AM,60.95,60.92,60.935,200,12187.0,2,60.96,60.9,60.929,34650,2111179.0737,166,60.92,60.95,60.92,60.96,,-0.003288074595125151,xom,20200214
2020-02-14,09:49,09:49 AM,,,,0,0.0,0,60.965,60.87,60.921,20012,1219143.865,81,,,60.95,60.9,,-0.0034189432357271906,xom,20200214
2020-02-14,09:50,09:50 AM,60.945,60.9,60.922,200,12184.5,2,60.945,60.874,60.908,16066,978549.5238,107,60.9,60.945,60.9,60.941,,-0.003631604776705403,xom,20200214
2020-02-14,09:51,09:51 AM,60.97,60.95,60.955,134,8167.98,2,60.99,60.95,60.971,21581,1315817.67,115,60.95,60.97,60.95,60.97,,-0.002601014231964764,xom,20200214
2020-02-14,09:52,09:52 AM,60.975,60.955,60.96,304,18531.955,5,61.0,60.94,60.975,26757,1631512.3712,109,60.955,60.96,60.96,61.0,,-0.002535579911663686,xom,20200214
2020-02-14,09:53,09:53 AM,61.0,61.0,61.0,4,244.0,1,61.019,60.96,60.985,27223,1660207.3259,91,61.0,61.0,61.0,60.97,,-0.002371994110911224,xom,20200214
2020-02-14,09:54,09:54 AM,60.91,60.89,60.91,91,5542.79,2,60.96,60.9,60.92,16054,978005.4597,71,60.89,60.91,60.96,60.915,,-0.003435301815802402,xom,20200214
2020-02-14,09:55,09:55 AM,60.935,60.9,60.921,400,24368.5,4,60.94,60.89,60.91,23121,1408295.9642,101,60.9,60.925,60.915,60.89,,-0.0035988876165549805,xom,20200214
2020-02-14,09:56,09:56 AM,60.905,60.895,60.902,207,12606.765,4,60.91,60.88,60.896,13760,837930.6079,68,60.895,60.905,60.9,60.904,,-0.0038279077376084042,xom,20200214
2020-02-14,09:57,09:57 AM,60.925,60.905,60.92,713,43436.365,8,60.93,60.9,60.915,27182,1655802.0712,142,60.905,60.92,60.9,60.93,,-0.003517094716178691,xom,20200214
2020-02-14,09:58,09:58 AM,60.925,60.925,60.925,100,6092.5,1,60.94,60.9,60.916,14131,860811.8904,66,60.925,60.925,60.925,60.915,,-0.00350073613610348,xom,20200214
2020-02-14,09:59,09:59 AM,60.91,60.9,60.906,130,7917.79,4,60.915,60.87,60.888,10768,655644.2846,52,60.91,60.905,60.915,60.908,,-0.003958776378210444,xom,20200214
2020-02-14,10:00,10 AM,60.95,60.875,60.922,1009,61470.875,11,60.95,60.87,60.915,21280,1296266.0206,119,60.89,60.92,60.89,60.93,,-0.003517094716178691,xom,20200214
2020-02-14,10:01,10:01 AM,60.91,60.88,60.895,300,18268.5,3,60.93,60.875,60.894,17885,1089084.4594,88,60.91,60.895,60.93,60.875,,-0.003860624897758943,xom,20200214
2020-02-14,10:02,10:02 AM,60.89,60.885,60.888,200,12177.5,2,60.92,60.87,60.897,20613,1255277.875,89,60.885,60.89,60.88,60.91,,-0.003811549157533193,xom,20200214
2020-02-14,10:03,10:03 AM,60.905,60.885,60.893,300,18268.0,3,60.93,60.88,60.902,9453,575709.49,57,60.89,60.905,60.9,60.925,,-0.0037297562571569037,xom,20200214
2020-02-14,10:04,10:04 AM,60.92,60.875,60.901,710,43239.385,5,60.927,60.85,60.892,28426,1730921.6699,110,60.92,60.875,60.925,60.855,,-0.003893342057909366,xom,20200214
2020-02-14,10:05,10:05 AM,60.82,60.77,60.794,1000,60794.5,10,60.85,60.76,60.792,38360,2331998.1161,175,60.82,60.775,60.85,60.76,,-0.005529200065434336,xom,20200214
2020-02-14,10:06,10:06 AM,60.805,60.75,60.771,710,43147.61,13,60.81,60.745,60.766,29848,1813757.4481,148,60.765,60.805,60.76,60.8,,-0.005954523147390877,xom,20200214
2020-02-14,10:07,10:07 AM,60.81,60.81,60.81,162,9851.22,2,60.823,60.795,60.807,9999,608011.2059,55,60.81,60.81,60.795,60.805,,-0.005283821364305584,xom,20200214
2020-02-14,10:08,10:08 AM,60.87,60.8,60.817,356,21651.02,5,60.867,60.8,60.836,12964,788682.1403,69,60.8,60.87,60.81,60.85,,-0.004809422542123409,xom,20200214
2020-02-14,10:09,10:09 AM,60.87,60.835,60.851,314,19107.26,4,60.88,60.82,60.854,10525,640486.782,64,60.87,60.84,60.869,60.84,,-0.004514968100768908,xom,20200214
2020-02-14,10:10,10:10 AM,60.845,60.825,60.835,400,24334.0,4,60.86,60.825,60.849,11897,723919.0018,44,60.845,60.84,60.845,60.86,,-0.004596761001145197,xom,20200214
2020-02-14,10:11,10:11 AM,60.92,60.85,60.895,800,48716.0,10,60.92,60.84,60.883,23763,1446764.5825,126,60.85,60.89,60.85,60.88,,-0.004040569278586616,xom,20200214
2020-02-14,10:12,10:12 AM,60.88,60.85,60.864,858,52221.5,10,60.89,60.84,60.864,22923,1395176.5938,95,60.88,60.85,60.885,60.846,,-0.004351382300016446,xom,20200214
2020-02-14,10:13,10:13 AM,60.85,60.83,60.84,300,18252.0,4,60.87,60.8,60.837,23426,1425159.3801,94,60.85,60.83,60.85,60.81,,-0.004793063962048082,xom,20200214
2020-02-14,10:14,10:14 AM,60.835,60.83,60.832,300,18249.5,3,60.84,60.815,60.826,12512,761050.5865,58,60.835,60.83,60.816,60.833,,-0.004973008342875872,xom,20200214
2020-02-14,10:15,10:15 AM,60.84,60.82,60.832,353,21473.605,7,60.855,60.81,60.839,16767,1020080.3697,72,60.83,60.84,60.832,60.84,,-0.004760346801897659,xom,20200214
2020-02-14,10:16,10:16 AM,60.84,60.82,60.821,308,18732.72,4,60.84,60.82,60.828,8045,489357.9084,45,60.84,60.82,60.84,60.82,,-0.0049402911827253326,xom,20200214
2020-02-14,10:17,10:17 AM,60.845,60.815,60.828,319,19404.175,4,60.849,60.815,60.831,9242,562198.682,53,60.825,60.815,60.819,60.84,,-0.004891215442499582,xom,20200214
2020-02-14,10:18,10:18 AM,60.84,60.82,60.83,298,18127.36,3,60.84,60.801,60.819,12533,762239.2022,58,60.84,60.82,60.83,60.813,,-0.005087518403402583,xom,20200214
2020-02-14,10:19,10:19 AM,60.8,60.8,60.8,10,608.0,2,60.85,60.79,60.821,18947,1152381.6114,79,60.8,60.8,60.811,60.85,,-0.005054801243252161,xom,20200214
2020-02-14,10:20,10:20 AM,60.855,60.82,60.841,405,24640.7,8,60.86,60.82,60.843,15050,915690.359,79,60.85,60.82,60.85,60.82,,-0.004694912481596581,xom,20200214
2020-02-14,10:21,10:21 AM,60.82,60.81,60.82,102,6203.62,3,60.87,60.8,60.831,17617,1071659.5404,91,60.81,60.82,60.824,60.86,,-0.004891215442499582,xom,20200214
2020-02-14,10:22,10:22 AM,60.84,60.83,60.833,512,31146.52,5,60.853,60.82,60.83,10870,661221.7518,42,60.84,60.83,60.853,60.83,,-0.00490757402257491,xom,20200214
2020-02-14,10:23,10:23 AM,60.82,60.82,60.82,100,6082.0,1,60.84,60.815,60.825,11657,709034.8844,47,60.82,60.82,60.825,60.82,,-0.004989366922951083,xom,20200214
2020-02-14,10:24,10:24 AM,60.82,60.82,60.82,102,6203.64,2,60.84,60.81,60.825,6509,395909.755,53,60.82,60.82,60.82,60.82,,-0.004989366922951083,xom,20200214
2020-02-14,10:25,10:25 AM,60.805,60.79,60.796,400,24318.5,4,60.82,60.785,60.803,10400,632346.755,51,60.79,60.805,60.82,60.8,,-0.005349255684606663,xom,20200214
2020-02-14,10:26,10:26 AM,60.82,60.79,60.802,502,30522.6,6,60.825,60.78,60.799,16897,1027323.7506,86,60.79,60.79,60.79,60.79,,-0.0054146900049076244,xom,20200214
2020-02-14,10:27,10:27 AM,60.81,60.795,60.802,153,9302.68,3,60.82,60.785,60.802,15037,914276.3195,63,60.795,60.81,60.785,60.8,,-0.005365614264681874,xom,20200214
2020-02-14,10:28,10:28 AM,60.825,60.8,60.808,307,18668.165,8,60.83,60.79,60.807,15592,948099.9938,85,60.8,60.82,60.8,60.82,,-0.005283821364305584,xom,20200214
2020-02-14,10:29,10:29 AM,60.81,60.8,60.803,300,18241.0,4,60.82,60.77,60.788,15893,966104.1927,86,60.81,60.8,60.82,60.775,,-0.0055946343857354135,xom,20200214
2020-02-14,10:30,10:30 AM,60.795,60.76,60.763,111,6744.745,2,60.81,60.75,60.774,17893,1087427.6399,92,60.76,60.795,60.77,60.81,,-0.005823654506788838,xom,20200214
2020-02-14,10:31,10:31 AM,60.81,60.795,60.804,517,31435.685,5,60.825,60.77,60.805,25837,1571027.344,75,60.805,60.795,60.81,60.77,,-0.0053165385244561235,xom,20200214
2020-02-14,10:32,10:32 AM,60.765,60.75,60.765,2124,129064.075,5,60.775,60.745,60.76,17860,1085169.7654,75,60.75,60.765,60.775,60.75,,-0.006052674627842377,xom,20200214
2020-02-14,10:33,10:33 AM,60.775,60.75,60.763,5001,303875.345,26,60.78,60.75,60.766,15866,964105.982,87,60.755,60.755,60.757,60.755,,-0.005954523147390877,xom,20200214
2020-02-14,10:34,10:34 AM,60.765,60.73,60.747,1127,68461.445,14,60.765,60.72,60.74,16572,1006592.716,80,60.755,60.735,60.75,60.73,,-0.006379846229347301,xom,20200214
2020-02-14,10:35,10:35 AM,60.745,60.715,60.725,898,54531.35,12,60.747,60.71,60.726,26630,1617144.1916,128,60.72,60.715,60.72,60.72,,-0.006608866350400842,xom,20200214
2020-02-14,10:36,10:36 AM,60.725,60.715,60.722,2879,174818.005,14,60.73,60.7,60.716,12478,757618.6115,59,60.715,60.725,60.714,60.73,,-0.006772452151153303,xom,20200214
2020-02-14,10:37,10:37 AM,60.745,60.725,60.736,428,25994.88,11,60.75,60.72,60.738,18879,1146676.6286,107,60.735,60.735,60.739,60.73,,-0.006412563389497841,xom,20200214
2020-02-14,10:38,10:38 AM,60.755,60.735,60.74,721,43793.425,9,60.759,60.73,60.74,21718,1319153.2772,117,60.735,60.755,60.73,60.755,,-0.006379846229347301,xom,20200214
2020-02-14,10:39,10:39 AM,60.77,60.745,60.75,1340,81404.875,14,60.776,60.74,60.754,13814,839261.6245,98,60.745,60.77,60.75,60.765,,-0.006150826108293878,xom,20200214
2020-02-14,10:40,10:40 AM,60.78,60.765,60.776,649,39443.395,11,60.78,60.77,60.773,8527,518209.1248,44,60.765,60.775,60.77,60.77,,-0.005840013086864049,xom,20200214
2020-02-14,10:41,10:41 AM,60.745,60.74,60.744,268,16279.35,3,60.77,60.74,60.752,6170,374842.319,38,60.74,60.745,60.77,60.75,,-0.0061835432684443,xom,20200214
2020-02-14,10:42,10:42 AM,60.755,60.725,60.74,462,28061.73,10,60.758,60.72,60.74,11653,707803.926,70,60.75,60.725,60.75,60.725,,-0.006379846229347301,xom,20200214
2020-02-14,10:43,10:43 AM,60.725,60.705,60.716,309,18761.345,5,60.73,60.69,60.7,12809,777512.7139,55,60.725,60.705,60.72,60.69,,-0.007034189432357266,xom,20200214
2020-02-14,10:44,10:44 AM,60.68,60.64,60.656,510,30934.55,8,60.69,60.63,60.662,31626,1918495.3636,155,60.68,60.645,60.69,60.63,,-0.0076558154752168085,xom,20200214
2020-02-14,10:45,10:45 AM,60.67,60.63,60.65,1125,68231.42,12,60.67,60.626,60.65,37858,2296071.3714,137,60.63,60.64,60.63,60.63,,-0.00785211843611981,xom,20200214
2020-02-14,10:46,10:46 AM,60.635,60.625,60.633,800,48506.0,8,60.64,60.62,60.633,11734,711462.7893,70,60.635,60.63,60.63,60.63,,-0.008130214297398984,xom,20200214
2020-02-14,10:47,10:47 AM,60.64,60.61,60.618,812,49222.04,10,60.637,60.605,60.619,24766,1501283.3938,123,60.64,60.62,60.63,60.605,,-0.008359234418452523,xom,20200214
2020-02-14,10:48,10:48 AM,60.6,60.595,60.598,300,18179.5,3,60.61,60.575,60.596,32088,1944396.7865,129,60.6,60.595,60.605,60.575,,-0.008735481760183314,xom,20200214
2020-02-14,10:49,10:49 AM,60.6,60.6,60.6,100,6060.0,1,60.61,60.57,60.586,15684,950231.4217,115,60.6,60.6,60.58,60.591,,-0.008899067560935777,xom,20200214
2020-02-14,10:50,10:50 AM,60.6,60.59,60.6,101,6120.59,2,60.6,60.58,60.589,17147,1038919.855,76,60.59,60.6,60.595,60.6,,-0.008849991820710026,xom,20200214
2020-02-14,10:51,10:51 AM,60.655,60.625,60.64,300,18192.0,3,60.655,60.591,60.619,22250,1348781.689,144,60.625,60.64,60.595,60.625,,-0.008359234418452523,xom,20200214
2020-02-14,10:52,10:52 AM,60.645,60.615,60.636,1018,61727.24,9,60.65,60.615,60.627,18238,1105717.724,88,60.615,60.645,60.623,60.645,,-0.008228365777850483,xom,20200214
2020-02-14,10:53,10:53 AM,60.665,60.63,60.645,1156,70105.11,13,60.665,60.63,60.648,14459,876911.0753,73,60.655,60.63,60.65,60.633,,-0.007884835596270233,xom,20200214
2020-02-14,10:54,10:54 AM,60.675,60.635,60.664,3600,218391.86,28,60.68,60.63,60.663,19041,1155090.6915,111,60.635,60.655,60.63,60.66,,-0.007639456895141597,xom,20200214
2020-02-14,10:55,10:55 AM,60.675,60.635,60.65,2838,172124.94,28,60.68,60.63,60.652,21138,1282062.4621,88,60.645,60.675,60.654,60.68,,-0.00781940127596927,xom,20200214
2020-02-14,10:56,10:56 AM,60.715,60.675,60.695,4221,256192.875,32,60.727,60.67,60.696,14040,852176.7442,77,60.675,60.715,60.67,60.721,,-0.007099623752658344,xom,20200214
2020-02-14,10:57,10:57 AM,60.74,60.72,60.727,11790,715976.56,46,60.74,60.72,60.73,26944,1636302.6235,98,60.72,60.725,60.72,60.74,,-0.00654343203009988,xom,20200214
2020-02-14,10:58,10:58 AM,60.745,60.735,60.744,5232,317815.21,25,60.75,60.73,60.741,21003,1275738.0434,90,60.735,60.745,60.74,60.75,,-0.00636348764927209,xom,20200214
2020-02-14,10:59,10:59 AM,60.765,60.735,60.738,14335,870673.885,42,60.767,60.73,60.742,33005,2004800.5775,129,60.745,60.75,60.74,60.75,,-0.006347129069196879,xom,20200214
2020-02-14,11:00,11 AM,60.755,60.74,60.745,3449,209509.775,19,60.76,60.74,60.745,12887,782815.1759,68,60.745,60.745,60.745,60.74,,-0.006298053328971129,xom,20200214
2020-02-14,11:01,11:01 AM,60.745,60.735,60.742,225,13666.955,5,60.75,60.73,60.738,10485,636836.282,54,60.745,60.735,60.75,60.74,,-0.006412563389497841,xom,20200214
2020-02-14,11:02,11:02 AM,60.735,60.68,60.712,1351,82022.655,21,60.74,60.665,60.711,17642,1071064.6414,114,60.735,60.68,60.735,60.665,,-0.006854245051529593,xom,20200214
2020-02-14,11:03,11:03 AM,60.695,60.655,60.677,754,45750.61,11,60.7,60.65,60.678,15811,959380.0305,85,60.655,60.695,60.66,60.695,,-0.007394078194012846,xom,20200214
2020-02-14,11:04,11:04 AM,60.705,60.65,60.66,10317,625828.815,26,60.705,60.65,60.669,45930,2786511.0606,223,60.695,60.675,60.695,60.68,,-0.007541305414690096,xom,20200214
2020-02-14,11:05,11:05 AM,60.71,60.665,60.678,2021,122630.385,24,60.71,60.65,60.677,47654,2891490.222,279,60.675,60.71,60.68,60.707,,-0.007410436774088057,xom,20200214
2020-02-14,11:06,11:06 AM,60.7,60.68,60.692,2400,145661.5,17,60.71,60.67,60.69,47332,2872556.2605,268,60.7,60.69,60.705,60.68,,-0.007197775233109845,xom,20200214
2020-02-14,11:07,11:07 AM,60.695,60.675,60.679,1815,110132.87,21,60.705,60.67,60.684,51571,3129519.7354,312,60.695,60.68,60.685,60.68,,-0.007295926713561346,xom,20200214
2020-02-14,11:08,11:08 AM,60.685,60.63,60.66,2028,123018.32,30,60.69,60.62,60.644,34375,2084643.6315,162,60.685,60.63,60.68,60.62,,-0.00795026991657131,xom,20200214
2020-02-14,11:09,11:09 AM,60.615,60.605,60.608,409,24788.535,5,60.64,60.6,60.616,28573,1731972.6649,148,60.61,60.615,60.62,60.639,,-0.008408310158678274,xom,20200214
2020-02-14,11:10,11:10 AM,60.645,60.645,60.645,8728,529309.56,15,60.65,60.625,60.64,38949,2361883.6055,164,60.645,60.645,60.64,60.63,,-0.008015704236872272,xom,20200214
2020-02-14,11:11,11:11 AM,60.62,60.62,60.62,100,6062.0,1,60.65,60.61,60.627,10882,659741.7468,77,60.62,60.62,60.63,60.645,,-0.008228365777850483,xom,20200214
2020-02-14,11:12,11:12 AM,60.67,60.655,60.664,210,12739.56,4,60.69,60.649,60.666,39290,2383565.3435,217,60.66,60.67,60.649,60.67,,-0.007590381154915847,xom,20200214
2020-02-14,11:13,11:13 AM,60.66,60.64,60.642,114,6913.24,2,60.67,60.64,60.651,14253,864453.6038,86,60.64,60.66,60.665,60.66,,-0.007835759856044481,xom,20200214
2020-02-14,11:14,11:14 AM,60.685,60.68,60.682,205,12439.925,3,60.7,60.652,60.678,18437,1118718.9107,87,60.685,60.68,60.652,60.69,,-0.007394078194012846,xom,20200214
2020-02-14,11:15,11:15 AM,60.705,60.69,60.696,1100,66766.0,9,60.71,60.69,60.699,32783,1989908.03,177,60.695,60.705,60.695,60.71,,-0.007050548012432594,xom,20200214
2020-02-14,11:16,11:16 AM,60.75,60.725,60.731,727,44151.575,9,60.75,60.71,60.733,12769,775498.6998,82,60.725,60.75,60.71,60.75,,-0.00649435628987413,xom,20200214
2020-02-14,11:17,11:17 AM,60.755,60.73,60.749,402,24420.98,8,60.76,60.72,60.751,24296,1476007.2211,84,60.75,60.73,60.75,60.735,,-0.0061999018485196285,xom,20200214
2020-02-14,11:18,11:18 AM,60.72,60.71,60.718,1912,116092.44,8,60.73,60.709,60.715,19146,1162454.6025,83,60.71,60.72,60.73,60.71,,-0.006788810731228515,xom,20200214
2020-02-14,11:19,11:19 AM,60.72,60.695,60.708,574,34846.18,6,60.717,60.69,60.706,16887,1025141.5642,37,60.71,60.695,60.71,60.695,,-0.006936037951905766,xom,20200214
2020-02-14,11:20,11:20 AM,60.715,60.68,60.7,800,48560.0,5,60.73,60.68,60.701,11677,708808.9869,66,60.7,60.715,60.69,60.715,,-0.007017830852282055,xom,20200214
2020-02-14,11:21,11:21 AM,60.71,60.71,60.71,100,6071.0,1,60.717,60.7,60.71,11944,725124.3728,37,60.71,60.71,60.71,60.71,,-0.006870603631604804,xom,20200214
2020-02-14,11:22,11:22 AM,60.75,60.73,60.74,211,12816.14,3,60.77,60.71,60.74,15358,932848.51,73,60.74,60.75,60.71,60.74,,-0.006379846229347301,xom,20200214
2020-02-14,11:23,11:23 AM,60.75,60.75,60.75,81,4920.75,1,60.77,60.745,60.755,4715,286458.2522,30,60.75,60.75,60.746,60.77,,-0.006134467528218551,xom,20200214
2020-02-14,11:24,11:24 AM,60.765,60.765,60.765,200,12153.0,2,60.795,60.76,60.771,7188,436824.205,40,60.765,60.765,60.77,60.795,,-0.005872730247014588,xom,20200214
2020-02-14,11:25,11:25 AM,60.81,60.79,60.792,327,19879.15,5,60.81,60.776,60.796,16929,1029214.7325,94,60.79,60.8,60.8,60.8,,-0.005463765745133374,xom,20200214
2020-02-14,11:26,11:26 AM,60.83,60.83,60.83,100,6083.0,1,60.83,60.8,60.819,11970,728006.74,53,60.83,60.83,60.8,60.824,,-0.005087518403402583,xom,20200214
2020-02-14,11:27,11:27 AM,60.835,60.835,60.835,100,6083.5,1,60.85,60.81,60.831,20287,1234078.8108,98,60.835,60.835,60.825,60.843,,-0.004891215442499582,xom,20200214
2020-02-14,11:28,11:28 AM,60.84,60.835,60.837,100,6083.68,2,60.87,60.82,60.842,18589,1130989.9986,74,60.84,60.835,60.85,60.83,,-0.004711271061671909,xom,20200214
2020-02-14,11:29,11:29 AM,60.835,60.815,60.818,413,25117.855,5,60.835,60.81,60.825,17253,1049422.5825,84,60.835,60.82,60.83,60.82,,-0.004989366922951083,xom,20200214
2020-02-14,11:30,11:30 AM,60.81,60.8,60.807,301,18302.8,7,60.825,60.8,60.812,19421,1181034.1977,104,60.81,60.8,60.82,60.81,,-0.005202028463929411,xom,20200214
2020-02-14,11:31,11:31 AM,60.815,60.805,60.811,348,21162.115,6,60.82,60.8,60.807,17951,1091551.3455,67,60.815,60.81,60.815,60.82,,-0.005283821364305584,xom,20200214
2020-02-14,11:32,11:32 AM,60.84,60.815,60.825,244,14841.26,4,60.845,60.8,60.822,7903,480674.2036,52,60.815,60.835,60.81,60.835,,-0.0050384426631768335,xom,20200214
2020-02-14,11:33,11:33 AM,60.845,60.845,60.845,100,6084.5,1,60.85,60.821,60.835,11124,676724.57,49,60.845,60.845,60.835,60.83,,-0.0048257811221986205,xom,20200214
2020-02-14,11:34,11:34 AM,60.82,60.81,60.814,166,10095.12,3,60.828,60.79,60.81,6028,366564.9238,42,60.82,60.81,60.825,60.79,,-0.0052347456240798345,xom,20200214
2020-02-14,11:35,11:35 AM,60.79,60.775,60.789,109,6626.01,7,60.795,60.77,60.781,14453,878466.7793,69,60.79,60.79,60.79,60.785,,-0.0057091444462621255,xom,20200214
2020-02-14,11:36,11:36 AM,60.77,60.76,60.765,211,12821.47,4,60.785,60.76,60.767,17231,1047080.4718,100,60.77,60.77,60.78,60.772,,-0.00593816456731555,xom,20200214
2020-02-14,11:37,11:37 AM,60.78,60.78,60.78,1,60.78,1,60.785,60.77,60.779,5406,328569.5519,28,60.78,60.78,60.774,60.785,,-0.005741861606412549,xom,20200214
2020-02-14,11:38,11:38 AM,60.76,60.76,60.76,100,6076.0,2,60.785,60.75,60.764,15878,964803.4376,82,60.76,60.76,60.785,60.765,,-0.005987240307541299,xom,20200214
2020-02-14,11:39,11:39 AM,60.775,60.735,60.756,1400,85058.5,5,60.775,60.733,60.755,11712,711566.5842,39,60.77,60.735,60.765,60.735,,-0.006134467528218551,xom,20200214
2020-02-14,11:40,11:40 AM,60.75,60.725,60.741,2320,140919.465,13,60.755,60.72,60.74,12302,747223.3292,60,60.735,60.745,60.735,60.745,,-0.006379846229347301,xom,20200214
2020-02-14,11:41,11:41 AM,60.745,60.74,60.745,3417,207564.685,13,60.75,60.74,60.743,9470,575240.71,37,60.745,60.74,60.75,60.74,,-0.006330770489121552,xom,20200214
2020-02-14,11:42,11:42 AM,60.76,60.745,60.75,506,30739.53,7,60.769,60.743,60.753,16123,979524.6365,70,60.745,60.75,60.75,60.75,,-0.006167184688369089,xom,20200214
2020-02-14,11:43,11:43 AM,60.745,60.745,60.745,505,30676.225,6,60.75,60.74,60.744,11634,706697.6158,35,60.745,60.745,60.745,60.75,,-0.00631441190904634,xom,20200214
2020-02-14,11:44,11:44 AM,60.725,60.705,60.711,228,13842.205,6,60.74,60.7,60.723,34148,2073556.8104,93,60.725,60.725,60.74,60.725,,-0.006657942090626592,xom,20200214
2020-02-14,11:45,11:45 AM,60.725,60.705,60.708,1513,91851.425,6,60.729,60.705,60.715,6843,415472.215,44,60.715,60.715,60.72,60.715,,-0.006788810731228515,xom,20200214
2020-02-14,11:46,11:46 AM,60.715,60.705,60.707,1643,99741.815,7,60.725,60.7,60.712,16689,1013226.1669,90,60.715,60.715,60.713,60.72,,-0.006837886471454265,xom,20200214
2020-02-14,11:47,11:47 AM,60.71,60.685,60.694,151,9164.87,4,60.712,60.68,60.693,22108,1341807.1804,57,60.71,60.685,60.71,60.683,,-0.007148699492884094,xom,20200214
2020-02-14,11:48,11:48 AM,60.685,60.67,60.676,207,12559.985,4,60.686,60.66,60.676,14139,857898.801,77,60.685,60.675,60.68,60.675,,-0.007426795354163269,xom,20200214
2020-02-14,11:49,11:49 AM,60.675,60.66,60.672,1057,64130.465,7,60.68,60.66,60.672,14342,870160.5833,63,60.67,60.66,60.68,60.66,,-0.007492229674464347,xom,20200214
2020-02-14,11:50,11:50 AM,60.65,60.63,60.64,305,18495.195,5,60.66,60.62,60.637,16964,1028648.2625,88,60.64,60.65,60.655,60.64,,-0.008064779977098022,xom,20200214
2020-02-14,11:51,11:51 AM,60.635,60.63,60.631,129,7821.37,3,60.64,60.62,60.629,16304,988503.1266,62,60.635,60.63,60.635,60.63,,-0.008195648617700061,xom,20200214
2020-02-14,11:52,11:52 AM,60.64,60.625,60.627,1187,71964.86,9,60.64,60.62,60.63,12634,766000.056,50,60.635,60.63,60.635,60.62,,-0.008179290037624734,xom,20200214
2020-02-14,11:53,11:53 AM,60.63,60.62,60.625,206,12488.725,4,60.63,60.61,60.621,7170,434652.191,44,60.625,60.62,60.62,60.615,,-0.008326517258301984,xom,20200214
2020-02-14,11:54,11:54 AM,60.615,60.605,60.608,907,54971.3,10,60.62,60.6,60.61,16171,980129.9791,89,60.615,60.605,60.615,60.6,,-0.008506461639129775,xom,20200214
2020-02-14,11:55,11:55 AM,60.61,60.6,60.605,1000,60605.5,9,60.61,60.59,60.6,12423,752841.0561,52,60.605,60.605,60.605,60.595,,-0.008670047439882237,xom,20200214
2020-02-14,11:56,11:56 AM,60.63,60.6,60.612,517,31336.47,9,60.625,60.595,60.612,15915,964643.7476,72,60.6,60.625,60.6,60.625,,-0.008473744478979235,xom,20200214
2020-02-14,11:57,11:57 AM,60.645,60.625,60.633,660,40017.91,11,60.646,60.62,60.635,15099,915532.583,59,60.625,60.64,60.623,60.64,,-0.00809749713724856,xom,20200214
2020-02-14,11:58,11:58 AM,60.65,60.645,60.647,301,18254.645,3,60.659,60.64,60.645,8146,494012.7697,44,60.65,60.645,60.645,60.645,,-0.007933911336495982,xom,20200214
2020-02-14,11:59,11:59 AM,60.645,60.63,60.642,873,52940.275,7,60.647,60.63,60.641,11783,714527.344,62,60.64,60.64,60.64,60.635,,-0.007999345656797061,xom,20200214
2020-02-14,12:00,12 PM,60.635,60.625,60.63,552,33467.76,7,60.64,60.62,60.626,10636,644818.6766,53,60.63,60.63,60.63,60.625,,-0.008244724357925812,xom,20200214
2020-02-14,12:01,12:01 PM,60.625,60.615,60.616,2122,128628.14,13,60.625,60.611,60.62,28017,1698385.6037,82,60.625,60.625,60.625,60.625,,-0.008342875838377312,xom,20200214
2020-02-14,12:02,12:02 PM,60.63,60.625,60.627,537,32556.715,7,60.635,60.62,60.625,8060,488637.5732,55,60.63,60.63,60.63,60.62,,-0.008261082938001024,xom,20200214
2020-02-14,12:03,12:03 PM,60.625,60.605,60.615,600,36369.0,6,60.625,60.6,60.61,15733,953574.1675,45,60.625,60.605,60.625,60.605,,-0.008506461639129775,xom,20200214
2020-02-14,12:04,12:04 PM,60.6,60.575,60.59,112,6786.1,4,60.605,60.575,60.59,13290,805245.577,57,60.6,60.575,60.6,60.575,,-0.008833633240634698,xom,20200214
2020-02-14,12:05,12:05 PM,60.575,60.57,60.574,117,7087.19,3,60.58,60.56,60.571,11790,714128.1548,63,60.575,60.57,60.57,60.565,,-0.009144446262064529,xom,20200214
2020-02-14,12:06,12:06 PM,60.55,60.535,60.542,224,13561.5,5,60.565,60.53,60.549,18724,1133718.5103,66,60.55,60.535,60.565,60.535,,-0.00950433502371999,xom,20200214
2020-02-14,12:07,12:07 PM,60.54,60.53,60.535,302,18281.56,4,60.545,60.525,60.534,13954,844695.5348,73,60.53,60.54,60.535,60.545,,-0.009749713724848742,xom,20200214
2020-02-14,12:08,12:08 PM,60.545,60.545,60.545,100,6054.5,1,60.555,60.54,60.544,17707,1072055.7221,46,60.545,60.545,60.542,60.555,,-0.00958612792409628,xom,20200214
2020-02-14,12:09,12:09 PM,60.575,60.55,60.565,301,18230.07,4,60.58,60.55,60.566,16014,969912.522,90,60.57,60.55,60.555,60.552,,-0.0092262391624407,xom,20200214
2020-02-14,12:10,12:10 PM,60.55,60.55,60.55,2,121.1,1,60.556,60.544,60.55,6990,423241.893,40,60.55,60.55,60.551,60.545,,-0.00948797644364478,xom,20200214
2020-02-14,12:11,12:11 PM,60.545,60.54,60.543,300,18163.0,3,60.549,60.54,60.544,5280,319674.621,25,60.545,60.54,60.545,60.541,,-0.00958612792409628,xom,20200214
2020-02-14,12:12,12:12 PM,60.555,60.535,60.543,321,19434.235,5,60.555,60.53,60.541,14080,852422.782,94,60.535,60.54,60.54,60.536,,-0.00963520366432203,xom,20200214
2020-02-14,12:13,12:13 PM,60.56,60.54,60.54,102,6175.11,3,60.555,60.535,60.542,9495,574843.62,54,60.54,60.56,60.538,60.555,,-0.009618845084246702,xom,20200214
2020-02-14,12:14,12:14 PM,,,,0,0.0,0,60.57,60.554,60.562,3990,241644.0589,25,,,60.56,60.564,,-0.00929167348274178,xom,20200214
2020-02-14,12:15,12:15 PM,60.56,60.54,60.542,306,18525.86,5,60.56,60.53,60.545,7302,442100.754,46,60.56,60.54,60.56,60.535,,-0.009569769344020953,xom,20200214
2020-02-14,12:16,12:16 PM,60.535,60.53,60.535,204,12349.12,3,60.54,60.525,60.531,14436,873827.6325,62,60.53,60.535,60.53,60.53,,-0.009798789465074493,xom,20200214
2020-02-14,12:17,12:17 PM,60.54,60.54,60.54,1,60.54,1,60.539,60.53,60.532,16248,983521.8818,23,60.54,60.54,60.53,60.536,,-0.00978243088499928,xom,20200214
2020-02-14,12:18,12:18 PM,60.535,60.52,60.528,372,22516.39,6,60.54,60.52,60.53,11998,726243.345,60,60.53,60.535,60.535,60.535,,-0.009815148045149704,xom,20200214
2020-02-14,12:19,12:19 PM,60.525,60.515,60.525,4414,267157.275,7,60.54,60.51,60.524,36514,2209981.6009,105,60.525,60.52,60.53,60.52,,-0.009913299525601204,xom,20200214
2020-02-14,12:20,12:20 PM,60.535,60.495,60.508,719,43504.905,6,60.535,60.49,60.502,130054,7868468.9302,222,60.5,60.535,60.51,60.53,,-0.010273188287256667,xom,20200214
2020-02-14,12:21,12:21 PM,60.55,60.5,60.522,316,19124.85,7,60.545,60.48,60.51,29929,1811010.3997,154,60.55,60.515,60.54,60.505,,-0.010142319646654744,xom,20200214
2020-02-14,12:22,12:22 PM,,,,0,0.0,0,60.52,60.49,60.502,7167,433614.4701,41,,,60.51,60.52,,-0.010273188287256667,xom,20200214
2020-02-14,12:23,12:23 PM,60.54,60.525,60.535,501,30328.035,5,60.55,60.52,60.535,10370,627745.6174,47,60.525,60.54,60.52,60.55,,-0.00973335514477353,xom,20200214
2020-02-14,12:24,12:24 PM,60.555,60.545,60.548,1207,73081.35,6,60.56,60.545,60.55,15902,962870.8948,74,60.55,60.555,60.55,60.559,,-0.00948797644364478,xom,20200214
2020-02-14,12:25,12:25 PM,60.54,60.53,60.535,200,12107.0,2,60.555,60.5,60.523,22587,1367023.0329,87,60.54,60.53,60.555,60.51,,-0.009929658105676416,xom,20200214
2020-02-14,12:26,12:26 PM,60.535,60.53,60.53,405,24514.675,3,60.537,60.51,60.522,19966,1208390.6039,100,60.53,60.535,60.51,60.51,,-0.009946016685751744,xom,20200214
2020-02-14,12:27,12:27 PM,60.525,60.51,60.517,203,12285.065,4,60.53,60.5,60.515,11493,695497.4948,68,60.51,60.515,60.5,60.51,,-0.010060526746278456,xom,20200214
2020-02-14,12:28,12:28 PM,60.515,60.51,60.51,111,6716.665,2,60.52,60.505,60.511,14244,861913.917,68,60.51,60.515,60.52,60.505,,-0.010125961066579417,xom,20200214
2020-02-14,12:29,12:29 PM,60.52,60.505,60.514,6355,384568.79,13,60.535,60.5,60.514,19253,1165074.858,78,60.51,60.52,60.505,60.53,,-0.010076885326353667,xom,20200214
2020-02-14,12:30,12:30 PM,60.54,60.53,60.535,4202,254367.96,8,60.55,60.53,60.534,17387,1052511.3986,75,60.53,60.54,60.535,60.545,,-0.009749713724848742,xom,20200214
2020-02-14,12:31,12:31 PM,60.58,60.56,60.564,209,12657.815,7,60.59,60.547,60.566,9432,571258.2344,65,60.56,60.575,60.547,60.563,,-0.0092262391624407,xom,20200214
2020-02-14,12:32,12:32 PM,60.565,60.55,60.557,270,16350.395,9,60.565,60.55,60.554,14096,853570.1888,73,60.56,60.555,60.565,60.55,,-0.009422542123343702,xom,20200214
2020-02-14,12:33,12:33 PM,60.575,60.575,60.575,521,31559.575,9,60.58,60.555,60.568,5504,333368.0546,36,60.575,60.575,60.555,60.575,,-0.009193522002290278,xom,20200214
2020-02-14,12:34,12:34 PM,60.605,60.575,60.586,810,49074.395,15,60.609,60.572,60.589,11727,710529.56,67,60.575,60.605,60.575,60.6,,-0.008849991820710026,xom,20200214
2020-02-14,12:35,12:35 PM,60.635,60.605,60.606,2395,145151.585,13,60.63,60.6,60.614,9940,602508.1316,56,60.605,60.625,60.6,60.63,,-0.008441027318828813,xom,20200214
2020-02-14,12:36,12:36 PM,60.635,60.615,60.62,618,37463.305,13,60.635,60.615,60.624,9059,549193.9928,63,60.635,60.615,60.63,60.615,,-0.008277441518076235,xom,20200214
2020-02-14,12:37,12:37 PM,60.615,60.605,60.611,524,31760.22,15,60.62,60.605,60.613,22138,1341860.0898,56,60.615,60.605,60.614,60.607,,-0.008457385898904024,xom,20200214
2020-02-14,12:38,12:38 PM,60.605,60.58,60.59,387,23448.31,9,60.605,60.58,60.586,33701,2041816.626,123,60.605,60.595,60.6,60.595,,-0.008899067560935777,xom,20200214
2020-02-14,12:39,12:39 PM,60.595,60.575,60.58,129,7814.825,11,60.6,60.57,60.588,8958,542745.1198,44,60.595,60.575,60.591,60.57,,-0.008866350400785237,xom,20200214
2020-02-14,12:40,12:40 PM,60.58,60.56,60.574,1269,76868.945,23,60.58,60.555,60.57,14884,901521.924,79,60.575,60.56,60.57,60.555,,-0.00916080484213974,xom,20200214
2020-02-14,12:41,12:41 PM,60.565,60.545,60.557,824,49899.335,10,60.566,60.54,60.555,11872,718908.096,61,60.555,60.565,60.559,60.56,,-0.009406183543268491,xom,20200214
2020-02-14,12:42,12:42 PM,60.565,60.54,60.563,1106,66982.39,12,60.57,60.54,60.555,20723,1254883.43,75,60.565,60.54,60.565,60.545,,-0.009406183543268491,xom,20200214
2020-02-14,12:43,12:43 PM,60.555,60.535,60.54,2000,121080.0,12,60.56,60.535,60.55,17832,1079724.5105,91,60.555,60.535,60.545,60.535,,-0.00948797644364478,xom,20200214
2020-02-14,12:44,12:44 PM,60.535,60.53,60.534,702,42495.06,9,60.54,60.53,60.533,13261,802734.96,48,60.535,60.535,60.54,60.535,,-0.009766072304923953,xom,20200214
2020-02-14,12:45,12:45 PM,60.555,60.545,60.552,469,28398.795,5,60.565,60.54,60.552,7942,480901.555,58,60.545,60.55,60.54,60.55,,-0.00945525928349424,xom,20200214
2020-02-14,12:46,12:46 PM,60.585,60.58,60.583,200,12116.5,2,60.59,60.56,60.578,9759,591182.8677,45,60.58,60.585,60.56,60.585,,-0.0090299362015377,xom,20200214
2020-02-14,12:47,12:47 PM,60.59,60.59,60.59,202,12239.18,2,60.59,60.57,60.579,8466,512862.2486,47,60.59,60.59,60.58,60.57,,-0.00901357762146249,xom,20200214
2020-02-14,12:48,12:48 PM,60.575,60.57,60.572,200,12114.5,2,60.578,60.545,60.563,8346,505461.5296,43,60.57,60.575,60.575,60.545,,-0.009275314902666452,xom,20200214
2020-02-14,12:49,12:49 PM,60.565,60.56,60.562,201,12173.06,3,60.565,60.525,60.552,6911,418477.064,52,60.565,60.56,60.55,60.53,,-0.00945525928349424,xom,20200214
2020-02-14,12:50,12:50 PM,60.565,60.525,60.552,1000,60552.0,5,60.575,60.525,60.554,9801,593492.2474,50,60.525,60.565,60.525,60.575,,-0.009422542123343702,xom,20200214
2020-02-14,12:51,12:51 PM,60.575,60.52,60.556,604,36576.14,8,60.58,60.52,60.547,20083,1215974.5234,104,60.575,60.52,60.575,60.525,,-0.00953705218387053,xom,20200214
2020-02-14,12:52,12:52 PM,60.515,60.515,60.515,2,121.03,1,60.53,60.51,60.519,18706,1132071.4184,91,60.515,60.515,60.525,60.52,,-0.009995092425977493,xom,20200214
2020-02-14,12:53,12:53 PM,60.51,60.49,60.49,202,12219.02,3,60.52,60.485,60.504,25780,1559797.9085,101,60.51,60.49,60.52,60.491,,-0.010240471127106245,xom,20200214
2020-02-14,12:54,12:54 PM,60.51,60.49,60.498,698,42227.87,8,60.516,60.49,60.503,10008,605511.4215,63,60.49,60.49,60.495,60.494,,-0.010256829707181456,xom,20200214
2020-02-14,12:55,12:55 PM,60.5,60.49,60.497,810,49002.265,8,60.51,60.49,60.498,14855,898701.4196,68,60.49,60.49,60.494,60.495,,-0.010338622607557746,xom,20200214
2020-02-14,12:56,12:56 PM,60.525,60.51,60.517,269,16279.225,3,60.53,60.49,60.51,11087,670872.1036,49,60.51,60.525,60.49,60.526,,-0.010142319646654744,xom,20200214
2020-02-14,12:57,12:57 PM,60.52,60.515,60.518,523,31650.845,6,60.53,60.51,60.522,10649,644497.851,64,60.52,60.52,60.52,60.52,,-0.009946016685751744,xom,20200214
2020-02-14,12:58,12:58 PM,60.525,60.525,60.525,100,6052.5,1,60.53,60.52,60.522,5666,342918.0559,26,60.525,60.525,60.526,60.52,,-0.009946016685751744,xom,20200214
2020-02-14,12:59,12:59 PM,60.52,60.505,60.505,202,12222.04,3,60.53,60.5,60.513,7032,425527.8472,43,60.52,60.505,60.529,60.505,,-0.010093243906428994,xom,20200214
2020-02-14,13:00,1 PM,60.525,60.52,60.525,402,24331.04,4,60.53,60.503,60.52,10968,663784.0432,65,60.525,60.525,60.505,60.52,,-0.009978733845902166,xom,20200214
2020-02-14,13:01,1:01 PM,60.525,60.51,60.519,216,13072.17,4,60.53,60.5,60.521,10339,625726.247,47,60.515,60.51,60.515,60.506,,-0.009962375265826955,xom,20200214
2020-02-14,13:02,1:02 PM,60.52,60.49,60.505,577,34911.335,10,60.53,60.49,60.505,31036,1877819.0153,140,60.52,60.51,60.51,60.505,,-0.010224112547030918,xom,20200214
2020-02-14,13:03,1:03 PM,60.5,60.475,60.478,502,30360.0,6,60.505,60.475,60.481,12700,768112.2822,75,60.5,60.475,60.505,60.475,,-0.01061671846883692,xom,20200214
2020-02-14,13:04,1:04 PM,60.485,60.475,60.482,411,24858.28,6,60.49,60.47,60.483,10954,662532.515,76,60.475,60.48,60.471,60.49,,-0.010584001308686497,xom,20200214
2020-02-14,13:05,1:05 PM,60.51,60.495,60.501,512,30976.6,9,60.51,60.493,60.502,12922,781807.187,64,60.495,60.505,60.5,60.5,,-0.010273188287256667,xom,20200214
2020-02-14,13:06,1:06 PM,60.505,60.485,60.495,454,27464.68,16,60.508,60.485,60.5,11240,680017.355,42,60.505,60.485,60.5,60.485,,-0.010305905447407206,xom,20200214
2020-02-14,13:07,1:07 PM,60.5,60.485,60.495,113,6835.915,6,60.5,60.484,60.493,15106,913813.037,35,60.485,60.495,60.485,60.49,,-0.010420415507933918,xom,20200214
2020-02-14,13:08,1:08 PM,60.49,60.47,60.489,516,31212.6,4,60.495,60.46,60.479,22516,1361740.87,129,60.49,60.47,60.49,60.477,,-0.010649435628987458,xom,20200214
2020-02-14,13:09,1:09 PM,60.46,60.45,60.45,3108,187879.6,12,60.47,60.41,60.437,27383,1654943.1061,138,60.46,60.45,60.465,60.41,,-0.011336495992147961,xom,20200214
2020-02-14,13:10,1:10 PM,60.42,60.415,60.418,600,36251.0,6,60.43,60.405,60.415,17513,1058049.5442,91,60.415,60.415,60.415,60.405,,-0.011696384753803425,xom,20200214
2020-02-14,13:11,1:11 PM,60.425,60.41,60.418,219,13231.575,3,60.425,60.395,60.403,29146,1760519.43,84,60.41,60.425,60.405,60.425,,-0.011892687714706427,xom,20200214
2020-02-14,13:12,1:12 PM,60.445,60.42,60.431,600,36258.5,6,60.447,60.42,60.432,15098,912400.279,85,60.43,60.445,60.425,60.434,,-0.011418288892524135,xom,20200214
2020-02-14,13:13,1:13 PM,,,,0,0.0,0,60.45,60.42,60.439,12268,741469.8509,61,,,60.435,60.425,,-0.011303778831997423,xom,20200214
2020-02-14,13:14,1:14 PM,60.43,60.405,60.421,400,24168.5,4,60.43,60.4,60.416,7083,427925.4063,47,60.425,60.43,60.425,60.43,,-0.011680026173728214,xom,20200214
2020-02-14,13:15,1:15 PM,60.435,60.425,60.427,1442,87135.35,9,60.445,60.42,60.428,6309,381242.43,34,60.425,60.435,60.425,60.445,,-0.011483723212825214,xom,20200214
2020-02-14,13:16,1:16 PM,60.455,60.44,60.451,701,42375.95,5,60.46,60.42,60.446,12578,760289.325,75,60.445,60.45,60.45,60.42,,-0.01118926877147071,xom,20200214
2020-02-14,13:17,1:17 PM,60.425,60.425,60.425,100,6042.5,1,60.43,60.415,60.421,9950,601186.9943,53,60.425,60.425,60.425,60.425,,-0.011598233273351924,xom,20200214
2020-02-14,13:18,1:18 PM,,,,0,0.0,0,60.44,60.42,60.429,37366,2257983.2495,169,,,60.425,60.426,,-0.011467364632749884,xom,20200214
2020-02-14,13:19,1:19 PM,60.415,60.395,60.406,308,18605.2,5,60.43,60.393,60.412,11517,695760.4915,72,60.415,60.395,60.425,60.4,,-0.011745460494029176,xom,20200214
2020-02-14,13:20,1:20 PM,60.395,60.38,60.388,826,49880.13,5,60.41,60.38,60.393,24597,1485490.5749,142,60.385,60.395,60.394,60.4,,-0.012056273515458888,xom,20200214
2020-02-14,13:21,1:21 PM,60.415,60.41,60.414,600,36248.5,3,60.42,60.4,60.409,11281,681474.2862,54,60.41,60.415,60.405,60.405,,-0.011794536234254926,xom,20200214
2020-02-14,13:22,1:22 PM,60.395,60.395,60.395,300,18118.5,2,60.41,60.39,60.394,8301,501333.3359,40,60.395,60.395,60.405,60.391,,-0.012039914935383677,xom,20200214
2020-02-14,13:23,1:23 PM,60.4,60.395,60.397,500,30198.5,5,60.4,60.39,60.398,9424,569187.0924,67,60.4,60.395,60.39,60.395,,-0.011974480615082599,xom,20200214
2020-02-14,13:24,1:24 PM,60.4,60.39,60.395,500,30197.5,5,60.4,60.39,60.395,14323,865045.1915,51,60.395,60.395,60.395,60.394,,-0.01202355635530835,xom,20200214
2020-02-14,13:25,1:25 PM,60.39,60.39,60.39,100,6039.0,1,60.4,60.375,60.389,15826,955721.705,65,60.39,60.39,60.39,60.4,,-0.01212170783575985,xom,20200214
2020-02-14,13:26,1:26 PM,60.405,60.4,60.403,200,12080.5,2,60.417,60.393,60.401,13692,827016.75,75,60.405,60.4,60.393,60.411,,-0.011925404874856849,xom,20200214
2020-02-14,13:27,1:27 PM,60.435,60.425,60.431,387,23386.91,5,60.435,60.415,60.427,13486,814914.9966,88,60.425,60.43,60.415,60.43,,-0.011500081792900425,xom,20200214
2020-02-14,13:28,1:28 PM,60.435,60.43,60.432,403,24354.29,6,60.44,60.42,60.429,12974,784010.8223,81,60.43,60.43,60.425,60.42,,-0.011467364632749884,xom,20200214
2020-02-14,13:29,1:29 PM,60.42,60.395,60.4,256,15462.47,5,60.42,60.38,60.404,13003,785435.464,75,60.42,60.395,60.42,60.38,,-0.0118763291346311,xom,20200214
2020-02-14,13:30,1:30 PM,60.4,60.4,60.4,24,1449.6,2,60.405,60.39,60.397,7535,455094.635,45,60.4,60.4,60.39,60.4,,-0.011990839195157926,xom,20200214
2020-02-14,13:31,1:31 PM,60.415,60.405,60.41,200,12082.0,2,60.42,60.4,60.404,13470,813643.2874,49,60.405,60.415,60.405,60.415,,-0.0118763291346311,xom,20200214
2020-02-14,13:32,1:32 PM,,,,0,0.0,0,60.43,60.41,60.425,13755,831148.8847,48,,,60.418,60.425,,-0.011532798953050963,xom,20200214
2020-02-14,13:33,1:33 PM,60.445,60.43,60.436,700,42305.0,7,60.45,60.425,60.436,20436,1235063.0783,91,60.43,60.445,60.425,60.45,,-0.011352854572223174,xom,20200214
2020-02-14,13:34,1:34 PM,60.445,60.44,60.442,313,18918.235,7,60.45,60.435,60.441,14321,865573.3379,68,60.445,60.445,60.446,60.445,,-0.011271061671846884,xom,20200214
2020-02-14,13:35,1:35 PM,60.44,60.415,60.43,307,18551.95,15,60.45,60.413,60.434,22010,1330143.6154,104,60.44,60.435,60.45,60.435,,-0.011385571732373713,xom,20200214
2020-02-14,13:36,1:36 PM,60.465,60.42,60.44,346,20912.185,14,60.469,60.425,60.446,13398,809849.8498,67,60.435,60.465,60.436,60.465,,-0.01118926877147071,xom,20200214
2020-02-14,13:37,1:37 PM,60.485,60.455,60.467,113,6832.735,8,60.49,60.455,60.481,17568,1062539.6239,83,60.465,60.485,60.465,60.485,,-0.01061671846883692,xom,20200214
2020-02-14,13:38,1:38 PM,60.49,60.445,60.486,106,6411.57,8,60.49,60.447,60.473,15127,914772.4771,77,60.49,60.455,60.49,60.45,,-0.010747587109438959,xom,20200214
2020-02-14,13:39,1:39 PM,60.455,60.435,60.441,21,1269.255,14,60.455,60.43,60.441,15916,961980.4576,51,60.455,60.435,60.45,60.438,,-0.011271061671846884,xom,20200214
2020-02-14,13:40,1:40 PM,60.44,60.435,60.435,135,8158.76,16,60.44,60.425,60.432,13434,811842.0239,69,60.435,60.435,60.43,60.425,,-0.011418288892524135,xom,20200214
2020-02-14,13:41,1:41 PM,60.42,60.41,60.413,202,12203.34,3,60.43,60.405,60.415,10029,605900.5796,41,60.42,60.41,60.421,60.41,,-0.011696384753803425,xom,20200214
2020-02-14,13:42,1:42 PM,60.41,60.4,60.402,501,30261.41,4,60.43,60.39,60.404,58700,3545687.0717,175,60.41,60.4,60.41,60.41,,-0.0118763291346311,xom,20200214
2020-02-14,13:43,1:43 PM,,,,0,0.0,0,60.42,60.41,60.411,11373,687058.7953,50,,,60.41,60.41,,-0.011761819074104387,xom,20200214
2020-02-14,13:44,1:44 PM,60.415,60.415,60.415,80,4833.2,2,60.42,60.39,60.41,27379,1653973.4003,144,60.415,60.415,60.415,60.39,,-0.011778177654179715,xom,20200214
2020-02-14,13:45,1:45 PM,60.405,60.405,60.405,100,6040.5,1,60.41,60.38,60.395,11753,709820.482,65,60.405,60.405,60.4,60.41,,-0.01202355635530835,xom,20200214
2020-02-14,13:46,1:46 PM,60.42,60.4,60.413,300,18124.0,3,60.425,60.39,60.413,33866,2045935.1098,136,60.42,60.4,60.41,60.39,,-0.011729101913953963,xom,20200214
2020-02-14,13:47,1:47 PM,60.42,60.415,60.415,1102,66577.34,12,60.42,60.395,60.411,9009,544241.69,47,60.415,60.415,60.395,60.414,,-0.011761819074104387,xom,20200214
2020-02-14,13:48,1:48 PM,60.425,60.405,60.414,500,30207.0,5,60.425,60.4,60.414,12558,758679.2848,67,60.415,60.405,60.415,60.401,,-0.011712743333878636,xom,20200214
2020-02-14,13:49,1:49 PM,60.405,60.405,60.405,300,18121.5,3,60.41,60.4,60.406,13937,841881.9757,40,60.405,60.405,60.402,60.4,,-0.011843611974480675,xom,20200214
2020-02-14,13:50,1:50 PM,60.395,60.39,60.392,41,2476.065,2,60.41,60.38,60.398,16779,1013413.3035,69,60.395,60.39,60.409,60.395,,-0.011974480615082599,xom,20200214
2020-02-14,13:51,1:51 PM,60.395,60.39,60.393,174,10508.36,2,60.4,60.385,60.393,11389,687817.399,37,60.395,60.39,60.394,60.389,,-0.012056273515458888,xom,20200214
2020-02-14,13:52,1:52 PM,60.41,60.385,60.402,500,30201.0,7,60.41,60.38,60.399,26267,1586503.6019,129,60.385,60.405,60.385,60.39,,-0.011958122035007387,xom,20200214
2020-02-14,13:53,1:53 PM,60.385,60.36,60.382,81,4890.96,3,60.4,60.35,60.378,26415,1594879.4644,96,60.385,60.36,60.395,60.37,,-0.01230165221658764,xom,20200214
2020-02-14,13:54,1:54 PM,60.38,60.35,60.365,267,16117.46,3,60.385,60.35,60.367,8250,498030.7,51,60.37,60.35,60.37,60.35,,-0.012481596597415429,xom,20200214
2020-02-14,13:55,1:55 PM,60.38,60.375,60.375,206,12437.28,3,60.38,60.355,60.367,8395,506784.3255,44,60.38,60.375,60.355,60.375,,-0.012481596597415429,xom,20200214
2020-02-14,13:56,1:56 PM,60.375,60.37,60.373,200,12074.5,2,60.38,60.365,60.373,8144,491678.2775,31,60.37,60.375,60.37,60.375,,-0.012383445116963928,xom,20200214
2020-02-14,13:57,1:57 PM,60.355,60.355,60.355,100,6035.5,1,60.377,60.35,60.361,10748,648762.8935,61,60.355,60.355,60.37,60.355,,-0.01257974807786693,xom,20200214
2020-02-14,13:58,1:58 PM,60.345,60.34,60.342,300,18102.5,3,60.35,60.335,60.348,30980,1869573.4546,156,60.34,60.345,60.35,60.35,,-0.012792409618845143,xom,20200214
2020-02-14,13:59,1:59 PM,60.355,60.355,60.355,200,12071.0,2,60.357,60.345,60.35,12685,765545.865,71,60.355,60.355,60.349,60.348,,-0.012759692458694603,xom,20200214
2020-02-14,14:00,2 PM,60.36,60.35,60.356,159,9596.64,3,60.375,60.343,60.354,25744,1553754.8453,136,60.35,60.36,60.345,60.375,,-0.012694258138393642,xom,20200214
2020-02-14,14:01,2:01 PM,60.39,60.38,60.385,750,45288.75,5,60.395,60.375,60.385,14345,866218.5648,62,60.38,60.385,60.375,60.38,,-0.012187142156060928,xom,20200214
2020-02-14,14:02,2:02 PM,60.38,60.35,60.37,323,19499.54,7,60.39,60.35,60.367,16465,993951.3525,72,60.38,60.35,60.385,60.355,,-0.012481596597415429,xom,20200214
2020-02-14,14:03,2:03 PM,60.355,60.355,60.355,22,1327.81,1,60.356,60.34,60.35,12509,754921.9802,79,60.355,60.355,60.35,60.353,,-0.012759692458694603,xom,20200214
2020-02-14,14:04,2:04 PM,60.35,60.35,60.35,52,3138.2,6,60.36,60.34,60.349,26442,1595757.0414,149,60.35,60.35,60.355,60.35,,-0.012776051038769932,xom,20200214
2020-02-14,14:05,2:05 PM,60.345,60.33,60.335,318,19186.535,18,60.35,60.32,60.341,24150,1457229.0515,132,60.335,60.335,60.345,60.336,,-0.012906919679371855,xom,20200214
2020-02-14,14:06,2:06 PM,60.335,60.32,60.326,5955,359239.42,29,60.34,60.32,60.329,22912,1382262.865,102,60.335,60.325,60.339,60.325,,-0.013103222640274855,xom,20200214
2020-02-14,14:07,2:07 PM,60.325,60.315,60.321,1070,64543.9,9,60.33,60.31,60.321,21000,1266731.4332,104,60.325,60.325,60.33,60.325,,-0.013234091280876895,xom,20200214
2020-02-14,14:08,2:08 PM,60.325,60.315,60.318,800,48254.0,8,60.325,60.31,60.317,15807,953425.7201,99,60.325,60.315,60.325,60.315,,-0.013299525601177857,xom,20200214
2020-02-14,14:09,2:09 PM,60.32,60.31,60.315,500,30157.5,9,60.32,60.31,60.314,26257,1583657.852,119,60.315,60.31,60.319,60.32,,-0.013348601341403607,xom,20200214
2020-02-14,14:10,2:10 PM,60.355,60.345,60.354,800,48283.0,3,60.355,60.313,60.333,29033,1751641.9408,96,60.345,60.355,60.32,60.355,,-0.013037788319973894,xom,20200214
2020-02-14,14:11,2:11 PM,60.355,60.35,60.355,2211,133443.85,9,60.36,60.345,60.354,20873,1259769.5451,82,60.355,60.35,60.355,60.36,,-0.012694258138393642,xom,20200214
2020-02-14,14:12,2:12 PM,60.375,60.365,60.371,166,10021.59,3,60.375,60.35,60.36,15247,920307.8316,41,60.365,60.375,60.361,60.375,,-0.012596106657942141,xom,20200214
2020-02-14,14:13,2:13 PM,60.395,60.385,60.388,1621,97888.555,15,60.41,60.375,60.389,15478,934705.7985,71,60.385,60.395,60.38,60.395,,-0.01212170783575985,xom,20200214
2020-02-14,14:14,2:14 PM,60.39,60.39,60.39,2,120.78,1,60.39,60.35,60.372,9143,551981.0141,54,60.39,60.39,60.39,60.35,,-0.01239980369703914,xom,20200214
2020-02-14,14:15,2:15 PM,60.365,60.33,60.358,1441,86976.26,7,60.368,60.33,60.352,15175,915834.9702,71,60.355,60.34,60.355,60.34,,-0.01272697529854418,xom,20200214
2020-02-14,14:16,2:16 PM,60.345,60.29,60.301,1238,74652.6,11,60.345,60.283,60.306,71999,4342007.162,172,60.345,60.29,60.345,60.3,,-0.013479469982005646,xom,20200214
2020-02-14,14:17,2:17 PM,60.325,60.325,60.325,100,6032.5,1,60.325,60.294,60.312,14325,863969.1043,60,60.325,60.325,60.294,60.32,,-0.013381318501554145,xom,20200214
2020-02-14,14:18,2:18 PM,60.375,60.32,60.358,1308,78948.61,16,60.38,60.315,60.362,69600,4201176.5441,350,60.33,60.37,60.328,60.375,,-0.012563389497791603,xom,20200214
2020-02-14,14:19,2:19 PM,60.4,60.4,60.4,100,6040.0,1,60.41,60.38,60.398,20705,1250541.7335,73,60.4,60.4,60.38,60.385,,-0.011974480615082599,xom,20200214
2020-02-14,14:20,2:20 PM,60.42,60.415,60.418,316,19092.14,4,60.43,60.39,60.412,14403,870117.4762,52,60.415,60.42,60.39,60.423,,-0.011745460494029176,xom,20200214
2020-02-14,14:21,2:21 PM,60.405,60.4,60.403,200,12080.5,2,60.44,60.4,60.418,11535,696918.3826,69,60.405,60.4,60.429,60.4,,-0.011647309013577675,xom,20200214
2020-02-14,14:22,2:22 PM,60.39,60.39,60.39,20,1207.8,1,60.41,60.376,60.395,25352,1531125.1226,114,60.39,60.39,60.4,60.382,,-0.01202355635530835,xom,20200214
2020-02-14,14:23,2:23 PM,60.42,60.4,60.413,300,18124.0,3,60.42,60.385,60.414,26806,1619450.9832,100,60.4,60.42,60.386,60.41,,-0.011712743333878636,xom,20200214
2020-02-14,14:24,2:24 PM,60.42,60.415,60.417,200,12083.5,2,60.44,60.405,60.416,9207,556251.6538,52,60.415,60.42,60.405,60.44,,-0.011680026173728214,xom,20200214
2020-02-14,14:25,2:25 PM,60.46,60.455,60.457,300,18137.0,3,60.46,60.44,60.451,10601,640843.4192,58,60.46,60.455,60.44,60.459,,-0.011107475871094423,xom,20200214
2020-02-14,14:26,2:26 PM,60.46,60.45,60.459,106,6408.7,2,60.465,60.44,60.45,12104,731691.7941,69,60.46,60.45,60.46,60.443,,-0.011123834451169634,xom,20200214
2020-02-14,14:27,2:27 PM,60.455,60.435,60.448,1118,67580.92,11,60.456,60.435,60.446,10224,617995.1248,59,60.45,60.44,60.45,60.44,,-0.01118926877147071,xom,20200214
2020-02-14,14:28,2:28 PM,60.445,60.44,60.444,492,29738.44,4,60.449,60.43,60.441,10379,627312.287,67,60.445,60.445,60.44,60.444,,-0.011271061671846884,xom,20200214
2020-02-14,14:29,2:29 PM,60.43,60.43,60.43,48,2900.64,2,60.445,60.425,60.434,20401,1232914.5615,79,60.43,60.43,60.445,60.442,,-0.011385571732373713,xom,20200214
2020-02-14,14:30,2:30 PM,60.44,60.425,60.428,1100,66471.0,7,60.44,60.42,60.43,10765,650524.7071,48,60.44,60.425,60.44,60.426,,-0.011451006052674673,xom,20200214
2020-02-14,14:31,2:31 PM,60.44,60.43,60.435,320,19339.3,3,60.44,60.425,60.433,8789,531144.792,46,60.44,60.43,60.43,60.43,,-0.011401930312448924,xom,20200214
2020-02-14,14:32,2:32 PM,60.435,60.43,60.43,202,12206.865,4,60.44,60.423,60.432,10038,606617.7371,55,60.43,60.43,60.423,60.439,,-0.011418288892524135,xom,20200214
2020-02-14,14:33,2:33 PM,60.49,60.44,60.459,1108,66988.22,11,60.49,60.435,60.461,28506,1723495.1282,149,60.44,60.485,60.44,60.465,,-0.01094389007034196,xom,20200214
2020-02-14,14:34,2:34 PM,60.455,60.42,60.433,229,13839.195,5,60.47,60.42,60.443,29859,1804768.228,134,60.455,60.42,60.465,60.465,,-0.011238344511696462,xom,20200214
2020-02-14,14:35,2:35 PM,60.47,60.465,60.468,400,24187.0,3,60.47,60.46,60.467,5022,303667.2509,31,60.47,60.465,60.461,60.47,,-0.01084573858989046,xom,20200214
2020-02-14,14:36,2:36 PM,60.475,60.475,60.475,200,12095.0,2,60.48,60.47,60.474,5319,321662.4413,21,60.475,60.475,60.475,60.475,,-0.010731228529363748,xom,20200214
2020-02-14,14:37,2:37 PM,60.495,60.475,60.486,8,483.885,5,60.5,60.47,60.483,8593,519726.651,43,60.48,60.495,60.478,60.495,,-0.010584001308686497,xom,20200214
2020-02-14,14:38,2:38 PM,60.5,60.48,60.494,115,6956.825,4,60.5,60.475,60.487,15140,915780.3212,68,60.495,60.48,60.49,60.475,,-0.010518566988385419,xom,20200214
2020-02-14,14:39,2:39 PM,60.47,60.47,60.47,100,6047.0,1,60.48,60.46,60.475,22010,1331065.9645,50,60.47,60.47,60.474,60.475,,-0.01071486994928842,xom,20200214
2020-02-14,14:40,2:40 PM,60.45,60.44,60.444,154,9308.35,4,60.48,60.44,60.455,9746,589197.4754,47,60.45,60.44,60.47,60.44,,-0.01104204155079346,xom,20200214
2020-02-14,14:41,2:41 PM,60.445,60.445,60.445,600,36267.0,1,60.45,60.43,60.438,8961,541589.1778,51,60.445,60.445,60.445,60.44,,-0.011320137412072634,xom,20200214
2020-02-14,14:42,2:42 PM,60.435,60.42,60.425,211,12749.65,4,60.445,60.41,60.426,12035,727225.745,77,60.435,60.42,60.44,60.44,,-0.011516440372975636,xom,20200214
2020-02-14,14:43,2:43 PM,60.44,60.41,60.425,311,18792.23,4,60.45,60.41,60.431,43867,2650937.9281,165,60.44,60.41,60.44,60.41,,-0.011434647472599462,xom,20200214
2020-02-14,14:44,2:44 PM,60.44,60.415,60.43,407,24595.08,6,60.455,60.41,60.436,8132,491468.1353,38,60.415,60.44,60.419,60.455,,-0.011352854572223174,xom,20200214
2020-02-14,14:45,2:45 PM,60.455,60.45,60.45,106,6407.73,2,60.49,60.445,60.464,13865,838328.1404,61,60.455,60.45,60.45,60.48,,-0.01089481433011621,xom,20200214
2020-02-14,14:46,2:46 PM,60.485,60.4,60.45,75,4533.79,6,60.485,60.4,60.448,40701,2460281.788,219,60.485,60.4,60.48,60.4,,-0.011156551611320172,xom,20200214
2020-02-14,14:47,2:47 PM,60.41,60.38,60.397,406,24521.3,6,60.47,60.375,60.421,45543,2751769.7053,273,60.4,60.41,60.4,60.47,,-0.011598233273351924,xom,20200214
2020-02-14,14:48,2:48 PM,60.49,60.47,60.48,200,12096.0,2,60.49,60.46,60.475,16517,998871.7396,62,60.47,60.49,60.46,60.48,,-0.01071486994928842,xom,20200214
2020-02-14,14:49,2:49 PM,60.45,60.445,60.446,115,6951.25,2,60.48,60.44,60.462,9936,600751.5076,59,60.45,60.445,60.48,60.46,,-0.010927531490266632,xom,20200214
2020-02-14,14:50,2:50 PM,60.44,60.44,60.44,87,5258.28,1,60.46,60.43,60.438,3858,233170.4212,21,60.44,60.44,60.46,60.43,,-0.011320137412072634,xom,20200214
2020-02-14,14:51,2:51 PM,60.44,60.435,60.438,200,12087.5,2,60.45,60.425,60.437,12496,755219.9626,48,60.44,60.435,60.437,60.43,,-0.011336495992147961,xom,20200214
2020-02-14,14:52,2:52 PM,60.43,60.415,60.42,173,10452.74,4,60.435,60.41,60.424,11342,685329.0196,64,60.415,60.43,60.43,60.43,,-0.011549157533126174,xom,20200214
2020-02-14,14:53,2:53 PM,60.435,60.43,60.433,300,18130.0,4,60.44,60.42,60.433,13568,819955.8307,72,60.435,60.43,60.435,60.44,,-0.011401930312448924,xom,20200214
2020-02-14,14:54,2:54 PM,60.46,60.46,60.46,105,6348.3,2,60.47,60.44,60.457,9677,585043.3625,40,60.46,60.46,60.44,60.47,,-0.011009324390642922,xom,20200214
2020-02-14,14:55,2:55 PM,60.47,60.46,60.465,209,12637.17,4,60.476,60.455,60.463,15209,919579.665,82,60.465,60.46,60.47,60.465,,-0.01091117291019142,xom,20200214
2020-02-14,14:56,2:56 PM,60.485,60.47,60.472,120,7256.7,2,60.498,60.465,60.483,12422,751326.0078,69,60.47,60.485,60.465,60.485,,-0.010584001308686497,xom,20200214
2020-02-14,14:57,2:57 PM,60.485,60.47,60.478,303,18324.955,3,60.49,60.465,60.478,7153,432598.315,43,60.485,60.48,60.485,60.485,,-0.01066579420906267,xom,20200214
2020-02-14,14:58,2:58 PM,,,,0,0.0,0,60.5,60.484,60.489,4847,293192.4184,25,,,60.487,60.485,,-0.010485849828234996,xom,20200214
2020-02-14,14:59,2:59 PM,60.48,60.48,60.48,41,2479.68,1,60.486,60.47,60.476,12810,774699.2262,59,60.48,60.48,60.48,60.48,,-0.010698511369213208,xom,20200214
2020-02-14,15:00,3 PM,60.47,60.465,60.467,479,28963.63,6,60.48,60.46,60.471,11418,690458.8323,56,60.47,60.47,60.479,60.465,,-0.010780304269589498,xom,20200214
2020-02-14,15:01,3:01 PM,60.465,60.46,60.463,209,12636.685,3,60.48,60.45,60.464,18486,1117728.5878,95,60.465,60.465,60.46,60.48,,-0.01089481433011621,xom,20200214
2020-02-14,15:02,3:02 PM,60.465,60.46,60.465,111,6711.61,2,60.485,60.455,60.469,21410,1294634.9624,83,60.46,60.465,60.48,60.46,,-0.01081302142973992,xom,20200214
2020-02-14,15:03,3:03 PM,60.475,60.475,60.475,119,7196.525,2,60.48,60.455,60.469,12769,772132.3997,67,60.475,60.475,60.46,60.47,,-0.01081302142973992,xom,20200214
2020-02-14,15:04,3:04 PM,60.44,60.44,60.44,100,6044.0,1,60.475,60.44,60.459,8485,512992.8479,60,60.44,60.44,60.469,60.44,,-0.010976607230492383,xom,20200214
2020-02-14,15:05,3:05 PM,60.45,60.445,60.448,256,15474.7,3,60.46,60.44,60.447,8948,540884.4526,56,60.45,60.445,60.44,60.44,,-0.011172910191395383,xom,20200214
2020-02-14,15:06,3:06 PM,60.46,60.44,60.458,113,6831.72,2,60.46,60.435,60.456,9581,579233.7285,61,60.44,60.46,60.44,60.455,,-0.011025682970718133,xom,20200214
2020-02-14,15:07,3:07 PM,60.455,60.445,60.45,126,7616.655,9,60.46,60.43,60.438,31770,1920134.1005,84,60.45,60.445,60.45,60.435,,-0.011320137412072634,xom,20200214
2020-02-14,15:08,3:08 PM,60.445,60.43,60.434,56,3384.32,6,60.45,60.425,60.438,10194,616110.97,55,60.435,60.435,60.43,60.425,,-0.011320137412072634,xom,20200214
2020-02-14,15:09,3:09 PM,60.425,60.405,60.417,818,49420.815,29,60.43,60.4,60.415,11737,709094.8673,71,60.425,60.425,60.425,60.43,,-0.011696384753803425,xom,20200214
2020-02-14,15:10,3:10 PM,60.455,60.43,60.446,320,19342.6,4,60.46,60.43,60.44,15217,919717.3124,85,60.43,60.455,60.435,60.45,,-0.011287420251922212,xom,20200214
2020-02-14,15:11,3:11 PM,60.455,60.42,60.446,360,21760.6,7,60.46,60.41,60.44,17616,1064718.6667,95,60.455,60.42,60.455,60.411,,-0.011287420251922212,xom,20200214
2020-02-14,15:12,3:12 PM,60.41,60.39,60.397,212,12804.26,5,60.42,60.39,60.407,18160,1097000.2128,103,60.41,60.39,60.415,60.39,,-0.011827253394405464,xom,20200214
2020-02-14,15:13,3:13 PM,60.42,60.395,60.407,600,36244.5,7,60.42,60.39,60.405,14995,905771.1906,81,60.4,60.415,60.39,60.415,,-0.011859970554555887,xom,20200214
2020-02-14,15:14,3:14 PM,60.415,60.415,60.415,200,12083.0,2,60.42,60.41,60.416,3575,215987.9796,24,60.415,60.415,60.42,60.42,,-0.011680026173728214,xom,20200214
2020-02-14,15:15,3:15 PM,60.44,60.415,60.43,1305,78861.65,15,60.44,60.41,60.426,24354,1471607.0464,127,60.415,60.43,60.415,60.43,,-0.011516440372975636,xom,20200214
2020-02-14,15:16,3:16 PM,60.425,60.425,60.425,600,36255.0,6,60.445,60.422,60.432,11926,720711.52,64,60.425,60.425,60.425,60.444,,-0.011418288892524135,xom,20200214
2020-02-14,15:17,3:17 PM,60.435,60.43,60.434,400,24173.5,4,60.45,60.43,60.44,14168,856313.3109,103,60.435,60.435,60.45,60.445,,-0.011287420251922212,xom,20200214
2020-02-14,15:18,3:18 PM,60.45,60.445,60.446,1297,78398.15,10,60.45,60.44,60.445,21077,1273998.5826,80,60.445,60.45,60.44,60.45,,-0.011205627351545922,xom,20200214
2020-02-14,15:19,3:19 PM,60.455,60.45,60.455,403,24363.35,5,60.46,60.45,60.456,18194,1099944.5974,111,60.45,60.455,60.45,60.455,,-0.011025682970718133,xom,20200214
2020-02-14,15:20,3:20 PM,60.455,60.455,60.455,100,6045.5,1,60.46,60.445,60.458,28073,1697235.429,151,60.455,60.455,60.455,60.445,,-0.01099296581056771,xom,20200214
2020-02-14,15:21,3:21 PM,60.45,60.43,60.442,1212,73255.4,13,60.46,60.43,60.446,28685,1733900.9169,145,60.43,60.45,60.441,60.455,,-0.01118926877147071,xom,20200214
2020-02-14,15:22,3:22 PM,60.475,60.455,60.469,800,48375.5,9,60.48,60.45,60.463,32692,1976659.6085,192,60.455,60.47,60.45,60.475,,-0.01091117291019142,xom,20200214
2020-02-14,15:23,3:23 PM,60.48,60.47,60.471,95,5744.73,2,60.48,60.46,60.473,13513,817166.4688,74,60.48,60.47,60.48,60.465,,-0.010747587109438959,xom,20200214
2020-02-14,15:24,3:24 PM,60.48,60.45,60.472,255,15420.31,4,60.48,60.45,60.468,14545,879504.7973,97,60.45,60.48,60.46,60.48,,-0.010829380009815133,xom,20200214
2020-02-14,15:25,3:25 PM,60.485,60.475,60.477,250,15119.245,5,60.485,60.47,60.479,13922,841994.2996,75,60.485,60.475,60.485,60.47,,-0.010649435628987458,xom,20200214
2020-02-14,15:26,3:26 PM,60.475,60.465,60.469,401,24247.97,5,60.475,60.46,60.468,17767,1074338.3642,92,60.47,60.47,60.475,60.465,,-0.010829380009815133,xom,20200214
2020-02-14,15:27,3:27 PM,60.47,60.46,60.465,202,12213.92,3,60.48,60.455,60.467,14756,892258.2748,92,60.46,60.47,60.46,60.48,,-0.01084573858989046,xom,20200214
2020-02-14,15:28,3:28 PM,60.5,60.47,60.493,494,29883.5,4,60.51,60.47,60.495,21851,1321880.863,92,60.47,60.5,60.48,60.51,,-0.010387698347783495,xom,20200214
2020-02-14,15:29,3:29 PM,60.51,60.49,60.498,302,18270.52,5,60.518,60.49,60.502,28465,1722198.0424,153,60.51,60.495,60.51,60.495,,-0.010273188287256667,xom,20200214
2020-02-14,15:30,3:30 PM,60.5,60.485,60.491,700,42344.0,7,60.505,60.475,60.488,25075,1516742.5342,147,60.49,60.5,60.49,60.505,,-0.010502208408310208,xom,20200214
2020-02-14,15:31,3:31 PM,60.51,60.495,60.502,519,31400.55,8,60.51,60.495,60.503,16661,1008038.847,92,60.51,60.495,60.509,60.5,,-0.010256829707181456,xom,20200214
2020-02-14,15:32,3:32 PM,60.52,60.505,60.512,578,34976.13,9,60.528,60.5,60.512,37923,2294800.5183,183,60.52,60.51,60.5,60.51,,-0.010109602486504205,xom,20200214
2020-02-14,15:33,3:33 PM,60.535,60.515,60.53,517,31294.255,5,60.54,60.515,60.527,21916,1326515.27,128,60.515,60.535,60.515,60.535,,-0.009864223785375454,xom,20200214
2020-02-14,15:34,3:34 PM,60.545,60.525,60.533,709,42918.3,9,60.545,60.525,60.534,12966,784879.814,73,60.535,60.525,60.54,60.526,,-0.009749713724848742,xom,20200214
2020-02-14,15:35,3:35 PM,60.555,60.525,60.539,614,37171.1,10,60.56,60.525,60.54,15873,960946.7046,99,60.525,60.555,60.525,60.555,,-0.009651562244397241,xom,20200214
2020-02-14,15:36,3:36 PM,60.565,60.56,60.563,200,12112.5,2,60.59,60.554,60.565,28083,1700854.1695,120,60.56,60.565,60.56,60.585,,-0.009242597742516028,xom,20200214
2020-02-14,15:37,3:37 PM,60.59,60.58,60.585,205,12419.91,4,60.595,60.57,60.582,25268,1530776.3735,127,60.58,60.59,60.58,60.59,,-0.008964501881236738,xom,20200214
2020-02-14,15:38,3:38 PM,60.58,60.57,60.575,850,51488.75,10,60.59,60.57,60.577,16298,987289.8737,88,60.58,60.57,60.58,60.575,,-0.009046294781613028,xom,20200214
2020-02-14,15:39,3:39 PM,60.59,60.58,60.587,260,15752.585,3,60.6,60.572,60.585,21078,1277010.3233,116,60.585,60.58,60.58,60.595,,-0.008915426141010988,xom,20200214
2020-02-14,15:40,3:40 PM,60.6,60.59,60.592,514,31144.33,9,60.6,60.585,60.593,20809,1260889.5239,77,60.59,60.59,60.59,60.6,,-0.008784557500408949,xom,20200214
2020-02-14,15:41,3:41 PM,60.595,60.585,60.592,227,13754.395,12,60.6,60.575,60.587,38571,2336922.296,204,60.595,60.585,60.595,60.6,,-0.008882708980860448,xom,20200214
2020-02-14,15:42,3:42 PM,60.6,60.59,60.593,468,28357.62,5,60.61,60.585,60.6,14057,851855.8666,71,60.59,60.6,60.595,60.605,,-0.008670047439882237,xom,20200214
2020-02-14,15:43,3:43 PM,60.62,60.59,60.607,562,34061.32,8,60.62,60.58,60.604,19241,1166090.3838,80,60.615,60.59,60.61,60.585,,-0.008604613119581274,xom,20200214
2020-02-14,15:44,3:44 PM,60.61,60.58,60.599,542,32844.41,9,60.61,60.575,60.596,14628,886403.6725,93,60.58,60.61,60.585,60.601,,-0.008735481760183314,xom,20200214
2020-02-14,15:45,3:45 PM,60.61,60.58,60.595,1551,93982.78,12,60.616,60.574,60.596,38841,2353623.4044,197,60.605,60.58,60.61,60.58,,-0.008735481760183314,xom,20200214
2020-02-14,15:46,3:46 PM,60.61,60.595,60.601,283,17150.13,3,60.61,60.59,60.599,13731,832081.0518,71,60.595,60.6,60.59,60.6,,-0.008686406019957564,xom,20200214
2020-02-14,15:47,3:47 PM,60.61,60.595,60.6,518,31390.97,7,60.62,60.591,60.605,31550,1912104.708,92,60.6,60.6,60.6,60.607,,-0.008588254539506063,xom,20200214
2020-02-14,15:48,3:48 PM,60.61,60.605,60.606,1800,109090.5,14,60.63,60.6,60.608,28257,1712593.6874,115,60.605,60.61,60.605,60.63,,-0.008539178799280314,xom,20200214
2020-02-14,15:49,3:49 PM,60.655,60.615,60.632,1208,73243.46,11,60.655,60.61,60.632,33059,2004427.2981,140,60.625,60.655,60.63,60.655,,-0.008146572877474311,xom,20200214
2020-02-14,15:50,3:50 PM,60.685,60.65,60.663,3400,206253.0,24,60.685,60.645,60.659,75393,4573243.6398,345,60.655,60.685,60.66,60.685,,-0.007704891215442559,xom,20200214
2020-02-14,15:51,3:51 PM,60.725,60.685,60.706,1351,82014.325,9,60.725,60.68,60.706,38044,2309498.4003,224,60.685,60.72,60.68,60.72,,-0.006936037951905766,xom,20200214
2020-02-14,15:52,3:52 PM,60.735,60.72,60.729,1690,102631.45,17,60.74,60.713,60.727,56069,3404918.3122,278,60.73,60.735,60.725,60.735,,-0.006592507770325631,xom,20200214
2020-02-14,15:53,3:53 PM,60.745,60.73,60.736,1845,112057.705,13,60.75,60.73,60.736,42935,2607725.6318,247,60.73,60.735,60.73,60.735,,-0.006445280549648379,xom,20200214
2020-02-14,15:54,3:54 PM,60.725,60.69,60.698,1533,93050.405,15,60.74,60.68,60.697,67406,4091378.8937,368,60.725,60.705,60.74,60.705,,-0.0070832651725830165,xom,20200214
2020-02-14,15:55,3:55 PM,60.7,60.65,60.679,820,49757.07,13,60.7,60.65,60.679,59143,3588763.5266,332,60.68,60.695,60.7,60.7,,-0.0073777196139375185,xom,20200214
2020-02-14,15:56,3:56 PM,60.73,60.69,60.7,2378,144345.66,22,60.73,60.682,60.704,57671,3500876.1471,318,60.695,60.73,60.695,60.725,,-0.006968755112056304,xom,20200214
2020-02-14,15:57,3:57 PM,60.73,60.68,60.696,3054,185365.91,24,60.73,60.68,60.705,79368,4818014.6738,438,60.73,60.68,60.73,60.685,,-0.006952396531981093,xom,20200214
2020-02-14,15:58,3:58 PM,60.68,60.62,60.648,1715,104011.875,15,60.682,60.62,60.645,129986,7882999.3954,611,60.68,60.665,60.68,60.66,,-0.007933911336495982,xom,20200214
2020-02-14,15:59,3:59 PM,60.65,60.62,60.631,1486,90098.12,15,60.67,60.62,60.64,259534,15738053.7527,987,60.65,60.645,60.66,60.64,,-0.008015704236872272,xom,20200214
