date,minute,label,high,low,average,volume,notional,numberOfTrades,marketHigh,marketLow,marketAverage,marketVolume,marketNotional,marketNumberOfTrades,open,close,marketOpen,marketClose,changeOverTime,marketChangeOverTime,tickerName,tickerDate
2020-02-11,09:30,09:30 AM,60.555,60.5,60.538,3320,200986.775,25,60.58,60.46,60.545,448584,27159782.2166,450,60.55,60.5,60.58,60.49,0.0,0.0,xom,20200211
2020-02-11,09:31,09:31 AM,60.49,60.32,60.379,2124,128245.08,17,60.49,60.32,60.401,68422,4132744.8822,279,60.49,60.32,60.49,60.32,-0.0026264495027916173,-0.002378396234205935,xom,20200211
2020-02-11,09:32,09:32 AM,60.39,60.3,60.366,750,45274.5,7,60.43,60.25,60.331,66869,4034255.6692,301,60.3,60.375,60.338,60.39,-0.0028411906571078837,-0.0035345610702782826,xom,20200211
2020-02-11,09:33,09:33 AM,60.42,60.34,60.389,1034,62442.26,11,60.43,60.33,60.393,50965,3077910.7414,281,60.34,60.37,60.39,60.372,-0.0024612639994713043,-0.0025105293583285327,xom,20200211
2020-02-11,09:34,09:34 AM,60.435,60.34,60.377,700,42264.0,7,60.45,60.34,60.406,78566,4745896.932,388,60.36,60.435,60.37,60.435,-0.0026594866034555863,-0.002295813031629414,xom,20200211
2020-02-11,09:35,09:35 AM,60.37,60.27,60.328,2000,120656.0,16,60.435,60.27,60.334,62725,3784481.553,307,60.35,60.335,60.435,60.335,-0.003468895569724698,-0.0034850111487323234,xom,20200211
2020-02-11,09:36,09:36 AM,60.44,60.32,60.397,860,51941.3,9,60.441,60.3,60.377,50683,3060095.9041,177,60.32,60.425,60.33,60.421,-0.0023291155968151946,-0.002774795606573611,xom,20200211
2020-02-11,09:37,09:37 AM,60.41,60.4,60.401,787,47535.8,7,60.45,60.365,60.402,33720,2036766.3899,144,60.41,60.4,60.43,60.44,-0.0022630413954870224,-0.0023618795936906547,xom,20200211
2020-02-11,09:38,09:38 AM,60.47,60.4,60.419,1871,113044.65,22,60.46,60.38,60.437,58848,3556602.2269,143,60.45,60.43,60.44,60.43,-0.001965707489510717,-0.0017837971756545395,xom,20200211
2020-02-11,09:39,09:39 AM,60.43,60.375,60.4,648,39139.0,13,60.431,60.36,60.391,43760,2642702.3507,145,60.43,60.38,60.43,60.385,-0.002279559945819124,-0.0025435626393592115,xom,20200211
2020-02-11,09:40,09:40 AM,60.38,60.33,60.352,400,24141.0,3,60.4,60.319,60.352,74939,4522737.7807,206,60.35,60.38,60.375,60.38,-0.0030724503617562517,-0.003187711619456684,xom,20200211
2020-02-11,09:41,09:41 AM,60.44,60.375,60.393,1217,73498.46,8,60.47,60.35,60.406,89019,5377324.7162,393,60.38,60.44,60.386,60.45,-0.0023951897981432492,-0.002295813031629414,xom,20200211
2020-02-11,09:42,09:42 AM,60.48,60.43,60.456,546,33009.23,7,60.48,60.42,60.449,35717,2159043.2827,167,60.48,60.43,60.45,60.48,-0.0013545211272257697,-0.0015855974894707018,xom,20200211
2020-02-11,09:43,09:43 AM,60.585,60.5,60.547,701,42443.525,7,60.59,60.48,60.539,103050,6238546.0037,323,60.5,60.585,60.48,60.585,0.0001486669529882114,-9.909984309191886e-05,xom,20200211
2020-02-11,09:44,09:44 AM,60.595,60.56,60.569,600,36341.5,3,60.62,60.545,60.583,42695,2586590.0988,168,60.56,60.595,60.59,60.605,0.0005120750602928064,0.0006276323395820745,xom,20200211
2020-02-11,09:45,09:45 AM,60.67,60.61,60.659,1600,97055.0,7,60.675,60.6,60.64,107543,6521398.2853,375,60.61,60.67,60.6,60.645,0.001998744590174803,0.0015690808489553037,xom,20200211
2020-02-11,09:46,09:46 AM,60.7,60.64,60.67,592,35916.88,3,60.74,60.63,60.689,94986,5764597.8687,363,60.64,60.7,60.64,60.717,0.0021804486438271003,0.002378396234205935,xom,20200211
2020-02-11,09:47,09:47 AM,60.715,60.63,60.677,1014,61526.37,8,60.72,60.62,60.664,54170,3286192.9031,236,60.715,60.63,60.71,60.645,0.0022960784961512256,0.001965480221322979,xom,20200211
2020-02-11,09:48,09:48 AM,60.715,60.66,60.694,1900,115318.5,10,60.72,60.641,60.687,41327,2508004.2635,174,60.66,60.715,60.65,60.71,0.002576893851795664,0.0023453629531752563,xom,20200211
2020-02-11,09:49,09:49 AM,60.67,60.63,60.649,800,48519.5,5,60.715,60.63,60.667,28155,1708072.7221,125,60.67,60.64,60.715,60.641,0.0018335590868546073,0.0020150301428689386,xom,20200211
2020-02-11,09:50,09:50 AM,60.69,60.61,60.659,500,30329.5,5,60.695,60.6,60.656,28234,1712571.2132,149,60.69,60.61,60.64,60.61,0.001998744590174803,0.0018333470972003816,xom,20200211
2020-02-11,09:51,09:51 AM,60.62,60.58,60.588,1300,78765.0,7,60.63,60.57,60.602,65707,3981978.9099,285,60.6,60.62,60.61,60.6,0.0008259275166012136,0.0009414485093731118,xom,20200211
2020-02-11,09:52,09:52 AM,60.59,60.59,60.59,200,12118.0,2,60.655,60.563,60.611,35115,2128343.814,194,60.59,60.59,60.6,60.63,0.0008589646172652997,0.0010900982740109902,xom,20200211
2020-02-11,09:53,09:53 AM,60.635,60.61,60.635,201,12187.61,2,60.635,60.56,60.608,38834,2353656.9181,119,60.635,60.61,60.63,60.56,0.0016022993822062393,0.0010405483524650305,xom,20200211
2020-02-11,09:54,09:54 AM,60.57,60.55,60.563,400,24225.0,4,60.59,60.541,60.567,26441,1601456.1005,109,60.57,60.55,60.56,60.561,0.00041296375830066545,0.00036336609133699667,xom,20200211
2020-02-11,09:55,09:55 AM,60.62,60.53,60.547,356,21554.72,5,60.635,60.53,60.575,41543,2516451.4924,188,60.53,60.62,60.569,60.635,0.0001486669529882114,0.0004954992154595943,xom,20200211
2020-02-11,09:56,09:56 AM,60.615,60.615,60.615,100,6061.5,1,60.634,60.59,60.602,19845,1202646.829,73,60.615,60.615,60.634,60.62,0.0012719283755658478,0.0009414485093731118,xom,20200211
2020-02-11,09:57,09:57 AM,60.63,60.62,60.621,657,39828.34,5,60.64,60.61,60.624,23915,1449813.7897,112,60.62,60.63,60.61,60.64,0.0013710396775579888,0.0013048146007102258,xom,20200211
2020-02-11,09:58,09:58 AM,60.63,60.63,60.63,100,6063.0,1,60.66,60.59,60.632,26970,1635233.3882,143,60.63,60.63,60.64,60.59,0.0015197066305462001,0.001436947724832706,xom,20200211
2020-02-11,09:59,09:59 AM,60.635,60.595,60.606,1100,66666.5,8,60.65,60.59,60.617,22513,1364674.6,136,60.625,60.595,60.59,60.605,0.0011232614225776363,0.001189198117102909,xom,20200211
2020-02-11,10:00,10 AM,60.665,60.62,60.657,2416,146547.81,12,60.67,60.605,60.641,41263,2502240.9453,204,60.62,60.665,60.61,60.665,0.001965707489510717,0.0015855974894705843,xom,20200211
2020-02-11,10:01,10:01 AM,60.7,60.66,60.689,359,21787.44,4,60.7,60.655,60.677,24967,1514933.012,107,60.66,60.685,60.66,60.677,0.0024943011001355075,0.0021801965480220975,xom,20200211
2020-02-11,10:02,10:02 AM,60.7,60.67,60.671,209,12680.3,3,60.705,60.66,60.684,53906,3271255.4937,192,60.67,60.67,60.675,60.66,0.002196967194159085,0.002295813031629297,xom,20200211
2020-02-11,10:03,10:03 AM,60.75,60.64,60.682,2709,164386.46,14,60.75,60.64,60.686,86347,5240073.152,368,60.665,60.75,60.665,60.75,0.0023786712478113823,0.002328846312659976,xom,20200211
2020-02-11,10:04,10:04 AM,60.86,60.74,60.786,1908,115980.24,13,60.86,60.73,60.778,110278,6702523.2596,508,60.74,60.86,60.74,60.855,0.004096600482341747,0.00384837724006932,xom,20200211
2020-02-11,10:05,10:05 AM,60.85,60.83,60.841,410,24944.8,6,60.88,60.82,60.849,59367,3612456.263,285,60.83,60.85,60.85,60.875,0.005005120750603,0.005021058716656948,xom,20200211
2020-02-11,10:06,10:06 AM,60.88,60.79,60.826,2511,152733.45,17,60.89,60.79,60.856,56841,3459124.4276,256,60.88,60.79,60.87,60.796,0.004757342495622647,0.0051366752002642655,xom,20200211
2020-02-11,10:07,10:07 AM,60.805,60.73,60.759,854,51887.99,10,60.81,60.72,60.77,37796,2296859.9078,213,60.805,60.73,60.79,60.72,0.0036505996233771125,0.00371624411594684,xom,20200211
2020-02-11,10:08,10:08 AM,60.785,60.72,60.769,710,43145.7,7,60.795,60.71,60.759,25991,1579179.6394,167,60.76,60.72,60.72,60.71,0.0038157851266973084,0.0035345610702782826,xom,20200211
2020-02-11,10:09,10:09 AM,60.735,60.71,60.721,458,27810.18,6,60.76,60.7,60.721,46647,2832430.8604,244,60.71,60.73,60.71,60.74,0.003022894710760181,0.002906928730696091,xom,20200211
2020-02-11,10:10,10:10 AM,60.79,60.745,60.77,400,24308.0,5,60.8,60.73,60.772,46303,2813946.313,231,60.745,60.79,60.76,60.78,0.0038323036770294104,0.003749277396977401,xom,20200211
2020-02-11,10:11,10:11 AM,60.75,60.745,60.748,300,18224.5,3,60.815,60.745,60.788,30970,1882611.7633,170,60.745,60.75,60.77,60.745,0.003468895569724815,0.004013543645222479,xom,20200211
2020-02-11,10:12,10:12 AM,60.75,60.69,60.733,1164,70693.08,13,60.755,60.69,60.725,83808,5089233.5634,343,60.735,60.74,60.755,60.75,0.003221117314744463,0.0029729952927574485,xom,20200211
2020-02-11,10:13,10:13 AM,60.775,60.745,60.765,912,55417.68,9,60.81,60.74,60.77,40566,2465218.0241,207,60.745,60.77,60.745,60.75,0.0037497109253692537,0.00371624411594684,xom,20200211
2020-02-11,10:14,10:14 AM,60.8,60.75,60.77,1135,68973.835,12,60.81,60.74,60.782,45373,2757853.6023,228,60.75,60.79,60.75,60.8,0.0038323036770294104,0.00391444380213056,xom,20200211
2020-02-11,10:15,10:15 AM,60.805,60.765,60.786,420,25530.33,5,60.81,60.754,60.777,32691,1986869.868,139,60.805,60.765,60.8,60.76,0.004096600482341747,0.0038318605995540395,xom,20200211
2020-02-11,10:16,10:16 AM,60.75,60.74,60.745,200,12149.0,2,60.77,60.715,60.751,36684,2228588.8559,199,60.74,60.75,60.765,60.72,0.003419339918728745,0.003402427946155685,xom,20200211
2020-02-11,10:17,10:17 AM,60.765,60.71,60.739,600,36443.5,5,60.77,60.7,60.74,30939,1879228.4702,138,60.71,60.76,60.71,60.748,0.0033202286167366038,0.0032207449004872453,xom,20200211
2020-02-11,10:18,10:18 AM,60.76,60.745,60.752,1065,64700.4,9,60.76,60.725,60.749,21464,1303913.5577,108,60.745,60.755,60.745,60.76,0.0035349697710529873,0.0033693946651251238,xom,20200211
2020-02-11,10:19,10:19 AM,60.78,60.745,60.757,1860,113008.8,17,60.79,60.74,60.759,41277,2507944.4302,191,60.755,60.78,60.76,60.78,0.0036175625227130265,0.0035345610702782826,xom,20200211
2020-02-11,10:20,10:20 AM,60.81,60.795,60.797,1200,72956.5,8,60.829,60.78,60.805,47407,2882565.9015,140,60.805,60.795,60.78,60.8,0.004278304535993927,0.004294326533982955,xom,20200211
2020-02-11,10:21,10:21 AM,60.845,60.83,60.84,600,36504.0,6,60.85,60.8,60.832,26714,1625057.9448,152,60.83,60.845,60.8,60.835,0.004988602200271015,0.004740275827896589,xom,20200211
2020-02-11,10:22,10:22 AM,60.855,60.82,60.842,2200,133851.5,23,60.855,60.81,60.832,105631,6425787.173,378,60.83,60.835,60.838,60.837,0.005021639300934984,0.004740275827896589,xom,20200211
2020-02-11,10:23,10:23 AM,60.855,60.815,60.832,1700,103415.0,17,60.86,60.81,60.839,40055,2436888.3514,175,60.835,60.845,60.835,60.845,0.004856453797614789,0.0048558923115037895,xom,20200211
2020-02-11,10:24,10:24 AM,60.845,60.82,60.835,884,53777.88,9,60.85,60.813,60.835,52435,3189877.803,190,60.845,60.825,60.84,60.82,0.004906009448610859,0.004789825749442549,xom,20200211
2020-02-11,10:25,10:25 AM,60.845,60.825,60.836,1500,91254.0,9,60.85,60.815,60.834,35542,2162178.3313,162,60.825,60.845,60.827,60.83,0.004922527998942843,0.004773309108927268,xom,20200211
2020-02-11,10:26,10:26 AM,60.86,60.835,60.843,1600,97349.0,16,60.865,60.825,60.845,36471,2219077.124,146,60.835,60.845,60.825,60.84,0.005038157851267086,0.004954992154595708,xom,20200211
2020-02-11,10:27,10:27 AM,60.835,60.83,60.834,1500,91251.0,15,60.846,60.821,60.833,24491,1489858.4868,105,60.835,60.835,60.846,60.831,0.004889490898278875,0.00475679246841187,xom,20200211
2020-02-11,10:28,10:28 AM,60.85,60.82,60.834,1417,86201.525,15,60.855,60.81,60.84,27808,1691848.2013,124,60.85,60.82,60.84,60.815,0.004889490898278875,0.004872408952019187,xom,20200211
2020-02-11,10:29,10:29 AM,60.82,60.82,60.82,100,6082.0,1,60.86,60.81,60.844,23083,1404455.4986,98,60.82,60.82,60.815,60.85,0.004658231193630506,0.004938475514080428,xom,20200211
2020-02-11,10:30,10:30 AM,60.87,60.83,60.854,427,25984.49,5,60.875,60.82,60.854,24379,1483571.0112,125,60.87,60.83,60.857,60.82,0.0052198619049192655,0.005103641919233587,xom,20200211
2020-02-11,10:31,10:31 AM,60.83,60.83,60.83,33,2007.39,1,60.86,60.811,60.839,21643,1316741.7878,134,60.83,60.83,60.825,60.84,0.0048234166969507025,0.0048558923115037895,xom,20200211
2020-02-11,10:32,10:32 AM,60.83,60.82,60.822,267,16239.61,3,60.84,60.81,60.822,19011,1156296.338,67,60.83,60.82,60.835,60.82,0.004691268294294592,0.0045751094227434305,xom,20200211
2020-02-11,10:33,10:33 AM,60.855,60.83,60.84,300,18252.0,3,60.865,60.813,60.842,16121,980832.6314,99,60.835,60.855,60.815,60.865,0.004988602200271015,0.004905442233049749,xom,20200211
2020-02-11,10:34,10:34 AM,60.875,60.86,60.87,518,31530.66,6,60.88,60.85,60.864,8425,512782.0944,59,60.875,60.87,60.86,60.85,0.005484158710231603,0.005268808324386746,xom,20200211
2020-02-11,10:35,10:35 AM,60.83,60.81,60.822,403,24511.43,6,60.84,60.8,60.824,14374,874288.8617,87,60.83,60.81,60.84,60.835,0.004691268294294592,0.004608142703773992,xom,20200211
2020-02-11,10:36,10:36 AM,60.83,60.83,60.83,100,6083.0,2,60.835,60.81,60.821,8589,522388.607,63,60.83,60.83,60.83,60.825,0.0048234166969507025,0.0045585927822280325,xom,20200211
2020-02-11,10:37,10:37 AM,60.795,60.795,60.795,100,6079.5,1,60.835,60.79,60.803,17999,1094398.3941,86,60.795,60.795,60.83,60.795,0.004245267435329958,0.0042612932529522765,xom,20200211
2020-02-11,10:38,10:38 AM,60.8,60.795,60.797,201,12220.3,3,60.815,60.79,60.801,21503,1307408.2567,95,60.795,60.8,60.79,60.805,0.004278304535993927,0.004228259971921715,xom,20200211
2020-02-11,10:39,10:39 AM,60.805,60.77,60.788,400,24315.0,4,60.81,60.77,60.795,25246,1534820.8984,81,60.805,60.775,60.805,60.775,0.004129637583005716,0.0041291601288297956,xom,20200211
2020-02-11,10:40,10:40 AM,60.8,60.78,60.791,800,48633.0,8,60.805,60.77,60.788,23545,1431256.6135,131,60.795,60.8,60.775,60.79,0.004179193234001786,0.004013543645222479,xom,20200211
2020-02-11,10:41,10:41 AM,60.795,60.76,60.776,900,54698.0,10,60.795,60.754,60.775,22202,1349322.2737,113,60.795,60.77,60.795,60.77,0.003931414979021551,0.0037988273185233607,xom,20200211
2020-02-11,10:42,10:42 AM,60.78,60.765,60.774,900,54696.5,9,60.79,60.755,60.773,18794,1142178.1627,100,60.77,60.77,60.775,60.78,0.003898377878357465,0.003765794037492799,xom,20200211
2020-02-11,10:43,10:43 AM,60.79,60.76,60.77,2015,122451.9,23,60.8,60.755,60.776,18579,1129165.601,121,60.78,60.765,60.787,60.77,0.0038323036770294104,0.0038153439590387587,xom,20200211
2020-02-11,10:44,10:44 AM,60.78,60.725,60.743,2019,122640.225,18,60.78,60.725,60.755,49636,3015611.4778,261,60.775,60.745,60.777,60.755,0.003386302818064776,0.0034684945082170426,xom,20200211
2020-02-11,10:45,10:45 AM,60.76,60.705,60.728,3926,238419.61,37,60.76,60.705,60.733,35516,2156995.5091,183,60.735,60.72,60.75,60.725,0.003138524563084424,0.0031051284168799285,xom,20200211
2020-02-11,10:46,10:46 AM,60.725,60.7,60.716,4475,271706.325,14,60.74,60.7,60.71,26896,1632867.5315,70,60.725,60.725,60.72,60.735,0.002940301959100142,0.002725245685027651,xom,20200211
2020-02-11,10:47,10:47 AM,60.735,60.705,60.72,1507,91504.645,13,60.74,60.705,60.725,16124,979126.9751,88,60.735,60.705,60.735,60.705,0.0030063761604281966,0.0029729952927574485,xom,20200211
2020-02-11,10:48,10:48 AM,60.735,60.695,60.7,4339,263378.105,20,60.745,60.69,60.707,14608,886802.9259,76,60.695,60.735,60.7,60.745,0.002676005153787805,0.002675695763481692,xom,20200211
2020-02-11,10:49,10:49 AM,60.765,60.735,60.748,2960,179815.4,26,60.77,60.731,60.752,27790,1688304.703,136,60.755,60.765,60.74,60.765,0.003468895569724815,0.0034189445866710834,xom,20200211
2020-02-11,10:50,10:50 AM,60.78,60.74,60.766,1755,106644.9,16,60.78,60.741,60.766,16350,993524.1755,95,60.78,60.775,60.78,60.775,0.0037662294757012382,0.0036501775538854823,xom,20200211
2020-02-11,10:51,10:51 AM,60.775,60.735,60.77,1049,63747.475,10,60.78,60.72,60.755,12685,770671.9529,89,60.775,60.735,60.775,60.733,0.0038323036770294104,0.0034684945082170426,xom,20200211
2020-02-11,10:52,10:52 AM,60.765,60.725,60.75,3097,188143.705,17,60.77,60.72,60.743,29848,1813051.4836,171,60.725,60.765,60.73,60.751,0.003501932670388901,0.003270294822033205,xom,20200211
2020-02-11,10:53,10:53 AM,60.755,60.745,60.75,300,18225.0,3,60.78,60.735,60.752,20487,1244634.4354,102,60.745,60.75,60.751,60.747,0.003501932670388901,0.0034189445866710834,xom,20200211
2020-02-11,10:54,10:54 AM,60.755,60.74,60.747,1820,110558.9,11,60.757,60.73,60.745,21083,1280678.1005,86,60.755,60.75,60.75,60.745,0.003452377019392831,0.003303328103063766,xom,20200211
2020-02-11,10:55,10:55 AM,60.755,60.725,60.743,700,42520.0,6,60.758,60.715,60.735,29220,1774680.2335,143,60.75,60.73,60.745,60.715,0.003386302818064776,0.0031381616979106073,xom,20200211
2020-02-11,10:56,10:56 AM,60.71,60.685,60.705,3539,214835.995,19,60.715,60.685,60.703,33769,2049899.2365,165,60.71,60.705,60.71,60.7,0.0027585979054478445,0.0026096292014204515,xom,20200211
2020-02-11,10:57,10:57 AM,60.705,60.685,60.689,2114,128296.59,16,60.71,60.67,60.692,22749,1380673.9549,108,60.705,60.685,60.705,60.685,0.0024943011001355075,0.0024279461557518947,xom,20200211
2020-02-11,10:58,10:58 AM,60.71,60.675,60.699,1826,110835.96,14,60.71,60.675,60.692,16978,1030436.4811,54,60.68,60.685,60.68,60.681,0.0026594866034557033,0.0024279461557518947,xom,20200211
2020-02-11,10:59,10:59 AM,60.67,60.655,60.661,1561,94692.745,18,60.68,60.651,60.664,13975,847781.4423,95,60.655,60.67,60.68,60.67,0.002031781690838889,0.001965480221322979,xom,20200211
2020-02-11,11:00,11 AM,60.655,60.64,60.649,2218,134520.22,12,60.665,60.64,60.652,23168,1405182.6571,124,60.65,60.645,60.66,60.64,0.0018335590868546073,0.0017672805351391413,xom,20200211
2020-02-11,11:01,11:01 AM,60.685,60.645,60.652,4648,281910.915,30,60.69,60.64,60.662,77126,4678617.4887,307,60.645,60.655,60.643,60.655,0.0018831147378506777,0.0019324469402923004,xom,20200211
2020-02-11,11:02,11:02 AM,60.655,60.6,60.614,2922,177114.445,18,60.66,60.59,60.619,50909,3086073.5459,217,60.655,60.6,60.655,60.59,0.001255409825233746,0.0012222313981335876,xom,20200211
2020-02-11,11:03,11:03 AM,60.605,60.575,60.587,1588,96211.505,16,60.61,60.57,60.588,20821,1261499.7836,106,60.595,60.605,60.595,60.605,0.0008094089662692292,0.0007102155421587127,xom,20200211
2020-02-11,11:04,11:04 AM,60.6,60.555,60.566,13123,794804.23,20,60.607,60.555,60.572,30035,1819266.2738,109,60.6,60.575,60.605,60.575,0.00046251940929673593,0.00044594929391363487,xom,20200211
2020-02-11,11:05,11:05 AM,60.59,60.565,60.575,3080,186569.65,23,60.595,60.563,60.576,19442,1177726.8496,111,60.575,60.585,60.575,60.585,0.0006111863622849474,0.000512015855974875,xom,20200211
2020-02-11,11:06,11:06 AM,60.595,60.565,60.579,3658,221599.45,32,60.6,60.565,60.579,20577,1246535.9243,98,60.585,60.595,60.585,60.595,0.0006772605636130021,0.0005615657775208344,xom,20200211
2020-02-11,11:07,11:07 AM,60.595,60.595,60.595,1203,72895.785,13,60.6,60.59,60.596,8943,541910.5838,55,60.595,60.595,60.595,60.595,0.0009415573689253388,0.0008423486662811929,xom,20200211
2020-02-11,11:08,11:08 AM,60.605,60.565,60.585,4133,250397.74,35,60.61,60.565,60.591,20828,1261997.3225,129,60.595,60.565,60.6,60.565,0.0007763718656051431,0.0007597654637046721,xom,20200211
2020-02-11,11:09,11:09 AM,60.595,60.565,60.58,3483,211000.485,34,60.595,60.56,60.581,21851,1323768.2202,154,60.58,60.59,60.565,60.59,0.0006937791139449865,0.0005945990585515132,xom,20200211
2020-02-11,11:10,11:10 AM,60.605,60.575,60.589,9072,549660.47,52,60.607,60.575,60.591,37265,2257935.1834,175,60.585,60.575,60.595,60.575,0.0008424460669331979,0.0007597654637046721,xom,20200211
2020-02-11,11:11,11:11 AM,60.595,60.565,60.584,4800,290801.0,23,60.598,60.565,60.583,29478,1785879.5597,150,60.575,60.595,60.575,60.595,0.0007598533152731587,0.0006276323395820745,xom,20200211
2020-02-11,11:12,11:12 AM,60.605,60.585,60.594,11962,724822.81,33,60.605,60.58,60.594,59240,3589599.0343,311,60.595,60.59,60.596,60.595,0.0009250388185933544,0.0008093153852506315,xom,20200211
2020-02-11,11:13,11:13 AM,60.64,60.605,60.624,3322,201394.595,34,60.645,60.59,60.621,44634,2705762.0796,195,60.605,60.635,60.59,60.61,0.0014205953285540592,0.0012552646791642664,xom,20200211
2020-02-11,11:14,11:14 AM,60.6,60.55,60.568,703,42579.3,8,60.608,60.54,60.571,24135,1461891.4188,109,60.6,60.55,60.605,60.545,0.0004955565099607047,0.0004294326533982368,xom,20200211
2020-02-11,11:15,11:15 AM,60.545,60.535,60.543,1907,115454.78,17,60.55,60.53,60.54,30765,1862522.04,121,60.545,60.535,60.545,60.535,8.259275166015656e-05,-8.258320257663817e-05,xom,20200211
2020-02-11,11:16,11:16 AM,60.54,60.505,60.523,2333,141199.33,20,60.545,60.505,60.523,27545,1667095.154,121,60.525,60.535,60.53,60.535,-0.00024777825498023494,-0.00036336609133699667,xom,20200211
2020-02-11,11:17,11:17 AM,60.605,60.54,60.564,12203,739064.755,32,60.61,60.53,60.567,32568,1972560.5204,136,60.54,60.605,60.53,60.607,0.00042948230863264984,0.00036336609133699667,xom,20200211
2020-02-11,11:18,11:18 AM,60.655,60.605,60.629,3300,200075.0,27,60.66,60.603,60.627,21763,1319435.0284,114,60.605,60.655,60.603,60.66,0.0015031880802140983,0.0013543645222561852,xom,20200211
2020-02-11,11:19,11:19 AM,60.66,60.63,60.644,1632,98970.235,16,60.66,60.625,60.645,19102,1158435.3376,124,60.66,60.635,60.66,60.63,0.0017509663351944506,0.0016516640515319419,xom,20200211
2020-02-11,11:20,11:20 AM,60.645,60.615,60.63,1200,72756.5,10,60.65,60.61,60.635,20881,1266112.7426,81,60.635,60.615,60.639,60.615,0.0015197066305462001,0.0014864976463786655,xom,20200211
2020-02-11,11:21,11:21 AM,60.65,60.615,60.634,2132,129272.73,21,60.645,60.61,60.63,15516,940738.1515,87,60.615,60.64,60.61,60.63,0.001585780831874255,0.0014039144438021446,xom,20200211
2020-02-11,11:22,11:22 AM,60.635,60.615,60.624,2525,153075.875,13,60.64,60.61,60.624,18551,1124631.6825,77,60.635,60.615,60.62,60.62,0.0014205953285540592,0.0013048146007102258,xom,20200211
2020-02-11,11:23,11:23 AM,60.625,60.615,60.621,1203,72926.875,12,60.635,60.61,60.621,7166,434412.0565,46,60.625,60.615,60.625,60.615,0.0013710396775579888,0.0012552646791642664,xom,20200211
2020-02-11,11:24,11:24 AM,60.62,60.6,60.605,1537,93150.44,15,60.63,60.6,60.606,19250,1166673.4631,94,60.62,60.6,60.62,60.6,0.0011067428722455347,0.0010075150714344693,xom,20200211
2020-02-11,11:25,11:25 AM,60.615,60.605,60.609,1971,119460.49,19,60.62,60.6,60.608,14090,853966.216,91,60.605,60.605,60.605,60.605,0.0011728170735737068,0.0010405483524650305,xom,20200211
2020-02-11,11:26,11:26 AM,60.625,60.605,60.608,1900,115156.0,12,60.628,60.605,60.615,10796,654399.9364,68,60.605,60.625,60.605,60.61,0.001156298523241605,0.0011561648360723475,xom,20200211
2020-02-11,11:27,11:27 AM,60.615,60.595,60.613,3621,219479.325,39,60.62,60.595,60.605,65141,3947902.743,252,60.61,60.61,60.61,60.604,0.0012388912749017617,0.0009909984309190711,xom,20200211
2020-02-11,11:28,11:28 AM,60.615,60.605,60.609,2105,127583.075,14,60.62,60.6,60.611,24738,1499386.2592,78,60.605,60.615,60.6,60.615,0.0011728170735737068,0.0010900982740109902,xom,20200211
2020-02-11,11:29,11:29 AM,60.625,60.61,60.623,2720,164894.81,28,60.63,60.61,60.624,23682,1435699.7214,79,60.61,60.625,60.614,60.623,0.0014040767782219573,0.0013048146007102258,xom,20200211
2020-02-11,11:30,11:30 AM,60.625,60.605,60.62,840,50921.1,5,60.63,60.6,60.612,12083,732374.1,48,60.625,60.605,60.63,60.601,0.001354521127225887,0.0011066149145263881,xom,20200211
2020-02-11,11:31,11:31 AM,60.6,60.555,60.587,15300,926983.5,56,60.605,60.555,60.593,103456,6268721.019,412,60.6,60.555,60.605,60.555,0.0008094089662692292,0.0007927987447353509,xom,20200211
2020-02-11,11:32,11:32 AM,60.555,60.515,60.533,4424,267799.58,38,60.555,60.515,60.535,17380,1052099.088,113,60.555,60.515,60.555,60.52,-8.25927516600392e-05,-0.00016516640515327634,xom,20200211
2020-02-11,11:33,11:33 AM,60.58,60.505,60.534,5178,313447.35,38,60.59,60.47,60.516,175940,10647223.58,560,60.515,60.505,60.52,60.495,-6.607420132805483e-05,-0.0004789825749443136,xom,20200211
2020-02-11,11:34,11:34 AM,60.47,60.43,60.462,388,23459.485,5,60.495,60.435,60.457,42966,2597592.1957,150,60.43,60.47,60.495,60.475,-0.0012554098252336287,-0.0014534643653481042,xom,20200211
2020-02-11,11:35,11:35 AM,60.495,60.495,60.495,142,8590.29,2,60.51,60.453,60.483,20736,1254171.0852,97,60.495,60.495,60.47,60.467,-0.0007102976642769709,-0.0010240317119498672,xom,20200211
2020-02-11,11:36,11:36 AM,60.47,60.46,60.465,200,12093.0,3,60.475,60.43,60.449,25361,1533037.3164,151,60.46,60.47,60.46,60.475,-0.001205854174237558,-0.0015855974894707018,xom,20200211
2020-02-11,11:37,11:37 AM,60.48,60.47,60.479,1162,70276.76,5,60.49,60.45,60.475,19157,1158526.2983,130,60.47,60.48,60.48,60.475,-0.0009745944695893076,-0.0011561648360723475,xom,20200211
2020-02-11,11:38,11:38 AM,60.52,60.49,60.506,400,24202.5,4,60.52,60.48,60.503,31346,1896526.52,178,60.49,60.5,60.49,60.505,-0.0005285936106246734,-0.000693698901643432,xom,20200211
2020-02-11,11:39,11:39 AM,60.52,60.49,60.498,420,25409.28,7,60.53,60.485,60.504,16023,969449.3979,89,60.5,60.49,60.51,60.53,-0.0006607420132809004,-0.0006771822611281514,xom,20200211
2020-02-11,11:40,11:40 AM,60.515,60.495,60.501,419,25349.785,5,60.525,60.49,60.508,28659,1734090.2855,166,60.505,60.5,60.525,60.514,-0.00061118636228483,-0.0006111156990667938,xom,20200211
2020-02-11,11:41,11:41 AM,60.57,60.565,60.567,300,18170.0,3,60.58,60.514,60.55,22853,1383761.422,112,60.565,60.57,60.515,60.57,0.00047903795962872027,8.25832025765208e-05,xom,20200211
2020-02-11,11:42,11:42 AM,60.58,60.555,60.564,498,30160.84,3,60.59,60.555,60.572,17521,1061282.3121,97,60.575,60.555,60.56,60.57,0.00042948230863264984,0.00044594929391363487,xom,20200211
2020-02-11,11:43,11:43 AM,60.59,60.56,60.586,737,44651.83,8,60.6,60.553,60.578,24642,1492774.6501,115,60.56,60.59,60.56,60.58,0.0007928904159371275,0.0005450491370055537,xom,20200211
2020-02-11,11:44,11:44 AM,60.555,60.555,60.555,300,18166.5,1,60.605,60.54,60.58,26881,1628457.4717,106,60.555,60.555,60.579,60.594,0.00028081535564443845,0.0005780824180361151,xom,20200211
2020-02-11,11:45,11:45 AM,60.605,60.57,60.587,505,30596.375,5,60.605,60.565,60.586,13529,819662.6266,81,60.585,60.57,60.59,60.57,0.0008094089662692292,0.0006771822611280339,xom,20200211
2020-02-11,11:46,11:46 AM,60.595,60.565,60.58,200,12116.0,2,60.6,60.56,60.577,15451,935967.6621,87,60.565,60.595,60.561,60.588,0.0006937791139449865,0.0005285324964901557,xom,20200211
2020-02-11,11:47,11:47 AM,60.59,60.565,60.585,106,6422.015,3,60.594,60.561,60.578,14636,886627.486,65,60.565,60.585,60.58,60.594,0.0007763718656051431,0.0005450491370055537,xom,20200211
2020-02-11,11:48,11:48 AM,60.595,60.595,60.595,300,18178.5,3,60.599,60.58,60.59,11130,674363.7676,51,60.595,60.595,60.595,60.587,0.0009415573689253388,0.0007432488231893914,xom,20200211
2020-02-11,11:49,11:49 AM,60.61,60.585,60.606,310,18787.975,5,60.65,60.585,60.619,33129,2008247.386,133,60.585,60.605,60.585,60.64,0.0011232614225776363,0.0012222313981335876,xom,20200211
2020-02-11,11:50,11:50 AM,60.635,60.625,60.625,103,6244.405,2,60.647,60.61,60.63,16100,976151.6818,92,60.635,60.625,60.645,60.636,0.0014371138788860434,0.0014039144438021446,xom,20200211
2020-02-11,11:51,11:51 AM,60.675,60.65,60.661,400,24264.5,4,60.69,60.64,60.651,30789,1867371.4514,130,60.655,60.675,60.64,60.69,0.002031781690838889,0.0017507638946238607,xom,20200211
2020-02-11,11:52,11:52 AM,60.73,60.71,60.714,314,19064.19,7,60.733,60.695,60.715,19076,1158207.972,111,60.715,60.73,60.695,60.733,0.002907264858436056,0.002807828887604289,xom,20200211
2020-02-11,11:53,11:53 AM,60.735,60.71,60.725,500,30362.5,6,60.74,60.7,60.721,27548,1672754.9593,137,60.735,60.71,60.74,60.705,0.0030889689120883533,0.002906928730696091,xom,20200211
2020-02-11,11:54,11:54 AM,60.695,60.675,60.683,600,36410.0,6,60.7,60.66,60.686,33643,2041658.5095,144,60.685,60.695,60.7,60.695,0.0023951897981433668,0.002328846312659976,xom,20200211
2020-02-11,11:55,11:55 AM,60.685,60.645,60.664,400,24265.5,5,60.7,60.645,60.676,30149,1829334.9474,198,60.68,60.645,60.695,60.645,0.0020813373418349596,0.0021636799075068166,xom,20200211
2020-02-11,11:56,11:56 AM,60.65,60.635,60.642,736,44632.54,6,60.65,60.625,60.639,23359,1416480.2499,106,60.645,60.645,60.65,60.645,0.001717929234530482,0.001552564208440023,xom,20200211
2020-02-11,11:57,11:57 AM,60.645,60.63,60.641,1700,103090.5,10,60.65,60.625,60.636,21559,1307247.5374,118,60.645,60.635,60.65,60.64,0.0017014106841983802,0.0015030142868940636,xom,20200211
2020-02-11,11:58,11:58 AM,60.645,60.605,60.62,601,36432.645,7,60.645,60.601,60.623,25176,1526253.1942,124,60.645,60.605,60.64,60.615,0.001354521127225887,0.0012882979601948278,xom,20200211
2020-02-11,11:59,11:59 AM,60.62,60.565,60.586,400,24234.5,4,60.62,60.56,60.582,38235,2316362.1768,182,60.62,60.565,60.61,60.563,0.0007928904159371275,0.0006111156990667938,xom,20200211
2020-02-11,12:00,12 PM,60.575,60.545,60.557,825,49959.875,7,60.58,60.53,60.552,44622,2701947.3912,186,60.545,60.575,60.563,60.57,0.00031385245630852454,0.00011561648360719955,xom,20200211
2020-02-11,12:01,12:01 PM,60.605,60.565,60.585,1405,85122.425,10,60.609,60.565,60.588,29263,1772991.503,152,60.59,60.565,60.57,60.565,0.0007763718656051431,0.0007102155421587127,xom,20200211
2020-02-11,12:02,12:02 PM,60.565,60.565,60.565,100,6056.5,1,60.575,60.56,60.567,7194,435720.2572,44,60.565,60.565,60.57,60.56,0.0004460008589646342,0.00036336609133699667,xom,20200211
2020-02-11,12:03,12:03 PM,60.595,60.565,60.579,1600,96926.0,16,60.6,60.56,60.575,31269,1894137.9399,147,60.575,60.565,60.56,60.565,0.0006772605636130021,0.0004954992154595943,xom,20200211
2020-02-11,12:04,12:04 PM,60.575,60.565,60.566,778,47120.57,5,60.579,60.56,60.565,12131,734709.1645,63,60.565,60.565,60.565,60.565,0.00046251940929673593,0.00033033281030631794,xom,20200211
2020-02-11,12:05,12:05 PM,60.565,60.565,60.565,3600,218034.0,4,60.57,60.555,60.565,29999,1816876.9394,92,60.565,60.565,60.57,60.57,0.0004460008589646342,0.00033033281030631794,xom,20200211
2020-02-11,12:06,12:06 PM,60.59,60.575,60.581,500,30290.5,4,60.6,60.565,60.582,23854,1445129.1375,137,60.58,60.59,60.575,60.586,0.0007102976642770882,0.0006111156990667938,xom,20200211
2020-02-11,12:07,12:07 PM,60.575,60.575,60.575,400,24230.0,1,60.62,60.575,60.596,30048,1820778.7286,158,60.575,60.575,60.59,60.615,0.0006111863622849474,0.0008423486662811929,xom,20200211
2020-02-11,12:08,12:08 PM,60.625,60.62,60.623,200,12124.5,2,60.625,60.59,60.603,18111,1097586.0267,79,60.62,60.625,60.62,60.59,0.0014040767782219573,0.0009579651498885099,xom,20200211
2020-02-11,12:09,12:09 PM,60.595,60.575,60.588,300,18176.5,3,60.597,60.57,60.581,6638,402134.2702,47,60.595,60.575,60.595,60.576,0.0008259275166012136,0.0005945990585515132,xom,20200211
2020-02-11,12:10,12:10 PM,60.625,60.575,60.599,240,14543.8,3,60.626,60.57,60.602,41449,2511915.1019,243,60.575,60.625,60.58,60.625,0.0010076315702533937,0.0009414485093731118,xom,20200211
2020-02-11,12:11,12:11 PM,60.625,60.595,60.609,1258,76246.23,14,60.625,60.594,60.605,39276,2380304.4887,189,60.625,60.6,60.624,60.6,0.0011728170735737068,0.0009909984309190711,xom,20200211
2020-02-11,12:12,12:12 PM,60.595,60.585,60.591,800,48473.0,6,60.61,60.58,60.597,20568,1246363.2108,132,60.595,60.585,60.595,60.58,0.0008754831675972841,0.000858865306796591,xom,20200211
2020-02-11,12:13,12:13 PM,60.58,60.55,60.56,8013,485270.355,24,60.587,60.55,60.562,30751,1862329.69,145,60.58,60.555,60.587,60.555,0.000363408107304595,0.00028078288876035853,xom,20200211
2020-02-11,12:14,12:14 PM,60.555,60.54,60.549,810,49045.0,9,60.56,60.54,60.551,24453,1480657.627,117,60.555,60.55,60.555,60.555,0.0001817040536522975,9.909984309191886e-05,xom,20200211
2020-02-11,12:15,12:15 PM,,,,0,0.0,0,60.61,60.555,60.577,13586,823003.175,94,,,60.56,60.61,,0.0005285324964901557,xom,20200211
2020-02-11,12:16,12:16 PM,60.635,60.625,60.629,507,30738.945,6,60.64,60.61,60.628,19535,1184377.3372,108,60.625,60.625,60.61,60.625,0.0015031880802140983,0.001370881162771466,xom,20200211
2020-02-11,12:17,12:17 PM,60.64,60.625,60.63,1101,66753.64,12,60.64,60.62,60.633,12996,787987.27,68,60.625,60.64,60.62,60.64,0.0015197066305462001,0.0014534643653481042,xom,20200211
2020-02-11,12:18,12:18 PM,60.645,60.645,60.645,200,12129.0,2,60.65,60.633,60.644,18587,1127188.7218,105,60.645,60.645,60.64,60.645,0.0017674848855265524,0.0016351474110165437,xom,20200211
2020-02-11,12:19,12:19 PM,60.645,60.635,60.636,134,8125.27,3,60.649,60.615,60.632,10846,657613.4992,54,60.645,60.635,60.643,60.618,0.001618817932538341,0.001436947724832706,xom,20200211
2020-02-11,12:20,12:20 PM,60.615,60.61,60.614,109,6606.99,2,60.63,60.605,60.621,27845,1687995.419,66,60.61,60.615,60.619,60.625,0.001255409825233746,0.0012552646791642664,xom,20200211
2020-02-11,12:21,12:21 PM,60.605,60.605,60.605,200,12121.0,2,60.62,60.59,60.609,18982,1150479.4665,85,60.605,60.605,60.62,60.59,0.0011067428722455347,0.0010570649929804287,xom,20200211
2020-02-11,12:22,12:22 PM,60.635,60.625,60.63,222,13459.88,4,60.635,60.595,60.621,10034,608268.9672,72,60.635,60.625,60.595,60.62,0.0015197066305462001,0.0012552646791642664,xom,20200211
2020-02-11,12:23,12:23 PM,60.635,60.625,60.632,300,18189.5,2,60.645,60.615,60.628,12551,760948.0504,72,60.625,60.635,60.62,60.623,0.001552743731210169,0.001370881162771466,xom,20200211
2020-02-11,12:24,12:24 PM,60.635,60.625,60.626,700,42438.5,4,60.64,60.62,60.629,12902,782231.775,64,60.625,60.635,60.625,60.64,0.001453632429218028,0.0013873978032867466,xom,20200211
2020-02-11,12:25,12:25 PM,60.665,60.645,60.657,400,24263.0,4,60.67,60.64,60.654,14089,854553.087,81,60.66,60.645,60.65,60.648,0.001965707489510717,0.00180031381616982,xom,20200211
2020-02-11,12:26,12:26 PM,,,,0,0.0,0,60.66,60.63,60.642,15105,916003.685,85,,,60.64,60.64,,0.0016021141299859824,xom,20200211
2020-02-11,12:27,12:27 PM,60.68,60.65,60.665,200,12133.0,2,60.69,60.645,60.669,14661,889469.91,95,60.65,60.68,60.65,60.672,0.002097855892166944,0.0020480634238995,xom,20200211
2020-02-11,12:28,12:28 PM,60.695,60.675,60.682,626,37986.74,8,60.7,60.67,60.684,19838,1203839.8007,146,60.695,60.675,60.675,60.7,0.0023786712478113823,0.002295813031629297,xom,20200211
2020-02-11,12:29,12:29 PM,60.68,60.67,60.676,176,10678.92,3,60.697,60.66,60.675,20675,1254455.9773,123,60.68,60.67,60.692,60.695,0.0022795599458192415,0.0021471632669914187,xom,20200211
2020-02-11,12:30,12:30 PM,60.695,60.685,60.69,445,27006.915,7,60.7,60.675,60.689,23032,1397785.9484,84,60.695,60.69,60.7,60.675,0.002510819650467492,0.002378396234205935,xom,20200211
2020-02-11,12:31,12:31 PM,60.71,60.71,60.71,340,20641.4,4,60.72,60.66,60.688,26415,1603078.0256,135,60.71,60.71,60.674,60.71,0.0028411906571080008,0.0023618795936906547,xom,20200211
2020-02-11,12:32,12:32 PM,60.72,60.705,60.712,216,13113.82,4,60.72,60.693,60.707,20880,1267572.3198,130,60.705,60.705,60.701,60.7,0.002874227757772087,0.002675695763481692,xom,20200211
2020-02-11,12:33,12:33 PM,60.715,60.7,60.708,205,12445.045,4,60.719,60.69,60.704,18203,1104991.295,114,60.715,60.7,60.695,60.695,0.0028081535564439147,0.0026261458419357324,xom,20200211
2020-02-11,12:34,12:34 PM,60.695,60.695,60.695,200,12139.0,2,60.695,60.682,60.687,17769,1078338.9825,39,60.695,60.695,60.695,60.685,0.0025934124021276487,0.0023453629531752563,xom,20200211
2020-02-11,12:35,12:35 PM,60.695,60.685,60.69,216,13109.06,5,60.7,60.68,60.691,11896,721979.8485,57,60.685,60.695,60.682,60.68,0.002510819650467492,0.002411429515236614,xom,20200211
2020-02-11,12:36,12:36 PM,60.68,60.665,60.667,609,36946.12,6,60.69,60.655,60.673,14367,871685.9665,110,60.68,60.67,60.69,60.67,0.00213089299283103,0.0021141299859608574,xom,20200211
2020-02-11,12:37,12:37 PM,60.68,60.66,60.675,6429,390080.08,10,60.69,60.66,60.668,61721,3744474.7534,179,60.67,60.68,60.675,60.675,0.0022630413954871395,0.002031546783384219,xom,20200211
2020-02-11,12:38,12:38 PM,60.685,60.675,60.675,103,6249.555,2,60.69,60.66,60.68,13270,805228.84,112,60.685,60.675,60.675,60.67,0.0022630413954871395,0.002229746469568057,xom,20200211
2020-02-11,12:39,12:39 PM,60.66,60.645,60.648,330,20014.0,5,60.665,60.635,60.649,28551,1731587.3006,117,60.66,60.645,60.665,60.645,0.0018170405365226228,0.001717730613593182,xom,20200211
2020-02-11,12:40,12:40 PM,60.655,60.635,60.641,1103,66887.465,11,60.65,60.63,60.643,19697,1194481.1915,101,60.65,60.645,60.65,60.631,0.0017014106841983802,0.001618630770501263,xom,20200211
2020-02-11,12:41,12:41 PM,60.63,60.585,60.616,887,53766.715,8,60.63,60.58,60.603,21960,1330852.471,121,60.63,60.59,60.63,60.59,0.001288446925897832,0.0009579651498885099,xom,20200211
2020-02-11,12:42,12:42 PM,60.585,60.545,60.556,746,45175.08,9,60.585,60.54,60.557,21072,1276068.9444,87,60.585,60.545,60.585,60.545,0.0002973339059764228,0.00019819968618383773,xom,20200211
2020-02-11,12:43,12:43 PM,60.56,60.545,60.551,1738,105237.965,23,60.565,60.535,60.552,27720,1678495.606,186,60.545,60.56,60.545,60.56,0.0002147411543163836,0.00011561648360719955,xom,20200211
2020-02-11,12:44,12:44 PM,60.54,60.515,60.528,1964,118877.94,18,60.55,60.515,60.534,30908,1870992.1758,146,60.535,60.515,60.55,60.515,-0.00016518550332019575,-0.00018168304566855702,xom,20200211
2020-02-11,12:45,12:45 PM,60.515,60.495,60.508,2057,124466.015,19,60.52,60.495,60.505,26322,1592619.025,128,60.505,60.505,60.51,60.505,-0.0004955565099605873,-0.0006606656206127533,xom,20200211
2020-02-11,12:46,12:46 PM,60.505,60.495,60.498,10737,649562.195,35,60.51,60.49,60.5,31168,1885660.0204,111,60.505,60.495,60.5,60.49,-0.0006607420132809004,-0.0007432488231893914,xom,20200211
2020-02-11,12:47,12:47 PM,60.5,60.46,60.488,804,48632.46,7,60.5,60.46,60.479,14761,892729.4803,92,60.495,60.46,60.491,60.46,-0.0008259275166010962,-0.0010900982740111075,xom,20200211
2020-02-11,12:48,12:48 PM,60.505,60.465,60.476,325,19654.705,5,60.51,60.46,60.486,25381,1535190.127,120,60.465,60.5,60.46,60.495,-0.001024150120585378,-0.0009744817904039079,xom,20200211
2020-02-11,12:49,12:49 PM,60.495,60.475,60.491,156,9436.595,3,60.495,60.463,60.478,12302,743997.686,75,60.495,60.475,60.494,60.465,-0.0007763718656050257,-0.0011066149145263881,xom,20200211
2020-02-11,12:50,12:50 PM,60.505,60.465,60.471,308,18624.96,6,60.51,60.465,60.495,13157,795930.3175,70,60.465,60.505,60.465,60.51,-0.0011067428722455347,-0.0008258320257660296,xom,20200211
2020-02-11,12:51,12:51 PM,60.525,60.515,60.52,200,12104.0,2,60.525,60.485,60.504,14507,877728.02,75,60.525,60.515,60.515,60.485,-0.0002973339059763054,-0.0006771822611281514,xom,20200211
2020-02-11,12:52,12:52 PM,60.51,60.485,60.496,800,48397.0,6,60.51,60.48,60.49,13921,842088.1715,70,60.485,60.51,60.483,60.505,-0.0006937791139448691,-0.0009084152283425504,xom,20200211
2020-02-11,12:53,12:53 PM,60.545,60.505,60.528,407,24635.035,5,60.55,60.502,60.53,12711,769392.452,86,60.505,60.545,60.505,60.55,-0.00016518550332019575,-0.00024774960772979717,xom,20200211
2020-02-11,12:54,12:54 PM,60.555,60.55,60.554,109,6600.45,2,60.56,60.535,60.548,15338,928680.922,94,60.555,60.55,60.545,60.555,0.00026429680531245406,4.954992154595943e-05,xom,20200211
2020-02-11,12:55,12:55 PM,60.54,60.54,60.54,100,6054.0,1,60.56,60.53,60.549,13717,830554.3876,87,60.54,60.54,60.554,60.535,3.30371006640861e-05,6.606656206124012e-05,xom,20200211
2020-02-11,12:56,12:56 PM,60.5,60.49,60.495,211,12764.555,5,60.54,60.49,60.502,34473,2085695.859,138,60.5,60.495,60.54,60.49,-0.0007102976642769709,-0.0007102155421587127,xom,20200211
2020-02-11,12:57,12:57 PM,60.515,60.485,60.503,699,42291.485,8,60.52,60.475,60.499,23909,1446468.8908,110,60.485,60.515,60.485,60.513,-0.0005781492616207439,-0.0007597654637046721,xom,20200211
2020-02-11,12:58,12:58 PM,60.525,60.51,60.52,508,30744.095,7,60.53,60.51,60.519,12236,740508.5956,80,60.515,60.525,60.515,60.52,-0.0002973339059763054,-0.0004294326533983542,xom,20200211
2020-02-11,12:59,12:59 PM,60.53,60.505,60.52,951,57554.96,16,60.53,60.505,60.521,41434,2507630.7143,174,60.525,60.505,60.52,60.507,-0.0002973339059763054,-0.00039639937236767546,xom,20200211
2020-02-11,13:00,1 PM,60.505,60.465,60.483,707,42761.85,11,60.51,60.46,60.48,12517,757025.7096,60,60.505,60.465,60.51,60.46,-0.0009085202682612527,-0.0010735816334958266,xom,20200211
2020-02-11,13:01,1:01 PM,60.485,60.47,60.481,723,43728.155,9,60.49,60.46,60.478,13821,835862.0055,73,60.47,60.485,60.463,60.48,-0.0009415573689252215,-0.0011066149145263881,xom,20200211
2020-02-11,13:02,1:02 PM,60.495,60.47,60.486,929,56191.635,8,60.5,60.48,60.488,24156,1461143.3808,88,60.485,60.495,60.485,60.496,-0.0008589646172651823,-0.0009414485093732291,xom,20200211
2020-02-11,13:03,1:03 PM,60.51,60.495,60.5,1321,79921.045,15,60.515,60.49,60.499,24510,1482828.7155,122,60.495,60.5,60.495,60.495,-0.0006277049126168143,-0.0007597654637046721,xom,20200211
2020-02-11,13:04,1:04 PM,60.495,60.465,60.475,300,18142.5,3,60.5,60.46,60.488,16022,969137.262,92,60.495,60.465,60.5,60.465,-0.0010406686709173625,-0.0009414485093732291,xom,20200211
2020-02-11,13:05,1:05 PM,60.465,60.45,60.458,327,19769.73,5,60.467,60.44,60.45,12490,755015.6786,59,60.465,60.45,60.465,60.44,-0.0013214840265618009,-0.0015690808489553037,xom,20200211
2020-02-11,13:06,1:06 PM,60.465,60.45,60.451,206,12452.955,2,60.47,60.44,60.457,28516,1723985.7235,82,60.45,60.465,60.445,60.445,-0.0014371138788859261,-0.0014534643653481042,xom,20200211
2020-02-11,13:07,1:07 PM,60.45,60.45,60.45,100,6045.0,1,60.455,60.44,60.448,8133,491625.1565,42,60.45,60.45,60.44,60.455,-0.0014536324292179104,-0.0016021141299859824,xom,20200211
2020-02-11,13:08,1:08 PM,60.455,60.44,60.444,520,31430.9,6,60.455,60.43,60.441,17125,1035045.7882,87,60.455,60.44,60.45,60.446,-0.0015527437312100514,-0.001717730613593182,xom,20200211
2020-02-11,13:09,1:09 PM,60.44,60.43,60.435,400,24174.0,3,60.445,60.42,60.434,11716,708039.4014,60,60.43,60.44,60.445,60.43,-0.001701410684198263,-0.0018333470972004989,xom,20200211
2020-02-11,13:10,1:10 PM,60.425,60.4,60.417,206,12445.96,4,60.44,60.4,60.42,12047,727880.5761,74,60.425,60.4,60.44,60.405,-0.001998744590174686,-0.0020645800644148978,xom,20200211
2020-02-11,13:11,1:11 PM,60.4,60.37,60.391,304,18358.98,3,60.405,60.37,60.386,22001,1328564.8277,122,60.4,60.375,60.4,60.38,-0.0024282268988073353,-0.0026261458419357324,xom,20200211
2020-02-11,13:12,1:12 PM,60.38,60.37,60.378,500,30189.0,6,60.4,60.36,60.38,15169,915906.19,81,60.38,60.38,60.38,60.395,-0.0026429680531236018,-0.002725245685027651,xom,20200211
2020-02-11,13:13,1:13 PM,60.395,60.395,60.395,400,24158.0,4,60.4,60.38,60.393,7596,458748.52,56,60.395,60.395,60.395,60.38,-0.002362152697479163,-0.0025105293583285327,xom,20200211
2020-02-11,13:14,1:14 PM,60.385,60.375,60.379,209,12619.305,2,60.39,60.37,60.38,7153,431898.335,38,60.385,60.375,60.38,60.38,-0.0026264495027916173,-0.002725245685027651,xom,20200211
2020-02-11,13:15,1:15 PM,60.395,60.375,60.384,827,49937.665,9,60.4,60.37,60.381,14898,899562.6277,79,60.375,60.39,60.38,60.4,-0.0025438567511314606,-0.0027087290445123704,xom,20200211
2020-02-11,13:16,1:16 PM,60.415,60.37,60.397,375,22648.875,5,60.415,60.37,60.392,22084,1333704.3894,128,60.4,60.37,60.399,60.38,-0.0023291155968151946,-0.0025270459988438135,xom,20200211
2020-02-11,13:17,1:17 PM,60.39,60.38,60.387,300,18116.0,2,60.39,60.37,60.38,19539,1179774.935,119,60.38,60.39,60.371,60.375,-0.0024943011001353904,-0.002725245685027651,xom,20200211
2020-02-11,13:18,1:18 PM,60.38,60.37,60.377,202,12196.24,3,60.38,60.365,60.376,11341,684721.2315,70,60.38,60.37,60.375,60.365,-0.0026594866034555863,-0.0027913122470890088,xom,20200211
2020-02-11,13:19,1:19 PM,60.37,60.365,60.368,604,36462.48,10,60.37,60.355,60.364,12122,731735.6868,71,60.365,60.37,60.36,60.355,-0.0028081535564437976,-0.0029895119332728464,xom,20200211
2020-02-11,13:20,1:20 PM,60.36,60.335,60.352,935,56428.735,12,60.36,60.33,60.347,24439,1474827.686,143,60.355,60.335,60.35,60.33,-0.0030724503617562517,-0.003270294822033205,xom,20200211
2020-02-11,13:21,1:21 PM,60.33,60.29,60.312,505,30457.625,8,60.33,60.28,60.313,34926,2106507.8664,195,60.325,60.29,60.33,60.29,-0.0037331923750371517,-0.0038318605995540395,xom,20200211
2020-02-11,13:22,1:22 PM,60.275,60.275,60.275,124,7474.1,2,60.3,60.27,60.285,24303,1465108.7199,154,60.275,60.275,60.295,60.29,-0.0043443787373219815,-0.004294326533983072,xom,20200211
2020-02-11,13:23,1:23 PM,60.31,60.275,60.296,718,43292.72,9,60.319,60.27,60.301,49704,2997216.3061,236,60.305,60.28,60.285,60.275,-0.003997489180349489,-0.004030060285737877,xom,20200211
2020-02-11,13:24,1:24 PM,60.29,60.27,60.277,613,36949.725,7,60.29,60.265,60.275,22880,1379086.1744,99,60.275,60.27,60.275,60.27,-0.0043113416366578955,-0.004459492939136231,xom,20200211
2020-02-11,13:25,1:25 PM,60.29,60.265,60.276,829,49969.29,11,60.29,60.26,60.276,37858,2281939.8746,158,60.275,60.285,60.272,60.29,-0.00432786018698988,-0.004442976298620833,xom,20200211
2020-02-11,13:26,1:26 PM,60.28,60.245,60.272,825,49724.23,12,60.281,60.235,60.26,40378,2433177.89,169,60.275,60.245,60.28,60.245,-0.004393934388318053,-0.0047072425468660285,xom,20200211
2020-02-11,13:27,1:27 PM,60.23,60.22,60.22,107,6443.58,3,60.245,60.21,60.227,27298,1644068.955,114,60.23,60.225,60.245,60.221,-0.0052528990055832345,-0.005252291683871582,xom,20200211
2020-02-11,13:28,1:28 PM,60.225,60.225,60.225,100,6022.5,1,60.23,60.22,60.223,9261,557726.1104,56,60.225,60.225,60.22,60.229,-0.005170306253923078,-0.005318358245932822,xom,20200211
2020-02-11,13:29,1:29 PM,60.205,60.18,60.187,549,33042.875,9,60.23,60.17,60.195,56056,3374292.9112,278,60.205,60.185,60.23,60.195,-0.00579801116654001,-0.005780824180361738,xom,20200211
2020-02-11,13:30,1:30 PM,60.24,60.21,60.223,512,30834.05,12,60.25,60.2,60.227,51130,3079383.4234,213,60.21,60.24,60.2,60.245,-0.005203343354587164,-0.005252291683871582,xom,20200211
2020-02-11,13:31,1:31 PM,60.275,60.245,60.26,1958,117988.965,29,60.27,60.241,60.258,56615,3411494.4272,271,60.25,60.265,60.25,60.265,-0.004592156992302334,-0.004740275827896589,xom,20200211
2020-02-11,13:32,1:32 PM,60.295,60.265,60.279,489,29476.665,6,60.3,60.265,60.282,24301,1464912.1121,148,60.27,60.295,60.265,60.295,-0.004278304535993809,-0.004343876455529032,xom,20200211
2020-02-11,13:33,1:33 PM,60.3,60.27,60.288,618,37258.18,8,60.305,60.265,60.283,40744,2456179.1723,223,60.295,60.27,60.295,60.265,-0.004129637583005716,-0.004327359815013633,xom,20200211
2020-02-11,13:34,1:34 PM,60.295,60.265,60.27,804,48456.78,9,60.3,60.26,60.278,17723,1068306.464,99,60.265,60.295,60.265,60.3,-0.004426971488982021,-0.004409943017590272,xom,20200211
2020-02-11,13:35,1:35 PM,60.305,60.285,60.295,200,12059.0,2,60.305,60.28,60.294,36724,2214251.282,222,60.305,60.285,60.297,60.285,-0.004014007730681473,-0.004145676769345194,xom,20200211
2020-02-11,13:36,1:36 PM,60.305,60.28,60.297,795,47935.975,7,60.305,60.26,60.285,42686,2573312.0934,152,60.285,60.295,60.281,60.29,-0.003980970630017505,-0.004294326533983072,xom,20200211
2020-02-11,13:37,1:37 PM,60.295,60.26,60.274,423,25495.785,5,60.3,60.26,60.28,18164,1094923.52,78,60.295,60.265,60.29,60.265,-0.0043608972876539665,-0.004376909736559593,xom,20200211
2020-02-11,13:38,1:38 PM,60.305,60.275,60.288,400,24115.0,4,60.31,60.263,60.286,24737,1491294.3636,124,60.275,60.305,60.27,60.31,-0.004129637583005716,-0.0042778098934676744,xom,20200211
2020-02-11,13:39,1:39 PM,60.335,60.3,60.321,413,24912.4,5,60.335,60.29,60.315,28869,1741220.445,140,60.3,60.335,60.305,60.335,-0.0035845254220489404,-0.003798827318523478,xom,20200211
2020-02-11,13:40,1:40 PM,60.335,60.335,60.335,400,24134.0,4,60.345,60.32,60.334,18194,1097709.0652,111,60.335,60.335,60.335,60.32,-0.0033532657174005723,-0.0034850111487323234,xom,20200211
2020-02-11,13:41,1:41 PM,60.35,60.315,60.327,648,39091.78,11,60.35,60.31,60.33,39326,2372524.957,187,60.315,60.335,60.32,60.33,-0.0034854141200567996,-0.003551077710793681,xom,20200211
2020-02-11,13:42,1:42 PM,60.345,60.335,60.339,400,24135.5,3,60.355,60.33,60.342,14051,847871.5228,77,60.335,60.34,60.331,60.335,-0.0032871915160725177,-0.003352878024609843,xom,20200211
2020-02-11,13:43,1:43 PM,60.325,60.325,60.325,100,6032.5,1,60.33,60.31,60.318,18633,1123910.9274,66,60.325,60.325,60.33,60.315,-0.003518451220720768,-0.0037492773969775186,xom,20200211
2020-02-11,13:44,1:44 PM,60.35,60.35,60.35,177,10681.95,2,60.365,60.315,60.335,32596,1966692.2618,115,60.35,60.35,60.315,60.325,-0.0031054874624202203,-0.0034684945082170426,xom,20200211
2020-02-11,13:45,1:45 PM,60.355,60.355,60.355,100,6035.5,1,60.355,60.325,60.34,12224,737600.9624,67,60.355,60.355,60.325,60.35,-0.003022894710760181,-0.0033859113056404046,xom,20200211
2020-02-11,13:46,1:46 PM,60.31,60.31,60.31,4,241.24,1,60.36,60.3,60.337,22136,1335632.324,102,60.31,60.31,60.35,60.305,-0.0037662294757011207,-0.003435461227186364,xom,20200211
2020-02-11,13:47,1:47 PM,60.315,60.3,60.304,223,13447.745,3,60.32,60.3,60.312,15119,911855.7724,74,60.3,60.305,60.302,60.305,-0.0038653407776932614,-0.0038483772400694375,xom,20200211
2020-02-11,13:48,1:48 PM,60.28,60.27,60.279,109,6570.43,2,60.305,60.24,60.269,46614,2809400.4485,179,60.28,60.27,60.305,60.24,-0.004278304535993809,-0.00455859278222815,xom,20200211
2020-02-11,13:49,1:49 PM,,,,0,0.0,0,60.25,60.21,60.234,15166,913513.1247,94,,,60.244,60.215,,-0.0051366752002642655,xom,20200211
2020-02-11,13:50,1:50 PM,60.225,60.215,60.218,529,31855.295,5,60.23,60.185,60.209,39422,2373578.7775,159,60.215,60.225,60.21,60.205,-0.0052859361062472035,-0.005549591213147222,xom,20200211
2020-02-11,13:51,1:51 PM,60.205,60.195,60.201,404,24321.32,5,60.21,60.195,60.203,13127,790280.3313,72,60.205,60.195,60.205,60.21,-0.005566751461891642,-0.00564869105623914,xom,20200211
2020-02-11,13:52,1:52 PM,60.2,60.2,60.2,100,6020.0,1,60.225,60.195,60.208,19835,1194230.9235,114,60.2,60.2,60.2,60.225,-0.005583270012223626,-0.00556610785366262,xom,20200211
2020-02-11,13:53,1:53 PM,60.265,60.225,60.251,348,20967.24,5,60.265,60.225,60.241,17887,1077536.315,107,60.225,60.24,60.23,60.235,-0.004740823945290545,-0.005021058716657065,xom,20200211
2020-02-11,13:54,1:54 PM,60.275,60.245,60.265,110,6629.19,7,60.28,60.235,60.267,21515,1296645.4253,85,60.27,60.245,60.235,60.24,-0.004509564240642178,-0.004591626063258711,xom,20200211
2020-02-11,13:55,1:55 PM,60.295,60.245,60.279,311,18746.645,12,60.3,60.245,60.286,13283,800779.6829,70,60.245,60.295,60.245,60.295,-0.004278304535993809,-0.0042778098934676744,xom,20200211
2020-02-11,13:56,1:56 PM,60.365,60.305,60.359,206,12433.97,7,60.365,60.3,60.333,18633,1124186.0003,107,60.305,60.355,60.3,60.355,-0.002956820509432009,-0.0035015277892477214,xom,20200211
2020-02-11,13:57,1:57 PM,60.37,60.355,60.362,600,36217.5,6,60.37,60.34,60.357,25156,1518338.5115,145,60.365,60.355,60.358,60.347,-0.0029072648584359383,-0.003105128416880046,xom,20200211
2020-02-11,13:58,1:58 PM,60.375,60.35,60.367,300,18110.0,3,60.375,60.34,60.361,35716,2155874.3797,122,60.35,60.375,60.34,60.36,-0.002824672106775899,-0.003039061854818806,xom,20200211
2020-02-11,13:59,1:59 PM,60.37,60.37,60.37,100,6037.0,1,60.38,60.336,60.362,29401,1774691.9537,122,60.37,60.37,60.37,60.353,-0.0027751164557798286,-0.0030225452143034077,xom,20200211
2020-02-11,14:00,2 PM,60.32,60.31,60.315,200,12063.0,2,60.355,60.31,60.331,14469,872937.4374,103,60.32,60.31,60.355,60.315,-0.0036836367240410815,-0.0035345610702782826,xom,20200211
2020-02-11,14:01,2:01 PM,60.315,60.315,60.315,100,6031.5,1,60.33,60.31,60.315,10524,634754.585,50,60.315,60.315,60.31,60.31,-0.0036836367240410815,-0.003798827318523478,xom,20200211
2020-02-11,14:02,2:02 PM,60.285,60.285,60.285,100,6028.5,1,60.31,60.285,60.299,22786,1373970.268,104,60.285,60.285,60.31,60.305,-0.004179193234001786,-0.004063093566768556,xom,20200211
2020-02-11,14:03,2:03 PM,60.3,60.275,60.285,227,13684.6,4,60.3,60.265,60.277,30619,1845631.6999,135,60.3,60.29,60.3,60.275,-0.004179193234001786,-0.0044264596581055525,xom,20200211
2020-02-11,14:04,2:04 PM,60.28,60.28,60.28,300,18084.0,3,60.299,60.257,60.279,19333,1165379.6684,95,60.28,60.28,60.275,60.287,-0.004261785985661825,-0.004393426377074874,xom,20200211
2020-02-11,14:05,2:05 PM,60.32,60.285,60.314,5259,317189.705,19,60.32,60.285,60.308,22447,1353734.5604,105,60.32,60.285,60.29,60.285,-0.0037001552743730656,-0.003914443802130677,xom,20200211
2020-02-11,14:06,2:06 PM,60.3,60.285,60.294,618,37261.81,6,60.305,60.275,60.291,26240,1582042.8575,75,60.295,60.285,60.29,60.275,-0.004030526281013575,-0.004195226690891153,xom,20200211
2020-02-11,14:07,2:07 PM,60.285,60.285,60.285,100,6028.5,1,60.3,60.27,60.286,14037,846232.5923,67,60.285,60.285,60.28,60.27,-0.004179193234001786,-0.0042778098934676744,xom,20200211
2020-02-11,14:08,2:08 PM,60.285,60.27,60.275,403,24290.81,4,60.289,60.265,60.275,15271,920465.8215,80,60.275,60.27,60.275,60.265,-0.0043443787373219815,-0.004459492939136231,xom,20200211
2020-02-11,14:09,2:09 PM,60.31,60.28,60.296,209,12601.79,3,60.316,60.264,60.287,21330,1285917.6292,96,60.28,60.31,60.264,60.315,-0.003997489180349489,-0.004261293252952394,xom,20200211
2020-02-11,14:10,2:10 PM,60.315,60.315,60.315,100,6031.5,1,60.339,60.3,60.319,15833,955030.65,77,60.315,60.315,60.32,60.331,-0.0036836367240410815,-0.0037327607564621203,xom,20200211
2020-02-11,14:11,2:11 PM,60.36,60.335,60.352,300,18105.5,3,60.36,60.335,60.347,17929,1081956.13,85,60.36,60.335,60.34,60.345,-0.0030724503617562517,-0.003270294822033205,xom,20200211
2020-02-11,14:12,2:12 PM,60.345,60.335,60.341,700,42238.5,7,60.35,60.32,60.335,10478,632186.5908,71,60.345,60.335,60.35,60.32,-0.0032541544154084316,-0.0034684945082170426,xom,20200211
2020-02-11,14:13,2:13 PM,60.315,60.31,60.31,101,6091.315,2,60.34,60.31,60.322,13563,818153.822,59,60.31,60.315,60.32,60.335,-0.0037662294757011207,-0.003683210834916161,xom,20200211
2020-02-11,14:14,2:14 PM,60.33,60.33,60.33,23,1387.59,1,60.33,60.305,60.321,17186,1036676.562,84,60.33,60.33,60.33,60.315,-0.003435858469060729,-0.003699727475431559,xom,20200211
2020-02-11,14:15,2:15 PM,60.315,60.315,60.315,500,30157.5,5,60.32,60.291,60.313,17396,1049196.403,87,60.315,60.315,60.32,60.291,-0.0036836367240410815,-0.0038318605995540395,xom,20200211
2020-02-11,14:16,2:16 PM,60.3,60.275,60.297,1000,60297.5,6,60.31,60.275,60.294,28405,1712663.8404,124,60.275,60.3,60.297,60.31,-0.003980970630017505,-0.004145676769345194,xom,20200211
2020-02-11,14:17,2:17 PM,60.345,60.335,60.338,300,18101.5,3,60.346,60.31,60.334,19077,1150990.3151,100,60.335,60.345,60.31,60.325,-0.003303710066404502,-0.0034850111487323234,xom,20200211
2020-02-11,14:18,2:18 PM,60.315,60.315,60.315,100,6031.5,1,60.329,60.305,60.318,10888,656737.1722,60,60.315,60.315,60.32,60.325,-0.0036836367240410815,-0.0037492773969775186,xom,20200211
2020-02-11,14:19,2:19 PM,60.335,60.325,60.333,514,31011.12,6,60.341,60.32,60.335,19509,1177068.264,115,60.335,60.325,60.327,60.32,-0.003386302818064659,-0.0034684945082170426,xom,20200211
2020-02-11,14:20,2:20 PM,60.33,60.315,60.315,463,27925.92,7,60.335,60.31,60.322,23684,1428660.0009,93,60.315,60.33,60.32,60.313,-0.0036836367240410815,-0.003683210834916161,xom,20200211
2020-02-11,14:21,2:21 PM,60.33,60.31,60.323,429,25878.655,8,60.33,60.3,60.316,25692,1549637.237,109,60.31,60.325,60.319,60.325,-0.0035514883213848543,-0.00378231067800808,xom,20200211
2020-02-11,14:22,2:22 PM,60.335,60.315,60.324,549,33117.915,17,60.34,60.31,60.322,30216,1822705.554,159,60.325,60.32,60.321,60.33,-0.00353496977105287,-0.003683210834916161,xom,20200211
2020-02-11,14:23,2:23 PM,60.335,60.315,60.331,733,44222.28,15,60.34,60.314,60.328,11481,692629.494,74,60.315,60.335,60.325,60.325,-0.0034193399187286274,-0.0035841109918242423,xom,20200211
2020-02-11,14:24,2:24 PM,60.345,60.315,60.333,567,34208.645,11,60.355,60.31,60.334,25431,1534352.3279,121,60.315,60.345,60.32,60.35,-0.003386302818064659,-0.0034850111487323234,xom,20200211
2020-02-11,14:25,2:25 PM,60.355,60.325,60.339,171,10317.985,8,60.365,60.325,60.348,17144,1034603.3221,96,60.335,60.355,60.34,60.353,-0.0032871915160725177,-0.003253778181517924,xom,20200211
2020-02-11,14:26,2:26 PM,60.355,60.345,60.348,300,18104.5,3,60.355,60.323,60.343,19725,1190274.256,89,60.355,60.345,60.355,60.323,-0.0031385245630843064,-0.003336361384094445,xom,20200211
2020-02-11,14:27,2:27 PM,60.335,60.335,60.335,200,12067.0,2,60.355,60.311,60.332,25817,1557603.2335,127,60.335,60.335,60.323,60.34,-0.0033532657174005723,-0.003518044429763002,xom,20200211
2020-02-11,14:28,2:28 PM,60.34,60.325,60.329,1222,73722.475,13,60.34,60.32,60.334,36556,2205589.9286,184,60.34,60.325,60.335,60.325,-0.0034523770193927135,-0.0034850111487323234,xom,20200211
2020-02-11,14:29,2:29 PM,60.34,60.32,60.327,904,54535.28,7,60.37,60.31,60.33,38799,2340743.9582,158,60.325,60.34,60.33,60.365,-0.0034854141200567996,-0.003551077710793681,xom,20200211
2020-02-11,14:30,2:30 PM,60.37,60.345,60.354,400,24141.5,4,60.37,60.345,60.357,11512,694829.088,72,60.355,60.37,60.365,60.37,-0.0030394132610921656,-0.003105128416880046,xom,20200211
2020-02-11,14:31,2:31 PM,60.365,60.365,60.365,200,12073.0,2,60.379,60.35,60.365,13438,811180.1678,76,60.365,60.365,60.37,60.355,-0.0028577092074398677,-0.0029729952927574485,xom,20200211
2020-02-11,14:32,2:32 PM,60.365,60.36,60.362,200,12072.5,2,60.38,60.353,60.369,11035,666168.3687,64,60.365,60.36,60.353,60.375,-0.0029072648584359383,-0.0029069287306962084,xom,20200211
2020-02-11,14:33,2:33 PM,60.395,60.385,60.386,1857,112135.945,5,60.4,60.375,60.39,17759,1072463.2744,73,60.385,60.385,60.379,60.39,-0.0025108196504673745,-0.0025600792798744923,xom,20200211
2020-02-11,14:34,2:34 PM,60.38,60.37,60.376,1090,65809.625,8,60.395,60.37,60.379,13716,828161.9976,75,60.37,60.375,60.395,60.38,-0.002676005153787688,-0.002741762325543049,xom,20200211
2020-02-11,14:35,2:35 PM,60.385,60.38,60.382,300,18114.5,3,60.4,60.37,60.386,36759,2219746.1599,151,60.38,60.38,60.38,60.399,-0.0025768938517955467,-0.0026261458419357324,xom,20200211
2020-02-11,14:36,2:36 PM,60.395,60.39,60.395,210,12682.9,3,60.4,60.39,60.392,13925,840959.7766,71,60.395,60.395,60.4,60.39,-0.002362152697479163,-0.0025270459988438135,xom,20200211
2020-02-11,14:37,2:37 PM,60.395,60.395,60.395,135,8153.325,1,60.415,60.39,60.398,46093,2783917.1179,178,60.395,60.395,60.395,60.395,-0.002362152697479163,-0.0024279461557518947,xom,20200211
2020-02-11,14:38,2:38 PM,60.395,60.385,60.39,600,36234.0,5,60.4,60.385,60.391,12213,737559.2636,82,60.385,60.39,60.4,60.39,-0.00244474544913932,-0.0025435626393592115,xom,20200211
2020-02-11,14:39,2:39 PM,60.405,60.39,60.396,620,37445.46,7,60.405,60.39,60.397,14907,900342.7438,92,60.395,60.405,60.39,60.405,-0.002345634147147179,-0.0024444627962672927,xom,20200211
2020-02-11,14:40,2:40 PM,60.405,60.395,60.401,714,43126.1,8,60.41,60.39,60.398,21209,1280975.4986,86,60.4,60.4,60.4,60.397,-0.0022630413954870224,-0.0024279461557518947,xom,20200211
2020-02-11,14:41,2:41 PM,60.395,60.385,60.386,2806,169443.84,28,60.4,60.38,60.387,22743,1373390.2805,114,60.395,60.385,60.395,60.385,-0.0025108196504673745,-0.0026096292014204515,xom,20200211
2020-02-11,14:42,2:42 PM,60.425,60.385,60.408,1412,85295.625,10,60.44,60.38,60.415,20591,1244009.6016,125,60.385,60.425,60.38,60.44,-0.002147411543162897,-0.002147163266991536,xom,20200211
2020-02-11,14:43,2:43 PM,60.435,60.42,60.428,500,30214.0,5,60.449,60.42,60.433,14758,891870.0116,68,60.43,60.42,60.449,60.427,-0.0018170405365225055,-0.0018498637377157795,xom,20200211
2020-02-11,14:44,2:44 PM,60.465,60.425,60.44,1465,88545.005,13,60.465,60.422,60.443,18590,1123638.1802,90,60.425,60.455,60.422,60.455,-0.0016188179325382236,-0.0016846973325626206,xom,20200211
2020-02-11,14:45,2:45 PM,60.45,60.425,60.439,1004,60680.78,10,60.453,60.413,60.436,21149,1278156.6042,109,60.45,60.435,60.453,60.425,-0.001635336482870208,-0.00180031381616982,xom,20200211
2020-02-11,14:46,2:46 PM,60.43,60.41,60.424,400,24169.5,4,60.44,60.41,60.428,14173,856440.8596,55,60.41,60.43,60.42,60.44,-0.0018831147378505603,-0.0019324469402924177,xom,20200211
2020-02-11,14:47,2:47 PM,60.445,60.44,60.443,1087,65701.215,10,60.455,60.43,60.442,14837,896782.3918,87,60.44,60.445,60.44,60.445,-0.0015692622815421532,-0.0017012139730779013,xom,20200211
2020-02-11,14:48,2:48 PM,60.45,60.435,60.445,606,36629.64,7,60.45,60.435,60.443,13289,803233.5786,56,60.44,60.435,60.45,60.44,-0.001536225180878067,-0.0016846973325626206,xom,20200211
2020-02-11,14:49,2:49 PM,60.45,60.44,60.445,589,35602.05,4,60.45,60.43,60.443,10399,628542.7082,46,60.44,60.445,60.435,60.448,-0.001536225180878067,-0.0016846973325626206,xom,20200211
2020-02-11,14:50,2:50 PM,60.46,60.445,60.454,711,42982.95,7,60.46,60.44,60.449,18883,1141458.329,67,60.45,60.445,60.44,60.445,-0.0013875582278898557,-0.0015855974894707018,xom,20200211
2020-02-11,14:51,2:51 PM,60.46,60.445,60.452,900,54406.5,7,60.46,60.44,60.45,17702,1070091.1863,78,60.445,60.46,60.444,60.456,-0.0014205953285539418,-0.0015690808489553037,xom,20200211
2020-02-11,14:52,2:52 PM,60.465,60.425,60.445,1034,62500.16,15,60.465,60.425,60.444,22758,1375593.7958,113,60.465,60.43,60.455,60.433,-0.001536225180878067,-0.0016681806920472225,xom,20200211
2020-02-11,14:53,2:53 PM,60.425,60.4,60.419,221,13352.675,4,60.432,60.4,60.416,11331,684579.0445,72,60.42,60.415,60.432,60.43,-0.001965707489510717,-0.0021306466264762553,xom,20200211
2020-02-11,14:54,2:54 PM,60.43,60.42,60.428,608,36740.4,7,60.44,60.421,60.429,9506,574440.9672,54,60.42,60.425,60.425,60.43,-0.0018170405365225055,-0.0019159302997770198,xom,20200211
2020-02-11,14:55,2:55 PM,60.44,60.42,60.435,309,18674.385,5,60.44,60.42,60.432,13113,792447.7507,71,60.435,60.44,60.43,60.44,-0.001701410684198263,-0.0018663803782310601,xom,20200211
2020-02-11,14:56,2:56 PM,60.44,60.415,60.431,709,42845.845,9,60.45,60.4,60.424,33465,2022084.8947,157,60.435,60.44,60.435,60.45,-0.001767484885526435,-0.0019985135023536577,xom,20200211
2020-02-11,14:57,2:57 PM,60.46,60.455,60.456,434,26238.14,5,60.47,60.4,60.442,24130,1458469.282,149,60.455,60.455,60.445,60.41,-0.0013545211272257697,-0.0017012139730779013,xom,20200211
2020-02-11,14:58,2:58 PM,60.4,60.375,60.38,34,2052.925,2,60.41,60.36,60.383,21767,1314369.2875,138,60.4,60.375,60.41,60.37,-0.0026099309524595157,-0.002675695763481692,xom,20200211
2020-02-11,14:59,2:59 PM,60.38,60.365,60.371,500,30185.5,5,60.38,60.35,60.367,24625,1486533.9438,169,60.365,60.38,60.37,60.35,-0.002758597905447727,-0.0029399620117268868,xom,20200211
2020-02-11,15:00,3 PM,60.385,60.365,60.382,613,37013.865,10,60.387,60.35,60.371,27407,1654596.394,120,60.365,60.385,60.36,60.365,-0.0025768938517955467,-0.0028738954496655296,xom,20200211
2020-02-11,15:01,3:01 PM,60.395,60.365,60.382,697,42086.36,6,60.395,60.36,60.385,17680,1067610.5253,118,60.365,60.395,60.36,60.385,-0.0025768938517955467,-0.0026426624824511303,xom,20200211
2020-02-11,15:02,3:02 PM,60.37,60.355,60.363,361,21791.155,4,60.385,60.355,60.371,15292,923201.7247,88,60.355,60.37,60.385,60.365,-0.002890746308103954,-0.0028738954496655296,xom,20200211
2020-02-11,15:03,3:03 PM,60.375,60.36,60.368,228,13763.86,3,60.386,60.36,60.375,41430,2501332.1024,207,60.37,60.375,60.365,60.37,-0.0028081535564437976,-0.002807828887604289,xom,20200211
2020-02-11,15:04,3:04 PM,60.375,60.34,60.362,710,42857.17,8,60.375,60.34,60.355,19138,1155083.8659,84,60.375,60.34,60.37,60.347,-0.0029072648584359383,-0.003138161697910725,xom,20200211
2020-02-11,15:05,3:05 PM,60.38,60.35,60.368,542,32719.6,9,60.38,60.341,60.369,29254,1766037.3256,141,60.35,60.38,60.341,60.38,-0.0028081535564437976,-0.0029069287306962084,xom,20200211
2020-02-11,15:06,3:06 PM,60.38,60.375,60.375,1998,120630.1,14,60.39,60.37,60.378,24684,1490369.2749,147,60.375,60.375,60.375,60.375,-0.0026925237041196723,-0.00275827896605833,xom,20200211
2020-02-11,15:07,3:07 PM,60.375,60.335,60.353,1357,81899.715,11,60.38,60.33,60.349,24869,1500827.5274,106,60.375,60.335,60.375,60.333,-0.0030559318114241497,-0.0032372615410026437,xom,20200211
2020-02-11,15:08,3:08 PM,60.35,60.33,60.337,1407,84893.81,13,60.35,60.32,60.333,45235,2729143.8619,229,60.335,60.33,60.335,60.335,-0.0033202286167364863,-0.0035015277892477214,xom,20200211
2020-02-11,15:09,3:09 PM,60.34,60.33,60.337,1097,66189.415,12,60.345,60.325,60.336,13692,826115.4915,83,60.335,60.34,60.33,60.34,-0.0033202286167364863,-0.0034519778677017617,xom,20200211
2020-02-11,15:10,3:10 PM,60.335,60.3,60.328,1086,65516.25,9,60.349,60.29,60.322,34586,2086287.7716,200,60.335,60.3,60.345,60.305,-0.003468895569724698,-0.003683210834916161,xom,20200211
2020-02-11,15:11,3:11 PM,60.31,60.305,60.307,600,36184.0,6,60.315,60.295,60.305,22314,1345643.5048,119,60.305,60.31,60.305,60.315,-0.0038157851266971913,-0.003963993723676637,xom,20200211
2020-02-11,15:12,3:12 PM,60.32,60.305,60.312,610,36790.465,9,60.32,60.295,60.31,19547,1178881.5489,119,60.315,60.305,60.315,60.305,-0.0037331923750371517,-0.0038814105210999987,xom,20200211
2020-02-11,15:13,3:13 PM,60.315,60.31,60.313,700,42219.5,7,60.315,60.304,60.309,10082,608031.09,57,60.315,60.315,60.305,60.315,-0.00371667382470505,-0.0038979271616153967,xom,20200211
2020-02-11,15:14,3:14 PM,60.315,60.28,60.3,1239,74712.31,13,60.32,60.27,60.291,34939,2106522.4409,205,60.315,60.28,60.315,60.29,-0.003931414979021434,-0.004195226690891153,xom,20200211
2020-02-11,15:15,3:15 PM,60.315,60.28,60.306,483,29127.94,10,60.32,60.28,60.299,23694,1428726.0075,147,60.28,60.305,60.28,60.305,-0.003832303677029293,-0.004063093566768556,xom,20200211
2020-02-11,15:16,3:16 PM,60.325,60.32,60.322,500,30161.0,4,60.33,60.3,60.314,11321,682817.662,83,60.32,60.325,60.305,60.303,-0.0035680068717168388,-0.0038153439590387587,xom,20200211
2020-02-11,15:17,3:17 PM,60.29,60.255,60.258,321,19342.89,5,60.305,60.245,60.263,37497,2259689.3753,199,60.29,60.255,60.3,60.25,-0.004625194092966303,-0.004657692625320069,xom,20200211
2020-02-11,15:18,3:18 PM,60.275,60.255,60.268,571,34413.17,8,60.29,60.25,60.265,45908,2766649.8198,234,60.275,60.26,60.25,60.263,-0.004460008589646107,-0.00462465934428939,xom,20200211
2020-02-11,15:19,3:19 PM,60.29,60.265,60.282,381,22967.51,6,60.299,60.26,60.274,23302,1404510.9459,144,60.265,60.28,60.27,60.27,-0.004228748884997856,-0.004476009579651512,xom,20200211
2020-02-11,15:20,3:20 PM,60.32,60.265,60.294,400,24117.5,4,60.32,60.26,60.299,25958,1565245.2664,108,60.265,60.315,60.265,60.315,-0.004030526281013575,-0.004063093566768556,xom,20200211
2020-02-11,15:21,3:21 PM,60.315,60.295,60.311,467,28165.085,5,60.32,60.295,60.311,22464,1354822.4557,111,60.315,60.295,60.31,60.31,-0.003749710925369136,-0.003864893880584718,xom,20200211
2020-02-11,15:22,3:22 PM,60.31,60.285,60.301,730,44019.65,7,60.315,60.285,60.302,26565,1601933.4085,127,60.285,60.305,60.31,60.31,-0.0039148964286893325,-0.004013543645222596,xom,20200211
2020-02-11,15:23,3:23 PM,60.325,60.31,60.315,1210,72980.89,13,60.33,60.3,60.311,25632,1545888.2256,159,60.31,60.32,60.305,60.315,-0.0036836367240410815,-0.003864893880584718,xom,20200211
2020-02-11,15:24,3:24 PM,60.325,60.32,60.324,400,24129.5,4,60.34,60.31,60.326,19409,1170873.6475,97,60.325,60.325,60.315,60.325,-0.00353496977105287,-0.003617144272854921,xom,20200211
2020-02-11,15:25,3:25 PM,60.325,60.325,60.325,200,12065.0,2,60.35,60.305,60.323,19325,1165741.3936,113,60.325,60.325,60.321,60.35,-0.003518451220720768,-0.0036666941944008802,xom,20200211
2020-02-11,15:26,3:26 PM,60.365,60.355,60.362,800,48290.0,8,60.37,60.345,60.361,30351,1832022.8653,184,60.365,60.355,60.345,60.354,-0.0029072648584359383,-0.003039061854818806,xom,20200211
2020-02-11,15:27,3:27 PM,60.365,60.345,60.358,349,21064.8,5,60.37,60.344,60.358,16981,1024931.9563,90,60.35,60.365,60.36,60.365,-0.0029733390597641105,-0.0030886117763647652,xom,20200211
2020-02-11,15:28,3:28 PM,60.375,60.365,60.372,501,30246.37,6,60.375,60.36,60.37,8996,543084.2101,52,60.375,60.37,60.37,60.365,-0.0027420793551157425,-0.0028904120901809276,xom,20200211
2020-02-11,15:29,3:29 PM,60.37,60.32,60.358,224,13520.22,9,60.37,60.33,60.356,31959,1928920.7228,157,60.36,60.37,60.36,60.37,-0.0029733390597641105,-0.0031216450573953265,xom,20200211
2020-02-11,15:30,3:30 PM,60.37,60.36,60.365,586,35373.77,9,60.385,60.35,60.366,15787,952994.8202,84,60.36,60.36,60.365,60.37,-0.0028577092074398677,-0.0029564786522421676,xom,20200211
2020-02-11,15:31,3:31 PM,60.37,60.355,60.362,400,24145.0,4,60.38,60.335,60.357,26618,1606585.7084,140,60.355,60.355,60.37,60.335,-0.0029072648584359383,-0.003105128416880046,xom,20200211
2020-02-11,15:32,3:32 PM,60.345,60.34,60.345,101,6094.84,2,60.35,60.325,60.34,26405,1593285.8154,108,60.345,60.34,60.335,60.335,-0.003188080214080377,-0.0033859113056404046,xom,20200211
2020-02-11,15:33,3:33 PM,60.39,60.34,60.368,1371,82765.175,19,60.395,60.33,60.374,44318,2675653.6448,194,60.34,60.38,60.33,60.38,-0.0028081535564437976,-0.00282434552811957,xom,20200211
2020-02-11,15:34,3:34 PM,60.415,60.375,60.393,729,44026.555,10,60.42,60.375,60.4,33945,2050266.6455,179,60.375,60.405,60.377,60.4,-0.0023951897981432492,-0.0023949128747213335,xom,20200211
2020-02-11,15:35,3:35 PM,60.435,60.395,60.412,910,54974.945,12,60.465,60.395,60.428,29313,1771330.2817,140,60.395,60.43,60.395,60.46,-0.002081337341834842,-0.0019324469402924177,xom,20200211
2020-02-11,15:36,3:36 PM,60.485,60.46,60.471,623,37673.43,9,60.49,60.45,60.468,26807,1620953.2735,131,60.46,60.485,60.46,60.485,-0.0011067428722455347,-0.0012717813196795472,xom,20200211
2020-02-11,15:37,3:37 PM,60.485,60.465,60.479,400,24191.5,4,60.49,60.45,60.472,37110,2244127.6514,150,60.485,60.465,60.48,60.451,-0.0009745944695893076,-0.001205714757618307,xom,20200211
2020-02-11,15:38,3:38 PM,60.44,60.435,60.437,590,35657.7,9,60.455,60.425,60.44,27946,1689045.1816,157,60.44,60.435,60.455,60.445,-0.0016683735835342941,-0.00173424725410858,xom,20200211
2020-02-11,15:39,3:39 PM,60.455,60.425,60.436,1014,61282.225,13,60.457,60.425,60.441,29031,1754649.427,135,60.455,60.435,60.45,60.44,-0.0016848921338662784,-0.001717730613593182,xom,20200211
2020-02-11,15:40,3:40 PM,60.465,60.415,60.435,802,48469.25,10,60.47,60.415,60.448,26199,1583671.3548,132,60.435,60.465,60.44,60.47,-0.001701410684198263,-0.0016021141299859824,xom,20200211
2020-02-11,15:41,3:41 PM,60.495,60.475,60.487,418,25283.73,5,60.5,60.47,60.487,14274,863388.632,86,60.475,60.485,60.479,60.487,-0.0008424460669330806,-0.0009579651498885099,xom,20200211
2020-02-11,15:42,3:42 PM,60.505,60.485,60.499,1066,64492.01,10,60.51,60.48,60.5,30428,1840883.8032,140,60.485,60.505,60.485,60.5,-0.0006442234629487986,-0.0007432488231893914,xom,20200211
2020-02-11,15:43,3:43 PM,60.48,60.465,60.473,610,36888.8,7,60.5,60.465,60.478,22066,1334518.9859,133,60.465,60.48,60.5,60.47,-0.0010737057715814486,-0.0011066149145263881,xom,20200211
2020-02-11,15:44,3:44 PM,60.485,60.47,60.482,469,28366.195,6,60.49,60.46,60.47,40140,2427252.8596,158,60.485,60.47,60.47,60.465,-0.0009250388185932371,-0.0012387480386489857,xom,20200211
2020-02-11,15:45,3:45 PM,60.455,60.435,60.45,243,14689.475,6,60.475,60.44,60.454,32951,1992012.3104,171,60.455,60.45,60.465,60.45,-0.0014536324292179104,-0.0015030142868940636,xom,20200211
2020-02-11,15:46,3:46 PM,60.45,60.43,60.442,300,18132.5,3,60.455,60.43,60.441,28980,1751572.6687,124,60.45,60.43,60.455,60.435,-0.0015857808318741375,-0.001717730613593182,xom,20200211
2020-02-11,15:47,3:47 PM,60.45,60.425,60.44,1025,61951.375,8,60.455,60.415,60.431,25877,1563760.7166,135,60.435,60.45,60.437,60.44,-0.0016188179325382236,-0.0018828970187464583,xom,20200211
2020-02-11,15:48,3:48 PM,60.515,60.465,60.487,3332,201544.16,27,60.52,60.44,60.49,89378,5406478.2178,480,60.465,60.49,60.446,60.496,-0.0008424460669330806,-0.0009084152283425504,xom,20200211
2020-02-11,15:49,3:49 PM,60.505,60.455,60.488,777,46998.945,10,60.51,60.435,60.473,50039,3026028.3653,236,60.505,60.455,60.495,60.44,-0.0008259275166010962,-0.0011891981171030263,xom,20200211
2020-02-11,15:50,3:50 PM,60.475,60.43,60.439,2290,138405.72,26,60.48,60.42,60.44,50318,3041221.8335,223,60.44,60.475,60.44,60.48,-0.001635336482870208,-0.00173424725410858,xom,20200211
2020-02-11,15:51,3:51 PM,60.5,60.48,60.493,625,37808.14,7,60.51,60.475,60.492,40541,2452413.3948,167,60.48,60.5,60.48,60.51,-0.0007433347649409396,-0.000875381947311989,xom,20200211
2020-02-11,15:52,3:52 PM,60.505,60.49,60.497,181,10949.89,3,60.51,60.47,60.501,97755,5914280.4702,351,60.505,60.49,60.51,60.47,-0.0006772605636128848,-0.0007267321826741108,xom,20200211
2020-02-11,15:53,3:53 PM,60.53,60.475,60.511,1161,70253.28,13,60.54,60.47,60.511,82242,4976565.7723,347,60.475,60.52,60.475,60.52,-0.0004460008589645168,-0.0005615657775208344,xom,20200211
2020-02-11,15:54,3:54 PM,60.54,60.51,60.535,1353,81903.96,17,60.55,60.515,60.532,72843,4409324.373,341,60.54,60.54,60.53,60.545,-4.955565099607047e-05,-0.00021471632669923577,xom,20200211
2020-02-11,15:55,3:55 PM,60.535,60.505,60.52,1887,114201.07,13,60.545,60.505,60.529,105248,6370554.9324,482,60.53,60.535,60.54,60.535,-0.0002973339059763054,-0.00026426624824507785,xom,20200211
2020-02-11,15:56,3:56 PM,60.56,60.54,60.55,3701,224095.9,23,60.57,60.53,60.55,101503,6145969.5635,511,60.54,60.55,60.53,60.55,0.00019822260398428187,8.25832025765208e-05,xom,20200211
2020-02-11,15:57,3:57 PM,60.54,60.495,60.52,1935,117106.985,9,60.55,60.48,60.518,73187,4429117.2188,396,60.54,60.495,60.55,60.485,-0.0002973339059763054,-0.00044594929391363487,xom,20200211
2020-02-11,15:58,3:58 PM,60.54,60.485,60.514,3749,226868.4,27,60.545,60.48,60.515,217931,13188044.8975,769,60.485,60.535,60.485,60.531,-0.00039644520796844633,-0.0004954992154595943,xom,20200211
2020-02-11,15:59,3:59 PM,60.56,60.505,60.541,4087,247429.945,28,60.57,60.5,60.536,222047,13441909.195,861,60.54,60.535,60.53,60.53,4.955565099607047e-05,-0.0001486497646378783,xom,20200211
