date,minute,label,high,low,average,volume,notional,numberOfTrades,marketHigh,marketLow,marketAverage,marketVolume,marketNotional,marketNumberOfTrades,open,close,marketOpen,marketClose,changeOverTime,marketChangeOverTime,tickerName,tickerDate
2020-01-22,09:30,09:30 AM,,,,0,0.0,0,67.56,67.45,67.5,19251,1299444.5,81,,,67.56,67.51,,0.0,xom,20200122
2020-01-22,09:31,09:31 AM,67.485,67.485,67.485,280,18895.8,1,67.51,67.43,67.46,11505,776126.16,63,67.485,67.485,67.48,67.5,,-0.0005925925925926852,xom,20200122
2020-01-22,09:32,09:32 AM,67.57,67.51,67.534,928,62672.025,10,67.57,67.47,67.506,422946,28551409.6559,345,67.515,67.555,67.51,67.56,,8.888888888889225e-05,xom,20200122
2020-01-22,09:33,09:33 AM,67.55,67.43,67.492,1118,75456.56,15,67.55,67.42,67.498,61047,4120531.9754,250,67.55,67.43,67.55,67.45,,-2.9629629629560576e-05,xom,20200122
2020-01-22,09:34,09:34 AM,67.48,67.44,67.453,1801,121482.98,9,67.49,67.42,67.453,33657,2270271.0766,148,67.44,67.445,67.43,67.44,,-0.0006962962962962525,xom,20200122
2020-01-22,09:35,09:35 AM,67.435,67.425,67.427,606,40860.61,8,67.44,67.42,67.424,65712,4430559.8721,232,67.43,67.425,67.44,67.42,,-0.0011259259259258283,xom,20200122
2020-01-22,09:36,09:36 AM,67.44,67.425,67.435,1177,79371.1,10,67.44,67.42,67.422,101263,6827341.6587,185,67.43,67.44,67.421,67.43,,-0.0011555555555555993,xom,20200122
2020-01-22,09:37,09:37 AM,67.44,67.42,67.423,405,27306.2,4,67.45,67.4,67.421,135349,9125444.3985,193,67.42,67.42,67.425,67.424,,-0.0011703703703702744,xom,20200122
2020-01-22,09:38,09:38 AM,67.445,67.425,67.435,511,34459.175,5,67.45,67.41,67.434,36004,2427891.7121,141,67.445,67.44,67.424,67.432,,-0.0009777777777778148,xom,20200122
2020-01-22,09:39,09:39 AM,67.455,67.41,67.427,482,32499.81,5,67.46,67.41,67.438,25542,1722494.5892,152,67.455,67.43,67.43,67.438,,-0.0009185185185184831,xom,20200122
2020-01-22,09:40,09:40 AM,67.445,67.385,67.407,1305,87966.805,10,67.45,67.375,67.409,61910,4173314.5965,261,67.445,67.385,67.43,67.406,,-0.001348148148148059,xom,20200122
2020-01-22,09:41,09:41 AM,67.38,67.35,67.372,1842,124099.85,17,67.4,67.35,67.369,37439,2522227.2703,158,67.38,67.38,67.4,67.371,,-0.0019407407407407442,xom,20200122
2020-01-22,09:42,09:42 AM,67.48,67.4,67.449,676,45595.705,11,67.48,67.36,67.439,26643,1796773.273,179,67.4,67.48,67.37,67.47,,-0.0009037037037038082,xom,20200122
2020-01-22,09:43,09:43 AM,67.52,67.48,67.494,1123,75796.29,21,67.56,67.47,67.499,67262,4540146.4698,205,67.495,67.52,67.48,67.56,,-1.4814814814885554e-05,xom,20200122
2020-01-22,09:44,09:44 AM,67.555,67.495,67.533,1017,68680.705,12,67.56,67.494,67.514,30690,2072006.5819,145,67.555,67.515,67.55,67.509,,0.00020740740740734508,xom,20200122
2020-01-22,09:45,09:45 AM,67.57,67.52,67.541,440,29717.9,6,67.57,67.5,67.545,24403,1648299.4315,137,67.56,67.52,67.5,67.52,,0.0006666666666666919,xom,20200122
2020-01-22,09:46,09:46 AM,67.535,67.51,67.52,838,56581.95,3,67.54,67.49,67.519,54688,3692474.2525,167,67.535,67.51,67.51,67.52,,0.00028148148148156234,xom,20200122
2020-01-22,09:47,09:47 AM,67.53,67.52,67.523,663,44767.76,3,67.575,67.5,67.537,35806,2418226.4992,165,67.53,67.52,67.511,67.575,,0.000548148148148239,xom,20200122
2020-01-22,09:48,09:48 AM,67.6,67.57,67.582,813,54944.475,8,67.605,67.57,67.588,19938,1347577.7892,109,67.58,67.575,67.57,67.57,,0.0013037037037036128,xom,20200122
2020-01-22,09:49,09:49 AM,67.585,67.565,67.576,430,29057.9,5,67.595,67.551,67.578,32931,2225394.6933,129,67.565,67.58,67.58,67.58,,0.0011555555555555993,xom,20200122
2020-01-22,09:50,09:50 AM,67.605,67.585,67.595,722,48803.405,11,67.61,67.575,67.59,16709,1129362.4267,96,67.59,67.605,67.59,67.61,,0.0013333333333333838,xom,20200122
2020-01-22,09:51,09:51 AM,67.605,67.55,67.573,805,54396.315,9,67.61,67.532,67.58,29966,2025100.5457,140,67.605,67.585,67.61,67.59,,0.00118518518518516,xom,20200122
2020-01-22,09:52,09:52 AM,67.615,67.595,67.603,700,47322.5,7,67.62,67.59,67.606,18856,1274784.9057,100,67.595,67.6,67.6,67.615,,0.0015703703703702895,xom,20200122
2020-01-22,09:53,09:53 AM,67.625,67.6,67.617,1131,76474.74,14,67.625,67.6,67.615,18291,1236753.345,77,67.61,67.625,67.6,67.625,,0.001703703703703628,xom,20200122
2020-01-22,09:54,09:54 AM,67.645,67.62,67.631,2800,189367.11,11,67.662,67.62,67.634,34604,2340414.1954,122,67.62,67.63,67.625,67.63,,0.00198518518518519,xom,20200122
2020-01-22,09:55,09:55 AM,67.695,67.62,67.665,3524,238450.74,26,67.7,67.62,67.673,28618,1936661.9108,128,67.63,67.68,67.63,67.68,,0.00256296296296299,xom,20200122
2020-01-22,09:56,09:56 AM,67.665,67.615,67.634,1532,103614.785,23,67.67,67.61,67.63,30794,2082609.218,160,67.665,67.62,67.67,67.625,,0.0019259259259258585,xom,20200122
2020-01-22,09:57,09:57 AM,67.595,67.55,67.581,1918,129620.52,16,67.63,67.545,67.591,25767,1741607.8932,139,67.595,67.55,67.625,67.55,,0.001348148148148059,xom,20200122
2020-01-22,09:58,09:58 AM,67.57,67.525,67.541,1300,87803.5,9,67.59,67.515,67.537,29438,1988153.7211,163,67.54,67.57,67.54,67.56,,0.000548148148148239,xom,20200122
2020-01-22,09:59,09:59 AM,67.57,67.545,67.557,407,27495.79,6,67.56,67.53,67.544,40308,2722578.2456,147,67.555,67.545,67.56,67.53,,0.0006518518518518064,xom,20200122
2020-01-22,10:00,10 AM,67.555,67.5,67.543,2016,136167.0,12,67.56,67.5,67.532,31929,2156228.9532,170,67.545,67.505,67.54,67.5,,0.0004740740740740219,xom,20200122
2020-01-22,10:01,10:01 AM,67.515,67.45,67.484,918,61950.745,13,67.52,67.45,67.496,29491,1990536.3375,138,67.5,67.45,67.5,67.45,,-5.9259259259331685e-05,xom,20200122
2020-01-22,10:02,10:02 AM,67.505,67.43,67.466,747,50397.545,11,67.505,67.43,67.46,29359,1980558.8348,132,67.46,67.505,67.45,67.49,,-0.0005925925925926852,xom,20200122
2020-01-22,10:03,10:03 AM,67.505,67.47,67.492,316,21327.52,5,67.51,67.46,67.489,17738,1197117.26,103,67.47,67.485,67.48,67.49,,-0.00016296296296289896,xom,20200122
2020-01-22,10:04,10:04 AM,67.505,67.475,67.481,1694,114313.04,13,67.51,67.47,67.483,34934,2357446.5255,220,67.49,67.475,67.49,67.47,,-0.00025185185185179124,xom,20200122
2020-01-22,10:05,10:05 AM,67.505,67.49,67.498,500,33749.0,4,67.505,67.465,67.483,25712,1735121.0953,135,67.49,67.5,67.47,67.505,,-0.00025185185185179124,xom,20200122
2020-01-22,10:06,10:06 AM,67.5,67.48,67.488,153,10325.715,7,67.5,67.47,67.484,12774,862037.9825,71,67.5,67.485,67.5,67.485,,-0.00023703703703711619,xom,20200122
2020-01-22,10:07,10:07 AM,67.485,67.465,67.479,1071,72269.65,14,67.5,67.465,67.474,41772,2818521.1872,154,67.485,67.485,67.484,67.495,,-0.0003851851851851296,xom,20200122
2020-01-22,10:08,10:08 AM,67.525,67.5,67.515,209,14110.7,3,67.555,67.49,67.506,51390,3469113.4308,208,67.505,67.525,67.5,67.54,,8.888888888889225e-05,xom,20200122
2020-01-22,10:09,10:09 AM,67.565,67.55,67.56,565,38171.225,8,67.57,67.505,67.538,40850,2758939.8859,143,67.565,67.55,67.535,67.505,,0.0005629629629629141,xom,20200122
2020-01-22,10:10,10:10 AM,67.505,67.49,67.498,310,20924.49,6,67.52,67.49,67.502,23507,1586763.5915,92,67.5,67.505,67.5,67.5,,2.9629629629560576e-05,xom,20200122
2020-01-22,10:11,10:11 AM,67.515,67.485,67.495,2493,168265.755,21,67.515,67.48,67.495,32556,2197355.1275,113,67.495,67.485,67.498,67.485,,-7.40740740740067e-05,xom,20200122
2020-01-22,10:12,10:12 AM,67.475,67.445,67.463,3529,238077.795,27,67.48,67.445,67.462,68240,4603606.1896,235,67.475,67.455,67.48,67.455,,-0.0005629629629629141,xom,20200122
2020-01-22,10:13,10:13 AM,67.46,67.445,67.454,910,61383.55,12,67.47,67.435,67.453,34521,2328538.7212,141,67.455,67.455,67.455,67.45,,-0.0006962962962962525,xom,20200122
2020-01-22,10:14,10:14 AM,67.445,67.425,67.441,981,66159.24,9,67.45,67.415,67.435,20216,1363266.3674,125,67.445,67.425,67.45,67.415,,-0.0009629629629629293,xom,20200122
2020-01-22,10:15,10:15 AM,67.43,67.385,67.416,401,27033.885,5,67.435,67.38,67.412,29642,1998224.004,147,67.405,67.385,67.41,67.38,,-0.0013037037037036128,xom,20200122
2020-01-22,10:16,10:16 AM,67.39,67.365,67.377,604,40695.53,6,67.39,67.36,67.375,19613,1321430.025,131,67.39,67.365,67.385,67.36,,-0.001851851851851852,xom,20200122
2020-01-22,10:17,10:17 AM,67.425,67.37,67.409,3435,231549.775,24,67.43,67.365,67.396,44141,2974927.3161,205,67.37,67.425,67.365,67.43,,-0.001540740740740729,xom,20200122
2020-01-22,10:18,10:18 AM,67.45,67.405,67.422,3332,224648.84,18,67.45,67.4,67.424,33516,2259778.1149,162,67.425,67.435,67.42,67.44,,-0.0011259259259258283,xom,20200122
2020-01-22,10:19,10:19 AM,67.445,67.435,67.441,1681,113367.545,18,67.45,67.42,67.44,38642,2606021.366,116,67.445,67.435,67.44,67.435,,-0.0008888888888889225,xom,20200122
2020-01-22,10:20,10:20 AM,67.425,67.395,67.412,1890,127408.325,24,67.435,67.38,67.412,34792,2345399.8483,204,67.415,67.395,67.435,67.39,,-0.0013037037037036128,xom,20200122
2020-01-22,10:21,10:21 AM,67.415,67.37,67.401,902,60795.765,9,67.42,67.375,67.396,27158,1830347.9191,148,67.39,67.37,67.38,67.375,,-0.001540740740740729,xom,20200122
2020-01-22,10:22,10:22 AM,67.37,67.355,67.365,1002,67500.22,8,67.376,67.35,67.364,21235,1430472.2675,144,67.355,67.37,67.37,67.365,,-0.002014814814814751,xom,20200122
2020-01-22,10:23,10:23 AM,67.365,67.345,67.355,1300,87561.0,12,67.37,67.34,67.355,55987,3770979.8788,242,67.36,67.345,67.365,67.34,,-0.002148148148148089,xom,20200122
2020-01-22,10:24,10:24 AM,67.36,67.34,67.349,1148,77317.21,13,67.36,67.325,67.347,32931,2217822.4079,152,67.34,67.36,67.34,67.36,,-0.0022666666666667527,xom,20200122
2020-01-22,10:25,10:25 AM,67.375,67.355,67.364,600,40418.5,5,67.39,67.35,67.363,31668,2133242.8112,140,67.355,67.375,67.365,67.38,,-0.0020296296296296364,xom,20200122
2020-01-22,10:26,10:26 AM,67.405,67.38,67.394,1200,80873.0,7,67.41,67.375,67.393,21768,1467013.461,129,67.385,67.38,67.385,67.38,,-0.0015851851851851752,xom,20200122
2020-01-22,10:27,10:27 AM,67.405,67.38,67.395,612,41245.825,9,67.415,67.364,67.399,56027,3776155.9948,110,67.38,67.405,67.38,67.409,,-0.001496296296296283,xom,20200122
2020-01-22,10:28,10:28 AM,67.405,67.36,67.394,1460,98394.65,12,67.405,67.356,67.388,31076,2094159.0256,134,67.395,67.36,67.405,67.365,,-0.0016592592592591818,xom,20200122
2020-01-22,10:29,10:29 AM,67.36,67.35,67.356,705,47485.75,7,67.37,67.35,67.357,19501,1313522.7896,108,67.355,67.36,67.365,67.357,,-0.0021185185185185287,xom,20200122
2020-01-22,10:30,10:30 AM,67.365,67.355,67.355,207,13942.515,4,67.37,67.35,67.358,22497,1515362.5925,111,67.355,67.355,67.36,67.355,,-0.0021037037037036433,xom,20200122
2020-01-22,10:31,10:31 AM,67.355,67.33,67.338,1384,93195.5,21,67.355,67.33,67.346,41329,2783363.4745,149,67.35,67.335,67.35,67.335,,-0.0022814814814814278,xom,20200122
2020-01-22,10:32,10:32 AM,67.34,67.32,67.331,1422,95744.74,21,67.36,67.32,67.335,49182,3311682.1378,263,67.335,67.34,67.33,67.36,,-0.002444444444444537,xom,20200122
2020-01-22,10:33,10:33 AM,67.395,67.365,67.373,803,54100.675,7,67.395,67.36,67.374,22054,1485873.9422,132,67.365,67.395,67.36,67.395,,-0.0018666666666667373,xom,20200122
2020-01-22,10:34,10:34 AM,67.405,67.395,67.398,600,40439.0,4,67.406,67.373,67.39,25626,1726928.7496,121,67.395,67.395,67.395,67.39,,-0.0016296296296296213,xom,20200122
2020-01-22,10:35,10:35 AM,67.365,67.325,67.35,1033,69572.255,12,67.387,67.32,67.347,27299,1838507.3524,119,67.365,67.325,67.387,67.32,,-0.0022666666666667527,xom,20200122
2020-01-22,10:36,10:36 AM,67.345,67.325,67.328,633,42618.725,6,67.36,67.323,67.341,15197,1023375.9707,88,67.325,67.345,67.325,67.35,,-0.002355555555555645,xom,20200122
2020-01-22,10:37,10:37 AM,67.39,67.36,67.375,739,49789.9,8,67.4,67.35,67.374,29982,2019996.6428,144,67.36,67.39,67.36,67.39,,-0.0018666666666667373,xom,20200122
2020-01-22,10:38,10:38 AM,67.385,67.375,67.379,571,38473.425,7,67.4,67.365,67.377,23795,1603229.4622,77,67.375,67.375,67.39,67.385,,-0.0018222222222222912,xom,20200122
2020-01-22,10:39,10:39 AM,67.41,67.385,67.401,3107,209416.2,34,67.41,67.38,67.4,32849,2214025.2721,171,67.39,67.41,67.385,67.41,,-0.0014814814814813973,xom,20200122
2020-01-22,10:40,10:40 AM,67.445,67.405,67.434,2149,144916.505,20,67.45,67.4,67.43,35266,2377998.387,217,67.41,67.435,67.41,67.44,,-0.001037037037036936,xom,20200122
2020-01-22,10:41,10:41 AM,67.485,67.44,67.461,2641,178163.895,18,67.49,67.44,67.458,45145,3045383.8824,176,67.44,67.45,67.44,67.445,,-0.0006222222222222458,xom,20200122
2020-01-22,10:42,10:42 AM,67.44,67.42,67.425,600,40455.0,6,67.447,67.41,67.432,21463,1447296.2193,129,67.44,67.43,67.44,67.435,,-0.0010074074074073755,xom,20200122
2020-01-22,10:43,10:43 AM,67.46,67.435,67.452,11745,792227.95,24,67.46,67.43,67.451,55170,3721294.6262,184,67.44,67.46,67.434,67.455,,-0.0007259259259260237,xom,20200122
2020-01-22,10:44,10:44 AM,67.46,67.43,67.445,1193,80461.425,13,67.46,67.424,67.442,19052,1284906.0486,133,67.455,67.43,67.455,67.44,,-0.000859259259259362,xom,20200122
2020-01-22,10:45,10:45 AM,67.455,67.435,67.45,500,33725.0,5,67.46,67.435,67.447,21116,1424201.9021,112,67.455,67.435,67.435,67.435,,-0.0007851851851851448,xom,20200122
2020-01-22,10:46,10:46 AM,67.44,67.39,67.404,3088,208143.315,26,67.45,67.385,67.407,46604,3141449.1849,254,67.435,67.405,67.44,67.4,,-0.00137777777777783,xom,20200122
2020-01-22,10:47,10:47 AM,67.405,67.395,67.398,1477,99547.295,14,67.41,67.39,67.398,23019,1551447.3584,117,67.4,67.395,67.4,67.39,,-0.0015111111111111683,xom,20200122
2020-01-22,10:48,10:48 AM,67.39,67.365,67.381,987,66505.305,18,67.39,67.36,67.375,21123,1423161.498,143,67.385,67.365,67.386,67.365,,-0.001851851851851852,xom,20200122
2020-01-22,10:49,10:49 AM,67.37,67.335,67.353,801,53949.845,9,67.37,67.33,67.349,28744,1935875.5413,156,67.345,67.345,67.366,67.345,,-0.0022370370370369814,xom,20200122
2020-01-22,10:50,10:50 AM,67.34,67.34,67.34,100,6734.0,1,67.35,67.33,67.34,20847,1403846.88,97,67.34,67.34,67.345,67.345,,-0.00237037037037032,xom,20200122
2020-01-22,10:51,10:51 AM,67.37,67.345,67.353,604,40681.38,6,67.375,67.34,67.356,21930,1477128.6405,141,67.345,67.37,67.34,67.37,,-0.002133333333333414,xom,20200122
2020-01-22,10:52,10:52 AM,67.4,67.39,67.396,418,28171.61,6,67.42,67.375,67.401,26747,1802766.6465,141,67.39,67.395,67.375,67.41,,-0.0014666666666667222,xom,20200122
2020-01-22,10:53,10:53 AM,67.405,67.395,67.4,404,27229.6,5,67.41,67.39,67.403,12399,835724.532,69,67.405,67.395,67.41,67.4,,-0.0014370370370369511,xom,20200122
2020-01-22,10:54,10:54 AM,67.425,67.395,67.409,573,38625.435,8,67.43,67.39,67.407,17448,1176116.1119,100,67.405,67.4,67.4,67.4,,-0.00137777777777783,xom,20200122
2020-01-22,10:55,10:55 AM,67.405,67.355,67.394,2200,148266.5,18,67.41,67.35,67.384,33243,2240035.0001,168,67.405,67.36,67.4,67.36,,-0.0017185185185185135,xom,20200122
2020-01-22,10:56,10:56 AM,67.35,67.34,67.347,310,20877.45,4,67.366,67.34,67.349,16859,1135438.6276,69,67.35,67.345,67.363,67.344,,-0.0022370370370369814,xom,20200122
2020-01-22,10:57,10:57 AM,67.345,67.33,67.337,535,36025.3,9,67.35,67.33,67.339,14179,954803.3654,89,67.34,67.34,67.34,67.33,,-0.0023851851851852054,xom,20200122
2020-01-22,10:58,10:58 AM,67.335,67.325,67.331,441,29693.045,8,67.34,67.32,67.329,19587,1318763.7118,128,67.335,67.325,67.33,67.33,,-0.0025333333333334295,xom,20200122
2020-01-22,10:59,10:59 AM,67.33,67.32,67.324,1073,72238.66,11,67.335,67.31,67.323,26750,1800886.032,104,67.33,67.32,67.325,67.315,,-0.0026222222222223217,xom,20200122
2020-01-22,11:00,11 AM,67.32,67.255,67.293,861,57939.045,13,67.32,67.255,67.295,97710,6575362.7584,290,67.32,67.255,67.315,67.255,,-0.0030370370370370117,xom,20200122
2020-01-22,11:01,11:01 AM,67.26,67.25,67.253,496,33357.655,7,67.27,67.25,67.258,18640,1253697.032,113,67.255,67.26,67.26,67.267,,-0.0035851851851852507,xom,20200122
2020-01-22,11:02,11:02 AM,67.3,67.265,67.29,1408,94744.72,13,67.31,67.26,67.282,22976,1545874.2898,162,67.265,67.295,67.27,67.297,,-0.0032296296296296816,xom,20200122
2020-01-22,11:03,11:03 AM,67.295,67.26,67.271,724,48703.93,4,67.3,67.26,67.27,19013,1279001.5186,107,67.295,67.265,67.29,67.265,,-0.003407407407407466,xom,20200122
2020-01-22,11:04,11:04 AM,67.255,67.24,67.25,712,47882.0,7,67.26,67.24,67.253,63429,4265768.9529,191,67.255,67.25,67.26,67.245,,-0.0036592592592592575,xom,20200122
2020-01-22,11:05,11:05 AM,67.245,67.235,67.242,452,30393.23,6,67.25,67.23,67.242,31128,2093101.0572,96,67.24,67.24,67.24,67.25,,-0.0038222222222221566,xom,20200122
2020-01-22,11:06,11:06 AM,67.25,67.235,67.235,143,9614.62,4,67.26,67.23,67.239,16426,1104459.989,95,67.25,67.235,67.25,67.235,,-0.0038666666666666025,xom,20200122
2020-01-22,11:07,11:07 AM,67.225,67.21,67.218,828,55656.66,9,67.237,67.21,67.22,30636,2059358.6223,162,67.225,67.225,67.235,67.22,,-0.004148148148148165,xom,20200122
2020-01-22,11:08,11:08 AM,67.235,67.205,67.227,718,48269.23,8,67.24,67.2,67.213,30784,2069071.431,150,67.205,67.235,67.22,67.24,,-0.004251851851851943,xom,20200122
2020-01-22,11:09,11:09 AM,67.245,67.235,67.244,220,14793.7,3,67.27,67.23,67.246,16889,1135710.83,106,67.245,67.235,67.24,67.247,,-0.003762962962963035,xom,20200122
2020-01-22,11:10,11:10 AM,67.26,67.245,67.253,305,20512.3,4,67.265,67.24,67.255,14230,957037.6472,90,67.245,67.26,67.25,67.258,,-0.003629629629629697,xom,20200122
2020-01-22,11:11,11:11 AM,67.255,67.245,67.251,2406,161805.285,11,67.27,67.243,67.254,19821,1333041.6756,105,67.255,67.25,67.25,67.25,,-0.003644444444444372,xom,20200122
2020-01-22,11:12,11:12 AM,67.255,67.24,67.246,595,40011.725,7,67.26,67.24,67.248,14916,1003067.7205,89,67.255,67.24,67.255,67.24,,-0.0037333333333332643,xom,20200122
2020-01-22,11:13,11:13 AM,67.26,67.23,67.244,1529,102816.695,20,67.26,67.225,67.241,44673,3003842.9236,225,67.25,67.26,67.245,67.26,,-0.003837037037037042,xom,20200122
2020-01-22,11:14,11:14 AM,67.24,67.225,67.233,200,13446.5,2,67.265,67.22,67.241,23314,1567651.8928,113,67.24,67.225,67.265,67.235,,-0.003837037037037042,xom,20200122
2020-01-22,11:15,11:15 AM,67.245,67.235,67.238,218,14657.83,6,67.26,67.23,67.242,24219,1628523.7466,140,67.24,67.245,67.231,67.24,,-0.0038222222222221566,xom,20200122
2020-01-22,11:16,11:16 AM,67.235,67.205,67.225,1150,77308.28,11,67.245,67.2,67.222,23239,1562175.439,142,67.235,67.205,67.24,67.22,,-0.004118518518518605,xom,20200122
2020-01-22,11:17,11:17 AM,67.245,67.215,67.225,311,20906.835,3,67.24,67.21,67.226,11825,794948.98,85,67.215,67.245,67.215,67.24,,-0.004059259259259273,xom,20200122
2020-01-22,11:18,11:18 AM,67.25,67.235,67.243,720,48415.0,8,67.25,67.23,67.244,43633,2934049.5542,82,67.235,67.245,67.241,67.245,,-0.003792592592592596,xom,20200122
2020-01-22,11:19,11:19 AM,67.245,67.22,67.234,1361,91505.815,15,67.25,67.21,67.232,23898,1606719.7934,117,67.24,67.22,67.245,67.21,,-0.00397037037037038,xom,20200122
2020-01-22,11:20,11:20 AM,67.215,67.205,67.212,500,33606.0,5,67.22,67.2,67.212,19201,1290533.6816,75,67.215,67.205,67.218,67.205,,-0.004266666666666617,xom,20200122
2020-01-22,11:21,11:21 AM,67.215,67.18,67.2,2718,182649.64,24,67.215,67.17,67.198,68686,4615592.3354,281,67.205,67.18,67.21,67.175,,-0.004474074074074174,xom,20200122
2020-01-22,11:22,11:22 AM,67.185,67.17,67.18,1600,107488.0,7,67.19,67.16,67.178,18503,1243001.0585,115,67.18,67.17,67.175,67.163,,-0.004770370370370411,xom,20200122
2020-01-22,11:23,11:23 AM,67.18,67.14,67.152,1923,129133.835,17,67.19,67.14,67.155,73698,4949167.4948,325,67.16,67.18,67.165,67.18,,-0.005111111111111094,xom,20200122
2020-01-22,11:24,11:24 AM,67.205,67.165,67.181,2103,141281.57,18,67.21,67.16,67.185,82775,5561221.8385,203,67.185,67.19,67.181,67.18,,-0.004666666666666633,xom,20200122
2020-01-22,11:25,11:25 AM,67.175,67.17,67.173,250,16793.25,2,67.2,67.17,67.178,36216,2432907.0456,76,67.175,67.17,67.185,67.176,,-0.004770370370370411,xom,20200122
2020-01-22,11:26,11:26 AM,67.175,67.125,67.166,1222,82077.295,12,67.18,67.12,67.147,38656,2595645.7227,147,67.175,67.125,67.175,67.12,,-0.005229629629629547,xom,20200122
2020-01-22,11:27,11:27 AM,67.145,67.125,67.136,737,49479.425,9,67.15,67.12,67.13,30321,2035460.77,177,67.125,67.14,67.125,67.13,,-0.005481481481481549,xom,20200122
2020-01-22,11:28,11:28 AM,67.135,67.12,67.129,349,23427.905,5,67.14,67.115,67.127,17758,1192046.325,91,67.13,67.12,67.13,67.12,,-0.005525925925925995,xom,20200122
2020-01-22,11:29,11:29 AM,67.18,67.13,67.151,475,31896.655,6,67.177,67.12,67.148,22054,1480881.251,139,67.13,67.175,67.12,67.175,,-0.005214814814814872,xom,20200122
2020-01-22,11:30,11:30 AM,67.18,67.155,67.165,522,35060.035,8,67.18,67.15,67.165,27651,1857188.175,120,67.18,67.16,67.171,67.152,,-0.0049629629629628705,xom,20200122
2020-01-22,11:31,11:31 AM,67.185,67.165,67.167,542,36404.58,5,67.19,67.15,67.174,27693,1860237.2422,102,67.17,67.165,67.15,67.167,,-0.004829629629629532,xom,20200122
2020-01-22,11:32,11:32 AM,67.18,67.155,67.16,751,50436.94,13,67.18,67.15,67.163,21917,1472005.953,114,67.165,67.16,67.17,67.15,,-0.004992592592592641,xom,20200122
2020-01-22,11:33,11:33 AM,67.155,67.13,67.142,415,27863.935,6,67.16,67.13,67.148,26207,1759751.5309,118,67.155,67.14,67.15,67.135,,-0.005214814814814872,xom,20200122
2020-01-22,11:34,11:34 AM,67.16,67.135,67.149,411,27598.165,7,67.16,67.13,67.149,13472,904630.1804,94,67.135,67.16,67.139,67.155,,-0.005199999999999987,xom,20200122
2020-01-22,11:35,11:35 AM,67.155,67.155,67.155,100,6715.5,1,67.17,67.15,67.16,14163,951189.47,75,67.155,67.155,67.155,67.165,,-0.005037037037037087,xom,20200122
2020-01-22,11:36,11:36 AM,67.17,67.165,67.166,500,33583.0,6,67.179,67.16,67.167,14953,1004342.917,70,67.165,67.17,67.165,67.175,,-0.0049333333333333096,xom,20200122
2020-01-22,11:37,11:37 AM,67.215,67.175,67.187,1300,87343.0,10,67.22,67.17,67.188,26476,1778859.43,174,67.18,67.215,67.175,67.2,,-0.0046222222222221864,xom,20200122
2020-01-22,11:38,11:38 AM,67.2,67.18,67.19,1446,97156.655,8,67.204,67.17,67.184,22815,1532813.521,83,67.2,67.18,67.2,67.17,,-0.004681481481481518,xom,20200122
2020-01-22,11:39,11:39 AM,67.16,67.155,67.155,301,20213.66,4,67.178,67.15,67.161,8020,538631.2374,48,67.16,67.155,67.17,67.15,,-0.005022222222222202,xom,20200122
2020-01-22,11:40,11:40 AM,67.185,67.16,67.175,901,60525.185,6,67.19,67.159,67.177,21383,1436438.6908,110,67.16,67.185,67.159,67.185,,-0.004785185185185086,xom,20200122
2020-01-22,11:41,11:41 AM,67.185,67.17,67.179,402,27005.85,5,67.19,67.162,67.176,18426,1237781.5333,102,67.185,67.175,67.185,67.179,,-0.004799999999999971,xom,20200122
2020-01-22,11:42,11:42 AM,67.185,67.18,67.185,14,940.585,2,67.19,67.175,67.181,6874,461805.77,52,67.185,67.18,67.18,67.18,,-0.004725925925925965,xom,20200122
2020-01-22,11:43,11:43 AM,67.195,67.195,67.195,200,13439.0,2,67.2,67.18,67.192,7627,512470.132,58,67.195,67.195,67.18,67.195,,-0.0045629629629630655,xom,20200122
2020-01-22,11:44,11:44 AM,67.235,67.195,67.219,2289,153864.68,17,67.24,67.19,67.222,62666,4212567.2119,258,67.2,67.205,67.195,67.2,,-0.004118518518518605,xom,20200122
2020-01-22,11:45,11:45 AM,67.205,67.195,67.198,750,50398.25,8,67.21,67.18,67.199,18708,1257159.215,84,67.195,67.205,67.205,67.195,,-0.004459259259259288,xom,20200122
2020-01-22,11:46,11:46 AM,67.22,67.195,67.205,1846,124060.925,11,67.221,67.19,67.209,22281,1497482.6124,101,67.195,67.22,67.19,67.22,,-0.004311111111111064,xom,20200122
2020-01-22,11:47,11:47 AM,67.22,67.195,67.21,303,20364.585,5,67.23,67.19,67.209,14611,981995.0997,65,67.22,67.195,67.216,67.192,,-0.004311111111111064,xom,20200122
2020-01-22,11:48,11:48 AM,67.195,67.19,67.193,301,20225.195,5,67.2,67.19,67.193,9743,654663.5655,36,67.195,67.19,67.195,67.2,,-0.0045481481481481805,xom,20200122
2020-01-22,11:49,11:49 AM,67.185,67.17,67.179,477,32044.59,6,67.19,67.16,67.18,15239,1023759.7298,68,67.18,67.17,67.18,67.16,,-0.00474074074074064,xom,20200122
2020-01-22,11:50,11:50 AM,67.16,67.13,67.145,882,59222.22,10,67.165,67.12,67.145,25879,1737656.0171,152,67.155,67.13,67.163,67.133,,-0.0052592592592593185,xom,20200122
2020-01-22,11:51,11:51 AM,67.175,67.165,67.17,200,13434.0,2,67.18,67.13,67.156,16612,1115596.4034,103,67.165,67.175,67.135,67.175,,-0.005096296296296209,xom,20200122
2020-01-22,11:52,11:52 AM,67.19,67.175,67.185,441,29628.675,6,67.2,67.17,67.184,15564,1045655.35,86,67.175,67.175,67.18,67.18,,-0.004681481481481518,xom,20200122
2020-01-22,11:53,11:53 AM,67.185,67.185,67.185,100,6718.5,1,67.19,67.18,67.183,18232,1224889.3281,42,67.185,67.185,67.19,67.185,,-0.004696296296296193,xom,20200122
2020-01-22,11:54,11:54 AM,67.18,67.17,67.175,301,20219.67,4,67.19,67.155,67.171,11772,790742.512,75,67.18,67.175,67.18,67.16,,-0.004874074074073978,xom,20200122
2020-01-22,11:55,11:55 AM,67.175,67.17,67.174,396,26600.8,2,67.18,67.155,67.168,8213,551651.675,50,67.17,67.175,67.17,67.155,,-0.004918518518518425,xom,20200122
2020-01-22,11:56,11:56 AM,67.155,67.14,67.155,203,13632.42,4,67.155,67.135,67.146,8602,577591.495,48,67.155,67.14,67.155,67.14,,-0.005244444444444433,xom,20200122
2020-01-22,11:57,11:57 AM,67.155,67.15,67.151,248,16653.41,6,67.165,67.14,67.151,11193,751626.855,72,67.155,67.15,67.14,67.16,,-0.005170370370370426,xom,20200122
2020-01-22,11:58,11:58 AM,67.175,67.155,67.16,292,19610.745,4,67.18,67.15,67.167,8421,565616.5944,57,67.175,67.155,67.165,67.16,,-0.0049333333333333096,xom,20200122
2020-01-22,11:59,11:59 AM,67.165,67.16,67.164,827,55544.955,3,67.17,67.15,67.163,15647,1050907.032,53,67.165,67.16,67.17,67.15,,-0.004992592592592641,xom,20200122
2020-01-22,12:00,12 PM,67.145,67.14,67.145,1034,69427.86,7,67.15,67.13,67.143,9837,660486.7271,44,67.145,67.145,67.15,67.145,,-0.005288888888888879,xom,20200122
2020-01-22,12:01,12:01 PM,67.145,67.14,67.144,1068,71709.31,8,67.15,67.13,67.141,32849,2205509.3773,177,67.145,67.14,67.143,67.14,,-0.0053185185185184395,xom,20200122
2020-01-22,12:02,12:02 PM,67.145,67.14,67.145,114,7654.52,7,67.15,67.13,67.141,16516,1108896.2054,78,67.145,67.145,67.144,67.13,,-0.0053185185185184395,xom,20200122
2020-01-22,12:03,12:03 PM,67.14,67.135,67.136,350,23497.5,2,67.14,67.13,67.137,25537,1714485.0341,63,67.14,67.135,67.138,67.135,,-0.005377777777777771,xom,20200122
2020-01-22,12:04,12:04 PM,67.14,67.135,67.136,127,8526.28,2,67.14,67.13,67.136,14965,1004697.5958,71,67.14,67.135,67.135,67.135,,-0.005392592592592656,xom,20200122
2020-01-22,12:05,12:05 PM,67.14,67.13,67.137,210,14098.8,3,67.15,67.13,67.139,22430,1505923.802,137,67.14,67.13,67.14,67.135,,-0.00534814814814821,xom,20200122
2020-01-22,12:06,12:06 PM,67.13,67.13,67.13,407,27321.91,6,67.14,67.12,67.132,52322,3512464.0786,194,67.13,67.13,67.14,67.134,,-0.005451851851851778,xom,20200122
2020-01-22,12:07,12:07 PM,67.14,67.135,67.135,433,29069.465,5,67.14,67.13,67.138,25431,1707384.5133,124,67.14,67.135,67.135,67.139,,-0.005362962962962885,xom,20200122
2020-01-22,12:08,12:08 PM,67.15,67.13,67.144,898,60294.89,14,67.15,67.12,67.141,40518,2720424.474,144,67.145,67.13,67.135,67.14,,-0.0053185185185184395,xom,20200122
2020-01-22,12:09,12:09 PM,67.135,67.135,67.135,500,33567.5,6,67.14,67.13,67.136,8813,591674.0284,37,67.135,67.135,67.135,67.133,,-0.005392592592592656,xom,20200122
2020-01-22,12:10,12:10 PM,67.145,67.135,67.14,300,20142.0,3,67.15,67.13,67.139,18686,1254556.2378,103,67.135,67.145,67.135,67.145,,-0.00534814814814821,xom,20200122
2020-01-22,12:11,12:11 PM,67.145,67.145,67.145,1192,80036.84,6,67.15,67.13,67.141,26503,1779428.4342,182,67.145,67.145,67.145,67.14,,-0.0053185185185184395,xom,20200122
2020-01-22,12:12,12:12 PM,67.135,67.135,67.135,127,8526.145,2,67.14,67.13,67.135,14156,950363.606,42,67.135,67.135,67.135,67.135,,-0.005407407407407331,xom,20200122
2020-01-22,12:13,12:13 PM,67.125,67.12,67.121,61,4094.415,5,67.14,67.11,67.124,28883,1938728.4384,115,67.125,67.12,67.135,67.11,,-0.005570370370370441,xom,20200122
2020-01-22,12:14,12:14 PM,67.125,67.12,67.123,308,20673.97,7,67.13,67.11,67.121,16095,1080317.7858,100,67.12,67.125,67.12,67.12,,-0.0056148148148148875,xom,20200122
2020-01-22,12:15,12:15 PM,67.12,67.115,67.116,615,41276.3,6,67.125,67.11,67.117,15685,1052726.7373,109,67.12,67.115,67.12,67.118,,-0.0056740740740740085,xom,20200122
2020-01-22,12:16,12:16 PM,67.12,67.105,67.111,2000,134221.89,23,67.13,67.1,67.112,34736,2331212.9765,173,67.115,67.11,67.115,67.1,,-0.005748148148148225,xom,20200122
2020-01-22,12:17,12:17 PM,67.1,67.095,67.099,400,26839.5,4,67.11,67.09,67.099,53891,3616038.0996,223,67.1,67.095,67.1,67.1,,-0.005940740740740685,xom,20200122
2020-01-22,12:18,12:18 PM,67.1,67.095,67.096,278,18652.8,4,67.1,67.09,67.095,66690,4474581.925,103,67.095,67.095,67.1,67.095,,-0.006000000000000017,xom,20200122
2020-01-22,12:19,12:19 PM,67.1,67.05,67.076,1034,69357.175,13,67.1,67.06,67.08,67938,4557314.6114,299,67.1,67.065,67.09,67.07,,-0.006222222222222248,xom,20200122
2020-01-22,12:20,12:20 PM,,,,0,0.0,0,67.09,67.07,67.081,21897,1468871.8278,101,,,67.07,67.074,,-0.006207407407407362,xom,20200122
2020-01-22,12:21,12:21 PM,67.075,67.055,67.061,668,44796.44,10,67.08,67.05,67.062,30404,2038943.3328,143,67.075,67.055,67.078,67.06,,-0.006488888888888924,xom,20200122
2020-01-22,12:22,12:22 PM,67.06,67.055,67.058,300,20117.5,4,67.06,67.05,67.057,8624,578302.88,44,67.055,67.06,67.056,67.06,,-0.006562962962962931,xom,20200122
2020-01-22,12:23,12:23 PM,67.065,67.055,67.059,286,19178.93,6,67.07,67.053,67.061,18495,1240294.1103,75,67.06,67.065,67.06,67.065,,-0.006503703703703599,xom,20200122
2020-01-22,12:24,12:24 PM,67.07,67.07,67.07,100,6707.0,1,67.07,67.06,67.063,14026,940628.95,32,67.07,67.07,67.07,67.06,,-0.006474074074074038,xom,20200122
2020-01-22,12:25,12:25 PM,67.065,67.03,67.054,1216,81537.64,12,67.07,67.02,67.044,63749,4274019.0844,264,67.065,67.035,67.065,67.035,,-0.006755555555555601,xom,20200122
2020-01-22,12:26,12:26 PM,67.025,67.0,67.007,432,28946.925,14,67.03,67.0,67.01,67288,4508969.0361,260,67.025,67.005,67.03,67.015,,-0.007259259259259183,xom,20200122
2020-01-22,12:27,12:27 PM,67.015,67.015,67.015,100,6701.5,2,67.02,67.01,67.015,17973,1204464.2948,103,67.015,67.015,67.015,67.01,,-0.007185185185185176,xom,20200122
2020-01-22,12:28,12:28 PM,67.015,67.015,67.015,150,10052.25,2,67.02,67.01,67.015,19379,1298676.4247,70,67.015,67.015,67.01,67.01,,-0.007185185185185176,xom,20200122
2020-01-22,12:29,12:29 PM,67.015,67.015,67.015,487,32636.305,3,67.02,67.01,67.013,20279,1358961.5164,71,67.015,67.015,67.01,67.015,,-0.007214814814814737,xom,20200122
2020-01-22,12:30,12:30 PM,67.015,67.005,67.009,1226,82153.15,20,67.02,67.0,67.008,48765,3267654.575,283,67.015,67.01,67.01,67.01,,-0.007288888888888955,xom,20200122
2020-01-22,12:31,12:31 PM,67.035,67.015,67.016,2370,158829.075,18,67.04,67.01,67.025,36561,2450505.7528,154,67.015,67.035,67.01,67.04,,-0.007037037037036953,xom,20200122
2020-01-22,12:32,12:32 PM,67.055,67.035,67.046,137,9185.305,7,67.06,67.03,67.043,19943,1337039.7442,122,67.045,67.045,67.04,67.045,,-0.006770370370370276,xom,20200122
2020-01-22,12:33,12:33 PM,67.04,67.025,67.031,404,27080.6,5,67.045,67.02,67.031,13712,919133.6161,71,67.04,67.035,67.041,67.03,,-0.00694814814814806,xom,20200122
2020-01-22,12:34,12:34 PM,67.035,67.025,67.031,538,36062.83,10,67.04,67.025,67.03,11275,755762.377,89,67.035,67.025,67.03,67.025,,-0.006962962962962946,xom,20200122
2020-01-22,12:35,12:35 PM,67.03,67.02,67.027,231,15483.26,9,67.03,67.015,67.023,17219,1154067.3224,103,67.025,67.025,67.03,67.025,,-0.007066666666666724,xom,20200122
2020-01-22,12:36,12:36 PM,67.015,67.015,67.015,23,1541.345,3,67.03,67.01,67.02,14444,968044.0278,93,67.015,67.015,67.025,67.02,,-0.00711111111111117,xom,20200122
2020-01-22,12:37,12:37 PM,67.025,67.015,67.015,105,7036.61,3,67.03,67.015,67.021,16965,1137011.9438,97,67.015,67.025,67.02,67.025,,-0.007096296296296285,xom,20200122
2020-01-22,12:38,12:38 PM,67.03,67.015,67.025,415,27815.42,6,67.03,67.01,67.022,33965,2276392.4523,101,67.02,67.015,67.03,67.01,,-0.007081481481481399,xom,20200122
2020-01-22,12:39,12:39 PM,67.02,67.015,67.016,597,40008.455,5,67.04,67.01,67.018,39387,2639653.979,102,67.015,67.02,67.015,67.04,,-0.0071407407407407305,xom,20200122
2020-01-22,12:40,12:40 PM,67.035,67.02,67.031,226,15149.05,6,67.04,67.025,67.032,9703,650408.5329,57,67.035,67.02,67.035,67.026,,-0.006933333333333386,xom,20200122
2020-01-22,12:41,12:41 PM,67.035,67.025,67.032,300,20109.5,2,67.04,67.02,67.031,9814,657847.2856,74,67.025,67.035,67.02,67.035,,-0.00694814814814806,xom,20200122
2020-01-22,12:42,12:42 PM,,,,0,0.0,0,67.039,67.03,67.033,9054,606918.9565,40,,,67.03,67.03,,-0.0069185185185185,xom,20200122
2020-01-22,12:43,12:43 PM,67.035,67.025,67.03,302,20243.05,5,67.04,67.02,67.03,12039,806974.6292,63,67.035,67.03,67.035,67.025,,-0.006962962962962946,xom,20200122
2020-01-22,12:44,12:44 PM,67.055,67.025,67.041,418,28023.355,7,67.06,67.02,67.04,39255,2631636.9665,157,67.025,67.055,67.025,67.056,,-0.006814814814814722,xom,20200122
2020-01-22,12:45,12:45 PM,67.045,67.045,67.045,633,42439.485,5,67.05,67.03,67.041,10740,720026.727,62,67.045,67.045,67.05,67.035,,-0.006800000000000047,xom,20200122
2020-01-22,12:46,12:46 PM,,,,0,0.0,0,67.06,67.03,67.048,16635,1115347.0364,66,,,67.03,67.056,,-0.00669629629629627,xom,20200122
2020-01-22,12:47,12:47 PM,67.055,67.04,67.055,148,9924.095,6,67.06,67.03,67.049,10849,727413.6281,48,67.055,67.04,67.054,67.03,,-0.006681481481481384,xom,20200122
2020-01-22,12:48,12:48 PM,67.035,67.035,67.035,1,67.035,1,67.039,67.03,67.033,7896,529290.522,34,67.035,67.035,67.03,67.035,,-0.0069185185185185,xom,20200122
2020-01-22,12:49,12:49 PM,67.03,67.025,67.025,205,13740.15,7,67.04,67.02,67.029,24616,1649996.7597,127,67.03,67.03,67.03,67.035,,-0.006977777777777832,xom,20200122
2020-01-22,12:50,12:50 PM,67.04,67.035,67.036,509,34121.315,5,67.05,67.03,67.042,27381,1835684.4134,113,67.035,67.04,67.033,67.045,,-0.0067851851851851615,xom,20200122
2020-01-22,12:51,12:51 PM,67.045,67.04,67.045,101,6771.54,2,67.05,67.034,67.042,8398,563021.7612,36,67.045,67.04,67.04,67.035,,-0.0067851851851851615,xom,20200122
2020-01-22,12:52,12:52 PM,67.04,67.035,67.037,208,13943.655,3,67.047,67.03,67.038,12076,809556.505,78,67.035,67.035,67.035,67.03,,-0.006844444444444493,xom,20200122
2020-01-22,12:53,12:53 PM,67.03,67.025,67.025,104,6970.62,2,67.04,67.02,67.026,41560,2785591.5345,75,67.03,67.025,67.03,67.025,,-0.007022222222222278,xom,20200122
2020-01-22,12:54,12:54 PM,67.03,67.015,67.019,900,60317.5,6,67.04,67.01,67.023,65512,4390843.9877,225,67.02,67.03,67.02,67.02,,-0.007066666666666724,xom,20200122
2020-01-22,12:55,12:55 PM,67.025,67.025,67.025,250,16756.25,4,67.03,67.02,67.022,10163,681144.3288,49,67.025,67.025,67.028,67.02,,-0.007081481481481399,xom,20200122
2020-01-22,12:56,12:56 PM,67.02,67.02,67.02,39,2613.78,3,67.025,67.01,67.019,11051,740631.061,72,67.02,67.02,67.02,67.025,,-0.0071259259259258455,xom,20200122
2020-01-22,12:57,12:57 PM,67.02,67.01,67.011,140,9381.62,7,67.03,67.01,67.022,21170,1418847.847,109,67.02,67.02,67.02,67.02,,-0.007081481481481399,xom,20200122
2020-01-22,12:58,12:58 PM,67.025,67.015,67.02,511,34247.32,13,67.025,67.01,67.019,12885,863538.39,100,67.025,67.02,67.02,67.02,,-0.0071259259259258455,xom,20200122
2020-01-22,12:59,12:59 PM,67.025,67.025,67.025,2,134.05,2,67.035,67.02,67.028,12931,866738.2116,65,67.025,67.025,67.03,67.02,,-0.006992592592592507,xom,20200122
2020-01-22,13:00,1 PM,67.025,67.01,67.017,727,48721.09,10,67.029,67.01,67.02,28320,1897997.78,114,67.025,67.01,67.02,67.015,,-0.00711111111111117,xom,20200122
2020-01-22,13:01,1:01 PM,67.015,67.015,67.015,300,20104.5,3,67.02,67.01,67.016,15885,1064543.2683,45,67.015,67.015,67.015,67.015,,-0.007170370370370291,xom,20200122
2020-01-22,13:02,1:02 PM,67.02,67.005,67.012,955,63996.325,10,67.02,67.0,67.011,23099,1547882.06,107,67.015,67.01,67.015,67.01,,-0.007244444444444508,xom,20200122
2020-01-22,13:03,1:03 PM,67.01,67.005,67.008,1500,100511.5,13,67.02,67.0,67.009,58001,3886599.4999,285,67.005,67.01,67.01,67.016,,-0.007274074074074069,xom,20200122
2020-01-22,13:04,1:04 PM,67.025,67.01,67.014,400,26805.5,3,67.03,67.0,67.012,14461,969063.6,71,67.01,67.025,67.016,67.025,,-0.007229629629629623,xom,20200122
2020-01-22,13:05,1:05 PM,67.045,67.025,67.035,626,41964.03,7,67.05,67.02,67.036,24586,1648139.288,123,67.025,67.035,67.025,67.04,,-0.006874074074074054,xom,20200122
2020-01-22,13:06,1:06 PM,67.045,67.03,67.04,316,21184.64,4,67.045,67.02,67.035,14670,983402.1293,98,67.045,67.03,67.04,67.045,,-0.006888888888888939,xom,20200122
2020-01-22,13:07,1:07 PM,67.045,67.035,67.04,315,21117.605,7,67.045,67.032,67.04,8854,593570.854,63,67.045,67.045,67.045,67.045,,-0.006814814814814722,xom,20200122
2020-01-22,13:08,1:08 PM,,,,0,0.0,0,67.048,67.04,67.043,3497,234448.5341,26,,,67.045,67.04,,-0.006770370370370276,xom,20200122
2020-01-22,13:09,1:09 PM,67.05,67.04,67.044,400,26817.5,3,67.05,67.04,67.047,10071,675232.4298,63,67.04,67.05,67.045,67.05,,-0.006711111111111155,xom,20200122
2020-01-22,13:10,1:10 PM,67.055,67.05,67.053,305,20451.25,7,67.055,67.04,67.048,8363,560722.9994,66,67.05,67.055,67.05,67.05,,-0.00669629629629627,xom,20200122
2020-01-22,13:11,1:11 PM,67.055,67.045,67.052,487,32654.46,5,67.065,67.04,67.053,15036,1008207.2809,82,67.055,67.05,67.055,67.065,,-0.006622222222222263,xom,20200122
2020-01-22,13:12,1:12 PM,67.07,67.055,67.062,284,19045.665,7,67.07,67.05,67.067,19741,1323978.6838,127,67.065,67.055,67.066,67.055,,-0.006414814814814917,xom,20200122
2020-01-22,13:13,1:13 PM,67.055,67.045,67.049,820,54979.9,8,67.059,67.04,67.052,11846,794294.9588,67,67.055,67.045,67.055,67.055,,-0.006637037037036938,xom,20200122
2020-01-22,13:14,1:14 PM,67.06,67.055,67.058,700,46940.5,7,67.06,67.05,67.056,21812,1462630.0007,92,67.055,67.06,67.055,67.053,,-0.006577777777777817,xom,20200122
2020-01-22,13:15,1:15 PM,67.05,67.035,67.044,595,39891.425,9,67.05,67.03,67.042,25097,1682561.9155,77,67.05,67.04,67.05,67.037,,-0.0067851851851851615,xom,20200122
2020-01-22,13:16,1:16 PM,67.055,67.05,67.055,101,6772.55,3,67.06,67.04,67.049,10221,685311.9036,59,67.05,67.055,67.04,67.06,,-0.006681481481481384,xom,20200122
2020-01-22,13:17,1:17 PM,67.055,67.05,67.054,374,25078.07,4,67.06,67.05,67.054,6146,412112.5125,47,67.055,67.055,67.06,67.055,,-0.006607407407407377,xom,20200122
2020-01-22,13:18,1:18 PM,67.055,67.05,67.05,228,15287.515,6,67.06,67.045,67.05,13219,886339.205,83,67.05,67.05,67.055,67.045,,-0.006666666666666709,xom,20200122
2020-01-22,13:19,1:19 PM,67.04,67.035,67.038,300,20111.5,2,67.05,67.03,67.04,13656,915500.2159,54,67.04,67.035,67.05,67.035,,-0.006814814814814722,xom,20200122
2020-01-22,13:20,1:20 PM,67.03,67.02,67.02,222,14878.56,6,67.04,67.01,67.021,102824,6891346.717,224,67.02,67.02,67.035,67.025,,-0.007096296296296285,xom,20200122
2020-01-22,13:21,1:21 PM,67.015,67.015,67.015,124,8309.86,2,67.03,67.01,67.019,13422,899525.6868,57,67.015,67.015,67.015,67.03,,-0.0071259259259258455,xom,20200122
2020-01-22,13:22,1:22 PM,67.025,67.02,67.022,205,13739.6,4,67.03,67.01,67.02,16636,1114951.545,82,67.02,67.025,67.03,67.02,,-0.00711111111111117,xom,20200122
2020-01-22,13:23,1:23 PM,67.025,67.02,67.024,114,7640.78,3,67.03,67.01,67.022,14355,962102.1493,67,67.025,67.02,67.021,67.02,,-0.007081481481481399,xom,20200122
2020-01-22,13:24,1:24 PM,67.04,67.02,67.028,401,26878.04,5,67.047,67.01,67.03,27504,1843604.1106,116,67.02,67.04,67.01,67.04,,-0.006962962962962946,xom,20200122
2020-01-22,13:25,1:25 PM,67.03,67.025,67.029,403,27012.575,4,67.045,67.021,67.029,16583,1111541.7565,69,67.03,67.03,67.03,67.044,,-0.006977777777777832,xom,20200122
2020-01-22,13:26,1:26 PM,67.06,67.055,67.057,271,18172.405,3,67.06,67.045,67.054,8952,600270.8631,56,67.055,67.06,67.045,67.06,,-0.006607407407407377,xom,20200122
2020-01-22,13:27,1:27 PM,67.06,67.045,67.052,606,40633.77,6,67.065,67.045,67.054,28688,1923658.155,109,67.06,67.055,67.06,67.055,,-0.006607407407407377,xom,20200122
2020-01-22,13:28,1:28 PM,67.05,67.045,67.047,200,13409.5,2,67.06,67.044,67.05,9584,642612.3532,59,67.045,67.05,67.054,67.05,,-0.006666666666666709,xom,20200122
2020-01-22,13:29,1:29 PM,67.055,67.055,67.055,551,36947.305,8,67.06,67.045,67.053,4263,285846.0203,31,67.055,67.055,67.045,67.058,,-0.006622222222222263,xom,20200122
2020-01-22,13:30,1:30 PM,67.07,67.06,67.065,320,21460.8,11,67.07,67.055,67.066,15054,1009616.6195,79,67.065,67.065,67.055,67.06,,-0.0064296296296295925,xom,20200122
2020-01-22,13:31,1:31 PM,67.065,67.055,67.06,406,27226.39,7,67.07,67.055,67.064,9418,631608.219,60,67.065,67.055,67.065,67.06,,-0.006459259259259363,xom,20200122
2020-01-22,13:32,1:32 PM,67.055,67.055,67.055,132,8851.26,13,67.06,67.05,67.054,7411,496938.5361,49,67.055,67.055,67.055,67.05,,-0.006607407407407377,xom,20200122
2020-01-22,13:33,1:33 PM,67.06,67.05,67.054,549,36812.695,20,67.06,67.05,67.055,6524,437464.7123,34,67.055,67.055,67.06,67.05,,-0.006592592592592491,xom,20200122
2020-01-22,13:34,1:34 PM,67.07,67.055,67.066,678,45470.855,13,67.07,67.05,67.062,10264,688321.295,65,67.055,67.065,67.056,67.065,,-0.006488888888888924,xom,20200122
2020-01-22,13:35,1:35 PM,67.065,67.06,67.063,300,20119.0,3,67.07,67.06,67.066,5398,362020.04,32,67.065,67.06,67.065,67.07,,-0.0064296296296295925,xom,20200122
2020-01-22,13:36,1:36 PM,67.075,67.07,67.073,525,35213.375,10,67.08,67.07,67.072,23974,1607973.5494,106,67.07,67.07,67.07,67.07,,-0.006340740740740701,xom,20200122
2020-01-22,13:37,1:37 PM,67.08,67.075,67.077,1743,116914.925,19,67.08,67.07,67.075,110498,7411667.8082,260,67.075,67.08,67.075,67.072,,-0.006296296296296254,xom,20200122
2020-01-22,13:38,1:38 PM,67.075,67.055,67.073,786,52719.35,17,67.08,67.05,67.067,27728,1859641.9485,176,67.075,67.065,67.075,67.066,,-0.006414814814814917,xom,20200122
2020-01-22,13:39,1:39 PM,67.065,67.055,67.064,164,10998.55,9,67.07,67.05,67.052,75618,5070313.4717,62,67.065,67.055,67.065,67.05,,-0.006637037037036938,xom,20200122
2020-01-22,13:40,1:40 PM,67.065,67.06,67.061,543,36414.265,11,67.07,67.055,67.06,9308,624197.4953,62,67.06,67.065,67.055,67.064,,-0.006518518518518485,xom,20200122
2020-01-22,13:41,1:41 PM,67.07,67.065,67.067,310,20790.65,7,67.07,67.06,67.068,18118,1215134.6863,114,67.065,67.07,67.06,67.07,,-0.006400000000000032,xom,20200122
2020-01-22,13:42,1:42 PM,67.075,67.065,67.074,246,16500.235,13,67.075,67.06,67.066,17605,1180694.0452,80,67.075,67.065,67.07,67.065,,-0.0064296296296295925,xom,20200122
2020-01-22,13:43,1:43 PM,67.06,67.055,67.058,398,26688.89,10,67.07,67.05,67.056,13103,878637.4361,55,67.06,67.055,67.063,67.05,,-0.006577777777777817,xom,20200122
2020-01-22,13:44,1:44 PM,67.055,67.035,67.049,913,61216.075,19,67.06,67.03,67.047,15681,1051367.5314,67,67.055,67.035,67.05,67.03,,-0.006711111111111155,xom,20200122
2020-01-22,13:45,1:45 PM,67.035,67.02,67.026,506,33915.04,27,67.037,67.02,67.029,13914,932637.9905,49,67.035,67.025,67.03,67.02,,-0.006977777777777832,xom,20200122
2020-01-22,13:46,1:46 PM,67.025,67.02,67.023,657,44034.165,32,67.03,67.02,67.023,11653,781018.51,67,67.025,67.025,67.025,67.02,,-0.007066666666666724,xom,20200122
2020-01-22,13:47,1:47 PM,67.03,67.025,67.026,181,12131.785,8,67.03,67.02,67.027,30647,2054167.5278,91,67.03,67.03,67.025,67.025,,-0.007007407407407392,xom,20200122
2020-01-22,13:48,1:48 PM,67.025,67.02,67.024,494,33109.88,5,67.03,67.02,67.023,18146,1216203.4485,93,67.025,67.02,67.025,67.02,,-0.007066666666666724,xom,20200122
2020-01-22,13:49,1:49 PM,67.01,67.01,67.01,102,6835.02,2,67.02,67.01,67.015,10668,714920.3803,63,67.01,67.01,67.015,67.01,,-0.007185185185185176,xom,20200122
2020-01-22,13:50,1:50 PM,67.025,67.01,67.015,976,65406.88,9,67.029,67.01,67.017,33391,2237765.0033,170,67.015,67.015,67.015,67.019,,-0.007155555555555616,xom,20200122
2020-01-22,13:51,1:51 PM,67.015,67.01,67.013,863,57832.43,8,67.02,67.0,67.01,38289,2565743.7365,195,67.015,67.01,67.011,67.01,,-0.007259259259259183,xom,20200122
2020-01-22,13:52,1:52 PM,67.02,67.01,67.015,1141,76464.115,14,67.02,67.01,67.016,11141,746622.752,86,67.015,67.01,67.015,67.014,,-0.007170370370370291,xom,20200122
2020-01-22,13:53,1:53 PM,67.03,67.015,67.023,591,39610.865,7,67.04,67.01,67.022,20830,1396074.7295,105,67.015,67.03,67.015,67.04,,-0.007081481481481399,xom,20200122
2020-01-22,13:54,1:54 PM,67.04,67.04,67.04,100,6704.0,2,67.05,67.03,67.038,7007,469738.084,45,67.04,67.04,67.035,67.05,,-0.006844444444444493,xom,20200122
2020-01-22,13:55,1:55 PM,67.045,67.04,67.041,500,33520.5,4,67.05,67.03,67.042,21260,1425309.5676,114,67.04,67.04,67.045,67.044,,-0.0067851851851851615,xom,20200122
2020-01-22,13:56,1:56 PM,67.045,67.035,67.04,500,33520.0,5,67.05,67.03,67.042,12178,816433.16,43,67.045,67.035,67.044,67.035,,-0.0067851851851851615,xom,20200122
2020-01-22,13:57,1:57 PM,67.03,67.03,67.03,220,14746.6,3,67.03,67.02,67.027,14511,972628.5295,75,67.03,67.03,67.03,67.02,,-0.007007407407407392,xom,20200122
2020-01-22,13:58,1:58 PM,67.025,67.01,67.023,314,21045.2,8,67.03,67.01,67.022,8204,549846.416,40,67.025,67.01,67.025,67.01,,-0.007081481481481399,xom,20200122
2020-01-22,13:59,1:59 PM,67.01,67.01,67.01,200,13402.0,1,67.02,67.01,67.013,9195,616186.6838,49,67.01,67.01,67.015,67.016,,-0.007214814814814737,xom,20200122
2020-01-22,14:00,2 PM,67.015,67.005,67.008,631,42282.39,9,67.02,67.0,67.003,45904,3075703.359,97,67.01,67.005,67.02,67.005,,-0.007362962962962961,xom,20200122
2020-01-22,14:01,2:01 PM,67.01,67.01,67.01,180,12061.8,2,67.02,67.0,67.008,12893,863937.9344,56,67.01,67.01,67.0,67.02,,-0.007288888888888955,xom,20200122
2020-01-22,14:02,2:02 PM,67.015,67.005,67.009,489,32767.335,5,67.02,67.0,67.009,23413,1568887.7183,128,67.01,67.005,67.015,67.005,,-0.007274074074074069,xom,20200122
2020-01-22,14:03,2:03 PM,67.015,67.005,67.009,947,63457.745,11,67.02,67.0,67.005,34625,2320047.13,187,67.005,67.005,67.005,67.005,,-0.007333333333333401,xom,20200122
2020-01-22,14:04,2:04 PM,67.015,67.0,67.006,600,40203.5,7,67.016,67.0,67.008,16557,1109450.0121,93,67.0,67.015,67.0,67.015,,-0.007288888888888955,xom,20200122
2020-01-22,14:05,2:05 PM,67.015,67.01,67.013,310,20774.1,4,67.018,67.0,67.01,19373,1298189.26,100,67.015,67.01,67.015,67.007,,-0.007259259259259183,xom,20200122
2020-01-22,14:06,2:06 PM,67.015,67.01,67.014,806,54013.575,8,67.02,67.006,67.012,18999,1273166.64,105,67.01,67.015,67.01,67.017,,-0.007229629629629623,xom,20200122
2020-01-22,14:07,2:07 PM,67.015,67.015,67.015,500,33507.5,4,67.02,67.01,67.015,3085,206741.75,26,67.015,67.015,67.015,67.015,,-0.007185185185185176,xom,20200122
2020-01-22,14:08,2:08 PM,67.015,67.01,67.011,400,26804.5,3,67.02,67.01,67.016,18013,1207159.084,88,67.015,67.01,67.015,67.01,,-0.007170370370370291,xom,20200122
2020-01-22,14:09,2:09 PM,67.02,67.01,67.013,402,26939.04,4,67.02,67.0,67.008,26583,1781281.202,193,67.01,67.02,67.01,67.02,,-0.007288888888888955,xom,20200122
2020-01-22,14:10,2:10 PM,67.015,67.01,67.014,800,53611.5,6,67.02,67.005,67.013,18890,1265877.0535,69,67.015,67.01,67.02,67.01,,-0.007214814814814737,xom,20200122
2020-01-22,14:11,2:11 PM,67.02,67.02,67.02,1,67.02,1,67.04,67.01,67.024,21947,1470970.5195,119,67.02,67.02,67.01,67.04,,-0.007051851851851839,xom,20200122
2020-01-22,14:12,2:12 PM,67.045,67.03,67.035,515,34522.95,6,67.05,67.025,67.036,17511,1173875.4172,96,67.045,67.03,67.045,67.045,,-0.006874074074074054,xom,20200122
2020-01-22,14:13,2:13 PM,67.06,67.05,67.055,3533,236904.815,20,67.06,67.04,67.054,47611,3192501.0581,217,67.055,67.055,67.04,67.06,,-0.006607407407407377,xom,20200122
2020-01-22,14:14,2:14 PM,67.055,67.055,67.055,1965,131763.075,10,67.06,67.05,67.056,23363,1566627.275,116,67.055,67.055,67.055,67.053,,-0.006577777777777817,xom,20200122
2020-01-22,14:15,2:15 PM,67.055,67.04,67.047,264,17700.32,6,67.06,67.02,67.036,23909,1602763.5013,103,67.055,67.04,67.055,67.03,,-0.006874074074074054,xom,20200122
2020-01-22,14:16,2:16 PM,67.04,67.03,67.037,200,13407.495,4,67.04,67.02,67.032,18265,1224333.5375,96,67.03,67.04,67.025,67.034,,-0.006933333333333386,xom,20200122
2020-01-22,14:17,2:17 PM,67.04,67.03,67.035,200,13407.0,3,67.04,67.03,67.036,10652,714069.742,63,67.03,67.04,67.03,67.04,,-0.006874074074074054,xom,20200122
2020-01-22,14:18,2:18 PM,67.05,67.045,67.048,154,10325.43,2,67.05,67.04,67.045,8736,585701.7609,65,67.05,67.045,67.04,67.047,,-0.006740740740740716,xom,20200122
2020-01-22,14:19,2:19 PM,67.045,67.045,67.045,100,6704.5,1,67.05,67.034,67.043,18696,1253434.9758,90,67.045,67.045,67.04,67.05,,-0.006770370370370276,xom,20200122
2020-01-22,14:20,2:20 PM,67.045,67.025,67.036,500,33518.0,5,67.05,67.02,67.036,22100,1481490.185,134,67.045,67.025,67.046,67.02,,-0.006874074074074054,xom,20200122
2020-01-22,14:21,2:21 PM,67.025,67.025,67.025,200,13405.0,2,67.03,67.02,67.025,61515,4123044.7365,55,67.025,67.025,67.02,67.024,,-0.007037037037036953,xom,20200122
2020-01-22,14:22,2:22 PM,67.025,67.025,67.025,4828,323596.7,17,67.03,67.02,67.024,34164,2289811.4747,81,67.025,67.025,67.025,67.025,,-0.007051851851851839,xom,20200122
2020-01-22,14:23,2:23 PM,67.035,67.03,67.035,405,27149.15,6,67.04,67.02,67.031,21296,1427499.8142,109,67.03,67.035,67.02,67.035,,-0.00694814814814806,xom,20200122
2020-01-22,14:24,2:24 PM,67.045,67.045,67.045,5,335.225,2,67.05,67.03,67.041,20650,1384389.7445,74,67.045,67.045,67.035,67.05,,-0.006800000000000047,xom,20200122
2020-01-22,14:25,2:25 PM,67.045,67.045,67.045,200,13409.0,2,67.05,67.04,67.044,8163,547283.903,41,67.045,67.045,67.05,67.045,,-0.006755555555555601,xom,20200122
2020-01-22,14:26,2:26 PM,67.045,67.045,67.045,303,20314.635,3,67.05,67.04,67.045,9885,662737.9235,55,67.045,67.045,67.048,67.05,,-0.006740740740740716,xom,20200122
2020-01-22,14:27,2:27 PM,67.055,67.05,67.052,201,13477.55,4,67.06,67.04,67.048,21014,1408943.6127,98,67.05,67.055,67.04,67.058,,-0.00669629629629627,xom,20200122
2020-01-22,14:28,2:28 PM,67.065,67.06,67.064,500,33532.0,3,67.09,67.055,67.075,27258,1828329.4997,163,67.06,67.065,67.055,67.087,,-0.006296296296296254,xom,20200122
2020-01-22,14:29,2:29 PM,67.105,67.065,67.078,1901,127514.53,18,67.105,67.065,67.084,141926,9520957.981,513,67.09,67.095,67.085,67.097,,-0.006162962962962916,xom,20200122
2020-01-22,14:30,2:30 PM,67.1,67.095,67.095,605,40592.495,7,67.1,67.085,67.095,25801,1731112.7835,155,67.095,67.095,67.1,67.1,,-0.006000000000000017,xom,20200122
2020-01-22,14:31,2:31 PM,67.1,67.09,67.093,596,39987.14,6,67.1,67.09,67.096,17579,1179487.9069,82,67.1,67.09,67.1,67.09,,-0.005985185185185132,xom,20200122
2020-01-22,14:32,2:32 PM,67.1,67.09,67.097,600,40258.0,6,67.1,67.09,67.098,30940,2076010.4218,192,67.1,67.09,67.09,67.093,,-0.005955555555555571,xom,20200122
2020-01-22,14:33,2:33 PM,67.105,67.09,67.096,816,54750.12,10,67.11,67.08,67.096,29569,1983961.7904,157,67.1,67.09,67.095,67.08,,-0.005985185185185132,xom,20200122
2020-01-22,14:34,2:34 PM,,,,0,0.0,0,67.087,67.05,67.071,32794,2199536.2698,117,,,67.085,67.055,,-0.006355555555555586,xom,20200122
2020-01-22,14:35,2:35 PM,67.06,67.055,67.056,122,8180.82,2,67.06,67.05,67.056,11769,789184.9577,71,67.055,67.06,67.055,67.06,,-0.006577777777777817,xom,20200122
2020-01-22,14:36,2:36 PM,67.065,67.06,67.063,400,26825.0,4,67.07,67.055,67.062,15352,1029533.6753,85,67.06,67.065,67.055,67.065,,-0.006488888888888924,xom,20200122
2020-01-22,14:37,2:37 PM,67.065,67.06,67.062,300,20118.5,3,67.07,67.058,67.061,7864,527370.4586,46,67.065,67.06,67.065,67.064,,-0.006503703703703599,xom,20200122
2020-01-22,14:38,2:38 PM,67.07,67.065,67.069,442,29644.44,5,67.07,67.06,67.067,28420,1906056.2781,116,67.07,67.065,67.07,67.065,,-0.006414814814814917,xom,20200122
2020-01-22,14:39,2:39 PM,67.07,67.065,67.067,300,20120.0,3,67.07,67.06,67.069,14497,972297.866,81,67.065,67.07,67.065,67.064,,-0.0063851851851851466,xom,20200122
2020-01-22,14:40,2:40 PM,67.07,67.065,67.065,102,6840.64,2,67.07,67.06,67.068,8167,547745.8899,38,67.065,67.07,67.065,67.065,,-0.006400000000000032,xom,20200122
2020-01-22,14:41,2:41 PM,67.065,67.05,67.056,974,65312.265,14,67.07,67.04,67.053,32939,2208653.9794,148,67.065,67.055,67.065,67.06,,-0.006622222222222263,xom,20200122
2020-01-22,14:42,2:42 PM,67.055,67.055,67.055,1000,67055.0,6,67.06,67.05,67.055,8112,543950.1576,47,67.055,67.055,67.06,67.05,,-0.006592592592592491,xom,20200122
2020-01-22,14:43,2:43 PM,67.06,67.055,67.056,830,55656.65,7,67.07,67.05,67.056,24214,1623689.5217,120,67.055,67.055,67.055,67.055,,-0.006577777777777817,xom,20200122
2020-01-22,14:44,2:44 PM,67.055,67.055,67.055,528,35405.04,4,67.06,67.05,67.055,9890,663170.9273,49,67.055,67.055,67.055,67.055,,-0.006592592592592491,xom,20200122
2020-01-22,14:45,2:45 PM,67.075,67.055,67.065,253,16967.415,5,67.075,67.05,67.059,19444,1303892.6115,115,67.055,67.075,67.05,67.07,,-0.00653333333333337,xom,20200122
2020-01-22,14:46,2:46 PM,67.095,67.085,67.088,504,33812.34,6,67.1,67.08,67.088,23196,1556181.7711,106,67.085,67.085,67.08,67.088,,-0.006103703703703794,xom,20200122
2020-01-22,14:47,2:47 PM,67.095,67.09,67.094,975,65417.125,11,67.1,67.08,67.093,13928,934468.7092,69,67.09,67.095,67.09,67.094,,-0.0060296296296295775,xom,20200122
2020-01-22,14:48,2:48 PM,67.1,67.09,67.095,3118,209202.24,16,67.1,67.09,67.095,15994,1073115.0013,76,67.095,67.09,67.095,67.09,,-0.006000000000000017,xom,20200122
2020-01-22,14:49,2:49 PM,67.095,67.09,67.094,1238,83062.11,12,67.1,67.085,67.093,40373,2708739.2636,168,67.095,67.095,67.094,67.09,,-0.0060296296296295775,xom,20200122
2020-01-22,14:50,2:50 PM,67.085,67.085,67.085,100,6708.5,1,67.09,67.08,67.085,6631,444840.974,32,67.085,67.085,67.085,67.086,,-0.006148148148148241,xom,20200122
2020-01-22,14:51,2:51 PM,67.09,67.09,67.09,97,6507.73,2,67.09,67.08,67.087,12353,828724.8284,94,67.09,67.09,67.09,67.085,,-0.006118518518518469,xom,20200122
2020-01-22,14:52,2:52 PM,67.095,67.085,67.09,207,13887.63,4,67.1,67.08,67.089,13845,928851.395,75,67.09,67.085,67.086,67.085,,-0.006088888888888909,xom,20200122
2020-01-22,14:53,2:53 PM,67.09,67.08,67.084,732,49105.685,12,67.09,67.07,67.082,24375,1635135.524,92,67.085,67.085,67.085,67.08,,-0.006192592592592687,xom,20200122
2020-01-22,14:54,2:54 PM,67.095,67.085,67.088,407,27304.665,7,67.1,67.08,67.088,11898,798207.5568,50,67.095,67.085,67.08,67.085,,-0.006103703703703794,xom,20200122
2020-01-22,14:55,2:55 PM,67.095,67.09,67.094,500,33547.0,4,67.1,67.08,67.09,9895,663852.1877,55,67.09,67.095,67.08,67.098,,-0.0060740740740740234,xom,20200122
2020-01-22,14:56,2:56 PM,67.1,67.09,67.094,716,48039.6,6,67.1,67.09,67.094,14444,969103.4374,49,67.1,67.09,67.094,67.095,,-0.0060148148148149025,xom,20200122
2020-01-22,14:57,2:57 PM,67.095,67.08,67.085,401,26901.08,6,67.1,67.08,67.085,15765,1057592.7211,78,67.095,67.08,67.095,67.09,,-0.006148148148148241,xom,20200122
2020-01-22,14:58,2:58 PM,67.09,67.085,67.088,224,15027.635,5,67.09,67.08,67.087,11920,799675.4362,77,67.09,67.085,67.085,67.09,,-0.006118518518518469,xom,20200122
2020-01-22,14:59,2:59 PM,67.085,67.08,67.085,101,6775.58,2,67.09,67.08,67.086,9044,606723.9726,45,67.08,67.085,67.085,67.085,,-0.006133333333333355,xom,20200122
2020-01-22,15:00,3 PM,67.105,67.085,67.09,1311,87954.965,10,67.11,67.08,67.091,35936,2411000.2352,128,67.095,67.105,67.085,67.1,,-0.006059259259259348,xom,20200122
2020-01-22,15:01,3:01 PM,67.105,67.09,67.098,419,28114.21,6,67.11,67.083,67.094,15668,1051234.4492,94,67.105,67.09,67.105,67.085,,-0.0060148148148149025,xom,20200122
2020-01-22,15:02,3:02 PM,67.11,67.08,67.09,1088,72994.365,12,67.11,67.07,67.089,25220,1691987.8519,140,67.085,67.11,67.085,67.105,,-0.006088888888888909,xom,20200122
2020-01-22,15:03,3:03 PM,67.115,67.1,67.108,1442,96769.035,15,67.12,67.09,67.104,16510,1107887.9776,99,67.11,67.115,67.11,67.12,,-0.005866666666666679,xom,20200122
2020-01-22,15:04,3:04 PM,67.125,67.105,67.116,608,40806.415,8,67.13,67.1,67.118,22799,1530214.0265,92,67.12,67.105,67.11,67.105,,-0.0056592592592593334,xom,20200122
2020-01-22,15:05,3:05 PM,67.11,67.09,67.1,1122,75286.77,11,67.11,67.09,67.099,17453,1171082.5306,102,67.11,67.09,67.11,67.09,,-0.005940740740740685,xom,20200122
2020-01-22,15:06,3:06 PM,67.105,67.09,67.091,518,34753.18,9,67.106,67.08,67.093,20435,1371051.2566,106,67.105,67.09,67.09,67.09,,-0.0060296296296295775,xom,20200122
2020-01-22,15:07,3:07 PM,67.105,67.09,67.1,714,47909.4,9,67.115,67.09,67.105,25134,1686608.1413,112,67.09,67.105,67.09,67.111,,-0.005851851851851793,xom,20200122
2020-01-22,15:08,3:08 PM,67.115,67.105,67.112,357,23959.175,6,67.12,67.1,67.112,28162,1890017.8758,63,67.11,67.115,67.11,67.115,,-0.005748148148148225,xom,20200122
2020-01-22,15:09,3:09 PM,67.125,67.11,67.116,1600,107386.0,14,67.13,67.11,67.115,20951,1406133.8612,124,67.115,67.11,67.115,67.112,,-0.005703703703703779,xom,20200122
2020-01-22,15:10,3:10 PM,67.115,67.11,67.114,1411,94698.21,12,67.12,67.1,67.114,13379,897914.0886,69,67.115,67.11,67.115,67.1,,-0.005718518518518454,xom,20200122
2020-01-22,15:11,3:11 PM,67.105,67.1,67.102,942,63210.2,11,67.11,67.09,67.101,22047,1479382.9127,125,67.105,67.1,67.105,67.095,,-0.005911111111111125,xom,20200122
2020-01-22,15:12,3:12 PM,67.115,67.1,67.107,349,23420.43,5,67.12,67.1,67.109,11901,798661.7112,74,67.105,67.1,67.105,67.11,,-0.005792592592592672,xom,20200122
2020-01-22,15:13,3:13 PM,67.135,67.11,67.12,456,30606.53,8,67.14,67.11,67.126,37359,2507768.2045,147,67.11,67.135,67.11,67.135,,-0.00554074074074067,xom,20200122
2020-01-22,15:14,3:14 PM,67.14,67.12,67.13,1748,117342.68,20,67.147,67.12,67.133,39699,2665116.9915,194,67.14,67.135,67.14,67.135,,-0.005437037037037103,xom,20200122
2020-01-22,15:15,3:15 PM,67.14,67.11,67.129,1588,106600.515,18,67.14,67.1,67.126,32709,2195628.7251,178,67.135,67.11,67.135,67.1,,-0.00554074074074067,xom,20200122
2020-01-22,15:16,3:16 PM,67.135,67.105,67.123,1225,82225.75,10,67.135,67.1,67.121,23202,1557352.5208,145,67.105,67.125,67.105,67.121,,-0.0056148148148148875,xom,20200122
2020-01-22,15:17,3:17 PM,67.125,67.115,67.121,1301,87324.615,10,67.13,67.11,67.119,15415,1034639.5375,71,67.125,67.115,67.125,67.115,,-0.005644444444444448,xom,20200122
2020-01-22,15:18,3:18 PM,67.145,67.115,67.131,2544,170780.755,17,67.15,67.11,67.126,67741,4547200.7382,303,67.115,67.135,67.115,67.136,,-0.00554074074074067,xom,20200122
2020-01-22,15:19,3:19 PM,67.16,67.135,67.138,1100,73852.0,8,67.17,67.13,67.148,26916,1807370.3907,181,67.135,67.16,67.135,67.165,,-0.005214814814814872,xom,20200122
2020-01-22,15:20,3:20 PM,67.185,67.16,67.177,2036,136772.605,21,67.19,67.15,67.172,55119,3702472.8646,275,67.17,67.16,67.167,67.15,,-0.004859259259259303,xom,20200122
2020-01-22,15:21,3:21 PM,67.155,67.135,67.148,825,55397.125,9,67.155,67.13,67.141,22816,1531895.1736,121,67.155,67.135,67.155,67.13,,-0.0053185185185184395,xom,20200122
2020-01-22,15:22,3:22 PM,67.13,67.11,67.118,1565,105039.895,15,67.13,67.11,67.121,40983,2750807.4778,229,67.13,67.11,67.13,67.12,,-0.0056148148148148875,xom,20200122
2020-01-22,15:23,3:23 PM,67.125,67.1,67.104,1663,111594.625,12,67.125,67.095,67.105,45423,3048091.1492,205,67.115,67.105,67.12,67.11,,-0.005851851851851793,xom,20200122
2020-01-22,15:24,3:24 PM,67.11,67.1,67.104,1502,100789.685,15,67.11,67.1,67.105,57803,3878876.9891,137,67.105,67.11,67.105,67.1,,-0.005851851851851793,xom,20200122
2020-01-22,15:25,3:25 PM,67.11,67.11,67.11,325,21810.75,7,67.13,67.1,67.114,22447,1506510.6736,159,67.11,67.11,67.106,67.115,,-0.005718518518518454,xom,20200122
2020-01-22,15:26,3:26 PM,67.125,67.12,67.124,688,46181.06,9,67.125,67.11,67.119,13382,898186.2519,71,67.12,67.12,67.115,67.12,,-0.005644444444444448,xom,20200122
2020-01-22,15:27,3:27 PM,67.12,67.11,67.115,1141,76577.92,7,67.14,67.1,67.117,19098,1281801.04,124,67.115,67.12,67.12,67.135,,-0.0056740740740740085,xom,20200122
2020-01-22,15:28,3:28 PM,67.155,67.135,67.148,782,52509.63,7,67.16,67.13,67.147,16078,1079583.6582,86,67.135,67.155,67.14,67.155,,-0.005229629629629547,xom,20200122
2020-01-22,15:29,3:29 PM,67.15,67.125,67.134,704,47262.325,10,67.16,67.12,67.142,20706,1390235.9559,122,67.15,67.13,67.155,67.138,,-0.005303703703703764,xom,20200122
2020-01-22,15:30,3:30 PM,67.185,67.14,67.17,943,63341.535,13,67.19,67.13,67.16,38492,2585107.7691,156,67.14,67.175,67.132,67.18,,-0.005037037037037087,xom,20200122
2020-01-22,15:31,3:31 PM,67.185,67.175,67.184,3210,215660.41,22,67.19,67.17,67.182,39782,2672647.3138,198,67.185,67.185,67.18,67.185,,-0.004711111111111079,xom,20200122
2020-01-22,15:32,3:32 PM,67.18,67.17,67.174,1100,73891.0,7,67.19,67.165,67.178,35285,2370381.0666,166,67.18,67.17,67.188,67.185,,-0.004770370370370411,xom,20200122
2020-01-22,15:33,3:33 PM,67.205,67.19,67.202,223,14985.97,5,67.225,67.19,67.206,19082,1282422.231,110,67.19,67.205,67.19,67.225,,-0.00435555555555551,xom,20200122
2020-01-22,15:34,3:34 PM,67.235,67.23,67.235,3280,220529.79,19,67.243,67.22,67.232,26112,1755572.2559,165,67.23,67.235,67.23,67.235,,-0.00397037037037038,xom,20200122
2020-01-22,15:35,3:35 PM,67.245,67.235,67.237,1919,129026.975,17,67.255,67.23,67.241,27114,1823170.5878,138,67.235,67.245,67.23,67.255,,-0.003837037037037042,xom,20200122
2020-01-22,15:36,3:36 PM,67.255,67.235,67.244,1301,87484.75,14,67.26,67.23,67.246,39436,2651920.747,147,67.255,67.235,67.259,67.23,,-0.003762962962963035,xom,20200122
2020-01-22,15:37,3:37 PM,67.26,67.24,67.255,2506,168541.44,19,67.27,67.234,67.256,25375,1706626.0352,158,67.24,67.26,67.236,67.265,,-0.0036148148148148116,xom,20200122
2020-01-22,15:38,3:38 PM,67.265,67.25,67.263,3202,215377.01,8,67.27,67.23,67.255,26459,1779515.8171,116,67.265,67.255,67.269,67.23,,-0.003629629629629697,xom,20200122
2020-01-22,15:39,3:39 PM,67.23,67.225,67.225,1229,82620.025,4,67.24,67.21,67.226,21565,1449724.2367,113,67.23,67.225,67.23,67.235,,-0.004059259259259273,xom,20200122
2020-01-22,15:40,3:40 PM,67.24,67.225,67.23,1088,73146.49,14,67.24,67.22,67.229,26633,1790521.2427,148,67.235,67.225,67.235,67.22,,-0.004014814814814827,xom,20200122
2020-01-22,15:41,3:41 PM,67.225,67.21,67.219,895,60161.495,10,67.23,67.21,67.221,19639,1320162.0288,118,67.225,67.22,67.22,67.225,,-0.00413333333333328,xom,20200122
2020-01-22,15:42,3:42 PM,67.2,67.19,67.198,1376,92464.34,13,67.23,67.19,67.204,47086,3164380.1053,219,67.2,67.195,67.225,67.19,,-0.004385185185185281,xom,20200122
2020-01-22,15:43,3:43 PM,67.195,67.175,67.185,1200,80622.0,9,67.2,67.173,67.186,29622,1990193.4457,192,67.195,67.185,67.195,67.19,,-0.004651851851851747,xom,20200122
2020-01-22,15:44,3:44 PM,67.2,67.17,67.18,368,24722.41,10,67.2,67.16,67.181,21606,1451510.422,126,67.19,67.17,67.19,67.185,,-0.004725925925925965,xom,20200122
2020-01-22,15:45,3:45 PM,67.23,67.185,67.201,2633,176939.43,9,67.23,67.18,67.203,29426,1977511.9076,145,67.185,67.225,67.185,67.225,,-0.004399999999999956,xom,20200122
2020-01-22,15:46,3:46 PM,67.235,67.215,67.227,2305,154959.15,14,67.24,67.214,67.226,22587,1518440.1245,138,67.215,67.225,67.224,67.225,,-0.004059259259259273,xom,20200122
2020-01-22,15:47,3:47 PM,67.225,67.19,67.219,3111,209117.33,20,67.23,67.18,67.211,21955,1475612.5824,130,67.225,67.19,67.225,67.18,,-0.004281481481481503,xom,20200122
2020-01-22,15:48,3:48 PM,67.225,67.185,67.216,2539,170660.2,17,67.23,67.175,67.208,33506,2251876.7553,198,67.185,67.225,67.18,67.225,,-0.004325925925925949,xom,20200122
2020-01-22,15:49,3:49 PM,67.235,67.215,67.226,832,55932.44,9,67.24,67.21,67.223,33701,2265475.9112,204,67.225,67.22,67.225,67.225,,-0.004103703703703719,xom,20200122
2020-01-22,15:50,3:50 PM,67.235,67.215,67.228,1358,91295.1,15,67.24,67.21,67.225,57778,3884116.4177,291,67.225,67.225,67.225,67.215,,-0.004074074074074159,xom,20200122
2020-01-22,15:51,3:51 PM,67.23,67.205,67.215,1526,102569.67,20,67.23,67.2,67.213,53715,3610342.9293,290,67.215,67.23,67.22,67.225,,-0.004251851851851943,xom,20200122
2020-01-22,15:52,3:52 PM,67.235,67.215,67.223,931,62584.645,14,67.235,67.215,67.226,46630,3134752.5478,271,67.23,67.215,67.225,67.216,,-0.004059259259259273,xom,20200122
2020-01-22,15:53,3:53 PM,67.215,67.21,67.214,2376,159700.87,19,67.22,67.203,67.215,59982,4031670.8933,307,67.215,67.21,67.215,67.205,,-0.0042222222222221715,xom,20200122
2020-01-22,15:54,3:54 PM,67.235,67.2,67.217,4625,310877.79,38,67.24,67.2,67.219,94692,6365069.1608,521,67.21,67.225,67.205,67.225,,-0.0041629629629630505,xom,20200122
2020-01-22,15:55,3:55 PM,67.24,67.2,67.216,6507,437374.46,47,67.25,67.195,67.22,99269,6672856.1323,542,67.225,67.205,67.225,67.205,,-0.004148148148148165,xom,20200122
2020-01-22,15:56,3:56 PM,67.25,67.205,67.234,5067,340673.565,26,67.25,67.2,67.232,97624,6563502.0214,489,67.205,67.235,67.206,67.235,,-0.00397037037037038,xom,20200122
2020-01-22,15:57,3:57 PM,67.235,67.205,67.218,14096,947499.16,35,67.24,67.2,67.221,166890,11218542.3272,650,67.235,67.205,67.24,67.21,,-0.00413333333333328,xom,20200122
2020-01-22,15:58,3:58 PM,67.21,67.18,67.196,21175,1422867.68,35,67.21,67.18,67.195,213342,14335482.2195,760,67.21,67.185,67.2,67.18,,-0.0045185185185186195,xom,20200122
2020-01-22,15:59,3:59 PM,67.2,67.14,67.166,28255,1897767.97,34,67.21,67.13,67.166,426527,28647962.3504,1414,67.18,67.185,67.18,67.17,,-0.004948148148148195,xom,20200122
