date,minute,label,high,low,average,volume,notional,numberOfTrades,marketHigh,marketLow,marketAverage,marketVolume,marketNotional,marketNumberOfTrades,open,close,marketOpen,marketClose,changeOverTime,marketChangeOverTime,tickerName,tickerDate
2019-12-02,09:30,09:30 AM,,,,0,0.0,0,68.5,68.41,68.46,8771,600462.7,43,,,68.5,68.47,,0.0,xom,20191202
2019-12-02,09:31,09:31 AM,68.465,68.415,68.444,3966,271450.36,14,68.49,68.4,68.42,258851,17710541.8101,241,68.415,68.46,68.47,68.47,,-0.0005842827928716338,xom,20191202
2019-12-02,09:32,09:32 AM,68.6,68.52,68.554,1200,82265.0,8,68.62,68.458,68.544,53816,3688781.4272,228,68.525,68.6,68.46,68.59,,0.0012269938650307215,xom,20191202
2019-12-02,09:33,09:33 AM,68.54,68.47,68.499,2800,191796.0,12,68.58,68.46,68.499,45573,3121697.7173,270,68.535,68.49,68.58,68.49,,0.0005696757230499778,xom,20191202
2019-12-02,09:34,09:34 AM,68.555,68.51,68.528,1317,90251.17,5,68.58,68.47,68.527,28917,1981594.5013,134,68.555,68.51,68.495,68.49,,0.0009786736780602876,xom,20191202
2019-12-02,09:35,09:35 AM,68.58,68.5,68.566,1283,87970.5,6,68.6,68.49,68.549,36027,2469610.9466,201,68.5,68.58,68.49,68.59,,0.0013000292141398314,xom,20191202
2019-12-02,09:36,09:36 AM,68.64,68.565,68.594,6800,466438.0,24,68.66,68.55,68.605,37377,2564231.0321,163,68.58,68.64,68.59,68.62,,0.0021180251241602432,xom,20191202
2019-12-02,09:37,09:37 AM,68.635,68.55,68.59,969,66463.455,13,68.635,68.55,68.591,25324,1737010.8835,132,68.63,68.55,68.622,68.55,,0.0019135261466549844,xom,20191202
2019-12-02,09:38,09:38 AM,68.535,68.525,68.533,130,8909.25,2,68.555,68.52,68.527,47248,3237783.2165,211,68.535,68.525,68.55,68.53,,0.0009786736780602876,xom,20191202
2019-12-02,09:39,09:39 AM,68.52,68.47,68.489,755,51708.9,8,68.54,68.46,68.499,34983,2396284.4294,181,68.495,68.49,68.539,68.53,,0.0005696757230499778,xom,20191202
2019-12-02,09:40,09:40 AM,68.59,68.525,68.552,800,54841.5,8,68.6,68.51,68.546,26570,1821273.2379,121,68.525,68.59,68.51,68.575,,0.0012562080046744485,xom,20191202
2019-12-02,09:41,09:41 AM,68.69,68.62,68.649,427,29313.28,6,68.688,68.58,68.634,35338,2425376.4532,131,68.62,68.67,68.58,68.67,,0.0025416301489922088,xom,20191202
2019-12-02,09:42,09:42 AM,68.72,68.72,68.72,100,6872.0,1,68.73,68.65,68.684,28025,1924883.41,158,68.72,68.72,68.67,68.71,,0.0032719836400818547,xom,20191202
2019-12-02,09:43,09:43 AM,68.68,68.665,68.673,500,34336.5,5,68.71,68.657,68.683,29099,1998602.6131,113,68.675,68.665,68.71,68.67,,0.0032573765702601986,xom,20191202
2019-12-02,09:44,09:44 AM,68.75,68.68,68.713,411,28241.25,5,68.75,68.68,68.725,30309,2082976.7024,155,68.68,68.75,68.68,68.71,,0.003870873502775352,xom,20191202
2019-12-02,09:45,09:45 AM,68.7,68.65,68.675,200,13735.0,2,68.72,68.65,68.682,29619,2034292.2377,98,68.7,68.65,68.7,68.72,,0.0032427695004383352,xom,20191202
2019-12-02,09:46,09:46 AM,68.71,68.62,68.678,935,64214.1,8,68.74,68.6,68.648,105651,7252792.0518,354,68.71,68.66,68.71,68.67,,0.0027461291264972596,xom,20191202
2019-12-02,09:47,09:47 AM,68.65,68.605,68.638,224,15374.82,5,68.671,68.59,68.623,40796,2799542.1453,114,68.65,68.605,68.67,68.59,,0.0023809523809525408,xom,20191202
2019-12-02,09:48,09:48 AM,68.66,68.645,68.655,318,21832.38,2,68.72,68.619,68.653,23453,1610107.2981,62,68.645,68.66,68.62,68.72,,0.0028191644756063697,xom,20191202
2019-12-02,09:49,09:49 AM,68.62,68.62,68.62,100,6862.0,1,68.714,68.61,68.653,14199,974810.7009,74,68.62,68.62,68.714,68.65,,0.0028191644756063697,xom,20191202
2019-12-02,09:50,09:50 AM,68.72,68.655,68.67,354,24309.2,6,68.745,68.655,68.699,21313,1464180.855,129,68.655,68.72,68.655,68.7,,0.0034910896874087694,xom,20191202
2019-12-02,09:51,09:51 AM,68.81,68.74,68.772,401,27577.81,4,68.814,68.7,68.761,25126,1727699.451,109,68.77,68.81,68.7,68.81,,0.004396728016359947,xom,20191202
2019-12-02,09:52,09:52 AM,68.84,68.83,68.833,685,47150.55,5,68.85,68.78,68.817,22450,1544950.7568,127,68.835,68.835,68.79,68.84,,0.005214723926380359,xom,20191202
2019-12-02,09:53,09:53 AM,68.85,68.81,68.83,406,27944.89,5,68.86,68.79,68.838,22201,1528263.14,97,68.85,68.81,68.84,68.81,,0.005521472392638039,xom,20191202
2019-12-02,09:54,09:54 AM,68.84,68.835,68.838,200,13767.5,2,68.85,68.8,68.832,16260,1119213.5523,85,68.835,68.84,68.815,68.848,,0.005433829973707273,xom,20191202
2019-12-02,09:55,09:55 AM,68.855,68.84,68.851,500,34425.47,4,68.88,68.83,68.856,20032,1379319.8952,91,68.855,68.85,68.85,68.85,,0.005784399649430337,xom,20191202
2019-12-02,09:56,09:56 AM,68.83,68.795,68.827,110,7571.005,5,68.861,68.78,68.827,14470,995927.113,59,68.83,68.8,68.85,68.78,,0.005360794624598371,xom,20191202
2019-12-02,09:57,09:57 AM,,,,0,0.0,0,68.83,68.783,68.801,28377,1952378.9075,73,,,68.79,68.825,,0.0049810108092317885,xom,20191202
2019-12-02,09:58,09:58 AM,68.835,68.835,68.835,1658,114128.43,1,68.85,68.82,68.83,15176,1044571.5681,63,68.835,68.835,68.83,68.83,,0.005404615834063754,xom,20191202
2019-12-02,09:59,09:59 AM,68.85,68.81,68.811,206,14175.1,4,68.86,68.8,68.829,27738,1909193.5456,135,68.85,68.81,68.84,68.8,,0.00539000876424189,xom,20191202
2019-12-02,10:00,10 AM,68.805,68.64,68.782,526,36179.23,10,68.82,68.62,68.749,46619,3204987.3246,305,68.67,68.805,68.78,68.8,,0.004221443178498415,xom,20191202
2019-12-02,10:01,10:01 AM,68.82,68.82,68.82,100,6882.0,1,68.88,68.81,68.853,28313,1949429.14,105,68.82,68.82,68.81,68.81,,0.005740578439964954,xom,20191202
2019-12-02,10:02,10:02 AM,68.82,68.755,68.794,500,34397.0,4,68.83,68.715,68.772,27345,1880583.1219,176,68.82,68.755,68.82,68.74,,0.0045574057843998225,xom,20191202
2019-12-02,10:03,10:03 AM,68.75,68.705,68.715,870,59782.4,9,68.77,68.67,68.712,67431,4633325.2916,344,68.74,68.705,68.737,68.676,,0.003680981595092164,xom,20191202
2019-12-02,10:04,10:04 AM,68.66,68.61,68.637,786,53948.53,6,68.67,68.56,68.627,28833,1978739.161,189,68.66,68.61,68.67,68.56,,0.0024393806602395793,xom,20191202
2019-12-02,10:05,10:05 AM,68.58,68.53,68.55,588,40307.38,8,68.59,68.52,68.559,24091,1651653.0047,170,68.56,68.54,68.56,68.56,,0.001446099912357636,xom,20191202
2019-12-02,10:06,10:06 AM,68.59,68.56,68.57,1258,86260.98,5,68.6,68.555,68.575,23797,1631880.1037,136,68.565,68.59,68.57,68.595,,0.001679813029506414,xom,20191202
2019-12-02,10:07,10:07 AM,68.585,68.58,68.584,508,34840.68,7,68.625,68.57,68.584,28454,1951496.4252,168,68.585,68.585,68.595,68.6,,0.0018112766579025628,xom,20191202
2019-12-02,10:08,10:08 AM,68.62,68.56,68.581,895,61380.165,13,68.62,68.55,68.585,35548,2438048.579,193,68.62,68.56,68.605,68.56,,0.0018258837277242187,xom,20191202
2019-12-02,10:09,10:09 AM,68.58,68.57,68.57,103,7062.73,3,68.59,68.54,68.56,14970,1026346.8378,98,68.575,68.58,68.57,68.59,,0.0014607069821794994,xom,20191202
2019-12-02,10:10,10:10 AM,68.64,68.555,68.605,742,50904.91,10,68.64,68.54,68.575,30377,2083106.2362,152,68.56,68.64,68.584,68.64,,0.001679813029506414,xom,20191202
2019-12-02,10:11,10:11 AM,68.695,68.65,68.674,240,16481.9,3,68.71,68.61,68.663,30486,2093255.7111,153,68.685,68.65,68.65,68.68,,0.0029652351738241743,xom,20191202
2019-12-02,10:12,10:12 AM,68.645,68.63,68.638,303,20797.39,4,68.69,68.6,68.634,15863,1088746.147,76,68.64,68.645,68.69,68.645,,0.0025416301489922088,xom,20191202
2019-12-02,10:13,10:13 AM,68.68,68.68,68.68,100,6868.0,1,68.68,68.624,68.662,12466,855937.6249,78,68.68,68.68,68.663,68.65,,0.0029506281040025182,xom,20191202
2019-12-02,10:14,10:14 AM,68.65,68.65,68.65,3,205.95,1,68.69,68.635,68.658,8987,617030.901,52,68.65,68.65,68.66,68.674,,0.002892199824715272,xom,20191202
2019-12-02,10:15,10:15 AM,68.65,68.64,68.645,6,411.87,2,68.69,68.63,68.644,12038,826342.8313,63,68.65,68.64,68.69,68.66,,0.002687700847210221,xom,20191202
2019-12-02,10:16,10:16 AM,68.705,68.675,68.691,223,15318.155,3,68.71,68.66,68.682,19495,1338955.7321,72,68.675,68.685,68.665,68.69,,0.0032427695004383352,xom,20191202
2019-12-02,10:17,10:17 AM,68.68,68.665,68.668,406,27879.08,3,68.7,68.66,68.681,9286,637771.1042,55,68.665,68.68,68.69,68.68,,0.003228162430616472,xom,20191202
2019-12-02,10:18,10:18 AM,68.66,68.625,68.631,211,14481.165,6,68.68,68.6,68.647,9806,673157.3492,62,68.66,68.625,68.674,68.6,,0.002731522056675604,xom,20191202
2019-12-02,10:19,10:19 AM,68.575,68.54,68.549,1215,83287.695,11,68.6,68.53,68.567,22558,1546735.21,130,68.57,68.545,68.6,68.545,,0.0015629564709319212,xom,20191202
2019-12-02,10:20,10:20 AM,68.545,68.475,68.504,608,41650.615,18,68.545,68.47,68.516,11937,817869.728,57,68.545,68.475,68.545,68.47,,0.0008179959100206194,xom,20191202
2019-12-02,10:21,10:21 AM,68.5,68.5,68.5,3,205.5,1,68.507,68.461,68.491,16212,1110372.6069,53,68.5,68.5,68.461,68.49,,0.0004528191644756926,xom,20191202
2019-12-02,10:22,10:22 AM,68.5,68.5,68.5,103,7055.5,2,68.51,68.48,68.494,9151,626788.895,43,68.5,68.5,68.49,68.49,,0.0004966403739410755,xom,20191202
2019-12-02,10:23,10:23 AM,68.495,68.435,68.468,414,28345.725,6,68.5,68.43,68.461,17502,1198199.79,98,68.495,68.46,68.495,68.48,,1.4607069821863497e-05,xom,20191202
2019-12-02,10:24,10:24 AM,68.455,68.44,68.454,14,958.355,3,68.48,68.44,68.455,9020,617466.377,57,68.44,68.455,68.48,68.455,,-7.303534910890232e-05,xom,20191202
2019-12-02,10:25,10:25 AM,68.49,68.445,68.469,387,26497.475,6,68.52,68.445,68.494,14319,980764.2209,73,68.45,68.49,68.46,68.491,,0.0004966403739410755,xom,20191202
2019-12-02,10:26,10:26 AM,68.49,68.465,68.479,403,27596.91,4,68.51,68.465,68.49,18332,1255568.021,76,68.49,68.465,68.495,68.465,,0.0004382120946538291,xom,20191202
2019-12-02,10:27,10:27 AM,,,,0,0.0,0,68.47,68.45,68.459,10179,696840.5491,66,,,68.46,68.467,,-1.4607069821655918e-05,xom,20191202
2019-12-02,10:28,10:28 AM,68.505,68.465,68.481,426,29173.11,7,68.51,68.465,68.493,10231,700752.5687,66,68.465,68.505,68.465,68.51,,0.000482033304119212,xom,20191202
2019-12-02,10:29,10:29 AM,68.55,68.525,68.543,1151,78892.55,9,68.56,68.515,68.539,16767,1149196.2175,111,68.525,68.535,68.515,68.56,,0.0011539585159218192,xom,20191202
2019-12-02,10:30,10:30 AM,68.525,68.525,68.525,300,20557.5,3,68.56,68.49,68.52,16228,1111939.322,98,68.525,68.525,68.56,68.493,,0.0008764241893076582,xom,20191202
2019-12-02,10:31,10:31 AM,68.495,68.49,68.494,39,2671.285,2,68.51,68.46,68.479,11982,820513.7805,77,68.49,68.495,68.495,68.49,,0.00027753432661416097,xom,20191202
2019-12-02,10:32,10:32 AM,68.48,68.48,68.48,100,6848.0,1,68.497,68.455,68.478,11800,808046.5945,66,68.48,68.48,68.489,68.48,,0.0002629272567922975,xom,20191202
2019-12-02,10:33,10:33 AM,68.51,68.48,68.503,406,27812.4,6,68.51,68.484,68.496,16113,1103681.9815,71,68.49,68.48,68.49,68.491,,0.000525854513584595,xom,20191202
2019-12-02,10:34,10:34 AM,68.605,68.485,68.567,305,20912.89,5,68.605,68.485,68.561,19071,1307526.1804,123,68.485,68.6,68.495,68.6,,0.001475314052001363,xom,20191202
2019-12-02,10:35,10:35 AM,68.54,68.4,68.487,537,36777.505,9,68.59,68.4,68.463,94463,6467251.667,583,68.54,68.52,68.59,68.534,,4.382120946538291e-05,xom,20191202
2019-12-02,10:36,10:36 AM,68.56,68.51,68.536,253,17339.53,3,68.59,68.49,68.537,18319,1255524.85,119,68.51,68.56,68.52,68.59,,0.0011247443762782998,xom,20191202
2019-12-02,10:37,10:37 AM,68.66,68.66,68.66,100,6866.0,1,68.66,68.58,68.641,18779,1289013.5733,118,68.66,68.66,68.58,68.65,,0.002643879637744838,xom,20191202
2019-12-02,10:38,10:38 AM,68.71,68.67,68.688,507,34824.9,6,68.72,68.65,68.689,26730,1836059.4435,113,68.695,68.67,68.65,68.661,,0.003345018989190757,xom,20191202
2019-12-02,10:39,10:39 AM,68.66,68.66,68.66,100,6866.0,1,68.666,68.64,68.651,3141,215634.3924,23,68.66,68.66,68.666,68.65,,0.0027899503359626425,xom,20191202
2019-12-02,10:40,10:40 AM,68.63,68.595,68.618,300,20585.5,3,68.655,68.59,68.636,14845,1018900.042,83,68.63,68.595,68.652,68.595,,0.0025708442886357282,xom,20191202
2019-12-02,10:41,10:41 AM,68.61,68.605,68.605,106,7272.16,2,68.64,68.58,68.611,16052,1101343.237,112,68.605,68.61,68.59,68.64,,0.002205667543091009,xom,20191202
2019-12-02,10:42,10:42 AM,68.715,68.715,68.715,100,6871.5,1,68.715,68.63,68.671,21804,1497309.087,112,68.715,68.715,68.65,68.7,,0.0030820917323986672,xom,20191202
2019-12-02,10:43,10:43 AM,,,,0,0.0,0,68.72,68.66,68.686,17438,1197743.162,90,,,68.7,68.68,,0.0033011977797255815,xom,20191202
2019-12-02,10:44,10:44 AM,68.7,68.67,68.679,291,19985.61,4,68.702,68.67,68.691,6279,431310.2065,34,68.67,68.7,68.671,68.698,,0.003374233128834484,xom,20191202
2019-12-02,10:45,10:45 AM,68.67,68.64,68.648,206,14141.52,3,68.69,68.64,68.661,7803,535762.4349,54,68.655,68.67,68.69,68.67,,0.002936021034180655,xom,20191202
2019-12-02,10:46,10:46 AM,68.665,68.665,68.665,100,6866.5,1,68.678,68.65,68.656,14550,998938.4268,34,68.665,68.665,68.67,68.669,,0.0028629856850717525,xom,20191202
2019-12-02,10:47,10:47 AM,68.61,68.585,68.595,27,1852.065,3,68.67,68.57,68.611,11907,816952.7282,89,68.605,68.585,68.67,68.57,,0.002205667543091009,xom,20191202
2019-12-02,10:48,10:48 AM,68.615,68.575,68.596,585,40128.875,6,68.62,68.57,68.596,11286,774172.7445,77,68.575,68.605,68.57,68.606,,0.0019865614957640942,xom,20191202
2019-12-02,10:49,10:49 AM,68.66,68.66,68.66,100,6866.0,1,68.66,68.62,68.634,12098,830333.1711,62,68.66,68.66,68.62,68.655,,0.0025416301489922088,xom,20191202
2019-12-02,10:50,10:50 AM,68.62,68.62,68.62,100,6862.0,2,68.67,68.62,68.661,23247,1596154.6934,64,68.62,68.62,68.645,68.65,,0.002936021034180655,xom,20191202
2019-12-02,10:51,10:51 AM,68.63,68.58,68.589,111,7613.39,4,68.65,68.58,68.62,14587,1000952.8821,93,68.63,68.585,68.65,68.6,,0.0023371311714871575,xom,20191202
2019-12-02,10:52,10:52 AM,,,,0,0.0,0,68.625,68.59,68.606,9856,676180.2,64,,,68.61,68.605,,0.002132632193981899,xom,20191202
2019-12-02,10:53,10:53 AM,68.62,68.59,68.613,142,9743.1,4,68.636,68.589,68.606,7298,500683.6528,47,68.59,68.61,68.595,68.626,,0.002132632193981899,xom,20191202
2019-12-02,10:54,10:54 AM,68.675,68.66,68.668,200,13733.5,2,68.68,68.62,68.659,18554,1273900.7302,92,68.66,68.675,68.63,68.653,,0.0029068068945371354,xom,20191202
2019-12-02,10:55,10:55 AM,68.65,68.65,68.65,300,20595.0,3,68.66,68.635,68.648,11420,783965.8891,76,68.65,68.65,68.65,68.635,,0.0027461291264972596,xom,20191202
2019-12-02,10:56,10:56 AM,68.645,68.58,68.592,300,20577.52,4,68.65,68.57,68.603,17943,1230940.9593,97,68.645,68.58,68.63,68.57,,0.002088810984516516,xom,20191202
2019-12-02,10:57,10:57 AM,68.66,68.575,68.61,339,23258.68,4,68.66,68.565,68.617,30340,2081836.8096,167,68.575,68.66,68.575,68.605,,0.0022933099620217746,xom,20191202
2019-12-02,10:58,10:58 AM,68.595,68.545,68.557,1331,91249.3,8,68.606,68.54,68.569,23938,1641409.4162,146,68.595,68.55,68.6,68.54,,0.0015921706105756482,xom,20191202
2019-12-02,10:59,10:59 AM,68.54,68.54,68.54,6,411.24,1,68.568,68.53,68.549,11582,793931.2788,53,68.54,68.54,68.54,68.565,,0.0013000292141398314,xom,20191202
2019-12-02,11:00,11 AM,68.605,68.565,68.589,402,27572.67,5,68.61,68.553,68.584,16172,1109135.0419,101,68.565,68.585,68.57,68.59,,0.0018112766579025628,xom,20191202
2019-12-02,11:01,11:01 AM,68.555,68.515,68.555,706,48399.605,7,68.58,68.5,68.526,18954,1298852.9614,102,68.555,68.52,68.58,68.525,,0.000964066608238424,xom,20191202
2019-12-02,11:02,11:02 AM,68.525,68.495,68.506,531,36376.48,11,68.525,68.495,68.505,23415,1604037.5904,87,68.525,68.505,68.525,68.52,,0.0006573181419807436,xom,20191202
2019-12-02,11:03,11:03 AM,68.53,68.5,68.515,205,14045.525,3,68.535,68.5,68.511,7538,516433.616,54,68.53,68.505,68.52,68.505,,0.0007449605609115094,xom,20191202
2019-12-02,11:04,11:04 AM,68.495,68.495,68.495,100,6849.5,1,68.52,68.48,68.49,7646,523678.2055,49,68.495,68.495,68.505,68.495,,0.0004382120946538291,xom,20191202
2019-12-02,11:05,11:05 AM,68.505,68.505,68.505,1,68.505,1,68.523,68.485,68.5,7379,505462.2846,31,68.505,68.505,68.49,68.523,,0.0005842827928718413,xom,20191202
2019-12-02,11:06,11:06 AM,68.535,68.525,68.531,297,20353.885,6,68.56,68.52,68.537,7116,487706.3455,54,68.53,68.535,68.52,68.534,,0.0011247443762782998,xom,20191202
2019-12-02,11:07,11:07 AM,68.52,68.49,68.502,554,37950.23,4,68.54,68.49,68.506,14557,997242.9202,71,68.52,68.505,68.54,68.49,,0.0006719252118026071,xom,20191202
2019-12-02,11:08,11:08 AM,68.505,68.48,68.501,1068,73158.76,7,68.52,68.48,68.492,16127,1104574.2227,63,68.495,68.485,68.49,68.485,,0.0004674262342975561,xom,20191202
2019-12-02,11:09,11:09 AM,68.52,68.475,68.485,848,58075.03,9,68.52,68.47,68.482,11474,785761.7609,63,68.475,68.52,68.48,68.51,,0.0003213555360795439,xom,20191202
2019-12-02,11:10,11:10 AM,68.49,68.49,68.49,101,6917.49,2,68.515,68.46,68.484,10702,732917.006,72,68.49,68.49,68.515,68.49,,0.0003505696757230633,xom,20191202
2019-12-02,11:11,11:11 AM,68.5,68.49,68.499,131,8973.4,4,68.53,68.483,68.498,24357,1668404.3146,122,68.5,68.5,68.5,68.52,,0.0005550686532283219,xom,20191202
2019-12-02,11:12,11:12 AM,68.49,68.49,68.49,2,136.98,1,68.52,68.481,68.498,8988,615664.0212,64,68.49,68.49,68.52,68.5,,0.0005550686532283219,xom,20191202
2019-12-02,11:13,11:13 AM,68.495,68.47,68.482,213,14586.635,4,68.495,68.46,68.475,24207,1657586.6715,103,68.475,68.495,68.49,68.48,,0.00021910604732691455,xom,20191202
2019-12-02,11:14,11:14 AM,68.51,68.475,68.491,169,11574.965,9,68.535,68.475,68.5,14652,1003657.8148,62,68.475,68.51,68.48,68.535,,0.0005842827928718413,xom,20191202
2019-12-02,11:15,11:15 AM,68.57,68.505,68.529,338,23162.67,7,68.58,68.503,68.54,18697,1281492.3135,117,68.55,68.57,68.54,68.58,,0.0011685655857436826,xom,20191202
2019-12-02,11:16,11:16 AM,68.58,68.55,68.561,199,13643.54,3,68.59,68.552,68.572,8940,613029.7799,54,68.57,68.58,68.57,68.585,,0.0016359918200410312,xom,20191202
2019-12-02,11:17,11:17 AM,68.57,68.545,68.566,985,67537.395,9,68.58,68.54,68.562,18389,1260780.4915,97,68.565,68.55,68.58,68.55,,0.0014899211218230189,xom,20191202
2019-12-02,11:18,11:18 AM,68.55,68.53,68.54,200,13708.0,2,68.57,68.53,68.554,6996,479606.1256,48,68.55,68.53,68.55,68.565,,0.0013730645632487337,xom,20191202
2019-12-02,11:19,11:19 AM,68.63,68.575,68.624,110,7548.69,3,68.665,68.555,68.592,18881,1295089.5598,86,68.575,68.63,68.57,68.665,,0.001928133216476848,xom,20191202
2019-12-02,11:20,11:20 AM,68.68,68.625,68.666,549,37697.455,11,68.69,68.622,68.66,44773,3074102.9634,212,68.67,68.63,68.668,68.67,,0.0029214139643587915,xom,20191202
2019-12-02,11:21,11:21 AM,68.62,68.615,68.615,101,6930.12,2,68.663,68.61,68.635,15128,1038318.9271,65,68.615,68.62,68.663,68.62,,0.002556237218814072,xom,20191202
2019-12-02,11:22,11:22 AM,68.65,68.63,68.63,205,14069.25,3,68.66,68.615,68.633,9172,629504.097,44,68.63,68.65,68.625,68.65,,0.0025270230791703454,xom,20191202
2019-12-02,11:23,11:23 AM,68.69,68.655,68.675,138,9477.17,4,68.695,68.642,68.683,16945,1163825.84,67,68.655,68.69,68.642,68.685,,0.0032573765702601986,xom,20191202
2019-12-02,11:24,11:24 AM,68.69,68.65,68.66,617,42363.22,8,68.7,68.65,68.687,16279,1118158.2542,71,68.69,68.65,68.69,68.65,,0.0033158048495472376,xom,20191202
2019-12-02,11:25,11:25 AM,68.675,68.64,68.665,88,6042.505,6,68.68,68.64,68.656,15796,1084490.9493,86,68.675,68.67,68.66,68.66,,0.0028629856850717525,xom,20191202
2019-12-02,11:26,11:26 AM,68.69,68.675,68.677,305,20946.45,4,68.686,68.66,68.672,15631,1073411.1781,76,68.68,68.69,68.67,68.67,,0.003096698802220323,xom,20191202
2019-12-02,11:27,11:27 AM,68.67,68.66,68.663,339,23276.85,6,68.72,68.66,68.68,39874,2738564.6696,158,68.67,68.67,68.69,68.72,,0.0032135553607948158,xom,20191202
2019-12-02,11:28,11:28 AM,68.715,68.7,68.71,602,41363.4,7,68.72,68.68,68.703,17824,1224558.2365,79,68.715,68.71,68.715,68.7,,0.0035495179666960156,xom,20191202
2019-12-02,11:29,11:29 AM,68.735,68.72,68.728,300,20618.5,3,68.75,68.704,68.722,16515,1134946.9031,106,68.73,68.72,68.706,68.71,,0.003827052293309969,xom,20191202
2019-12-02,11:30,11:30 AM,68.71,68.68,68.7,120,8244.05,5,68.71,68.67,68.695,23314,1601553.7746,128,68.7,68.71,68.71,68.675,,0.0034326614081215227,xom,20191202
2019-12-02,11:31,11:31 AM,68.635,68.635,68.635,1,68.635,1,68.67,68.63,68.65,16411,1126608.5611,82,68.635,68.635,68.67,68.67,,0.002775343266140987,xom,20191202
2019-12-02,11:32,11:32 AM,68.65,68.605,68.646,205,14072.475,5,68.68,68.6,68.64,7810,536075.9638,46,68.65,68.605,68.67,68.6,,0.0026292725679229745,xom,20191202
2019-12-02,11:33,11:33 AM,68.615,68.595,68.601,133,9123.915,8,68.615,68.59,68.6,32718,2244452.1185,119,68.605,68.595,68.61,68.6,,0.002044989775051133,xom,20191202
2019-12-02,11:34,11:34 AM,68.635,68.615,68.633,114,7824.21,3,68.65,68.61,68.633,11167,766423.3848,56,68.615,68.635,68.61,68.635,,0.0025270230791703454,xom,20191202
2019-12-02,11:35,11:35 AM,68.66,68.63,68.652,404,27735.52,6,68.675,68.63,68.659,10040,689331.737,56,68.63,68.66,68.63,68.66,,0.0029068068945371354,xom,20191202
2019-12-02,11:36,11:36 AM,68.655,68.655,68.655,14,961.17,2,68.664,68.63,68.648,9306,638838.8211,68,68.655,68.655,68.66,68.635,,0.0027461291264972596,xom,20191202
2019-12-02,11:37,11:37 AM,68.675,68.655,68.666,411,28221.725,6,68.68,68.65,68.664,7032,482846.0455,50,68.67,68.655,68.65,68.66,,0.0029798422436460377,xom,20191202
2019-12-02,11:38,11:38 AM,68.675,68.655,68.667,1901,130536.565,16,68.695,68.65,68.669,11489,788939.7948,59,68.655,68.675,68.66,68.69,,0.00305287759275494,xom,20191202
2019-12-02,11:39,11:39 AM,68.715,68.69,68.705,1415,97217.49,17,68.72,68.685,68.705,17909,1230431.1282,97,68.69,68.71,68.69,68.71,,0.003578732106339535,xom,20191202
2019-12-02,11:40,11:40 AM,68.715,68.68,68.7,833,57227.135,13,68.73,68.68,68.696,10514,722274.716,72,68.71,68.685,68.71,68.7,,0.003447268477943386,xom,20191202
2019-12-02,11:41,11:41 AM,68.705,68.695,68.7,122,8381.44,4,68.7,68.675,68.698,14961,1027799.0699,41,68.7,68.695,68.695,68.675,,0.0034764826175869056,xom,20191202
2019-12-02,11:42,11:42 AM,,,,0,0.0,0,68.687,68.66,68.671,12560,862511.5467,73,,,68.674,68.67,,0.0030820917323986672,xom,20191202
2019-12-02,11:43,11:43 AM,68.68,68.615,68.663,233,15998.48,6,68.68,68.615,68.661,20610,1415098.3368,108,68.66,68.615,68.67,68.621,,0.002936021034180655,xom,20191202
2019-12-02,11:44,11:44 AM,68.63,68.61,68.625,610,41861.305,7,68.63,68.61,68.62,6320,433678.0682,27,68.63,68.625,68.63,68.63,,0.0023371311714871575,xom,20191202
2019-12-02,11:45,11:45 AM,68.655,68.635,68.648,267,18328.975,9,68.66,68.635,68.646,7477,513265.4144,39,68.635,68.655,68.635,68.655,,0.00271691498685374,xom,20191202
2019-12-02,11:46,11:46 AM,68.665,68.655,68.662,132,9063.32,7,68.67,68.647,68.656,4926,338197.5249,28,68.655,68.665,68.66,68.667,,0.0028629856850717525,xom,20191202
2019-12-02,11:47,11:47 AM,68.695,68.665,68.679,881,60506.17,14,68.7,68.668,68.686,25646,1761513.1733,100,68.665,68.695,68.668,68.69,,0.0033011977797255815,xom,20191202
2019-12-02,11:48,11:48 AM,68.71,68.685,68.699,214,14701.595,8,68.71,68.684,68.7,7341,504325.0066,42,68.685,68.71,68.685,68.71,,0.003505696757230633,xom,20191202
2019-12-02,11:49,11:49 AM,68.71,68.69,68.707,420,28856.93,6,68.72,68.689,68.708,12865,883930.0818,49,68.705,68.69,68.71,68.689,,0.003622553315804918,xom,20191202
2019-12-02,11:50,11:50 AM,68.685,68.665,68.668,681,46762.86,8,68.694,68.665,68.676,11699,803444.0327,68,68.68,68.685,68.68,68.69,,0.0031551270815075695,xom,20191202
2019-12-02,11:51,11:51 AM,68.705,68.675,68.687,607,41692.91,14,68.71,68.673,68.691,14984,1029266.3724,75,68.69,68.68,68.69,68.68,,0.003374233128834484,xom,20191202
2019-12-02,11:52,11:52 AM,68.69,68.67,68.685,412,28298.18,3,68.69,68.65,68.673,21106,1449404.8001,118,68.67,68.69,68.684,68.68,,0.0031113058720421867,xom,20191202
2019-12-02,11:53,11:53 AM,68.675,68.67,68.674,652,44775.6,4,68.68,68.655,68.669,7583,520717.796,39,68.675,68.67,68.673,68.658,,0.00305287759275494,xom,20191202
2019-12-02,11:54,11:54 AM,68.665,68.65,68.656,8612,591261.8,5,68.67,68.63,68.648,41918,2877590.1007,112,68.655,68.665,68.655,68.666,,0.0027461291264972596,xom,20191202
2019-12-02,11:55,11:55 AM,68.645,68.645,68.645,62,4255.99,2,68.665,68.635,68.648,7190,493580.7477,53,68.645,68.645,68.66,68.655,,0.0027461291264972596,xom,20191202
2019-12-02,11:56,11:56 AM,68.7,68.695,68.695,502,34484.9,5,68.7,68.655,68.683,11330,778181.795,53,68.695,68.7,68.66,68.69,,0.0032573765702601986,xom,20191202
2019-12-02,11:57,11:57 AM,68.695,68.665,68.694,2609,179223.485,4,68.697,68.655,68.679,12532,860680.6666,47,68.695,68.665,68.685,68.655,,0.0031989482909729524,xom,20191202
2019-12-02,11:58,11:58 AM,68.675,68.655,68.674,3924,269476.7,17,68.68,68.655,68.673,10482,719828.4311,54,68.655,68.675,68.655,68.675,,0.0031113058720421867,xom,20191202
2019-12-02,11:59,11:59 AM,68.675,68.635,68.655,2211,151796.595,16,68.68,68.63,68.65,18952,1301056.5462,105,68.675,68.635,68.674,68.637,,0.002775343266140987,xom,20191202
2019-12-02,12:00,12 PM,68.66,68.635,68.651,4624,317444.01,38,68.66,68.635,68.647,24813,1703348.5138,100,68.635,68.635,68.635,68.635,,0.002731522056675604,xom,20191202
2019-12-02,12:01,12:01 PM,68.665,68.645,68.654,3238,222303.575,21,68.669,68.64,68.655,17860,1226173.269,82,68.655,68.665,68.64,68.665,,0.002848378615249889,xom,20191202
2019-12-02,12:02,12:02 PM,68.665,68.62,68.655,2302,158043.83,18,68.675,68.62,68.644,18216,1250412.5935,110,68.665,68.625,68.67,68.63,,0.002687700847210221,xom,20191202
2019-12-02,12:03,12:03 PM,68.625,68.59,68.613,514,35267.29,8,68.635,68.58,68.606,19203,1317438.1249,88,68.625,68.59,68.63,68.61,,0.002132632193981899,xom,20191202
2019-12-02,12:04,12:04 PM,68.655,68.62,68.624,118,8097.62,6,68.66,68.618,68.64,11814,810912.9597,62,68.645,68.62,68.62,68.643,,0.0026292725679229745,xom,20191202
2019-12-02,12:05,12:05 PM,68.67,68.665,68.669,120,8240.3,3,68.67,68.63,68.658,6979,479166.4702,42,68.67,68.665,68.645,68.665,,0.002892199824715272,xom,20191202
2019-12-02,12:06,12:06 PM,68.655,68.64,68.647,201,13798.15,4,68.66,68.64,68.649,9238,634178.5402,45,68.65,68.655,68.66,68.64,,0.0027607361963191235,xom,20191202
2019-12-02,12:07,12:07 PM,68.65,68.65,68.65,2,137.3,1,68.665,68.642,68.653,4327,297061.0048,18,68.65,68.65,68.65,68.652,,0.0028191644756063697,xom,20191202
2019-12-02,12:08,12:08 PM,,,,0,0.0,0,68.69,68.65,68.674,12213,838717.1046,52,,,68.65,68.677,,0.00312591294186405,xom,20191202
2019-12-02,12:09,12:09 PM,68.675,68.64,68.657,200,13731.5,2,68.68,68.64,68.663,5535,380047.6392,41,68.675,68.64,68.677,68.645,,0.0029652351738241743,xom,20191202
2019-12-02,12:10,12:10 PM,68.675,68.645,68.65,120,8238.0,2,68.673,68.64,68.65,5415,371740.2213,33,68.645,68.675,68.646,68.67,,0.002775343266140987,xom,20191202
2019-12-02,12:11,12:11 PM,68.665,68.665,68.665,3,205.995,1,68.68,68.651,68.672,9326,640438.1678,31,68.665,68.665,68.68,68.66,,0.003096698802220323,xom,20191202
2019-12-02,12:12,12:12 PM,68.65,68.63,68.64,458,31437.22,5,68.66,68.63,68.639,7173,492351.8485,25,68.65,68.63,68.66,68.631,,0.002614665498101111,xom,20191202
2019-12-02,12:13,12:13 PM,68.635,68.605,68.61,143,9811.285,12,68.64,68.61,68.625,9173,629497.6819,61,68.635,68.605,68.64,68.61,,0.00241016652059606,xom,20191202
2019-12-02,12:14,12:14 PM,68.605,68.595,68.6,411,28194.595,10,68.62,68.584,68.597,9523,653249.2294,49,68.605,68.595,68.6,68.595,,0.0020011685655857503,xom,20191202
2019-12-02,12:15,12:15 PM,68.62,68.59,68.601,275,18865.41,9,68.62,68.59,68.606,25484,1748342.5761,104,68.595,68.62,68.59,68.6,,0.002132632193981899,xom,20191202
2019-12-02,12:16,12:16 PM,68.595,68.585,68.592,24,1646.2,5,68.6,68.58,68.592,6918,474520.2837,35,68.595,68.595,68.595,68.595,,0.001928133216476848,xom,20191202
2019-12-02,12:17,12:17 PM,68.605,68.595,68.602,288,19757.31,8,68.61,68.595,68.603,6819,467802.085,39,68.595,68.6,68.595,68.6,,0.002088810984516516,xom,20191202
2019-12-02,12:18,12:18 PM,68.595,68.555,68.578,322,22082.235,12,68.6,68.55,68.574,12891,883991.8198,80,68.585,68.565,68.6,68.57,,0.0016652059596845505,xom,20191202
2019-12-02,12:19,12:19 PM,68.585,68.575,68.577,37,2537.335,4,68.59,68.56,68.577,10608,727462.9578,56,68.575,68.58,68.57,68.565,,0.0017090271691499335,xom,20191202
2019-12-02,12:20,12:20 PM,68.58,68.575,68.575,344,23589.885,16,68.58,68.57,68.579,19361,1327759.43,81,68.575,68.575,68.58,68.572,,0.0017382413087934528,xom,20191202
2019-12-02,12:21,12:21 PM,68.58,68.55,68.558,219,15014.21,7,68.57,68.55,68.56,10232,701510.87,55,68.565,68.565,68.57,68.564,,0.0014607069821794994,xom,20191202
2019-12-02,12:22,12:22 PM,68.555,68.545,68.554,112,7678.05,4,68.564,68.54,68.552,10749,736865.4925,65,68.555,68.545,68.564,68.547,,0.0013438504236052142,xom,20191202
2019-12-02,12:23,12:23 PM,68.545,68.535,68.544,180,12337.94,9,68.55,68.53,68.54,12270,840988.831,53,68.545,68.545,68.543,68.55,,0.0011685655857436826,xom,20191202
2019-12-02,12:24,12:24 PM,68.57,68.555,68.569,114,7816.86,5,68.57,68.54,68.558,7277,498893.0374,40,68.555,68.57,68.558,68.54,,0.0014314928425359801,xom,20191202
2019-12-02,12:25,12:25 PM,68.545,68.535,68.543,7,479.805,4,68.57,68.535,68.552,3534,242263.786,24,68.545,68.545,68.54,68.57,,0.0013438504236052142,xom,20191202
2019-12-02,12:26,12:26 PM,68.58,68.55,68.558,1105,75756.52,16,68.59,68.55,68.575,36860,2527665.1323,186,68.575,68.56,68.57,68.561,,0.001679813029506414,xom,20191202
2019-12-02,12:27,12:27 PM,68.555,68.515,68.541,312,21384.84,7,68.57,68.51,68.539,18194,1246996.626,110,68.555,68.515,68.567,68.53,,0.0011539585159218192,xom,20191202
2019-12-02,12:28,12:28 PM,68.51,68.43,68.49,2022,138486.94,23,68.53,68.42,68.48,76028,5206398.0643,423,68.51,68.495,68.53,68.515,,0.00029214139643602446,xom,20191202
2019-12-02,12:29,12:29 PM,68.51,68.5,68.506,266,18222.59,9,68.52,68.49,68.505,29477,2019334.059,123,68.51,68.51,68.52,68.5,,0.0006573181419807436,xom,20191202
2019-12-02,12:30,12:30 PM,68.54,68.515,68.529,726,49752.29,9,68.55,68.5,68.53,16812,1152126.476,111,68.515,68.535,68.5,68.55,,0.0010224948875256705,xom,20191202
2019-12-02,12:31,12:31 PM,68.55,68.545,68.546,813,55728.055,7,68.57,68.536,68.546,19350,1326369.8889,109,68.545,68.545,68.55,68.558,,0.0012562080046744485,xom,20191202
2019-12-02,12:32,12:32 PM,68.57,68.555,68.555,201,13779.57,3,68.575,68.55,68.56,12068,827377.4653,61,68.555,68.57,68.56,68.565,,0.0014607069821794994,xom,20191202
2019-12-02,12:33,12:33 PM,68.565,68.545,68.56,469,32154.815,8,68.57,68.535,68.555,9540,654010.8274,54,68.565,68.545,68.565,68.555,,0.001387671633070597,xom,20191202
2019-12-02,12:34,12:34 PM,68.56,68.56,68.56,2,137.12,1,68.57,68.545,68.557,6330,433964.885,44,68.56,68.56,68.555,68.56,,0.0014168857727141165,xom,20191202
2019-12-02,12:35,12:35 PM,68.535,68.52,68.533,121,8292.495,3,68.557,68.515,68.539,5844,400542.3676,34,68.535,68.52,68.556,68.515,,0.0011539585159218192,xom,20191202
2019-12-02,12:36,12:36 PM,68.52,68.485,68.514,599,41040.245,8,68.53,68.484,68.508,15390,1054332.6249,101,68.515,68.5,68.51,68.503,,0.0007011393514461266,xom,20191202
2019-12-02,12:37,12:37 PM,68.49,68.49,68.49,100,6849.0,1,68.505,68.49,68.492,7368,504646.5869,55,68.49,68.49,68.5,68.49,,0.0004674262342975561,xom,20191202
2019-12-02,12:38,12:38 PM,68.49,68.49,68.49,200,13698.0,2,68.5,68.49,68.493,7476,512053.067,52,68.49,68.49,68.494,68.49,,0.000482033304119212,xom,20191202
2019-12-02,12:39,12:39 PM,68.5,68.495,68.495,363,24863.695,5,68.5,68.49,68.496,11206,767561.399,60,68.495,68.5,68.49,68.49,,0.000525854513584595,xom,20191202
2019-12-02,12:40,12:40 PM,68.485,68.465,68.475,405,27732.22,9,68.496,68.46,68.478,31759,2174780.6582,96,68.475,68.485,68.496,68.47,,0.0002629272567922975,xom,20191202
2019-12-02,12:41,12:41 PM,68.49,68.47,68.481,403,27597.94,5,68.495,68.47,68.481,20256,1387149.5221,116,68.48,68.49,68.47,68.495,,0.0003067484662576804,xom,20191202
2019-12-02,12:42,12:42 PM,68.49,68.465,68.467,115,7873.745,4,68.5,68.46,68.478,6294,431000.1178,46,68.475,68.49,68.49,68.491,,0.0002629272567922975,xom,20191202
2019-12-02,12:43,12:43 PM,68.505,68.505,68.505,100,6850.5,1,68.54,68.49,68.515,5191,355662.4108,37,68.505,68.505,68.49,68.54,,0.0008033888401987559,xom,20191202
2019-12-02,12:44,12:44 PM,68.565,68.53,68.535,205,14049.765,4,68.57,68.53,68.546,9685,663872.9557,61,68.53,68.565,68.53,68.57,,0.0012562080046744485,xom,20191202
2019-12-02,12:45,12:45 PM,68.56,68.54,68.549,23,1576.625,5,68.58,68.53,68.553,8616,590652.6415,53,68.56,68.54,68.569,68.53,,0.00135845749342687,xom,20191202
2019-12-02,12:46,12:46 PM,68.535,68.51,68.515,213,14593.705,4,68.54,68.5,68.515,8584,588132.7724,52,68.535,68.515,68.53,68.505,,0.0008033888401987559,xom,20191202
2019-12-02,12:47,12:47 PM,68.505,68.49,68.502,33,2260.57,20,68.51,68.49,68.499,6894,472231.4017,41,68.49,68.505,68.51,68.5,,0.0005696757230499778,xom,20191202
2019-12-02,12:48,12:48 PM,68.49,68.465,68.485,317,21709.66,7,68.5,68.469,68.487,15165,1038610.4977,81,68.485,68.49,68.5,68.5,,0.0003943908851884462,xom,20191202
2019-12-02,12:49,12:49 PM,68.5,68.475,68.496,402,27535.45,7,68.507,68.479,68.492,12997,890195.8692,73,68.495,68.475,68.495,68.479,,0.0004674262342975561,xom,20191202
2019-12-02,12:50,12:50 PM,68.505,68.485,68.491,14,958.87,3,68.505,68.47,68.487,21614,1480289.5856,84,68.485,68.505,68.48,68.49,,0.0003943908851884462,xom,20191202
2019-12-02,12:51,12:51 PM,68.51,68.495,68.499,28,1917.965,3,68.52,68.49,68.505,10307,706079.7894,53,68.495,68.51,68.5,68.52,,0.0006573181419807436,xom,20191202
2019-12-02,12:52,12:52 PM,68.52,68.505,68.505,212,14523.165,5,68.53,68.49,68.511,13963,956616.4585,80,68.505,68.52,68.51,68.527,,0.0007449605609115094,xom,20191202
2019-12-02,12:53,12:53 PM,68.525,68.49,68.519,630,43166.75,6,68.53,68.49,68.505,8734,598326.0085,57,68.52,68.49,68.52,68.493,,0.0006573181419807436,xom,20191202
2019-12-02,12:54,12:54 PM,68.5,68.49,68.492,360,24657.245,6,68.507,68.48,68.491,20673,1415922.153,87,68.495,68.49,68.5,68.49,,0.0004528191644756926,xom,20191202
2019-12-02,12:55,12:55 PM,68.505,68.49,68.498,203,13905.0,3,68.505,68.49,68.501,8720,597325.8099,35,68.49,68.5,68.49,68.5,,0.0005988898626937048,xom,20191202
2019-12-02,12:56,12:56 PM,68.505,68.49,68.49,214,14656.97,4,68.515,68.48,68.495,5632,385763.066,43,68.505,68.49,68.51,68.489,,0.000511247443762939,xom,20191202
2019-12-02,12:57,12:57 PM,68.5,68.49,68.494,93,6369.97,3,68.51,68.48,68.496,12001,822014.5481,67,68.49,68.5,68.49,68.5,,0.000525854513584595,xom,20191202
2019-12-02,12:58,12:58 PM,68.51,68.495,68.504,785,53776.0,8,68.53,68.49,68.504,19767,1354118.2908,86,68.5,68.5,68.5,68.5,,0.0006427110721590878,xom,20191202
2019-12-02,12:59,12:59 PM,68.52,68.48,68.515,117,8016.26,5,68.51,68.467,68.483,18969,1299056.1663,100,68.51,68.48,68.51,68.479,,0.00033596260590140737,xom,20191202
2019-12-02,13:00,1 PM,68.495,68.47,68.494,164,11233.005,3,68.5,68.46,68.476,11461,784807.8868,59,68.47,68.485,68.47,68.485,,0.00023371311714877804,xom,20191202
2019-12-02,13:01,1:01 PM,,,,0,0.0,0,68.49,68.46,68.475,4755,325598.4014,29,,,68.486,68.47,,0.00021910604732691455,xom,20191202
2019-12-02,13:02,1:02 PM,68.5,68.475,68.482,617,42253.2,5,68.53,68.475,68.499,8623,590668.3,51,68.48,68.5,68.48,68.52,,0.0005696757230499778,xom,20191202
2019-12-02,13:03,1:03 PM,68.535,68.51,68.523,743,50913.005,9,68.54,68.51,68.527,7157,490446.4918,50,68.535,68.51,68.53,68.51,,0.0009786736780602876,xom,20191202
2019-12-02,13:04,1:04 PM,68.51,68.49,68.498,412,28221.38,5,68.51,68.49,68.493,7659,524585.407,56,68.51,68.495,68.51,68.49,,0.000482033304119212,xom,20191202
2019-12-02,13:05,1:05 PM,68.465,68.465,68.465,4,273.86,1,68.5,68.46,68.48,9756,668094.763,65,68.465,68.465,68.5,68.48,,0.00029214139643602446,xom,20191202
2019-12-02,13:06,1:06 PM,68.485,68.485,68.485,200,13697.0,2,68.49,68.47,68.48,13232,906126.3575,86,68.485,68.485,68.48,68.48,,0.00029214139643602446,xom,20191202
2019-12-02,13:07,1:07 PM,68.495,68.485,68.487,423,28970.205,6,68.5,68.47,68.489,16102,1102803.6052,95,68.485,68.485,68.485,68.471,,0.0004236050248321732,xom,20191202
2019-12-02,13:08,1:08 PM,68.5,68.475,68.486,625,42804.0,8,68.5,68.475,68.487,9663,661787.5954,46,68.475,68.49,68.48,68.48,,0.0003943908851884462,xom,20191202
2019-12-02,13:09,1:09 PM,68.49,68.48,68.488,713,48831.985,8,68.49,68.48,68.484,9582,656214.5252,49,68.485,68.485,68.49,68.49,,0.0003505696757230633,xom,20191202
2019-12-02,13:10,1:10 PM,68.49,68.455,68.481,239,16367.045,5,68.49,68.45,68.469,13289,909891.08,76,68.49,68.455,68.49,68.46,,0.00013146362839614874,xom,20191202
2019-12-02,13:11,1:11 PM,68.48,68.465,68.465,202,13829.96,3,68.49,68.46,68.471,9653,660949.5582,41,68.465,68.48,68.465,68.486,,0.00016067776803987572,xom,20191202
2019-12-02,13:12,1:12 PM,68.53,68.49,68.508,533,36514.58,8,68.53,68.483,68.5,37662,2579832.3276,81,68.5,68.53,68.49,68.53,,0.0005842827928718413,xom,20191202
2019-12-02,13:13,1:13 PM,68.54,68.515,68.528,1345,92170.23,8,68.54,68.51,68.527,11117,761812.0578,68,68.535,68.515,68.53,68.515,,0.0009786736780602876,xom,20191202
2019-12-02,13:14,1:14 PM,68.535,68.535,68.535,100,6853.5,1,68.54,68.511,68.526,12101,829232.8571,60,68.535,68.535,68.52,68.536,,0.000964066608238424,xom,20191202
2019-12-02,13:15,1:15 PM,68.56,68.535,68.545,1414,96922.53,9,68.565,68.53,68.548,25136,1723025.5467,124,68.535,68.535,68.53,68.54,,0.0012854221443179678,xom,20191202
2019-12-02,13:16,1:16 PM,68.55,68.535,68.547,526,36055.91,4,68.55,68.54,68.546,16334,1119624.4895,90,68.535,68.55,68.54,68.55,,0.0012562080046744485,xom,20191202
2019-12-02,13:17,1:17 PM,68.55,68.545,68.545,308,21111.9,4,68.56,68.54,68.546,14106,966908.5175,70,68.545,68.545,68.55,68.555,,0.0012562080046744485,xom,20191202
2019-12-02,13:18,1:18 PM,68.57,68.555,68.564,935,64107.28,7,68.58,68.555,68.565,15549,1066114.8675,65,68.555,68.57,68.555,68.56,,0.001533742331288402,xom,20191202
2019-12-02,13:19,1:19 PM,68.575,68.56,68.565,209,14330.12,6,68.58,68.56,68.572,12600,864008.6517,65,68.565,68.575,68.569,68.575,,0.0016359918200410312,xom,20191202
2019-12-02,13:20,1:20 PM,68.58,68.565,68.577,208,14264.05,5,68.58,68.56,68.572,8426,577787.293,38,68.58,68.57,68.576,68.57,,0.0016359918200410312,xom,20191202
2019-12-02,13:21,1:21 PM,68.575,68.56,68.574,312,21395.22,2,68.58,68.55,68.572,16602,1138431.8395,86,68.575,68.56,68.568,68.55,,0.0016359918200410312,xom,20191202
2019-12-02,13:22,1:22 PM,68.555,68.555,68.555,100,6855.5,1,68.58,68.55,68.565,9600,658221.21,63,68.555,68.555,68.56,68.57,,0.001533742331288402,xom,20191202
2019-12-02,13:23,1:23 PM,68.565,68.565,68.565,300,20569.5,1,68.59,68.564,68.575,15675,1074920.3004,97,68.565,68.565,68.57,68.583,,0.001679813029506414,xom,20191202
2019-12-02,13:24,1:24 PM,68.6,68.6,68.6,3,205.8,1,68.61,68.58,68.602,6472,443989.7455,40,68.6,68.6,68.58,68.605,,0.0020742039146948604,xom,20191202
2019-12-02,13:25,1:25 PM,,,,0,0.0,0,68.63,68.606,68.615,7394,507340.8596,52,,,68.606,68.625,,0.002264095822378048,xom,20191202
2019-12-02,13:26,1:26 PM,68.645,68.635,68.64,737,50587.665,11,68.65,68.623,68.636,15196,1042986.8676,59,68.635,68.64,68.623,68.64,,0.0025708442886357282,xom,20191202
2019-12-02,13:27,1:27 PM,68.66,68.645,68.654,514,35288.045,3,68.66,68.64,68.653,8315,570847.0405,52,68.66,68.645,68.647,68.645,,0.0028191644756063697,xom,20191202
2019-12-02,13:28,1:28 PM,68.645,68.645,68.645,100,6864.5,1,68.65,68.64,68.643,6378,437803.2563,35,68.645,68.645,68.64,68.644,,0.0026730937773883573,xom,20191202
2019-12-02,13:29,1:29 PM,68.65,68.64,68.647,209,14347.26,3,68.66,68.634,68.645,10843,744317.9911,62,68.645,68.65,68.641,68.66,,0.002702307917031877,xom,20191202
2019-12-02,13:30,1:30 PM,68.655,68.635,68.647,500,34323.5,3,68.66,68.61,68.638,14804,1016117.74,75,68.655,68.635,68.65,68.61,,0.002600058428279455,xom,20191202
2019-12-02,13:31,1:31 PM,68.62,68.61,68.612,10,686.12,3,68.625,68.6,68.612,5193,356303.2808,34,68.61,68.62,68.61,68.62,,0.002220274612912665,xom,20191202
2019-12-02,13:32,1:32 PM,68.64,68.64,68.64,3,205.92,1,68.64,68.62,68.627,6821,468108.809,39,68.64,68.64,68.62,68.64,,0.0024393806602395793,xom,20191202
2019-12-02,13:33,1:33 PM,68.645,68.645,68.645,1368,93906.36,7,68.65,68.64,68.646,4475,307192.305,26,68.645,68.645,68.64,68.645,,0.00271691498685374,xom,20191202
2019-12-02,13:34,1:34 PM,68.635,68.635,68.635,100,6863.5,1,68.65,68.625,68.636,13307,913339.9093,89,68.635,68.635,68.645,68.65,,0.0025708442886357282,xom,20191202
2019-12-02,13:35,1:35 PM,68.63,68.63,68.63,2,137.26,2,68.65,68.63,68.638,11430,784532.3821,61,68.63,68.63,68.645,68.635,,0.002600058428279455,xom,20191202
2019-12-02,13:36,1:36 PM,68.635,68.62,68.634,208,14275.97,4,68.635,68.62,68.629,18717,1284528.5708,107,68.635,68.635,68.635,68.625,,0.0024685947998833065,xom,20191202
2019-12-02,13:37,1:37 PM,,,,0,0.0,0,68.635,68.62,68.628,6119,419932.6088,33,,,68.63,68.63,,0.002453987730061443,xom,20191202
2019-12-02,13:38,1:38 PM,68.635,68.63,68.635,201,13795.63,3,68.64,68.625,68.635,4992,342626.602,31,68.63,68.635,68.625,68.635,,0.002556237218814072,xom,20191202
2019-12-02,13:39,1:39 PM,68.645,68.63,68.644,109,7482.2,3,68.647,68.63,68.639,7374,506146.0786,37,68.63,68.645,68.635,68.64,,0.002614665498101111,xom,20191202
2019-12-02,13:40,1:40 PM,68.64,68.63,68.638,27,1853.235,3,68.65,68.631,68.641,7793,534919.4504,49,68.635,68.64,68.638,68.65,,0.002643879637744838,xom,20191202
2019-12-02,13:41,1:41 PM,68.66,68.64,68.645,132,9061.15,6,68.67,68.64,68.649,10580,726310.6674,39,68.645,68.66,68.645,68.664,,0.0027607361963191235,xom,20191202
2019-12-02,13:42,1:42 PM,68.67,68.67,68.67,102,7004.34,2,68.68,68.66,68.67,10803,741845.1626,53,68.67,68.67,68.665,68.67,,0.003067484662576804,xom,20191202
2019-12-02,13:43,1:43 PM,68.67,68.66,68.667,205,14076.8,3,68.675,68.661,68.666,7630,523925.173,42,68.67,68.66,68.67,68.67,,0.003009056383289557,xom,20191202
2019-12-02,13:44,1:44 PM,68.675,68.67,68.674,111,7622.87,3,68.68,68.66,68.67,15178,1042278.492,45,68.67,68.67,68.67,68.68,,0.003067484662576804,xom,20191202
2019-12-02,13:45,1:45 PM,68.665,68.64,68.65,125,8581.19,5,68.675,68.63,68.665,30666,2105667.6615,104,68.665,68.65,68.67,68.645,,0.0029944493134679015,xom,20191202
2019-12-02,13:46,1:46 PM,68.685,68.645,68.683,104,7143.08,2,68.69,68.64,68.668,12254,841457.2149,78,68.645,68.685,68.64,68.68,,0.0030382705229332844,xom,20191202
2019-12-02,13:47,1:47 PM,68.685,68.675,68.68,600,41208.0,6,68.69,68.66,68.676,5888,404364.7232,34,68.675,68.675,68.675,68.69,,0.0031551270815075695,xom,20191202
2019-12-02,13:48,1:48 PM,68.695,68.68,68.685,459,31526.495,6,68.7,68.68,68.685,10126,695503.7161,53,68.685,68.685,68.685,68.68,,0.003286590709903718,xom,20191202
2019-12-02,13:49,1:49 PM,68.695,68.695,68.695,100,6869.5,1,68.7,68.685,68.693,8540,586639.5118,40,68.695,68.695,68.685,68.696,,0.0034034472684780033,xom,20191202
2019-12-02,13:50,1:50 PM,68.695,68.69,68.694,341,23424.79,5,68.702,68.68,68.691,8268,567933.2832,46,68.695,68.695,68.695,68.684,,0.003374233128834484,xom,20191202
2019-12-02,13:51,1:51 PM,68.69,68.665,68.686,129,8860.465,5,68.7,68.665,68.681,12521,859950.4877,64,68.67,68.69,68.67,68.697,,0.003228162430616472,xom,20191202
2019-12-02,13:52,1:52 PM,68.705,68.69,68.697,216,14838.61,8,68.709,68.691,68.7,5563,382175.66,35,68.695,68.69,68.695,68.695,,0.003505696757230633,xom,20191202
2019-12-02,13:53,1:53 PM,68.695,68.675,68.687,7,480.81,3,68.7,68.68,68.692,7468,512994.7906,39,68.695,68.675,68.693,68.68,,0.00338884019865614,xom,20191202
2019-12-02,13:54,1:54 PM,68.695,68.685,68.688,3,206.065,3,68.7,68.68,68.686,5451,374408.0174,39,68.685,68.695,68.68,68.7,,0.0033011977797255815,xom,20191202
2019-12-02,13:55,1:55 PM,68.695,68.685,68.695,335,23012.66,6,68.705,68.68,68.694,6043,415118.2,38,68.695,68.685,68.7,68.685,,0.003418054338299867,xom,20191202
2019-12-02,13:56,1:56 PM,68.685,68.66,68.674,320,21975.805,8,68.69,68.66,68.677,4779,328206.465,38,68.685,68.665,68.686,68.66,,0.003169734151329433,xom,20191202
2019-12-02,13:57,1:57 PM,68.645,68.635,68.64,113,7756.355,5,68.665,68.63,68.641,4883,335172.795,42,68.645,68.635,68.66,68.63,,0.002643879637744838,xom,20191202
2019-12-02,13:58,1:58 PM,68.645,68.645,68.645,40,2745.8,1,68.66,68.63,68.647,5487,376664.5429,38,68.645,68.645,68.63,68.655,,0.002731522056675604,xom,20191202
2019-12-02,13:59,1:59 PM,68.665,68.65,68.661,164,11260.42,5,68.67,68.653,68.66,5571,382505.2147,29,68.665,68.66,68.658,68.66,,0.0029214139643587915,xom,20191202
2019-12-02,14:00,2 PM,68.65,68.64,68.646,180,12356.35,3,68.66,68.64,68.649,10512,721642.5385,68,68.65,68.64,68.654,68.648,,0.0027607361963191235,xom,20191202
2019-12-02,14:01,2:01 PM,68.66,68.65,68.652,131,8993.46,2,68.665,68.65,68.657,7982,548020.778,51,68.65,68.66,68.65,68.656,,0.0028775927548934086,xom,20191202
2019-12-02,14:02,2:02 PM,68.64,68.615,68.625,327,22440.28,5,68.66,68.61,68.633,22348,1533817.6741,108,68.64,68.615,68.65,68.615,,0.0025270230791703454,xom,20191202
2019-12-02,14:03,2:03 PM,68.625,68.61,68.614,1309,89815.08,11,68.625,68.61,68.616,21717,1490132.5048,115,68.62,68.615,68.62,68.62,,0.0022787028921999112,xom,20191202
2019-12-02,14:04,2:04 PM,68.615,68.605,68.609,800,54887.0,5,68.62,68.595,68.606,16220,1112786.0208,92,68.605,68.605,68.615,68.605,,0.002132632193981899,xom,20191202
2019-12-02,14:05,2:05 PM,68.575,68.575,68.575,200,13715.0,1,68.605,68.57,68.581,7491,513742.9389,50,68.575,68.575,68.605,68.575,,0.0017674554484371798,xom,20191202
2019-12-02,14:06,2:06 PM,68.575,68.57,68.573,500,34286.5,4,68.58,68.55,68.57,10179,697978.707,63,68.575,68.57,68.58,68.555,,0.0016067776803973042,xom,20191202
2019-12-02,14:07,2:07 PM,68.565,68.55,68.555,400,27422.0,4,68.57,68.545,68.556,24748,1696625.3205,102,68.55,68.565,68.556,68.565,,0.0014022787028922532,xom,20191202
2019-12-02,14:08,2:08 PM,68.555,68.555,68.555,100,6855.5,1,68.57,68.55,68.556,10143,695361.5029,68,68.555,68.555,68.56,68.565,,0.0014022787028922532,xom,20191202
2019-12-02,14:09,2:09 PM,,,,0,0.0,0,68.585,68.56,68.57,7572,519215.1212,46,,,68.56,68.566,,0.0016067776803973042,xom,20191202
2019-12-02,14:10,2:10 PM,68.575,68.57,68.572,15,1028.575,2,68.585,68.565,68.574,12516,858269.1915,61,68.575,68.57,68.565,68.57,,0.0016652059596845505,xom,20191202
2019-12-02,14:11,2:11 PM,68.6,68.585,68.585,119,8161.63,4,68.6,68.575,68.59,10759,737955.8955,68,68.585,68.6,68.575,68.6,,0.0018989190768333285,xom,20191202
2019-12-02,14:12,2:12 PM,68.625,68.625,68.625,200,13725.0,2,68.63,68.6,68.616,11627,797798.595,74,68.625,68.625,68.6,68.615,,0.0022787028921999112,xom,20191202
2019-12-02,14:13,2:13 PM,68.61,68.595,68.603,180,12348.6,3,68.625,68.59,68.599,12149,833411.8472,81,68.61,68.595,68.62,68.595,,0.0020303827052294775,xom,20191202
2019-12-02,14:14,2:14 PM,68.58,68.58,68.58,3,205.74,1,68.6,68.57,68.582,11307,775463.3054,66,68.58,68.58,68.6,68.575,,0.0017820625182588359,xom,20191202
2019-12-02,14:15,2:15 PM,68.575,68.56,68.57,421,28867.87,7,68.575,68.555,68.568,9201,630894.292,48,68.575,68.56,68.575,68.555,,0.0015775635407537848,xom,20191202
2019-12-02,14:16,2:16 PM,68.555,68.555,68.555,20,1371.1,1,68.565,68.55,68.556,6395,438417.6205,35,68.555,68.555,68.555,68.555,,0.0014022787028922532,xom,20191202
2019-12-02,14:17,2:17 PM,68.555,68.52,68.555,410,28107.365,8,68.555,68.51,68.529,10378,711200.1781,75,68.555,68.52,68.555,68.525,,0.0010078878177038069,xom,20191202
2019-12-02,14:18,2:18 PM,68.525,68.515,68.524,122,8359.95,3,68.54,68.515,68.53,22230,1523424.352,60,68.515,68.525,68.527,68.53,,0.0010224948875256705,xom,20191202
2019-12-02,14:19,2:19 PM,68.54,68.535,68.537,200,13707.5,2,68.545,68.53,68.536,8828,605036.63,50,68.54,68.535,68.53,68.535,,0.0011101373064564362,xom,20191202
2019-12-02,14:20,2:20 PM,68.535,68.53,68.534,733,50235.655,6,68.54,68.52,68.53,10197,698801.1183,66,68.535,68.535,68.535,68.525,,0.0010224948875256705,xom,20191202
2019-12-02,14:21,2:21 PM,68.525,68.505,68.517,4438,304080.21,8,68.53,68.5,68.518,27096,1856554.7442,122,68.52,68.505,68.52,68.525,,0.0008472100496641387,xom,20191202
2019-12-02,14:22,2:22 PM,68.575,68.555,68.573,5100,349720.0,8,68.585,68.53,68.561,19703,1350869.0995,95,68.555,68.575,68.53,68.575,,0.001475314052001363,xom,20191202
2019-12-02,14:23,2:23 PM,68.59,68.575,68.584,1221,83740.575,10,68.59,68.57,68.581,9129,626073.451,48,68.575,68.585,68.575,68.59,,0.0017674554484371798,xom,20191202
2019-12-02,14:24,2:24 PM,68.61,68.595,68.609,107,7341.225,4,68.625,68.59,68.603,15457,1060396.72,93,68.61,68.61,68.6,68.625,,0.002088810984516516,xom,20191202
2019-12-02,14:25,2:25 PM,68.63,68.615,68.629,110,7549.15,2,68.63,68.61,68.621,8585,589113.76,45,68.615,68.63,68.62,68.625,,0.0023517382413088136,xom,20191202
2019-12-02,14:26,2:26 PM,68.635,68.615,68.628,158,10843.17,3,68.635,68.61,68.627,18641,1279271.7916,85,68.635,68.615,68.625,68.61,,0.0024393806602395793,xom,20191202
2019-12-02,14:27,2:27 PM,68.61,68.595,68.601,214,14680.54,4,68.62,68.59,68.603,9304,638283.8875,53,68.61,68.595,68.61,68.6,,0.002088810984516516,xom,20191202
2019-12-02,14:28,2:28 PM,,,,0,0.0,0,68.63,68.605,68.62,10027,688049.88,55,,,68.605,68.624,,0.0023371311714871575,xom,20191202
2019-12-02,14:29,2:29 PM,68.645,68.63,68.638,200,13727.5,2,68.645,68.62,68.635,16923,1161515.5888,83,68.645,68.63,68.62,68.62,,0.002556237218814072,xom,20191202
2019-12-02,14:30,2:30 PM,,,,0,0.0,0,68.645,68.62,68.628,16921,1161262.5542,51,,,68.63,68.62,,0.002453987730061443,xom,20191202
2019-12-02,14:31,2:31 PM,68.625,68.605,68.614,731,50156.63,11,68.63,68.6,68.609,18836,1292317.6682,49,68.62,68.615,68.63,68.615,,0.002176453403447282,xom,20191202
2019-12-02,14:32,2:32 PM,,,,0,0.0,0,68.63,68.61,68.62,4700,322515.8628,28,,,68.613,68.63,,0.0023371311714871575,xom,20191202
2019-12-02,14:33,2:33 PM,,,,0,0.0,0,68.64,68.625,68.635,12276,842566.745,48,,,68.625,68.63,,0.002556237218814072,xom,20191202
2019-12-02,14:34,2:34 PM,68.635,68.635,68.635,200,13727.0,2,68.64,68.63,68.635,89273,6127236.7215,61,68.635,68.635,68.635,68.63,,0.002556237218814072,xom,20191202
2019-12-02,14:35,2:35 PM,68.64,68.625,68.632,617,42346.21,10,68.64,68.613,68.624,10857,745056.3906,50,68.64,68.625,68.64,68.625,,0.0023955594507741964,xom,20191202
2019-12-02,14:36,2:36 PM,68.62,68.62,68.62,172,11802.64,6,68.63,68.61,68.617,5727,392971.9138,29,68.62,68.62,68.62,68.615,,0.0022933099620217746,xom,20191202
2019-12-02,14:37,2:37 PM,68.62,68.62,68.62,102,6999.24,2,68.625,68.61,68.615,12910,885823.78,49,68.62,68.62,68.615,68.615,,0.002264095822378048,xom,20191202
2019-12-02,14:38,2:38 PM,68.62,68.615,68.617,238,16330.87,4,68.62,68.61,68.615,9413,645877.305,43,68.615,68.615,68.615,68.62,,0.002264095822378048,xom,20191202
2019-12-02,14:39,2:39 PM,68.66,68.645,68.65,397,27254.05,6,68.66,68.62,68.645,19730,1354364.5853,95,68.66,68.645,68.629,68.645,,0.002702307917031877,xom,20191202
2019-12-02,14:40,2:40 PM,68.665,68.665,68.665,5,343.325,2,68.68,68.648,68.664,16611,1140574.0596,69,68.665,68.665,68.65,68.67,,0.0029798422436460377,xom,20191202
2019-12-02,14:41,2:41 PM,68.665,68.65,68.653,157,10778.565,6,68.676,68.655,68.662,11708,803896.437,70,68.65,68.665,68.67,68.676,,0.0029506281040025182,xom,20191202
2019-12-02,14:42,2:42 PM,68.685,68.685,68.685,100,6868.5,1,68.69,68.675,68.682,16238,1115252.4037,60,68.685,68.685,68.675,68.685,,0.0032427695004383352,xom,20191202
2019-12-02,14:43,2:43 PM,68.685,68.685,68.685,100,6868.5,1,68.7,68.683,68.688,4245,291578.7052,30,68.685,68.685,68.685,68.695,,0.003330411919369101,xom,20191202
2019-12-02,14:44,2:44 PM,68.685,68.685,68.685,30,2060.55,1,68.695,68.68,68.691,11150,765901.7795,68,68.685,68.685,68.695,68.69,,0.003374233128834484,xom,20191202
2019-12-02,14:45,2:45 PM,68.7,68.69,68.7,3140,215717.6,5,68.71,68.68,68.698,18947,1301613.0978,86,68.69,68.7,68.69,68.705,,0.0034764826175869056,xom,20191202
2019-12-02,14:46,2:46 PM,68.705,68.69,68.704,110,7557.4,3,68.71,68.685,68.697,13194,906384.8417,86,68.705,68.69,68.705,68.7,,0.00346187554776525,xom,20191202
2019-12-02,14:47,2:47 PM,,,,0,0.0,0,68.74,68.71,68.72,5927,407304.1166,39,,,68.71,68.74,,0.00379783815366645,xom,20191202
2019-12-02,14:48,2:48 PM,68.735,68.725,68.73,2171,149213.59,22,68.74,68.72,68.733,22707,1560716.7203,97,68.73,68.725,68.738,68.725,,0.003987730061349845,xom,20191202
2019-12-02,14:49,2:49 PM,68.735,68.72,68.726,492,33813.24,5,68.74,68.72,68.73,6105,419597.1343,40,68.725,68.735,68.72,68.736,,0.003943908851884462,xom,20191202
2019-12-02,14:50,2:50 PM,68.735,68.725,68.734,1673,114991.655,16,68.74,68.725,68.733,12398,852149.0581,88,68.735,68.725,68.73,68.73,,0.003987730061349845,xom,20191202
2019-12-02,14:51,2:51 PM,68.73,68.725,68.725,209,14363.57,3,68.74,68.72,68.727,11999,824652.9408,52,68.725,68.73,68.72,68.733,,0.003900087642419079,xom,20191202
2019-12-02,14:52,2:52 PM,68.74,68.735,68.735,503,34573.72,6,68.74,68.73,68.735,9701,666795.877,41,68.735,68.735,68.73,68.74,,0.004016944200993364,xom,20191202
2019-12-02,14:53,2:53 PM,68.745,68.73,68.737,1209,83103.695,17,68.75,68.725,68.74,29165,2004808.413,158,68.745,68.735,68.74,68.75,,0.004089979550102266,xom,20191202
2019-12-02,14:54,2:54 PM,68.755,68.74,68.746,1617,111161.9,22,68.755,68.74,68.746,16391,1126821.701,101,68.755,68.745,68.75,68.745,,0.004177621969033032,xom,20191202
2019-12-02,14:55,2:55 PM,68.775,68.77,68.772,812,55843.24,7,68.78,68.751,68.764,13510,929000.8959,59,68.77,68.775,68.755,68.775,,0.00444054922582533,xom,20191202
2019-12-02,14:56,2:56 PM,68.795,68.77,68.784,914,62868.295,12,68.795,68.76,68.778,20263,1393647.8072,129,68.775,68.785,68.775,68.79,,0.004645048203330588,xom,20191202
2019-12-02,14:57,2:57 PM,68.795,68.78,68.788,852,58607.205,8,68.8,68.78,68.789,6449,443619.256,46,68.785,68.795,68.78,68.8,,0.004805725971370256,xom,20191202
2019-12-02,14:58,2:58 PM,68.785,68.775,68.785,440,30265.38,12,68.8,68.77,68.786,17910,1231950.9292,112,68.785,68.775,68.795,68.77,,0.004761904761904873,xom,20191202
2019-12-02,14:59,2:59 PM,,,,0,0.0,0,68.785,68.77,68.777,10350,711843.272,44,,,68.775,68.775,,0.004630441133508725,xom,20191202
2019-12-02,15:00,3 PM,68.78,68.77,68.773,430,29572.4,5,68.79,68.76,68.773,13979,961374.376,90,68.77,68.775,68.78,68.77,,0.004572012854221479,xom,20191202
2019-12-02,15:01,3:01 PM,68.765,68.74,68.758,150,10313.7,6,68.766,68.74,68.755,12704,873463.588,70,68.765,68.74,68.76,68.75,,0.004309085597429181,xom,20191202
2019-12-02,15:02,3:02 PM,68.76,68.725,68.743,1278,87853.81,10,68.76,68.715,68.736,12654,869780.7673,75,68.76,68.725,68.755,68.723,,0.004031551270815227,xom,20191202
2019-12-02,15:03,3:03 PM,68.75,68.725,68.735,308,21170.47,6,68.75,68.72,68.739,8921,613222.7754,59,68.725,68.74,68.72,68.73,,0.00407537248028061,xom,20191202
2019-12-02,15:04,3:04 PM,68.74,68.735,68.735,413,28387.62,3,68.75,68.725,68.739,9652,663468.466,72,68.74,68.735,68.74,68.725,,0.00407537248028061,xom,20191202
2019-12-02,15:05,3:05 PM,68.725,68.705,68.713,521,35799.725,7,68.73,68.7,68.716,15205,1044824.0132,76,68.72,68.705,68.725,68.7,,0.003739409874379203,xom,20191202
2019-12-02,15:06,3:06 PM,68.71,68.69,68.694,239,16417.89,5,68.714,68.68,68.693,16297,1119493.7882,90,68.71,68.69,68.71,68.684,,0.0034034472684780033,xom,20191202
2019-12-02,15:07,3:07 PM,68.675,68.67,68.672,202,13871.85,3,68.688,68.65,68.667,15535,1066742.018,87,68.675,68.675,68.688,68.675,,0.0030236634531114206,xom,20191202
2019-12-02,15:08,3:08 PM,68.675,68.675,68.675,200,13735.0,2,68.68,68.67,68.675,10257,704395.4273,39,68.675,68.675,68.68,68.674,,0.003140520011685706,xom,20191202
2019-12-02,15:09,3:09 PM,68.69,68.68,68.684,510,35028.9,8,68.69,68.67,68.682,7328,503301.912,48,68.68,68.685,68.675,68.685,,0.0032427695004383352,xom,20191202
2019-12-02,15:10,3:10 PM,68.68,68.675,68.677,167,11469.06,3,68.68,68.665,68.675,15694,1077784.9142,79,68.68,68.675,68.68,68.665,,0.003140520011685706,xom,20191202
2019-12-02,15:11,3:11 PM,68.67,68.645,68.667,1041,71482.76,12,68.68,68.64,68.666,17597,1208318.0899,114,68.67,68.645,68.68,68.643,,0.003009056383289557,xom,20191202
2019-12-02,15:12,3:12 PM,68.645,68.62,68.633,440,30198.395,11,68.65,68.615,68.63,11898,816563.652,77,68.645,68.62,68.65,68.615,,0.002483201869704962,xom,20191202
2019-12-02,15:13,3:13 PM,68.61,68.585,68.592,960,65848.38,7,68.62,68.58,68.592,26121,1791704.4993,150,68.61,68.59,68.62,68.585,,0.001928133216476848,xom,20191202
2019-12-02,15:14,3:14 PM,68.59,68.58,68.583,873,59873.2,6,68.597,68.57,68.584,17149,1176149.0947,93,68.59,68.59,68.59,68.59,,0.0018112766579025628,xom,20191202
2019-12-02,15:15,3:15 PM,68.575,68.575,68.575,100,6857.5,1,68.58,68.57,68.574,4313,295759.7546,24,68.575,68.575,68.58,68.574,,0.0016652059596845505,xom,20191202
2019-12-02,15:16,3:16 PM,68.585,68.575,68.58,204,13990.325,5,68.59,68.57,68.579,11965,820543.8576,78,68.575,68.58,68.573,68.573,,0.0017382413087934528,xom,20191202
2019-12-02,15:17,3:17 PM,68.57,68.555,68.559,25,1713.975,3,68.575,68.55,68.56,11056,758003.4645,56,68.57,68.555,68.575,68.56,,0.0014607069821794994,xom,20191202
2019-12-02,15:18,3:18 PM,68.59,68.59,68.59,200,13718.0,1,68.59,68.56,68.575,10908,748012.9195,47,68.59,68.59,68.56,68.587,,0.001679813029506414,xom,20191202
2019-12-02,15:19,3:19 PM,68.595,68.585,68.592,524,35942.27,7,68.6,68.58,68.591,23380,1603652.6855,81,68.585,68.59,68.58,68.58,,0.0019135261466549844,xom,20191202
2019-12-02,15:20,3:20 PM,68.585,68.555,68.565,512,35105.16,7,68.585,68.55,68.567,20794,1425779.8499,103,68.585,68.555,68.585,68.555,,0.0015629564709319212,xom,20191202
2019-12-02,15:21,3:21 PM,68.56,68.515,68.53,584,40021.695,17,68.555,68.51,68.531,22532,1544153.7357,94,68.56,68.515,68.555,68.514,,0.0010371019573475338,xom,20191202
2019-12-02,15:22,3:22 PM,68.53,68.505,68.517,408,27955.12,10,68.53,68.5,68.513,26464,1813127.3825,142,68.515,68.505,68.519,68.505,,0.0007741747005552364,xom,20191202
2019-12-02,15:23,3:23 PM,68.505,68.475,68.489,336,23012.3,10,68.51,68.474,68.491,23791,1629463.0068,79,68.505,68.475,68.505,68.475,,0.0004528191644756926,xom,20191202
2019-12-02,15:24,3:24 PM,68.485,68.465,68.471,423,28963.435,14,68.497,68.46,68.477,16114,1103432.899,96,68.475,68.485,68.475,68.497,,0.00024832018697064156,xom,20191202
2019-12-02,15:25,3:25 PM,68.495,68.475,68.485,314,21504.26,10,68.495,68.47,68.483,31335,2145906.2642,169,68.49,68.485,68.492,68.47,,0.00033596260590140737,xom,20191202
2019-12-02,15:26,3:26 PM,68.49,68.47,68.48,532,36431.195,9,68.5,68.468,68.481,17921,1227255.94,114,68.475,68.485,68.474,68.495,,0.0003067484662576804,xom,20191202
2019-12-02,15:27,3:27 PM,68.505,68.49,68.501,327,22399.79,11,68.51,68.49,68.5,29704,2034738.2811,155,68.495,68.505,68.494,68.505,,0.0005842827928718413,xom,20191202
2019-12-02,15:28,3:28 PM,68.52,68.495,68.509,542,37132.095,15,68.52,68.49,68.505,21899,1500202.7562,118,68.51,68.5,68.51,68.5,,0.0006573181419807436,xom,20191202
2019-12-02,15:29,3:29 PM,68.5,68.48,68.488,1052,72049.895,9,68.505,68.48,68.489,20808,1425129.1393,92,68.5,68.49,68.5,68.495,,0.0004236050248321732,xom,20191202
2019-12-02,15:30,3:30 PM,68.5,68.485,68.488,203,13903.0,3,68.51,68.485,68.496,13624,933183.23,85,68.49,68.5,68.495,68.51,,0.000525854513584595,xom,20191202
2019-12-02,15:31,3:31 PM,68.505,68.505,68.505,200,13701.0,1,68.51,68.49,68.5,11094,759940.8782,65,68.505,68.505,68.5,68.49,,0.0005842827928718413,xom,20191202
2019-12-02,15:32,3:32 PM,68.52,68.5,68.507,1231,84331.59,6,68.525,68.497,68.511,20570,1409282.9632,104,68.5,68.52,68.497,68.52,,0.0007449605609115094,xom,20191202
2019-12-02,15:33,3:33 PM,68.525,68.51,68.517,487,33368.055,8,68.53,68.51,68.518,22689,1554614.9506,107,68.51,68.52,68.52,68.52,,0.0008472100496641387,xom,20191202
2019-12-02,15:34,3:34 PM,68.535,68.52,68.535,136,9320.745,5,68.543,68.515,68.529,16463,1128202.6312,96,68.52,68.535,68.52,68.54,,0.0010078878177038069,xom,20191202
2019-12-02,15:35,3:35 PM,68.53,68.49,68.516,316,21651.24,6,68.535,68.49,68.501,36996,2534276.7784,144,68.53,68.49,68.535,68.49,,0.0005988898626937048,xom,20191202
2019-12-02,15:36,3:36 PM,68.52,68.5,68.511,189,12948.6,3,68.53,68.48,68.511,15344,1051237.994,83,68.5,68.52,68.49,68.52,,0.0007449605609115094,xom,20191202
2019-12-02,15:37,3:37 PM,68.535,68.505,68.52,1791,122719.13,11,68.545,68.5,68.52,37717,2584370.083,207,68.515,68.52,68.515,68.53,,0.0008764241893076582,xom,20191202
2019-12-02,15:38,3:38 PM,,,,0,0.0,0,68.56,68.52,68.537,27994,1918624.0044,143,,,68.53,68.525,,0.0011247443762782998,xom,20191202
2019-12-02,15:39,3:39 PM,68.535,68.52,68.533,118,8086.86,4,68.54,68.5,68.523,15314,1049361.6348,102,68.535,68.52,68.53,68.51,,0.000920245398773041,xom,20191202
2019-12-02,15:40,3:40 PM,68.505,68.5,68.502,322,22057.59,7,68.54,68.5,68.515,16376,1122005.6383,103,68.505,68.5,68.51,68.54,,0.0008033888401987559,xom,20191202
2019-12-02,15:41,3:41 PM,68.54,68.51,68.526,281,19255.765,6,68.54,68.51,68.525,20748,1421746.3701,117,68.535,68.51,68.54,68.51,,0.0009494595384167681,xom,20191202
2019-12-02,15:42,3:42 PM,68.52,68.515,68.517,200,13703.5,3,68.54,68.51,68.531,14359,984036.6203,111,68.515,68.52,68.51,68.54,,0.0010371019573475338,xom,20191202
2019-12-02,15:43,3:43 PM,68.56,68.56,68.56,410,28109.6,3,68.57,68.535,68.557,23434,1606559.4761,155,68.56,68.56,68.54,68.57,,0.0014168857727141165,xom,20191202
2019-12-02,15:44,3:44 PM,68.59,68.58,68.585,200,13717.0,2,68.61,68.561,68.586,23519,1613071.6445,157,68.59,68.58,68.57,68.575,,0.001840490797546082,xom,20191202
2019-12-02,15:45,3:45 PM,68.615,68.58,68.591,710,48699.8,4,68.62,68.57,68.596,22325,1531402.0495,137,68.58,68.615,68.575,68.6,,0.0019865614957640942,xom,20191202
2019-12-02,15:46,3:46 PM,68.6,68.56,68.575,2017,138316.49,21,68.6,68.56,68.579,33241,2279621.1304,228,68.595,68.59,68.596,68.59,,0.0017382413087934528,xom,20191202
2019-12-02,15:47,3:47 PM,68.59,68.565,68.575,695,47659.675,7,68.6,68.56,68.582,44637,3061293.0477,299,68.59,68.565,68.59,68.565,,0.0017820625182588359,xom,20191202
2019-12-02,15:48,3:48 PM,68.565,68.555,68.562,233,15974.945,5,68.58,68.554,68.567,29738,2039035.8501,191,68.56,68.565,68.57,68.56,,0.0015629564709319212,xom,20191202
2019-12-02,15:49,3:49 PM,68.575,68.56,68.574,324,22217.97,6,68.58,68.56,68.572,24261,1663624.7646,155,68.575,68.56,68.56,68.57,,0.0016359918200410312,xom,20191202
2019-12-02,15:50,3:50 PM,68.56,68.505,68.528,2480,169950.675,32,68.561,68.505,68.53,70404,4824807.3725,415,68.56,68.53,68.561,68.51,,0.0010224948875256705,xom,20191202
2019-12-02,15:51,3:51 PM,68.505,68.49,68.496,956,65482.28,10,68.52,68.48,68.501,45041,3085368.8662,282,68.495,68.505,68.51,68.51,,0.0005988898626937048,xom,20191202
2019-12-02,15:52,3:52 PM,68.52,68.485,68.501,640,43840.61,10,68.53,68.484,68.507,33026,2262515.8158,213,68.51,68.49,68.5,68.484,,0.0006865322816244706,xom,20191202
2019-12-02,15:53,3:53 PM,68.49,68.455,68.481,842,57661.475,15,68.5,68.455,68.481,39251,2687929.3658,239,68.485,68.455,68.486,68.46,,0.0003067484662576804,xom,20191202
2019-12-02,15:54,3:54 PM,68.47,68.43,68.454,1040,71192.12,8,68.48,68.43,68.458,62712,4293154.6634,295,68.46,68.435,68.46,68.446,,-2.9214139643519413e-05,xom,20191202
2019-12-02,15:55,3:55 PM,68.495,68.44,68.463,2170,148563.97,16,68.5,68.43,68.467,59757,4091370.916,348,68.44,68.475,68.44,68.47,,0.00010224948875262931,xom,20191202
2019-12-02,15:56,3:56 PM,68.47,68.44,68.454,2820,193040.57,20,68.49,68.44,68.458,90077,6166482.745,538,68.455,68.45,68.46,68.455,,-2.9214139643519413e-05,xom,20191202
2019-12-02,15:57,3:57 PM,68.45,68.395,68.425,2966,202949.51,20,68.46,68.39,68.42,99550,6811246.8422,542,68.45,68.4,68.45,68.4,,-0.0005842827928716338,xom,20191202
2019-12-02,15:58,3:58 PM,68.415,68.38,68.402,2099,143575.73,21,68.44,68.37,68.396,122434,8374033.9981,580,68.4,68.4,68.4,68.39,,-0.000934852468594697,xom,20191202
2019-12-02,15:59,3:59 PM,68.48,68.385,68.439,3573,244532.12,28,68.48,68.37,68.427,459336,31430877.3916,1818,68.39,68.42,68.39,68.44,,-0.00048203330411900443,xom,20191202
